model	E_kin	D	U	e	eb1_1	eb2_1	eb3_1	eb4_1	eb5_1	eb6_1	eb7_1	eb8_1	mu	sb1_1	sb2_1	sb3_1	sb4_1	sb5_1	sb6_1	sb7_1	sb8_1	tb1_1	tb2_1	tb3_1	tb4_1	tb5_1	tb6_1	tb7_1	tb8_1	tpd	tpp	tppp	ave_D	ave_e	ave_mu	ave_tpd	ave_tpp	ave_tppp	ave_U_1	ave_eb1_1	ave_eb2_1	ave_eb3_1	ave_eb4_1	ave_eb5_1	ave_eb6_1	ave_eb7_1	ave_eb8_1	ave_mu_1	ave_sb1_1	ave_sb2_1	ave_sb3_1	ave_sb4_1	ave_sb5_1	ave_sb6_1	ave_sb7_1	ave_sb8_1	ave_tb1_1	ave_tb2_1	ave_tb3_1	ave_tb4_1	ave_tb5_1	ave_tb6_1	ave_tb7_1	ave_tb8_1	var_U_1	var_eb1_1	var_eb2_1	var_eb3_1	var_eb4_1	var_eb5_1	var_eb6_1	var_eb7_1	var_eb8_1	var_mu_1	var_sb1_1	var_sb2_1	var_sb3_1	var_sb4_1	var_sb5_1	var_sb6_1	var_sb7_1	var_sb8_1	var_tb1_1	var_tb2_1	var_tb3_1	var_tb4_1	var_tb5_1	var_tb6_1	var_tb7_1	var_tb8_1	E0_1	sector_1	E0_2	sector_2	githash	time
2x2_2C_8b_C2v_L	4.2066402	0	14	2.3	0.0092500667	-3.1620425	-3.9360202	-0.13199388	-3.9360167	-0.1319973	0.17215791	-3.5978008	9.45	1.3873228e-05	-1.5079551e-06	0.0074657751	-0.19127106	0.0074659477	-0.19127356	4.0568955e-06	9.0433673e-06	-0.11852093	-1.088656	1.7349693	0.028103391	-1.7349696	-0.028105503	0.26138022	-2.2993985	2.1	1	0.2	0.011029522	1.2519933	1.6075419	-0.61485572	-0.20302835	0.084271428	0.12950743	0.29252027	1.9359673	1.7870643	1.540617	1.7870652	1.5406171	0.022558764	1.5303145	1.0951633	-0.00012815609	1.2265837e-05	0.11823808	1.2609789	0.11823946	1.2610105	-3.5380944e-05	-2.0664301e-05	1.2457019	0.74740527	-1.6225806	-0.53091575	1.6225708	0.53091948	-0.32019626	2.6027307	0.028146448	0.26232802	0.062114497	0.19273917	0.38361578	0.19273834	0.38361068	0.022925387	0.35620729	0.037718548	4.2508429	5.3740851	5.16251	4.9564092	5.1625095	4.9564043	4.391034	6.2451354	5.237546	2.7343653	3.3641183	5.2885035	3.3640981	5.2885232	3.6811017	3.111097	-73.410511	R0:S0:1	-57.2	uncorrelated	51514b8	2022-04-13@21:14
2x2_2C_8b_C2v_L	4.3439321	0	14	2.2956566	0.006057521	-3.2264096	-3.982824	-0.12041287	-3.9828401	-0.12041491	0.16165359	-3.6398374	9.490404	-4.1771446e-05	-7.2092071e-06	0.0090644733	-0.18184066	0.0090631918	-0.1818402	1.1905882e-06	5.4827264e-06	-0.11619563	-1.0922228	1.7328545	0.037236739	-1.7328525	-0.037233288	0.25057197	-2.2934335	2.090404	0.99585859	0.19939394	0.012998442	1.2554847	1.6126458	-0.60096455	-0.19487949	0.080979535	0.12940364	0.27456255	1.9386819	1.79732	1.5445975	1.7973223	1.5446053	0.020955549	1.5484308	1.0977216	0.00038737863	1.499326e-05	0.11211739	1.2256139	0.11212125	1.22562	-7.9700312e-06	-9.9227515e-06	1.2089951	0.73822102	-1.5860668	-0.56198861	1.5860561	0.56197227	-0.31152585	2.5568599	0.028129542	0.24558842	0.059582965	0.18448215	0.37756151	0.18448028	0.37755604	0.021194768	0.34813454	0.036936336	4.1819073	5.372105	5.1378841	4.9987215	5.1378811	4.9987101	4.3760156	6.1736291	5.2543547	2.7415163	3.3670316	5.2427251	3.3670305	5.2427218	3.6894507	3.1663336	-73.870694	R0:S0:1	-57.55798	uncorrelated	51514b8	2022-04-13@21:32
2x2_2C_8b_C2v_L	4.4856667	0	14	2.2913131	0.0019309817	-3.2827929	-4.0256636	-0.10825501	-4.0256648	-0.10825466	0.14916013	-3.6777493	9.5308081	-4.1397395e-05	-6.903346e-08	0.0098883391	-0.17163468	0.0098885223	-0.17163489	-3.2795565e-06	-5.6897559e-06	-0.1135981	-1.0943195	1.729748	0.044362467	-1.7297482	-0.044365274	0.23844	-2.2860716	2.0808081	0.99171717	0.19878788	0.013880257	1.2590972	1.6178534	-0.58653967	-0.18624181	0.07752913	0.12926089	0.25357893	1.9414415	1.8073276	1.5575856	1.807327	1.5575862	0.019229767	1.5676879	1.1003844	0.00040693904	-5.0835262e-06	0.10397127	1.1770576	0.10396893	1.1770389	2.6598962e-05	1.243363e-05	1.1634935	0.72779371	-1.550246	-0.57622136	1.5502522	0.57623279	-0.3009925	2.5074532	0.028105871	0.2279249	0.05702035	0.1763988	0.36722339	0.17639933	0.36722427	0.019379136	0.33900884	0.036098479	4.0861275	5.3750624	5.1214757	5.0328718	5.1214749	5.0328768	4.3597309	6.0968031	5.2665215	2.7489717	3.376474	5.1806212	3.3764858	5.1806096	3.6994757	3.2216127	-74.284568	R0:S0:1	-57.91596	uncorrelated	51514b8	2022-04-13@21:52
2x2_2C_8b_C2v_L	4.6301856	0	14	2.2869697	-0.0039344422	-3.3480239	-4.0712757	-0.095637876	-4.0712773	-0.09564125	0.13392684	-3.7127504	9.5712121	-1.6943561e-05	-3.1029608e-07	0.010070052	-0.16051155	0.010070756	-0.16051247	2.1608509e-06	8.7285941e-06	-0.11100306	-1.0974961	1.7273597	0.049991808	-1.7273599	-0.049995598	0.2243325	-2.2778418	2.0712121	0.98757576	0.19818182	0.014037563	1.2627769	1.6231161	-0.57171827	-0.17725102	0.073979299	0.12905944	0.23464574	1.9440424	1.8173038	1.5747648	1.8173039	1.5747725	0.01745064	1.58742	1.1030524	0.00019057655	7.7831272e-06	0.095021248	1.1191815	0.095022966	1.1191803	-2.3742307e-05	-1.6931904e-05	1.1155126	0.71825266	-1.5142946	-0.57912131	1.5142914	0.57913829	-0.28824922	2.4560072	0.028071291	0.21268979	0.054600977	0.16827233	0.35451672	0.16827222	0.35450885	0.017539744	0.32907357	0.03522506	3.9926511	5.3771775	5.1092434	5.0639823	5.1092465	5.0639878	4.3415422	6.0182187	5.2760088	2.758192	3.387986	5.1118083	3.3879806	5.1117922	3.7111016	3.2748978	-74.720458	R0:S0:1	-58.273939	uncorrelated	51514b8	2022-04-13@22:12
2x2_2C_8b_C2v_L	4.7808062	0	14	2.2826263	-0.015991768	-3.4303789	-4.11805	-0.084709349	-4.1180601	-0.08472578	0.1167759	-3.7474034	9.6116162	7.4783405e-06	-2.5888992e-06	0.01038811	-0.14644762	0.010389577	-0.14644788	-8.1019695e-06	1.6834032e-06	-0.10864301	-1.1030322	1.7260803	0.057792826	-1.72608	-0.05781005	0.20592395	-2.2705526	2.0616162	0.98343434	0.19757576	0.013746741	1.2665811	1.6287946	-0.55600384	-0.16793722	0.070314351	0.12886304	0.22143139	1.9463279	1.8272333	1.6047857	1.8272306	1.6048205	0.01526864	1.6070247	1.105759	-0.0001640097	-2.8292336e-06	0.087063248	1.0404116	0.08706636	1.0403033	5.7900071e-05	5.3381347e-06	1.0739787	0.71046965	-1.4779749	-0.58538622	1.4779991	0.58546056	-0.26955464	2.4046957	0.028037139	0.20376854	0.052466988	0.16013455	0.3312388	0.16013717	0.33121351	0.015326862	0.31862053	0.034336479	3.917298	5.3772457	5.1029475	5.0947783	5.1029486	5.0947844	4.3220404	5.941212	5.2774533	2.7690936	3.4018967	5.0168094	3.4019507	5.0167064	3.7229635	3.3247574	-75.206635	R0:S0:1	-58.631919	uncorrelated	51514b8	2022-04-13@22:42
