Number of OpenMP threads = 4
!!!!!!!!!!!!!!!!!!!!!!!!!!!!! - Fading to Sr2CuO2Cl2 - !!!!!!!!!!!!!!!!!!!!!!!!!!!!!
reading data file /home/theod/code_pyqcm/simulations/cdmft_max_supra_sid.tsv, line 1
111 columns read
----->  D  =  0.0
----->  U  =  14.0
----->  e  =  2.3
----->  eb1_1  =  -0.006655534
----->  eb2_1  =  -3.3502828
----->  eb3_1  =  -4.1133163
----->  eb4_1  =  -0.10235806
----->  eb5_1  =  -4.113222
----->  eb6_1  =  -0.1023468
----->  eb7_1  =  0.14108001
----->  eb8_1  =  -3.7537133
----->  mu  =  9.68
----->  sb1_1  =  -0.0001012231
----->  sb2_1  =  7.5002141e-06
----->  sb3_1  =  0.011771903
----->  sb4_1  =  -0.16264369
----->  sb5_1  =  0.011773954
----->  sb6_1  =  -0.16264057
----->  sb7_1  =  1.0013529e-05
----->  sb8_1  =  -2.0059213e-06
----->  tb1_1  =  -0.11240159
----->  tb2_1  =  -1.1061747
----->  tb3_1  =  1.7476608
----->  tb4_1  =  0.057892245
----->  tb5_1  =  -1.7476438
----->  tb6_1  =  -0.057886658
----->  tb7_1  =  0.22749261
----->  tb8_1  =  -2.3061557
----->  tpd  =  2.1
----->  tpp  =  1.0
----->  tppp  =  0.2

******************************* CDMFT procedure *******************************

minimization method =  CG
mixing state =  1
frequency grid type =  sharp
fictitious inverse temperature =  50
frequency cutoff =  2.0
--------------------------------------------------------------------------------

CDMFT iteration 1, distance =  1.66e+02, diff param =  6.26e-02
114 minimization steps, time(MIN)/time(ED)=0.00311
sb1_1     =  0.0000	sb2_1     = -0.0000	sb3_1     =  0.0101	sb4_1     = -0.1828	sb5_1     =  0.0101	
sb6_1     = -0.1828	sb7_1     = -0.0000	sb8_1     = -0.0000	eb1_1     =  0.0073	eb2_1     = -3.2360	
eb3_1     = -3.9546	eb4_1     = -0.1165	eb5_1     = -3.9545	eb6_1     = -0.1165	eb7_1     =  0.1568	
eb8_1     = -3.5872	tb1_1     = -0.1179	tb2_1     = -1.1030	tb3_1     =  1.7424	tb4_1     =  0.0429	
tb5_1     = -1.7424	tb6_1     = -0.0429	tb7_1     =  0.2523	tb8_1     = -2.3031	

CDMFT iteration 2, distance =  1.92e+02, diff param =  1.04e-02, diff hybrid =  9.64e-02
47 minimization steps, time(MIN)/time(ED)=0.00232
sb1_1     = -0.0000	sb2_1     =  0.0000	sb3_1     =  0.0065	sb4_1     = -0.1959	sb5_1     =  0.0065	
sb6_1     = -0.1959	sb7_1     =  0.0000	sb8_1     =  0.0000	eb1_1     =  0.0128	eb2_1     = -3.2286	
eb3_1     = -3.9515	eb4_1     = -0.1355	eb5_1     = -3.9515	eb6_1     = -0.1355	eb7_1     =  0.1719	
eb8_1     = -3.5948	tb1_1     = -0.1194	tb2_1     = -1.0968	tb3_1     =  1.7356	tb4_1     =  0.0236	
tb5_1     = -1.7356	tb6_1     = -0.0236	tb7_1     =  0.2660	tb8_1     = -2.2952	

CDMFT iteration 3, distance =  1.79e+02, diff param =  1.74e-02, diff hybrid =  4.46e-02
64 minimization steps, time(MIN)/time(ED)=0.00214
sb1_1     =  0.0000	sb2_1     =  0.0000	sb3_1     =  0.0079	sb4_1     = -0.1889	sb5_1     =  0.0079	
sb6_1     = -0.1889	sb7_1     = -0.0000	sb8_1     = -0.0000	eb1_1     =  0.0053	eb2_1     = -3.1510	
eb3_1     = -3.9318	eb4_1     = -0.1317	eb5_1     = -3.9318	eb6_1     = -0.1317	eb7_1     =  0.1732	
eb8_1     = -3.6016	tb1_1     = -0.1181	tb2_1     = -1.0879	tb3_1     =  1.7362	tb4_1     =  0.0301	
tb5_1     = -1.7362	tb6_1     = -0.0301	tb7_1     =  0.2588	tb8_1     = -2.3029	

CDMFT iteration 4, distance =  1.82e+02, diff param =  1.76e-03, diff hybrid =  2.63e-02
23 minimization steps, time(MIN)/time(ED)=0.00179
sb1_1     =  0.0000	sb2_1     = -0.0000	sb3_1     =  0.0079	sb4_1     = -0.1902	sb5_1     =  0.0079	
sb6_1     = -0.1902	sb7_1     =  0.0000	sb8_1     =  0.0000	eb1_1     =  0.0075	eb2_1     = -3.1528	
eb3_1     = -3.9319	eb4_1     = -0.1298	eb5_1     = -3.9319	eb6_1     = -0.1298	eb7_1     =  0.1704	
eb8_1     = -3.5963	tb1_1     = -0.1186	tb2_1     = -1.0874	tb3_1     =  1.7344	tb4_1     =  0.0300	
tb5_1     = -1.7345	tb6_1     = -0.0300	tb7_1     =  0.2603	tb8_1     = -2.2995	

CDMFT iteration 5, distance =  1.84e+02, diff param =  2.51e-03, diff hybrid =  8.39e-03
44 minimization steps, time(MIN)/time(ED)=0.00166
sb1_1     =  0.0000	sb2_1     = -0.0000	sb3_1     =  0.0075	sb4_1     = -0.1913	sb5_1     =  0.0075	
sb6_1     = -0.1913	sb7_1     =  0.0000	sb8_1     =  0.0000	eb1_1     =  0.0093	eb2_1     = -3.1620	
eb3_1     = -3.9360	eb4_1     = -0.1320	eb5_1     = -3.9360	eb6_1     = -0.1320	eb7_1     =  0.1722	
eb8_1     = -3.5978	tb1_1     = -0.1185	tb2_1     = -1.0887	tb3_1     =  1.7350	tb4_1     =  0.0281	
tb5_1     = -1.7350	tb6_1     = -0.0281	tb7_1     =  0.2614	tb8_1     = -2.2994	

CDMFT iteration 6, distance =  1.82e+02, diff param =  9.09e-04, diff hybrid =  4.23e-03
13 minimization steps, time(MIN)/time(ED)=0.00146
====================== CDMFT converged on the parameters ======================
sb1_1     =  0.0000	sb2_1     =  0.0000	sb3_1     =  0.0080	sb4_1     = -0.1902	sb5_1     =  0.0080	
sb6_1     = -0.1902	sb7_1     = -0.0000	sb8_1     = -0.0000	eb1_1     =  0.0073	eb2_1     = -3.1619	
eb3_1     = -3.9359	eb4_1     = -0.1312	eb5_1     = -3.9359	eb6_1     = -0.1312	eb7_1     =  0.1721	
eb8_1     = -3.5980	tb1_1     = -0.1185	tb2_1     = -1.0890	tb3_1     =  1.7357	tb4_1     =  0.0301	
tb5_1     = -1.7357	tb6_1     = -0.0301	tb7_1     =  0.2601	tb8_1     = -2.3004	
   <D> = 0.011030
   <e> = 1.251993
   <mu> = 1.607542
   <tpd> = -0.614856
   <tpp> = -0.203028
   <tppp> = 0.084271
************************* CDMFT completed successfully *************************

******************************* CDMFT procedure *******************************

minimization method =  CG
mixing state =  1
frequency grid type =  sharp
fictitious inverse temperature =  50
frequency cutoff =  2.0
--------------------------------------------------------------------------------

CDMFT iteration 1, distance =  1.78e+02, diff param =  1.36e-02
55 minimization steps, time(MIN)/time(ED)=0.00156
sb1_1     = -0.0000	sb2_1     = -0.0000	sb3_1     =  0.0083	sb4_1     = -0.1841	sb5_1     =  0.0083	
sb6_1     = -0.1841	sb7_1     =  0.0000	sb8_1     =  0.0000	eb1_1     =  0.0050	eb2_1     = -3.1889	
eb3_1     = -3.9644	eb4_1     = -0.1234	eb5_1     = -3.9644	eb6_1     = -0.1234	eb7_1     =  0.1646	
eb8_1     = -3.6372	tb1_1     = -0.1166	tb2_1     = -1.0856	tb3_1     =  1.7279	tb4_1     =  0.0325	
tb5_1     = -1.7279	tb6_1     = -0.0325	tb7_1     =  0.2531	tb8_1     = -2.2903	

CDMFT iteration 2, distance =  1.69e+02, diff param =  5.77e-03, diff hybrid =  4.28e-02
64 minimization steps, time(MIN)/time(ED)=0.00158
sb1_1     =  0.0000	sb2_1     = -0.0000	sb3_1     =  0.0094	sb4_1     = -0.1796	sb5_1     =  0.0094	
sb6_1     = -0.1796	sb7_1     = -0.0000	sb8_1     =  0.0000	eb1_1     =  0.0026	eb2_1     = -3.2066	
eb3_1     = -3.9749	eb4_1     = -0.1195	eb5_1     = -3.9749	eb6_1     = -0.1195	eb7_1     =  0.1611	
eb8_1     = -3.6382	tb1_1     = -0.1157	tb2_1     = -1.0898	tb3_1     =  1.7325	tb4_1     =  0.0387	
tb5_1     = -1.7325	tb6_1     = -0.0387	tb7_1     =  0.2480	tb8_1     = -2.2944	

CDMFT iteration 3, distance =  1.71e+02, diff param =  2.01e-03, diff hybrid =  1.58e-02
32 minimization steps, time(MIN)/time(ED)=0.00133
sb1_1     =  0.0000	sb2_1     =  0.0000	sb3_1     =  0.0093	sb4_1     = -0.1809	sb5_1     =  0.0093	
sb6_1     = -0.1809	sb7_1     = -0.0000	sb8_1     =  0.0000	eb1_1     =  0.0051	eb2_1     = -3.2144	
eb3_1     = -3.9768	eb4_1     = -0.1185	eb5_1     = -3.9768	eb6_1     = -0.1185	eb7_1     =  0.1599	
eb8_1     = -3.6355	tb1_1     = -0.1162	tb2_1     = -1.0905	tb3_1     =  1.7317	tb4_1     =  0.0382	
tb5_1     = -1.7317	tb6_1     = -0.0382	tb7_1     =  0.2497	tb8_1     = -2.2924	

CDMFT iteration 4, distance =  1.72e+02, diff param =  3.28e-03, diff hybrid =  6.67e-03
43 minimization steps, time(MIN)/time(ED)=0.00127
sb1_1     = -0.0000	sb2_1     = -0.0000	sb3_1     =  0.0091	sb4_1     = -0.1818	sb5_1     =  0.0091	
sb6_1     = -0.1818	sb7_1     =  0.0000	sb8_1     =  0.0000	eb1_1     =  0.0061	eb2_1     = -3.2264	
eb3_1     = -3.9828	eb4_1     = -0.1204	eb5_1     = -3.9828	eb6_1     = -0.1204	eb7_1     =  0.1617	
eb8_1     = -3.6398	tb1_1     = -0.1162	tb2_1     = -1.0922	tb3_1     =  1.7329	tb4_1     =  0.0372	
tb5_1     = -1.7329	tb6_1     = -0.0372	tb7_1     =  0.2506	tb8_1     = -2.2934	

CDMFT iteration 5, distance =  1.71e+02, diff param =  6.58e-04, diff hybrid =  2.74e-03
8 minimization steps, time(MIN)/time(ED)=0.00106
====================== CDMFT converged on the parameters ======================
sb1_1     = -0.0000	sb2_1     = -0.0000	sb3_1     =  0.0095	sb4_1     = -0.1811	sb5_1     =  0.0095	
sb6_1     = -0.1811	sb7_1     = -0.0000	sb8_1     =  0.0000	eb1_1     =  0.0048	eb2_1     = -3.2263	
eb3_1     = -3.9827	eb4_1     = -0.1204	eb5_1     = -3.9827	eb6_1     = -0.1205	eb7_1     =  0.1619	
eb8_1     = -3.6396	tb1_1     = -0.1161	tb2_1     = -1.0925	tb3_1     =  1.7333	tb4_1     =  0.0389	
tb5_1     = -1.7333	tb6_1     = -0.0389	tb7_1     =  0.2497	tb8_1     = -2.2940	
   <D> = 0.012998
   <e> = 1.255485
   <mu> = 1.612646
   <tpd> = -0.600965
   <tpp> = -0.194879
   <tppp> = 0.080980
************************* CDMFT completed successfully *************************

******************************* CDMFT procedure *******************************

minimization method =  CG
mixing state =  1
frequency grid type =  sharp
fictitious inverse temperature =  50
frequency cutoff =  2.0
--------------------------------------------------------------------------------

CDMFT iteration 1, distance =  1.66e+02, diff param =  1.48e-02
52 minimization steps, time(MIN)/time(ED)=0.00138
sb1_1     = -0.0001	sb2_1     =  0.0000	sb3_1     =  0.0097	sb4_1     = -0.1747	sb5_1     =  0.0097	
sb6_1     = -0.1747	sb7_1     =  0.0000	sb8_1     =  0.0000	eb1_1     =  0.0015	eb2_1     = -3.2528	
eb3_1     = -4.0168	eb4_1     = -0.1133	eb5_1     = -4.0168	eb6_1     = -0.1133	eb7_1     =  0.1547	
eb8_1     = -3.6811	tb1_1     = -0.1142	tb2_1     = -1.0889	tb3_1     =  1.7267	tb4_1     =  0.0417	
tb5_1     = -1.7267	tb6_1     = -0.0417	tb7_1     =  0.2421	tb8_1     = -2.2847	

CDMFT iteration 2, distance =  1.57e+02, diff param =  5.60e-03, diff hybrid =  4.19e-02
52 minimization steps, time(MIN)/time(ED)=0.00133
sb1_1     = -0.0001	sb2_1     = -0.0000	sb3_1     =  0.0106	sb4_1     = -0.1693	sb5_1     =  0.0106	
sb6_1     = -0.1693	sb7_1     =  0.0000	sb8_1     =  0.0000	eb1_1     = -0.0023	eb2_1     = -3.2698	
eb3_1     = -4.0252	eb4_1     = -0.1093	eb5_1     = -4.0252	eb6_1     = -0.1093	eb7_1     =  0.1502	
eb8_1     = -3.6770	tb1_1     = -0.1130	tb2_1     = -1.0931	tb3_1     =  1.7309	tb4_1     =  0.0480	
tb5_1     = -1.7309	tb6_1     = -0.0480	tb7_1     =  0.2357	tb8_1     = -2.2874	

CDMFT iteration 3, distance =  1.59e+02, diff param =  2.22e-03, diff hybrid =  1.76e-02
38 minimization steps, time(MIN)/time(ED)=0.00122
sb1_1     = -0.0000	sb2_1     = -0.0000	sb3_1     =  0.0103	sb4_1     = -0.1705	sb5_1     =  0.0103	
sb6_1     = -0.1705	sb7_1     =  0.0000	sb8_1     =  0.0000	eb1_1     =  0.0002	eb2_1     = -3.2783	
eb3_1     = -4.0243	eb4_1     = -0.1069	eb5_1     = -4.0243	eb6_1     = -0.1069	eb7_1     =  0.1477	
eb8_1     = -3.6750	tb1_1     = -0.1137	tb2_1     = -1.0938	tb3_1     =  1.7296	tb4_1     =  0.0467	
tb5_1     = -1.7296	tb6_1     = -0.0467	tb7_1     =  0.2371	tb8_1     = -2.2857	

CDMFT iteration 4, distance =  1.60e+02, diff param =  1.53e-03, diff hybrid =  7.55e-03
32 minimization steps, time(MIN)/time(ED)=0.00113
sb1_1     = -0.0000	sb2_1     = -0.0000	sb3_1     =  0.0099	sb4_1     = -0.1716	sb5_1     =  0.0099	
sb6_1     = -0.1716	sb7_1     = -0.0000	sb8_1     = -0.0000	eb1_1     =  0.0019	eb2_1     = -3.2828	
eb3_1     = -4.0257	eb4_1     = -0.1083	eb5_1     = -4.0257	eb6_1     = -0.1083	eb7_1     =  0.1492	
eb8_1     = -3.6777	tb1_1     = -0.1136	tb2_1     = -1.0943	tb3_1     =  1.7297	tb4_1     =  0.0444	
tb5_1     = -1.7297	tb6_1     = -0.0444	tb7_1     =  0.2384	tb8_1     = -2.2861	

CDMFT iteration 5, distance =  1.59e+02, diff param =  6.36e-04, diff hybrid =  4.37e-03
11 minimization steps, time(MIN)/time(ED)=0.00096
====================== CDMFT converged on the parameters ======================
sb1_1     = -0.0000	sb2_1     =  0.0000	sb3_1     =  0.0102	sb4_1     = -0.1708	sb5_1     =  0.0102	
sb6_1     = -0.1708	sb7_1     =  0.0000	sb8_1     = -0.0000	eb1_1     =  0.0006	eb2_1     = -3.2828	
eb3_1     = -4.0256	eb4_1     = -0.1088	eb5_1     = -4.0256	eb6_1     = -0.1088	eb7_1     =  0.1500	
eb8_1     = -3.6776	tb1_1     = -0.1135	tb2_1     = -1.0947	tb3_1     =  1.7302	tb4_1     =  0.0457	
tb5_1     = -1.7302	tb6_1     = -0.0457	tb7_1     =  0.2376	tb8_1     = -2.2867	
   <D> = 0.013880
   <e> = 1.259097
   <mu> = 1.617853
   <tpd> = -0.586540
   <tpp> = -0.186242
   <tppp> = 0.077529
************************* CDMFT completed successfully *************************

******************************* CDMFT procedure *******************************

minimization method =  CG
mixing state =  1
frequency grid type =  sharp
fictitious inverse temperature =  50
frequency cutoff =  2.0
--------------------------------------------------------------------------------

CDMFT iteration 1, distance =  1.54e+02, diff param =  1.52e-02
68 minimization steps, time(MIN)/time(ED)=0.00169
sb1_1     =  0.0000	sb2_1     =  0.0000	sb3_1     =  0.0104	sb4_1     = -0.1641	sb5_1     =  0.0104	
sb6_1     = -0.1641	sb7_1     =  0.0000	sb8_1     = -0.0000	eb1_1     = -0.0038	eb2_1     = -3.3130	
eb3_1     = -4.0602	eb4_1     = -0.1025	eb5_1     = -4.0602	eb6_1     = -0.1025	eb7_1     =  0.1428	
eb8_1     = -3.7191	tb1_1     = -0.1115	tb2_1     = -1.0914	tb3_1     =  1.7237	tb4_1     =  0.0489	
tb5_1     = -1.7237	tb6_1     = -0.0489	tb7_1     =  0.2294	tb8_1     = -2.2774	

CDMFT iteration 2, distance =  1.45e+02, diff param =  6.34e-03, diff hybrid =  4.13e-02
50 minimization steps, time(MIN)/time(ED)=0.00149
sb1_1     =  0.0000	sb2_1     = -0.0000	sb3_1     =  0.0111	sb4_1     = -0.1579	sb5_1     =  0.0111	
sb6_1     = -0.1579	sb7_1     =  0.0000	sb8_1     = -0.0000	eb1_1     = -0.0096	eb2_1     = -3.3298	
eb3_1     = -4.0722	eb4_1     = -0.0990	eb5_1     = -4.0722	eb6_1     = -0.0990	eb7_1     =  0.1371	
eb8_1     = -3.7164	tb1_1     = -0.1104	tb2_1     = -1.0954	tb3_1     =  1.7288	tb4_1     =  0.0552	
tb5_1     = -1.7287	tb6_1     = -0.0552	tb7_1     =  0.2217	tb8_1     = -2.2807	

CDMFT iteration 3, distance =  1.45e+02, diff param =  2.66e-03, diff hybrid =  1.96e-02
33 minimization steps, time(MIN)/time(ED)=0.00127
sb1_1     =  0.0000	sb2_1     = -0.0000	sb3_1     =  0.0107	sb4_1     = -0.1586	sb5_1     =  0.0107	
sb6_1     = -0.1586	sb7_1     =  0.0000	sb8_1     =  0.0000	eb1_1     = -0.0069	eb2_1     = -3.3355	
eb3_1     = -4.0714	eb4_1     = -0.0949	eb5_1     = -4.0714	eb6_1     = -0.0949	eb7_1     =  0.1324	
eb8_1     = -3.7090	tb1_1     = -0.1112	tb2_1     = -1.0959	tb3_1     =  1.7277	tb4_1     =  0.0537	
tb5_1     = -1.7277	tb6_1     = -0.0537	tb7_1     =  0.2222	tb8_1     = -2.2776	

CDMFT iteration 4, distance =  1.47e+02, diff param =  3.07e-03, diff hybrid =  8.30e-03
48 minimization steps, time(MIN)/time(ED)=0.00123
sb1_1     = -0.0000	sb2_1     = -0.0000	sb3_1     =  0.0101	sb4_1     = -0.1605	sb5_1     =  0.0101	
sb6_1     = -0.1605	sb7_1     =  0.0000	sb8_1     =  0.0000	eb1_1     = -0.0039	eb2_1     = -3.3480	
eb3_1     = -4.0713	eb4_1     = -0.0956	eb5_1     = -4.0713	eb6_1     = -0.0956	eb7_1     =  0.1339	
eb8_1     = -3.7128	tb1_1     = -0.1110	tb2_1     = -1.0975	tb3_1     =  1.7274	tb4_1     =  0.0500	
tb5_1     = -1.7274	tb6_1     = -0.0500	tb7_1     =  0.2243	tb8_1     = -2.2778	

CDMFT iteration 5, distance =  1.47e+02, diff param =  8.19e-04, diff hybrid =  6.99e-03
17 minimization steps, time(MIN)/time(ED)=0.00107
====================== CDMFT converged on the parameters ======================
sb1_1     = -0.0000	sb2_1     = -0.0000	sb3_1     =  0.0103	sb4_1     = -0.1599	sb5_1     =  0.0103	
sb6_1     = -0.1599	sb7_1     =  0.0000	sb8_1     =  0.0000	eb1_1     = -0.0053	eb2_1     = -3.3484	
eb3_1     = -4.0712	eb4_1     = -0.0972	eb5_1     = -4.0712	eb6_1     = -0.0972	eb7_1     =  0.1356	
eb8_1     = -3.7134	tb1_1     = -0.1107	tb2_1     = -1.0979	tb3_1     =  1.7279	tb4_1     =  0.0511	
tb5_1     = -1.7280	tb6_1     = -0.0511	tb7_1     =  0.2236	tb8_1     = -2.2787	
   <D> = 0.014038
   <e> = 1.262777
   <mu> = 1.623116
   <tpd> = -0.571718
   <tpp> = -0.177251
   <tppp> = 0.073979
************************* CDMFT completed successfully *************************

******************************* CDMFT procedure *******************************

minimization method =  CG
mixing state =  1
frequency grid type =  sharp
fictitious inverse temperature =  50
frequency cutoff =  2.0
--------------------------------------------------------------------------------

CDMFT iteration 1, distance =  1.42e+02, diff param =  1.72e-02
95 minimization steps, time(MIN)/time(ED)=0.00243
sb1_1     = -0.0000	sb2_1     = -0.0000	sb3_1     =  0.0106	sb4_1     = -0.1526	sb5_1     =  0.0106	
sb6_1     = -0.1526	sb7_1     = -0.0000	sb8_1     = -0.0000	eb1_1     = -0.0116	eb2_1     = -3.3882	
eb3_1     = -4.1117	eb4_1     = -0.0920	eb5_1     = -4.1117	eb6_1     = -0.0920	eb7_1     =  0.1282	
eb8_1     = -3.7546	tb1_1     = -0.1090	tb2_1     = -1.0957	tb3_1     =  1.7226	tb4_1     =  0.0551	
tb5_1     = -1.7225	tb6_1     = -0.0551	tb7_1     =  0.2145	tb8_1     = -2.2694	

CDMFT iteration 2, distance =  1.31e+02, diff param =  9.14e-03, diff hybrid =  4.11e-02
51 minimization steps, time(MIN)/time(ED)=0.00182
sb1_1     = -0.0000	sb2_1     =  0.0000	sb3_1     =  0.0111	sb4_1     = -0.1454	sb5_1     =  0.0111	
sb6_1     = -0.1454	sb7_1     = -0.0000	sb8_1     = -0.0000	eb1_1     = -0.0205	eb2_1     = -3.4187	
eb3_1     = -4.1274	eb4_1     = -0.0888	eb5_1     = -4.1274	eb6_1     = -0.0888	eb7_1     =  0.1200	
eb8_1     = -3.7488	tb1_1     = -0.1086	tb2_1     = -1.1012	tb3_1     =  1.7283	tb4_1     =  0.0616	
tb5_1     = -1.7283	tb6_1     = -0.0616	tb7_1     =  0.2048	tb8_1     = -2.2717	

CDMFT iteration 3, distance =  1.31e+02, diff param =  3.42e-03, diff hybrid =  2.19e-02
26 minimization steps, time(MIN)/time(ED)=0.00141
sb1_1     =  0.0000	sb2_1     = -0.0000	sb3_1     =  0.0104	sb4_1     = -0.1460	sb5_1     =  0.0104	
sb6_1     = -0.1460	sb7_1     =  0.0000	sb8_1     = -0.0000	eb1_1     = -0.0165	eb2_1     = -3.4212	
eb3_1     = -4.1247	eb4_1     = -0.0824	eb5_1     = -4.1247	eb6_1     = -0.0824	eb7_1     =  0.1120	
eb8_1     = -3.7406	tb1_1     = -0.1090	tb2_1     = -1.1016	tb3_1     =  1.7270	tb4_1     =  0.0591	
tb5_1     = -1.7270	tb6_1     = -0.0590	tb7_1     =  0.2044	tb8_1     = -2.2683	

CDMFT iteration 4, distance =  1.34e+02, diff param =  3.48e-03, diff hybrid =  1.13e-02
49 minimization steps, time(MIN)/time(ED)=0.00133
sb1_1     = -0.0000	sb2_1     =  0.0000	sb3_1     =  0.0097	sb4_1     = -0.1484	sb5_1     =  0.0097	
sb6_1     = -0.1484	sb7_1     = -0.0000	sb8_1     = -0.0000	eb1_1     = -0.0115	eb2_1     = -3.4298	
eb3_1     = -4.1182	eb4_1     = -0.0825	eb5_1     = -4.1182	eb6_1     = -0.0825	eb7_1     =  0.1147	
eb8_1     = -3.7450	tb1_1     = -0.1084	tb2_1     = -1.1028	tb3_1     =  1.7253	tb4_1     =  0.0540	
tb5_1     = -1.7253	tb6_1     = -0.0540	tb7_1     =  0.2078	tb8_1     = -2.2686	

CDMFT iteration 5, distance =  1.33e+02, diff param =  1.33e-03, diff hybrid =  9.57e-03
24 minimization steps, time(MIN)/time(ED)=0.00117
sb1_1     =  0.0000	sb2_1     = -0.0000	sb3_1     =  0.0100	sb4_1     = -0.1477	sb5_1     =  0.0100	
sb6_1     = -0.1477	sb7_1     =  0.0000	sb8_1     = -0.0000	eb1_1     = -0.0134	eb2_1     = -3.4303	
eb3_1     = -4.1181	eb4_1     = -0.0850	eb5_1     = -4.1181	eb6_1     = -0.0850	eb7_1     =  0.1180	
eb8_1     = -3.7476	tb1_1     = -0.1082	tb2_1     = -1.1031	tb3_1     =  1.7260	tb4_1     =  0.0554	
tb5_1     = -1.7260	tb6_1     = -0.0554	tb7_1     =  0.2073	tb8_1     = -2.2702	

CDMFT iteration 6, distance =  1.32e+02, diff param =  1.03e-03, diff hybrid =  5.98e-03
9 minimization steps, time(MIN)/time(ED)=0.00101
sb1_1     =  0.0000	sb2_1     = -0.0000	sb3_1     =  0.0104	sb4_1     = -0.1464	sb5_1     =  0.0104	
sb6_1     = -0.1464	sb7_1     = -0.0000	sb8_1     =  0.0000	eb1_1     = -0.0160	eb2_1     = -3.4304	
eb3_1     = -4.1180	eb4_1     = -0.0847	eb5_1     = -4.1181	eb6_1     = -0.0847	eb7_1     =  0.1168	
eb8_1     = -3.7474	tb1_1     = -0.1086	tb2_1     = -1.1030	tb3_1     =  1.7261	tb4_1     =  0.0578	
tb5_1     = -1.7261	tb6_1     = -0.0578	tb7_1     =  0.2059	tb8_1     = -2.2706	

CDMFT iteration 7, distance =  1.33e+02, diff param =  8.95e-04, diff hybrid =  4.53e-03
19 minimization steps, time(MIN)/time(ED)=0.00093
====================== CDMFT converged on the parameters ======================
sb1_1     =  0.0000	sb2_1     = -0.0000	sb3_1     =  0.0101	sb4_1     = -0.1470	sb5_1     =  0.0101	
sb6_1     = -0.1470	sb7_1     =  0.0000	sb8_1     =  0.0000	eb1_1     = -0.0146	eb2_1     = -3.4310	
eb3_1     = -4.1178	eb4_1     = -0.0832	eb5_1     = -4.1178	eb6_1     = -0.0832	eb7_1     =  0.1151	
eb8_1     = -3.7453	tb1_1     = -0.1086	tb2_1     = -1.1030	tb3_1     =  1.7257	tb4_1     =  0.0567	
tb5_1     = -1.7257	tb6_1     = -0.0567	tb7_1     =  0.2063	tb8_1     = -2.2695	
   <D> = 0.013747
   <e> = 1.266581
   <mu> = 1.628795
   <tpd> = -0.556004
   <tpp> = -0.167937
   <tppp> = 0.070314
************************* CDMFT completed successfully *************************

******************************* CDMFT procedure *******************************

minimization method =  CG
mixing state =  1
frequency grid type =  sharp
fictitious inverse temperature =  50
frequency cutoff =  2.0
--------------------------------------------------------------------------------

CDMFT iteration 1, distance =  1.29e+02, diff param =  1.75e-02
96 minimization steps, time(MIN)/time(ED)=0.00217
sb1_1     = -0.0000	sb2_1     =  0.0000	sb3_1     =  0.0099	sb4_1     = -0.1412	sb5_1     =  0.0099	
sb6_1     = -0.1412	sb7_1     = -0.0000	sb8_1     = -0.0000	eb1_1     = -0.0191	eb2_1     = -3.4712	
eb3_1     = -4.1595	eb4_1     = -0.0800	eb5_1     = -4.1596	eb6_1     = -0.0800	eb7_1     =  0.1089	
eb8_1     = -3.7882	tb1_1     = -0.1067	tb2_1     = -1.1007	tb3_1     =  1.7203	tb4_1     =  0.0580	
tb5_1     = -1.7203	tb6_1     = -0.0580	tb7_1     =  0.1982	tb8_1     = -2.2600	

CDMFT iteration 2, distance =  1.18e+02, diff param =  1.32e-02, diff hybrid =  4.15e-02
68 minimization steps, time(MIN)/time(ED)=0.00183
sb1_1     =  0.0000	sb2_1     = -0.0000	sb3_1     =  0.0107	sb4_1     = -0.1322	sb5_1     =  0.0106	
sb6_1     = -0.1322	sb7_1     = -0.0000	sb8_1     =  0.0000	eb1_1     = -0.0371	eb2_1     = -3.5180	
eb3_1     = -4.1814	eb4_1     = -0.0801	eb5_1     = -4.1813	eb6_1     = -0.0800	eb7_1     =  0.1003	
eb8_1     = -3.7834	tb1_1     = -0.1087	tb2_1     = -1.1073	tb3_1     =  1.7277	tb4_1     =  0.0663	
tb5_1     = -1.7277	tb6_1     = -0.0663	tb7_1     =  0.1856	tb8_1     = -2.2630	

CDMFT iteration 3, distance =  8.96e+01, diff param =  1.40e-01, diff hybrid =  2.91e-02
266 minimization steps, time(MIN)/time(ED)=0.00316
sb1_1     =  0.0000	sb2_1     =  0.0000	sb3_1     =  0.0182	sb4_1     = -0.0987	sb5_1     =  0.0182	
sb6_1     = -0.0987	sb7_1     = -0.0001	sb8_1     =  0.0000	eb1_1     = -0.1766	eb2_1     = -4.1204	
eb3_1     = -4.3541	eb4_1     = -0.1274	eb5_1     = -4.3542	eb6_1     = -0.1274	eb7_1     =  0.1059	
eb8_1     = -3.7505	tb1_1     = -0.1751	tb2_1     = -1.1641	tb3_1     =  1.7530	tb4_1     =  0.1279	
tb5_1     = -1.7531	tb6_1     = -0.1279	tb7_1     =  0.1555	tb8_1     = -2.2626	

CDMFT iteration 4, distance =  9.76e+01, diff param =  9.25e-02, diff hybrid =  1.00e-01
174 minimization steps, time(MIN)/time(ED)=0.00355
sb1_1     =  0.0000	sb2_1     = -0.0000	sb3_1     =  0.0143	sb4_1     = -0.1072	sb5_1     =  0.0143	
sb6_1     = -0.1072	sb7_1     = -0.0000	sb8_1     =  0.0000	eb1_1     = -0.0532	eb2_1     = -3.7043	
eb3_1     = -4.3555	eb4_1     = -0.0894	eb5_1     = -4.3555	eb6_1     = -0.0893	eb7_1     =  0.0102	
eb8_1     = -3.7352	tb1_1     = -0.1300	tb2_1     = -1.1293	tb3_1     =  1.7540	tb4_1     =  0.1196	
tb5_1     = -1.7540	tb6_1     = -0.1196	tb7_1     =  0.1306	tb8_1     = -2.2448	

CDMFT iteration 5, distance =  1.21e+02, diff param =  6.28e-02, diff hybrid =  9.25e-02
108 minimization steps, time(MIN)/time(ED)=0.00330
sb1_1     = -0.0010	sb2_1     =  0.0000	sb3_1     =  0.0081	sb4_1     = -0.1337	sb5_1     =  0.0082	
sb6_1     = -0.1337	sb7_1     = -0.0003	sb8_1     =  0.0000	eb1_1     = -0.0090	eb2_1     = -3.6126	
eb3_1     = -4.1735	eb4_1     = -0.0569	eb5_1     = -4.1756	eb6_1     = -0.0573	eb7_1     =  0.0705	
eb8_1     = -3.7437	tb1_1     = -0.1115	tb2_1     = -1.1218	tb3_1     =  1.7217	tb4_1     =  0.0616	
tb5_1     = -1.7221	tb6_1     = -0.0620	tb7_1     =  0.1791	tb8_1     = -2.2469	

CDMFT iteration 6, distance =  1.27e+02, diff param =  1.61e-02, diff hybrid =  1.22e-01
68 minimization steps, time(MIN)/time(ED)=0.00299
sb1_1     =  0.0012	sb2_1     = -0.0000	sb3_1     =  0.0078	sb4_1     = -0.1419	sb5_1     =  0.0077	
sb6_1     = -0.1418	sb7_1     =  0.0003	sb8_1     = -0.0000	eb1_1     = -0.0109	eb2_1     = -3.5784	
eb3_1     = -4.1722	eb4_1     = -0.0717	eb5_1     = -4.1710	eb6_1     = -0.0712	eb7_1     =  0.1018	
eb8_1     = -3.7933	tb1_1     = -0.1065	tb2_1     = -1.1164	tb3_1     =  1.7235	tb4_1     =  0.0486	
tb5_1     = -1.7233	tb6_1     = -0.0480	tb7_1     =  0.1979	tb8_1     = -2.2618	

CDMFT iteration 7, distance =  1.18e+02, diff param =  8.53e-03, diff hybrid =  3.70e-02
42 minimization steps, time(MIN)/time(ED)=0.00268
sb1_1     = -0.0005	sb2_1     =  0.0000	sb3_1     =  0.0101	sb4_1     = -0.1326	sb5_1     =  0.0102	
sb6_1     = -0.1326	sb7_1     = -0.0005	sb8_1     =  0.0001	eb1_1     = -0.0346	eb2_1     = -3.5618	
eb3_1     = -4.1734	eb4_1     = -0.0794	eb5_1     = -4.1752	eb6_1     = -0.0801	eb7_1     =  0.1040	
eb8_1     = -3.7906	tb1_1     = -0.1078	tb2_1     = -1.1141	tb3_1     =  1.7271	tb4_1     =  0.0619	
tb5_1     = -1.7274	tb6_1     = -0.0626	tb7_1     =  0.1873	tb8_1     = -2.2656	

CDMFT iteration 8, distance =  8.79e+01, diff param =  1.46e-01, diff hybrid =  3.85e-02
229 minimization steps, time(MIN)/time(ED)=0.00298
sb1_1     =  0.0003	sb2_1     = -0.0001	sb3_1     =  0.0185	sb4_1     = -0.0951	sb5_1     =  0.0185	
sb6_1     = -0.0948	sb7_1     =  0.0023	sb8_1     = -0.0005	eb1_1     = -0.1883	eb2_1     = -4.1734	
eb3_1     = -4.3740	eb4_1     = -0.1345	eb5_1     = -4.3710	eb6_1     = -0.1341	eb7_1     =  0.1042	
eb8_1     = -3.7465	tb1_1     = -0.1799	tb2_1     = -1.1694	tb3_1     =  1.7557	tb4_1     =  0.1333	
tb5_1     = -1.7551	tb6_1     = -0.1330	tb7_1     =  0.1529	tb8_1     = -2.2620	

CDMFT iteration 9, distance =  9.74e+01, diff param =  1.06e-01, diff hybrid =  1.09e-01
156 minimization steps, time(MIN)/time(ED)=0.00312
sb1_1     = -0.0007	sb2_1     =  0.0002	sb3_1     =  0.0138	sb4_1     = -0.1066	sb5_1     =  0.0139	
sb6_1     = -0.1070	sb7_1     = -0.0011	sb8_1     =  0.0000	eb1_1     = -0.0497	eb2_1     = -3.6944	
eb3_1     = -4.3560	eb4_1     = -0.0858	eb5_1     = -4.3570	eb6_1     = -0.0864	eb7_1     =  0.0077	
eb8_1     = -3.7419	tb1_1     = -0.1295	tb2_1     = -1.1286	tb3_1     =  1.7542	tb4_1     =  0.1194	
tb5_1     = -1.7544	tb6_1     = -0.1196	tb7_1     =  0.1318	tb8_1     = -2.2462	

CDMFT iteration 10, distance =  1.27e+02, diff param =  7.10e-02, diff hybrid =  1.00e-01
121 minimization steps, time(MIN)/time(ED)=0.00307
sb1_1     =  0.0339	sb2_1     = -0.0002	sb3_1     =  0.0070	sb4_1     = -0.1416	sb5_1     =  0.0062	
sb6_1     = -0.1418	sb7_1     =  0.0055	sb8_1     = -0.0005	eb1_1     = -0.0042	eb2_1     = -3.6164	
eb3_1     = -4.1672	eb4_1     = -0.0594	eb5_1     = -4.1361	eb6_1     = -0.0530	eb7_1     =  0.0777	
eb8_1     = -3.7482	tb1_1     = -0.1052	tb2_1     = -1.1210	tb3_1     =  1.7188	tb4_1     =  0.0513	
tb5_1     = -1.7132	tb6_1     = -0.0422	tb7_1     =  0.1916	tb8_1     = -2.2453	

CDMFT iteration 11, distance =  1.28e+02, diff param =  2.41e-02, diff hybrid =  1.50e-01
83 minimization steps, time(MIN)/time(ED)=0.00295
sb1_1     = -0.0265	sb2_1     =  0.0006	sb3_1     =  0.0064	sb4_1     = -0.1431	sb5_1     =  0.0081	
sb6_1     = -0.1442	sb7_1     = -0.0050	sb8_1     =  0.0006	eb1_1     = -0.0090	eb2_1     = -3.5740	
eb3_1     = -4.1664	eb4_1     = -0.0714	eb5_1     = -4.1853	eb6_1     = -0.0793	eb7_1     =  0.1089	
eb8_1     = -3.8044	tb1_1     = -0.1020	tb2_1     = -1.1158	tb3_1     =  1.7230	tb4_1     =  0.0378	
tb5_1     = -1.7264	tb6_1     = -0.0489	tb7_1     =  0.2009	tb8_1     = -2.2649	

CDMFT iteration 12, distance =  1.15e+02, diff param =  1.02e-01, diff hybrid =  4.33e-02
238 minimization steps, time(MIN)/time(ED)=0.00313
sb1_1     =  0.0056	sb2_1     = -0.0019	sb3_1     =  0.0124	sb4_1     = -0.1282	sb5_1     =  0.0106	
sb6_1     = -0.1269	sb7_1     =  0.0070	sb8_1     = -0.0009	eb1_1     = -0.1632	eb2_1     = -4.0342	
eb3_1     = -4.2052	eb4_1     = -0.0924	eb5_1     = -4.1559	eb6_1     = -0.0795	eb7_1     =  0.1057	
eb8_1     = -3.7883	tb1_1     = -0.1604	tb2_1     = -1.1551	tb3_1     =  1.7336	tb4_1     =  0.0755	
tb5_1     = -1.7256	tb6_1     = -0.0637	tb7_1     =  0.1818	tb8_1     = -2.2671	

CDMFT iteration 13, distance =  8.74e+01, diff param =  7.62e-02, diff hybrid =  8.09e-02
156 minimization steps, time(MIN)/time(ED)=0.00320
sb1_1     = -0.0051	sb2_1     =  0.0019	sb3_1     =  0.0184	sb4_1     = -0.0923	sb5_1     =  0.0186	
sb6_1     = -0.0956	sb7_1     = -0.0330	sb8_1     =  0.0064	eb1_1     = -0.1785	eb2_1     = -4.1624	
eb3_1     = -4.3931	eb4_1     = -0.1337	eb5_1     = -4.4083	eb6_1     = -0.1350	eb7_1     =  0.1006	
eb8_1     = -3.7471	tb1_1     = -0.1783	tb2_1     = -1.1692	tb3_1     =  1.7584	tb4_1     =  0.1358	
tb5_1     = -1.7609	tb6_1     = -0.1390	tb7_1     =  0.1471	tb8_1     = -2.2611	

CDMFT iteration 14, distance =  1.02e+02, diff param =  1.16e-01, diff hybrid =  9.41e-02
215 minimization steps, time(MIN)/time(ED)=0.00337
sb1_1     =  0.0096	sb2_1     = -0.0017	sb3_1     =  0.0140	sb4_1     = -0.1143	sb5_1     =  0.0124	
sb6_1     = -0.1087	sb7_1     =  0.0094	sb8_1     = -0.0005	eb1_1     = -0.0369	eb2_1     = -3.6445	
eb3_1     = -4.3406	eb4_1     = -0.0843	eb5_1     = -4.3210	eb6_1     = -0.0761	eb7_1     =  0.0162	
eb8_1     = -3.7362	tb1_1     = -0.1236	tb2_1     = -1.1241	tb3_1     =  1.7519	tb4_1     =  0.1130	
tb5_1     = -1.7483	tb6_1     = -0.1109	tb7_1     =  0.1350	tb8_1     = -2.2448	

CDMFT iteration 15, distance =  1.29e+02, diff param =  6.14e-02, diff hybrid =  1.05e-01
82 minimization steps, time(MIN)/time(ED)=0.00325
sb1_1     = -0.0726	sb2_1     =  0.0006	sb3_1     =  0.0056	sb4_1     = -0.1435	sb5_1     =  0.0081	
sb6_1     = -0.1448	sb7_1     = -0.0126	sb8_1     =  0.0013	eb1_1     = -0.0064	eb2_1     = -3.6274	
eb3_1     = -4.1330	eb4_1     = -0.0534	eb5_1     = -4.2073	eb6_1     = -0.0709	eb7_1     =  0.0888	
eb8_1     = -3.7616	tb1_1     = -0.0829	tb2_1     = -1.1224	tb3_1     =  1.7128	tb4_1     =  0.0341	
tb5_1     = -1.7263	tb6_1     = -0.0558	tb7_1     =  0.1967	tb8_1     = -2.2494	

CDMFT iteration 16, distance =  1.26e+02, diff param =  3.02e-02, diff hybrid =  1.40e-01
115 minimization steps, time(MIN)/time(ED)=0.00320
sb1_1     = -0.0993	sb2_1     = -0.0018	sb3_1     =  0.0101	sb4_1     = -0.1419	sb5_1     =  0.0064	
sb6_1     = -0.1394	sb7_1     =  0.0113	sb8_1     = -0.0014	eb1_1     =  0.0174	eb2_1     = -3.5614	
eb3_1     = -4.2055	eb4_1     = -0.0891	eb5_1     = -4.1586	eb6_1     = -0.0689	eb7_1     =  0.1112	
eb8_1     = -3.8073	tb1_1     = -0.0350	tb2_1     = -1.1150	tb3_1     =  1.7310	tb4_1     =  0.0617	
tb5_1     = -1.7230	tb6_1     = -0.0367	tb7_1     =  0.1973	tb8_1     = -2.2674	

CDMFT iteration 17, distance =  1.11e+02, diff param =  1.10e-01, diff hybrid =  5.78e-02
275 minimization steps, time(MIN)/time(ED)=0.00337
sb1_1     = -0.1651	sb2_1     =  0.0037	sb3_1     =  0.0109	sb4_1     = -0.1198	sb5_1     =  0.0148	
sb6_1     = -0.1233	sb7_1     = -0.0196	sb8_1     =  0.0028	eb1_1     =  0.1708	eb2_1     = -4.0439	
eb3_1     = -4.1304	eb4_1     = -0.0723	eb5_1     = -4.2654	eb6_1     = -0.1067	eb7_1     =  0.1052	
eb8_1     = -3.7823	tb1_1     =  0.0110	tb2_1     = -1.1560	tb3_1     =  1.7212	tb4_1     =  0.0660	
tb5_1     = -1.7428	tb6_1     = -0.0937	tb7_1     =  0.1758	tb8_1     = -2.2665	

CDMFT iteration 18, distance =  9.01e+01, diff param =  6.45e-02, diff hybrid =  8.92e-02
100 minimization steps, time(MIN)/time(ED)=0.00334
sb1_1     = -0.1677	sb2_1     = -0.0048	sb3_1     =  0.0179	sb4_1     = -0.1019	sb5_1     =  0.0169	
sb6_1     = -0.0952	sb7_1     =  0.0392	sb8_1     = -0.0036	eb1_1     =  0.1499	eb2_1     = -4.0642	
eb3_1     = -4.3848	eb4_1     = -0.1219	eb5_1     = -4.3471	eb6_1     = -0.1150	eb7_1     =  0.0348	
eb8_1     = -3.7172	tb1_1     = -0.0138	tb2_1     = -1.1607	tb3_1     =  1.7576	tb4_1     =  0.1347	
tb5_1     = -1.7522	tb6_1     = -0.1240	tb7_1     =  0.1209	tb8_1     = -2.2455	

CDMFT iteration 19, distance =  1.08e+02, diff param =  1.05e-01, diff hybrid =  9.48e-02
121 minimization steps, time(MIN)/time(ED)=0.00331
sb1_1     = -0.1174	sb2_1     =  0.0019	sb3_1     =  0.0116	sb4_1     = -0.1120	sb5_1     =  0.0139	
sb6_1     = -0.1214	sb7_1     = -0.0141	sb8_1     =  0.0010	eb1_1     =  0.0271	eb2_1     = -3.5934	
eb3_1     = -4.2632	eb4_1     = -0.0683	eb5_1     = -4.3291	eb6_1     = -0.0871	eb7_1     =  0.0325	
eb8_1     = -3.7291	tb1_1     =  0.0170	tb2_1     = -1.1189	tb3_1     =  1.7385	tb4_1     =  0.0995	
tb5_1     = -1.7502	tb6_1     = -0.1053	tb7_1     =  0.1404	tb8_1     = -2.2442	

CDMFT iteration 20, distance =  1.27e+02, diff param =  4.86e-02, diff hybrid =  8.62e-02
112 minimization steps, time(MIN)/time(ED)=0.00326
sb1_1     = -0.1042	sb2_1     = -0.0016	sb3_1     =  0.0112	sb4_1     = -0.1432	sb5_1     =  0.0071	
sb6_1     = -0.1376	sb7_1     =  0.0183	sb8_1     = -0.0018	eb1_1     =  0.0196	eb2_1     = -3.5732	
eb3_1     = -4.2630	eb4_1     = -0.0886	eb5_1     = -4.1412	eb6_1     = -0.0525	eb7_1     =  0.0906	
eb8_1     = -3.7794	tb1_1     = -0.0369	tb2_1     = -1.1155	tb3_1     =  1.7383	tb4_1     =  0.0755	
tb5_1     = -1.7165	tb6_1     = -0.0455	tb7_1     =  0.1913	tb8_1     = -2.2570	

CDMFT iteration 21, distance =  1.22e+02, diff param =  4.43e-02, diff hybrid =  1.01e-01
121 minimization steps, time(MIN)/time(ED)=0.00322
sb1_1     = -0.1026	sb2_1     =  0.0024	sb3_1     =  0.0066	sb4_1     = -0.1340	sb5_1     =  0.0122	
sb6_1     = -0.1387	sb7_1     = -0.0209	sb8_1     =  0.0023	eb1_1     =  0.0274	eb2_1     = -3.5498	
eb3_1     = -4.1254	eb4_1     = -0.0581	eb5_1     = -4.2569	eb6_1     = -0.0999	eb7_1     =  0.1067	
eb8_1     = -3.7992	tb1_1     =  0.0338	tb2_1     = -1.1129	tb3_1     =  1.7171	tb4_1     =  0.0384	
tb5_1     = -1.7395	tb6_1     = -0.0785	tb7_1     =  0.1911	tb8_1     = -2.2659	

CDMFT iteration 22, distance =  1.08e+02, diff param =  1.05e-01, diff hybrid =  7.18e-02
179 minimization steps, time(MIN)/time(ED)=0.00326
sb1_1     = -0.1579	sb2_1     = -0.0065	sb3_1     =  0.0163	sb4_1     = -0.1208	sb5_1     =  0.0096	
sb6_1     = -0.1147	sb7_1     =  0.0333	sb8_1     = -0.0048	eb1_1     =  0.1484	eb2_1     = -3.9591	
eb3_1     = -4.3222	eb4_1     = -0.1177	eb5_1     = -4.1153	eb6_1     = -0.0592	eb7_1     =  0.1066	
eb8_1     = -3.7845	tb1_1     = -0.0213	tb2_1     = -1.1486	tb3_1     =  1.7505	tb4_1     =  0.1089	
tb5_1     = -1.7179	tb6_1     = -0.0622	tb7_1     =  0.1720	tb8_1     = -2.2669	

CDMFT iteration 23, distance =  9.45e+01, diff param =  6.03e-02, diff hybrid =  1.01e-01
126 minimization steps, time(MIN)/time(ED)=0.00326
sb1_1     = -0.1533	sb2_1     =  0.0073	sb3_1     =  0.0148	sb4_1     = -0.0990	sb5_1     =  0.0172	
sb6_1     = -0.1095	sb7_1     = -0.0514	sb8_1     =  0.0082	eb1_1     =  0.1181	eb2_1     = -3.9510	
eb3_1     = -4.2774	eb4_1     = -0.0900	eb5_1     = -4.3652	eb6_1     = -0.1139	eb7_1     =  0.0834	
eb8_1     = -3.7568	tb1_1     =  0.0237	tb2_1     = -1.1514	tb3_1     =  1.7427	tb4_1     =  0.1054	
tb5_1     = -1.7549	tb6_1     = -0.1290	tb7_1     =  0.1448	tb8_1     = -2.2590	

CDMFT iteration 24, distance =  1.10e+02, diff param =  8.66e-02, diff hybrid =  9.43e-02
157 minimization steps, time(MIN)/time(ED)=0.00329
sb1_1     = -0.1157	sb2_1     = -0.0024	sb3_1     =  0.0146	sb4_1     = -0.1248	sb5_1     =  0.0113	
sb6_1     = -0.1116	sb7_1     =  0.0237	sb8_1     = -0.0022	eb1_1     =  0.0302	eb2_1     = -3.5936	
eb3_1     = -4.3521	eb4_1     = -0.0973	eb5_1     = -4.2188	eb6_1     = -0.0627	eb7_1     =  0.0523	
eb8_1     = -3.7347	tb1_1     = -0.0229	tb2_1     = -1.1184	tb3_1     =  1.7542	tb4_1     =  0.1065	
tb5_1     = -1.7312	tb6_1     = -0.0920	tb7_1     =  0.1475	tb8_1     = -2.2480	

CDMFT iteration 25, distance =  1.24e+02, diff param =  5.99e-02, diff hybrid =  9.30e-02
109 minimization steps, time(MIN)/time(ED)=0.00325
sb1_1     = -0.1052	sb2_1     =  0.0020	sb3_1     =  0.0072	sb4_1     = -0.1328	sb5_1     =  0.0127	
sb6_1     = -0.1400	sb7_1     = -0.0255	sb8_1     =  0.0025	eb1_1     =  0.0253	eb2_1     = -3.5647	
eb3_1     = -4.1170	eb4_1     = -0.0482	eb5_1     = -4.3077	eb6_1     = -0.0997	eb7_1     =  0.0934	
eb8_1     = -3.7809	tb1_1     =  0.0382	tb2_1     = -1.1145	tb3_1     =  1.7129	tb4_1     =  0.0464	
tb5_1     = -1.7465	tb6_1     = -0.0871	tb7_1     =  0.1862	tb8_1     = -2.2592	

CDMFT iteration 26, distance =  1.20e+02, diff param =  6.09e-02, diff hybrid =  9.21e-02
92 minimization steps, time(MIN)/time(ED)=0.00320
sb1_1     = -0.1057	sb2_1     = -0.0038	sb3_1     =  0.0139	sb4_1     = -0.1359	sb5_1     =  0.0064	
sb6_1     = -0.1303	sb7_1     =  0.0286	sb8_1     = -0.0033	eb1_1     =  0.0376	eb2_1     = -3.5611	
eb3_1     = -4.2922	eb4_1     = -0.1081	eb5_1     = -4.1168	eb6_1     = -0.0525	eb7_1     =  0.1064	
eb8_1     = -3.7997	tb1_1     = -0.0379	tb2_1     = -1.1137	tb3_1     =  1.7450	tb4_1     =  0.0913	
tb5_1     = -1.7159	tb6_1     = -0.0377	tb7_1     =  0.1869	tb8_1     = -2.2668	

CDMFT iteration 27, distance =  1.07e+02, diff param =  1.04e-01, diff hybrid =  9.04e-02
207 minimization steps, time(MIN)/time(ED)=0.00326
sb1_1     = -0.1537	sb2_1     =  0.0083	sb3_1     =  0.0093	sb4_1     = -0.1119	sb5_1     =  0.0169	
sb6_1     = -0.1200	sb7_1     = -0.0423	sb8_1     =  0.0064	eb1_1     =  0.1359	eb2_1     = -3.9299	
eb3_1     = -4.1223	eb4_1     = -0.0564	eb5_1     = -4.3487	eb6_1     = -0.1214	eb7_1     =  0.1101	
eb8_1     = -3.7901	tb1_1     =  0.0279	tb2_1     = -1.1471	tb3_1     =  1.7190	tb4_1     =  0.0623	
tb5_1     = -1.7539	tb6_1     = -0.1164	tb7_1     =  0.1701	tb8_1     = -2.2683	

CDMFT iteration 28, distance =  9.78e+01, diff param =  6.82e-02, diff hybrid =  1.11e-01
147 minimization steps, time(MIN)/time(ED)=0.00328
sb1_1     = -0.1409	sb2_1     = -0.0073	sb3_1     =  0.0169	sb4_1     = -0.1144	sb5_1     =  0.0132	
sb6_1     = -0.1007	sb7_1     =  0.0512	sb8_1     = -0.0080	eb1_1     =  0.0923	eb2_1     = -3.8474	
eb3_1     = -4.3756	eb4_1     = -0.1120	eb5_1     = -4.2345	eb6_1     = -0.0761	eb7_1     =  0.0888	
eb8_1     = -3.7649	tb1_1     = -0.0275	tb2_1     = -1.1424	tb3_1     =  1.7572	tb4_1     =  0.1253	
tb5_1     = -1.7358	tb6_1     = -0.0962	tb7_1     =  0.1506	tb8_1     = -2.2609	

CDMFT iteration 29, distance =  1.11e+02, diff param =  7.66e-02, diff hybrid =  1.00e-01
142 minimization steps, time(MIN)/time(ED)=0.00329
sb1_1     = -0.1143	sb2_1     =  0.0027	sb3_1     =  0.0108	sb4_1     = -0.1124	sb5_1     =  0.0149	
sb6_1     = -0.1264	sb7_1     = -0.0288	sb8_1     =  0.0035	eb1_1     =  0.0320	eb2_1     = -3.5862	
eb3_1     = -4.1898	eb4_1     = -0.0580	eb5_1     = -4.3595	eb6_1     = -0.1024	eb7_1     =  0.0739	
eb8_1     = -3.7545	tb1_1     =  0.0271	tb2_1     = -1.1173	tb3_1     =  1.7266	tb4_1     =  0.0852	
tb5_1     = -1.7555	tb6_1     = -0.1070	tb7_1     =  0.1581	tb8_1     = -2.2554	

CDMFT iteration 30, distance =  1.22e+02, diff param =  6.38e-02, diff hybrid =  9.33e-02
86 minimization steps, time(MIN)/time(ED)=0.00324
sb1_1     = -0.1068	sb2_1     = -0.0025	sb3_1     =  0.0134	sb4_1     = -0.1372	sb5_1     =  0.0074	
sb6_1     = -0.1294	sb7_1     =  0.0287	sb8_1     = -0.0030	eb1_1     =  0.0297	eb2_1     = -3.5665	
eb3_1     = -4.3203	eb4_1     = -0.1044	eb5_1     = -4.1164	eb6_1     = -0.0470	eb7_1     =  0.0951	
eb8_1     = -3.7828	tb1_1     = -0.0374	tb2_1     = -1.1147	tb3_1     =  1.7488	tb4_1     =  0.0932	
tb5_1     = -1.7136	tb6_1     = -0.0485	tb7_1     =  0.1830	tb8_1     = -2.2609	

CDMFT iteration 31, distance =  1.18e+02, diff param =  6.55e-02, diff hybrid =  8.95e-02
100 minimization steps, time(MIN)/time(ED)=0.00321
sb1_1     = -0.1093	sb2_1     =  0.0043	sb3_1     =  0.0067	sb4_1     = -0.1270	sb5_1     =  0.0146	
sb6_1     = -0.1331	sb7_1     = -0.0323	sb8_1     =  0.0039	eb1_1     =  0.0440	eb2_1     = -3.5742	
eb3_1     = -4.1164	eb4_1     = -0.0502	eb5_1     = -4.3079	eb6_1     = -0.1113	eb7_1     =  0.1058	
eb8_1     = -3.7960	tb1_1     =  0.0373	tb2_1     = -1.1148	tb3_1     =  1.7161	tb4_1     =  0.0412	
tb5_1     = -1.7473	tb6_1     = -0.0982	tb7_1     =  0.1830	tb8_1     = -2.2665	

CDMFT iteration 32, distance =  1.07e+02, diff param =  9.67e-02, diff hybrid =  9.65e-02
202 minimization steps, time(MIN)/time(ED)=0.00325
sb1_1     = -0.1482	sb2_1     = -0.0086	sb3_1     =  0.0169	sb4_1     = -0.1204	sb5_1     =  0.0093	
sb6_1     = -0.1111	sb7_1     =  0.0449	sb8_1     = -0.0068	eb1_1     =  0.1212	eb2_1     = -3.8836	
eb3_1     = -4.3594	eb4_1     = -0.1204	eb5_1     = -4.1283	eb6_1     = -0.0553	eb7_1     =  0.1097	
eb8_1     = -3.7906	tb1_1     = -0.0306	tb2_1     = -1.1432	tb3_1     =  1.7554	tb4_1     =  0.1181	
tb5_1     = -1.7197	tb6_1     = -0.0638	tb7_1     =  0.1692	tb8_1     = -2.2682	

CDMFT iteration 33, distance =  1.00e+02, diff param =  7.32e-02, diff hybrid =  1.11e-01
180 minimization steps, time(MIN)/time(ED)=0.00328
sb1_1     = -0.1314	sb2_1     =  0.0064	sb3_1     =  0.0122	sb4_1     = -0.1029	sb5_1     =  0.0166	
sb6_1     = -0.1173	sb7_1     = -0.0481	sb8_1     =  0.0075	eb1_1     =  0.0738	eb2_1     = -3.7485	
eb3_1     = -4.2114	eb4_1     = -0.0690	eb5_1     = -4.3730	eb6_1     = -0.1113	eb7_1     =  0.0928	
eb8_1     = -3.7697	tb1_1     =  0.0286	tb2_1     = -1.1329	tb3_1     =  1.7320	tb4_1     =  0.0905	
tb5_1     = -1.7570	tb6_1     = -0.1221	tb7_1     =  0.1556	tb8_1     = -2.2622	

CDMFT iteration 34, distance =  1.12e+02, diff param =  6.63e-02, diff hybrid =  1.01e-01
167 minimization steps, time(MIN)/time(ED)=0.00330
sb1_1     = -0.1144	sb2_1     = -0.0030	sb3_1     =  0.0150	sb4_1     = -0.1268	sb5_1     =  0.0104	
sb6_1     = -0.1129	sb7_1     =  0.0317	sb8_1     = -0.0041	eb1_1     =  0.0350	eb2_1     = -3.5997	
eb3_1     = -4.3623	eb4_1     = -0.1055	eb5_1     = -4.1733	eb6_1     = -0.0556	eb7_1     =  0.0837	
eb8_1     = -3.7625	tb1_1     = -0.0284	tb2_1     = -1.1189	tb3_1     =  1.7559	tb4_1     =  0.1079	
tb5_1     = -1.7241	tb6_1     = -0.0810	tb7_1     =  0.1629	tb8_1     = -2.2582	

CDMFT iteration 35, distance =  1.20e+02, diff param =  6.79e-02, diff hybrid =  9.13e-02
113 minimization steps, time(MIN)/time(ED)=0.00328
sb1_1     = -0.1085	sb2_1     =  0.0029	sb3_1     =  0.0076	sb4_1     = -0.1262	sb5_1     =  0.0141	
sb6_1     = -0.1347	sb7_1     = -0.0310	sb8_1     =  0.0034	eb1_1     =  0.0334	eb2_1     = -3.5699	
eb3_1     = -4.1155	eb4_1     = -0.0465	eb5_1     = -4.3370	eb6_1     = -0.1077	eb7_1     =  0.0962	
eb8_1     = -3.7841	tb1_1     =  0.0364	tb2_1     = -1.1149	tb3_1     =  1.7140	tb4_1     =  0.0516	
tb5_1     = -1.7518	tb6_1     = -0.0982	tb7_1     =  0.1799	tb8_1     = -2.2622	

CDMFT iteration 36, distance =  1.17e+02, diff param =  7.00e-02, diff hybrid =  9.01e-02
78 minimization steps, time(MIN)/time(ED)=0.00323
sb1_1     = -0.1119	sb2_1     = -0.0048	sb3_1     =  0.0151	sb4_1     = -0.1311	sb5_1     =  0.0071	
sb6_1     = -0.1243	sb7_1     =  0.0347	sb8_1     = -0.0043	eb1_1     =  0.0480	eb2_1     = -3.5853	
eb3_1     = -4.3229	eb4_1     = -0.1130	eb5_1     = -4.1175	eb6_1     = -0.0491	eb7_1     =  0.1049	
eb8_1     = -3.7924	tb1_1     = -0.0369	tb2_1     = -1.1158	tb3_1     =  1.7496	tb4_1     =  0.1030	
tb5_1     = -1.7164	tb6_1     = -0.0453	tb7_1     =  0.1800	tb8_1     = -2.2660	

CDMFT iteration 37, distance =  1.08e+02, diff param =  8.63e-02, diff hybrid =  9.93e-02
145 minimization steps, time(MIN)/time(ED)=0.00324
sb1_1     = -0.1401	sb2_1     =  0.0082	sb3_1     =  0.0093	sb4_1     = -0.1115	sb5_1     =  0.0166	
sb6_1     = -0.1215	sb7_1     = -0.0449	sb8_1     =  0.0067	eb1_1     =  0.1021	eb2_1     = -3.8173	
eb3_1     = -4.1333	eb4_1     = -0.0544	eb5_1     = -4.3535	eb6_1     = -0.1184	eb7_1     =  0.1087	
eb8_1     = -3.7908	tb1_1     =  0.0320	tb2_1     = -1.1376	tb3_1     =  1.7202	tb4_1     =  0.0644	
tb5_1     = -1.7541	tb6_1     = -0.1174	tb7_1     =  0.1694	tb8_1     = -2.2680	

CDMFT iteration 38, distance =  1.03e+02, diff param =  7.12e-02, diff hybrid =  1.09e-01
149 minimization steps, time(MIN)/time(ED)=0.00325
sb1_1     = -0.1272	sb2_1     = -0.0060	sb3_1     =  0.0165	sb4_1     = -0.1192	sb5_1     =  0.0116	
sb6_1     = -0.1049	sb7_1     =  0.0461	sb8_1     = -0.0071	eb1_1     =  0.0663	eb2_1     = -3.7100	
eb3_1     = -4.3724	eb4_1     = -0.1119	eb5_1     = -4.1926	eb6_1     = -0.0643	eb7_1     =  0.0965	
eb8_1     = -3.7742	tb1_1     = -0.0291	tb2_1     = -1.1291	tb3_1     =  1.7571	tb4_1     =  0.1199	
tb5_1     = -1.7289	tb6_1     = -0.0860	tb7_1     =  0.1595	tb8_1     = -2.2634	

CDMFT iteration 39, distance =  1.12e+02, diff param =  6.67e-02, diff hybrid =  1.01e-01
120 minimization steps, time(MIN)/time(ED)=0.00324
sb1_1     = -0.1147	sb2_1     =  0.0033	sb3_1     =  0.0102	sb4_1     = -0.1130	sb5_1     =  0.0152	
sb6_1     = -0.1265	sb7_1     = -0.0333	sb8_1     =  0.0044	eb1_1     =  0.0378	eb2_1     = -3.5949	
eb3_1     = -4.1656	eb4_1     = -0.0546	eb5_1     = -4.3647	eb6_1     = -0.1075	eb7_1     =  0.0878	
eb8_1     = -3.7664	tb1_1     =  0.0292	tb2_1     = -1.1179	tb3_1     =  1.7230	tb4_1     =  0.0785	
tb5_1     = -1.7563	tb6_1     = -0.1092	tb7_1     =  0.1646	tb8_1     = -2.2596	

CDMFT iteration 40, distance =  1.18e+02, diff param =  6.74e-02, diff hybrid =  9.08e-02
94 minimization steps, time(MIN)/time(ED)=0.00321
sb1_1     = -0.1101	sb2_1     = -0.0032	sb3_1     =  0.0144	sb4_1     = -0.1324	sb5_1     =  0.0080	
sb6_1     = -0.1235	sb7_1     =  0.0325	sb8_1     = -0.0037	eb1_1     =  0.0364	eb2_1     = -3.5770	
eb3_1     = -4.3354	eb4_1     = -0.1089	eb5_1     = -4.1240	eb6_1     = -0.0471	eb7_1     =  0.0970	
eb8_1     = -3.7835	tb1_1     = -0.0353	tb2_1     = -1.1156	tb3_1     =  1.7514	tb4_1     =  0.1016	
tb5_1     = -1.7159	tb6_1     = -0.0554	tb7_1     =  0.1775	tb8_1     = -2.2628	

CDMFT iteration 41, distance =  1.16e+02, diff param =  6.94e-02, diff hybrid =  9.03e-02
91 minimization steps, time(MIN)/time(ED)=0.00318
sb1_1     = -0.1133	sb2_1     =  0.0047	sb3_1     =  0.0075	sb4_1     = -0.1222	sb5_1     =  0.0152	
sb6_1     = -0.1298	sb7_1     = -0.0358	sb8_1     =  0.0045	eb1_1     =  0.0491	eb2_1     = -3.5916	
eb3_1     = -4.1194	eb4_1     = -0.0487	eb5_1     = -4.3310	eb6_1     = -0.1132	eb7_1     =  0.1040	
eb8_1     = -3.7904	tb1_1     =  0.0359	tb2_1     = -1.1164	tb3_1     =  1.7167	tb4_1     =  0.0496	
tb5_1     = -1.7508	tb6_1     = -0.1054	tb7_1     =  0.1779	tb8_1     = -2.2658	

CDMFT iteration 42, distance =  1.08e+02, diff param =  7.62e-02, diff hybrid =  9.88e-02
142 minimization steps, time(MIN)/time(ED)=0.00319
sb1_1     = -0.1302	sb2_1     = -0.0071	sb3_1     =  0.0165	sb4_1     = -0.1227	sb5_1     =  0.0092	
sb6_1     = -0.1122	sb7_1     =  0.0436	sb8_1     = -0.0064	eb1_1     =  0.0809	eb2_1     = -3.7034	
eb3_1     = -4.3613	eb4_1     = -0.1174	eb5_1     = -4.1349	eb6_1     = -0.0535	eb7_1     =  0.1069	
eb8_1     = -3.7890	tb1_1     = -0.0323	tb2_1     = -1.1261	tb3_1     =  1.7556	tb4_1     =  0.1165	
tb5_1     = -1.7202	tb6_1     = -0.0646	tb7_1     =  0.1697	tb8_1     = -2.2672	

CDMFT iteration 43, distance =  1.05e+02, diff param =  6.81e-02, diff hybrid =  1.06e-01
89 minimization steps, time(MIN)/time(ED)=0.00316
sb1_1     = -0.1250	sb2_1     =  0.0057	sb3_1     =  0.0110	sb4_1     = -0.1069	sb5_1     =  0.0163	
sb6_1     = -0.1206	sb7_1     = -0.0442	sb8_1     =  0.0067	eb1_1     =  0.0630	eb2_1     = -3.6828	
eb3_1     = -4.1787	eb4_1     = -0.0608	eb5_1     = -4.3623	eb6_1     = -0.1122	eb7_1     =  0.0982	
eb8_1     = -3.7745	tb1_1     =  0.0297	tb2_1     = -1.1261	tb3_1     =  1.7266	tb4_1     =  0.0816	
tb5_1     = -1.7553	tb6_1     = -0.1182	tb7_1     =  0.1622	tb8_1     = -2.2633	

CDMFT iteration 44, distance =  1.11e+02, diff param =  6.42e-02, diff hybrid =  9.95e-02
97 minimization steps, time(MIN)/time(ED)=0.00314
sb1_1     = -0.1155	sb2_1     = -0.0036	sb3_1     =  0.0153	sb4_1     = -0.1261	sb5_1     =  0.0101	
sb6_1     = -0.1129	sb7_1     =  0.0349	sb8_1     = -0.0047	eb1_1     =  0.0408	eb2_1     = -3.6131	
eb3_1     = -4.3595	eb4_1     = -0.1086	eb5_1     = -4.1616	eb6_1     = -0.0542	eb7_1     =  0.0916	
eb8_1     = -3.7706	tb1_1     = -0.0296	tb2_1     = -1.1200	tb3_1     =  1.7553	tb4_1     =  0.1099	
tb5_1     = -1.7226	tb6_1     = -0.0767	tb7_1     =  0.1661	tb8_1     = -2.2610	

CDMFT iteration 45, distance =  1.16e+02, diff param =  6.75e-02, diff hybrid =  9.09e-02
92 minimization steps, time(MIN)/time(ED)=0.00311
sb1_1     = -0.1116	sb2_1     =  0.0034	sb3_1     =  0.0084	sb4_1     = -0.1211	sb5_1     =  0.0147	
sb6_1     = -0.1305	sb7_1     = -0.0335	sb8_1     =  0.0040	eb1_1     =  0.0388	eb2_1     = -3.5856	
eb3_1     = -4.1279	eb4_1     = -0.0478	eb5_1     = -4.3431	eb6_1     = -0.1099	eb7_1     =  0.0971	
eb8_1     = -3.7813	tb1_1     =  0.0341	tb2_1     = -1.1166	tb3_1     =  1.7169	tb4_1     =  0.0589	
tb5_1     = -1.7527	tb6_1     = -0.1044	tb7_1     =  0.1751	tb8_1     = -2.2628	

CDMFT iteration 46, distance =  1.15e+02, diff param =  6.99e-02, diff hybrid =  9.05e-02
87 minimization steps, time(MIN)/time(ED)=0.00308
sb1_1     = -0.1142	sb2_1     = -0.0047	sb3_1     =  0.0153	sb4_1     = -0.1289	sb5_1     =  0.0079	
sb6_1     = -0.1206	sb7_1     =  0.0366	sb8_1     = -0.0047	eb1_1     =  0.0492	eb2_1     = -3.5954	
eb3_1     = -4.3356	eb4_1     = -0.1131	eb5_1     = -4.1237	eb6_1     = -0.0487	eb7_1     =  0.1034	
eb8_1     = -3.7914	tb1_1     = -0.0352	tb2_1     = -1.1168	tb3_1     =  1.7515	tb4_1     =  0.1070	
tb5_1     = -1.7173	tb6_1     = -0.0533	tb7_1     =  0.1764	tb8_1     = -2.2663	

CDMFT iteration 47, distance =  1.09e+02, diff param =  7.20e-02, diff hybrid =  9.80e-02
108 minimization steps, time(MIN)/time(ED)=0.00307
sb1_1     = -0.1243	sb2_1     =  0.0062	sb3_1     =  0.0091	sb4_1     = -0.1131	sb5_1     =  0.0162	
sb6_1     = -0.1236	sb7_1     = -0.0423	sb8_1     =  0.0061	eb1_1     =  0.0683	eb2_1     = -3.6498	
eb3_1     = -4.1346	eb4_1     = -0.0528	eb5_1     = -4.3541	eb6_1     = -0.1159	eb7_1     =  0.1055	
eb8_1     = -3.7878	tb1_1     =  0.0324	tb2_1     = -1.1210	tb3_1     =  1.7198	tb4_1     =  0.0645	
tb5_1     = -1.7543	tb6_1     = -0.1150	tb7_1     =  0.1702	tb8_1     = -2.2667	

CDMFT iteration 48, distance =  1.07e+02, diff param =  6.75e-02, diff hybrid =  1.03e-01
141 minimization steps, time(MIN)/time(ED)=0.00307
sb1_1     = -0.1227	sb2_1     = -0.0053	sb3_1     =  0.0161	sb4_1     = -0.1219	sb5_1     =  0.0105	
sb6_1     = -0.1088	sb7_1     =  0.0428	sb8_1     = -0.0064	eb1_1     =  0.0594	eb2_1     = -3.6512	
eb3_1     = -4.3577	eb4_1     = -0.1125	eb5_1     = -4.1686	eb6_1     = -0.0579	eb7_1     =  0.0997	
eb8_1     = -3.7785	tb1_1     = -0.0303	tb2_1     = -1.1225	tb3_1     =  1.7546	tb4_1     =  0.1166	
tb5_1     = -1.7249	tb6_1     = -0.0777	tb7_1     =  0.1647	tb8_1     = -2.2643	

CDMFT iteration 49, distance =  1.11e+02, diff param =  6.34e-02, diff hybrid =  9.85e-02
83 minimization steps, time(MIN)/time(ED)=0.00304
sb1_1     = -0.1161	sb2_1     =  0.0039	sb3_1     =  0.0100	sb4_1     = -0.1130	sb5_1     =  0.0153	
sb6_1     = -0.1257	sb7_1     = -0.0362	sb8_1     =  0.0049	eb1_1     =  0.0434	eb2_1     = -3.6142	
eb3_1     = -4.1587	eb4_1     = -0.0538	eb5_1     = -4.3523	eb6_1     = -0.1096	eb7_1     =  0.0942	
eb8_1     = -3.7737	tb1_1     =  0.0302	tb2_1     = -1.1198	tb3_1     =  1.7224	tb4_1     =  0.0748	
tb5_1     = -1.7539	tb6_1     = -0.1106	tb7_1     =  0.1670	tb8_1     = -2.2620	

CDMFT iteration 50, distance =  1.15e+02, diff param =  6.70e-02, diff hybrid =  9.16e-02
109 minimization steps, time(MIN)/time(ED)=0.00303
sb1_1     = -0.1129	sb2_1     = -0.0037	sb3_1     =  0.0150	sb4_1     = -0.1292	sb5_1     =  0.0086	
sb6_1     = -0.1191	sb7_1     =  0.0346	sb8_1     = -0.0043	eb1_1     =  0.0412	eb2_1     = -3.5912	
eb3_1     = -4.3484	eb4_1     = -0.1108	eb5_1     = -4.1312	eb6_1     = -0.0487	eb7_1     =  0.0978	
eb8_1     = -3.7822	tb1_1     = -0.0332	tb2_1     = -1.1171	tb3_1     =  1.7536	tb4_1     =  0.1065	
tb5_1     = -1.7177	tb6_1     = -0.0618	tb7_1     =  0.1736	tb8_1     = -2.2635	

CDMFT iteration 51, distance =  1.14e+02, diff param =  7.04e-02, diff hybrid =  9.12e-02
88 minimization steps, time(MIN)/time(ED)=0.00300
sb1_1     = -0.1150	sb2_1     =  0.0047	sb3_1     =  0.0082	sb4_1     = -0.1191	sb5_1     =  0.0154	
sb6_1     = -0.1281	sb7_1     = -0.0369	sb8_1     =  0.0048	eb1_1     =  0.0494	eb2_1     = -3.5987	
eb3_1     = -4.1264	eb4_1     = -0.0489	eb5_1     = -4.3412	eb6_1     = -0.1131	eb7_1     =  0.1023	
eb8_1     = -3.7873	tb1_1     =  0.0344	tb2_1     = -1.1172	tb3_1     =  1.7177	tb4_1     =  0.0568	
tb5_1     = -1.7523	tb6_1     = -0.1084	tb7_1     =  0.1747	tb8_1     = -2.2653	

CDMFT iteration 52, distance =  1.10e+02, diff param =  7.01e-02, diff hybrid =  9.70e-02
100 minimization steps, time(MIN)/time(ED)=0.00298
sb1_1     = -0.1212	sb2_1     = -0.0056	sb3_1     =  0.0159	sb4_1     = -0.1242	sb5_1     =  0.0091	
sb6_1     = -0.1137	sb7_1     =  0.0411	sb8_1     = -0.0058	eb1_1     =  0.0612	eb2_1     = -3.6304	
eb3_1     = -4.3467	eb4_1     = -0.1144	eb5_1     = -4.1372	eb6_1     = -0.0523	eb7_1     =  0.1042	
eb8_1     = -3.7866	tb1_1     = -0.0325	tb2_1     = -1.1196	tb3_1     =  1.7530	tb4_1     =  0.1137	
tb5_1     = -1.7201	tb6_1     = -0.0647	tb7_1     =  0.1705	tb8_1     = -2.2662	

CDMFT iteration 53, distance =  1.08e+02, diff param =  6.67e-02, diff hybrid =  1.01e-01
81 minimization steps, time(MIN)/time(ED)=0.00296
sb1_1     = -0.1209	sb2_1     =  0.0051	sb3_1     =  0.0101	sb4_1     = -0.1105	sb5_1     =  0.0159	
sb6_1     = -0.1230	sb7_1     = -0.0414	sb8_1     =  0.0061	eb1_1     =  0.0564	eb2_1     = -3.6347	
eb3_1     = -4.1590	eb4_1     = -0.0556	eb5_1     = -4.3533	eb6_1     = -0.1124	eb7_1     =  0.1003	
eb8_1     = -3.7801	tb1_1     =  0.0307	tb2_1     = -1.1207	tb3_1     =  1.7233	tb4_1     =  0.0743	
tb5_1     = -1.7539	tb6_1     = -0.1149	tb7_1     =  0.1666	tb8_1     = -2.2645	

CDMFT iteration 54, distance =  1.11e+02, diff param =  6.57e-02, diff hybrid =  9.75e-02
82 minimization steps, time(MIN)/time(ED)=0.00294
sb1_1     = -0.1163	sb2_1     = -0.0040	sb3_1     =  0.0155	sb4_1     = -0.1257	sb5_1     =  0.0098	
sb6_1     = -0.1133	sb7_1     =  0.0369	sb8_1     = -0.0050	eb1_1     =  0.0454	eb2_1     = -3.6090	
eb3_1     = -4.3586	eb4_1     = -0.1108	eb5_1     = -4.1514	eb6_1     = -0.0531	eb7_1     =  0.0962	
eb8_1     = -3.7759	tb1_1     = -0.0307	tb2_1     = -1.1189	tb3_1     =  1.7551	tb4_1     =  0.1112	
tb5_1     = -1.7213	tb6_1     = -0.0727	tb7_1     =  0.1679	tb8_1     = -2.2627	

CDMFT iteration 55, distance =  1.14e+02, diff param =  6.76e-02, diff hybrid =  9.25e-02
74 minimization steps, time(MIN)/time(ED)=0.00292
sb1_1     = -0.1141	sb2_1     =  0.0039	sb3_1     =  0.0089	sb4_1     = -0.1176	sb5_1     =  0.0152	
sb6_1     = -0.1280	sb7_1     = -0.0357	sb8_1     =  0.0046	eb1_1     =  0.0436	eb2_1     = -3.5960	
eb3_1     = -4.1379	eb4_1     = -0.0496	eb5_1     = -4.3464	eb6_1     = -0.1112	eb7_1     =  0.0984	
eb8_1     = -3.7817	tb1_1     =  0.0328	tb2_1     = -1.1174	tb3_1     =  1.7191	tb4_1     =  0.0637	
tb5_1     = -1.7531	tb6_1     = -0.1082	tb7_1     =  0.1724	tb8_1     = -2.2637	

CDMFT iteration 56, distance =  1.13e+02, diff param =  6.83e-02, diff hybrid =  9.21e-02
101 minimization steps, time(MIN)/time(ED)=0.00291
sb1_1     = -0.1156	sb2_1     = -0.0046	sb3_1     =  0.0154	sb4_1     = -0.1273	sb5_1     =  0.0085	
sb6_1     = -0.1177	sb7_1     =  0.0372	sb8_1     = -0.0049	eb1_1     =  0.0494	eb2_1     = -3.6014	
eb3_1     = -4.3419	eb4_1     = -0.1128	eb5_1     = -4.1328	eb6_1     = -0.0496	eb7_1     =  0.1017	
eb8_1     = -3.7859	tb1_1     = -0.0336	tb2_1     = -1.1175	tb3_1     =  1.7523	tb4_1     =  0.1093	
tb5_1     = -1.7188	tb6_1     = -0.0601	tb7_1     =  0.1734	tb8_1     = -2.2652	

CDMFT iteration 57, distance =  1.11e+02, diff param =  6.86e-02, diff hybrid =  9.61e-02
69 minimization steps, time(MIN)/time(ED)=0.00289
sb1_1     = -0.1195	sb2_1     =  0.0052	sb3_1     =  0.0091	sb4_1     = -0.1141	sb5_1     =  0.0158	
sb6_1     = -0.1247	sb7_1     = -0.0401	sb8_1     =  0.0056	eb1_1     =  0.0569	eb2_1     = -3.6201	
eb3_1     = -4.1386	eb4_1     = -0.0520	eb5_1     = -4.3462	eb6_1     = -0.1137	eb7_1     =  0.1028	
eb8_1     = -3.7850	tb1_1     =  0.0323	tb2_1     = -1.1189	tb3_1     =  1.7201	tb4_1     =  0.0654	
tb5_1     = -1.7529	tb6_1     = -0.1129	tb7_1     =  0.1705	tb8_1     = -2.2656	

CDMFT iteration 58, distance =  1.09e+02, diff param =  6.71e-02, diff hybrid =  9.87e-02
112 minimization steps, time(MIN)/time(ED)=0.00289
sb1_1     = -0.1197	sb2_1     = -0.0049	sb3_1     =  0.0159	sb4_1     = -0.1239	sb5_1     =  0.0098	
sb6_1     = -0.1118	sb7_1     =  0.0403	sb8_1     = -0.0058	eb1_1     =  0.0544	eb2_1     = -3.6253	
eb3_1     = -4.3538	eb4_1     = -0.1127	eb5_1     = -4.1529	eb6_1     = -0.0542	eb7_1     =  0.1003	
eb8_1     = -3.7808	tb1_1     = -0.0311	tb2_1     = -1.1198	tb3_1     =  1.7541	tb4_1     =  0.1140	
tb5_1     = -1.7222	tb6_1     = -0.0719	tb7_1     =  0.1678	tb8_1     = -2.2645	

CDMFT iteration 59, distance =  1.11e+02, diff param =  6.66e-02, diff hybrid =  9.67e-02
98 minimization steps, time(MIN)/time(ED)=0.00288
sb1_1     = -0.1167	sb2_1     =  0.0042	sb3_1     =  0.0096	sb4_1     = -0.1136	sb5_1     =  0.0156	
sb6_1     = -0.1256	sb7_1     = -0.0376	sb8_1     =  0.0051	eb1_1     =  0.0471	eb2_1     = -3.6087	
eb3_1     = -4.1495	eb4_1     = -0.0528	eb5_1     = -4.3564	eb6_1     = -0.1114	eb7_1     =  0.0975	
eb8_1     = -3.7785	tb1_1     =  0.0311	tb2_1     = -1.1186	tb3_1     =  1.7212	tb4_1     =  0.0712	
tb5_1     = -1.7547	tb6_1     = -0.1116	tb7_1     =  0.1686	tb8_1     = -2.2635	

CDMFT iteration 60, distance =  1.13e+02, diff param =  6.77e-02, diff hybrid =  9.32e-02
83 minimization steps, time(MIN)/time(ED)=0.00286
sb1_1     = -0.1150	sb2_1     = -0.0041	sb3_1     =  0.0154	sb4_1     = -0.1273	sb5_1     =  0.0090	
sb6_1     = -0.1165	sb7_1     =  0.0364	sb8_1     = -0.0048	eb1_1     =  0.0455	eb2_1     = -3.5996	
eb3_1     = -4.3484	eb4_1     = -0.1117	eb5_1     = -4.1395	eb6_1     = -0.0505	eb7_1     =  0.0987	
eb8_1     = -3.7813	tb1_1     = -0.0324	tb2_1     = -1.1177	tb3_1     =  1.7534	tb4_1     =  0.1094	
tb5_1     = -1.7195	tb6_1     = -0.0652	tb7_1     =  0.1715	tb8_1     = -2.2638	

CDMFT iteration 61, distance =  1.13e+02, diff param =  6.84e-02, diff hybrid =  9.28e-02
115 minimization steps, time(MIN)/time(ED)=0.00285
sb1_1     = -0.1161	sb2_1     =  0.0045	sb3_1     =  0.0088	sb4_1     = -0.1167	sb5_1     =  0.0155	
sb6_1     = -0.1269	sb7_1     = -0.0376	sb8_1     =  0.0050	eb1_1     =  0.0495	eb2_1     = -3.6036	
eb3_1     = -4.1357	eb4_1     = -0.0502	eb5_1     = -4.3458	eb6_1     = -0.1127	eb7_1     =  0.1012	
eb8_1     = -3.7846	tb1_1     =  0.0330	tb2_1     = -1.1177	tb3_1     =  1.7192	tb4_1     =  0.0626	
tb5_1     = -1.7530	tb6_1     = -0.1100	tb7_1     =  0.1724	tb8_1     = -2.2649	

CDMFT iteration 62, distance =  1.11e+02, diff param =  6.74e-02, diff hybrid =  9.55e-02
84 minimization steps, time(MIN)/time(ED)=0.00284
sb1_1     = -0.1187	sb2_1     = -0.0050	sb3_1     =  0.0157	sb4_1     = -0.1251	sb5_1     =  0.0092	
sb6_1     = -0.1144	sb7_1     =  0.0395	sb8_1     = -0.0055	eb1_1     =  0.0546	eb2_1     = -3.6164	
eb3_1     = -4.3435	eb4_1     = -0.1131	eb5_1     = -4.1440	eb6_1     = -0.0521	eb7_1     =  0.1020	
eb8_1     = -3.7842	tb1_1     = -0.0322	tb2_1     = -1.1186	tb3_1     =  1.7524	tb4_1     =  0.1122	
tb5_1     = -1.7210	tb6_1     = -0.0659	tb7_1     =  0.1705	tb8_1     = -2.2652	

CDMFT iteration 63, distance =  1.10e+02, diff param =  6.68e-02, diff hybrid =  9.73e-02
82 minimization steps, time(MIN)/time(ED)=0.00283
sb1_1     = -0.1189	sb2_1     =  0.0048	sb3_1     =  0.0097	sb4_1     = -0.1126	sb5_1     =  0.0158	
sb6_1     = -0.1244	sb7_1     = -0.0396	sb8_1     =  0.0056	eb1_1     =  0.0530	eb2_1     = -3.6201	
eb3_1     = -4.1477	eb4_1     = -0.0534	eb5_1     = -4.3551	eb6_1     = -0.1127	eb7_1     =  0.1005	
eb8_1     = -3.7820	tb1_1     =  0.0312	tb2_1     = -1.1193	tb3_1     =  1.7212	tb4_1     =  0.0706	
tb5_1     = -1.7544	tb6_1     = -0.1133	tb7_1     =  0.1687	tb8_1     = -2.2648	

CDMFT iteration 64, distance =  1.11e+02, diff param =  6.68e-02, diff hybrid =  9.59e-02
97 minimization steps, time(MIN)/time(ED)=0.00282
sb1_1     = -0.1170	sb2_1     = -0.0043	sb3_1     =  0.0156	sb4_1     = -0.1254	sb5_1     =  0.0095	
sb6_1     = -0.1138	sb7_1     =  0.0378	sb8_1     = -0.0052	eb1_1     =  0.0483	eb2_1     = -3.6104	
eb3_1     = -4.3515	eb4_1     = -0.1116	eb5_1     = -4.1492	eb6_1     = -0.0526	eb7_1     =  0.0984	
eb8_1     = -3.7793	tb1_1     = -0.0313	tb2_1     = -1.1187	tb3_1     =  1.7538	tb4_1     =  0.1117	
tb5_1     = -1.7213	tb6_1     = -0.0702	tb7_1     =  0.1690	tb8_1     = -2.2637	

CDMFT iteration 65, distance =  1.13e+02, diff param =  6.69e-02, diff hybrid =  9.35e-02
64 minimization steps, time(MIN)/time(ED)=0.00280
sb1_1     = -0.1156	sb2_1     =  0.0042	sb3_1     =  0.0092	sb4_1     = -0.1158	sb5_1     =  0.0154	
sb6_1     = -0.1268	sb7_1     = -0.0369	sb8_1     =  0.0049	eb1_1     =  0.0466	eb2_1     = -3.6029	
eb3_1     = -4.1409	eb4_1     = -0.0509	eb5_1     = -4.3487	eb6_1     = -0.1116	eb7_1     =  0.0988	
eb8_1     = -3.7802	tb1_1     =  0.0322	tb2_1     = -1.1180	tb3_1     =  1.7198	tb4_1     =  0.0662	
tb5_1     = -1.7534	tb6_1     = -0.1100	tb7_1     =  0.1709	tb8_1     = -2.2637	

CDMFT iteration 66, distance =  1.13e+02, diff param =  6.88e-02, diff hybrid =  9.32e-02
99 minimization steps, time(MIN)/time(ED)=0.00279
sb1_1     = -0.1160	sb2_1     = -0.0045	sb3_1     =  0.0155	sb4_1     = -0.1267	sb5_1     =  0.0089	
sb6_1     = -0.1163	sb7_1     =  0.0376	sb8_1     = -0.0050	eb1_1     =  0.0489	eb2_1     = -3.6039	
eb3_1     = -4.3503	eb4_1     = -0.1126	eb5_1     = -4.1354	eb6_1     = -0.0505	eb7_1     =  0.1008	
eb8_1     = -3.7839	tb1_1     = -0.0327	tb2_1     = -1.1178	tb3_1     =  1.7538	tb4_1     =  0.1103	
tb5_1     = -1.7191	tb6_1     = -0.0637	tb7_1     =  0.1719	tb8_1     = -2.2647	

CDMFT iteration 67, distance =  1.11e+02, diff param =  6.98e-02, diff hybrid =  9.52e-02
84 minimization steps, time(MIN)/time(ED)=0.00278
sb1_1     = -0.1179	sb2_1     =  0.0049	sb3_1     =  0.0091	sb4_1     = -0.1147	sb5_1     =  0.0157	
sb6_1     = -0.1256	sb7_1     = -0.0390	sb8_1     =  0.0054	eb1_1     =  0.0529	eb2_1     = -3.6138	
eb3_1     = -4.1381	eb4_1     = -0.0515	eb5_1     = -4.3519	eb6_1     = -0.1133	eb7_1     =  0.1015	
eb8_1     = -3.7838	tb1_1     =  0.0324	tb2_1     = -1.1186	tb3_1     =  1.7197	tb4_1     =  0.0655	
tb5_1     = -1.7540	tb6_1     = -0.1121	tb7_1     =  0.1707	tb8_1     = -2.2651	

CDMFT iteration 68, distance =  1.10e+02, diff param =  6.79e-02, diff hybrid =  9.68e-02
110 minimization steps, time(MIN)/time(ED)=0.00278
sb1_1     = -0.1184	sb2_1     = -0.0048	sb3_1     =  0.0157	sb4_1     = -0.1247	sb5_1     =  0.0095	
sb6_1     = -0.1134	sb7_1     =  0.0394	sb8_1     = -0.0055	eb1_1     =  0.0527	eb2_1     = -3.6181	
eb3_1     = -4.3498	eb4_1     = -0.1125	eb5_1     = -4.1488	eb6_1     = -0.0529	eb7_1     =  0.1007	
eb8_1     = -3.7819	tb1_1     = -0.0317	tb2_1     = -1.1191	tb3_1     =  1.7534	tb4_1     =  0.1128	
tb5_1     = -1.7215	tb6_1     = -0.0691	tb7_1     =  0.1693	tb8_1     = -2.2647	

CDMFT iteration 69, distance =  1.11e+02, diff param =  6.71e-02, diff hybrid =  9.62e-02
67 minimization steps, time(MIN)/time(ED)=0.00276
sb1_1     = -0.1171	sb2_1     =  0.0044	sb3_1     =  0.0095	sb4_1     = -0.1138	sb5_1     =  0.0156	
sb6_1     = -0.1255	sb7_1     = -0.0381	sb8_1     =  0.0052	eb1_1     =  0.0490	eb2_1     = -3.6116	
eb3_1     = -4.1430	eb4_1     = -0.0524	eb5_1     = -4.3531	eb6_1     = -0.1119	eb7_1     =  0.0989	
eb8_1     = -3.7787	tb1_1     =  0.0314	tb2_1     = -1.1188	tb3_1     =  1.7202	tb4_1     =  0.0695	
tb5_1     = -1.7541	tb6_1     = -0.1117	tb7_1     =  0.1692	tb8_1     = -2.2636	

CDMFT iteration 70, distance =  1.12e+02, diff param =  6.84e-02, diff hybrid =  9.42e-02
62 minimization steps, time(MIN)/time(ED)=0.00274
sb1_1     = -0.1160	sb2_1     = -0.0043	sb3_1     =  0.0155	sb4_1     = -0.1264	sb5_1     =  0.0092	
sb6_1     = -0.1154	sb7_1     =  0.0371	sb8_1     = -0.0050	eb1_1     =  0.0474	eb2_1     = -3.6048	
eb3_1     = -4.3505	eb4_1     = -0.1119	eb5_1     = -4.1391	eb6_1     = -0.0511	eb7_1     =  0.0989	
eb8_1     = -3.7789	tb1_1     = -0.0321	tb2_1     = -1.1181	tb3_1     =  1.7537	tb4_1     =  0.1105	
tb5_1     = -1.7195	tb6_1     = -0.0666	tb7_1     =  0.1705	tb8_1     = -2.2634	

CDMFT iteration 71, distance =  1.12e+02, diff param =  6.84e-02, diff hybrid =  9.36e-02
99 minimization steps, time(MIN)/time(ED)=0.00274
sb1_1     = -0.1162	sb2_1     =  0.0045	sb3_1     =  0.0090	sb4_1     = -0.1160	sb5_1     =  0.0155	
sb6_1     = -0.1266	sb7_1     = -0.0377	sb8_1     =  0.0051	eb1_1     =  0.0489	eb2_1     = -3.6046	
eb3_1     = -4.1391	eb4_1     = -0.0508	eb5_1     = -4.3479	eb6_1     = -0.1124	eb7_1     =  0.1005	
eb8_1     = -3.7831	tb1_1     =  0.0326	tb2_1     = -1.1179	tb3_1     =  1.7197	tb4_1     =  0.0645	
tb5_1     = -1.7533	tb6_1     = -0.1105	tb7_1     =  0.1716	tb8_1     = -2.2645	

CDMFT iteration 72, distance =  1.11e+02, diff param =  6.81e-02, diff hybrid =  9.50e-02
100 minimization steps, time(MIN)/time(ED)=0.00273
sb1_1     = -0.1175	sb2_1     = -0.0047	sb3_1     =  0.0156	sb4_1     = -0.1257	sb5_1     =  0.0092	
sb6_1     = -0.1149	sb7_1     =  0.0387	sb8_1     = -0.0053	eb1_1     =  0.0518	eb2_1     = -3.6116	
eb3_1     = -4.3476	eb4_1     = -0.1128	eb5_1     = -4.1397	eb6_1     = -0.0515	eb7_1     =  0.1013	
eb8_1     = -3.7836	tb1_1     = -0.0323	tb2_1     = -1.1184	tb3_1     =  1.7532	tb4_1     =  0.1116	
tb5_1     = -1.7200	tb6_1     = -0.0657	tb7_1     =  0.1708	tb8_1     = -2.2649	

CDMFT iteration 73, distance =  1.11e+02, diff param =  6.85e-02, diff hybrid =  9.63e-02
61 minimization steps, time(MIN)/time(ED)=0.00271
sb1_1     = -0.1182	sb2_1     =  0.0048	sb3_1     =  0.0094	sb4_1     = -0.1136	sb5_1     =  0.0157	
sb6_1     = -0.1251	sb7_1     = -0.0391	sb8_1     =  0.0054	eb1_1     =  0.0522	eb2_1     = -3.6152	
eb3_1     = -4.1399	eb4_1     = -0.0523	eb5_1     = -4.3520	eb6_1     = -0.1127	eb7_1     =  0.1007	
eb8_1     = -3.7825	tb1_1     =  0.0317	tb2_1     = -1.1188	tb3_1     =  1.7198	tb4_1     =  0.0683	
tb5_1     = -1.7539	tb6_1     = -0.1124	tb7_1     =  0.1696	tb8_1     = -2.2648	

CDMFT iteration 74, distance =  1.11e+02, diff param =  6.76e-02, diff hybrid =  9.59e-02
132 minimization steps, time(MIN)/time(ED)=0.00272
sb1_1     = -0.1172	sb2_1     = -0.0045	sb3_1     =  0.0156	sb4_1     = -0.1254	sb5_1     =  0.0095	
sb6_1     = -0.1140	sb7_1     =  0.0383	sb8_1     = -0.0053	eb1_1     =  0.0497	eb2_1     = -3.6112	
eb3_1     = -4.3504	eb4_1     = -0.1120	eb5_1     = -4.1479	eb6_1     = -0.0524	eb7_1     =  0.0995	
eb8_1     = -3.7808	tb1_1     = -0.0317	tb2_1     = -1.1186	tb3_1     =  1.7536	tb4_1     =  0.1118	
tb5_1     = -1.7212	tb6_1     = -0.0690	tb7_1     =  0.1695	tb8_1     = -2.2642	

CDMFT iteration 75, distance =  1.12e+02, diff param =  6.81e-02, diff hybrid =  9.47e-02
107 minimization steps, time(MIN)/time(ED)=0.00271
sb1_1     = -0.1163	sb2_1     =  0.0043	sb3_1     =  0.0092	sb4_1     = -0.1151	sb5_1     =  0.0156	
sb6_1     = -0.1263	sb7_1     = -0.0375	sb8_1     =  0.0051	eb1_1     =  0.0480	eb2_1     = -3.6050	
eb3_1     = -4.1397	eb4_1     = -0.0513	eb5_1     = -4.3560	eb6_1     = -0.1123	eb7_1     =  0.0994	
eb8_1     = -3.7813	tb1_1     =  0.0319	tb2_1     = -1.1180	tb3_1     =  1.7196	tb4_1     =  0.0670	
tb5_1     = -1.7547	tb6_1     = -0.1109	tb7_1     =  0.1705	tb8_1     = -2.2641	

CDMFT iteration 76, distance =  1.12e+02, diff param =  7.04e-02, diff hybrid =  9.41e-02
119 minimization steps, time(MIN)/time(ED)=0.00271
sb1_1     = -0.1165	sb2_1     = -0.0045	sb3_1     =  0.0156	sb4_1     = -0.1264	sb5_1     =  0.0091	
sb6_1     = -0.1155	sb7_1     =  0.0378	sb8_1     = -0.0051	eb1_1     =  0.0494	eb2_1     = -3.6064	
eb3_1     = -4.3560	eb4_1     = -0.1128	eb5_1     = -4.1370	eb6_1     = -0.0510	eb7_1     =  0.1004	
eb8_1     = -3.7828	tb1_1     = -0.0324	tb2_1     = -1.1181	tb3_1     =  1.7548	tb4_1     =  0.1111	
tb5_1     = -1.7193	tb6_1     = -0.0653	tb7_1     =  0.1711	tb8_1     = -2.2646	

CDMFT iteration 77, distance =  1.11e+02, diff param =  6.90e-02, diff hybrid =  9.50e-02
102 minimization steps, time(MIN)/time(ED)=0.00271
sb1_1     = -0.1175	sb2_1     =  0.0047	sb3_1     =  0.0092	sb4_1     = -0.1148	sb5_1     =  0.0157	
sb6_1     = -0.1256	sb7_1     = -0.0387	sb8_1     =  0.0053	eb1_1     =  0.0516	eb2_1     = -3.6120	
eb3_1     = -4.1437	eb4_1     = -0.0518	eb5_1     = -4.3480	eb6_1     = -0.1127	eb7_1     =  0.1010	
eb8_1     = -3.7832	tb1_1     =  0.0324	tb2_1     = -1.1185	tb3_1     =  1.7207	tb4_1     =  0.0663	
tb5_1     = -1.7533	tb6_1     = -0.1117	tb7_1     =  0.1706	tb8_1     = -2.2648	

CDMFT iteration 78, distance =  1.11e+02, diff param =  6.89e-02, diff hybrid =  9.60e-02
99 minimization steps, time(MIN)/time(ED)=0.00270
sb1_1     = -0.1178	sb2_1     = -0.0046	sb3_1     =  0.0158	sb4_1     = -0.1254	sb5_1     =  0.0094	
sb6_1     = -0.1139	sb7_1     =  0.0388	sb8_1     = -0.0054	eb1_1     =  0.0513	eb2_1     = -3.6141	
eb3_1     = -4.3586	eb4_1     = -0.1129	eb5_1     = -4.1400	eb6_1     = -0.0522	eb7_1     =  0.1005	
eb8_1     = -3.7820	tb1_1     = -0.0316	tb2_1     = -1.1188	tb3_1     =  1.7551	tb4_1     =  0.1123	
tb5_1     = -1.7198	tb6_1     = -0.0682	tb7_1     =  0.1698	tb8_1     = -2.2646	

CDMFT iteration 79, distance =  1.11e+02, diff param =  7.04e-02, diff hybrid =  9.57e-02
75 minimization steps, time(MIN)/time(ED)=0.00269
sb1_1     = -0.1172	sb2_1     =  0.0046	sb3_1     =  0.0094	sb4_1     = -0.1141	sb5_1     =  0.0157	
sb6_1     = -0.1257	sb7_1     = -0.0384	sb8_1     =  0.0053	eb1_1     =  0.0498	eb2_1     = -3.6111	
eb3_1     = -4.1431	eb4_1     = -0.0521	eb5_1     = -4.3594	eb6_1     = -0.1126	eb7_1     =  0.0998	
eb8_1     = -3.7824	tb1_1     =  0.0318	tb2_1     = -1.1186	tb3_1     =  1.7203	tb4_1     =  0.0684	
tb5_1     = -1.7553	tb6_1     = -0.1121	tb7_1     =  0.1698	tb8_1     = -2.2646	

CDMFT iteration 80, distance =  1.12e+02, diff param =  6.92e-02, diff hybrid =  9.48e-02
94 minimization steps, time(MIN)/time(ED)=0.00269
sb1_1     = -0.1166	sb2_1     = -0.0045	sb3_1     =  0.0156	sb4_1     = -0.1260	sb5_1     =  0.0092	
sb6_1     = -0.1149	sb7_1     =  0.0379	sb8_1     = -0.0052	eb1_1     =  0.0490	eb2_1     = -3.6080	
eb3_1     = -4.3517	eb4_1     = -0.1123	eb5_1     = -4.1417	eb6_1     = -0.0517	eb7_1     =  0.0998	
eb8_1     = -3.7817	tb1_1     = -0.0321	tb2_1     = -1.1184	tb3_1     =  1.7539	tb4_1     =  0.1112	
tb5_1     = -1.7201	tb6_1     = -0.0671	tb7_1     =  0.1704	tb8_1     = -2.2643	

CDMFT iteration 81, distance =  1.12e+02, diff param =  6.84e-02, diff hybrid =  9.46e-02
56 minimization steps, time(MIN)/time(ED)=0.00267
sb1_1     = -0.1167	sb2_1     =  0.0045	sb3_1     =  0.0092	sb4_1     = -0.1152	sb5_1     =  0.0155	
sb6_1     = -0.1261	sb7_1     = -0.0379	sb8_1     =  0.0051	eb1_1     =  0.0494	eb2_1     = -3.6074	
eb3_1     = -4.1374	eb4_1     = -0.0514	eb5_1     = -4.3475	eb6_1     = -0.1122	eb7_1     =  0.1001	
eb8_1     = -3.7807	tb1_1     =  0.0322	tb2_1     = -1.1182	tb3_1     =  1.7193	tb4_1     =  0.0661	
tb5_1     = -1.7532	tb6_1     = -0.1109	tb7_1     =  0.1707	tb8_1     = -2.2640	

CDMFT iteration 82, distance =  1.12e+02, diff param =  6.88e-02, diff hybrid =  9.49e-02
115 minimization steps, time(MIN)/time(ED)=0.00267
sb1_1     = -0.1171	sb2_1     = -0.0046	sb3_1     =  0.0157	sb4_1     = -0.1260	sb5_1     =  0.0092	
sb6_1     = -0.1149	sb7_1     =  0.0383	sb8_1     = -0.0052	eb1_1     =  0.0503	eb2_1     = -3.6094	
eb3_1     = -4.3526	eb4_1     = -0.1127	eb5_1     = -4.1402	eb6_1     = -0.0515	eb7_1     =  0.1007	
eb8_1     = -3.7828	tb1_1     = -0.0322	tb2_1     = -1.1183	tb3_1     =  1.7541	tb4_1     =  0.1114	
tb5_1     = -1.7199	tb6_1     = -0.0663	tb7_1     =  0.1707	tb8_1     = -2.2646	

CDMFT iteration 83, distance =  1.11e+02, diff param =  6.80e-02, diff hybrid =  9.54e-02
80 minimization steps, time(MIN)/time(ED)=0.00266
sb1_1     = -0.1174	sb2_1     =  0.0046	sb3_1     =  0.0093	sb4_1     = -0.1144	sb5_1     =  0.0156	
sb6_1     = -0.1256	sb7_1     = -0.0386	sb8_1     =  0.0053	eb1_1     =  0.0510	eb2_1     = -3.6117	
eb3_1     = -4.1450	eb4_1     = -0.0520	eb5_1     = -4.3489	eb6_1     = -0.1125	eb7_1     =  0.1005	
eb8_1     = -3.7823	tb1_1     =  0.0320	tb2_1     = -1.1185	tb3_1     =  1.7208	tb4_1     =  0.0673	
tb5_1     = -1.7534	tb6_1     = -0.1117	tb7_1     =  0.1702	tb8_1     = -2.2646	

CDMFT iteration 84, distance =  1.11e+02, diff param =  6.85e-02, diff hybrid =  9.55e-02
87 minimization steps, time(MIN)/time(ED)=0.00265
sb1_1     = -0.1173	sb2_1     = -0.0046	sb3_1     =  0.0157	sb4_1     = -0.1256	sb5_1     =  0.0093	
sb6_1     = -0.1142	sb7_1     =  0.0383	sb8_1     = -0.0053	eb1_1     =  0.0503	eb2_1     = -3.6113	
eb3_1     = -4.3585	eb4_1     = -0.1127	eb5_1     = -4.1414	eb6_1     = -0.0520	eb7_1     =  0.0999	
eb8_1     = -3.7816	tb1_1     = -0.0318	tb2_1     = -1.1185	tb3_1     =  1.7551	tb4_1     =  0.1120	
tb5_1     = -1.7200	tb6_1     = -0.0680	tb7_1     =  0.1698	tb8_1     = -2.2644	

CDMFT iteration 85, distance =  1.11e+02, diff param =  6.96e-02, diff hybrid =  9.50e-02
80 minimization steps, time(MIN)/time(ED)=0.00264
sb1_1     = -0.1170	sb2_1     =  0.0045	sb3_1     =  0.0093	sb4_1     = -0.1146	sb5_1     =  0.0156	
sb6_1     = -0.1257	sb7_1     = -0.0381	sb8_1     =  0.0052	eb1_1     =  0.0497	eb2_1     = -3.6096	
eb3_1     = -4.1420	eb4_1     = -0.0518	eb5_1     = -4.3542	eb6_1     = -0.1122	eb7_1     =  0.0999	
eb8_1     = -3.7816	tb1_1     =  0.0320	tb2_1     = -1.1185	tb3_1     =  1.7201	tb4_1     =  0.0675	
tb5_1     = -1.7544	tb6_1     = -0.1116	tb7_1     =  0.1702	tb8_1     = -2.2643	

CDMFT iteration 86, distance =  1.12e+02, diff param =  6.95e-02, diff hybrid =  9.48e-02
77 minimization steps, time(MIN)/time(ED)=0.00264
sb1_1     = -0.1167	sb2_1     = -0.0045	sb3_1     =  0.0156	sb4_1     = -0.1261	sb5_1     =  0.0092	
sb6_1     = -0.1150	sb7_1     =  0.0380	sb8_1     = -0.0052	eb1_1     =  0.0493	eb2_1     = -3.6080	
eb3_1     = -4.3540	eb4_1     = -0.1124	eb5_1     = -4.1375	eb6_1     = -0.0516	eb7_1     =  0.1002	
eb8_1     = -3.7825	tb1_1     = -0.0322	tb2_1     = -1.1183	tb3_1     =  1.7544	tb4_1     =  0.1113	
tb5_1     = -1.7193	tb6_1     = -0.0666	tb7_1     =  0.1706	tb8_1     = -2.2645	

CDMFT iteration 87, distance =  1.12e+02, diff param =  6.95e-02, diff hybrid =  9.49e-02
88 minimization steps, time(MIN)/time(ED)=0.00263
sb1_1     = -0.1169	sb2_1     =  0.0046	sb3_1     =  0.0092	sb4_1     = -0.1150	sb5_1     =  0.0156	
sb6_1     = -0.1260	sb7_1     = -0.0381	sb8_1     =  0.0052	eb1_1     =  0.0501	eb2_1     = -3.6090	
eb3_1     = -4.1401	eb4_1     = -0.0516	eb5_1     = -4.3516	eb6_1     = -0.1124	eb7_1     =  0.1006	
eb8_1     = -3.7828	tb1_1     =  0.0322	tb2_1     = -1.1183	tb3_1     =  1.7199	tb4_1     =  0.0664	
tb5_1     = -1.7539	tb6_1     = -0.1113	tb7_1     =  0.1707	tb8_1     = -2.2646	

CDMFT iteration 88, distance =  1.11e+02, diff param =  6.87e-02, diff hybrid =  9.52e-02
93 minimization steps, time(MIN)/time(ED)=0.00262
sb1_1     = -0.1173	sb2_1     = -0.0046	sb3_1     =  0.0156	sb4_1     = -0.1257	sb5_1     =  0.0093	
sb6_1     = -0.1145	sb7_1     =  0.0384	sb8_1     = -0.0053	eb1_1     =  0.0507	eb2_1     = -3.6111	
eb3_1     = -4.3525	eb4_1     = -0.1126	eb5_1     = -4.1421	eb6_1     = -0.0518	eb7_1     =  0.1005	
eb8_1     = -3.7823	tb1_1     = -0.0319	tb2_1     = -1.1185	tb3_1     =  1.7541	tb4_1     =  0.1117	
tb5_1     = -1.7203	tb6_1     = -0.0671	tb7_1     =  0.1703	tb8_1     = -2.2646	

CDMFT iteration 89, distance =  1.11e+02, diff param =  6.74e-02, diff hybrid =  9.53e-02
60 minimization steps, time(MIN)/time(ED)=0.00261
sb1_1     = -0.1174	sb2_1     =  0.0046	sb3_1     =  0.0094	sb4_1     = -0.1143	sb5_1     =  0.0156	
sb6_1     = -0.1254	sb7_1     = -0.0383	sb8_1     =  0.0053	eb1_1     =  0.0505	eb2_1     = -3.6112	
eb3_1     = -4.1449	eb4_1     = -0.0520	eb5_1     = -4.3474	eb6_1     = -0.1122	eb7_1     =  0.1001	
eb8_1     = -3.7819	tb1_1     =  0.0318	tb2_1     = -1.1185	tb3_1     =  1.7208	tb4_1     =  0.0679	
tb5_1     = -1.7531	tb6_1     = -0.1117	tb7_1     =  0.1700	tb8_1     = -2.2645	

CDMFT iteration 90, distance =  1.11e+02, diff param =  6.75e-02, diff hybrid =  9.49e-02
127 minimization steps, time(MIN)/time(ED)=0.00261
sb1_1     = -0.1169	sb2_1     = -0.0045	sb3_1     =  0.0156	sb4_1     = -0.1258	sb5_1     =  0.0093	
sb6_1     = -0.1146	sb7_1     =  0.0380	sb8_1     = -0.0052	eb1_1     =  0.0494	eb2_1     = -3.6087	
eb3_1     = -4.3539	eb4_1     = -0.1123	eb5_1     = -4.1426	eb6_1     = -0.0518	eb7_1     =  0.0998	
eb8_1     = -3.7815	tb1_1     = -0.0318	tb2_1     = -1.1184	tb3_1     =  1.7543	tb4_1     =  0.1115	
tb5_1     = -1.7202	tb6_1     = -0.0676	tb7_1     =  0.1701	tb8_1     = -2.2643	

CDMFT iteration 91, distance =  1.12e+02, diff param =  6.89e-02, diff hybrid =  9.45e-02
100 minimization steps, time(MIN)/time(ED)=0.00260
sb1_1     = -0.1167	sb2_1     =  0.0045	sb3_1     =  0.0092	sb4_1     = -0.1149	sb5_1     =  0.0156	
sb6_1     = -0.1260	sb7_1     = -0.0380	sb8_1     =  0.0052	eb1_1     =  0.0493	eb2_1     = -3.6078	
eb3_1     = -4.1408	eb4_1     = -0.0515	eb5_1     = -4.3535	eb6_1     = -0.1124	eb7_1     =  0.1000	
eb8_1     = -3.7820	tb1_1     =  0.0321	tb2_1     = -1.1182	tb3_1     =  1.7199	tb4_1     =  0.0667	
tb5_1     = -1.7543	tb6_1     = -0.1113	tb7_1     =  0.1705	tb8_1     = -2.2644	

CDMFT iteration 92, distance =  1.12e+02, diff param =  6.77e-02, diff hybrid =  9.47e-02
77 minimization steps, time(MIN)/time(ED)=0.00260
sb1_1     = -0.1170	sb2_1     = -0.0046	sb3_1     =  0.0155	sb4_1     = -0.1258	sb5_1     =  0.0092	
sb6_1     = -0.1149	sb7_1     =  0.0382	sb8_1     = -0.0052	eb1_1     =  0.0500	eb2_1     = -3.6088	
eb3_1     = -4.3448	eb4_1     = -0.1122	eb5_1     = -4.1429	eb6_1     = -0.0515	eb7_1     =  0.1004	
eb8_1     = -3.7827	tb1_1     = -0.0322	tb2_1     = -1.1183	tb3_1     =  1.7527	tb4_1     =  0.1112	
tb5_1     = -1.7204	tb6_1     = -0.0665	tb7_1     =  0.1706	tb8_1     = -2.2646	

CDMFT iteration 93, distance =  1.11e+02, diff param =  6.64e-02, diff hybrid =  9.51e-02
108 minimization steps, time(MIN)/time(ED)=0.00259
sb1_1     = -0.1172	sb2_1     =  0.0046	sb3_1     =  0.0093	sb4_1     = -0.1146	sb5_1     =  0.0156	
sb6_1     = -0.1257	sb7_1     = -0.0383	sb8_1     =  0.0052	eb1_1     =  0.0503	eb2_1     = -3.6099	
eb3_1     = -4.1440	eb4_1     = -0.0517	eb5_1     = -4.3471	eb6_1     = -0.1124	eb7_1     =  0.1003	
eb8_1     = -3.7822	tb1_1     =  0.0319	tb2_1     = -1.1184	tb3_1     =  1.7206	tb4_1     =  0.0671	
tb5_1     = -1.7531	tb6_1     = -0.1114	tb7_1     =  0.1703	tb8_1     = -2.2645	

CDMFT iteration 94, distance =  1.11e+02, diff param =  6.71e-02, diff hybrid =  9.52e-02
78 minimization steps, time(MIN)/time(ED)=0.00259
sb1_1     = -0.1172	sb2_1     = -0.0046	sb3_1     =  0.0156	sb4_1     = -0.1256	sb5_1     =  0.0093	
sb6_1     = -0.1145	sb7_1     =  0.0383	sb8_1     = -0.0052	eb1_1     =  0.0501	eb2_1     = -3.6101	
eb3_1     = -4.3490	eb4_1     = -0.1123	eb5_1     = -4.1420	eb6_1     = -0.0517	eb7_1     =  0.1001	
eb8_1     = -3.7817	tb1_1     = -0.0319	tb2_1     = -1.1184	tb3_1     =  1.7534	tb4_1     =  0.1115	
tb5_1     = -1.7202	tb6_1     = -0.0674	tb7_1     =  0.1701	tb8_1     = -2.2644	

CDMFT iteration 95, distance =  1.11e+02, diff param =  6.75e-02, diff hybrid =  9.50e-02
84 minimization steps, time(MIN)/time(ED)=0.00258
sb1_1     = -0.1169	sb2_1     =  0.0045	sb3_1     =  0.0093	sb4_1     = -0.1147	sb5_1     =  0.0156	
sb6_1     = -0.1258	sb7_1     = -0.0382	sb8_1     =  0.0052	eb1_1     =  0.0497	eb2_1     = -3.6091	
eb3_1     = -4.1430	eb4_1     = -0.0516	eb5_1     = -4.3496	eb6_1     = -0.1122	eb7_1     =  0.1000	
eb8_1     = -3.7820	tb1_1     =  0.0320	tb2_1     = -1.1184	tb3_1     =  1.7204	tb4_1     =  0.0672	
tb5_1     = -1.7535	tb6_1     = -0.1113	tb7_1     =  0.1702	tb8_1     = -2.2645	

CDMFT iteration 96, distance =  1.12e+02, diff param =  6.86e-02, diff hybrid =  9.49e-02
82 minimization steps, time(MIN)/time(ED)=0.00257
sb1_1     = -0.1167	sb2_1     = -0.0045	sb3_1     =  0.0156	sb4_1     = -0.1259	sb5_1     =  0.0092	
sb6_1     = -0.1148	sb7_1     =  0.0382	sb8_1     = -0.0052	eb1_1     =  0.0494	eb2_1     = -3.6084	
eb3_1     = -4.3542	eb4_1     = -0.1124	eb5_1     = -4.1393	eb6_1     = -0.0515	eb7_1     =  0.1002	
eb8_1     = -3.7821	tb1_1     = -0.0321	tb2_1     = -1.1183	tb3_1     =  1.7544	tb4_1     =  0.1113	
tb5_1     = -1.7197	tb6_1     = -0.0667	tb7_1     =  0.1705	tb8_1     = -2.2644	

CDMFT iteration 97, distance =  1.12e+02, diff param =  6.82e-02, diff hybrid =  9.51e-02
85 minimization steps, time(MIN)/time(ED)=0.00257
sb1_1     = -0.1169	sb2_1     =  0.0046	sb3_1     =  0.0092	sb4_1     = -0.1150	sb5_1     =  0.0155	
sb6_1     = -0.1258	sb7_1     = -0.0381	sb8_1     =  0.0052	eb1_1     =  0.0499	eb2_1     = -3.6090	
eb3_1     = -4.1433	eb4_1     = -0.0515	eb5_1     = -4.3467	eb6_1     = -0.1120	eb7_1     =  0.1003	
eb8_1     = -3.7825	tb1_1     =  0.0323	tb2_1     = -1.1183	tb3_1     =  1.7205	tb4_1     =  0.0664	
tb5_1     = -1.7530	tb6_1     = -0.1112	tb7_1     =  0.1706	tb8_1     = -2.2646	

CDMFT iteration 98, distance =  1.12e+02, diff param =  6.73e-02, diff hybrid =  9.53e-02
117 minimization steps, time(MIN)/time(ED)=0.00257
sb1_1     = -0.1171	sb2_1     = -0.0046	sb3_1     =  0.0156	sb4_1     = -0.1258	sb5_1     =  0.0092	
sb6_1     = -0.1147	sb7_1     =  0.0382	sb8_1     = -0.0052	eb1_1     =  0.0502	eb2_1     = -3.6097	
eb3_1     = -4.3505	eb4_1     = -0.1124	eb5_1     = -4.1420	eb6_1     = -0.0517	eb7_1     =  0.1002	
eb8_1     = -3.7825	tb1_1     = -0.0320	tb2_1     = -1.1183	tb3_1     =  1.7537	tb4_1     =  0.1114	
tb5_1     = -1.7203	tb6_1     = -0.0668	tb7_1     =  0.1704	tb8_1     = -2.2646	

CDMFT iteration 99, distance =  1.11e+02, diff param =  6.82e-02, diff hybrid =  9.52e-02
80 minimization steps, time(MIN)/time(ED)=0.00256
sb1_1     = -0.1173	sb2_1     =  0.0046	sb3_1     =  0.0093	sb4_1     = -0.1145	sb5_1     =  0.0157	
sb6_1     = -0.1256	sb7_1     = -0.0383	sb8_1     =  0.0052	eb1_1     =  0.0504	eb2_1     = -3.6107	
eb3_1     = -4.1426	eb4_1     = -0.0518	eb5_1     = -4.3527	eb6_1     = -0.1125	eb7_1     =  0.1001	
eb8_1     = -3.7817	tb1_1     =  0.0319	tb2_1     = -1.1185	tb3_1     =  1.7203	tb4_1     =  0.0674	
tb5_1     = -1.7541	tb6_1     = -0.1118	tb7_1     =  0.1701	tb8_1     = -2.2644	

CDMFT iteration 100, distance =  1.11e+02, diff param =  6.90e-02, diff hybrid =  9.51e-02
120 minimization steps, time(MIN)/time(ED)=0.00256
sb1_1     = -0.1171	sb2_1     = -0.0045	sb3_1     =  0.0157	sb4_1     = -0.1258	sb5_1     =  0.0093	
sb6_1     = -0.1145	sb7_1     =  0.0383	sb8_1     = -0.0052	eb1_1     =  0.0500	eb2_1     = -3.6102	
eb3_1     = -4.3568	eb4_1     = -0.1126	eb5_1     = -4.1419	eb6_1     = -0.0518	eb7_1     =  0.1000	
eb8_1     = -3.7818	tb1_1     = -0.0320	tb2_1     = -1.1184	tb3_1     =  1.7548	tb4_1     =  0.1117	
tb5_1     = -1.7201	tb6_1     = -0.0675	tb7_1     =  0.1701	tb8_1     = -2.2644	

CDMFT iteration 101, distance =  1.12e+02, diff param =  6.98e-02, diff hybrid =  9.50e-02
96 minimization steps, time(MIN)/time(ED)=0.00256
sb1_1     = -0.1169	sb2_1     =  0.0045	sb3_1     =  0.0092	sb4_1     = -0.1147	sb5_1     =  0.0157	
sb6_1     = -0.1259	sb7_1     = -0.0382	sb8_1     =  0.0052	eb1_1     =  0.0498	eb2_1     = -3.6095	
eb3_1     = -4.1400	eb4_1     = -0.0517	eb5_1     = -4.3553	eb6_1     = -0.1126	eb7_1     =  0.1002	
eb8_1     = -3.7820	tb1_1     =  0.0321	tb2_1     = -1.1184	tb3_1     =  1.7198	tb4_1     =  0.0671	
tb5_1     = -1.7546	tb6_1     = -0.1116	tb7_1     =  0.1704	tb8_1     = -2.2644	
Traceback (most recent call last):
  File "/home/theod/code_pyqcm/simulations/cdmft_fade_with_mu.py", line 131, in <module>
    fade(fade_func, initial_P, material_P, 20+20*int(sys.argv[1]))
  File "/home/theod/.local/lib/python3.8/site-packages/pyqcm/loop.py", line 390, in fade
    F()
  File "/home/theod/code_pyqcm/simulations/cdmft_fade_with_mu.py", line 119, in fade_func
    cdmft(
  File "/home/theod/.local/lib/python3.8/site-packages/pyqcm/cdmft.py", line 514, in cdmft
    raise pyqcm.TooManyIterationsError(maxiter)
pyqcm.TooManyIterationsError: 100
