model	E_kin	D	U	e	eb1_1	eb2_1	eb3_1	eb4_1	eb5_1	eb6_1	eb7_1	eb8_1	mu	sb1_1	sb2_1	sb3_1	sb4_1	sb5_1	sb6_1	sb7_1	sb8_1	tb1_1	tb2_1	tb3_1	tb4_1	tb5_1	tb6_1	tb7_1	tb8_1	tpd	tpp	tppp	ave_D	ave_e	ave_mu	ave_tpd	ave_tpp	ave_tppp	ave_U_1	ave_eb1_1	ave_eb2_1	ave_eb3_1	ave_eb4_1	ave_eb5_1	ave_eb6_1	ave_eb7_1	ave_eb8_1	ave_mu_1	ave_sb1_1	ave_sb2_1	ave_sb3_1	ave_sb4_1	ave_sb5_1	ave_sb6_1	ave_sb7_1	ave_sb8_1	ave_tb1_1	ave_tb2_1	ave_tb3_1	ave_tb4_1	ave_tb5_1	ave_tb6_1	ave_tb7_1	ave_tb8_1	var_U_1	var_eb1_1	var_eb2_1	var_eb3_1	var_eb4_1	var_eb5_1	var_eb6_1	var_eb7_1	var_eb8_1	var_mu_1	var_sb1_1	var_sb2_1	var_sb3_1	var_sb4_1	var_sb5_1	var_sb6_1	var_sb7_1	var_sb8_1	var_tb1_1	var_tb2_1	var_tb3_1	var_tb4_1	var_tb5_1	var_tb6_1	var_tb7_1	var_tb8_1	E0_1	sector_1	E0_2	sector_2	githash	time
2x2_2C_8b_C2v_L	4.2050614	0	14	2.3	0.0093257428	-3.1571654	-3.9347763	-0.13153369	-3.9347755	-0.13153374	0.17214312	-3.5981354	9.45	-4.7620334e-05	-1.7808676e-06	0.0074928338	-0.19107173	0.0074911496	-0.19107219	5.5569741e-06	-6.6399522e-07	-0.11848693	-1.0878633	1.7346473	0.02813701	-1.7346481	-0.028125181	0.26139589	-2.2994699	2.1	1	0.2	0.011034841	1.2519527	1.6074695	-0.61501924	-0.20312628	0.084312761	0.12949616	0.29399352	1.9358375	1.7869968	1.5375802	1.7869986	1.5375808	0.022662155	1.5299936	1.0951147	0.00042930808	-2.6963455e-06	0.11825335	1.2634051	0.11825968	1.2634257	-2.3747406e-05	1.9491597e-06	1.2468184	0.7481012	-1.6226745	-0.53228064	1.6226666	0.53222325	-0.32053262	2.6035228	0.028144182	0.26316871	0.062229985	0.19276979	0.38524381	0.19276842	0.38524697	0.023029614	0.3563409	0.037726639	4.2590223	5.3723047	5.161023	4.9590652	5.1610207	4.9590322	4.3911319	6.2464947	5.2392216	2.7345609	3.3620882	5.2950855	3.3620849	5.2951014	3.6809185	3.1101063	-73.393725	R0:S0:1	-57.2	uncorrelated	51514b8	2022-04-17@16:52
2x2_2C_8b_C2v_L	4.3256614	0	14	2.3299828	0.0074890387	-3.1577821	-3.9312033	-0.13046864	-3.9312137	-0.13046685	0.17103591	-3.5854881	9.462069	-3.3797504e-05	3.8528769e-06	0.0080865135	-0.19006842	0.0080843606	-0.19006611	5.3924414e-06	2.9483609e-06	-0.11839624	-1.0871738	1.7327323	0.03074828	-1.7327346	-0.030738508	0.26011016	-2.2948875	2.0948	1	0.20128621	0.011437242	1.2518268	1.6075962	-0.61496862	-0.20360942	0.08444613	0.12961273	0.30605632	1.9351469	1.7873344	1.5229627	1.787334	1.5229732	0.022988043	1.527865	1.0952332	0.00031781311	-1.2928041e-05	0.11952871	1.2740859	0.11953869	1.274066	-2.7267479e-05	-3.0191621e-06	1.2570675	0.75344649	-1.620625	-0.55026093	1.6206303	0.55022491	-0.32107252	2.6070166	0.028164838	0.27137539	0.062838778	0.1923776	0.39085003	0.19237807	0.39085002	0.02334586	0.35730159	0.037754938	4.3207069	5.359059	5.1511179	4.9812108	5.1511206	4.9811917	4.3869271	6.2568024	5.2450398	2.7380128	3.3490322	5.3260236	3.3490483	5.3259962	3.6834668	3.1050515	-73.393963	R0:S0:1	-57.05669	uncorrelated	51514b8	2022-04-17@17:00
2x2_2C_8b_C2v_L	4.456763	0	14	2.3599655	0.0072776424	-3.1575471	-3.9200533	-0.12976924	-3.9200739	-0.12977159	0.17048696	-3.5732908	9.4741379	-3.7456e-05	8.983398e-07	0.0081979747	-0.18927286	0.0081961176	-0.18927274	-4.600098e-07	-9.092375e-06	-0.11813992	-1.0861238	1.7288719	0.03136817	-1.7288767	-0.031358259	0.25930675	-2.2900296	2.0896	1	0.20257241	0.011594431	1.2519989	1.6080534	-0.61393078	-0.20328394	0.084252655	0.12978391	0.30294072	1.9354295	1.7879003	1.5262424	1.7879015	1.5262437	0.022719284	1.5287887	1.0957751	0.00035386873	-1.3508197e-05	0.11908088	1.268076	0.11908536	1.2680751	1.5937526e-05	1.9015898e-05	1.252825	0.75223392	-1.6181997	-0.55118994	1.618199	0.55114661	-0.31999167	2.6036176	0.028197029	0.26896434	0.062580796	0.19195036	0.38887581	0.19194943	0.38887953	0.023063954	0.35695974	0.037686496	4.3066439	5.3607993	5.1521839	4.9830188	5.1521797	4.9829978	4.3834743	6.2538095	5.2452509	2.7381174	3.3503688	5.3150085	3.3503783	5.3150147	3.6863389	3.1088454	-73.357969	R0:S0:1	-56.913379	uncorrelated	51514b8	2022-04-17@17:08
2x2_2C_8b_C2v_L	4.5894429	0	14	2.3899483	0.0073722891	-3.1575467	-3.9159373	-0.12944015	-3.9159606	-0.1294419	0.16981352	-3.5622346	9.4862069	-1.1842718e-05	-8.3060971e-07	0.0082854609	-0.18901611	0.00828465	-0.18901584	-1.1378917e-06	-1.8847681e-06	-0.1179414	-1.0850517	1.7263248	0.031793129	-1.7263301	-0.031793038	0.25889101	-2.28526	2.0844	1	0.20385862	0.011728974	1.2522148	1.6085447	-0.61275386	-0.20281662	0.084011499	0.12995481	0.29856214	1.9358155	1.7888135	1.5311731	1.7888125	1.5311828	0.02243644	1.5303	1.096363	0.00011177226	-2.0873059e-06	0.11830598	1.2611907	0.11830848	1.2611575	9.8082039e-06	4.3693001e-06	1.2469354	0.75036092	-1.6149237	-0.55008706	1.6149341	0.55009423	-0.31922102	2.5988334	0.028229247	0.26571046	0.06223102	0.19126179	0.38625753	0.19126272	0.38625478	0.022768192	0.35637014	0.037604348	4.285484	5.3639956	5.1534929	4.9819372	5.1534945	4.9819388	4.3800048	6.2483597	5.2453381	2.7380183	3.3534574	5.3	3.3534777	5.2999657	3.689478	3.1142655	-73.356209	R0:S0:1	-56.770069	uncorrelated	51514b8	2022-04-17@17:15
2x2_2C_8b_C2v_L	4.7182874	0	14	2.419931	0.0071915977	-3.1568253	-3.9072334	-0.12845317	-3.9072471	-0.12845495	0.16888493	-3.5504354	9.4982759	1.7899886e-05	7.2015641e-07	0.0083884688	-0.18831959	0.0083892744	-0.18831984	1.6668208e-06	9.0799093e-06	-0.11774305	-1.0838754	1.7228497	0.032527317	-1.7228525	-0.032531057	0.25822001	-2.2803811	2.0792	1	0.20514483	0.011885391	1.2523272	1.6088962	-0.61194927	-0.20262582	0.08388053	0.13010232	0.29839286	1.9359165	1.7894315	1.5299456	1.7894308	1.5299545	0.02234841	1.5307809	1.0968154	-0.00016842085	5.2740419e-06	0.11803603	1.259335	0.11803814	1.259322	-2.0024971e-05	-1.7519264e-05	1.245038	0.75041865	-1.6122729	-0.55306768	1.6122764	0.55308959	-0.31886333	2.5963925	0.028256757	0.26519526	0.062134172	0.19075888	0.38649535	0.19075949	0.38648867	0.022669677	0.356215	0.037550121	4.2866013	5.3625527	5.1518707	4.9874186	5.1518731	4.9874255	4.3764103	6.2473226	5.2476911	2.7389058	3.3518056	5.2991725	3.3518092	5.2991485	3.6923948	3.1167331	-73.32938	R0:S0:1	-56.626759	uncorrelated	51514b8	2022-04-17@17:23
2x2_2C_8b_C2v_L	4.8466784	0	14	2.4499138	0.0070123453	-3.1547425	-3.8952445	-0.12726329	-3.8952505	-0.12726319	0.16815579	-3.538226	9.5103448	-6.1540956e-06	-7.3358953e-06	0.008470084	-0.18744969	0.0084712114	-0.18745068	-1.3201455e-06	1.3516749e-06	-0.11752386	-1.0825306	1.7186842	0.033131182	-1.7186853	-0.033132055	0.25755145	-2.2754052	2.074	1	0.20643103	0.01200853	1.2524291	1.6092268	-0.61119155	-0.20246345	0.083761134	0.13024695	0.29851043	1.9359768	1.7899375	1.5282497	1.7899384	1.5282433	0.022287542	1.5311469	1.0972569	5.6532107e-05	1.8300224e-05	0.11770044	1.257654	0.11769556	1.2576715	5.9604773e-06	-3.966335e-06	1.2433217	0.75069476	-1.609863	-0.55559125	1.6098578	0.55559053	-0.31856989	2.5942163	0.028283706	0.26486366	0.062074336	0.19034122	0.38700112	0.19034038	0.38700333	0.022599359	0.35610571	0.037497556	4.289275	5.3607367	5.1503567	4.9933359	5.1503532	4.993334	4.3728756	6.246755	5.2502388	2.7399123	3.349747	5.2996204	3.3497381	5.2996445	3.6952764	3.1188783	-73.283744	R0:S0:1	-56.483448	uncorrelated	51514b8	2022-04-17@17:31
2x2_2C_8b_C2v_L	4.9791037	0	14	2.4798966	0.0069696972	-3.1538621	-3.8895949	-0.12692566	-3.889608	-0.12692681	0.16717172	-3.5253691	9.5224138	-4.8974078e-06	-4.3021208e-07	0.0085350268	-0.18709796	0.0085352536	-0.18709831	-1.6183995e-06	-1.2801692e-06	-0.1173065	-1.0813167	1.7158757	0.033434049	-1.7158786	-0.033434689	0.25682444	-2.2701239	2.0688	1	0.20771724	0.012096279	1.2526398	1.6097064	-0.61004284	-0.2020094	0.083527117	0.13041497	0.29445957	1.9363374	1.7907663	1.53343	1.7907662	1.5334325	0.021993036	1.5325049	1.0978317	4.6381569e-05	-9.4369094e-07	0.1169111	1.2504935	0.11691078	1.2504831	1.1203982e-05	3.4518747e-06	1.2375326	0.74894017	-1.606843	-0.55381428	1.6068461	0.5538186	-0.31750344	2.5897066	0.028315395	0.26196431	0.061747878	0.18971941	0.38424909	0.18971952	0.38424825	0.022293856	0.35557411	0.037417444	4.2689642	5.3637919	5.1520282	4.992027	5.1520274	4.9920282	4.3692521	6.2419991	5.2500705	2.7399304	3.3528582	5.2845219	3.3528652	5.2845132	3.6985032	3.1239346	-73.269422	R0:S0:1	-56.340138	uncorrelated	51514b8	2022-04-17@17:38
2x2_2C_8b_C2v_L	5.1101509	0	14	2.5098793	0.0068495969	-3.153663	-3.8868416	-0.12643632	-3.8868517	-0.12643559	0.16649796	-3.5146213	9.5344828	-1.2664053e-05	-6.191462e-08	0.0086817106	-0.18672681	0.0086814526	-0.18672643	4.6301717e-06	9.4965844e-06	-0.11710215	-1.0801907	1.7136571	0.034151832	-1.7136591	-0.034149463	0.25637257	-2.2655433	2.0636	1	0.20900345	0.012239424	1.2528109	1.6101465	-0.60902135	-0.20166116	0.083334507	0.13057909	0.29204151	1.9365961	1.7916163	1.5357081	1.7916163	1.5357154	0.021796416	1.5335737	1.0983483	0.00011702272	4.3019417e-06	0.11631588	1.2458425	0.11632057	1.2458399	-3.269181e-05	-1.7204929e-05	1.2333996	0.7478916	-1.6037732	-0.55513466	1.6037732	0.55512649	-0.31694508	2.5860111	0.028346102	0.26003165	0.061510912	0.18905673	0.38276356	0.18905678	0.38276002	0.02208567	0.35516711	0.037351606	4.2576221	5.365066	5.1518412	4.9939768	5.1518426	4.9939679	4.365781	6.2384537	5.2511037	2.74015	3.3538856	5.2757059	3.3538875	5.2756929	3.7014902	3.1278328	-73.273863	R0:S0:1	-56.196828	uncorrelated	51514b8	2022-04-17@17:46
2x2_2C_8b_C2v_L	5.238162	0	14	2.5398621	0.0064726792	-3.1514019	-3.8752697	-0.1253249	-3.8752867	-0.12532637	0.16576485	-3.5035458	9.5465517	-2.8959738e-05	1.5429882e-07	0.0088184877	-0.18584805	0.0088182995	-0.18585003	3.2869062e-06	-5.7599382e-07	-0.1168878	-1.0787357	1.7096003	0.03497326	-1.7096029	-0.034965726	0.25566392	-2.2609647	2.0584	1	0.21028966	0.012377663	1.252902	1.6104764	-0.60829437	-0.20153277	0.083226722	0.13072794	0.29252696	1.9366402	1.7920898	1.5337902	1.7920934	1.5337835	0.021735801	1.5338656	1.0987704	0.00027173819	-2.9173472e-06	0.11605935	1.2443582	0.11606064	1.2444069	-1.5016657e-05	1.4038432e-06	1.2322278	0.74821975	-1.6015001	-0.5588193	1.6014819	0.55877388	-0.31657583	2.5841676	0.028373727	0.26002291	0.061465354	0.18866125	0.38326309	0.18865823	0.38326551	0.022015918	0.35508894	0.037305775	4.2617526	5.3631004	5.1501823	5.0006497	5.1501733	5.0006242	4.3624264	6.2381589	5.2534367	2.7410467	3.3515158	5.2767701	3.3514958	5.2768194	3.7041397	3.1294763	-73.233071	R0:S0:1	-56.053517	uncorrelated	51514b8	2022-04-17@17:53
2x2_2C_8b_C2v_L	5.3685878	0	14	2.5698448	0.0063610181	-3.1495366	-3.8665918	-0.12460266	-3.8666179	-0.12460532	0.16490022	-3.4907963	9.5586207	-2.2988644e-05	-2.9532707e-06	0.0088392154	-0.18526024	0.0088387287	-0.18526025	-1.0007213e-07	-6.5042795e-06	-0.11665101	-1.0773965	1.7061737	0.035341969	-1.706179	-0.035336101	0.25495887	-2.2557608	2.0532	1	0.21157586	0.012457404	1.2530604	1.6108796	-0.60734391	-0.20121382	0.083047632	0.13088632	0.29034177	1.9368613	1.7927373	1.5359625	1.7927382	1.5359631	0.021552111	1.5347584	1.0992759	0.00021716476	-1.6053461e-07	0.11554577	1.2396047	0.11554668	1.2396046	8.1552313e-06	1.1029277e-05	1.228112	0.7473695	-1.5989028	-0.55859521	1.5989026	0.55857169	-0.31584381	2.5807794	0.028403431	0.25830619	0.061263186	0.18815981	0.38196347	0.18815904	0.38196547	0.021823161	0.3547517	0.037240547	4.251371	5.3640967	5.1506129	5.0022616	5.1506083	5.0022494	4.3588807	6.235369	5.254469	2.7414742	3.3523782	5.268535	3.3523842	5.2685427	3.7072017	3.1330516	-73.202726	R0:S0:1	-55.910207	uncorrelated	51514b8	2022-04-17@18:01
2x2_2C_8b_C2v_L	5.4980436	0	14	2.5998276	0.0062443824	-3.1475439	-3.8563987	-0.12363442	-3.8564138	-0.12363402	0.16407685	-3.4790769	9.5706897	-3.7606865e-06	-3.7688052e-06	0.0088690097	-0.18458586	0.008868706	-0.18458516	1.7686137e-06	5.5563941e-06	-0.1164438	-1.0759927	1.7023438	0.03569546	-1.7023466	-0.035696731	0.25438109	-2.2508532	2.048	1	0.21286207	0.012528539	1.2531937	1.6112383	-0.60649241	-0.20095505	0.082894224	0.13103576	0.28929941	1.9370094	1.793347	1.5362879	1.7933462	1.5362947	0.021452062	1.535498	1.0997477	3.4591138e-05	1.1523212e-05	0.11499789	1.2363274	0.11499932	1.236309	-1.5013142e-05	-1.1679595e-05	1.2249935	0.74702954	-1.5963034	-0.55891976	1.5963092	0.55893109	-0.31546568	2.5778169	0.028431325	0.25732005	0.061125815	0.18767413	0.38160232	0.18767486	0.38159919	0.021715207	0.35447763	0.037180457	4.2470678	5.3637987	5.1501605	5.0055887	5.1501623	5.0055913	4.3554598	6.2332217	5.2563125	2.7422154	3.3519546	5.2645489	3.3519637	5.264527	3.7101346	3.1360431	-73.16679	R0:S0:1	-55.766897	uncorrelated	51514b8	2022-04-17@18:09
2x2_2C_8b_C2v_L	5.6273171	0	14	2.6298103	0.0059730939	-3.145179	-3.8465351	-0.12266533	-3.8465453	-0.12266239	0.16341959	-3.4676972	9.5827586	-5.137883e-05	5.5541171e-06	0.0089229115	-0.18384997	0.0089226141	-0.1838492	4.3513911e-06	6.5440693e-06	-0.11621782	-1.074537	1.6986579	0.036159444	-1.6986604	-0.036155266	0.25377802	-2.2461116	2.0428	1	0.21414828	0.012608708	1.2533206	1.6116044	-0.60564975	-0.20072266	0.082750148	0.13118866	0.28860158	1.9371336	1.7939225	1.5363653	1.7939219	1.5363779	0.021356482	1.5361428	1.1002084	0.00048508949	-1.4950043e-05	0.11449998	1.2332333	0.11450697	1.2332086	-2.1361083e-05	-5.6334452e-06	1.2222196	0.74680671	-1.59383	-0.55991081	1.5938369	0.55989424	-0.3150629	2.5751264	0.028459798	0.25662153	0.0610099	0.18721261	0.38127745	0.18721325	0.38127438	0.02161165	0.35424407	0.037124954	4.244201	5.3632898	5.1495739	5.0095477	5.1495768	5.0095332	4.3520908	6.231458	5.2581636	2.7429264	3.3512	5.2612918	3.3512181	5.2612554	3.7129794	3.1386689	-73.13271	R0:S0:1	-55.623586	uncorrelated	51514b8	2022-04-17@18:16
2x2_2C_8b_C2v_L	5.7580474	0	14	2.6597931	0.0057854404	-3.1436817	-3.8403515	-0.12206475	-3.8403651	-0.12206337	0.16243762	-3.4548373	9.5948276	-4.4676394e-05	-2.2814652e-06	0.0089616056	-0.18334853	0.0089587482	-0.18334647	4.7701792e-06	3.2537058e-06	-0.11599497	-1.0731771	1.695746	0.0365249	-1.6957493	-0.036515481	0.25301229	-2.2408822	2.0376	1	0.21543448	0.01267373	1.2534874	1.6120189	-0.60467069	-0.20037815	0.082563804	0.13134712	0.28636374	1.9373745	1.7946474	1.5390225	1.794647	1.539031	0.021153582	1.5370928	1.1007135	0.00042193936	1.7715568e-06	0.11389659	1.2281369	0.11390512	1.228122	-2.4571968e-05	-5.7309253e-06	1.2179352	0.74582505	-1.5910967	-0.55938943	1.5911023	0.55935552	-0.31420995	2.5716183	0.02848948	0.2549488	0.060789802	0.18665102	0.37971394	0.18665155	0.37971402	0.021400067	0.35387907	0.037059238	4.232961	5.36453	5.1500569	5.0106883	5.1500587	5.0106674	4.3484928	6.22846	5.2590091	2.7433011	3.3524344	5.2521553	3.3524483	5.2521374	3.7160724	3.1423172	-73.114125	R0:S0:1	-55.480276	uncorrelated	51514b8	2022-04-17@18:24
2x2_2C_8b_C2v_L	5.8878437	0	14	2.6897759	0.0056771517	-3.1417431	-3.8314439	-0.12135285	-3.8314609	-0.12135489	0.16157898	-3.4428192	9.6068966	-4.9443089e-05	-3.6205977e-06	0.0090606917	-0.18273581	0.009060325	-0.1827359	1.474148e-06	6.6188762e-07	-0.11578681	-1.0718623	1.6922331	0.037092264	-1.6922371	-0.037088945	0.25235492	-2.2359166	2.0324	1	0.21672069	0.012756766	1.2536299	1.6124031	-0.60378255	-0.20009921	0.08240126	0.13150591	0.28449086	1.9375572	1.7952514	1.5405714	1.795251	1.5405831	0.020986599	1.5378794	1.1011918	0.00046730854	3.1413389e-06	0.11337347	1.2238105	0.11337735	1.2237859	-3.7968632e-06	-1.1275177e-09	1.2144658	0.74519483	-1.5886471	-0.56037802	1.5886542	0.56036808	-0.3135317	2.5685972	0.028519157	0.25336944	0.060622041	0.18617763	0.378636	0.18617812	0.37863237	0.021224557	0.35358426	0.037001257	4.2246427	5.365159	5.1502141	5.013243	5.1502155	5.0132311	4.345103	6.2261005	5.2599235	2.7437186	3.3528035	5.245244	3.3528215	5.2452141	3.7189608	3.1453246	-73.084676	R0:S0:1	-55.336966	uncorrelated	51514b8	2022-04-17@18:31
2x2_2C_8b_C2v_L	6.0183049	0	14	2.7197586	0.0054923677	-3.1406375	-3.8261078	-0.12072362	-3.8261232	-0.12072558	0.16066398	-3.4304298	9.6189655	-1.8946208e-05	-1.0988148e-06	0.0090904436	-0.18224086	0.0090898167	-0.1822415	-2.3171547e-06	-3.9331356e-06	-0.1155849	-1.0705959	1.6894896	0.03748003	-1.6894926	-0.037479911	0.25166476	-2.2308123	2.0272	1	0.2180069	0.012818036	1.2537895	1.6128068	-0.60283061	-0.19976995	0.082221588	0.13166246	0.28259243	1.9377726	1.7959907	1.5427429	1.7959909	1.5427463	0.020808032	1.5388004	1.1016826	0.00017998015	-2.4793131e-06	0.11280338	1.2191297	0.11280381	1.2191185	1.8740168e-05	8.7176281e-06	1.2105026	0.74439564	-1.5858837	-0.56011378	1.5858865	0.56011338	-0.31280846	2.5651884	0.028548421	0.25191262	0.060424847	0.18559988	0.37729955	0.18559976	0.37729855	0.021037802	0.35322937	0.036938394	4.215173	5.3660547	5.1503968	5.0148276	5.150395	5.0148255	4.3415387	6.2232368	5.2609256	2.7441864	3.3537069	5.2371994	3.3537161	5.237191	3.7220308	3.1487758	-73.071617	R0:S0:1	-55.193655	uncorrelated	51514b8	2022-04-17@18:39
2x2_2C_8b_C2v_L	6.1464781	0	14	2.7497414	0.0051546783	-3.1378335	-3.8148081	-0.11966877	-3.8148166	-0.11967202	0.15988623	-3.4192407	9.6310345	1.4971473e-06	-7.0611269e-08	0.0091705896	-0.18144675	0.0091712587	-0.18144737	-8.1881896e-08	4.0811203e-06	-0.11534538	-1.0690617	1.6854637	0.038068702	-1.6854657	-0.038071238	0.25098846	-2.2261269	2.022	1	0.2192931	0.012896234	1.2538886	1.613131	-0.60209738	-0.19960756	0.082104794	0.13181123	0.28263751	1.9378406	1.7964752	1.5416033	1.7964747	1.5416127	0.020743041	1.5392294	1.1021051	-1.4295013e-05	1.9198142e-06	0.1123832	1.2170115	0.11238503	1.2169948	-3.6837814e-06	-7.195925e-06	1.2085556	0.74452375	-1.5836577	-0.56218866	1.5836617	0.56220368	-0.31242925	2.5630551	0.028576015	0.25170398	0.060359029	0.18520025	0.37753262	0.18520078	0.37752652	0.020965582	0.3530875	0.03689137	4.2163152	5.3647414	5.1493096	5.0202277	5.1493118	5.0202309	4.3382295	6.2223489	5.2630851	2.7450155	3.3520257	5.2368785	3.3520333	5.2368531	3.7247451	3.1506274	-73.030702	R0:S0:1	-55.050345	uncorrelated	51514b8	2022-04-17@18:47
2x2_2C_8b_C2v_L	6.2760559	0	14	2.7797241	0.0049638665	-3.13474	-3.8038356	-0.11881765	-3.8038318	-0.11881676	0.15907527	-3.4071615	9.6431034	4.4637618e-07	-5.6169369e-08	0.0091654257	-0.18074653	0.0091669802	-0.18074622	1.3934748e-06	6.3530893e-06	-0.11511603	-1.0674885	1.681558	0.038349962	-1.6815567	-0.038351389	0.25028864	-2.221142	2.0168	1	0.22057931	0.0129365	1.2540277	1.613498	-0.60123759	-0.1993322	0.081946157	0.13196876	0.28103669	1.9380121	1.7970107	1.5431244	1.7970105	1.5431272	0.020601252	1.5400043	1.1025782	-4.9998067e-06	4.2960456e-06	0.11188432	1.2126552	0.11188403	1.2126523	-1.3116269e-05	-1.0969519e-05	1.204936	0.74391864	-1.5813765	-0.56179596	1.5813764	0.5618032	-0.31176028	2.5601084	0.028605422	0.25042102	0.060201676	0.18478157	0.37657824	0.18478175	0.37657606	0.020817117	0.35279206	0.036833735	4.2085287	5.3652986	5.1497617	5.0223105	5.1497635	5.0223128	4.3349305	6.2200522	5.2642334	2.745488	3.3523794	5.2302873	3.3523787	5.2302783	3.727585	3.1535162	-72.989125	R0:S0:1	-54.907034	uncorrelated	51514b8	2022-04-17@18:54
2x2_2C_8b_C2v_L	6.4056559	0	14	2.8097069	0.0048828768	-3.1322714	-3.7945668	-0.11807072	-3.7945682	-0.11807194	0.15824845	-3.3943795	9.6551724	-1.9556172e-05	-2.523032e-06	0.0092014516	-0.18015988	0.0092004234	-0.18016077	-5.2705811e-06	-4.1553563e-06	-0.11490659	-1.0660697	1.67797	0.03867787	-1.6779714	-0.038676172	0.24964281	-2.2159158	2.0116	1	0.22186552	0.012975491	1.2541678	1.6138619	-0.60037902	-0.19904832	0.081786112	0.13212421	0.27929667	1.9381859	1.7975968	1.5447172	1.797597	1.544714	0.020450208	1.5407757	1.1030476	0.00018703909	4.3082435e-07	0.11130299	1.2083473	0.11130265	1.208349	3.6140907e-05	1.0558909e-05	1.2012771	0.743331	-1.5790039	-0.56154995	1.579005	0.56154017	-0.31112489	2.5570843	0.028634461	0.24900116	0.060042479	0.18432237	0.37558494	0.18432223	0.37558785	0.020659115	0.35249929	0.036776235	4.2003551	5.3659071	5.1501138	5.0242331	5.150112	5.0242273	4.3314999	6.2177856	5.2652666	2.7460041	3.3528669	5.2235365	3.35287	5.2235466	3.7305651	3.1564615	-72.955044	R0:S0:1	-54.763724	uncorrelated	51514b8	2022-04-17@19:02
2x2_2C_8b_C2v_L	6.5357215	0	14	2.8396897	0.0046069503	-3.1308897	-3.7886328	-0.11738931	-3.7886377	-0.11738915	0.15736304	-3.3820219	9.6672414	-7.6416255e-06	-7.9147972e-07	0.0092515053	-0.17962492	0.009251782	-0.17962432	-4.0271056e-06	-5.6749606e-06	-0.11470125	-1.064678	1.6750775	0.039030575	-1.6750778	-0.039032509	0.24897749	-2.2108141	2.0064	1	0.22315172	0.013012566	1.2543184	1.6142471	-0.59946942	-0.19873865	0.08161676	0.13227659	0.277855	1.9383773	1.7983072	1.5464618	1.7983067	1.546462	0.020301508	1.5416281	1.1035186	7.3975708e-05	-2.9603036e-06	0.11063994	1.2039797	0.11063749	1.20396	2.9239284e-05	1.2283354e-05	1.1975859	0.74267758	-1.5763178	-0.56119538	1.5763239	0.56120615	-0.31048649	2.5538709	0.028662871	0.24791178	0.059866581	0.18376236	0.37445149	0.18376284	0.3744528	0.020503512	0.35216911	0.036716471	4.1928471	5.3664189	5.1501624	5.0262169	5.1501616	5.0262241	4.3279872	6.2152127	5.2664376	2.7465873	3.3534205	5.2167219	3.3534324	5.216711	3.7335948	3.1595787	-72.938679	R0:S0:1	-54.620414	uncorrelated	51514b8	2022-04-17@19:10
2x2_2C_8b_C2v_L	6.665018	0	14	2.8696724	0.004375876	-3.1288093	-3.780086	-0.11659363	-3.7800909	-0.11659378	0.15661923	-3.3702122	9.6793103	-4.3604039e-06	-1.1682863e-07	0.0092791789	-0.17897536	0.0092802267	-0.17897494	-5.1042282e-07	4.4504939e-07	-0.11445327	-1.0633206	1.6716771	0.039478732	-1.6716774	-0.039479233	0.24831338	-2.2059377	2.0012	1	0.22443793	0.013063664	1.254449	1.6146105	-0.59863294	-0.19848525	0.081467594	0.1324339	0.27657864	1.9385271	1.7988801	1.5474714	1.7988801	1.5474733	0.020167482	1.5423259	1.1039723	4.1893798e-05	-4.7089602e-08	0.11017472	1.200107	0.11017391	1.2000992	3.2580807e-06	6.4717269e-08	1.194266	0.74224701	-1.574003	-0.56175224	1.5740045	0.56175629	-0.30987364	2.5511122	0.028692147	0.24684291	0.059728523	0.18330757	0.3736706	0.18330763	0.37366982	0.020362571	0.35190707	0.036663897	4.1867718	5.3666679	5.1501326	5.029085	5.1501323	5.029087	4.3246369	6.2132453	5.267788	2.7471034	3.353391	5.2114032	3.3533953	5.211396	3.7364466	3.1621278	-72.910859	R0:S0:1	-54.477103	uncorrelated	51514b8	2022-04-17@19:17
2x2_2C_8b_C2v_L	6.794249	0	14	2.8996552	0.0041414656	-3.1262252	-3.7702846	-0.11575604	-3.7702916	-0.11575669	0.15575288	-3.3584513	9.6913793	2.5821995e-06	-7.2212462e-06	0.0093092037	-0.17829385	0.0093094476	-0.17829413	-2.8973619e-06	-5.2027446e-06	-0.11424524	-1.0618084	1.6679769	0.039837691	-1.6679784	-0.039838229	0.24762355	-2.2010518	1.996	1	0.22572414	0.013098193	1.2545793	1.6149651	-0.59780766	-0.1982293	0.081318507	0.13258893	0.27536143	1.9386761	1.7994365	1.5485409	1.7994368	1.5485344	0.020040437	1.5430398	1.1044248	-2.4730653e-05	1.4036337e-05	0.10963623	1.196132	0.10963157	1.1961369	1.9053675e-05	6.5560574e-06	1.1910699	0.74180312	-1.5716934	-0.56184058	1.5716933	0.56184288	-0.30924611	2.548351	0.028720988	0.2458289	0.059591099	0.18286653	0.37289257	0.18286629	0.37289641	0.020229357	0.35163517	0.036610357	4.1809225	5.3668663	5.1502465	5.0317774	5.1502436	5.0317803	4.3213553	6.2112121	5.2690029	2.7476478	3.3534056	5.2059969	3.3534039	5.2060139	3.7392445	3.1646835	-72.876322	R0:S0:1	-54.333793	uncorrelated	51514b8	2022-04-17@19:25
2x2_2C_8b_C2v_L	6.9221073	0	14	2.9296379	0.0038759679	-3.1229773	-3.7583291	-0.11472923	-3.7583242	-0.11473162	0.15478384	-3.344562	9.7034483	1.2466776e-05	1.0357902e-06	0.0093038037	-0.17751836	0.0093048533	-0.17751924	-6.1672174e-07	1.9108298e-06	-0.11402837	-1.0602029	1.663839	0.040143316	-1.6638373	-0.040147253	0.246812	-2.1954975	1.9908	1	0.22701034	0.013124509	1.2546739	1.6152633	-0.59711608	-0.19806714	0.081205782	0.13273222	0.27531614	1.9387416	1.7998681	1.5478538	1.7998681	1.5478581	0.019961598	1.5433593	1.1048351	-0.00012043934	-4.0489749e-07	0.10920811	1.1936799	0.10920757	1.1936757	2.5398694e-07	-3.4413063e-06	1.1889912	0.74194606	-1.5696964	-0.56244609	1.5696951	0.56246249	-0.30872011	2.546268	0.028747634	0.2456278	0.059528542	0.18251251	0.37301804	0.18251249	0.37301345	0.020144971	0.35153986	0.036564183	4.1814006	5.3656527	5.1496265	5.0362123	5.1496281	5.0362193	4.3177791	6.2108055	5.270794	2.7486233	3.3521193	5.2051012	3.3521183	5.2050891	3.7422449	3.166442	-72.825423	R0:S0:1	-54.190483	uncorrelated	51514b8	2022-04-17@19:33
2x2_2C_8b_C2v_L	7.0539689	0	14	2.9596207	0.0037469867	-3.1223124	-3.7553304	-0.11438105	-3.7553273	-0.11438124	0.15402196	-3.3331782	9.7155172	1.1452404e-05	2.8952196e-07	0.0093457395	-0.17719689	0.0093458025	-0.17719708	-3.6128508e-06	-7.9223607e-06	-0.11380108	-1.0589746	1.6615611	0.040315592	-1.6615603	-0.040315798	0.24624253	-2.1906825	1.9856	1	0.22829655	0.013127386	1.2548752	1.6157066	-0.59604698	-0.19760913	0.080984512	0.13289799	0.27198857	1.9390535	1.8007242	1.55258	1.8007245	1.552573	0.019728633	1.5447313	1.105358	-0.0001096468	-4.8213526e-06	0.10833049	1.1868491	0.10832721	1.1868549	2.6479032e-05	1.4718316e-05	1.1831969	0.74044172	-1.5667449	-0.55993909	1.5667438	0.5599378	-0.30782069	2.5420517	0.028778608	0.24327512	0.059245661	0.18185706	0.37046994	0.18185674	0.37047416	0.019905416	0.35097213	0.036494458	4.1634778	5.3684496	5.1511809	5.0344693	5.1511783	5.0344729	4.3144913	6.2061594	5.2710731	2.7486686	3.3549847	5.1910001	3.3549827	5.1910162	3.7452131	3.1706848	-72.826747	R0:S0:1	-54.047172	uncorrelated	51514b8	2022-04-17@19:40
2x2_2C_8b_C2v_L	7.1804812	0	14	2.9896034	0.0033169445	-3.11823	-3.7409174	-0.11321346	-3.7409156	-0.11321316	0.15300021	-3.3205611	9.7275862	1.5936765e-05	-1.7508547e-05	0.0093997745	-0.17623174	0.0093994041	-0.17623162	9.7110775e-08	3.1148508e-06	-0.11358319	-1.0572393	1.6569256	0.040974976	-1.6569256	-0.040978433	0.24537682	-2.1855827	1.9804	1	0.22958276	0.013189673	1.2549325	1.6159756	-0.59547204	-0.19755981	0.080911272	0.13304354	0.27289263	1.9390427	1.8010011	1.5502295	1.8010004	1.5502246	0.019691207	1.5447397	1.1057266	-0.0001564822	4.4714341e-05	0.1081245	1.1856215	0.1081193	1.1856251	-9.2236738e-06	-1.5172547e-05	1.1825515	0.74103183	-1.5651397	-0.56304049	1.5651407	0.56305908	-0.30735767	2.5408392	0.028805511	0.24366782	0.059251077	0.18161353	0.37126476	0.18161404	0.37126646	0.019862569	0.35101602	0.036461088	4.1693944	5.3661884	5.1498427	5.0415428	5.149844	5.0415512	4.3111341	6.2069424	5.2730754	2.7496633	3.3522703	5.1939971	3.3522642	5.194007	3.7478977	3.1713378	-72.76647	R0:S0:1	-53.903862	uncorrelated	51514b8	2022-04-17@19:48
2x2_2C_8b_C2v_L	7.3118987	0	14	3.0195862	0.0032026409	-3.1169273	-3.7360886	-0.11284796	-3.7360874	-0.11284826	0.15220274	-3.3079269	9.7396552	1.5671941e-05	-1.9308001e-07	0.0093895061	-0.17588155	0.009390105	-0.17588171	2.2969036e-06	8.7253525e-06	-0.11337344	-1.0558755	1.6542837	0.041053859	-1.6542831	-0.041056917	0.24474233	-2.1803306	1.9752	1	0.23086897	0.013180873	1.2551241	1.6163949	-0.59445349	-0.19712227	0.080699188	0.13320552	0.26970869	1.9393402	1.8017769	1.5548723	1.8017766	1.5548778	0.019461204	1.546005	1.1062367	-0.00015306943	6.9500146e-06	0.10736845	1.1788866	0.10736974	1.178883	-2.2083962e-05	-1.6718601e-05	1.1769724	0.73960652	-1.5624175	-0.56022269	1.5624169	0.56023714	-0.3064059	2.5367938	0.028835842	0.2414255	0.058981305	0.18102249	0.36879203	0.18102274	0.36878699	0.019626848	0.35049326	0.036393351	4.1522319	5.3688071	5.1515855	5.03958	5.1515883	5.0395845	4.3077804	6.2027544	5.2731861	2.749809	3.3550794	5.1800958	3.3550773	5.180081	3.7509302	3.17539	-72.755541	R0:S0:1	-53.760552	uncorrelated	51514b8	2022-04-17@19:56
2x2_2C_8b_C2v_L	7.4392453	0	14	3.049569	0.0029176205	-3.1136458	-3.723446	-0.11177793	-3.7234434	-0.11176664	0.15116981	-3.2954233	9.7517241	-2.1410924e-05	2.2819732e-07	0.009425705	-0.17507352	0.0094244113	-0.17506941	2.4402648e-06	2.0349892e-06	-0.1131556	-1.054277	1.6499737	0.04144913	-1.6499729	-0.041442924	0.24400927	-2.1752082	1.97	1	0.23215517	0.013205652	1.2552059	1.6166774	-0.59381096	-0.19699258	0.080599237	0.13335068	0.269917	1.9393814	1.8021673	1.5536364	1.8021663	1.5536257	0.019413439	1.5462926	1.1066289	0.00020905023	2.1217383e-07	0.10689883	1.1768166	0.10689877	1.1768155	-1.0820372e-05	-1.4934649e-06	1.1752277	0.73988363	-1.5605322	-0.56144442	1.5605378	0.56142137	-0.30601364	2.5349406	0.028862711	0.2413777	0.05894062	0.18069629	0.36917134	0.18069708	0.36918291	0.019574198	0.3504099	0.036352541	4.154105	5.3673688	5.1507783	5.0447645	5.1507775	5.044759	4.3044246	6.2024332	5.2751148	2.7507518	3.3533657	5.1804968	3.35337	5.1805125	3.7537384	3.1767555	-72.704855	R0:S0:1	-53.617241	uncorrelated	51514b8	2022-04-17@20:04
2x2_2C_8b_C2v_L	7.5701999	0	14	3.0795517	0.0027853995	-3.1116355	-3.7165638	-0.11131481	-3.7165697	-0.11130565	0.1505895	-3.2848551	9.7637931	-2.048843e-05	-2.6079929e-08	0.0094116876	-0.17463518	0.0094099337	-0.17463132	3.3475662e-06	2.8433667e-06	-0.11293253	-1.0528744	1.6469073	0.04158071	-1.6469079	-0.041575385	0.2435107	-2.1706661	1.9648	1	0.23344138	0.013201082	1.2553858	1.6170857	-0.59283717	-0.19658744	0.080399162	0.13352038	0.26692057	1.9396468	1.8028609	1.5578059	1.80286	1.5578005	0.019215791	1.5475405	1.107129	0.00019992002	1.1041827e-06	0.10622813	1.1703713	0.10622979	1.1703634	-1.7565153e-05	-4.1353468e-06	1.1699357	0.73859176	-1.5579986	-0.55910722	1.5580049	0.55908988	-0.3052168	2.5311968	0.028894332	0.23921665	0.058699985	0.18016762	0.36691194	0.18016843	0.36691975	0.019371365	0.34989035	0.036290608	4.1379724	5.3698971	5.1525182	5.0433377	5.1525177	5.0433329	4.3014605	6.1982892	5.2753999	2.7507569	3.3557694	5.1674845	3.3557767	5.1674888	3.7564338	3.1803696	-72.688463	R0:S0:1	-53.473931	uncorrelated	51514b8	2022-04-17@20:11
2x2_2C_8b_C2v_L	7.6969216	0	14	3.1095345	0.0023575607	-3.1077792	-3.7042692	-0.11025506	-3.7042813	-0.11025195	0.1495983	-3.2719795	9.7758621	-3.7204662e-05	2.4350067e-06	0.0094477478	-0.17379773	0.0094457341	-0.17379595	2.2453992e-06	-5.5115453e-07	-0.1127216	-1.0511635	1.6427069	0.042109869	-1.6427095	-0.042104172	0.24267684	-2.1654565	1.9596	1	0.23472759	0.013240531	1.25545	1.6173562	-0.59224681	-0.19651086	0.080318814	0.13366549	0.26770487	1.9396509	1.8032047	1.5559473	1.8032043	1.5559479	0.019169255	1.5476286	1.1074985	0.00036719222	-8.1409005e-06	0.10591689	1.1688863	0.10592106	1.1688798	-8.4713115e-06	2.7739513e-06	1.1689587	0.73908591	-1.5562805	-0.56129545	1.5562849	0.56127423	-0.30474683	2.5297774	0.028921126	0.239613	0.058692504	0.17987334	0.36752658	0.17987367	0.36752948	0.019319923	0.34989859	0.036256316	4.1427167	5.367929	5.1513425	5.0495681	5.1513415	5.0495574	4.298043	6.1987622	5.2773443	2.7517514	3.3534922	5.1696152	3.3535005	5.1696138	3.7592216	3.1812022	-72.637635	R0:S0:1	-53.330621	uncorrelated	51514b8	2022-04-17@20:19
2x2_2C_8b_C2v_L	7.8265647	0	14	3.1395172	0.0021970693	-3.1048609	-3.6957909	-0.10945857	-3.6957999	-0.10945668	0.14881939	-3.2597132	9.787931	-3.4292894e-05	-2.3907279e-07	0.0094092717	-0.17317493	0.0094093365	-0.17317405	-1.3563895e-07	-2.8268374e-06	-0.11248204	-1.0495926	1.6392841	0.042181555	-1.6392851	-0.042178831	0.24203795	-2.1603564	1.9544	1	0.23601379	0.013226193	1.2555955	1.6177099	-0.59139817	-0.19619764	0.080153837	0.13381978	0.26594045	1.9398321	1.8038086	1.5579972	1.803809	1.5579947	0.019030992	1.5485123	1.1079543	0.00033892845	-2.6408262e-06	0.10525601	1.1640587	0.10525533	1.1640585	5.8822918e-06	6.4121422e-06	1.1647601	0.73839932	-1.5539451	-0.55954784	1.5539455	0.55953629	-0.30408631	2.5266538	0.028949831	0.23827223	0.058526982	0.17939976	0.36638068	0.17939946	0.36638389	0.019176868	0.34954145	0.0362003	4.1334354	5.3688624	5.1520568	5.0504867	5.152054	5.0504823	4.2947794	6.1960989	5.278449	2.7522099	3.354378	5.1619746	3.3543814	5.1619815	3.7621014	3.1840522	-72.606916	R0:S0:1	-53.18731	uncorrelated	51514b8	2022-04-17@20:27
2x2_2C_8b_C2v_L	7.9548872	0	14	3.1695	0.0018966178	-3.1022638	-3.6869349	-0.10868969	-3.686944	-0.10869079	0.14780046	-3.2464716	9.8	-3.6500554e-05	-6.7538764e-06	0.0094399223	-0.17253352	0.0094394611	-0.17253362	3.636482e-06	8.7254376e-06	-0.1122816	-1.0480638	1.635789	0.042537516	-1.6357909	-0.04253608	0.24121687	-2.1549857	1.9492	1	0.2373	0.013237843	1.2557043	1.6180274	-0.59066599	-0.19598988	0.080026616	0.13396957	0.2652708	1.939942	1.8043205	1.5585986	1.8043206	1.5586046	0.0189081	1.5490035	1.1083674	0.00036190057	1.9729951e-05	0.10474188	1.1605816	0.1047447	1.1605834	-2.8412603e-05	-1.9070385e-05	1.162138	0.7382099	-1.5518737	-0.55982031	1.5518724	0.55981666	-0.30335527	2.5243198	0.028977622	0.23770044	0.058424887	0.17898814	0.36581446	0.17898809	0.36581035	0.01904909	0.34936546	0.036155089	4.1301944	5.3685751	5.1519625	5.0536036	5.151964	5.0535964	4.2913274	6.1950073	5.2796115	2.7529111	3.3540317	5.1581495	3.35403	5.1581422	3.7650163	3.1859676	-72.573495	R0:S0:1	-53.044	uncorrelated	51514b8	2022-04-17@20:35
