model	D	U	e	eb1_1	eb2_1	eb3_1	eb4_1	eb5_1	eb6_1	eb7_1	eb8_1	mu	sb1_1	sb2_1	sb3_1	sb4_1	sb5_1	sb6_1	sb7_1	sb8_1	tb1_1	tb2_1	tb3_1	tb4_1	tb5_1	tb6_1	tb7_1	tb8_1	tpd	tpp	tppp	ave_U_1	ave_eb1_1	ave_eb2_1	ave_eb3_1	ave_eb4_1	ave_eb5_1	ave_eb6_1	ave_eb7_1	ave_eb8_1	ave_mu_1	ave_sb1_1	ave_sb2_1	ave_sb3_1	ave_sb4_1	ave_sb5_1	ave_sb6_1	ave_sb7_1	ave_sb8_1	ave_tb1_1	ave_tb2_1	ave_tb3_1	ave_tb4_1	ave_tb5_1	ave_tb6_1	ave_tb7_1	ave_tb8_1	var_U_1	var_eb1_1	var_eb2_1	var_eb3_1	var_eb4_1	var_eb5_1	var_eb6_1	var_eb7_1	var_eb8_1	var_mu_1	var_sb1_1	var_sb2_1	var_sb3_1	var_sb4_1	var_sb5_1	var_sb6_1	var_sb7_1	var_sb8_1	var_tb1_1	var_tb2_1	var_tb3_1	var_tb4_1	var_tb5_1	var_tb6_1	var_tb7_1	var_tb8_1	E0_1	sector_1	E0_2	sector_2	githash	distance	diff_param	diff_hybrid	time
2x2_2C_8b_C2v_L	0	14	2.3	-0.006655534	-3.3502828	-4.1133163	-0.10235806	-4.113222	-0.1023468	0.14108001	-3.7537133	9.45	-0.0001012231	7.5002141e-06	0.011771903	-0.16264369	0.011773954	-0.16264057	1.0013529e-05	-2.0059213e-06	-0.11240159	-1.1061747	1.7476608	0.057892245	-1.7476438	-0.057886658	0.22749261	-2.3061557	2.1	1	0.2	0.12716137	0.28181729	1.9402532	1.8083082	1.5130122	1.8083084	1.5129678	0.019394233	1.5640145	1.0966834	0.0012748774	4.6515161e-06	0.10641814	1.1989609	0.10640855	1.1990641	-8.3408762e-05	-1.3513614e-05	1.1997914	0.73898962	-1.5466556	-0.66603149	1.5466326	0.66601042	-0.29483563	2.5174425	0.027712395	0.24609509	0.058026746	0.17511218	0.37904073	0.17511149	0.37906006	0.019514994	0.34028119	0.036135481	4.2609133	5.3299699	5.0745517	5.1361052	5.0745557	5.1361211	4.3684546	6.1056856	5.2727357	2.7624838	3.3445197	5.2983157	3.3444483	5.2984297	3.6838858	3.2147797	-74.585444	R0:S0:1	-57.2	uncorrelated	51514b8	 1.66e+02	 6.32e-02	 1.00e+06	2022-04-17@16:33
2x2_2C_8b_C2v_L	0	14	2.3	0.0072550369	-3.2413909	-3.9501096	-0.1161287	-3.9500452	-0.1161287	0.15676231	-3.5868212	9.45	3.2764171e-06	2.7706239e-05	0.010025731	-0.1825559	0.010026669	-0.18255791	-4.1997501e-06	-9.2350438e-06	-0.11790209	-1.1038017	1.7414467	0.042884786	-1.7414337	-0.042887129	0.25224455	-2.3030381	2.1	1	0.2	0.1292361	0.36246237	1.9312298	1.7810705	1.3868662	1.7810704	1.3868695	0.024935696	1.5039344	1.0918785	-2.9227571e-05	-6.7810597e-05	0.12173386	1.3808117	0.12173951	1.3808118	4.0041081e-05	2.9590484e-05	1.327474	0.78310603	-1.6403135	-0.65649033	1.6403097	0.65648927	-0.32067806	2.6641193	0.028088239	0.29453899	0.066215394	0.19627071	0.43731186	0.19627084	0.43730943	0.025271588	0.36694191	0.038522494	4.6869378	5.2825188	5.0864765	5.1109052	5.0864813	5.1109073	4.3860794	6.3594885	5.295578	2.7417256	3.2527612	5.6276382	3.2527602	5.6276204	3.6729195	3.032107	-73.584698	R0:S0:1	-57.2	uncorrelated	51514b8	 1.92e+02	 1.09e-02	 9.64e-02	2022-04-17@16:37
2x2_2C_8b_C2v_L	0	14	2.3	0.012827165	-3.2264159	-3.9500537	-0.135576	-3.9500488	-0.13557627	0.17193982	-3.5948923	9.45	1.3991187e-05	-2.7484018e-08	0.006406811	-0.19592197	0.0064009077	-0.19592202	-4.4167045e-06	-7.4195037e-06	-0.11940529	-1.0964632	1.7353005	0.023315637	-1.7353001	-0.023321075	0.26604418	-2.2952216	2.1	1	0.2	0.12942878	0.26810837	1.9382501	1.7894869	1.5763396	1.7894852	1.5763416	0.021968732	1.538138	1.0959515	-0.00011331054	-3.1679303e-06	0.11276459	1.2319497	0.11276725	1.2319283	2.7757011e-05	1.1659377e-05	1.2180964	0.73557447	-1.6158317	-0.48809485	1.6158404	0.48811911	-0.3222915	2.5826061	0.028135047	0.24571264	0.060065958	0.19110946	0.36640628	0.19111082	0.36640466	0.022350048	0.35283674	0.037460988	4.1228422	5.3979493	5.1794349	4.9093187	5.1794385	4.9093313	4.3896084	6.2122869	5.2265775	2.7342211	3.3943474	5.2076791	3.3943571	5.2076625	3.6863239	3.135936	-73.596676	R0:S0:1	-57.2	uncorrelated	51514b8	 1.79e+02	 1.70e-02	 4.50e-02	2022-04-17@16:41
2x2_2C_8b_C2v_L	0	14	2.3	0.0050945144	-3.1504233	-3.9329034	-0.13172207	-3.9328907	-0.13171779	0.17315932	-3.6023938	9.45	-2.7713677e-05	1.0308174e-05	0.0079538587	-0.18893004	0.0079518998	-0.18892778	5.1616431e-06	7.4346963e-07	-0.11805146	-1.0878378	1.736464	0.030165355	-1.7364611	-0.030155716	0.25873094	-2.3031829	2.1	1	0.2	0.12960066	0.30288364	1.935152	1.7859643	1.5355522	1.7859647	1.535553	0.022588293	1.5273825	1.0949338	0.00027066279	-2.7186415e-05	0.12012524	1.2645432	0.12013386	1.264549	-2.4026952e-05	2.9724648e-06	1.256054	0.75154774	-1.6258416	-0.54477032	1.625839	0.54472687	-0.31783898	2.6107758	0.02816228	0.27113374	0.06285004	0.19354396	0.38402541	0.1935437	0.38402876	0.022952413	0.35743292	0.037825294	4.2936865	5.3675604	5.1602554	4.9717223	5.1602562	4.9717036	4.3919691	6.2575547	5.2361699	2.734236	3.3555417	5.3049606	3.3555427	5.3049619	3.6787212	3.1010714	-73.393104	R0:S0:1	-57.2	uncorrelated	51514b8	 1.82e+02	 1.87e-03	 2.69e-02	2022-04-17@16:45
2x2_2C_8b_C2v_L	0	14	2.3	0.0074102834	-3.1522005	-3.9327435	-0.12972899	-3.9327349	-0.12973011	0.1704812	-3.5965626	9.45	9.2550297e-06	-7.9063151e-07	0.0079622358	-0.19019274	0.0079612635	-0.19019211	-8.6994281e-06	-9.0933657e-06	-0.11860412	-1.0872866	1.7346166	0.030039332	-1.7346149	-0.030044638	0.26041318	-2.2995596	2.1	1	0.2	0.1293932	0.31764151	1.9342849	1.7862433	1.5071182	1.7862413	1.5071209	0.02372858	1.5251011	1.0944421	-8.5263859e-05	-4.3211688e-06	0.12026189	1.2907136	0.1202595	1.2906749	5.7486035e-05	1.9244587e-05	1.2678994	0.75840221	-1.6240546	-0.55317005	1.6240672	0.55320094	-0.32322072	2.6146658	0.028122895	0.27919461	0.063611267	0.19312587	0.39874632	0.1931275	0.39874634	0.024109337	0.35840236	0.037871423	4.3779484	5.3483407	5.1444806	4.9899291	5.1444849	4.989951	4.3902814	6.2678092	5.2507989	2.7397841	3.3385273	5.3664884	3.3385464	5.3664556	3.6801871	3.0959062	-73.368813	R0:S0:1	-57.2	uncorrelated	51514b8	 1.84e+02	 1.57e-03	 8.72e-03	2022-04-17@16:48
2x2_2C_8b_C2v_L	0	14	2.3	0.0093257428	-3.1571654	-3.9347763	-0.13153369	-3.9347755	-0.13153374	0.17214312	-3.5981354	9.45	-4.7620334e-05	-1.7808676e-06	0.0074928338	-0.19107173	0.0074911496	-0.19107219	5.5569741e-06	-6.6399522e-07	-0.11848693	-1.0878633	1.7346473	0.02813701	-1.7346481	-0.028125181	0.26139589	-2.2994699	2.1	1	0.2	0.12949616	0.29399352	1.9358375	1.7869968	1.5375802	1.7869986	1.5375808	0.022662155	1.5299936	1.0951147	0.00042930808	-2.6963455e-06	0.11825335	1.2634051	0.11825968	1.2634257	-2.3747406e-05	1.9491597e-06	1.2468184	0.7481012	-1.6226745	-0.53228064	1.6226666	0.53222325	-0.32053262	2.6035228	0.028144182	0.26316871	0.062229985	0.19276979	0.38524381	0.19276842	0.38524697	0.023029614	0.3563409	0.037726639	4.2590223	5.3723047	5.161023	4.9590652	5.1610207	4.9590322	4.3911319	6.2464947	5.2392216	2.7345609	3.3620882	5.2950855	3.3620849	5.2951014	3.6809185	3.1101063	-73.393725	R0:S0:1	-57.2	uncorrelated	51514b8	 1.82e+02	 7.88e-04	 4.21e-03	2022-04-17@16:52
2x2_2C_8b_C2v_L	0	14	2.3299828	0.0075932286	-3.15716	-3.9346613	-0.13142133	-3.9346605	-0.13142228	0.17223266	-3.5980877	9.462069	-3.8542791e-05	-3.0706575e-06	0.0079421455	-0.19026824	0.0079445499	-0.19026705	-5.1123934e-06	1.3304963e-06	-0.11851116	-1.08828	1.7353857	0.029977081	-1.7353839	-0.029989297	0.26030148	-2.30038	2.0948	1	0.20128621	0.12981056	0.29828769	1.9354842	1.7866999	1.5337613	1.7866952	1.5337965	0.022584604	1.5286528	1.095421	0.00036073776	9.5582668e-07	0.11933719	1.2658549	0.1193373	1.2657333	3.3748727e-05	3.3233842e-06	1.2524344	0.75020909	-1.6234795	-0.5433417	1.6235124	0.54341424	-0.31937533	2.6071256	0.028201623	0.26634415	0.062546549	0.1929729	0.38601021	0.19297715	0.38599551	0.022942369	0.35698005	0.037791239	4.2786625	5.3700127	5.1598857	4.9688517	5.1599027	4.9688823	4.3895923	6.2530085	5.2393001	2.7333667	3.3561613	5.3019768	3.3562227	5.3018315	3.6813253	3.1047464	-73.45088	R0:S0:1	-57.05669	uncorrelated	51514b8	 1.81e+02	 3.12e-03	 1.00e+06	2022-04-17@16:56
2x2_2C_8b_C2v_L	0	14	2.3299828	0.0074890387	-3.1577821	-3.9312033	-0.13046864	-3.9312137	-0.13046685	0.17103591	-3.5854881	9.462069	-3.3797504e-05	3.8528769e-06	0.0080865135	-0.19006842	0.0080843606	-0.19006611	5.3924414e-06	2.9483609e-06	-0.11839624	-1.0871738	1.7327323	0.03074828	-1.7327346	-0.030738508	0.26011016	-2.2948875	2.0948	1	0.20128621	0.12961273	0.30605632	1.9351469	1.7873344	1.5229627	1.787334	1.5229732	0.022988043	1.527865	1.0952332	0.00031781311	-1.2928041e-05	0.11952871	1.2740859	0.11953869	1.274066	-2.7267479e-05	-3.0191621e-06	1.2570675	0.75344649	-1.620625	-0.55026093	1.6206303	0.55022491	-0.32107252	2.6070166	0.028164838	0.27137539	0.062838778	0.1923776	0.39085003	0.19237807	0.39085002	0.02334586	0.35730159	0.037754938	4.3207069	5.359059	5.1511179	4.9812108	5.1511206	4.9811917	4.3869271	6.2568024	5.2450398	2.7380128	3.3490322	5.3260236	3.3490483	5.3259962	3.6834668	3.1050515	-73.393963	R0:S0:1	-57.05669	uncorrelated	51514b8	 1.81e+02	 3.01e-04	 5.10e-03	2022-04-17@17:00
2x2_2C_8b_C2v_L	0	14	2.3599655	0.008334713	-3.1579544	-3.931161	-0.13065039	-3.9311717	-0.13065052	0.17105072	-3.5856309	9.4741379	-2.790851e-05	-1.6393788e-06	0.0078943933	-0.19020434	0.0078957152	-0.19020297	-5.8025543e-06	-4.9746167e-06	-0.11831766	-1.0870874	1.7325469	0.029990757	-1.7325486	-0.02999868	0.26021221	-2.2947535	2.0896	1	0.20257241	0.1299458	0.29424623	1.9358909	1.7878063	1.536293	1.7878026	1.5363165	0.022423008	1.5303081	1.096	0.00025866119	-5.0783931e-06	0.11832662	1.2610056	0.11832567	1.2609067	4.2632637e-05	1.4263037e-05	1.2458333	0.74847242	-1.619502	-0.54075288	1.619531	0.54080345	-0.31936198	2.6016609	0.028227285	0.26297479	0.062175449	0.19211751	0.38495071	0.1921209	0.38494314	0.022769623	0.35632788	0.03769539	4.2606912	5.371987	5.1596617	4.9681045	5.1596724	4.9681277	4.3857254	6.2470331	5.2417803	2.7338778	3.3584521	5.2916748	3.3585049	5.2915686	3.6849672	3.1110398	-73.446053	R0:S0:1	-56.913379	uncorrelated	51514b8	 1.78e+02	 4.37e-03	 1.00e+06	2022-04-17@17:04
2x2_2C_8b_C2v_L	0	14	2.3599655	0.0072776424	-3.1575471	-3.9200533	-0.12976924	-3.9200739	-0.12977159	0.17048696	-3.5732908	9.4741379	-3.7456e-05	8.983398e-07	0.0081979747	-0.18927286	0.0081961176	-0.18927274	-4.600098e-07	-9.092375e-06	-0.11813992	-1.0861238	1.7288719	0.03136817	-1.7288767	-0.031358259	0.25930675	-2.2900296	2.0896	1	0.20257241	0.12978391	0.30294072	1.9354295	1.7879003	1.5262424	1.7879015	1.5262437	0.022719284	1.5287887	1.0957751	0.00035386873	-1.3508197e-05	0.11908088	1.268076	0.11908536	1.2680751	1.5937526e-05	1.9015898e-05	1.252825	0.75223392	-1.6181997	-0.55118994	1.618199	0.55114661	-0.31999167	2.6036176	0.028197029	0.26896434	0.062580796	0.19195036	0.38887581	0.19194943	0.38887953	0.023063954	0.35695974	0.037686496	4.3066439	5.3607993	5.1521839	4.9830188	5.1521797	4.9829978	4.3834743	6.2538095	5.2452509	2.7381174	3.3503688	5.3150085	3.3503783	5.3150147	3.6863389	3.1088454	-73.357969	R0:S0:1	-56.913379	uncorrelated	51514b8	 1.79e+02	 2.85e-04	 3.89e-03	2022-04-17@17:07
2x2_2C_8b_C2v_L	0	14	2.3899483	0.0080826176	-3.1576425	-3.9201239	-0.12964918	-3.9201442	-0.12964986	0.17015247	-3.5734913	9.4862069	-3.5474552e-05	-2.1370024e-06	0.0080447592	-0.18948973	0.0080452568	-0.18948984	-1.8555603e-06	-3.4249603e-07	-0.11813862	-1.086024	1.7286133	0.030762118	-1.7286173	-0.030763103	0.25951807	-2.2898073	2.0844	1	0.20385862	0.13009062	0.29511717	1.9359204	1.7883292	1.5339801	1.7883283	1.5339937	0.022381258	1.5305613	1.0964275	0.00032750223	-1.0738614e-06	0.11813362	1.2601953	0.1181349	1.2601518	1.6827226e-05	4.7139035e-06	1.2449589	0.74902654	-1.6170358	-0.54444285	1.6170473	0.54445242	-0.31912741	2.5997351	0.028254229	0.26322301	0.062142795	0.19168278	0.38571386	0.19168371	0.38570983	0.022718302	0.35626971	0.037647488	4.2669805	5.3695151	5.1576673	4.9745832	5.1576699	4.9745835	4.3821251	6.2469973	5.2443777	2.7350797	3.3558729	5.2933537	3.3558998	5.2933052	3.6878574	3.1128988	-73.409525	R0:S0:1	-56.770069	uncorrelated	51514b8	 1.76e+02	 2.87e-03	 1.00e+06	2022-04-17@17:11
2x2_2C_8b_C2v_L	0	14	2.3899483	0.0073722891	-3.1575467	-3.9159373	-0.12944015	-3.9159606	-0.1294419	0.16981352	-3.5622346	9.4862069	-1.1842718e-05	-8.3060971e-07	0.0082854609	-0.18901611	0.00828465	-0.18901584	-1.1378917e-06	-1.8847681e-06	-0.1179414	-1.0850517	1.7263248	0.031793129	-1.7263301	-0.031793038	0.25889101	-2.28526	2.0844	1	0.20385862	0.12995481	0.29856214	1.9358155	1.7888135	1.5311731	1.7888125	1.5311828	0.02243644	1.5303	1.096363	0.00011177226	-2.0873059e-06	0.11830598	1.2611907	0.11830848	1.2611575	9.8082039e-06	4.3693001e-06	1.2469354	0.75036092	-1.6149237	-0.55008706	1.6149341	0.55009423	-0.31922102	2.5988334	0.028229247	0.26571046	0.06223102	0.19126179	0.38625753	0.19126272	0.38625478	0.022768192	0.35637014	0.037604348	4.285484	5.3639956	5.1534929	4.9819372	5.1534945	4.9819388	4.3800048	6.2483597	5.2453381	2.7380183	3.3534574	5.3	3.3534777	5.2999657	3.689478	3.1142655	-73.356209	R0:S0:1	-56.770069	uncorrelated	51514b8	 1.76e+02	 1.89e-04	 3.70e-03	2022-04-17@17:15
2x2_2C_8b_C2v_L	0	14	2.419931	0.007640621	-3.1576616	-3.9158067	-0.12904833	-3.9158288	-0.12904846	0.16932207	-3.5624435	9.4982759	-1.1830438e-05	-5.7298529e-07	0.0082375076	-0.18886506	0.008236805	-0.1888654	1.9493532e-06	2.48742e-06	-0.11792298	-1.0849494	1.7261879	0.031716551	-1.7261931	-0.031712197	0.25872101	-2.2852762	2.0792	1	0.20514483	0.13025527	0.2938388	1.9361103	1.7890841	1.5352351	1.7890849	1.5352349	0.022188227	1.5313074	1.0969241	0.0001090894	1.1039669e-06	0.11779382	1.2562784	0.11779634	1.2562879	-1.1268038e-05	-4.1635984e-06	1.2421775	0.74844397	-1.6141533	-0.54758288	1.6141511	0.54756293	-0.31832607	2.596779	0.028284947	0.26212041	0.061966621	0.1910875	0.38452671	0.19108682	0.38452782	0.02251245	0.35600227	0.037588282	4.2614207	5.3696471	5.1568779	4.9786079	5.1568744	4.9785953	4.3785648	6.244837	5.2454836	2.7354835	3.3557488	5.2870576	3.3557477	5.2870689	3.6907149	3.1160114	-73.406942	R0:S0:1	-56.626759	uncorrelated	51514b8	 1.74e+02	 3.78e-03	 1.00e+06	2022-04-17@17:19
2x2_2C_8b_C2v_L	0	14	2.419931	0.0071915977	-3.1568253	-3.9072334	-0.12845317	-3.9072471	-0.12845495	0.16888493	-3.5504354	9.4982759	1.7899886e-05	7.2015641e-07	0.0083884688	-0.18831959	0.0083892744	-0.18831984	1.6668208e-06	9.0799093e-06	-0.11774305	-1.0838754	1.7228497	0.032527317	-1.7228525	-0.032531057	0.25822001	-2.2803811	2.0792	1	0.20514483	0.13010232	0.29839286	1.9359165	1.7894315	1.5299456	1.7894308	1.5299545	0.02234841	1.5307809	1.0968154	-0.00016842085	5.2740419e-06	0.11803603	1.259335	0.11803814	1.259322	-2.0024971e-05	-1.7519264e-05	1.245038	0.75041865	-1.6122729	-0.55306768	1.6122764	0.55308959	-0.31886333	2.5963925	0.028256757	0.26519526	0.062134172	0.19075888	0.38649535	0.19075949	0.38648867	0.022669677	0.356215	0.037550121	4.2866013	5.3625527	5.1518707	4.9874186	5.1518731	4.9874255	4.3764103	6.2473226	5.2476911	2.7389058	3.3518056	5.2991725	3.3518092	5.2991485	3.6923948	3.1167331	-73.32938	R0:S0:1	-56.626759	uncorrelated	51514b8	 1.74e+02	 1.74e-04	 3.98e-03	2022-04-17@17:23
2x2_2C_8b_C2v_L	0	14	2.4499138	0.0076956682	-3.1568878	-3.9072081	-0.12832255	-3.9072215	-0.1283241	0.16865306	-3.550561	9.5103448	1.6573816e-05	6.1266497e-07	0.0082988392	-0.18833996	0.0082980828	-0.18834112	1.9563464e-06	9.3801097e-07	-0.11773419	-1.0837981	1.7227093	0.032146691	-1.7227123	-0.032144662	0.2582139	-2.2803053	2.074	1	0.20643103	0.13041429	0.29140922	1.936349	1.7897834	1.5372519	1.7897851	1.5372447	0.022007482	1.5323009	1.0974448	-0.00015357435	1.7787407e-06	0.11723233	1.2516658	0.11723271	1.2517005	-1.5134787e-05	-4.5197333e-06	1.2381054	0.74754664	-1.6113487	-0.54773885	1.6113384	0.54772484	-0.31777884	2.5931762	0.028314789	0.26009441	0.06174808	0.19054629	0.38331954	0.19054481	0.3833209	0.02232105	0.35562624	0.03751964	4.250686	5.3706448	5.1571154	4.9802934	5.1571098	4.9802863	4.3750852	6.2416195	5.2466025	2.7359033	3.3566256	5.2787108	3.3566077	5.2787485	3.6937465	3.119935	-73.380954	R0:S0:1	-56.483448	uncorrelated	51514b8	 1.72e+02	 4.60e-03	 1.00e+06	2022-04-17@17:27
2x2_2C_8b_C2v_L	0	14	2.4499138	0.0070123453	-3.1547425	-3.8952445	-0.12726329	-3.8952505	-0.12726319	0.16815579	-3.538226	9.5103448	-6.1540956e-06	-7.3358953e-06	0.008470084	-0.18744969	0.0084712114	-0.18745068	-1.3201455e-06	1.3516749e-06	-0.11752386	-1.0825306	1.7186842	0.033131182	-1.7186853	-0.033132055	0.25755145	-2.2754052	2.074	1	0.20643103	0.13024695	0.29851043	1.9359768	1.7899375	1.5282497	1.7899384	1.5282433	0.022287542	1.5311469	1.0972569	5.6532107e-05	1.8300224e-05	0.11770044	1.257654	0.11769556	1.2576715	5.9604773e-06	-3.966335e-06	1.2433217	0.75069476	-1.609863	-0.55559125	1.6098578	0.55559053	-0.31856989	2.5942163	0.028283706	0.26486366	0.062074336	0.19034122	0.38700112	0.19034038	0.38700333	0.022599359	0.35610571	0.037497556	4.289275	5.3607367	5.1503567	4.9933359	5.1503532	4.993334	4.3728756	6.246755	5.2502388	2.7399123	3.349747	5.2996204	3.3497381	5.2996445	3.6952764	3.1188783	-73.283744	R0:S0:1	-56.483448	uncorrelated	51514b8	 1.72e+02	 2.79e-04	 4.01e-03	2022-04-17@17:30
2x2_2C_8b_C2v_L	0	14	2.4798966	0.0076906408	-3.1548282	-3.8953199	-0.12718877	-3.8953259	-0.12718905	0.1678096	-3.5384088	9.5224138	-5.7508381e-06	1.785075e-07	0.0083099253	-0.18764428	0.0083105372	-0.18764457	-5.397746e-07	2.323618e-07	-0.11751418	-1.0823698	1.7184912	0.032440236	-1.7184925	-0.032441584	0.25767303	-2.2752283	2.0688	1	0.20771724	0.13055771	0.2908408	1.9364707	1.7903583	1.5364377	1.7903581	1.5364409	0.021947819	1.5329357	1.0979112	5.3180906e-05	-1.1773868e-06	0.11674181	1.2494203	0.11674139	1.2494099	4.0170703e-06	7.5571905e-07	1.2352736	0.74743534	-1.6087446	-0.54826335	1.6087475	0.54827	-0.31758902	2.5903704	0.028341584	0.25935111	0.061633615	0.1900825	0.38360975	0.19008273	0.38360833	0.022253293	0.35539976	0.03745911	4.2492802	5.3696303	5.156159	4.984299	5.1561594	4.9843009	4.3715845	6.2399342	5.2492013	2.7368488	3.3554842	5.2770379	3.3554902	5.2770261	3.6967399	3.1228377	-73.335616	R0:S0:1	-56.340138	uncorrelated	51514b8	 1.70e+02	 3.43e-03	 1.00e+06	2022-04-17@17:34
2x2_2C_8b_C2v_L	0	14	2.4798966	0.0069696972	-3.1538621	-3.8895949	-0.12692566	-3.889608	-0.12692681	0.16717172	-3.5253691	9.5224138	-4.8974078e-06	-4.3021208e-07	0.0085350268	-0.18709796	0.0085352536	-0.18709831	-1.6183995e-06	-1.2801692e-06	-0.1173065	-1.0813167	1.7158757	0.033434049	-1.7158786	-0.033434689	0.25682444	-2.2701239	2.0688	1	0.20771724	0.13041497	0.29445957	1.9363374	1.7907663	1.53343	1.7907662	1.5334325	0.021993036	1.5325049	1.0978317	4.6381569e-05	-9.4369094e-07	0.1169111	1.2504935	0.11691078	1.2504831	1.1203982e-05	3.4518747e-06	1.2375326	0.74894017	-1.606843	-0.55381428	1.6068461	0.5538186	-0.31750344	2.5897066	0.028315395	0.26196431	0.061747878	0.18971941	0.38424909	0.18971952	0.38424825	0.022293856	0.35557411	0.037417444	4.2689642	5.3637919	5.1520282	4.992027	5.1520274	4.9920282	4.3692521	6.2419991	5.2500705	2.7399304	3.3528582	5.2845219	3.3528652	5.2845132	3.6985032	3.1239346	-73.269422	R0:S0:1	-56.340138	uncorrelated	51514b8	 1.70e+02	 2.43e-04	 3.82e-03	2022-04-17@17:38
2x2_2C_8b_C2v_L	0	14	2.5098793	0.0072118773	-3.1539817	-3.8895546	-0.12642388	-3.889567	-0.12642328	0.16676364	-3.5260608	9.5344828	-5.3706373e-06	-4.3142395e-07	0.0084654463	-0.18695142	0.0084651181	-0.18695114	-2.7457217e-06	-5.6118337e-06	-0.1172894	-1.0811352	1.7157518	0.033291922	-1.7157546	-0.033290517	0.2567388	-2.2702707	2.0636	1	0.20900345	0.1307127	0.29047614	1.9365978	1.7910283	1.5364436	1.7910285	1.5364397	0.021798506	1.5334323	1.098372	5.096966e-05	-3.5014561e-06	0.11641996	1.2465632	0.11641828	1.2465596	2.1985402e-05	1.1673162e-05	1.2331328	0.74726191	-1.6060785	-0.55132349	1.6060808	0.55131752	-0.31682272	2.5878943	0.028370454	0.25890868	0.06151374	0.1895441	0.38308873	0.18954397	0.3830926	0.022093141	0.35523608	0.037405421	4.2482035	5.3687927	5.1549283	4.9892931	5.1549253	4.9892925	4.3678769	6.2388402	5.2508319	2.7375463	3.3544645	5.2739591	3.3544696	5.2739665	3.6996837	3.1253036	-73.321264	R0:S0:1	-56.196828	uncorrelated	51514b8	 1.68e+02	 2.74e-03	 1.00e+06	2022-04-17@17:42
2x2_2C_8b_C2v_L	0	14	2.5098793	0.0068495969	-3.153663	-3.8868416	-0.12643632	-3.8868517	-0.12643559	0.16649796	-3.5146213	9.5344828	-1.2664053e-05	-6.191462e-08	0.0086817106	-0.18672681	0.0086814526	-0.18672643	4.6301717e-06	9.4965844e-06	-0.11710215	-1.0801907	1.7136571	0.034151832	-1.7136591	-0.034149463	0.25637257	-2.2655433	2.0636	1	0.20900345	0.13057909	0.29204151	1.9365961	1.7916163	1.5357081	1.7916163	1.5357154	0.021796416	1.5335737	1.0983483	0.00011702272	4.3019417e-06	0.11631588	1.2458425	0.11632057	1.2458399	-3.269181e-05	-1.7204929e-05	1.2333996	0.7478916	-1.6037732	-0.55513466	1.6037732	0.55512649	-0.31694508	2.5860111	0.028346102	0.26003165	0.061510912	0.18905673	0.38276356	0.18905678	0.38276002	0.02208567	0.35516711	0.037351606	4.2576221	5.365066	5.1518412	4.9939768	5.1518426	4.9939679	4.365781	6.2384537	5.2511037	2.74015	3.3538856	5.2757059	3.3538875	5.2756929	3.7014902	3.1278328	-73.273863	R0:S0:1	-56.196828	uncorrelated	51514b8	 1.68e+02	 1.79e-04	 3.92e-03	2022-04-17@17:46
2x2_2C_8b_C2v_L	0	14	2.5398621	0.0070524959	-3.1536818	-3.8866244	-0.12612236	-3.8866338	-0.12612569	0.16605347	-3.5148647	9.5465517	-9.1515254e-06	-3.1760419e-06	0.0086454505	-0.18654248	0.008650132	-0.18654213	-2.5786762e-06	9.9909549e-06	-0.11707711	-1.0801407	1.7135751	0.034104664	-1.7135749	-0.034117676	0.2560818	-2.265625	2.0584	1	0.21028966	0.13088762	0.28719827	1.9368875	1.7918558	1.5402773	1.7918528	1.5403051	0.021521402	1.5345681	1.0989102	8.4724368e-05	1.0953178e-05	0.11584607	1.2405162	0.11584422	1.2404337	7.1133788e-06	-1.5318642e-05	1.2285729	0.7459434	-1.6031281	-0.55262052	1.603149	0.55269214	-0.31583459	2.584081	0.028403215	0.25638817	0.061249968	0.18891005	0.38071522	0.18891284	0.38069948	0.021803519	0.35479855	0.037338365	4.2325337	5.3710425	5.1556034	4.9902413	5.1556139	4.9902692	4.3644172	6.2350249	5.250846	2.7374806	3.3564027	5.261637	3.3564404	5.2615335	3.702627	3.1293871	-73.324812	R0:S0:1	-56.053517	uncorrelated	51514b8	 1.66e+02	 4.33e-03	 1.00e+06	2022-04-17@17:49
2x2_2C_8b_C2v_L	0	14	2.5398621	0.0064726792	-3.1514019	-3.8752697	-0.1253249	-3.8752867	-0.12532637	0.16576485	-3.5035458	9.5465517	-2.8959738e-05	1.5429882e-07	0.0088184877	-0.18584805	0.0088182995	-0.18585003	3.2869062e-06	-5.7599382e-07	-0.1168878	-1.0787357	1.7096003	0.03497326	-1.7096029	-0.034965726	0.25566392	-2.2609647	2.0584	1	0.21028966	0.13072794	0.29252696	1.9366402	1.7920898	1.5337902	1.7920934	1.5337835	0.021735801	1.5338656	1.0987704	0.00027173819	-2.9173472e-06	0.11605935	1.2443582	0.11606064	1.2444069	-1.5016657e-05	1.4038432e-06	1.2322278	0.74821975	-1.6015001	-0.5588193	1.6014819	0.55877388	-0.31657583	2.5841676	0.028373727	0.26002291	0.061465354	0.18866125	0.38326309	0.18865823	0.38326551	0.022015918	0.35508894	0.037305775	4.2617526	5.3631004	5.1501823	5.0006497	5.1501733	5.0006242	4.3624264	6.2381589	5.2534367	2.7410467	3.3515158	5.2767701	3.3514958	5.2768194	3.7041397	3.1294763	-73.233071	R0:S0:1	-56.053517	uncorrelated	51514b8	 1.66e+02	 2.27e-04	 4.09e-03	2022-04-17@17:53
2x2_2C_8b_C2v_L	0	14	2.5698448	0.0070417654	-3.1514429	-3.875241	-0.12515743	-3.8752576	-0.12515964	0.16546177	-3.5036225	9.5586207	-2.5739611e-05	-2.4618331e-06	0.0086638154	-0.18593307	0.0086659865	-0.18593362	-4.7953272e-06	1.0451079e-06	-0.11687294	-1.0786639	1.7094491	0.034409098	-1.7094517	-0.034419086	0.25570391	-2.2608241	2.0532	1	0.21157586	0.13103779	0.2859967	1.9370459	1.7924515	1.5405978	1.7924492	1.540618	0.021439015	1.5353804	1.0993884	0.00023936322	1.9163611e-06	0.11531141	1.2373145	0.11530951	1.2372434	3.0449259e-05	2.766931e-06	1.2252364	0.74552921	-1.6005298	-0.5527168	1.6005492	0.55276862	-0.31565165	2.5809948	0.028431261	0.25525684	0.061103444	0.18843752	0.380425	0.18843966	0.38041519	0.021713391	0.35449342	0.037276851	4.2274992	5.3708818	5.1552788	4.9931479	5.1552848	4.993167	4.3611281	6.2325628	5.2528207	2.7381973	3.3560847	5.2573372	3.3561219	5.2572573	3.705518	3.1325445	-73.284273	R0:S0:1	-55.910207	uncorrelated	51514b8	 1.64e+02	 3.93e-03	 1.00e+06	2022-04-17@17:57
2x2_2C_8b_C2v_L	0	14	2.5698448	0.0063610181	-3.1495366	-3.8665918	-0.12460266	-3.8666179	-0.12460532	0.16490022	-3.4907963	9.5586207	-2.2988644e-05	-2.9532707e-06	0.0088392154	-0.18526024	0.0088387287	-0.18526025	-1.0007213e-07	-6.5042795e-06	-0.11665101	-1.0773965	1.7061737	0.035341969	-1.706179	-0.035336101	0.25495887	-2.2557608	2.0532	1	0.21157586	0.13088632	0.29034177	1.9368613	1.7927373	1.5359625	1.7927382	1.5359631	0.021552111	1.5347584	1.0992759	0.00021716476	-1.6053461e-07	0.11554577	1.2396047	0.11554668	1.2396046	8.1552313e-06	1.1029277e-05	1.228112	0.7473695	-1.5989028	-0.55859521	1.5989026	0.55857169	-0.31584381	2.5807794	0.028403431	0.25830619	0.061263186	0.18815981	0.38196347	0.18815904	0.38196547	0.021823161	0.3547517	0.037240547	4.251371	5.3640967	5.1506129	5.0022616	5.1506083	5.0022494	4.3588807	6.235369	5.254469	2.7414742	3.3523782	5.268535	3.3523842	5.2685427	3.7072017	3.1330516	-73.202726	R0:S0:1	-55.910207	uncorrelated	51514b8	 1.64e+02	 2.29e-04	 3.92e-03	2022-04-17@18:01
2x2_2C_8b_C2v_L	0	14	2.5998276	0.0067905071	-3.1496162	-3.8664419	-0.12418236	-3.8664674	-0.12418226	0.16448945	-3.4911379	9.5706897	-2.1208033e-05	3.8702296e-07	0.0087498819	-0.18519764	0.0087495733	-0.18519797	-3.3300908e-07	-2.5110915e-07	-0.11665967	-1.0772945	1.7059761	0.034970792	-1.7059814	-0.034968559	0.25492846	-2.2557442	2.048	1	0.21286207	0.13118647	0.28556251	1.9371575	1.7930507	1.5401928	1.7930512	1.5401953	0.021333341	1.5359024	1.099841	0.00019746481	-4.1526753e-06	0.11484833	1.2346362	0.11484967	1.2346297	6.0801715e-06	3.2788196e-06	1.222843	0.74544157	-1.5980029	-0.55442997	1.598005	0.55441985	-0.31512381	2.578468	0.028458957	0.25469356	0.060998108	0.18795336	0.38031099	0.18795302	0.38031131	0.021599034	0.35431437	0.037222121	4.2264166	5.3699402	5.1542615	4.9977703	5.1542584	4.9977628	4.3575279	6.2313489	5.254782	2.7390176	3.3550013	5.2551315	3.3550096	5.255128	3.7084784	3.1350126	-73.253241	R0:S0:1	-55.766897	uncorrelated	51514b8	 1.62e+02	 4.12e-03	 1.00e+06	2022-04-17@18:05
2x2_2C_8b_C2v_L	0	14	2.5998276	0.0062443824	-3.1475439	-3.8563987	-0.12363442	-3.8564138	-0.12363402	0.16407685	-3.4790769	9.5706897	-3.7606865e-06	-3.7688052e-06	0.0088690097	-0.18458586	0.008868706	-0.18458516	1.7686137e-06	5.5563941e-06	-0.1164438	-1.0759927	1.7023438	0.03569546	-1.7023466	-0.035696731	0.25438109	-2.2508532	2.048	1	0.21286207	0.13103576	0.28929941	1.9370094	1.793347	1.5362879	1.7933462	1.5362947	0.021452062	1.535498	1.0997477	3.4591138e-05	1.1523212e-05	0.11499789	1.2363274	0.11499932	1.236309	-1.5013142e-05	-1.1679595e-05	1.2249935	0.74702954	-1.5963034	-0.55891976	1.5963092	0.55893109	-0.31546568	2.5778169	0.028431325	0.25732005	0.061125815	0.18767413	0.38160232	0.18767486	0.38159919	0.021715207	0.35447763	0.037180457	4.2470678	5.3637987	5.1501605	5.0055887	5.1501623	5.0055913	4.3554598	6.2332217	5.2563125	2.7422154	3.3519546	5.2645489	3.3519637	5.264527	3.7101346	3.1360431	-73.16679	R0:S0:1	-55.766897	uncorrelated	51514b8	 1.62e+02	 1.91e-04	 3.99e-03	2022-04-17@18:08
2x2_2C_8b_C2v_L	0	14	2.6298103	0.0066544351	-3.1475977	-3.8564017	-0.12340034	-3.8564158	-0.12340139	0.16371547	-3.4792425	9.5827586	-3.2369346e-06	-9.0303684e-07	0.0087646527	-0.18458458	0.0087648351	-0.18458479	-2.8504924e-06	-6.1773803e-06	-0.11644269	-1.07587	1.702238	0.035266112	-1.7022414	-0.035266572	0.25430927	-2.2508142	2.0428	1	0.21414828	0.13134527	0.28365315	1.9373644	1.7936635	1.5421057	1.7936633	1.542105	0.021178777	1.5367988	1.1003388	3.1260351e-05	-2.4958979e-06	0.11429992	1.2300662	0.11429783	1.2300548	2.2033835e-05	1.1821173e-05	1.2189132	0.74466459	-1.5954649	-0.5539123	1.5954697	0.55391604	-0.31450801	2.5751931	0.028488654	0.25317997	0.06080853	0.18747766	0.37916038	0.18747787	0.37916205	0.021436557	0.35397087	0.037158717	4.2171556	5.3707586	5.1547277	4.9994197	5.1547257	4.9994224	4.3541732	6.2285513	5.2559259	2.7394724	3.3556832	5.2474712	3.3556917	5.2474684	3.7113935	3.138402	-73.218426	R0:S0:1	-55.623586	uncorrelated	51514b8	 1.60e+02	 4.02e-03	 1.00e+06	2022-04-17@18:12
2x2_2C_8b_C2v_L	0	14	2.6298103	0.0059730939	-3.145179	-3.8465351	-0.12266533	-3.8465453	-0.12266239	0.16341959	-3.4676972	9.5827586	-5.137883e-05	5.5541171e-06	0.0089229115	-0.18384997	0.0089226141	-0.1838492	4.3513911e-06	6.5440693e-06	-0.11621782	-1.074537	1.6986579	0.036159444	-1.6986604	-0.036155266	0.25377802	-2.2461116	2.0428	1	0.21414828	0.13118866	0.28860158	1.9371336	1.7939225	1.5363653	1.7939219	1.5363779	0.021356482	1.5361428	1.1002084	0.00048508949	-1.4950043e-05	0.11449998	1.2332333	0.11450697	1.2332086	-2.1361083e-05	-5.6334452e-06	1.2222196	0.74680671	-1.59383	-0.55991081	1.5938369	0.55989424	-0.3150629	2.5751264	0.028459798	0.25662153	0.0610099	0.18721261	0.38127745	0.18721325	0.38127438	0.02161165	0.35424407	0.037124954	4.244201	5.3632898	5.1495739	5.0095477	5.1495768	5.0095332	4.3520908	6.231458	5.2581636	2.7429264	3.3512	5.2612918	3.3512181	5.2612554	3.7129794	3.1386689	-73.13271	R0:S0:1	-55.623586	uncorrelated	51514b8	 1.60e+02	 2.31e-04	 3.96e-03	2022-04-17@18:16
2x2_2C_8b_C2v_L	0	14	2.6597931	0.0065384727	-3.1452262	-3.8465783	-0.12249262	-3.8465887	-0.1224938	0.16297966	-3.4677749	9.5948276	-4.633681e-05	-4.4171586e-06	0.0087870062	-0.18395205	0.0087875549	-0.18395002	-5.1306214e-06	2.0701053e-06	-0.11621263	-1.0744612	1.6985313	0.03561079	-1.6985321	-0.035620401	0.25375489	-2.2459962	2.0376	1	0.21543448	0.1314998	0.28244633	1.9375141	1.7942618	1.5426961	1.7942572	1.5427278	0.021071676	1.5375639	1.1008111	0.00043222103	3.4737945e-06	0.11377738	1.2266598	0.11377994	1.2265435	3.4344747e-05	2.0829339e-06	1.2155604	0.74426802	-1.5929426	-0.55409868	1.5929762	0.55416001	-0.3141087	2.572231	0.028517468	0.25210195	0.060670272	0.187003	0.37867709	0.18700716	0.37866437	0.021321747	0.35368365	0.037100479	4.2117343	5.3707671	5.154491	5.0023122	5.1545032	5.0023344	4.3508276	6.2263025	5.2576902	2.7400971	3.3554408	5.2428469	3.3555024	5.2427194	3.7142812	3.1413466	-73.184431	R0:S0:1	-55.480276	uncorrelated	51514b8	 1.58e+02	 3.50e-03	 1.00e+06	2022-04-17@18:20
2x2_2C_8b_C2v_L	0	14	2.6597931	0.0057854404	-3.1436817	-3.8403515	-0.12206475	-3.8403651	-0.12206337	0.16243762	-3.4548373	9.5948276	-4.4676394e-05	-2.2814652e-06	0.0089616056	-0.18334853	0.0089587482	-0.18334647	4.7701792e-06	3.2537058e-06	-0.11599497	-1.0731771	1.695746	0.0365249	-1.6957493	-0.036515481	0.25301229	-2.2408822	2.0376	1	0.21543448	0.13134712	0.28636374	1.9373745	1.7946474	1.5390225	1.794647	1.539031	0.021153582	1.5370928	1.1007135	0.00042193936	1.7715568e-06	0.11389659	1.2281369	0.11390512	1.228122	-2.4571968e-05	-5.7309253e-06	1.2179352	0.74582505	-1.5910967	-0.55938943	1.5911023	0.55935552	-0.31420995	2.5716183	0.02848948	0.2549488	0.060789802	0.18665102	0.37971394	0.18665155	0.37971402	0.021400067	0.35387907	0.037059238	4.232961	5.36453	5.1500569	5.0106883	5.1500587	5.0106674	4.3484928	6.22846	5.2590091	2.7433011	3.3524344	5.2521553	3.3524483	5.2521374	3.7160724	3.1423172	-73.114125	R0:S0:1	-55.480276	uncorrelated	51514b8	 1.58e+02	 1.83e-04	 3.95e-03	2022-04-17@18:24
2x2_2C_8b_C2v_L	0	14	2.6897759	0.006211934	-3.143726	-3.840308	-0.12180667	-3.840322	-0.12180818	0.16198779	-3.4550518	9.6068966	-4.0289794e-05	-2.5465094e-06	0.0088855423	-0.18334279	0.0088863419	-0.18334236	-2.2883612e-06	1.473327e-07	-0.11599113	-1.0731024	1.695627	0.036215981	-1.6956287	-0.03622168	0.25293934	-2.2408618	2.0324	1	0.21672069	0.13165611	0.2811705	1.9376892	1.7949296	1.5439857	1.7949276	1.5440055	0.020904388	1.5382551	1.1012829	0.0003767403	3.9775733e-07	0.113284	1.2226426	0.113285	1.2225769	1.8279092e-05	3.4738608e-06	1.2123814	0.74372225	-1.5903594	-0.55533137	1.590377	0.55536489	-0.31332735	2.5693407	0.028546627	0.25105643	0.060508464	0.18647518	0.37765011	0.18647709	0.37764165	0.021145705	0.35343036	0.037043226	4.2056757	5.370967	5.1542001	5.0054013	5.1542054	5.0054114	4.3472213	6.2243821	5.2588604	2.7406282	3.3555351	5.2369054	3.3555712	5.2368321	3.7172799	3.1442019	-73.165786	R0:S0:1	-55.336966	uncorrelated	51514b8	 1.56e+02	 3.89e-03	 1.00e+06	2022-04-17@18:28
2x2_2C_8b_C2v_L	0	14	2.6897759	0.0056771517	-3.1417431	-3.8314439	-0.12135285	-3.8314609	-0.12135489	0.16157898	-3.4428192	9.6068966	-4.9443089e-05	-3.6205977e-06	0.0090606917	-0.18273581	0.009060325	-0.1827359	1.474148e-06	6.6188762e-07	-0.11578681	-1.0718623	1.6922331	0.037092264	-1.6922371	-0.037088945	0.25235492	-2.2359166	2.0324	1	0.21672069	0.13150591	0.28449086	1.9375572	1.7952514	1.5405714	1.795251	1.5405831	0.020986599	1.5378794	1.1011918	0.00046730854	3.1413389e-06	0.11337347	1.2238105	0.11337735	1.2237859	-3.7968632e-06	-1.1275177e-09	1.2144658	0.74519483	-1.5886471	-0.56037802	1.5886542	0.56036808	-0.3135317	2.5685972	0.028519157	0.25336944	0.060622041	0.18617763	0.378636	0.18617812	0.37863237	0.021224557	0.35358426	0.037001257	4.2246427	5.365159	5.1502141	5.013243	5.1502155	5.0132311	4.345103	6.2261005	5.2599235	2.7437186	3.3528035	5.245244	3.3528215	5.2452141	3.7189608	3.1453246	-73.084676	R0:S0:1	-55.336966	uncorrelated	51514b8	 1.56e+02	 2.04e-04	 4.01e-03	2022-04-17@18:31
2x2_2C_8b_C2v_L	0	14	2.7197586	0.0059965553	-3.141794	-3.831407	-0.12095809	-3.8314247	-0.12095953	0.16114459	-3.443079	9.6189655	-4.4763714e-05	-2.4832635e-06	0.008944298	-0.18268661	0.0089446338	-0.18268664	1.8566674e-07	3.5465551e-06	-0.11577672	-1.0717289	1.6921245	0.036742038	-1.6921279	-0.036743848	0.25224992	-2.2358977	2.0272	1	0.2180069	0.13180928	0.2801998	1.9378281	1.7955186	1.5444063	1.7955174	1.5444232	0.020779887	1.5389046	1.1017394	0.00041874284	2.241463e-06	0.11284371	1.2193085	0.11284679	1.2192634	1.6556586e-06	-3.2636244e-06	1.209505	0.7434098	-1.5879198	-0.556523	1.587932	0.55653695	-0.31276744	2.566617	0.028575166	0.25015024	0.060379479	0.18600491	0.37714601	0.18600613	0.37713881	0.021013232	0.35319339	0.036988742	4.2015845	5.3707222	5.1537505	5.0089868	5.1537541	5.0089854	4.3437776	6.2226156	5.2603868	2.7412754	3.3550863	5.2327553	3.355113	5.2327012	3.7201692	3.1468204	-73.135897	R0:S0:1	-55.193655	uncorrelated	51514b8	 1.55e+02	 3.30e-03	 1.00e+06	2022-04-17@18:35
2x2_2C_8b_C2v_L	0	14	2.7197586	0.0054923677	-3.1406375	-3.8261078	-0.12072362	-3.8261232	-0.12072558	0.16066398	-3.4304298	9.6189655	-1.8946208e-05	-1.0988148e-06	0.0090904436	-0.18224086	0.0090898167	-0.1822415	-2.3171547e-06	-3.9331356e-06	-0.1155849	-1.0705959	1.6894896	0.03748003	-1.6894926	-0.037479911	0.25166476	-2.2308123	2.0272	1	0.2180069	0.13166246	0.28259243	1.9377726	1.7959907	1.5427429	1.7959909	1.5427463	0.020808032	1.5388004	1.1016826	0.00017998015	-2.4793131e-06	0.11280338	1.2191297	0.11280381	1.2191185	1.8740168e-05	8.7176281e-06	1.2105026	0.74439564	-1.5858837	-0.56011378	1.5858865	0.56011338	-0.31280846	2.5651884	0.028548421	0.25191262	0.060424847	0.18559988	0.37729955	0.18559976	0.37729855	0.021037802	0.35322937	0.036938394	4.215173	5.3660547	5.1503968	5.0148276	5.150395	5.0148255	4.3415387	6.2232368	5.2609256	2.7441864	3.3537069	5.2371994	3.3537161	5.237191	3.7220308	3.1487758	-73.071617	R0:S0:1	-55.193655	uncorrelated	51514b8	 1.54e+02	 1.72e-04	 3.97e-03	2022-04-17@18:39
2x2_2C_8b_C2v_L	0	14	2.7497414	0.0057191936	-3.1406522	-3.8259021	-0.12039175	-3.8259174	-0.12039165	0.16032073	-3.4307374	9.6310345	-1.9286419e-05	-2.5021892e-07	0.0090462163	-0.18213092	0.0090461095	-0.18213103	6.4928028e-07	-2.7007025e-07	-0.1155631	-1.0704755	1.6893881	0.037322725	-1.689391	-0.037320436	0.25151289	-2.2308896	2.022	1	0.2192931	0.13197122	0.27830536	1.9380355	1.7962171	1.5466813	1.7962177	1.5466827	0.020585646	1.5397417	1.1022253	0.00018093318	-1.6635469e-06	0.11228652	1.2144475	0.11228742	1.2144469	-7.315017e-07	1.7449872e-06	1.2057848	0.7426286	-1.5853019	-0.55721952	1.5853017	0.55720894	-0.31193198	2.5634576	0.028605382	0.24868181	0.060189266	0.18545927	0.37562619	0.18545885	0.3756265	0.020810443	0.35287452	0.036929657	4.1922446	5.3716563	5.1539872	5.011018	5.1539849	5.0110111	4.3402677	6.220094	5.2611142	2.7416355	3.3559009	5.2244896	3.3559044	5.2244905	3.7231419	3.1499599	-73.12277	R0:S0:1	-55.050345	uncorrelated	51514b8	 1.53e+02	 4.31e-03	 1.00e+06	2022-04-17@18:43
2x2_2C_8b_C2v_L	0	14	2.7497414	0.0051546783	-3.1378335	-3.8148081	-0.11966877	-3.8148166	-0.11967202	0.15988623	-3.4192407	9.6310345	1.4971473e-06	-7.0611269e-08	0.0091705896	-0.18144675	0.0091712587	-0.18144737	-8.1881896e-08	4.0811203e-06	-0.11534538	-1.0690617	1.6854637	0.038068702	-1.6854657	-0.038071238	0.25098846	-2.2261269	2.022	1	0.2192931	0.13181123	0.28263751	1.9378406	1.7964752	1.5416033	1.7964747	1.5416127	0.020743041	1.5392294	1.1021051	-1.4295013e-05	1.9198142e-06	0.1123832	1.2170115	0.11238503	1.2169948	-3.6837814e-06	-7.195925e-06	1.2085556	0.74452375	-1.5836577	-0.56218866	1.5836617	0.56220368	-0.31242925	2.5630551	0.028576015	0.25170398	0.060359029	0.18520025	0.37753262	0.18520078	0.37752652	0.020965582	0.3530875	0.03689137	4.2163152	5.3647414	5.1493096	5.0202277	5.1493118	5.0202309	4.3382295	6.2223489	5.2630851	2.7450155	3.3520257	5.2368785	3.3520333	5.2368531	3.7247451	3.1506274	-73.030702	R0:S0:1	-55.050345	uncorrelated	51514b8	 1.53e+02	 2.22e-04	 4.11e-03	2022-04-17@18:47
2x2_2C_8b_C2v_L	0	14	2.7797241	0.0057002781	-3.137864	-3.8147914	-0.11948491	-3.8147996	-0.11948637	0.15958363	-3.4193217	9.6431034	7.871184e-07	-6.4758269e-08	0.0090399767	-0.18152501	0.0090394447	-0.18152618	1.5357091e-06	-1.1324006e-07	-0.11534027	-1.0689855	1.6853571	0.037509151	-1.6853593	-0.037506917	0.25101132	-2.2260369	2.0168	1	0.22057931	0.13212498	0.27674728	1.9382004	1.796789	1.5477434	1.7967901	1.5477408	0.020477872	1.5405992	1.1026977	-7.6963314e-06	5.2813688e-07	0.11167476	1.2105507	0.11167562	1.2105711	-9.4665352e-06	-1.248257e-06	1.2020082	0.74210202	-1.5828732	-0.55642144	1.5828668	0.55640788	-0.31153914	2.560344	0.028634056	0.24736108	0.060037938	0.18500925	0.37500095	0.18500828	0.37500133	0.02069619	0.35254136	0.036870334	4.184905	5.3720636	5.1542271	5.0130025	5.1542243	5.0129948	4.3370385	6.2174647	5.262693	2.7422083	3.3561271	5.2187314	3.3561175	5.2187508	3.7259923	3.153013	-73.082296	R0:S0:1	-54.907034	uncorrelated	51514b8	 1.51e+02	 4.37e-03	 1.00e+06	2022-04-17@18:50
2x2_2C_8b_C2v_L	0	14	2.7797241	0.0049638665	-3.13474	-3.8038356	-0.11881765	-3.8038318	-0.11881676	0.15907527	-3.4071615	9.6431034	4.4637618e-07	-5.6169369e-08	0.0091654257	-0.18074653	0.0091669802	-0.18074622	1.3934748e-06	6.3530893e-06	-0.11511603	-1.0674885	1.681558	0.038349962	-1.6815567	-0.038351389	0.25028864	-2.221142	2.0168	1	0.22057931	0.13196876	0.28103669	1.9380121	1.7970107	1.5431244	1.7970105	1.5431272	0.020601252	1.5400043	1.1025782	-4.9998067e-06	4.2960456e-06	0.11188432	1.2126552	0.11188403	1.2126523	-1.3116269e-05	-1.0969519e-05	1.204936	0.74391864	-1.5813765	-0.56179596	1.5813764	0.5618032	-0.31176028	2.5601084	0.028605422	0.25042102	0.060201676	0.18478157	0.37657824	0.18478175	0.37657606	0.020817117	0.35279206	0.036833735	4.2085287	5.3652986	5.1497617	5.0223105	5.1497635	5.0223128	4.3349305	6.2200522	5.2642334	2.745488	3.3523794	5.2302873	3.3523787	5.2302783	3.727585	3.1535162	-72.989125	R0:S0:1	-54.907034	uncorrelated	51514b8	 1.51e+02	 2.13e-04	 4.02e-03	2022-04-17@18:54
2x2_2C_8b_C2v_L	0	14	2.8097069	0.0054654324	-3.1347765	-3.8038754	-0.11856033	-3.8038717	-0.118561	0.15872402	-3.4072383	9.6551724	8.0790046e-07	-7.301473e-07	0.0090568674	-0.18082057	0.0090569381	-0.18082029	-8.4376845e-07	1.3018365e-06	-0.11511911	-1.067423	1.6814387	0.037852733	-1.6814376	-0.037855758	0.25032082	-2.2210507	2.0116	1	0.22186552	0.13227776	0.27597167	1.9383175	1.7973077	1.5480787	1.7973068	1.5480842	0.020376544	1.5412052	1.1031451	-7.5199571e-06	2.1616008e-06	0.11120204	1.2072816	0.11120237	1.2072632	3.3667966e-06	-2.2020208e-06	1.1991637	0.741875	-1.5806081	-0.55675429	1.580613	0.55677068	-0.31102126	2.5577674	0.028662481	0.24664229	0.059929149	0.1845944	0.37461084	0.18459518	0.37460762	0.020588449	0.35231942	0.03681783	4.1814121	5.3717347	5.1540197	5.0163265	5.1540225	5.0163334	4.3336959	6.2158792	5.2642843	2.7428963	3.3556	5.2150067	3.3556079	5.2149847	3.728832	3.155413	-73.040777	R0:S0:1	-54.763724	uncorrelated	51514b8	 1.49e+02	 4.09e-03	 1.00e+06	2022-04-17@18:58
2x2_2C_8b_C2v_L	0	14	2.8097069	0.0048828768	-3.1322714	-3.7945668	-0.11807072	-3.7945682	-0.11807194	0.15824845	-3.3943795	9.6551724	-1.9556172e-05	-2.523032e-06	0.0092014516	-0.18015988	0.0092004234	-0.18016077	-5.2705811e-06	-4.1553563e-06	-0.11490659	-1.0660697	1.67797	0.03867787	-1.6779714	-0.038676172	0.24964281	-2.2159158	2.0116	1	0.22186552	0.13212421	0.27929667	1.9381859	1.7975968	1.5447172	1.797597	1.544714	0.020450208	1.5407757	1.1030476	0.00018703909	4.3082435e-07	0.11130299	1.2083473	0.11130265	1.208349	3.6140907e-05	1.0558909e-05	1.2012771	0.743331	-1.5790039	-0.56154995	1.579005	0.56154017	-0.31112489	2.5570843	0.028634461	0.24900116	0.060042479	0.18432237	0.37558494	0.18432223	0.37558785	0.020659115	0.35249929	0.036776235	4.2003551	5.3659071	5.1501138	5.0242331	5.150112	5.0242273	4.3314999	6.2177856	5.2652666	2.7460041	3.3528669	5.2235365	3.35287	5.2235466	3.7305651	3.1564615	-72.955044	R0:S0:1	-54.763724	uncorrelated	51514b8	 1.49e+02	 2.16e-04	 4.05e-03	2022-04-17@19:02
2x2_2C_8b_C2v_L	0	14	2.8396897	0.0051873876	-3.1323395	-3.7946357	-0.11767608	-3.7946368	-0.11767452	0.15778112	-3.3946237	9.6672414	-1.9276045e-05	-1.0821555e-06	0.0091138783	-0.18011107	0.0091139016	-0.18011045	-7.7496483e-07	-4.7831054e-07	-0.11490529	-1.0658911	1.6778524	0.038270091	-1.6778526	-0.038267605	0.24956589	-2.2158899	2.0064	1	0.22315172	0.13242756	0.27509646	1.9384544	1.7978847	1.5486519	1.7978847	1.5486505	0.020256613	1.5418295	1.1035935	0.00018182217	1.9292386e-07	0.11063895	1.2037185	0.11063897	1.2037164	7.7806478e-06	2.78924e-06	1.1962344	0.74155525	-1.5782208	-0.55730501	1.5782222	0.55729454	-0.31040352	2.555086	0.028690366	0.24586366	0.059801902	0.18413305	0.37404723	0.18413309	0.37404978	0.02046178	0.35208877	0.036763519	4.1774266	5.3714657	5.1537234	5.0197312	5.1537227	5.019726	4.3302208	6.214228	5.2657278	2.7435951	3.3552362	5.2108274	3.3552399	5.2108298	3.7317582	3.1579201	-73.006609	R0:S0:1	-54.620414	uncorrelated	51514b8	 1.47e+02	 3.41e-03	 1.00e+06	2022-04-17@19:06
2x2_2C_8b_C2v_L	0	14	2.8396897	0.0046069503	-3.1308897	-3.7886328	-0.11738931	-3.7886377	-0.11738915	0.15736304	-3.3820219	9.6672414	-7.6416255e-06	-7.9147972e-07	0.0092515053	-0.17962492	0.009251782	-0.17962432	-4.0271056e-06	-5.6749606e-06	-0.11470125	-1.064678	1.6750775	0.039030575	-1.6750778	-0.039032509	0.24897749	-2.2108141	2.0064	1	0.22315172	0.13227659	0.277855	1.9383773	1.7983072	1.5464618	1.7983067	1.546462	0.020301508	1.5416281	1.1035186	7.3975708e-05	-2.9603036e-06	0.11063994	1.2039797	0.11063749	1.20396	2.9239284e-05	1.2283354e-05	1.1975859	0.74267758	-1.5763178	-0.56119538	1.5763239	0.56120615	-0.31048649	2.5538709	0.028662871	0.24791178	0.059866581	0.18376236	0.37445149	0.18376284	0.3744528	0.020503512	0.35216911	0.036716471	4.1928471	5.3664189	5.1501624	5.0262169	5.1501616	5.0262241	4.3279872	6.2152127	5.2664376	2.7465873	3.3534205	5.2167219	3.3534324	5.216711	3.7335948	3.1595787	-72.938679	R0:S0:1	-54.620414	uncorrelated	51514b8	 1.47e+02	 2.04e-04	 4.00e-03	2022-04-17@19:09
2x2_2C_8b_C2v_L	0	14	2.8696724	0.0048922238	-3.1309242	-3.7885396	-0.1170021	-3.7885446	-0.11700015	0.15687485	-3.3823309	9.6793103	-7.9863271e-06	-5.3083703e-08	0.0091656213	-0.17953067	0.0091647323	-0.17952988	-7.5349437e-07	-4.2142106e-06	-0.11467056	-1.0645721	1.6749863	0.038740949	-1.6749877	-0.038736549	0.24881152	-2.2108617	2.0012	1	0.22443793	0.13258549	0.27362857	1.9386355	1.7985428	1.5502815	1.7985431	1.5502752	0.020094367	1.5425967	1.1040586	7.6053467e-05	-3.3381411e-06	0.11011013	1.1994064	0.11011004	1.199414	9.5630775e-06	8.4115652e-06	1.1926606	0.74094389	-1.5757208	-0.55767709	1.5757207	0.55765778	-0.3096421	2.5521138	0.028719772	0.24471658	0.059635348	0.18361392	0.37291192	0.18361366	0.37291762	0.020292292	0.35179599	0.036707942	4.1699966	5.3720131	5.1537753	5.0220665	5.1537725	5.0220596	4.3267363	6.2120078	5.2668578	2.744064	3.3556371	5.204175	3.3556367	5.2041931	3.7347085	3.1607413	-72.990037	R0:S0:1	-54.477103	uncorrelated	51514b8	 1.45e+02	 3.79e-03	 1.00e+06	2022-04-17@19:13
2x2_2C_8b_C2v_L	0	14	2.8696724	0.004375876	-3.1288093	-3.780086	-0.11659363	-3.7800909	-0.11659378	0.15661923	-3.3702122	9.6793103	-4.3604039e-06	-1.1682863e-07	0.0092791789	-0.17897536	0.0092802267	-0.17897494	-5.1042282e-07	4.4504939e-07	-0.11445327	-1.0633206	1.6716771	0.039478732	-1.6716774	-0.039479233	0.24831338	-2.2059377	2.0012	1	0.22443793	0.1324339	0.27657864	1.9385271	1.7988801	1.5474714	1.7988801	1.5474733	0.020167482	1.5423259	1.1039723	4.1893798e-05	-4.7089602e-08	0.11017472	1.200107	0.11017391	1.2000992	3.2580807e-06	6.4717269e-08	1.194266	0.74224701	-1.574003	-0.56175224	1.5740045	0.56175629	-0.30987364	2.5511122	0.028692147	0.24684291	0.059728523	0.18330757	0.3736706	0.18330763	0.37366982	0.020362571	0.35190707	0.036663897	4.1867718	5.3666679	5.1501326	5.029085	5.1501323	5.029087	4.3246369	6.2132453	5.267788	2.7471034	3.353391	5.2114032	3.3533953	5.211396	3.7364466	3.1621278	-72.910859	R0:S0:1	-54.477103	uncorrelated	51514b8	 1.45e+02	 2.01e-04	 4.03e-03	2022-04-17@19:17
2x2_2C_8b_C2v_L	0	14	2.8996552	0.0046974576	-3.1288465	-3.7800015	-0.11626389	-3.7800063	-0.11626426	0.15609696	-3.370404	9.6913793	-4.4510274e-06	-1.8657912e-07	0.0092205099	-0.17892701	0.0092203456	-0.17892728	1.2839094e-07	5.5172059e-07	-0.11446177	-1.0631424	1.6715498	0.03914227	-1.671551	-0.039141853	0.24818316	-2.205922	1.996	1	0.22572414	0.13274248	0.27213943	1.9388048	1.7991401	1.5517058	1.7991402	1.5517066	0.019953154	1.5433639	1.1045184	4.2146697e-05	2.6999295e-07	0.1095342	1.1952117	0.10953477	1.1952118	-7.1582315e-07	-7.5659194e-07	1.1891953	0.74038018	-1.5733369	-0.55780181	1.573337	0.55779979	-0.30901934	2.5492106	0.028748994	0.24350283	0.059479716	0.18314285	0.37194033	0.18314279	0.37193992	0.020144524	0.35150111	0.036653254	4.1627637	5.3725039	5.153978	5.0243378	5.1539776	5.0243356	4.32342	6.2097648	5.2679467	2.7445465	3.3559486	5.1978599	3.3559493	5.1978597	3.7375593	3.1634609	-72.962051	R0:S0:1	-54.333793	uncorrelated	51514b8	 1.44e+02	 4.04e-03	 1.00e+06	2022-04-17@19:21
2x2_2C_8b_C2v_L	0	14	2.8996552	0.0041414656	-3.1262252	-3.7702846	-0.11575604	-3.7702916	-0.11575669	0.15575288	-3.3584513	9.6913793	2.5821995e-06	-7.2212462e-06	0.0093092037	-0.17829385	0.0093094476	-0.17829413	-2.8973619e-06	-5.2027446e-06	-0.11424524	-1.0618084	1.6679769	0.039837691	-1.6679784	-0.039838229	0.24762355	-2.2010518	1.996	1	0.22572414	0.13258893	0.27536143	1.9386761	1.7994365	1.5485409	1.7994368	1.5485344	0.020040437	1.5430398	1.1044248	-2.4730653e-05	1.4036337e-05	0.10963623	1.196132	0.10963157	1.1961369	1.9053675e-05	6.5560574e-06	1.1910699	0.74180312	-1.5716934	-0.56184058	1.5716933	0.56184288	-0.30924611	2.548351	0.028720988	0.2458289	0.059591099	0.18286653	0.37289257	0.18286629	0.37289641	0.020229357	0.35163517	0.036610357	4.1809225	5.3668663	5.1502465	5.0317774	5.1502436	5.0317803	4.3213553	6.2112121	5.2690029	2.7476478	3.3534056	5.2059969	3.3534039	5.2060139	3.7392445	3.1646835	-72.876322	R0:S0:1	-54.333793	uncorrelated	51514b8	 1.43e+02	 2.06e-04	 4.02e-03	2022-04-17@19:25
2x2_2C_8b_C2v_L	0	14	2.9296379	0.0045448516	-3.1262459	-3.7702627	-0.11548033	-3.7702693	-0.11547949	0.15529065	-3.3585325	9.7034483	1.3469692e-06	2.9792655e-06	0.0091882933	-0.17831343	0.0091880256	-0.17831386	2.2886252e-06	-4.6674992e-07	-0.11424397	-1.0617314	1.667908	0.039383068	-1.6679098	-0.039378873	0.24751977	-2.2009922	1.9908	1	0.22701034	0.13290179	0.27064296	1.9389601	1.7996886	1.553213	1.7996899	1.5532076	0.019817381	1.5441348	1.1049787	-1.2895758e-05	-6.5629948e-06	0.10907428	1.1909803	0.10907518	1.1910046	-1.2175826e-05	8.7286847e-07	1.1856255	0.73987684	-1.5710849	-0.55719138	1.5710779	0.55716896	-0.30838139	2.5463276	0.028778648	0.24230084	0.059337471	0.18271276	0.37100693	0.18271169	0.37100996	0.020002851	0.35120292	0.036599459	4.1553093	5.3730808	5.1544416	5.0261253	5.1544383	5.0261156	4.3201583	6.2075268	5.2690816	2.7450296	3.3563453	5.1913188	3.3563346	5.1913441	3.7403893	3.1661633	-72.927884	R0:S0:1	-54.190483	uncorrelated	51514b8	 1.42e+02	 4.84e-03	 1.00e+06	2022-04-17@19:29
2x2_2C_8b_C2v_L	0	14	2.9296379	0.0038759679	-3.1229773	-3.7583291	-0.11472923	-3.7583242	-0.11473162	0.15478384	-3.344562	9.7034483	1.2466776e-05	1.0357902e-06	0.0093038037	-0.17751836	0.0093048533	-0.17751924	-6.1672174e-07	1.9108298e-06	-0.11402837	-1.0602029	1.663839	0.040143316	-1.6638373	-0.040147253	0.246812	-2.1954975	1.9908	1	0.22701034	0.13273222	0.27531614	1.9387416	1.7998681	1.5478538	1.7998681	1.5478581	0.019961598	1.5433593	1.1048351	-0.00012043934	-4.0489749e-07	0.10920811	1.1936799	0.10920757	1.1936757	2.5398694e-07	-3.4413063e-06	1.1889912	0.74194606	-1.5696964	-0.56244609	1.5696951	0.56246249	-0.30872011	2.546268	0.028747634	0.2456278	0.059528542	0.18251251	0.37301804	0.18251249	0.37301345	0.020144971	0.35153986	0.036564183	4.1814006	5.3656527	5.1496265	5.0362123	5.1496281	5.0362193	4.3177791	6.2108055	5.270794	2.7486233	3.3521193	5.2051012	3.3521183	5.2050891	3.7422449	3.166442	-72.825423	R0:S0:1	-54.190483	uncorrelated	51514b8	 1.42e+02	 3.06e-04	 4.29e-03	2022-04-17@19:32
2x2_2C_8b_C2v_L	0	14	2.9596207	0.0043874018	-3.1230628	-3.7584433	-0.1143508	-3.7584388	-0.11434999	0.15416473	-3.3451636	9.7155172	1.1547159e-05	3.9567961e-07	0.0091788706	-0.17757226	0.009178318	-0.17757216	6.1348422e-07	-8.6191515e-07	-0.11403171	-1.0600442	1.6637056	0.03950691	-1.6637049	-0.039504994	0.24678283	-2.1955085	1.9856	1	0.22829655	0.13303947	0.2704406	1.939049	1.8001848	1.5524644	1.8001852	1.5524592	0.019758358	1.5446149	1.1053963	-0.00010988715	-1.8653704e-07	0.1084352	1.1885323	0.10843513	1.1885479	-4.0254186e-06	4.2090886e-07	1.183058	0.7398967	-1.5688676	-0.55679522	1.5688634	0.55678504	-0.30798503	2.5439061	0.028804246	0.2419743	0.05925343	0.18230696	0.37130566	0.18230651	0.37130836	0.019938709	0.35103214	0.036548071	4.1549069	5.3719616	5.1537925	5.0300791	5.1537915	5.0300766	4.316629	6.2064702	5.2711982	2.7460442	3.3552273	5.1904057	3.3552189	5.1904233	3.7433945	3.1682825	-72.877902	R0:S0:1	-54.047172	uncorrelated	51514b8	 1.40e+02	 2.88e-03	 1.00e+06	2022-04-17@19:36
2x2_2C_8b_C2v_L	0	14	2.9596207	0.0037469867	-3.1223124	-3.7553304	-0.11438105	-3.7553273	-0.11438124	0.15402196	-3.3331782	9.7155172	1.1452404e-05	2.8952196e-07	0.0093457395	-0.17719689	0.0093458025	-0.17719708	-3.6128508e-06	-7.9223607e-06	-0.11380108	-1.0589746	1.6615611	0.040315592	-1.6615603	-0.040315798	0.24624253	-2.1906825	1.9856	1	0.22829655	0.13289799	0.27198857	1.9390535	1.8007242	1.55258	1.8007245	1.552573	0.019728633	1.5447313	1.105358	-0.0001096468	-4.8213526e-06	0.10833049	1.1868491	0.10832721	1.1868549	2.6479032e-05	1.4718316e-05	1.1831969	0.74044172	-1.5667449	-0.55993909	1.5667438	0.5599378	-0.30782069	2.5420517	0.028778608	0.24327512	0.059245661	0.18185706	0.37046994	0.18185674	0.37047416	0.019905416	0.35097213	0.036494458	4.1634778	5.3684496	5.1511809	5.0344693	5.1511783	5.0344729	4.3144913	6.2061594	5.2710731	2.7486686	3.3549847	5.1910001	3.3549827	5.1910162	3.7452131	3.1706848	-72.826747	R0:S0:1	-54.047172	uncorrelated	51514b8	 1.40e+02	 1.48e-04	 3.91e-03	2022-04-17@19:40
2x2_2C_8b_C2v_L	0	14	2.9896034	0.0038867363	-3.1223039	-3.7552052	-0.11413986	-3.7552026	-0.11413855	0.1535564	-3.3333474	9.7275862	1.0319602e-05	1.1775542e-06	0.0093205607	-0.17706939	0.0093202304	-0.17706914	1.846862e-06	2.7460596e-08	-0.11378016	-1.0589246	1.6615419	0.040265613	-1.6615417	-0.040262008	0.24599697	-2.1907592	1.9804	1	0.22958276	0.13321554	0.26799771	1.939282	1.8008972	1.5565231	1.8008979	1.5565175	0.019510791	1.5455515	1.105885	-9.902236e-05	-1.5005333e-06	0.10793523	1.1821895	0.10793573	1.1822095	-1.131869e-05	-1.1237116e-06	1.178842	0.738849	-1.566379	-0.55763142	1.5663738	0.55761411	-0.30684409	2.5407116	0.028836992	0.240256	0.059041487	0.18175856	0.36867318	0.18175796	0.36867656	0.019683867	0.35066176	0.036493389	4.141712	5.3739722	5.1548918	5.0307443	5.1548904	5.0307384	4.3133076	6.2035929	5.2710268	2.7460688	3.3570444	5.1782048	3.3570344	5.1782261	3.7462219	3.1713223	-72.87878	R0:S0:1	-53.903862	uncorrelated	51514b8	 1.38e+02	 5.27e-03	 1.00e+06	2022-04-17@19:44
2x2_2C_8b_C2v_L	0	14	2.9896034	0.0033169445	-3.11823	-3.7409174	-0.11321346	-3.7409156	-0.11321316	0.15300021	-3.3205611	9.7275862	1.5936765e-05	-1.7508547e-05	0.0093997745	-0.17623174	0.0093994041	-0.17623162	9.7110775e-08	3.1148508e-06	-0.11358319	-1.0572393	1.6569256	0.040974976	-1.6569256	-0.040978433	0.24537682	-2.1855827	1.9804	1	0.22958276	0.13304354	0.27289263	1.9390427	1.8010011	1.5502295	1.8010004	1.5502246	0.019691207	1.5447397	1.1057266	-0.0001564822	4.4714341e-05	0.1081245	1.1856215	0.1081193	1.1856251	-9.2236738e-06	-1.5172547e-05	1.1825515	0.74103183	-1.5651397	-0.56304049	1.5651407	0.56305908	-0.30735767	2.5408392	0.028805511	0.24366782	0.059251077	0.18161353	0.37126476	0.18161404	0.37126646	0.019862569	0.35101602	0.036461088	4.1693944	5.3661884	5.1498427	5.0415428	5.149844	5.0415512	4.3111341	6.2069424	5.2730754	2.7496633	3.3522703	5.1939971	3.3522642	5.194007	3.7478977	3.1713378	-72.76647	R0:S0:1	-53.903862	uncorrelated	51514b8	 1.38e+02	 2.99e-04	 4.36e-03	2022-04-17@19:48
2x2_2C_8b_C2v_L	0	14	3.0195862	0.0039573496	-3.1182652	-3.7409733	-0.11295605	-3.7409715	-0.11295568	0.15257044	-3.3207804	9.7396552	1.4916491e-05	2.5112055e-06	0.0092265017	-0.17641502	0.0092272236	-0.17641567	1.8240303e-06	6.7671299e-07	-0.11359578	-1.0571471	1.6567912	0.040212882	-1.6567912	-0.040210346	0.2454605	-2.1854519	1.9752	1	0.23086897	0.13335482	0.26764917	1.939361	1.8013114	1.5554384	1.8013126	1.5554324	0.019478019	1.5460612	1.1062946	-0.00014281005	-3.5633688e-06	0.1074152	1.1801647	0.10741458	1.180192	-1.2165686e-05	-1.8449635e-06	1.1762122	0.7388858	-1.5643726	-0.55659315	1.564364	0.55657759	-0.30666257	2.5383355	0.02886289	0.2397543	0.058967024	0.18141919	0.36932143	0.18141811	0.36932382	0.019646727	0.35047667	0.036444786	4.14087	5.3729724	5.154472	5.0341465	5.1544698	5.0341413	4.3100263	6.2023784	5.2732565	2.7470197	3.3559173	5.1777138	3.3559025	5.1777396	3.7490898	3.1733359	-72.818343	R0:S0:1	-53.760552	uncorrelated	51514b8	 1.37e+02	 3.28e-03	 1.00e+06	2022-04-17@19:52
2x2_2C_8b_C2v_L	0	14	3.0195862	0.0032026409	-3.1169273	-3.7360886	-0.11284796	-3.7360874	-0.11284826	0.15220274	-3.3079269	9.7396552	1.5671941e-05	-1.9308001e-07	0.0093895061	-0.17588155	0.009390105	-0.17588171	2.2969036e-06	8.7253525e-06	-0.11337344	-1.0558755	1.6542837	0.041053859	-1.6542831	-0.041056917	0.24474233	-2.1803306	1.9752	1	0.23086897	0.13320552	0.26970869	1.9393402	1.8017769	1.5548723	1.8017766	1.5548778	0.019461204	1.546005	1.1062367	-0.00015306943	6.9500146e-06	0.10736845	1.1788866	0.10736974	1.178883	-2.2083962e-05	-1.6718601e-05	1.1769724	0.73960652	-1.5624175	-0.56022269	1.5624169	0.56023714	-0.3064059	2.5367938	0.028835842	0.2414255	0.058981305	0.18102249	0.36879203	0.18102274	0.36878699	0.019626848	0.35049326	0.036393351	4.1522319	5.3688071	5.1515855	5.03958	5.1515883	5.0395845	4.3077804	6.2027544	5.2731861	2.749809	3.3550794	5.1800958	3.3550773	5.180081	3.7509302	3.17539	-72.755541	R0:S0:1	-53.760552	uncorrelated	51514b8	 1.36e+02	 2.65e-04	 4.02e-03	2022-04-17@19:56
2x2_2C_8b_C2v_L	0	14	3.049569	0.0034095454	-3.116884	-3.7357782	-0.11229671	-3.7357768	-0.11229857	0.15171712	-3.3085331	9.7517241	1.588393e-05	-2.0707525e-07	0.0093520328	-0.17569043	0.0093516443	-0.17569154	-3.6929456e-06	-7.9267192e-06	-0.11335827	-1.0558487	1.6541515	0.040878222	-1.6541517	-0.040879872	0.24456941	-2.1805208	1.97	1	0.23215517	0.13351379	0.26672153	1.9395007	1.80195	1.5568863	1.8019503	1.5568814	0.019314787	1.5466766	1.1067354	-0.00015255589	-3.5066016e-06	0.1068492	1.1758017	0.10684645	1.1758068	2.5908601e-05	1.3849309e-05	1.173335	0.73851622	-1.5619731	-0.55795608	1.5619722	0.55796015	-0.30575234	2.5357736	0.028892335	0.23904948	0.058837712	0.18090912	0.3680867	0.18090884	0.36808892	0.019477027	0.35024651	0.03639591	4.1359474	5.3731007	5.1543087	5.0375771	5.1543066	5.0375814	4.3065475	6.2008019	5.2741575	2.7475377	3.3558872	5.1719518	3.355885	5.1719642	3.7519588	3.1755608	-72.806276	R0:S0:1	-53.617241	uncorrelated	51514b8	 1.35e+02	 4.81e-03	 1.00e+06	2022-04-17@20:00
2x2_2C_8b_C2v_L	0	14	3.049569	0.0029176205	-3.1136458	-3.723446	-0.11177793	-3.7234434	-0.11176664	0.15116981	-3.2954233	9.7517241	-2.1410924e-05	2.2819732e-07	0.009425705	-0.17507352	0.0094244113	-0.17506941	2.4402648e-06	2.0349892e-06	-0.1131556	-1.054277	1.6499737	0.04144913	-1.6499729	-0.041442924	0.24400927	-2.1752082	1.97	1	0.23215517	0.13335068	0.269917	1.9393814	1.8021673	1.5536364	1.8021663	1.5536257	0.019413439	1.5462926	1.1066289	0.00020905023	2.1217383e-07	0.10689883	1.1768166	0.10689877	1.1768155	-1.0820372e-05	-1.4934649e-06	1.1752277	0.73988363	-1.5605322	-0.56144442	1.5605378	0.56142137	-0.30601364	2.5349406	0.028862711	0.2413777	0.05894062	0.18069629	0.36917134	0.18069708	0.36918291	0.019574198	0.3504099	0.036352541	4.154105	5.3673688	5.1507783	5.0447645	5.1507775	5.044759	4.3044246	6.2024332	5.2751148	2.7507518	3.3533657	5.1804968	3.35337	5.1805125	3.7537384	3.1767555	-72.704855	R0:S0:1	-53.617241	uncorrelated	51514b8	 1.35e+02	 2.79e-04	 4.35e-03	2022-04-17@20:03
2x2_2C_8b_C2v_L	0	14	3.0795517	0.0033122816	-3.1136758	-3.7234677	-0.11128265	-3.723465	-0.11128779	0.15068037	-3.2959504	9.7637931	-1.8253258e-05	-8.8875852e-07	0.0092698787	-0.17503776	0.0092707467	-0.17503767	2.3117647e-07	6.0799798e-06	-0.11315803	-1.0541338	1.6498743	0.040887356	-1.6498729	-0.040895196	0.24391319	-2.1752618	1.9648	1	0.23344138	0.13365937	0.26592427	1.9396267	1.8024169	1.5570322	1.8024148	1.5570547	0.019235821	1.5472934	1.1071601	0.00017616407	3.4753323e-06	0.10633621	1.172725	0.10633968	1.1726708	-6.3257056e-06	-1.0602493e-05	1.1702359	0.73823504	-1.5598994	-0.55672678	1.5599122	0.55676993	-0.30529729	2.5331973	0.02891941	0.23833008	0.058720897	0.18053472	0.36800628	0.18053667	0.36799205	0.019393681	0.35001197	0.036345452	4.1321569	5.3728104	5.1543642	5.0400704	5.154372	5.0400827	4.3032606	6.1991758	5.2758689	2.7482902	3.355494	5.168743	3.3555182	5.168671	3.754809	3.1778037	-72.756657	R0:S0:1	-53.473931	uncorrelated	51514b8	 1.33e+02	 3.32e-03	 1.00e+06	2022-04-17@20:07
2x2_2C_8b_C2v_L	0	14	3.0795517	0.0027853995	-3.1116355	-3.7165638	-0.11131481	-3.7165697	-0.11130565	0.1505895	-3.2848551	9.7637931	-2.048843e-05	-2.6079929e-08	0.0094116876	-0.17463518	0.0094099337	-0.17463132	3.3475662e-06	2.8433667e-06	-0.11293253	-1.0528744	1.6469073	0.04158071	-1.6469079	-0.041575385	0.2435107	-2.1706661	1.9648	1	0.23344138	0.13352038	0.26692057	1.9396468	1.8028609	1.5578059	1.80286	1.5578005	0.019215791	1.5475405	1.107129	0.00019992002	1.1041827e-06	0.10622813	1.1703713	0.10622979	1.1703634	-1.7565153e-05	-4.1353468e-06	1.1699357	0.73859176	-1.5579986	-0.55910722	1.5580049	0.55908988	-0.3052168	2.5311968	0.028894332	0.23921665	0.058699985	0.18016762	0.36691194	0.18016843	0.36691975	0.019371365	0.34989035	0.036290608	4.1379724	5.3698971	5.1525182	5.0433377	5.1525177	5.0433329	4.3014605	6.1982892	5.2753999	2.7507569	3.3557694	5.1674845	3.3557767	5.1674888	3.7564338	3.1803696	-72.688463	R0:S0:1	-53.473931	uncorrelated	51514b8	 1.33e+02	 1.99e-04	 3.97e-03	2022-04-17@20:11
2x2_2C_8b_C2v_L	0	14	3.1095345	0.002857728	-3.1116171	-3.7165	-0.11084567	-3.7165049	-0.11084689	0.15005988	-3.2848733	9.7758621	-1.9282851e-05	-1.5901257e-06	0.0093748851	-0.17441155	0.0093778888	-0.17440951	-2.7643186e-06	9.4448447e-06	-0.1129184	-1.0528165	1.6468757	0.041520017	-1.6468749	-0.041530142	0.24318255	-2.1706943	1.9596	1	0.23472759	0.13383146	0.26402821	1.939806	1.8030114	1.5600453	1.8030082	1.5600661	0.019044639	1.5481275	1.1076231	0.00018758222	6.6575028e-06	0.10584923	1.1671233	0.10584909	1.167048	1.017391e-05	-1.2979144e-05	1.1665582	0.73749485	-1.5576534	-0.55738191	1.5576743	0.55743975	-0.30434881	2.5303589	0.02895132	0.23694827	0.0585574	0.18007339	0.36598461	0.18007625	0.36597324	0.019196807	0.34968095	0.036295717	4.1219816	5.3741895	5.1553158	5.041466	5.155323	5.0414868	4.3001672	6.1967029	5.2760597	2.7484453	3.3565887	5.1589256	3.3566243	5.158844	3.7574539	3.1803478	-72.739467	R0:S0:1	-53.330621	uncorrelated	51514b8	 1.32e+02	 4.78e-03	 1.00e+06	2022-04-17@20:15
2x2_2C_8b_C2v_L	0	14	3.1095345	0.0023575607	-3.1077792	-3.7042692	-0.11025506	-3.7042813	-0.11025195	0.1495983	-3.2719795	9.7758621	-3.7204662e-05	2.4350067e-06	0.0094477478	-0.17379773	0.0094457341	-0.17379595	2.2453992e-06	-5.5115453e-07	-0.1127216	-1.0511635	1.6427069	0.042109869	-1.6427095	-0.042104172	0.24267684	-2.1654565	1.9596	1	0.23472759	0.13366549	0.26770487	1.9396509	1.8032047	1.5559473	1.8032043	1.5559479	0.019169255	1.5476286	1.1074985	0.00036719222	-8.1409005e-06	0.10591689	1.1688863	0.10592106	1.1688798	-8.4713115e-06	2.7739513e-06	1.1689587	0.73908591	-1.5562805	-0.56129545	1.5562849	0.56127423	-0.30474683	2.5297774	0.028921126	0.239613	0.058692504	0.17987334	0.36752658	0.17987367	0.36752948	0.019319923	0.34989859	0.036256316	4.1427167	5.367929	5.1513425	5.0495681	5.1513415	5.0495574	4.298043	6.1987622	5.2773443	2.7517514	3.3534922	5.1696152	3.3535005	5.1696138	3.7592216	3.1812022	-72.637635	R0:S0:1	-53.330621	uncorrelated	51514b8	 1.32e+02	 2.70e-04	 4.35e-03	2022-04-17@20:19
2x2_2C_8b_C2v_L	0	14	3.1395172	0.0028428508	-3.1078062	-3.7043307	-0.10983026	-3.7043427	-0.10983121	0.14911992	-3.2720985	9.787931	-3.6263128e-05	-5.898229e-07	0.0093015495	-0.17380666	0.0093019345	-0.17380642	-2.0651234e-06	-9.673548e-07	-0.11272329	-1.0510604	1.6425937	0.041465233	-1.6425959	-0.04146841	0.24264019	-2.1653473	1.9544	1	0.23601379	0.13397482	0.26329063	1.9399142	1.8034805	1.5600382	1.8034794	1.5600465	0.018983424	1.5487365	1.1080404	0.00035275399	-2.0627354e-06	0.1052537	1.1641907	0.10525379	1.1641568	1.5778648e-05	4.4618749e-06	1.1634498	0.73731257	-1.5555924	-0.55588486	1.555603	0.55590273	-0.30404524	2.5277817	0.02897796	0.23625681	0.058457238	0.17969599	0.36603416	0.17969706	0.36603066	0.019131537	0.34944857	0.036246199	4.1185568	5.3738135	5.1553297	5.0438812	5.1553304	5.0438852	4.2968855	6.1951103	5.2778612	2.7492628	3.3561747	5.156101	3.3561946	5.1560697	3.760356	3.1825386	-72.688759	R0:S0:1	-53.18731	uncorrelated	51514b8	 1.30e+02	 3.87e-03	 1.00e+06	2022-04-17@20:23
2x2_2C_8b_C2v_L	0	14	3.1395172	0.0021970693	-3.1048609	-3.6957909	-0.10945857	-3.6957999	-0.10945668	0.14881939	-3.2597132	9.787931	-3.4292894e-05	-2.3907279e-07	0.0094092717	-0.17317493	0.0094093365	-0.17317405	-1.3563895e-07	-2.8268374e-06	-0.11248204	-1.0495926	1.6392841	0.042181555	-1.6392851	-0.042178831	0.24203795	-2.1603564	1.9544	1	0.23601379	0.13381978	0.26594045	1.9398321	1.8038086	1.5579972	1.803809	1.5579947	0.019030992	1.5485123	1.1079543	0.00033892845	-2.6408262e-06	0.10525601	1.1640587	0.10525533	1.1640585	5.8822918e-06	6.4121422e-06	1.1647601	0.73839932	-1.5539451	-0.55954784	1.5539455	0.55953629	-0.30408631	2.5266538	0.028949831	0.23827223	0.058526982	0.17939976	0.36638068	0.17939946	0.36638389	0.019176868	0.34954145	0.0362003	4.1334354	5.3688624	5.1520568	5.0504867	5.152054	5.0504823	4.2947794	6.1960989	5.278449	2.7522099	3.354378	5.1619746	3.3543814	5.1619815	3.7621014	3.1840522	-72.606916	R0:S0:1	-53.18731	uncorrelated	51514b8	 1.30e+02	 1.98e-04	 4.07e-03	2022-04-17@20:27
2x2_2C_8b_C2v_L	0	14	3.1695	0.0025252868	-3.1048757	-3.6958006	-0.10912367	-3.6958091	-0.10912366	0.14830099	-3.2597918	9.8	-3.421584e-05	-6.5061223e-07	0.0093199436	-0.17315438	0.0093203204	-0.17315386	-1.0431057e-06	6.865679e-07	-0.11249167	-1.0495239	1.6392238	0.041806466	-1.6392254	-0.0418083	0.24187677	-2.1603142	1.9492	1	0.2373	0.13413461	0.26201563	1.9400574	1.8040143	1.5616333	1.8040133	1.5616395	0.01883892	1.5494012	1.1084771	0.00033438448	-3.5381559e-07	0.10474724	1.1598167	0.10474758	1.159791	8.2188524e-06	9.7655321e-07	1.1601231	0.73684448	-1.5534849	-0.55571093	1.5534932	0.55572258	-0.30325416	2.5251909	0.029007594	0.23527248	0.05832563	0.17927449	0.36494733	0.17927538	0.364945	0.018982087	0.34919204	0.036198389	4.1118522	5.3743311	5.1557861	5.0459286	5.1557869	5.0459305	4.2936251	6.1933284	5.2787865	2.7496972	3.3565057	5.1497131	3.3565208	5.1496894	3.7631412	3.1847644	-72.658655	R0:S0:1	-53.044	uncorrelated	51514b8	 1.28e+02	 4.08e-03	 1.00e+06	2022-04-17@20:31
2x2_2C_8b_C2v_L	0	14	3.1695	0.0018966178	-3.1022638	-3.6869349	-0.10868969	-3.686944	-0.10869079	0.14780046	-3.2464716	9.8	-3.6500554e-05	-6.7538764e-06	0.0094399223	-0.17253352	0.0094394611	-0.17253362	3.636482e-06	8.7254376e-06	-0.1122816	-1.0480638	1.635789	0.042537516	-1.6357909	-0.04253608	0.24121687	-2.1549857	1.9492	1	0.2373	0.13396957	0.2652708	1.939942	1.8043205	1.5585986	1.8043206	1.5586046	0.0189081	1.5490035	1.1083674	0.00036190057	1.9729951e-05	0.10474188	1.1605816	0.1047447	1.1605834	-2.8412603e-05	-1.9070385e-05	1.162138	0.7382099	-1.5518737	-0.55982031	1.5518724	0.55981666	-0.30335527	2.5243198	0.028977622	0.23770044	0.058424887	0.17898814	0.36581446	0.17898809	0.36581035	0.01904909	0.34936546	0.036155089	4.1301944	5.3685751	5.1519625	5.0536036	5.151964	5.0535964	4.2913274	6.1950073	5.2796115	2.7529111	3.3540317	5.1581495	3.35403	5.1581422	3.7650163	3.1859676	-72.573495	R0:S0:1	-53.044	uncorrelated	51514b8	 1.28e+02	 2.36e-04	 4.25e-03	2022-04-17@20:35
