model	E_kin	D	U	e	eb1_1	eb2_1	eb3_1	eb4_1	eb5_1	eb6_1	eb7_1	eb8_1	mu	sb1_1	sb2_1	sb3_1	sb4_1	sb5_1	sb6_1	sb7_1	sb8_1	tb1_1	tb2_1	tb3_1	tb4_1	tb5_1	tb6_1	tb7_1	tb8_1	tpd	tpp	tppp	ave_D	ave_e	ave_mu	ave_tpd	ave_tpp	ave_tppp	ave_D_1	ave_U_1	ave_eb1_1	ave_eb2_1	ave_eb3_1	ave_eb4_1	ave_eb5_1	ave_eb6_1	ave_eb7_1	ave_eb8_1	ave_mu_1	ave_sb1_1	ave_sb2_1	ave_sb3_1	ave_sb4_1	ave_sb5_1	ave_sb6_1	ave_sb7_1	ave_sb8_1	ave_tb1_1	ave_tb2_1	ave_tb3_1	ave_tb4_1	ave_tb5_1	ave_tb6_1	ave_tb7_1	ave_tb8_1	var_D_1	var_U_1	var_eb1_1	var_eb2_1	var_eb3_1	var_eb4_1	var_eb5_1	var_eb6_1	var_eb7_1	var_eb8_1	var_mu_1	var_sb1_1	var_sb2_1	var_sb3_1	var_sb4_1	var_sb5_1	var_sb6_1	var_sb7_1	var_sb8_1	var_tb1_1	var_tb2_1	var_tb3_1	var_tb4_1	var_tb5_1	var_tb6_1	var_tb7_1	var_tb8_1	E0_1	sector_1	E0_2	sector_2	githash	iterations	dist_function	distance	diff_hybrid	time
2x2_2C_8b_C2v_L	7.5314212	0.1	14	2.21	0.060763454	-5.3768909	-5.9849435	-0.033735766	-5.9849976	-0.033764713	0.059102239	-5.3880757	9.5	-0.0023279221	7.4104826e-07	0.0020038382	-0.0020659193	0.0020085706	-0.002034731	-0.0038128377	5.2300241e-05	0.0002971542	-0.81169702	1.2285756	0.00059772745	-1.228584	-0.00065483778	-1.3745208e-06	-1.530557	1.27	0.623	0.132	-0.021217387	1.3164151	1.6664726	-0.29552312	-0.037924702	0.017117157	-0.04698378	0.051910923	6.807962e-07	1.9799325	1.9526399	1.9999994	1.9526382	1.9999994	2.401391e-06	1.9096411	1.051396	0.0030161041	1.2652232e-05	-0.047061195	0.0026557193	-0.047062013	0.0026091586	0.0062787562	-4.1643119e-05	-0.00050381839	0.52548867	-0.84923469	-0.00070325576	0.84925791	0.00079219761	1.4657117e-06	1.219761	0.70451082	0.01240207	6.8080098e-07	0.020004776	0.046819026	6.3117634e-07	0.046820643	6.2098918e-07	2.4014197e-06	0.087749012	0.012386996	3.44068	4.7044346	4.5423863	4.1902974	4.54233	4.1902252	4.1175048	4.5584731	4.5593259	3.4721104	3.822221	3.8097076	3.8222824	3.8097797	3.8825106	4.0212999	-85.888392	R0:S0:1	-58.32	uncorrelated	51514b8	3	sharp_wc_2.0_b_50	 9.27e-01	 4.39e-04	2022-04-08@16:52
2x2_2C_8b_C2v_L	7.5315353	0.1	14	2.21	0.063262251	-5.7361148	-6.3840449	-0.035952744	-6.3844004	-0.036309557	0.065288947	-5.8818704	10	0.0025917937	2.9812613e-05	0.0021072144	0.00020890981	0.0021342794	-0.00099396838	0.0019174886	-6.3073061e-06	-0.00048503396	-0.80721989	1.2206091	-0.00022650596	-1.2205464	-0.0039061753	2.9306888e-05	-1.5304384	1.27	0.623	0.132	-0.021889249	1.3164213	1.6665213	-0.29545761	-0.037909588	0.017110081	-0.04856053	0.052191142	1.0356309e-06	1.9796231	1.9523991	2	1.9524116	1.9999972	7.4525445e-07	1.9095996	1.0516949	-0.0037035923	-3.1369903e-05	-0.047019101	-0.00022658862	-0.04702974	0.00079587205	-0.0035008331	2.1142156e-05	0.00073423223	0.52949847	-0.85123966	0.00035718769	0.85110297	0.0064178486	-2.6431963e-05	1.2199445	0.70412589	0.012479348	1.0356346e-06	0.020312145	0.047053075	1.3300197e-08	0.047041015	2.8097669e-06	7.4525613e-07	0.087785337	0.012455849	3.4402192	4.7070752	4.5455834	4.1918187	4.5457088	4.1920576	4.1165277	4.5597089	4.5597898	3.4721209	3.8208381	3.8081814	3.8206446	3.8079643	3.8834771	4.0204533	-91.198141	R0:S0:1	-62.32	uncorrelated	51514b8	1	sharp_wc_2.0_b_50	 1.16e+00	 6.28e-02	2022-04-08@16:59
2x2_2C_8b_C2v_L	7.5315471	0.1	14	2.21	0.065805737	-6.0977525	-6.7850443	-0.03817431	-6.7857234	-0.038880476	0.071515648	-6.375856	10.5	-0.0014471823	-2.1206478e-05	0.0021347567	0.001317675	0.002135944	0.00010128704	0.0055901995	-1.8094968e-05	-3.2384078e-05	-0.80246457	1.2134131	-0.00038002074	-1.2134654	-0.0012482996	5.4176117e-05	-1.5299995	1.27	0.623	0.132	-0.022997903	1.3164272	1.6665845	-0.29538332	-0.037896563	0.01710337	-0.051103548	0.052508667	3.8671632e-07	1.9793249	1.952122	1.9999998	1.9521234	1.9999996	7.9773608e-06	1.9095854	1.0520271	0.0023056782	1.2857178e-05	-0.048229968	-0.0014018263	-0.048229962	-0.00024839139	-0.011454669	6.8195238e-06	4.4448327e-05	0.5333338	-0.85348411	0.00056642382	0.85347449	0.0023481964	-4.5749452e-05	1.2199374	0.70359044	0.012570852	3.8671673e-07	0.020608433	0.047323335	1.8006163e-07	0.047321994	3.6559578e-07	7.9774723e-06	0.087797366	0.012540824	3.4398044	4.7095952	4.5494918	4.1939478	4.5494599	4.1939273	4.1156286	4.5606847	4.560199	3.472173	3.8189676	3.8060536	3.8189874	3.8060755	3.8844222	4.019766	-96.521734	R0:S0:1	-66.32	uncorrelated	51514b8	1	sharp_wc_2.0_b_50	 1.73e+00	 1.03e-03	2022-04-08@17:06
2x2_2C_8b_C2v_L	7.5315986	0.1	14	2.21	0.068606655	-6.4627744	-7.1890418	-0.040401848	-7.1901134	-0.041486633	0.077806068	-6.8696121	11	-0.00069268518	-1.5391208e-05	0.0023086819	0.00080122036	0.0023160044	0.00049631772	0.0060569331	-2.3829774e-06	0.00026196116	-0.79903699	1.2075277	6.582135e-05	-1.2075774	0.0023240387	7.9478589e-05	-1.5297856	1.27	0.623	0.132	-0.024672529	1.3164362	1.666692	-0.29526157	-0.037878044	0.017093555	-0.054925571	0.052918379	1.2063283e-07	1.9789612	1.9517723	1.9999999	1.9517786	1.9999984	1.2154936e-05	1.9095538	1.0524489	0.001246801	9.0350416e-06	-0.051018523	-0.0008233753	-0.051019346	-0.00020550728	-0.014139213	4.6265157e-07	-0.00032965594	0.537979	-0.85631319	-0.00024351299	0.85625365	-0.0048914249	-6.3309275e-05	1.2199865	0.70283068	0.012692487	1.206331e-07	0.020969754	0.047664754	5.4388899e-08	0.047658633	1.5988922e-06	1.2155096e-05	0.087827272	0.012657466	3.4394212	4.7125556	4.5541456	4.1964838	4.5541322	4.1965235	4.1143851	4.5621223	4.5605798	3.4723576	3.8167722	3.8035166	3.8167436	3.803489	3.885692	4.0188561	-101.86696	R0:S0:1	-70.32	uncorrelated	51514b8	1	sharp_wc_2.0_b_50	 2.78e+00	 1.04e-03	2022-04-08@17:13
2x2_2C_8b_C2v_L	7.531617	0.1	14	2.21	0.071675573	-6.8327783	-7.5975367	-0.042636339	-7.5990872	-0.044146117	0.084159639	-7.3622762	11.5	-0.00040155425	1.4948172e-05	0.0025550698	-0.00081088021	0.0025389607	-7.9177835e-05	0.0036607254	5.7923132e-05	0.00010455459	-0.79632852	1.2028596	0.00032330982	-1.2029556	0.00054052915	0.00015526297	-1.5294441	1.27	0.623	0.132	-0.027123152	1.316448	1.6668453	-0.29509425	-0.037855249	0.017080787	-0.060494076	0.053426732	5.1164672e-08	1.9785666	1.951377	1.9999999	1.9513829	1.9999999	5.9953002e-06	1.9095213	1.0529677	0.00083054504	1.7255509e-06	-0.055681185	0.00072007385	-0.055670413	0.00016163189	-0.0099285603	-3.5666447e-05	-0.00012169965	0.54297763	-0.8594418	-0.00067134879	0.85939201	-0.0013509736	-0.00011701951	1.2200159	0.70177004	0.01285248	5.116471e-08	0.021361821	0.048051275	7.2386194e-08	0.048045485	1.2140054e-07	5.9953424e-06	0.087858993	0.012813558	3.4390784	4.7157101	4.5596655	4.199806	4.5596031	4.1997853	4.1130235	4.563736	4.5609221	3.4726413	3.8139381	3.8001946	3.8139573	3.8002156	3.8870143	4.0179264	-107.24055	R0:S0:1	-74.32	uncorrelated	51514b8	1	sharp_wc_2.0_b_50	 4.60e+00	 3.15e-04	2022-04-08@17:20
2x2_2C_8b_C2v_L	7.5314481	0.1	14	2.21	0.075012491	-7.2094546	-8.0121176	-0.044907628	-8.0142693	-0.046867906	0.090574751	-7.8513803	12	0.00025379107	-1.0602498e-06	0.002892298	-0.0021745331	0.0029239559	-8.0551054e-05	-0.0025692427	1.0304335e-05	-0.00011050161	-0.79377654	1.1988848	-0.0002667079	-1.1989797	0.002136632	0.00073918534	-1.5288531	1.27	0.623	0.132	-0.030767593	1.3164623	1.6670536	-0.29488646	-0.037831526	0.017066076	-0.068768232	0.054073888	2.862793e-08	1.9781815	1.9509895	1.9999996	1.9510035	1.9999973	4.2284033e-06	1.9094472	1.0536234	-0.00061676884	-2.9841654e-06	-0.063047223	0.0020112387	-0.063051422	0.00052700785	0.0083159546	1.3583023e-06	0.00011999914	0.54777527	-0.86237672	0.0012510147	0.86224122	-0.0063255279	-0.00052933598	1.2203607	0.7002553	0.013074461	2.8627962e-08	0.021744504	0.048430656	3.7703286e-07	0.048416973	2.6671886e-06	4.2287561e-06	0.087930259	0.013032398	3.4383086	4.7192439	4.5656732	4.2040631	4.5656705	4.2041766	4.1119262	4.5654825	4.5616917	3.4725467	3.8103839	3.7959398	3.8102962	3.7958443	3.8881004	4.0172247	-112.64635	R0:S0:1	-78.32	uncorrelated	51514b8	1	sharp_wc_2.0_b_50	 7.83e+00	 5.46e-04	2022-04-08@17:28
2x2_2C_8b_C2v_L	7.5310132	0.1	14	2.21	0.078617409	-7.5928035	-8.4327845	-0.047215716	-8.4356597	-0.049651998	0.097051403	-8.3369243	12.5	0.0012733508	-6.3416473e-05	0.0033203664	-0.0032897382	0.0034709899	0.00049219807	-0.012632971	-0.00014523937	-0.00038320744	-0.79138106	1.1956035	-0.0017042318	-1.1956496	0.0071123472	0.0018312457	-1.5280127	1.27	0.623	0.132	-0.036443429	1.3164813	1.6673836	-0.29459719	-0.037806402	0.0170478	-0.081648533	0.055049817	1.0347155e-06	1.977815	1.9506333	1.9999957	1.9506579	1.999955	0.00015667649	1.9093269	1.0546061	-0.0037484163	-1.6734226e-05	-0.074849828	0.0033773337	-0.074894439	0.0017936177	0.050708891	0.00011439349	0.00039434202	0.55218686	-0.86475726	0.0072636223	0.86453068	-0.025857582	-0.0012621401	1.2211009	0.6977943	0.013435786	1.0347339e-06	0.022108897	0.048780744	4.3515433e-06	0.048756754	4.4983488e-05	0.00015675662	0.088045254	0.013391157	3.4361779	4.7240378	4.572978	4.2106846	4.5728806	4.2109421	4.1112352	4.5671206	4.5638315	3.471222	3.8050149	3.7893488	3.8049158	3.7894136	3.8897386	4.016978	-118.08512	R0:S0:1	-82.32	uncorrelated	51514b8	0	sharp_wc_2.0_b_50	 1.39e+01	 1.00e+06	2022-04-08@17:32
2x2_2C_8b_C2v_L	7.5302639	0.1	14	2.21	0.082501091	-7.9843486	-8.8581692	-0.053500374	-8.8617336	-0.054019587	0.11375434	-8.8016215	13	-0.00022375306	-1.4414311e-05	0.0039496748	-0.012474902	0.003722078	-0.012351546	0.003018915	-0.0002940921	-0.0085746201	-0.79032821	1.1931684	-0.0026581742	-1.1933739	0.0032865373	0.023270628	-1.5261085	1.27	0.623	0.132	-0.046119846	1.3165123	1.6680044	-0.29409895	-0.037773873	0.017018593	-0.1036098	0.056738643	5.8615181e-06	1.9774061	1.9503336	1.9999597	1.9503536	1.9999515	3.5518034e-05	1.9089353	1.0562955	0.00080558299	1.6235869e-05	-0.095322533	0.012021194	-0.095213165	0.012231526	-0.015952534	0.00011232451	0.008464325	0.55694071	-0.86598047	0.019509025	0.86580138	-0.022438447	-0.015289019	1.223856	0.69297041	0.014124562	5.8747594e-06	0.0225159	0.049078754	4.2327011e-05	0.049059319	5.1064578e-05	3.6627062e-05	0.088417346	0.014079733	3.4324842	4.7308199	4.5835633	4.2237573	4.583469	4.2239519	4.1123109	4.5700067	4.5675802	3.4686619	3.7951838	3.7765419	3.7951464	3.7764096	3.887925	4.0179534	-123.53242	R0:S0:1	-86.32	uncorrelated	51514b8	1	sharp_wc_2.0_b_50	 2.71e+01	 3.29e-03	2022-04-08@17:41
2x2_2C_8b_C2v_L	7.5292335	0.1	14	2.21	0.16572639	-8.380208	-9.2518517	-0.25830386	-9.2553646	-0.25834886	0.42484576	-9.1172	13.5	0.001626204	0.00024558395	0.0032957687	-0.036025265	0.0033635541	-0.036444414	0.00020135685	6.3788791e-05	-0.025306334	-0.78972437	1.191228	-0.0098136531	-1.1915875	0.0094253275	-0.054803042	-1.5164161	1.27	0.623	0.132	-0.066006263	1.3165792	1.6698774	-0.2929243	-0.037754798	0.01697107	-0.1489547	0.061964494	9.1197607e-05	1.9771048	1.9500611	1.9992712	1.9500584	1.9992917	9.9123932e-05	1.9066029	1.0614907	-0.0079496425	-7.1474795e-05	-0.13781892	0.042354492	-0.13786578	0.042404906	-0.0011317775	-0.00012299892	0.025972279	0.55888747	-0.8641878	0.093201656	0.86423729	-0.091379681	0.03390341	1.2407109	0.67905614	0.016214443	9.2534946e-05	0.022818729	0.049362539	0.00074646616	0.049365056	0.00072582369	9.9611242e-05	0.090608923	0.016177145	3.4119216	4.7541194	4.6106056	4.2662627	4.6104187	4.2658681	4.1217693	4.5805876	4.5893694	3.4505304	3.7662193	3.738989	3.7664125	3.7392223	3.8791273	4.0231434	-129.3749	R0:S0:1	-90.32	uncorrelated	51514b8	2	sharp_wc_2.0_b_50	 6.57e+01	 3.51e-03	2022-04-08@17:55
2x2_2C_8b_C2v_L	7.5367809	0.1	14	2.21	0.32871294	-8.7801077	-9.6143619	-0.65519867	-9.6170431	-0.65597604	1.0366251	-9.2849246	14	-0.00034393023	-0.00023574122	-0.0065491421	-0.076938281	-0.0064097133	-0.076926225	-0.0058059215	-0.0020080925	-0.057337488	-0.79527362	1.1926688	-0.037905308	-1.1930591	0.03784687	-0.10353563	-1.5054499	1.27	0.623	0.132	-0.12770866	1.3169203	1.6831735	-0.28656837	-0.03795817	0.016871908	-0.29237776	0.097447462	0.0027088604	1.9776396	1.9527523	1.9872049	1.9527152	1.9872229	0.0003841915	1.8990898	1.0968601	0.0011385136	0.00088161286	-0.27116869	0.20663206	-0.2714975	0.20649161	0.033821765	-0.00032852859	0.11046729	0.53762336	-0.81175813	0.38434972	0.81220942	-0.38417979	0.057988994	1.3070465	0.59216129	0.029410616	0.0027929991	0.022314259	0.046851333	0.012890774	0.046887115	0.012872596	0.00038662031	0.097607518	0.029412344	3.2532794	4.9288806	4.7796949	4.5962132	4.7787248	4.5950172	4.2369803	4.5480151	4.791175	3.2885712	3.556166	3.4912605	3.5571766	3.4923302	3.7667064	4.1075836	-135.6413	R0:S0:1	-94.32	uncorrelated	51514b8	2	sharp_wc_2.0_b_50	 6.10e+02	 1.38e-03	2022-04-08@18:03
2x2_2C_8b_C2v_L	7.8056471	0.1	14	2.21	0.19529478	-9.0793413	-9.8454262	-0.091304016	-9.8502265	-0.091569546	0.035465383	-9.6054006	14.5	-0.0001608972	-6.9533207e-05	-0.001751314	-0.053328015	-0.0016838215	-0.053414566	-0.082395159	-0.00014251926	-0.070041084	-0.80836284	1.1771964	-0.055790429	-1.177459	0.055847449	-9.3914504e-05	-1.4801511	1.27	0.623	0.132	-0.22438194	1.320861	1.8149209	-0.21613695	-0.03604867	0.016439975	-0.35883061	0.48290971	0.075365745	1.993678	1.9767568	1.7668782	1.9767607	1.7668444	0.71507334	1.9136502	1.4825535	0.00058408956	2.9708791e-05	-0.32724039	1.6447206	-0.32726686	1.6454207	3.0048805	0.00022342173	1.2095452	0.15065396	-0.40506813	0.98799488	0.40508275	-0.98810119	0.0027950443	1.15261	0.32281202	0.061026784	0.071931361	0.0063540021	0.023295657	0.22381115	0.023291521	0.22375076	0.39798166	0.082500118	0.061167102	1.5359974	7.1155254	6.2068132	5.1330459	6.2063695	5.1327515	2.7729247	4.4531868	6.4874256	0.94000715	1.8716295	3.2879993	1.8719902	3.2885822	8.1219112	3.5076474	-138.18666	R0:S0:1	-98.32	uncorrelated	51514b8	4	sharp_wc_2.0_b_50	 2.21e+02	 8.29e-04	2022-04-08@18:20
