model	D	U	e	eb1_1	eb2_1	eb3_1	eb4_1	eb5_1	eb6_1	eb7_1	eb8_1	mu	sb1_1	sb2_1	sb3_1	sb4_1	sb5_1	sb6_1	sb7_1	sb8_1	tb1_1	tb2_1	tb3_1	tb4_1	tb5_1	tb6_1	tb7_1	tb8_1	tpd	tpp	tppp	ave_D_1	ave_U_1	ave_eb1_1	ave_eb2_1	ave_eb3_1	ave_eb4_1	ave_eb5_1	ave_eb6_1	ave_eb7_1	ave_eb8_1	ave_mu_1	ave_sb1_1	ave_sb2_1	ave_sb3_1	ave_sb4_1	ave_sb5_1	ave_sb6_1	ave_sb7_1	ave_sb8_1	ave_tb1_1	ave_tb2_1	ave_tb3_1	ave_tb4_1	ave_tb5_1	ave_tb6_1	ave_tb7_1	ave_tb8_1	var_D_1	var_U_1	var_eb1_1	var_eb2_1	var_eb3_1	var_eb4_1	var_eb5_1	var_eb6_1	var_eb7_1	var_eb8_1	var_mu_1	var_sb1_1	var_sb2_1	var_sb3_1	var_sb4_1	var_sb5_1	var_sb6_1	var_sb7_1	var_sb8_1	var_tb1_1	var_tb2_1	var_tb3_1	var_tb4_1	var_tb5_1	var_tb6_1	var_tb7_1	var_tb8_1	E0_1	sector_1	E0_2	sector_2	githash	distance	diff_param	diff_hybrid	time
2x2_2C_8b_C2v_L	0.1	14	2.21	0.0086839677	-3.1445289	-3.9164807	-0.13437878	-3.9164407	-0.13437791	0.17455273	-3.5797676	9.5	2.7540906e-05	-4.0887161e-07	0.0069035686	-0.19307525	0.0069033966	-0.1930765	-1.0933969e-05	2.552128e-06	-0.11908613	-1.0874005	1.7341014	0.025163995	-1.7340927	-0.025176042	0.26343251	-2.2991102	1.27	0.623	0.132	-0.043147346	0.13185934	0.13421925	1.9448554	1.7869546	1.7424987	1.7869547	1.7424904	0.014822092	1.5535603	1.1008188	-0.00021138519	4.899728e-06	-0.089139665	1.0540974	-0.08914898	1.0541112	5.4070961e-05	1.7094806e-06	1.1156655	0.68220327	-1.63106	-0.23423063	1.6310533	0.23426454	-0.29478323	2.5541081	0.49216735	0.028620018	0.12477011	0.054151931	0.19480515	0.24591229	0.19480509	0.24591848	0.015064876	0.34634959	0.037277038	3.4589435	5.5445757	5.2979213	4.7343742	5.2979243	4.7343959	4.3935201	6.1467328	5.1373309	2.6768226	3.517	4.9129945	3.5169883	4.9129967	3.6850728	3.1699116	-73.504326	R0:S0:1	-58.32	uncorrelated	51514b8	 2.11e+01	 6.59e-01	 1.00e+06	2022-04-08@16:42
2x2_2C_8b_C2v_L	0.1	14	2.21	0.058732011	-4.6302855	-5.4087446	-0.029120855	-5.4086916	-0.029093457	0.019653754	-5.0485781	9.5	0.032004441	-3.0264033e-05	0.0041174688	-0.0036790921	0.0041158294	-0.0036742143	-0.059368061	1.2220261e-05	3.1240608e-05	-0.76574119	1.1759085	0.047561489	-1.1758997	-0.047565366	-1.5990397e-05	-1.4875217	1.27	0.623	0.132	-0.047534371	0.053165532	0.00012595047	1.9792866	1.9516003	1.9996315	1.9516001	1.9996314	0.00060087083	1.908681	1.0526551	-0.041578676	3.1193229e-05	-0.050086859	0.00093761088	-0.050085519	0.00093168075	0.098641544	-1.6207709e-05	-5.9310129e-05	0.53367749	-0.85784274	-0.071437584	0.85784676	0.071444986	1.6073483e-05	1.2251751	0.70316365	0.012685249	0.00012604069	0.02064749	0.047835921	0.0003755866	0.047836111	0.00037567753	0.00060879894	0.088653255	0.012674371	3.4384833	4.7113248	4.554508	4.1975918	4.5544912	4.1975724	4.1104429	4.5709267	4.5626211	3.4708115	3.817451	3.8052136	3.8174674	3.8052335	3.8934125	4.0142819	-81.334145	R0:S0:1	-58.32	uncorrelated	51514b8	 9.80e-01	 2.34e-01	 1.69e+00	2022-04-08@16:46
2x2_2C_8b_C2v_L	0.1	14	2.21	0.060752022	-5.3572694	-5.9783511	-0.033678156	-5.9784117	-0.033708176	0.058653482	-5.3853685	9.5	-0.00105091	-9.2630797e-06	0.0020453707	0.0051874832	0.0020344996	0.0051128891	0.008876872	4.0132059e-06	0.00029282092	-0.81053548	1.2279012	-0.0015176391	-1.2279078	0.0016902459	1.3781618e-06	-1.5301844	1.27	0.623	0.132	-0.046990391	0.051923018	1.5444734e-07	1.9799157	1.9526315	1.9999959	1.952631	1.999996	1.3143277e-05	1.9096332	1.051407	0.0013617554	9.340248e-06	-0.047099721	-0.0066722665	-0.047094554	-0.0065575537	-0.014623295	-6.630018e-06	-0.00049702699	0.52569823	-0.84930631	0.00179363	0.84931304	-0.0020605051	-1.5163132e-06	1.2198085	0.70450114	0.012404776	1.5444793e-07	0.020021486	0.046827198	4.0977184e-06	0.046827644	4.0486876e-06	1.3144125e-05	0.087756402	0.012389928	3.44056	4.7046684	4.5424378	4.1902995	4.5424188	4.1902755	4.1174794	4.5585361	4.5594414	3.4720255	3.8222254	3.8097327	3.8222457	3.8097563	3.8826052	4.0212675	-85.816285	R0:S0:1	-58.32	uncorrelated	51514b8	 9.27e-01	 5.62e-03	 3.54e-02	2022-04-08@16:49
2x2_2C_8b_C2v_L	0.1	14	2.21	0.060763454	-5.3768909	-5.9849435	-0.033735766	-5.9849976	-0.033764713	0.059102239	-5.3880757	9.5	-0.0023279221	7.4104826e-07	0.0020038382	-0.0020659193	0.0020085706	-0.002034731	-0.0038128377	5.2300241e-05	0.0002971542	-0.81169702	1.2285756	0.00059772745	-1.228584	-0.00065483778	-1.3745208e-06	-1.530557	1.27	0.623	0.132	-0.04698378	0.051910923	6.807962e-07	1.9799325	1.9526399	1.9999994	1.9526382	1.9999994	2.401391e-06	1.9096411	1.051396	0.0030161041	1.2652232e-05	-0.047061195	0.0026557193	-0.047062013	0.0026091586	0.0062787562	-4.1643119e-05	-0.00050381839	0.52548867	-0.84923469	-0.00070325576	0.84925791	0.00079219761	1.4657117e-06	1.219761	0.70451082	0.01240207	6.8080098e-07	0.020004776	0.046819026	6.3117634e-07	0.046820643	6.2098918e-07	2.4014197e-06	0.087749012	0.012386996	3.44068	4.7044346	4.5423863	4.1902974	4.54233	4.1902252	4.1175048	4.5584731	4.5593259	3.4721104	3.822221	3.8097076	3.8222824	3.8097797	3.8825106	4.0212999	-85.888392	R0:S0:1	-58.32	uncorrelated	51514b8	 9.27e-01	 0.00e+00	 4.39e-04	2022-04-08@16:52
2x2_2C_8b_C2v_L	0.1	14	2.21	0.060763454	-5.3768909	-5.9849435	-0.033735766	-5.9849976	-0.033764713	0.059102239	-5.3880757	10	-0.0023279221	7.4104826e-07	0.0020038382	-0.0020659193	0.0020085706	-0.002034731	-0.0038128377	5.2300241e-05	0.0002971542	-0.81169702	1.2285756	0.00059772745	-1.228584	-0.00065483778	-1.3745208e-06	-1.530557	1.27	0.623	0.132	-0.048561018	0.056699925	8.0230246e-07	1.978319	1.9485023	1.9999994	1.9485004	1.9999994	2.9284269e-06	1.9007693	1.0561624	0.0032654595	1.3005866e-05	-0.049340594	0.0025320311	-0.049341547	0.0024869063	0.006933979	-4.1555625e-05	-0.00048519736	0.54303021	-0.8835284	-0.00077835321	0.8835526	0.00087601563	1.4067249e-06	1.277943	0.70079385	0.01348766	8.0230564e-07	0.021611369	0.050859554	5.8733597e-07	0.050861306	5.8077269e-07	2.9284563e-06	0.096034927	0.013460896	3.4007183	4.7547253	4.5880371	4.2074219	4.587982	4.2073496	4.1154531	4.6211135	4.5992887	3.4369858	3.8075474	3.7925827	3.8076079	3.7926549	3.8845653	4.0040902	-87.99585	R0:S0:1	-62.32	uncorrelated	51514b8	 1.18e+00	 1.70e-01	 1.00e+06	2022-04-08@16:56
2x2_2C_8b_C2v_L	0.1	14	2.21	0.063262251	-5.7361148	-6.3840449	-0.035952744	-6.3844004	-0.036309557	0.065288947	-5.8818704	10	0.0025917937	2.9812613e-05	0.0021072144	0.00020890981	0.0021342794	-0.00099396838	0.0019174886	-6.3073061e-06	-0.00048503396	-0.80721989	1.2206091	-0.00022650596	-1.2205464	-0.0039061753	2.9306888e-05	-1.5304384	1.27	0.623	0.132	-0.04856053	0.052191142	1.0356309e-06	1.9796231	1.9523991	2	1.9524116	1.9999972	7.4525445e-07	1.9095996	1.0516949	-0.0037035923	-3.1369903e-05	-0.047019101	-0.00022658862	-0.04702974	0.00079587205	-0.0035008331	2.1142156e-05	0.00073423223	0.52949847	-0.85123966	0.00035718769	0.85110297	0.0064178486	-2.6431963e-05	1.2199445	0.70412589	0.012479348	1.0356346e-06	0.020312145	0.047053075	1.3300197e-08	0.047041015	2.8097669e-06	7.4525613e-07	0.087785337	0.012455849	3.4402192	4.7070752	4.5455834	4.1918187	4.5457088	4.1920576	4.1165277	4.5597089	4.5597898	3.4721209	3.8208381	3.8081814	3.8206446	3.8079643	3.8834771	4.0204533	-91.198141	R0:S0:1	-62.32	uncorrelated	51514b8	 1.16e+00	 1.63e-04	 6.28e-02	2022-04-08@16:59
2x2_2C_8b_C2v_L	0.1	14	2.21	0.06576144	-6.0957482	-6.7834418	-0.038169723	-6.7840843	-0.038854645	0.07147565	-6.375729	10.5	0.0070434009	1.5186617e-05	0.0020512655	0.002473529	0.0020591349	0.00011318519	0.0076389232	-5.5229606e-05	-0.0012054521	-0.8018015	1.2118903	-0.0010358598	-1.2119397	-0.0068441658	6.0164875e-05	-1.5300957	1.27	0.623	0.132	-0.051098025	0.052468584	9.3626759e-06	1.9793527	1.9522149	1.9999992	1.9522126	1.9999891	1.4914838e-05	1.9095646	1.0519865	-0.011221013	-1.2916516e-05	-0.048126143	-0.002600725	-0.048128974	-0.00087732179	-0.01565475	2.1297785e-05	0.0016562691	0.53295599	-0.85268386	0.0016678096	0.85272595	0.01283306	-5.2184964e-05	1.2201075	0.70367338	0.012561873	9.3629823e-06	0.020580781	0.047232652	8.1148336e-07	0.047234804	1.0934043e-05	1.4915222e-05	0.087816578	0.012531698	3.4395866	4.7096275	4.5486004	4.193691	4.5484269	4.1935661	4.1158245	4.5606407	4.5604958	3.471912	3.8192013	3.8063153	3.8193643	3.806519	3.8842704	4.0198709	-96.508403	R0:S0:1	-66.32	uncorrelated	51514b8	 1.73e+00	 2.28e-03	 1.00e+06	2022-04-08@17:02
2x2_2C_8b_C2v_L	0.1	14	2.21	0.065805737	-6.0977525	-6.7850443	-0.03817431	-6.7857234	-0.038880476	0.071515648	-6.375856	10.5	-0.0014471823	-2.1206478e-05	0.0021347567	0.001317675	0.002135944	0.00010128704	0.0055901995	-1.8094968e-05	-3.2384078e-05	-0.80246457	1.2134131	-0.00038002074	-1.2134654	-0.0012482996	5.4176117e-05	-1.5299995	1.27	0.623	0.132	-0.051103548	0.052508667	3.8671632e-07	1.9793249	1.952122	1.9999998	1.9521234	1.9999996	7.9773608e-06	1.9095854	1.0520271	0.0023056782	1.2857178e-05	-0.048229968	-0.0014018263	-0.048229962	-0.00024839139	-0.011454669	6.8195238e-06	4.4448327e-05	0.5333338	-0.85348411	0.00056642382	0.85347449	0.0023481964	-4.5749452e-05	1.2199374	0.70359044	0.012570852	3.8671673e-07	0.020608433	0.047323335	1.8006163e-07	0.047321994	3.6559578e-07	7.9774723e-06	0.087797366	0.012540824	3.4398044	4.7095952	4.5494918	4.1939478	4.5494599	4.1939273	4.1156286	4.5606847	4.560199	3.472173	3.8189676	3.8060536	3.8189874	3.8060755	3.8844222	4.019766	-96.521734	R0:S0:1	-66.32	uncorrelated	51514b8	 1.73e+00	 0.00e+00	 1.03e-03	2022-04-08@17:06
2x2_2C_8b_C2v_L	0.1	14	2.21	0.068393323	-6.4611898	-7.1874985	-0.040400462	-7.1885448	-0.041477105	0.077782351	-6.8699367	11	-0.013742687	-8.6769883e-05	0.0023254527	0.001275691	0.0023148444	0.0011514488	0.0072186326	2.409383e-06	0.0015624488	-0.79884295	1.2081162	0.0001148638	-1.2081945	0.0068487687	7.2968298e-05	-1.5295766	1.27	0.623	0.132	-0.054915218	0.052950605	4.4790296e-05	1.978963	1.9517243	1.9999998	1.9517195	1.9999861	1.7280385e-05	1.9095889	1.0524815	0.024740451	7.6593115e-05	-0.051042527	-0.0013164531	-0.051044064	-0.00028988813	-0.016850964	-5.8023716e-05	-0.0019686403	0.5379702	-0.85668967	-0.0004085482	0.85677567	-0.014453409	-6.3407311e-05	1.2197152	0.70277297	0.012699564	4.4797709e-05	0.020967945	0.047711765	1.5953462e-07	0.047716285	1.3937523e-05	1.7280697e-05	0.087794547	0.01266466	3.4396902	4.7123581	4.5549019	4.1969293	4.554567	4.1966087	4.1141498	4.5620849	4.5607067	3.4725158	3.816383	3.8030719	3.816704	3.8035001	3.8859598	4.0187455	-101.85925	R0:S0:1	-70.32	uncorrelated	51514b8	 2.77e+00	 2.91e-03	 1.00e+06	2022-04-08@17:09
2x2_2C_8b_C2v_L	0.1	14	2.21	0.068606655	-6.4627744	-7.1890418	-0.040401848	-7.1901134	-0.041486633	0.077806068	-6.8696121	11	-0.00069268518	-1.5391208e-05	0.0023086819	0.00080122036	0.0023160044	0.00049631772	0.0060569331	-2.3829774e-06	0.00026196116	-0.79903699	1.2075277	6.582135e-05	-1.2075774	0.0023240387	7.9478589e-05	-1.5297856	1.27	0.623	0.132	-0.054925571	0.052918379	1.2063283e-07	1.9789612	1.9517723	1.9999999	1.9517786	1.9999984	1.2154936e-05	1.9095538	1.0524489	0.001246801	9.0350416e-06	-0.051018523	-0.0008233753	-0.051019346	-0.00020550728	-0.014139213	4.6265157e-07	-0.00032965594	0.537979	-0.85631319	-0.00024351299	0.85625365	-0.0048914249	-6.3309275e-05	1.2199865	0.70283068	0.012692487	1.206331e-07	0.020969754	0.047664754	5.4388899e-08	0.047658633	1.5988922e-06	1.2155096e-05	0.087827272	0.012657466	3.4394212	4.7125556	4.5541456	4.1964838	4.5541322	4.1965235	4.1143851	4.5621223	4.5605798	3.4723576	3.8167722	3.8035166	3.8167436	3.803489	3.885692	4.0188561	-101.86696	R0:S0:1	-70.32	uncorrelated	51514b8	 2.78e+00	 0.00e+00	 1.04e-03	2022-04-08@17:13
2x2_2C_8b_C2v_L	0.1	14	2.21	0.071665203	-6.8313851	-7.5961851	-0.042635361	-7.5977111	-0.044128149	0.084160203	-7.3631706	11.5	0.0046212308	2.5409643e-05	0.0025493274	-0.0013455589	0.0025740338	0.00022431917	0.0033132435	4.567129e-05	0.00042888677	-0.79646652	1.2025766	0.0011184601	-1.2025979	0.0069675132	0.00010530259	-1.5296844	1.27	0.623	0.132	-0.060499646	0.053432762	6.6596754e-06	1.9785543	1.9513865	1.9999994	1.9513966	1.9999803	4.9106193e-06	1.9095124	1.0529736	-0.0095574855	-4.3249912e-06	-0.055680328	0.0011054182	-0.055682748	0.0008978954	-0.008985591	-2.8788605e-05	-0.00049898071	0.54312789	-0.85935388	-0.0025557983	0.8592756	-0.017217548	-7.919242e-05	1.220069	0.70177069	0.012853832	6.659818e-06	0.02137398	0.048041993	5.7214291e-07	0.048032078	1.9672463e-05	4.9106412e-06	0.087867408	0.012814911	3.4390315	4.7158534	4.5596273	4.1998351	4.5594574	4.1998602	4.1129775	4.5638405	4.5610278	3.472601	3.8139124	3.8001694	3.8139878	3.8002937	3.8870535	4.0178781	-107.23404	R0:S0:1	-74.32	uncorrelated	51514b8	 4.60e+00	 1.76e-03	 1.00e+06	2022-04-08@17:17
2x2_2C_8b_C2v_L	0.1	14	2.21	0.071675573	-6.8327783	-7.5975367	-0.042636339	-7.5990872	-0.044146117	0.084159639	-7.3622762	11.5	-0.00040155425	1.4948172e-05	0.0025550698	-0.00081088021	0.0025389607	-7.9177835e-05	0.0036607254	5.7923132e-05	0.00010455459	-0.79632852	1.2028596	0.00032330982	-1.2029556	0.00054052915	0.00015526297	-1.5294441	1.27	0.623	0.132	-0.060494076	0.053426732	5.1164672e-08	1.9785666	1.951377	1.9999999	1.9513829	1.9999999	5.9953002e-06	1.9095213	1.0529677	0.00083054504	1.7255509e-06	-0.055681185	0.00072007385	-0.055670413	0.00016163189	-0.0099285603	-3.5666447e-05	-0.00012169965	0.54297763	-0.8594418	-0.00067134879	0.85939201	-0.0013509736	-0.00011701951	1.2200159	0.70177004	0.01285248	5.116471e-08	0.021361821	0.048051275	7.2386194e-08	0.048045485	1.2140054e-07	5.9953424e-06	0.087858993	0.012813558	3.4390784	4.7157101	4.5596655	4.199806	4.5596031	4.1997853	4.1130235	4.563736	4.5609221	3.4726413	3.8139381	3.8001946	3.8139573	3.8002156	3.8870143	4.0179264	-107.24055	R0:S0:1	-74.32	uncorrelated	51514b8	 4.60e+00	 0.00e+00	 3.15e-04	2022-04-08@17:20
2x2_2C_8b_C2v_L	0.1	14	2.21	0.075012491	-7.2077642	-8.010529	-0.044877781	-8.0126449	-0.046858929	0.090576363	-7.8538484	12	-0.00057378952	6.9811662e-05	0.0028739204	-0.0035186267	0.002804813	-0.0016251996	-0.0015984236	0.00016282336	-0.0005046038	-0.79433915	1.1994088	0.00039244467	-1.1996002	-0.0065988283	0.00028152926	-1.5289751	1.27	0.623	0.132	-0.068720727	0.054103137	1.6217488e-07	1.9781414	1.9509484	1.9999991	1.9509394	1.9999753	1.6317573e-06	1.9094859	1.0536532	0.0013945076	1.3334557e-05	-0.063014794	0.0030884852	-0.062994365	5.9727288e-05	0.0051729615	-0.00013363951	0.00054811678	0.54829905	-0.86266875	-0.00041320285	0.86282023	0.01914001	-0.0002013403	1.2200616	0.70019893	0.013080531	1.6217824e-07	0.021784263	0.048470881	8.5684238e-07	0.048479432	2.475189e-05	1.6317776e-06	0.087894322	0.013038593	3.4385724	4.7192682	4.5665365	4.2046632	4.5659942	4.2041235	4.1116691	4.5654501	4.561429	3.4728471	3.8098569	3.7953435	3.8103832	3.7960708	3.8883411	4.0171031	-112.64286	R0:S0:1	-78.32	uncorrelated	51514b8	 7.82e+00	 2.02e-03	 1.00e+06	2022-04-08@17:24
2x2_2C_8b_C2v_L	0.1	14	2.21	0.075012491	-7.2094546	-8.0121176	-0.044907628	-8.0142693	-0.046867906	0.090574751	-7.8513803	12	0.00025379107	-1.0602498e-06	0.002892298	-0.0021745331	0.0029239559	-8.0551054e-05	-0.0025692427	1.0304335e-05	-0.00011050161	-0.79377654	1.1988848	-0.0002667079	-1.1989797	0.002136632	0.00073918534	-1.5288531	1.27	0.623	0.132	-0.068768232	0.054073888	2.862793e-08	1.9781815	1.9509895	1.9999996	1.9510035	1.9999973	4.2284033e-06	1.9094472	1.0536234	-0.00061676884	-2.9841654e-06	-0.063047223	0.0020112387	-0.063051422	0.00052700785	0.0083159546	1.3583023e-06	0.00011999914	0.54777527	-0.86237672	0.0012510147	0.86224122	-0.0063255279	-0.00052933598	1.2203607	0.7002553	0.013074461	2.8627962e-08	0.021744504	0.048430656	3.7703286e-07	0.048416973	2.6671886e-06	4.2287561e-06	0.087930259	0.013032398	3.4383086	4.7192439	4.5656732	4.2040631	4.5656705	4.2041766	4.1119262	4.5654825	4.5616917	3.4725467	3.8103839	3.7959398	3.8102962	3.7958443	3.8881004	4.0172247	-112.64635	R0:S0:1	-78.32	uncorrelated	51514b8	 7.83e+00	 0.00e+00	 5.46e-04	2022-04-08@17:27
2x2_2C_8b_C2v_L	0.1	14	2.21	0.078617409	-7.5928035	-8.4327845	-0.047215716	-8.4356597	-0.049651998	0.097051403	-8.3369243	12.5	0.0012733508	-6.3416473e-05	0.0033203664	-0.0032897382	0.0034709899	0.00049219807	-0.012632971	-0.00014523937	-0.00038320744	-0.79138106	1.1956035	-0.0017042318	-1.1956496	0.0071123472	0.0018312457	-1.5280127	1.27	0.623	0.132	-0.081648533	0.055049817	1.0347155e-06	1.977815	1.9506333	1.9999957	1.9506579	1.999955	0.00015667649	1.9093269	1.0546061	-0.0037484163	-1.6734226e-05	-0.074849828	0.0033773337	-0.074894439	0.0017936177	0.050708891	0.00011439349	0.00039434202	0.55218686	-0.86475726	0.0072636223	0.86453068	-0.025857582	-0.0012621401	1.2211009	0.6977943	0.013435786	1.0347339e-06	0.022108897	0.048780744	4.3515433e-06	0.048756754	4.4983488e-05	0.00015675662	0.088045254	0.013391157	3.4361779	4.7240378	4.572978	4.2106846	4.5728806	4.2109421	4.1112352	4.5671206	4.5638315	3.471222	3.8050149	3.7893488	3.8049158	3.7894136	3.8897386	4.016978	-118.08512	R0:S0:1	-82.32	uncorrelated	51514b8	 1.39e+01	 1.46e-04	 1.00e+06	2022-04-08@17:31
2x2_2C_8b_C2v_L	0.1	14	2.21	0.082490394	-7.9828466	-8.8595577	-0.049561875	-8.8632802	-0.052498395	0.10360789	-8.8189516	13	0.0025910967	-0.00010347808	0.0039184418	-0.004217027	0.0040598715	0.0015909394	-0.026293362	0.00034903997	-0.00070887053	-0.78952678	1.1930907	-0.0039613089	-1.1930448	0.015093158	0.0034774961	-1.5250125	1.27	0.623	0.132	-0.10350669	0.056959503	6.8830102e-06	1.9774574	1.9503911	1.9999661	1.9503734	1.9996479	0.0011778864	1.9093862	1.0565227	-0.0096658728	0.00020806029	-0.095134391	0.0058024513	-0.095242867	0.0065337125	0.13894606	-0.00038855859	0.00072959258	0.55616777	-0.86528241	0.021230308	0.86574102	-0.071747871	-0.0023732562	1.2207038	0.69290374	0.014172864	6.8834903e-06	0.022465044	0.049023441	3.4110912e-05	0.049039084	0.00035411229	0.0011798309	0.087991447	0.014126692	3.4306045	4.7322915	4.5848987	4.225021	4.5823771	4.2235858	4.1099499	4.5670103	4.5694586	3.4668238	3.7936784	3.7752467	3.7958023	3.7792164	3.8972563	4.0173656	-123.55722	R0:S0:1	-86.32	uncorrelated	51514b8	 2.71e+01	 9.48e-03	 1.00e+06	2022-04-08@17:36
2x2_2C_8b_C2v_L	0.1	14	2.21	0.082501091	-7.9843486	-8.8581692	-0.053500374	-8.8617336	-0.054019587	0.11375434	-8.8016215	13	-0.00022375306	-1.4414311e-05	0.0039496748	-0.012474902	0.003722078	-0.012351546	0.003018915	-0.0002940921	-0.0085746201	-0.79032821	1.1931684	-0.0026581742	-1.1933739	0.0032865373	0.023270628	-1.5261085	1.27	0.623	0.132	-0.1036098	0.056738643	5.8615181e-06	1.9774061	1.9503336	1.9999597	1.9503536	1.9999515	3.5518034e-05	1.9089353	1.0562955	0.00080558299	1.6235869e-05	-0.095322533	0.012021194	-0.095213165	0.012231526	-0.015952534	0.00011232451	0.008464325	0.55694071	-0.86598047	0.019509025	0.86580138	-0.022438447	-0.015289019	1.223856	0.69297041	0.014124562	5.8747594e-06	0.0225159	0.049078754	4.2327011e-05	0.049059319	5.1064578e-05	3.6627062e-05	0.088417346	0.014079733	3.4324842	4.7308199	4.5835633	4.2237573	4.583469	4.2239519	4.1123109	4.5700067	4.5675802	3.4686619	3.7951838	3.7765419	3.7951464	3.7764096	3.887925	4.0179534	-123.53242	R0:S0:1	-86.32	uncorrelated	51514b8	 2.71e+01	 0.00e+00	 3.29e-03	2022-04-08@17:41
2x2_2C_8b_C2v_L	0.1	14	2.21	0.086663469	-8.3840681	-9.2882515	-0.063760329	-9.2924693	-0.059970671	0.14066528	-9.2454287	13.5	-0.0041714923	7.7303818e-05	0.0047010564	-0.029669494	0.0037974114	-0.038563652	0.044149318	-0.0011940018	-0.024689432	-0.79023328	1.1915042	-0.003156488	-1.1920732	-0.0089662807	0.06501128	-1.5250507	1.27	0.623	0.132	-0.14820037	0.063085138	0.00037483838	1.977226	1.9505615	1.9993515	1.950037	1.9996506	0.011403861	1.9081318	1.0626017	0.013406338	0.0085975747	-0.13638272	0.035245818	-0.13759426	0.028432712	-0.3575876	-0.011549071	0.031248842	0.55595245	-0.85885919	0.059840881	0.86619196	0.019987339	-0.057085421	1.2294348	0.6796785	0.016452502	0.00037916801	0.022699798	0.04887833	0.00073762989	0.049380216	0.00035961661	0.014057016	0.089156736	0.016416564	3.3954154	4.7701199	4.6156801	4.2773715	4.5964737	4.24168	4.1024392	4.5713294	4.6082343	3.4339027	3.7591822	3.7268643	3.7796267	3.7613418	3.9494858	4.0155185	-129.00359	R0:S0:1	-90.32	uncorrelated	51514b8	 6.61e+01	 2.45e-02	 1.00e+06	2022-04-08@17:46
2x2_2C_8b_C2v_L	0.1	14	2.21	0.091104593	-8.3839322	-9.2865387	-0.075109058	-9.2906033	-0.072131241	0.17094073	-9.2396648	13.5	0.00081758349	5.9242344e-07	0.0046117679	-0.022449006	0.0045345705	-0.020697625	2.1590623e-05	9.4805467e-05	-0.020360899	-0.78912739	1.1914793	-0.006172556	-1.1918515	0.0059587781	-0.037733015	-1.5236737	1.27	0.623	0.132	-0.14859781	0.061318247	7.5910147e-05	1.9771274	1.9503236	1.9994998	1.9503214	1.9995407	5.5608557e-05	1.907934	1.0608655	-0.0042234679	8.9540524e-05	-0.13749262	0.028933534	-0.1375091	0.027123677	-6.0038257e-05	-0.00018884623	0.021185016	0.55902814	-0.86220429	0.069390977	0.86226935	-0.066249026	0.023986484	1.23197	0.67966483	0.016062279	7.7552897e-05	0.02279584	0.049105132	0.00054565419	0.049107115	0.0004971067	5.6416628e-05	0.089361795	0.016019396	3.4163935	4.7493595	4.6068644	4.2646061	4.606499	4.2634976	4.1219047	4.5708156	4.5847173	3.4548849	3.7681123	3.7390616	3.7684704	3.7399029	3.8785397	4.0257954	-129.02083	R0:S0:1	-90.32	uncorrelated	51514b8	 6.51e+01	 8.08e-02	 1.85e-02	2022-04-08@17:51
2x2_2C_8b_C2v_L	0.1	14	2.21	0.16572639	-8.380208	-9.2518517	-0.25830386	-9.2553646	-0.25834886	0.42484576	-9.1172	13.5	0.001626204	0.00024558395	0.0032957687	-0.036025265	0.0033635541	-0.036444414	0.00020135685	6.3788791e-05	-0.025306334	-0.78972437	1.191228	-0.0098136531	-1.1915875	0.0094253275	-0.054803042	-1.5164161	1.27	0.623	0.132	-0.1489547	0.061964494	9.1197607e-05	1.9771048	1.9500611	1.9992712	1.9500584	1.9992917	9.9123932e-05	1.9066029	1.0614907	-0.0079496425	-7.1474795e-05	-0.13781892	0.042354492	-0.13786578	0.042404906	-0.0011317775	-0.00012299892	0.025972279	0.55888747	-0.8641878	0.093201656	0.86423729	-0.091379681	0.03390341	1.2407109	0.67905614	0.016214443	9.2534946e-05	0.022818729	0.049362539	0.00074646616	0.049365056	0.00072582369	9.9611242e-05	0.090608923	0.016177145	3.4119216	4.7541194	4.6106056	4.2662627	4.6104187	4.2658681	4.1217693	4.5805876	4.5893694	3.4505304	3.7662193	3.738989	3.7664125	3.7392223	3.8791273	4.0231434	-129.3749	R0:S0:1	-90.32	uncorrelated	51514b8	 6.57e+01	 0.00e+00	 3.51e-03	2022-04-08@17:55
2x2_2C_8b_C2v_L	0.1	14	2.21	0.32829334	-8.7803891	-9.6138389	-0.6616266	-9.6165598	-0.66263981	1.0303317	-9.2836743	14	0.0068012125	0.00073945912	0.0013850369	-0.073961003	0.0023553545	-0.07180245	-0.021006613	0.001180986	-0.050576784	-0.78969778	1.1898073	-0.023161351	-1.1903168	0.025403879	-0.23237441	-1.4982989	1.27	0.623	0.132	-0.29611641	0.095202257	0.0023985477	1.97746	1.9529397	1.9929999	1.9518231	1.9917992	0.004106992	1.9007045	1.0944776	-0.079055104	0.036156745	-0.27195783	0.16030297	-0.2840691	0.17010987	0.18638937	-0.054534444	0.096460029	0.54209452	-0.81002672	0.28345566	0.8238939	-0.3112703	0.14236383	1.2913667	0.59356533	0.029035729	0.0024569446	0.022489451	0.046670443	0.0070756738	0.047743853	0.0082765005	0.0043320296	0.096140038	0.029091859	3.2801725	4.8967539	4.7809213	4.5607154	4.7475552	4.5327252	4.2097612	4.5587698	4.7551626	3.3200094	3.5580166	3.4856548	3.5895023	3.5208692	3.8202031	4.088744	-135.65423	R0:S0:1	-94.32	uncorrelated	51514b8	 6.20e+02	 2.69e-02	 1.00e+06	2022-04-08@17:57
2x2_2C_8b_C2v_L	0.1	14	2.21	0.32794254	-8.7800968	-9.6137728	-0.65898661	-9.6163867	-0.65980755	1.039231	-9.2847638	14	0.0017299262	0.00035082998	-0.0041245261	-0.080280948	-0.0057663931	-0.079921934	-0.009660755	-0.002904395	-0.060253968	-0.79557458	1.1946342	-0.030040801	-1.1953339	0.034402957	-0.10396288	-1.5055702	1.27	0.623	0.132	-0.29380704	0.097314668	0.0030611781	1.9776288	1.9526097	1.9893754	1.9523919	1.9878465	0.00051733173	1.899069	1.0967192	-0.014359794	0.0036176622	-0.27331866	0.19482459	-0.27455305	0.20432748	0.057817106	-0.0038400793	0.11670491	0.53769335	-0.81264728	0.34480807	0.81564951	-0.37291217	0.058345854	1.3071324	0.59204054	0.029472444	0.0031669553	0.022325148	0.04699437	0.010738655	0.047202825	0.012266488	0.00052197007	0.097627608	0.029476817	3.2550761	4.9295978	4.783385	4.5864943	4.7742399	4.5863088	4.2365117	4.5484184	4.795093	3.2879788	3.5549437	3.486106	3.5629152	3.4961509	3.7679428	4.1074993	-135.65595	R0:S0:1	-94.32	uncorrelated	51514b8	 5.90e+02	 2.70e-03	 4.76e-02	2022-04-08@18:00
2x2_2C_8b_C2v_L	0.1	14	2.21	0.32871294	-8.7801077	-9.6143619	-0.65519867	-9.6170431	-0.65597604	1.0366251	-9.2849246	14	-0.00034393023	-0.00023574122	-0.0065491421	-0.076938281	-0.0064097133	-0.076926225	-0.0058059215	-0.0020080925	-0.057337488	-0.79527362	1.1926688	-0.037905308	-1.1930591	0.03784687	-0.10353563	-1.5054499	1.27	0.623	0.132	-0.29237776	0.097447462	0.0027088604	1.9776396	1.9527523	1.9872049	1.9527152	1.9872229	0.0003841915	1.8990898	1.0968601	0.0011385136	0.00088161286	-0.27116869	0.20663206	-0.2714975	0.20649161	0.033821765	-0.00032852859	0.11046729	0.53762336	-0.81175813	0.38434972	0.81220942	-0.38417979	0.057988994	1.3070465	0.59216129	0.029410616	0.0027929991	0.022314259	0.046851333	0.012890774	0.046887115	0.012872596	0.00038662031	0.097607518	0.029412344	3.2532794	4.9288806	4.7796949	4.5962132	4.7787248	4.5950172	4.2369803	4.5480151	4.791175	3.2885712	3.556166	3.4912605	3.5571766	3.4923302	3.7667064	4.1075836	-135.6413	R0:S0:1	-94.32	uncorrelated	51514b8	 6.10e+02	 0.00e+00	 1.38e-03	2022-04-08@18:03
2x2_2C_8b_C2v_L	0.1	14	2.21	0.57146072	-9.1840477	-9.9456997	-1.2441848	-9.9467692	-1.2469011	1.9490924	-9.3047953	14.5	-0.0061341556	-0.0014583898	-0.025585057	-0.13521395	-0.025597724	-0.13379698	-0.01500292	-0.0065097361	-0.10466808	-0.80697597	1.1974909	-0.086933139	-1.1977889	0.088551165	-0.12292713	-1.4932099	1.27	0.623	0.132	-0.31656194	0.4348559	0.053084234	1.9931473	1.9841921	1.9525017	1.9836427	1.9536834	0.00048638437	1.8648307	1.4343203	0.021130669	-0.0058372981	-0.26416429	0.91897157	-0.26538635	0.9016102	0.071885297	0.01902132	0.99713403	0.16691561	-0.28613482	0.33072227	0.29569607	-0.33370104	0.043606116	1.7074837	0.34523683	0.042346737	0.05174924	0.0069349388	0.016157355	0.046341462	0.016718937	0.045237598	0.00048900251	0.1284333	0.042492471	1.5175573	7.024928	6.743504	6.4073816	6.7076655	6.3830837	5.3994961	3.9452363	6.6414933	1.0884496	1.4592243	1.7022588	1.5062751	1.7325325	2.6062644	4.894427	-142.7032	R0:S0:1	-98.32	uncorrelated	51514b8	 1.99e+02	 5.28e-01	 1.00e+06	2022-04-08@18:06
2x2_2C_8b_C2v_L	0.1	14	2.21	0.19833679	-9.0859725	-9.8532048	-0.087182891	-9.8581531	-0.092115351	0.028835356	-9.6228072	14.5	-0.065887503	-0.0037568708	-0.0025671966	-0.045322807	-0.0028314824	-0.046116113	-0.079094825	1.5456952e-05	-0.0062568674	-0.77311799	1.1768977	-0.056670481	-1.1771065	0.05659997	-0.0010425042	-1.4826296	1.27	0.623	0.132	-0.38500087	0.48029981	0.0069778342	1.9949879	1.9761142	1.7719393	1.9762496	1.7776657	0.6664581	1.9118369	1.479966	0.1365133	0.0024243165	-0.35182705	1.5558911	-0.349839	1.5570691	2.9756133	0.0016172571	0.12617794	0.12533926	-0.41600809	1.0395623	0.41404783	-1.0148914	0.031081801	1.1751755	0.32030277	0.061707076	0.0073670961	0.0050572082	0.023965388	0.2260365	0.023834152	0.21913942	0.39347495	0.084286223	0.061828039	0.85824464	7.2369678	6.1574897	5.1644683	6.1657882	5.1839207	2.7335064	4.4273628	7.2229297	0.83012571	1.9286781	3.2667301	1.922545	3.2423259	7.9468116	3.5824987	-138.18793	R0:S0:1	-98.32	uncorrelated	51514b8	 2.28e+02	 2.12e-02	 4.78e-02	2022-04-08@18:09
2x2_2C_8b_C2v_L	0.1	14	2.21	0.19787021	-9.0805232	-9.847001	-0.099319055	-9.851823	-0.096265358	0.038392244	-9.6088414	14.5	0.0012118795	0.000709715	-0.0021771486	-0.05623813	-0.0019458532	-0.056254618	-0.082270586	-1.1249817e-05	-0.071799653	-0.80775983	1.1773828	-0.056241739	-1.1778238	0.055313049	0.00047603609	-1.4798558	1.27	0.623	0.132	-0.35559871	0.48313978	0.077588377	1.9936666	1.9769057	1.7703531	1.9768984	1.7701657	0.71152629	1.9135065	1.4827795	-0.0037077832	-0.00096583887	-0.32395585	1.6635348	-0.32378587	1.6657016	3.001944	-1.6250804e-05	1.2274934	0.15108702	-0.40282499	0.96657643	0.4029229	-0.96516263	-0.014363704	1.1549813	0.32333458	0.060811416	0.073951339	0.0063648163	0.02314586	0.21765017	0.023152334	0.21756932	0.39693533	0.082633607	0.060953567	1.5588027	7.1117536	6.2156057	5.1439142	6.2153009	5.1424627	2.7785599	4.4462798	6.4659995	0.94327287	1.8624481	3.275112	1.8625663	3.2777439	8.1151442	3.5153556	-138.23284	R0:S0:1	-98.32	uncorrelated	51514b8	 2.20e+02	 1.29e-03	 1.80e-02	2022-04-08@18:13
2x2_2C_8b_C2v_L	0.1	14	2.21	0.19739785	-9.0802171	-9.8466494	-0.096518266	-9.851466	-0.094844418	0.035508611	-9.6079979	14.5	0.00063933174	0.0004718219	-0.0024000896	-0.05384725	-0.0021251387	-0.053465924	-0.082403739	-4.1995647e-05	-0.070034436	-0.80855596	1.1771545	-0.056856796	-1.1774531	0.056629302	-0.00015121037	-1.4804236	1.27	0.623	0.132	-0.36018824	0.48294966	0.074761735	1.993679	1.9767861	1.7695841	1.9767917	1.7690244	0.71489192	1.9136665	1.4825925	-0.0022662557	-0.00042120104	-0.3278931	1.6420521	-0.3280799	1.6400238	3.006154	-0.00024644315	1.2047441	0.15063569	-0.40485498	0.98398398	0.40475069	-0.98594589	0.0051209881	1.1524457	0.32286498	0.06108862	0.07138307	0.0063533137	0.023268946	0.22087755	0.023263372	0.22183159	0.39810061	0.082487785	0.061229393	1.5310723	7.1157521	6.206502	5.1440104	6.2069023	5.1421672	2.7677092	4.453919	6.4926678	0.9400722	1.8725571	3.2750817	1.8720925	3.2766673	8.12201	3.5078892	-138.21581	R0:S0:1	-98.32	uncorrelated	51514b8	 2.21e+02	 1.54e-03	 2.31e-03	2022-04-08@18:16
2x2_2C_8b_C2v_L	0.1	14	2.21	0.19529478	-9.0793413	-9.8454262	-0.091304016	-9.8502265	-0.091569546	0.035465383	-9.6054006	14.5	-0.0001608972	-6.9533207e-05	-0.001751314	-0.053328015	-0.0016838215	-0.053414566	-0.082395159	-0.00014251926	-0.070041084	-0.80836284	1.1771964	-0.055790429	-1.177459	0.055847449	-9.3914504e-05	-1.4801511	1.27	0.623	0.132	-0.35883061	0.48290971	0.075365745	1.993678	1.9767568	1.7668782	1.9767607	1.7668444	0.71507334	1.9136502	1.4825535	0.00058408956	2.9708791e-05	-0.32724039	1.6447206	-0.32726686	1.6454207	3.0048805	0.00022342173	1.2095452	0.15065396	-0.40506813	0.98799488	0.40508275	-0.98810119	0.0027950443	1.15261	0.32281202	0.061026784	0.071931361	0.0063540021	0.023295657	0.22381115	0.023291521	0.22375076	0.39798166	0.082500118	0.061167102	1.5359974	7.1155254	6.2068132	5.1330459	6.2063695	5.1327515	2.7729247	4.4531868	6.4874256	0.94000715	1.8716295	3.2879993	1.8719902	3.2885822	8.1219112	3.5076474	-138.18666	R0:S0:1	-98.32	uncorrelated	51514b8	 2.21e+02	 6.41e-05	 8.29e-04	2022-04-08@18:20
2x2_2C_8b_C2v_L	0.1	14	2.21	-0.23475395	-9.2778074	-9.9448874	1.4333312	-9.9547563	1.4348401	-2.5784107	-10.078328	15	0.0022334174	0.00070847759	0.017810283	0.03501112	0.017397342	0.034535776	-0.22949106	0.0060729453	-0.063389443	-0.82900309	1.1449637	-0.06374571	-1.1449942	0.063556408	0.25565212	-1.4405228	1.27	0.623	0.132	-0.347513	0.92036855	1.9999779	1.999826	1.993245	0.0089911052	1.9976237	0.0086922569	1.9301586	1.9899593	1.9203004	0.020715329	0.066063934	-0.41495363	-0.13216288	-0.23996959	-0.069995001	1.3564853	-0.40493202	0.0014238679	0.0043558864	-0.11811294	0.49927501	0.040378392	-0.5035069	-0.32999638	0.14893423	0.41285597	0.029615966	2.6087324e-05	0.00017857285	0.0070254437	0.008948678	0.0024701924	0.0086566607	0.068405412	0.010420198	0.029677894	7.9714613	7.9698394	7.3802192	0.61372052	7.7911722	0.27311113	6.6485013	7.3340941	0.028769074	0.030535451	0.62625704	7.3804109	0.20986353	7.7172538	1.3196816	0.67063393	-148.43538	R0:S0:1	-102.32	uncorrelated	51514b8	 2.10e+02	 6.26e-01	 1.00e+06	2022-04-08@18:22
2x2_2C_8b_C2v_L	0.1	14	2.21	-0.42905394	-9.1707181	-9.9628393	0.23140806	-9.8875959	0.17020212	-0.11304219	-10.400244	15	-0.015598306	0.0082033808	0.00020898351	0.087096826	0.010863454	0.079678916	0.031961168	0.0055627652	-0.08332105	-0.7594208	1.152503	-0.020373361	-1.1490215	-0.019326537	0.087709059	-1.5073396	1.27	0.623	0.132	-0.32038675	0.84856549	1.9987723	1.9997149	1.9965499	0.026979629	1.9951743	0.0010232828	1.1616634	1.9643087	1.8485012	0.16676438	-0.042705512	-0.24430847	-0.166036	-0.33346256	-0.0036842616	-2.1470177	0.18067295	0.0010699913	0.0070725557	-0.061895647	0.70546964	0.084674747	0.047290025	-2.2447335	0.4969121	0.42204824	0.034941527	0.0013639152	0.00028910855	0.003556349	0.034488164	0.0050343775	0.0013358006	0.58908024	0.034936166	0.034992178	7.9459586	7.9549727	7.6833134	0.63929293	7.5664987	0.37729473	4.5072329	6.1946328	0.054838632	0.04809631	0.32430644	7.3486666	0.45370897	7.6469295	4.1629909	1.7251522	-144.11221	R0:S0:1	-102.32	uncorrelated	51514b8	 1.97e+02	 1.95e-02	 7.91e-02	2022-04-08@18:25
2x2_2C_8b_C2v_L	0.1	14	2.21	-0.42908973	-9.1692475	-9.9598224	0.20289601	-9.8838063	0.21463567	-0.10835843	-10.387096	15	0.0091099031	-0.0048914099	0.0087912136	0.084081082	0.0015850155	0.084926641	-0.021701908	-0.0040833454	-0.082917804	-0.75976325	1.1515429	0.013551125	-1.1486332	0.012285226	0.087164094	-1.5058931	1.27	0.623	0.132	-0.31706395	0.84164265	1.9995389	1.9997296	1.995199	0.0017760753	1.996865	0.017115736	1.0344708	1.9613298	1.8415783	-0.086083399	0.036151171	-0.32739728	-0.038618988	-0.24286373	-0.12343502	1.8832572	-0.17902923	0.0030886585	0.0068949848	-0.085027242	0.097322496	0.055928788	-0.54767585	-2.5658974	0.53693725	0.4240306	0.03517617	0.00050460445	0.00027443399	0.0050046813	0.0023432968	0.0032451177	0.02250384	0.58944064	0.037771551	0.035226146	7.9542981	7.9558056	7.5645318	0.43860823	7.7137624	0.5054234	5.0737575	6.0637597	0.048635057	0.047732253	0.45786276	7.5970083	0.29569494	7.4935501	3.7673171	1.8444784	-144.03594	R0:S0:1	-102.32	uncorrelated	51514b8	 1.95e+02	 1.54e-02	 2.71e-02	2022-04-08@18:29
2x2_2C_8b_C2v_L	0.1	14	2.21	-0.42821815	-9.1667817	-9.9544896	0.22974583	-9.8782673	0.18364054	-0.10785087	-10.364883	15	-0.0052561686	0.0021793291	0.001432495	0.087022441	0.0080220005	0.081304815	0.020212654	0.0037510266	-0.082941683	-0.75941574	1.1514435	-0.011463565	-1.1484502	-0.012242276	0.087199289	-1.5042976	1.27	0.623	0.132	-0.31602782	0.8398888	1.9997618	1.999739	1.9969413	0.015177218	1.9951716	0.0021532113	1.009966	1.9605639	1.839824	0.037823824	-0.031770982	-0.24099274	-0.11564586	-0.32678336	-0.043646596	-1.8259722	0.17723286	0.0042958189	0.0067861321	-0.054883629	0.52178296	0.085255934	-0.11548648	-2.6287205	0.54679122	0.42444323	0.035229204	0.00025529797	0.00026488314	0.0031671043	0.019711777	0.0050349383	0.0029121863	0.58468029	0.038498006	0.035279268	7.9564028	7.9560707	7.7179043	0.47909155	7.5650276	0.4504829	5.2081441	6.033472	0.047310676	0.047591653	0.29194391	7.5219999	0.45806458	7.5877432	3.6742938	1.8719402	-143.95905	R0:S0:1	-102.32	uncorrelated	51514b8	 1.95e+02	 1.59e-02	 2.09e-02	2022-04-08@18:32
2x2_2C_8b_C2v_L	0.1	14	2.21	-0.42737784	-9.1645432	-9.9495735	0.19500288	-9.8732726	0.22030435	-0.10784496	-10.344551	15	0.0076276836	-0.0040613288	0.0082512622	0.083020582	0.0021217191	0.085630536	-0.019599484	-0.0036214982	-0.082515002	-0.75985177	1.1516748	0.012258429	-1.1474385	0.010780142	0.087142949	-1.5027469	1.27	0.623	0.132	-0.31586467	0.83940924	1.9996396	1.9997295	1.9951995	0.0021945583	1.9969143	0.014856926	1.0023377	1.9603132	1.8393443	-0.068094377	0.034335465	-0.32561475	-0.044820464	-0.24281526	-0.11372574	1.8067864	-0.17695024	0.0036418682	0.0069395192	-0.085045413	0.11999253	0.054996718	-0.51143623	-2.6471867	0.54968003	0.42452291	0.03525248	0.0003918796	0.00027458787	0.0050039175	0.0029396182	0.0031969609	0.019464938	0.58324598	0.0387358	0.035302635	7.9548391	7.9554639	7.5652042	0.45100895	7.7186519	0.47501072	5.2487538	6.0256803	0.048534989	0.048231471	0.45785676	7.5873965	0.2913929	7.5267103	3.6446002	1.8788272	-143.89119	R0:S0:1	-102.32	uncorrelated	51514b8	 1.95e+02	 1.56e-02	 1.99e-02	2022-04-08@18:35
2x2_2C_8b_C2v_L	0.1	14	2.21	-0.42717931	-9.1624683	-9.9446388	0.22910758	-9.868647	0.18635125	-0.10774632	-10.324924	15	-0.0070292312	0.0033766416	0.0019858642	0.087024008	0.0083766674	0.081599112	0.019845058	0.0036545963	-0.082554721	-0.75972142	1.1507718	-0.010618782	-1.1480188	-0.012474768	0.086977073	-1.5014803	1.27	0.623	0.132	-0.31603678	0.83997322	1.9996786	1.9997342	1.9969606	0.014291945	1.9951518	0.0020840189	1.007545	1.9603833	1.8399086	0.060555899	-0.033360784	-0.24162781	-0.11145577	-0.32765168	-0.042663487	-1.8188069	0.17779213	0.0037552711	0.0068513069	-0.054423508	0.50525028	0.085461538	-0.11140388	-2.6338216	0.54816254	0.42455732	0.035207653	0.00034843411	0.00026979829	0.0031485467	0.018600071	0.0050558779	0.0028082075	0.58447289	0.03866995	0.035257638	7.9555837	7.9559031	7.7204424	0.4664605	7.56446	0.44851789	5.2196882	6.0323103	0.047850105	0.047759779	0.28944227	7.5355539	0.45867738	7.5895915	3.6648892	1.8725773	-143.82811	R0:S0:1	-102.32	uncorrelated	51514b8	 1.95e+02	 1.50e-02	 1.97e-02	2022-04-08@18:39
2x2_2C_8b_C2v_L	0.1	14	2.21	-0.42694395	-9.1607789	-9.9410948	0.19851272	-9.8647332	0.21955741	-0.10669583	-10.309738	15	0.0080283925	-0.004229525	0.0083021829	0.083446971	0.0018998428	0.085581167	-0.019890898	-0.0037401419	-0.082519859	-0.75953847	1.1509126	0.012172015	-1.1469051	0.010866805	0.086796901	-1.5005116	1.27	0.623	0.132	-0.31602749	0.83976763	1.9996106	1.9997302	1.9952067	0.0021962311	1.9969051	0.015050952	1.0019856	1.960289	1.839703	-0.073559313	0.0342112	-0.32558457	-0.045182921	-0.24305636	-0.11469507	1.8108796	-0.17540538	0.0035326654	0.0069131276	-0.084883572	0.1225925	0.055182397	-0.51441329	-2.6421561	0.54903759	0.42447045	0.035205285	0.00042436567	0.00027377618	0.0049964946	0.0029318459	0.003206388	0.019733696	0.58363017	0.038756058	0.035255304	7.954736	7.9556533	7.5660079	0.4500628	7.7176038	0.4784076	5.2367989	6.0309191	0.048534525	0.04801162	0.45685853	7.5876824	0.29240743	7.523154	3.6530695	1.8732341	-143.77776	R0:S0:1	-102.32	uncorrelated	51514b8	 1.95e+02	 1.34e-02	 1.98e-02	2022-04-08@18:42
2x2_2C_8b_C2v_L	0.1	14	2.21	-0.42667897	-9.1591749	-9.9373711	0.22046146	-9.8612766	0.19425788	-0.10605951	-10.29487	15	-0.0037242003	0.00099213388	0.0018907336	0.085859665	0.0082528298	0.082702011	0.019541736	0.0036593213	-0.08262932	-0.75934678	1.1509381	-0.010621708	-1.1467485	-0.011962479	0.086712538	-1.4993324	1.27	0.623	0.132	-0.31582461	0.8393604	1.9997998	1.9997428	1.9969254	0.014795713	1.9951799	0.0022376915	0.99336495	1.96007	1.8392958	0.019300122	-0.029360561	-0.24250665	-0.113734	-0.32617842	-0.045550972	-1.7920654	0.17384922	0.0047991634	0.0067325215	-0.055023749	0.50982209	0.085013576	-0.12390206	-2.6610741	0.55166174	0.42454971	0.035203721	0.00021283666	0.00026099255	0.003184881	0.019399372	0.0050260426	0.0029989676	0.58189649	0.038962117	0.035253689	7.9567181	7.9562631	7.7176492	0.47589822	7.5667496	0.45039707	5.2781577	6.0236131	0.047202714	0.047435502	0.29243506	7.526193	0.45634005	7.5875896	3.6232264	1.8795855	-143.728	R0:S0:1	-102.32	uncorrelated	51514b8	 1.95e+02	 1.63e-02	 1.95e-02	2022-04-08@18:45
2x2_2C_8b_C2v_L	0.1	14	2.21	-0.42579233	-9.1555265	-9.9285974	0.18359786	-9.8538904	0.22647894	-0.10505588	-10.261596	15	0.0045331548	-0.0016335622	0.0080305373	0.08129947	0.0019159514	0.086427168	-0.019252385	-0.0035419836	-0.082546448	-0.75913884	1.1513248	0.01177091	-1.1458914	0.010638343	0.086388316	-1.4971733	1.27	0.623	0.132	-0.31566479	0.83915043	1.99978	1.9997408	1.9952275	0.0022930442	1.9968989	0.014421593	0.98550575	1.9598316	1.8390859	-0.029916006	0.029938199	-0.3244422	-0.045571559	-0.24374266	-0.11254557	1.7762712	-0.17207254	0.0045619492	0.0067595615	-0.084450763	0.12353592	0.055294004	-0.50639999	-2.6756896	0.55392895	0.42462978	0.035182257	0.00023491727	0.00026304939	0.0049753453	0.0031094442	0.0032135109	0.018787588	0.58037041	0.039185663	0.035232185	7.9565887	7.9562193	7.5686451	0.45132585	7.7170221	0.47139964	5.3110173	6.0193523	0.047252558	0.04748864	0.45431153	7.5873026	0.29322162	7.5309775	3.5999669	1.8826697	-143.61783	R0:S0:1	-102.32	uncorrelated	51514b8	 1.95e+02	 1.69e-02	 1.93e-02	2022-04-08@18:49
2x2_2C_8b_C2v_L	0.1	14	2.21	-0.42516653	-9.1533648	-9.923256	0.22869415	-9.849456	0.18682817	-0.1038379	-10.241825	15	-0.0079714036	0.0043044827	0.0018287045	0.086896666	0.0078028166	0.081710461	0.019072856	0.0034217098	-0.082304109	-0.75956841	1.149561	-0.010734728	-1.1465743	-0.011407586	0.086109254	-1.4960245	1.27	0.623	0.132	-0.31554306	0.83877985	1.9996047	1.9997288	1.9969062	0.014492613	1.9952107	0.0024053132	0.97648669	1.9596322	1.8387152	0.073982858	-0.033317054	-0.24322511	-0.11318965	-0.32462389	-0.047439288	-1.7594686	0.16939419	0.0036719541	0.0069457672	-0.055381604	0.50825539	0.084495938	-0.13164533	-2.6918456	0.55601239	0.42462016	0.035179584	0.00043086352	0.00027521374	0.0032050815	0.01885198	0.0049941248	0.0032552382	0.57843154	0.03937092	0.035229591	7.9544884	7.9555168	7.715853	0.47370895	7.569451	0.45307321	5.3470812	6.0146864	0.048857638	0.048208979	0.29444932	7.5288683	0.4536105	7.5854255	3.574626	1.886137	-143.55134	R0:S0:1	-102.32	uncorrelated	51514b8	 1.95e+02	 1.43e-02	 1.92e-02	2022-04-08@18:52
2x2_2C_8b_C2v_L	0.1	14	2.21	-0.42506062	-9.15156	-9.9194069	0.19818563	-9.8453999	0.21671544	-0.10342734	-10.225378	15	0.0058140406	-0.0026174852	0.0079789835	0.083147449	0.0019896091	0.085087083	-0.018766428	-0.0032832258	-0.08218731	-0.75962786	1.1500661	0.011587835	-1.1462071	0.010515105	0.086081773	-1.4946812	1.27	0.623	0.132	-0.31533209	0.8384108	1.9997293	1.9997355	1.9952526	0.0023251379	1.9968643	0.014830551	0.96940725	1.9594353	1.838346	-0.046898008	0.030701237	-0.32312262	-0.046965927	-0.24470083	-0.11425394	1.7428311	-0.16831679	0.0042502897	0.0068495934	-0.084025832	0.1303609	0.055834823	-0.50858055	-2.7074765	0.55828807	0.42467481	0.035186442	0.00029145187	0.00026840751	0.0049488751	0.0031075456	0.0032495011	0.019489097	0.57668886	0.039556498	0.035236451	7.9558737	7.9558797	7.5709332	0.44909941	7.7147273	0.47932245	5.3822641	6.0086256	0.047823445	0.047875257	0.45202903	7.5888594	0.29576196	7.5232978	3.5483145	1.8913973	-143.49755	R0:S0:1	-102.32	uncorrelated	51514b8	 1.95e+02	 1.17e-02	 1.89e-02	2022-04-08@18:55
2x2_2C_8b_C2v_L	0.1	14	2.21	-0.42495295	-9.1506939	-9.9174448	0.21220016	-9.8437897	0.20257775	-0.10312863	-10.217916	15	-0.010737176	0.0064094584	0.0020420264	0.084746516	0.0077511543	0.083907872	0.018801089	0.0033148411	-0.081981492	-0.75989413	1.1504269	-0.010235436	-1.145247	-0.010995939	0.085907307	-1.4943864	1.27	0.623	0.132	-0.31551138	0.8384789	1.9993533	1.9997167	1.9968894	0.014864327	1.9952109	0.0025693184	0.96999246	1.9594573	1.8384142	0.10943663	-0.035961571	-0.24391479	-0.11404439	-0.32422981	-0.050705824	-1.745246	0.16813933	0.0031126067	0.0071431633	-0.055564846	0.50617184	0.084537425	-0.14565594	-2.7039999	0.55770062	0.42458059	0.035191184	0.00071167186	0.00028745538	0.0032228499	0.019646972	0.0049932279	0.0034304253	0.57708587	0.039534995	0.035241228	7.9511782	7.954614	7.7153962	0.47986697	7.569188	0.45624067	5.3745268	6.0114005	0.051632535	0.049121731	0.29501978	7.5229505	0.45385376	7.5818896	3.5540334	1.8885965	-143.47338	R0:S0:1	-102.32	uncorrelated	51514b8	 1.95e+02	 1.15e-02	 1.87e-02	2022-04-08@18:59
2x2_2C_8b_C2v_L	0.1	14	2.21	-0.42499174	-9.1499465	-9.9158951	0.20255107	-9.8422037	0.2115368	-0.1028809	-10.211495	15	0.0093263671	-0.0051644073	0.0076163311	0.084026408	0.0020495549	0.084469737	-0.018838421	-0.0034706237	-0.081993205	-0.75990498	1.1492139	0.010966696	-1.1462849	0.010389883	0.085912852	-1.493755	1.27	0.623	0.132	-0.31550751	0.83849284	1.999491	1.9997238	1.9952578	0.0025860338	1.9968545	0.015031076	0.96812496	1.9594427	1.8384282	-0.091732501	0.034023645	-0.322623	-0.050853056	-0.24509643	-0.11491778	1.7428772	-0.16703023	0.0034089175	0.0070293791	-0.084043732	0.14638229	0.05597425	-0.50911487	-2.7063999	0.55780981	0.42457059	0.035178574	0.00055767517	0.00028029876	0.0049428528	0.003454798	0.0032596879	0.019859788	0.57675857	0.039547579	0.03522857	7.9530173	7.9551552	7.5704622	0.45593277	7.7141368	0.48268759	5.3790765	6.011447	0.050073486	0.048583973	0.45238959	7.5822613	0.29635597	7.5199341	3.5503007	1.8884031	-143.4524	R0:S0:1	-102.32	uncorrelated	51514b8	 1.95e+02	 1.31e-02	 1.87e-02	2022-04-08@19:02
2x2_2C_8b_C2v_L	0.1	14	2.21	-0.42470378	-9.1480252	-9.9117057	0.22301887	-9.8379543	0.18791969	-0.10212728	-10.193906	15	-0.0070464647	0.0036574207	0.0020396281	0.086194385	0.0078423813	0.081866014	0.01858395	0.0034255017	-0.082405913	-0.75908361	1.1492804	-0.010272716	-1.1458933	-0.011242916	0.085757285	-1.4925238	1.27	0.623	0.132	-0.31525176	0.83826815	1.9996599	1.999732	1.9968835	0.014341161	1.9952339	0.0024424813	0.95998574	1.9592341	1.8382035	0.062970451	-0.031652536	-0.24448511	-0.11257126	-0.32354977	-0.047896895	-1.7254532	0.16499422	0.0039813971	0.0068973478	-0.055703802	0.50226899	0.084023312	-0.1339115	-2.7229015	0.56014957	0.42473634	0.035149488	0.00036916019	0.00027192514	0.0032292655	0.01876034	0.0049700741	0.0033033727	0.57460647	0.039742722	0.035199439	7.955156	7.9557358	7.7145252	0.4739615	7.5722139	0.45134226	5.4171395	6.0055123	0.048392465	0.04801936	0.29601438	7.5293252	0.45082578	7.5871629	3.523028	1.8932908	-143.39412	R0:S0:1	-102.32	uncorrelated	51514b8	 1.95e+02	 1.33e-02	 1.87e-02	2022-04-08@19:05
2x2_2C_8b_C2v_L	0.1	14	2.21	-0.42433747	-9.146471	-9.9085724	0.19831315	-9.8344989	0.21499138	-0.10142069	-10.180432	15	0.007167854	-0.0037305204	0.0081337318	0.083434565	0.0022473281	0.085020819	-0.018308636	-0.0033156018	-0.082265323	-0.75928233	1.1490996	0.011412684	-1.1455091	0.0099618399	0.085657716	-1.4917189	1.27	0.623	0.132	-0.31493495	0.83777554	1.9996492	1.9997308	1.9952798	0.0023910205	1.9968473	0.014397677	0.95110116	1.9589845	1.8377107	-0.064914147	0.031385564	-0.3218882	-0.04767304	-0.2459515	-0.11254239	1.7053416	-0.16296167	0.0039971844	0.0069252	-0.083476431	0.13344466	0.056074957	-0.49911956	-2.7421809	0.56310689	0.42484591	0.035150505	0.00038102659	0.00027318485	0.0049204775	0.0032002205	0.0032680601	0.018972977	0.57187172	0.039976796	0.03520053	7.9548984	7.9555978	7.5741205	0.44781783	7.7137251	0.47582858	5.4626837	5.9973802	0.048657509	0.048191759	0.44879058	7.5904019	0.29704607	7.5277982	3.4907853	1.9002257	-143.34882	R0:S0:1	-102.32	uncorrelated	51514b8	 1.94e+02	 1.19e-02	 1.84e-02	2022-04-08@19:08
2x2_2C_8b_C2v_L	0.1	14	2.21	-0.42417644	-9.1450324	-9.9052982	0.21710887	-9.8314936	0.19464153	-0.10104597	-10.167501	15	-0.002941775	0.00058312626	0.0023107317	0.085367606	0.007742312	0.08268489	0.01813882	0.0031803199	-0.082126502	-0.75924722	1.1492199	-0.009738719	-1.1449581	-0.010884093	0.085581713	-1.490778	1.27	0.623	0.132	-0.31485631	0.83762883	1.9998037	1.9997419	1.9968737	0.014057423	1.9952561	0.0025447591	0.94726443	1.9588586	1.8375641	0.011509329	-0.026829881	-0.24533219	-0.11116028	-0.32229238	-0.049702549	-1.6953102	0.16252182	0.0051382604	0.0067629914	-0.055804525	0.49384804	0.083662766	-0.14186341	-2.7506818	0.56444654	0.42489004	0.035142403	0.00020832439	0.00026185596	0.0032402894	0.01849737	0.004946641	0.0034206584	0.57077196	0.040095522	0.035192341	7.9564747	7.9561424	7.7142977	0.47155732	7.5741488	0.45171126	5.4831543	5.994204	0.047613757	0.047665665	0.29646765	7.5324874	0.44893089	7.5866423	3.4755407	1.9029159	-143.30595	R0:S0:1	-102.32	uncorrelated	51514b8	 1.94e+02	 1.22e-02	 1.81e-02	2022-04-08@19:12
2x2_2C_8b_C2v_L	0.1	14	2.21	-0.42375851	-9.143482	-9.9017176	0.19488928	-9.8279817	0.21650769	-0.10037192	-10.152925	15	0.0056618826	-0.0026284025	0.0080090296	0.082963599	0.0021583044	0.085151002	-0.017935345	-0.0031764279	-0.082290292	-0.75896621	1.148942	0.011005384	-1.1449687	0.0097988	0.085388824	-1.489856	1.27	0.623	0.132	-0.31474746	0.83742368	1.9997269	1.9997354	1.9952896	0.0025265858	1.9968448	0.014117791	0.94105085	1.9587223	1.8373589	-0.046294575	0.029356033	-0.32122059	-0.0493045	-0.24620056	-0.11153887	1.6819798	-0.16076266	0.0044144077	0.0068557724	-0.083282863	0.14005575	0.05613752	-0.49478733	-2.7618541	0.56584192	0.42490983	0.035135393	0.00029420075	0.00026846755	0.0049103287	0.00339781	0.0032710627	0.018574222	0.56907426	0.040222197	0.035185355	7.9558017	7.9558792	7.5753064	0.450439	7.7133596	0.47298451	5.5096897	5.9911701	0.048007079	0.047931136	0.44761965	7.588131	0.29755649	7.5311029	3.4561332	1.9051424	-143.25745	R0:S0:1	-102.32	uncorrelated	51514b8	 1.94e+02	 1.03e-02	 1.79e-02	2022-04-08@19:15
2x2_2C_8b_C2v_L	0.1	14	2.21	-0.42370922	-9.1429872	-9.9004801	0.20431298	-9.8270858	0.20796403	-0.1000718	-10.148497	15	-0.0060058277	0.0030199676	0.0022663015	0.083748464	0.0075495323	0.084679306	0.01761833	0.0031343167	-0.082186119	-0.75908976	1.1498831	-0.0097492442	-1.1436971	-0.010384983	0.085365318	-1.4895467	1.27	0.623	0.132	-0.31465368	0.83687249	1.9997079	1.9997323	1.9968359	0.014871965	1.9952734	0.0027533177	0.93380726	1.9585604	1.8368075	0.050843269	-0.029735419	-0.24598993	-0.11439552	-0.32099803	-0.053113541	-1.6641335	0.1591474	0.0043816018	0.0069172502	-0.056423575	0.50077031	0.083444578	-0.15618838	-2.7774078	0.56790112	0.42482136	0.035169731	0.00031521663	0.00027158965	0.0032791526	0.01982076	0.0049277409	0.0036625477	0.56671878	0.040373768	0.035219801	7.9553466	7.955569	7.7116021	0.48495476	7.5751866	0.45478981	5.547561	5.9850377	0.048445176	0.048272288	0.29938243	7.5191331	0.44791438	7.5835686	3.4286088	1.9104551	-143.24239	R0:S0:1	-102.32	uncorrelated	51514b8	 1.94e+02	 1.02e-02	 1.77e-02	2022-04-08@19:18
2x2_2C_8b_C2v_L	0.1	14	2.21	-0.42365807	-9.1424128	-9.8992767	0.19884071	-9.8258883	0.21265656	-0.10019943	-10.143533	15	0.0074183429	-0.0040367791	0.0079955394	0.08358617	0.0022505344	0.084701165	-0.017650319	-0.003201415	-0.08224972	-0.75903774	1.1486543	0.01100411	-1.1451492	0.0095888303	0.085324909	-1.4889922	1.27	0.623	0.132	-0.31464604	0.837236	1.9996271	1.9997292	1.9952937	0.0025416613	1.9968395	0.014123315	0.93598787	1.9586284	1.8371713	-0.068726576	0.031197449	-0.32093313	-0.049655604	-0.24649673	-0.11138607	1.6696655	-0.15968326	0.004015969	0.0069527198	-0.083210657	0.14146195	0.056195072	-0.49257976	-2.7716985	0.56690822	0.42494099	0.035136329	0.00040578471	0.00027475113	0.0049059646	0.0034067463	0.0032768325	0.018659306	0.56772464	0.040309866	0.035186297	7.9545735	7.9554905	7.5757377	0.45008613	7.7132206	0.47361285	5.5327425	5.9884377	0.048991382	0.048328047	0.44721373	7.5885611	0.29777166	7.5307402	3.438148	1.9074036	-143.22642	R0:S0:1	-102.32	uncorrelated	51514b8	 1.94e+02	 1.13e-02	 1.76e-02	2022-04-08@19:22
2x2_2C_8b_C2v_L	0.1	14	2.21	-0.42356088	-9.1415343	-9.8972863	0.21184314	-9.8241853	0.19965521	-0.099579734	-10.135808	15	-0.010445018	0.0064017913	0.0022305448	0.08487975	0.0078081067	0.083487717	0.01777652	0.003106447	-0.08203848	-0.75926363	1.1492489	-0.0097194972	-1.1443155	-0.010771768	0.085272697	-1.4885788	1.27	0.623	0.132	-0.31467757	0.83711556	1.9993651	1.9997165	1.996844	0.01444792	1.9952715	0.0025831193	0.93340551	1.9585862	1.8370506	0.10725524	-0.034418991	-0.24599662	-0.11293536	-0.32152928	-0.050406312	-1.6664445	0.15834455	0.0034236439	0.007161231	-0.056305361	0.497322	0.0833539	-0.14527297	-2.7747531	0.56722646	0.42487854	0.035145551	0.00069863436	0.00028768155	0.0032709696	0.01912038	0.0049304573	0.0034580575	0.56700423	0.040348094	0.035195648	7.9511	7.9545122	7.7120229	0.47907566	7.5759376	0.45055811	5.5394387	5.9882933	0.051893772	0.049305957	0.29894521	7.5252209	0.44708793	7.5876395	3.4334112	1.9071929	-143.20162	R0:S0:1	-102.32	uncorrelated	51514b8	 1.94e+02	 1.34e-02	 1.78e-02	2022-04-08@19:25
2x2_2C_8b_C2v_L	0.1	14	2.21	-0.42327954	-9.1393626	-9.8925276	0.18735822	-9.8198327	0.22229197	-0.099385537	-10.11702	15	0.010211557	-0.0060786101	0.0077424117	0.082000874	0.0022595615	0.085853363	-0.01770354	-0.0030455618	-0.081692012	-0.75963043	1.1491178	0.010839545	-1.1442398	0.0097512368	0.085172041	-1.4874008	1.27	0.623	0.132	-0.31455194	0.83709921	1.9993899	1.999718	1.9953041	0.0025862612	1.9968363	0.013756006	0.93197159	1.9584575	1.8370343	-0.10451794	0.033863857	-0.32048384	-0.049520219	-0.24673402	-0.11037346	1.6624476	-0.15823707	0.0034405645	0.0071361185	-0.083008946	0.14066151	0.056267697	-0.4910098	-2.7782612	0.56837444	0.42498438	0.035128075	0.00067064299	0.00028616073	0.0048955547	0.0035076988	0.0032802204	0.01799616	0.56638008	0.040469631	0.03517813	7.9514378	7.9546573	7.5768448	0.45115352	7.7127867	0.46890611	5.5490599	5.9863973	0.051574624	0.049170332	0.44609415	7.5878526	0.29826815	7.5355849	3.4272308	1.9086444	-143.14037	R0:S0:1	-102.32	uncorrelated	51514b8	 1.94e+02	 1.22e-02	 1.79e-02	2022-04-08@19:28
2x2_2C_8b_C2v_L	0.1	14	2.21	-0.42335105	-9.1383717	-9.8900906	0.2086242	-9.8179849	0.20410923	-0.099032435	-10.108361	15	-0.0097554664	0.0057019969	0.0023138219	0.084263714	0.0078452792	0.083943219	0.01759161	0.0030507843	-0.081916166	-0.75959914	1.1491201	-0.0094626802	-1.1439014	-0.010774243	0.085056789	-1.4867403	1.27	0.623	0.132	-0.31456423	0.83706193	1.9994325	1.9997201	1.9968435	0.014267984	1.995276	0.0025556832	0.92908807	1.9584159	1.8369971	0.098861487	-0.033158439	-0.24633702	-0.11197508	-0.32136506	-0.050316941	-1.6562879	0.15745577	0.0035645794	0.0071009068	-0.056270007	0.49265089	0.083241158	-0.14548884	-2.7826667	0.56870192	0.4249518	0.035123067	0.00062320851	0.00028398043	0.0032719995	0.018935799	0.0049259241	0.0034046605	0.5657052	0.04050782	0.035173072	7.9520359	7.954834	7.712325	0.47695293	7.5766421	0.44881681	5.5588725	5.9860911	0.051092908	0.048995921	0.29870612	7.5276075	0.44636718	7.5890284	3.4189627	1.9086395	-143.11169	R0:S0:1	-102.32	uncorrelated	51514b8	 1.94e+02	 1.04e-02	 1.78e-02	2022-04-08@19:32
2x2_2C_8b_C2v_L	0.1	14	2.21	-0.42330084	-9.1379775	-9.8891835	0.20308533	-9.8170105	0.20902382	-0.098664961	-10.104388	15	0.0062741603	-0.0031612977	0.0085393338	0.083973086	0.0024423982	0.084227428	-0.017757378	-0.0032170398	-0.08265973	-0.75817609	1.1478194	0.011589347	-1.1447958	0.0093672445	0.084970746	-1.486488	1.27	0.623	0.132	-0.31453608	0.8373692	1.9996925	1.9997347	1.9953118	0.0022739194	1.9968206	0.014120574	0.92954338	1.9584487	1.8373046	-0.054582449	0.029490598	-0.32083471	-0.046107412	-0.24760101	-0.11139154	1.6599115	-0.15674474	0.0043150265	0.0068565687	-0.082734194	0.12835676	0.056461722	-0.4904136	-2.7798267	0.56816221	0.42505461	0.035076255	0.00033280986	0.0002691449	0.0048875884	0.0030248523	0.003296788	0.018727861	0.56598585	0.040475698	0.035126134	7.9555796	7.9559426	7.5785589	0.44010043	7.7120456	0.4751307	5.5512557	5.988166	0.048184825	0.047862662	0.44421086	7.5974052	0.29901131	7.5294429	3.424591	1.9065451	-143.0985	R0:S0:1	-102.32	uncorrelated	51514b8	 1.94e+02	 1.08e-02	 1.77e-02	2022-04-08@19:35
2x2_2C_8b_C2v_L	0.1	14	2.21	-0.42333254	-9.1371596	-9.887385	0.21265419	-9.8154205	0.19832243	-0.097740282	-10.097339	15	-0.0097630848	0.0056711489	0.0022209353	0.084756661	0.0077056318	0.083185127	0.017559857	0.0031227027	-0.08192176	-0.75937406	1.1487279	-0.0095324875	-1.1440292	-0.010395391	0.084737928	-1.4861466	1.27	0.623	0.132	-0.31466502	0.8370562	1.9994279	1.9997213	1.9968315	0.014144155	1.9952897	0.0026816023	0.92233061	1.9583588	1.8369916	0.099423543	-0.032626865	-0.24687915	-0.1119351	-0.32079338	-0.051625463	-1.6443296	0.1545684	0.0036041887	0.007078027	-0.056511142	0.49264169	0.082996396	-0.15115406	-2.7916316	0.56910648	0.4249092	0.035093968	0.00062831128	0.00028281558	0.0032845185	0.018689939	0.0049115437	0.0035964736	0.56398935	0.040557858	0.035143896	7.9520742	7.9549625	7.7109801	0.47660115	7.577874	0.45117728	5.5795654	5.9860677	0.051045621	0.048858806	0.30011141	7.528094	0.44500732	7.5867556	3.4032242	1.9079075	-143.07462	R0:S0:1	-102.32	uncorrelated	51514b8	 1.94e+02	 1.07e-02	 1.77e-02	2022-04-08@19:38
2x2_2C_8b_C2v_L	0.1	14	2.21	-0.42334735	-9.1365045	-9.8860537	0.20343785	-9.813916	0.20752004	-0.097535563	-10.0915	15	0.008791797	-0.0052641918	0.0074196826	0.084321546	0.0021185425	0.084043744	-0.017135093	-0.003067579	-0.081950376	-0.75919921	1.1472591	0.0099031043	-1.1447789	0.0096359953	0.084726622	-1.4856104	1.27	0.623	0.132	-0.3144833	0.83651655	1.9995137	1.9997228	1.9953348	0.0029441068	1.9967916	0.014556745	0.91446314	1.958179	1.8364518	-0.087218617	0.03191212	-0.31860772	-0.055004829	-0.24783193	-0.11369917	1.6226506	-0.15319768	0.0038443812	0.0070602063	-0.082598063	0.16434124	0.057025138	-0.49700079	-2.8091395	0.57139485	0.42487759	0.035120699	0.00053231869	0.00028127728	0.0048623729	0.0039420255	0.0033263237	0.019324854	0.56121444	0.040726662	0.035170672	7.9529881	7.9550281	7.5786743	0.45664113	7.7092648	0.48334103	5.6233495	5.979218	0.050358642	0.048824656	0.44412803	7.5819995	0.30202144	7.5213576	3.3706389	1.9139391	-143.05492	R0:S0:1	-102.32	uncorrelated	51514b8	 1.94e+02	 1.09e-02	 1.74e-02	2022-04-08@19:41
2x2_2C_8b_C2v_L	0.1	14	2.21	-0.42321835	-9.135012	-9.882862	0.21696539	-9.8106575	0.19179885	-0.097199468	-10.07825	15	-0.0029428319	0.00061693457	0.0024493609	0.085480796	0.0075306318	0.082424449	0.017144515	0.0028579363	-0.081945853	-0.75909237	1.1479299	-0.0091763837	-1.1440893	-0.010234942	0.084702261	-1.4847249	1.27	0.623	0.132	-0.31435695	0.83655941	1.9997989	1.9997411	1.9968295	0.013595259	1.995308	0.0027578582	0.91263023	1.9580508	1.8364948	0.013196941	-0.025234803	-0.24751624	-0.10981094	-0.3197649	-0.052015849	-1.6174958	0.15303052	0.0052010207	0.0067790165	-0.05652518	0.48416438	0.082676567	-0.15205926	-2.8142756	0.5727197	0.42505552	0.035086163	0.00021357657	0.00026267697	0.0032872552	0.017905557	0.0048927027	0.0037261179	0.56030753	0.040847944	0.035136032	7.9563965	7.9561442	7.7109496	0.47007832	7.579692	0.45195489	5.6366198	5.976238	0.047745232	0.047725264	0.30031354	7.5354211	0.44329436	7.5866697	3.3613018	1.9165296	-143.01142	R0:S0:1	-102.32	uncorrelated	51514b8	 1.94e+02	 1.16e-02	 1.71e-02	2022-04-08@19:45
2x2_2C_8b_C2v_L	0.1	14	2.21	-0.42289147	-9.1335048	-9.879491	0.19574817	-9.8072392	0.21381127	-0.096554247	-10.064276	15	0.0037377959	-0.0012689465	0.0077600715	0.083062743	0.002410779	0.084850842	-0.016764391	-0.0027953357	-0.082049965	-0.75885382	1.147723	0.010382453	-1.1439375	0.0091755261	0.084567235	-1.4835951	1.27	0.623	0.132	-0.31412055	0.8362264	1.999783	1.999739	1.9953526	0.0026953472	1.9967934	0.013697677	0.90315695	1.9578709	1.8361617	-0.023624177	0.025765013	-0.31823092	-0.051322023	-0.24869857	-0.11032573	1.5939077	-0.15066857	0.0050213366	0.0068112806	-0.08212177	0.14953749	0.056955814	-0.48466496	-2.8324141	0.5747792	0.42512558	0.035078193	0.0002312819	0.00026475131	0.0048447276	0.0036268822	0.0033256112	0.018078158	0.55708381	0.041015251	0.035128077	7.9562533	7.9560465	7.5816987	0.44858932	7.7096423	0.47258801	5.6813128	5.9708783	0.047850502	0.047839598	0.44113643	7.5899639	0.30182462	7.5330407	3.3269946	1.9208747	-142.96465	R0:S0:1	-102.32	uncorrelated	51514b8	 1.94e+02	 1.05e-02	 1.69e-02	2022-04-08@19:48
2x2_2C_8b_C2v_L	0.1	14	2.21	-0.42270225	-9.1325773	-9.8772962	0.21037364	-9.8054059	0.19952042	-0.096064443	-10.055965	15	-0.0085654326	0.0050067747	0.0023738515	0.084540222	0.007653529	0.083388862	0.01674788	0.0026980863	-0.081921909	-0.75901423	1.1481112	-0.0091810681	-1.1433144	-0.010122027	0.084465988	-1.4833469	1.27	0.623	0.132	-0.31403255	0.83598839	1.9995266	1.9997237	1.9968064	0.013938097	1.9953247	0.0027604817	0.89986592	1.9577638	1.8359235	0.085027122	-0.030877873	-0.24791877	-0.1112713	-0.31895219	-0.052498418	-1.5869227	0.14950782	0.0039669509	0.0070535818	-0.056914815	0.48687611	0.082357525	-0.15501807	-2.838356	0.57586126	0.42510724	0.035089229	0.00051792322	0.00028036217	0.0033111345	0.018468216	0.004875044	0.0036999962	0.55569366	0.041114905	0.035139251	7.953079	7.9550461	7.7092306	0.47653916	7.5815029	0.44964834	5.6970551	5.9685397	0.050353839	0.048845438	0.30224068	7.5291448	0.4414503	7.588497	3.3165511	1.9225835	-142.93759	R0:S0:1	-102.32	uncorrelated	51514b8	 1.94e+02	 1.04e-02	 1.68e-02	2022-04-08@19:51
2x2_2C_8b_C2v_L	0.1	14	2.21	-0.42272609	-9.1318246	-9.875699	0.20089411	-9.8037397	0.20881187	-0.096334738	-10.049318	15	0.0090293424	-0.0052784086	0.00720046	0.083783675	0.0021429039	0.08409554	-0.016771498	-0.0029050465	-0.081717038	-0.75934658	1.1470408	0.0095581783	-1.1441621	0.0094290807	0.084431984	-1.4827089	1.27	0.623	0.132	-0.31423762	0.83617511	1.9994878	1.9997222	1.9953523	0.0030389608	1.9967835	0.014216838	0.90298422	1.9578485	1.8361104	-0.09091354	0.031325858	-0.317698	-0.055976093	-0.24840572	-0.11246381	1.5950158	-0.15027053	0.0038564347	0.0070737517	-0.082271661	0.16881429	0.057149905	-0.49168265	-2.8304274	0.57459383	0.42497539	0.035097161	0.00056114442	0.00028185013	0.0048443304	0.0040788693	0.0033353876	0.018843457	0.55723152	0.041035579	0.035147102	7.9526217	7.9549754	7.580498	0.45726887	7.7087187	0.47996409	5.6765083	5.9729488	0.050691249	0.0489018	0.44228511	7.5812898	0.30274536	7.5252688	3.3307475	1.9186124	-142.91643	R0:S0:1	-102.32	uncorrelated	51514b8	 1.94e+02	 1.02e-02	 1.68e-02	2022-04-08@19:55
2x2_2C_8b_C2v_L	0.1	14	2.21	-0.42264805	-9.1312315	-9.8742418	0.20908384	-9.8024977	0.20042382	-0.095886943	-10.043771	15	-0.0076590629	0.0043500013	0.0020394292	0.084286332	0.007689992	0.083519641	0.016706914	0.0028182018	-0.082178895	-0.75855539	1.1480116	-0.0096478143	-1.142956	-0.010258214	0.084312351	-1.4825285	1.27	0.623	0.132	-0.31403153	0.83608895	1.999596	1.9997274	1.9967928	0.014523778	1.9953313	0.0027021333	0.89946161	1.9577582	1.8360242	0.073493162	-0.0299335	-0.24768143	-0.11399841	-0.31882832	-0.051767032	-1.5872131	0.14911859	0.0041554054	0.0069907822	-0.057201571	0.49698137	0.082235408	-0.15223605	-2.8369728	0.57556725	0.42506209	0.035079614	0.0004404724	0.00027657821	0.0033244446	0.019250539	0.0048682479	0.0036172963	0.5558112	0.041119265	0.035129569	7.9540421	7.9553368	7.7077218	0.48489247	7.5821005	0.44761086	5.6934531	5.9705796	0.049558457	0.048541097	0.30370709	7.5202195	0.44079993	7.5904019	3.3189703	1.9203707	-142.89787	R0:S0:1	-102.32	uncorrelated	51514b8	 1.94e+02	 1.00e-02	 1.68e-02	2022-04-08@19:58
2x2_2C_8b_C2v_L	0.1	14	2.21	-0.42264132	-9.1305433	-9.8728265	0.20108319	-9.8010154	0.20826078	-0.095797301	-10.037845	15	0.0070695968	-0.003779314	0.0069770008	0.083810387	0.0023598635	0.084029121	-0.01681867	-0.0029593132	-0.08189445	-0.75898023	1.1470138	0.0093290286	-1.144167	0.0092607549	0.08424166	-1.4820617	1.27	0.623	0.132	-0.31446866	0.83630302	1.9996374	1.9997302	1.9953565	0.0031347816	1.996773	0.01409544	0.9019477	1.9578282	1.8362385	-0.066170015	0.029076822	-0.31744788	-0.057116685	-0.24923123	-0.11200249	1.5943513	-0.14951483	0.0042419095	0.0069403395	-0.082226441	0.17366706	0.057275109	-0.48911894	-2.8302307	0.57448042	0.4249067	0.035080939	0.00039397735	0.00027377246	0.0048398685	0.0042088214	0.0033465226	0.018696865	0.5570803	0.041053498	0.035130778	7.9546554	7.955606	7.5806089	0.45924117	7.7082028	0.4790898	5.6758155	5.974519	0.048988712	0.048259839	0.44211715	7.5792491	0.30326144	7.5262978	3.3311987	1.9168246	-142.87847	R0:S0:1	-102.32	uncorrelated	51514b8	 1.94e+02	 1.02e-02	 1.68e-02	2022-04-08@20:01
2x2_2C_8b_C2v_L	0.1	14	2.21	-0.42256562	-9.1298495	-9.8712003	0.21025427	-9.7996047	0.19863996	-0.094992166	-10.031457	15	-0.0094136169	0.0057586938	0.0022401456	0.084548408	0.00745571	0.083317668	0.016399132	0.0026637545	-0.082106948	-0.75859077	1.1478397	-0.0093016049	-1.143042	-0.0098394587	0.084137951	-1.4815457	1.27	0.623	0.132	-0.3140216	0.83581953	1.999446	1.9997205	1.9967846	0.014136159	1.9953421	0.0028662066	0.89001587	1.957615	1.8357548	0.096158299	-0.031505837	-0.2484834	-0.11248347	-0.31811703	-0.053670544	-1.5639076	0.14659513	0.0038874669	0.007104112	-0.057307423	0.49016801	0.08206703	-0.16011235	-2.8537981	0.57715784	0.42506929	0.035074203	0.00060820684	0.00028361115	0.0033335466	0.018729021	0.0048568754	0.0038489284	0.55257001	0.041251648	0.03512417	7.9520607	7.9548111	7.7072867	0.4809289	7.5829697	0.45079849	5.734991	5.9666754	0.051248515	0.04907709	0.30428645	7.5248482	0.43990356	7.5874169	3.2863162	1.9233987	-142.85673	R0:S0:1	-102.32	uncorrelated	51514b8	 1.94e+02	 9.99e-03	 1.67e-02	2022-04-08@20:05
2x2_2C_8b_C2v_L	0.1	14	2.21	-0.42255082	-9.1292147	-9.8698765	0.20223665	-9.7982162	0.20666863	-0.095058517	-10.02574	15	0.0061912302	-0.0031981021	0.0077219485	0.084014615	0.0022860585	0.083936061	-0.016497994	-0.0028308807	-0.082047675	-0.758651	1.1466063	0.010029538	-1.1438782	0.0091113675	0.08417888	-1.4811181	1.27	0.623	0.132	-0.31400522	0.83593379	1.999686	1.9997326	1.9953712	0.0028146162	1.9967672	0.014069992	0.8915986	1.9576018	1.8358691	-0.055381746	0.027838974	-0.31731981	-0.053157518	-0.24938339	-0.11192262	1.567999	-0.14680327	0.0044804713	0.0069068248	-0.081792631	0.15804801	0.057399255	-0.48724501	-2.8512573	0.57720206	0.42511376	0.035057605	0.00033969396	0.00027133077	0.0048251137	0.0037676199	0.0033528011	0.018703465	0.55304778	0.041264586	0.035107477	7.9552038	7.9557358	7.5834376	0.44918959	7.70758	0.47983807	5.7287017	5.9669586	0.048617377	0.048157115	0.43927787	7.589023	0.30404744	7.5259759	3.2913857	1.9231905	-142.83851	R0:S0:1	-102.32	uncorrelated	51514b8	 1.94e+02	 9.69e-03	 1.66e-02	2022-04-08@20:08
