model	E_kin	D	U	e	eb1_1	eb2_1	eb3_1	eb4_1	eb5_1	eb6_1	eb7_1	eb8_1	mu	sb1_1	sb2_1	sb3_1	sb4_1	sb5_1	sb6_1	sb7_1	sb8_1	tb1_1	tb2_1	tb3_1	tb4_1	tb5_1	tb6_1	tb7_1	tb8_1	tpd	tpp	tppp	ave_D	ave_e	ave_mu	ave_tpd	ave_tpp	ave_tppp	ave_U_1	ave_eb1_1	ave_eb2_1	ave_eb3_1	ave_eb4_1	ave_eb5_1	ave_eb6_1	ave_eb7_1	ave_eb8_1	ave_mu_1	ave_sb1_1	ave_sb2_1	ave_sb3_1	ave_sb4_1	ave_sb5_1	ave_sb6_1	ave_sb7_1	ave_sb8_1	ave_tb1_1	ave_tb2_1	ave_tb3_1	ave_tb4_1	ave_tb5_1	ave_tb6_1	ave_tb7_1	ave_tb8_1	var_U_1	var_eb1_1	var_eb2_1	var_eb3_1	var_eb4_1	var_eb5_1	var_eb6_1	var_eb7_1	var_eb8_1	var_mu_1	var_sb1_1	var_sb2_1	var_sb3_1	var_sb4_1	var_sb5_1	var_sb6_1	var_sb7_1	var_sb8_1	var_tb1_1	var_tb2_1	var_tb3_1	var_tb4_1	var_tb5_1	var_tb6_1	var_tb7_1	var_tb8_1	E0_1	sector_1	E0_2	sector_2	githash	time
2x2_2C_8b_C2v_L	4.2075467	0	14	2.3	0.0093356841	-3.1658138	-3.9364803	-0.13202782	-3.9364782	-0.13202537	0.17219084	-3.5980941	9.45	-1.3059643e-05	4.2551954e-06	0.0074515148	-0.19129785	0.0074496668	-0.1912968	2.5598325e-06	-9.1076522e-06	-0.11852481	-1.0892548	1.7350784	0.027961092	-1.7350785	-0.027952984	0.26142848	-2.2994924	2.1	1	0.2	0.011002602	1.2520168	1.6075766	-0.61476404	-0.20296799	0.084247481	0.12951045	0.29164603	1.9360525	1.787113	1.5417608	1.787114	1.5417527	0.02252508	1.5305337	1.0951914	0.00011904529	-1.7040518e-05	0.11802335	1.2599312	0.1180256	1.2599483	-3.5988773e-06	1.6898661e-05	1.2447655	0.74701366	-1.6224591	-0.52965442	1.6224547	0.52961536	-0.32013032	2.6022032	0.028147085	0.26173151	0.062037818	0.19270915	0.38308624	0.19270829	0.38309388	0.022891614	0.35611323	0.037712019	4.2464509	5.3749377	5.1631264	4.9551547	5.1631225	4.9551405	4.3909867	6.2442195	5.2372448	2.7343018	3.3649815	5.2860007	3.3649773	5.2860269	3.6812034	3.1117464	-73.420954	R0:S0:1	-57.2	uncorrelated	51514b8	2022-04-13@21:14
2x2_2C_8b_C2v_L	4.3581785	0	14	2.294557	0.0058082273	-3.2217316	-3.9806906	-0.11878854	-3.9806914	-0.11878509	0.16037774	-3.6408545	9.4879747	-1.2613091e-05	-8.2366497e-07	0.0090407728	-0.18065119	0.0090420335	-0.18064928	-1.0465821e-06	-6.7661922e-06	-0.11582923	-1.0904625	1.7307127	0.037450707	-1.7307097	-0.037445966	0.24938036	-2.2912395	2.0879747	0.99481013	0.19924051	0.013034916	1.2558295	1.6130416	-0.59955515	-0.19406707	0.080654383	0.12918799	0.27406623	1.9388555	1.7983007	1.5437108	1.7983023	1.5436999	0.020938334	1.5502482	1.0977303	0.0001182763	-2.9079397e-06	0.11122136	1.2228281	0.11121713	1.222845	1.4189672e-05	1.3038027e-05	1.2052226	0.73770691	-1.5822202	-0.56196025	1.5822129	0.56193708	-0.31112158	2.5517247	0.028090012	0.24497528	0.059418152	0.1836742	0.37785554	0.18367283	0.37786347	0.021170842	0.34725306	0.036829989	4.1814058	5.3694039	5.134299	5.0030996	5.1342933	5.003096	4.3749753	6.16599	5.2565538	2.7438679	3.3673823	5.2428934	3.3673764	5.2429242	3.690082	3.1728935	-73.822732	R0:S0:1	-57.547342	uncorrelated	51514b8	2022-04-13@21:33
2x2_2C_8b_C2v_L	4.5177169	0	14	2.2891139	0.0012508744	-3.2978833	-4.0304002	-0.10561765	-4.0303911	-0.10561837	0.14607816	-3.6791094	9.5259494	-9.3908981e-06	1.0865062e-07	0.0097831513	-0.16959235	0.0097846922	-0.16959331	1.3157671e-06	-2.0181569e-06	-0.11302156	-1.0945163	1.7273479	0.044552889	-1.7273443	-0.044548398	0.23578881	-2.2814261	2.0759494	0.98962025	0.19848101	0.013807803	1.259879	1.618785	-0.58330637	-0.18433875	0.076777607	0.12881528	0.25119282	1.9420175	1.809655	1.5599907	1.8096575	1.5599827	0.019031991	1.5720712	1.1004719	9.3130659e-05	-7.0525779e-07	0.10180415	1.1672068	0.10180224	1.16725	-6.7781223e-06	2.3381759e-06	1.1539995	0.72612288	-1.5415771	-0.57266988	1.5415605	0.57264258	-0.29946895	2.4948788	0.028024371	0.22604701	0.056482147	0.17449391	0.36559985	0.17449171	0.36560273	0.019170069	0.33678521	0.035859943	4.0768985	5.3710814	5.1159744	5.0378183	5.1159717	5.0378093	4.3564113	6.0786279	5.2684623	2.7545086	3.3799727	5.1717683	3.3799501	5.1718066	3.7018323	3.2363552	-74.278824	R0:S0:1	-57.894684	uncorrelated	51514b8	2022-04-13@21:53
2x2_2C_8b_C2v_L	4.6856916	0	14	2.2836709	-0.0067909666	-3.3672934	-4.0758676	-0.093032141	-4.075854	-0.093031261	0.13045459	-3.7162572	9.5639241	8.5531086e-06	-1.5852248e-07	0.010009526	-0.15632767	0.010008079	-0.15632633	2.2245472e-06	1.2608177e-06	-0.10974389	-1.0975765	1.7239554	0.050984745	-1.7239525	-0.050981256	0.21900924	-2.2720595	2.0639241	0.98443038	0.19772152	0.013800834	1.2641488	1.624884	-0.56600712	-0.17387748	0.072644473	0.12847196	0.22630038	1.9451141	1.8208832	1.5931809	1.8208828	1.5931845	0.016691784	1.5952417	1.1034424	-0.00010451989	-4.9826414e-07	0.092194372	1.0885552	0.092198122	1.0885508	-1.1880884e-05	-2.0632629e-06	1.0958492	0.71357331	-1.5010446	-0.57089559	1.5010457	0.57088351	-0.28267123	2.4347224	0.02796431	0.20693821	0.053608844	0.16539317	0.3426967	0.16539354	0.34269542	0.016771529	0.32489124	0.034827191	3.9488737	5.3782882	5.1084188	5.0590973	5.1084215	5.0590901	4.3370854	5.9863498	5.2728322	2.7644937	3.4007445	5.0631528	3.4007473	5.0631438	3.714146	3.2990568	-74.705127	R0:S0:1	-58.242025	uncorrelated	51514b8	2022-04-13@22:18
2x2_2C_8b_C2v_L	4.839249	0	14	2.2782278	-0.018378354	-3.4625337	-4.1236019	-0.076943687	-4.1242036	-0.07723251	0.10538304	-3.747092	9.6018987	-0.00054509021	3.6496922e-05	0.009619131	-0.14133981	0.0096758145	-0.14138523	-0.00021399202	3.5207826e-05	-0.10768248	-1.1032394	1.7203251	0.057062783	-1.7204192	-0.057407164	0.19830487	-2.2599566	2.0518987	0.97924051	0.19696203	0.013388852	1.2680046	1.6304426	-0.54988986	-0.1643908	0.068927776	0.12784182	0.22484831	1.9469565	1.8313334	1.597139	1.8313818	1.5966475	0.015053527	1.614574	1.1056492	0.013526794	0.00048055581	0.082597147	1.0251342	0.082383847	1.026181	5.3819205e-05	-0.00056808183	1.0614583	0.71073617	-1.4620435	-0.57817683	1.4615081	0.57998189	-0.26540746	2.3810334	0.027849185	0.20661074	0.051858753	0.15661354	0.33518682	0.15656481	0.335298	0.015100039	0.31432303	0.033880194	3.9403394	5.3594102	5.0873448	5.1217333	5.0874147	5.1234695	4.3125454	5.9092842	5.283567	2.783437	3.4008046	5.0315225	3.3995479	5.0323748	3.7292377	3.3471491	-75.167331	R0:S0:1	-58.589367	uncorrelated	51514b8	2022-04-13@22:53
2x2_2C_8b_C2v_L	5.1333995	0	14	2.2727848	-0.059097087	-3.710872	-4.3233052	-0.086816935	-4.3194193	-0.084606505	-0.028387696	-3.7417975	9.6398734	0.00083485133	-0.00011721825	0.013451768	-0.10511154	0.013313317	-0.10445877	-0.13145532	-0.00010296217	-0.12512247	-1.124974	1.7415099	0.10853447	-1.7409758	-0.10765808	0.0019767503	-2.2371313	2.0398734	0.97405063	0.19620253	0.0128302	1.2758271	1.6402311	-0.52030162	-0.14275681	0.060419263	0.12804368	1.9597954	1.9625157	1.8477708	1.7211059	1.8477097	1.7201495	1.9473639	1.6755689	1.1134408	-0.008292756	0.00025757708	0.081939308	0.76317271	0.081985114	0.76426681	0.23471604	0.00033845715	0.17962198	0.61536608	-1.4164603	-0.64754022	1.4162152	0.64806852	-0.0081318099	2.2230606	0.027906476	0.051820337	0.037461647	0.14344864	0.26317412	0.14349612	0.26381559	0.07190719	0.2773089	0.031601074	5.4196197	5.5484527	5.1139542	4.9041685	5.1147524	4.9065913	3.8525	5.6630197	2.7778579	2.746428	3.525819	4.5681442	3.5244996	4.5697046	4.3236565	3.4632713	-76.700303	R0:S0:1	-58.936709	uncorrelated	51514b8	2022-04-14@05:59
