model	E_kin	D	U	e	eb1_1	eb2_1	eb3_1	eb4_1	eb5_1	eb6_1	eb7_1	eb8_1	mu	sb1_1	sb2_1	sb3_1	sb4_1	sb5_1	sb6_1	sb7_1	sb8_1	tb1_1	tb2_1	tb3_1	tb4_1	tb5_1	tb6_1	tb7_1	tb8_1	tpd	tpp	tppp	ave_D	ave_e	ave_mu	ave_tpd	ave_tpp	ave_tppp	ave_U_1	ave_eb1_1	ave_eb2_1	ave_eb3_1	ave_eb4_1	ave_eb5_1	ave_eb6_1	ave_eb7_1	ave_eb8_1	ave_mu_1	ave_sb1_1	ave_sb2_1	ave_sb3_1	ave_sb4_1	ave_sb5_1	ave_sb6_1	ave_sb7_1	ave_sb8_1	ave_tb1_1	ave_tb2_1	ave_tb3_1	ave_tb4_1	ave_tb5_1	ave_tb6_1	ave_tb7_1	ave_tb8_1	var_U_1	var_eb1_1	var_eb2_1	var_eb3_1	var_eb4_1	var_eb5_1	var_eb6_1	var_eb7_1	var_eb8_1	var_mu_1	var_sb1_1	var_sb2_1	var_sb3_1	var_sb4_1	var_sb5_1	var_sb6_1	var_sb7_1	var_sb8_1	var_tb1_1	var_tb2_1	var_tb3_1	var_tb4_1	var_tb5_1	var_tb6_1	var_tb7_1	var_tb8_1	E0_1	sector_1	E0_2	sector_2	githash	iterations	dist_function	distance	diff_hybrid	time
2x2_2C_8b_C2v_L	4.2068896	0	14	2.3	0.0091718348	-3.1699696	-3.9391974	-0.13202029	-3.9392168	-0.13202099	0.17221951	-3.5979759	9.45	-5.0567246e-06	-1.7057664e-05	0.0075038396	-0.19129477	0.0075022235	-0.19129649	4.3351612e-06	5.3710011e-06	-0.11856264	-1.0898703	1.7356644	0.028193824	-1.7356686	-0.028189908	0.26136929	-2.2994844	2.1	1	0.2	0.011035933	1.2519961	1.6075583	-0.61482058	-0.20302539	0.084270571	0.12950128	0.29307693	1.9360022	1.7871807	1.540091	1.7871834	1.5400765	0.022564097	1.5302972	1.0951548	4.0854734e-05	4.5692998e-05	0.11820069	1.2614505	0.11819721	1.2615113	-3.3376172e-05	-1.972778e-05	1.2461196	0.74757326	-1.6222563	-0.53150581	1.6222393	0.53147968	-0.32024489	2.6026547	0.028145261	0.26275929	0.062080986	0.19264092	0.38380048	0.19263852	0.38380529	0.022929914	0.35621583	0.037718519	4.2538102	5.373404	5.1617985	4.9573004	5.1617893	4.9572826	4.3907186	6.2453	5.2378085	2.7347783	3.3636599	5.2898603	3.3636292	5.2899317	3.6812957	3.1111479	-73.441206	R0:S0:1	-57.2	uncorrelated	51514b8	5	sharp_wc_2.0_b_50	 1.82e+02	 3.99e-03	2022-04-13@21:14
2x2_2C_8b_C2v_L	4.4387996	0	14	2.2889744	0.0025532122	-3.26474	-3.9946124	-0.11306719	-3.9946336	-0.11306579	0.15401308	-3.6451197	9.475641	0.00011069388	3.6673055e-06	0.0094619652	-0.17464675	0.0094595826	-0.17465009	8.9202529e-06	-1.1058736e-06	-0.11418026	-1.0923499	1.725863	0.040681735	-1.7258699	-0.040663395	0.24172552	-2.2807828	2.075641	0.98948718	0.19846154	0.013313656	1.2577646	1.615592	-0.59135704	-0.18958457	0.078833189	0.12813772	0.26898966	1.9402804	1.8039347	1.5510272	1.803941	1.5509893	0.020208349	1.5601508	1.0979141	-0.0010918465	-7.2071461e-07	0.10706826	1.1976276	0.10706888	1.1977851	-5.9195589e-05	-6.6632944e-06	1.1858797	0.73382403	-1.5613388	-0.56781231	1.5612959	0.56770972	-0.30577956	2.5233553	0.02789758	0.24106021	0.058085423	0.1790891	0.37125213	0.17908338	0.37126949	0.020398737	0.34241849	0.036275292	4.1642469	5.3591314	5.1190486	5.0232431	5.1190332	5.0232012	4.3671875	6.1250342	5.2595741	2.7568037	3.3743853	5.2190634	3.3743075	5.2192301	3.6947073	3.2082279	-73.836435	R0:S0:1	-57.493333	uncorrelated	51514b8	5	sharp_wc_2.0_b_50	 1.61e+02	 6.77e-03	2022-04-13@21:37
2x2_2C_8b_C2v_L	4.6792751	0	14	2.2779487	-0.0071832713	-3.3734335	-4.0464408	-0.092251454	-4.0464466	-0.092250421	0.13024265	-3.6900172	9.5012821	6.284652e-05	-2.7582989e-06	0.0097735006	-0.15591239	0.0097715606	-0.15591192	2.5647583e-06	-1.3024113e-06	-0.1097492	-1.0957165	1.7147913	0.049216177	-1.7147931	-0.049208722	0.21879304	-2.2606651	2.0512821	0.97897436	0.19692308	0.013588433	1.2638043	1.6238265	-0.56657578	-0.17497592	0.073027001	0.12660605	0.24537806	1.9444311	1.8206903	1.5731143	1.8206894	1.5731302	0.017745826	1.592734	1.1008182	-0.00078887926	-7.1516999e-06	0.092556952	1.1091628	0.092564021	1.1091286	5.7526722e-06	1.0664509e-05	1.1149236	0.72024726	-1.4994392	-0.57345623	1.4994515	0.57342146	-0.28754668	2.4350727	0.027617954	0.2221015	0.05420858	0.1653554	0.35325006	0.16535635	0.35324564	0.017832475	0.32592077	0.034700022	4.0586601	5.3459768	5.0879011	5.0812715	5.0879005	5.0812357	4.3389161	5.9927977	5.2735499	2.7829023	3.3921363	5.1288078	3.3921682	5.1287734	3.7125956	3.3035268	-74.230065	R0:S0:1	-57.786667	uncorrelated	51514b8	6	sharp_wc_2.0_b_50	 1.39e+02	 6.08e-03	2022-04-13@22:07
