model	E_kin	D	U	e	eb1_1	eb2_1	eb3_1	eb4_1	eb5_1	eb6_1	eb7_1	eb8_1	mu	sb1_1	sb2_1	sb3_1	sb4_1	sb5_1	sb6_1	sb7_1	sb8_1	tb1_1	tb2_1	tb3_1	tb4_1	tb5_1	tb6_1	tb7_1	tb8_1	tpd	tpp	tppp	ave_D	ave_e	ave_mu	ave_tpd	ave_tpp	ave_tppp	ave_U_1	ave_eb1_1	ave_eb2_1	ave_eb3_1	ave_eb4_1	ave_eb5_1	ave_eb6_1	ave_eb7_1	ave_eb8_1	ave_mu_1	ave_sb1_1	ave_sb2_1	ave_sb3_1	ave_sb4_1	ave_sb5_1	ave_sb6_1	ave_sb7_1	ave_sb8_1	ave_tb1_1	ave_tb2_1	ave_tb3_1	ave_tb4_1	ave_tb5_1	ave_tb6_1	ave_tb7_1	ave_tb8_1	var_U_1	var_eb1_1	var_eb2_1	var_eb3_1	var_eb4_1	var_eb5_1	var_eb6_1	var_eb7_1	var_eb8_1	var_mu_1	var_sb1_1	var_sb2_1	var_sb3_1	var_sb4_1	var_sb5_1	var_sb6_1	var_sb7_1	var_sb8_1	var_tb1_1	var_tb2_1	var_tb3_1	var_tb4_1	var_tb5_1	var_tb6_1	var_tb7_1	var_tb8_1	E0_1	sector_1	E0_2	sector_2	githash	time
2x2_2C_8b_C2v_L	4.2058699	0	14	2.3	0.0092112218	-3.1664049	-3.9353856	-0.13175777	-3.9353648	-0.13175273	0.17218357	-3.5979218	9.45	-4.3821834e-05	-2.6831168e-06	0.0074611542	-0.19116024	0.0074561207	-0.19115805	9.973519e-06	4.4320876e-06	-0.11853064	-1.0893236	1.7348475	0.028050176	-1.7348456	-0.028033806	0.26138396	-2.299476	2.1	1	0.2	0.01100835	1.2519717	1.6075079	-0.61493084	-0.20308243	0.084294873	0.12949756	0.29378005	1.9359257	1.7870386	1.5388182	1.7870386	1.5388173	0.022630805	1.5301116	1.0951319	0.00039408927	3.2908626e-06	0.11823572	1.2624589	0.11824762	1.2624779	-5.3779423e-05	-1.0009272e-05	1.2465569	0.74793292	-1.6225584	-0.5313186	1.6225554	0.53124651	-0.32043486	2.603141	0.028144506	0.26320934	0.062150253	0.19274518	0.38454987	0.1927452	0.38455659	0.022998729	0.35629214	0.037723142	4.2573621	5.372661	5.1615836	4.9580779	5.1615867	4.958039	4.3908863	6.2460639	5.2385313	2.7348812	3.3627738	5.292736	3.3627702	5.29275	3.6811656	3.1105584	-73.416078	R0:S0:1	-57.2	uncorrelated	51514b8	2022-04-17@17:01
2x2_2C_8b_C2v_L	4.3511436	0	14	2.3299828	0.006835071	-3.1663153	-3.935408	-0.12906211	-3.9353986	-0.12905943	0.16983312	-3.5957362	9.4758621	-4.1795167e-05	-9.9024576e-07	0.0082187856	-0.18883722	0.008215557	-0.18883465	4.046428e-06	-5.0152084e-06	-0.11809629	-1.0876866	1.7319984	0.031477225	-1.7319976	-0.031462924	0.25875999	-2.2951616	2.0948	1	0.20128621	0.011737658	1.2525134	1.6086315	-0.61239687	-0.20196931	0.083785272	0.12982208	0.29866233	1.9358441	1.7890644	1.5313413	1.7890646	1.5313386	0.022546519	1.5320056	1.0960736	0.00039353749	-5.8735692e-06	0.1179548	1.2618784	0.11796179	1.2618845	-1.315373e-05	8.9910532e-06	1.2467838	0.74997992	-1.6145828	-0.54832906	1.6145828	0.54826898	-0.3192829	2.5974387	0.028204127	0.26607551	0.062205709	0.1910594	0.38639757	0.19105933	0.38640545	0.022882696	0.35555731	0.037614862	4.2828381	5.3654027	5.1527352	4.9798718	5.1527356	4.9798442	4.3845724	6.2404832	5.2454078	2.737028	3.3542279	5.3001408	3.3542319	5.3001535	3.6852667	3.1164463	-73.493093	R0:S0:1	-57.167034	uncorrelated	51514b8	2022-04-17@17:09
2x2_2C_8b_C2v_L	4.5045867	0	14	2.3599655	0.0062616232	-3.167553	-3.9363182	-0.12658367	-3.9363179	-0.12658371	0.16801493	-3.5948948	9.5017241	-2.9486285e-05	-1.0377501e-06	0.008691088	-0.18663173	0.0086894858	-0.18662997	3.7693385e-06	5.6933827e-06	-0.11747518	-1.0861505	1.7290622	0.034107805	-1.7290624	-0.034104884	0.25657308	-2.2911591	2.0896	1	0.20257241	0.012347552	1.2532822	1.6100409	-0.60909091	-0.20023615	0.083025635	0.13020678	0.2897256	1.9366192	1.7913096	1.5370452	1.7913077	1.537062	0.021879327	1.5361856	1.0973297	0.00027750431	1.4753676e-06	0.11657721	1.2483945	0.11658514	1.2483548	-2.2985599e-05	-1.00261e-05	1.2349649	0.74628087	-1.6065571	-0.55617145	1.6065688	0.55616954	-0.31648262	2.5867579	0.028275991	0.25852601	0.06149327	0.18930315	0.38252414	0.18930488	0.38251843	0.022175941	0.35382866	0.037442208	4.2431594	5.3710244	5.1517469	4.9872509	5.1517545	4.987245	4.3788823	6.2248431	5.2481772	2.7354715	3.356815	5.2749395	3.356837	5.2748859	3.6892914	3.1284095	-73.578354	R0:S0:1	-57.134069	uncorrelated	51514b8	2022-04-17@17:17
2x2_2C_8b_C2v_L	4.654155	0	14	2.3899483	0.0058255248	-3.1783192	-3.9408312	-0.12322063	-3.9408332	-0.12321834	0.16476045	-3.5922126	9.5275862	-1.4336323e-05	4.9986387e-06	0.009258854	-0.18390315	0.0092580916	-0.18390304	2.6335707e-06	1.874471e-06	-0.11679833	-1.0861734	1.7269421	0.037563046	-1.7269425	-0.037557944	0.25347613	-2.2868957	2.0844	1	0.20385862	0.012992128	1.253939	1.6113335	-0.60614818	-0.19880397	0.082385369	0.13056756	0.28398226	1.9372357	1.7933482	1.5350275	1.7933493	1.5350244	0.021285095	1.5391027	1.0984203	0.00013540214	-1.1882066e-05	0.11559958	1.2406637	0.11560284	1.2406831	-1.3198082e-05	-5.8889074e-07	1.2265956	0.74416114	-1.599231	-0.57122941	1.5992247	0.57120194	-0.31328547	2.5787937	0.028343065	0.25260732	0.060915275	0.18764546	0.38225522	0.18764451	0.38225765	0.02154189	0.35263271	0.037305511	4.2235247	5.372179	5.1465415	5.003844	5.146539	5.0038301	4.3723472	6.2145751	5.2538327	2.7345825	3.3539743	5.2670949	3.3539674	5.2671135	3.6932596	3.1366578	-73.692072	R0:S0:1	-57.101103	uncorrelated	51514b8	2022-04-17@17:29
2x2_2C_8b_C2v_L	4.8072619	0	14	2.419931	0.0048256746	-3.1902021	-3.9448516	-0.12084252	-3.9448498	-0.12084261	0.16216927	-3.58987	9.5534483	-1.0427628e-05	-1.913956e-06	0.0097330187	-0.18167047	0.0097344933	-0.18167013	-1.8734899e-06	-3.8282567e-06	-0.11622291	-1.0862555	1.7246761	0.040332876	-1.7246749	-0.040337276	0.25081504	-2.2824394	2.0792	1	0.20514483	0.013431893	1.2546926	1.6127288	-0.60287639	-0.19709734	0.081644765	0.13093244	0.27701297	1.9379746	1.7956174	1.5398285	1.7956165	1.5398325	0.020669208	1.5430223	1.0996152	0.00010002454	1.4842745e-06	0.11407635	1.2275576	0.1140728	1.2275318	1.4696621e-05	7.1576673e-06	1.2156263	0.74116062	-1.591178	-0.57943602	1.5911849	0.57945793	-0.31025634	2.5684681	0.028411063	0.24678672	0.06023424	0.18585053	0.37854988	0.18585131	0.37854836	0.020894888	0.35097114	0.03714016	4.1913304	5.3762413	5.1449515	5.0132027	5.1449531	5.0132144	4.3660052	6.200156	5.2565052	2.734042	3.3555871	5.2453588	3.3555995	5.2453342	3.6977552	3.1476323	-73.810027	R0:S0:1	-57.068138	uncorrelated	51514b8	2022-04-17@17:40
2x2_2C_8b_C2v_L	4.9649541	0	14	2.4499138	0.0041050473	-3.1923044	-3.9456583	-0.11942766	-3.9456585	-0.11942854	0.16104195	-3.5885258	9.5793103	-5.610931e-06	1.769585e-06	0.0099501555	-0.18023925	0.0099502426	-0.18023913	-1.2127509e-06	4.5917337e-08	-0.11571422	-1.0846931	1.7214355	0.041701805	-1.7214348	-0.041703585	0.24935026	-2.2776992	2.074	1	0.20643103	0.013632732	1.2555838	1.6141922	-0.59923232	-0.19494972	0.080754449	0.13130497	0.26646746	1.9389019	1.7982125	1.5532898	1.7982122	1.5532947	0.020042705	1.5485989	1.1009845	5.3994599e-05	-5.1666964e-06	0.1118139	1.2076741	0.11181475	1.2076602	7.9418787e-06	1.8670402e-06	1.1991234	0.73640103	-1.5820953	-0.57627624	1.5820979	0.57628502	-0.30794871	2.5544358	0.028480817	0.23902257	0.059392874	0.18386186	0.37098996	0.18386214	0.37098711	0.020245706	0.34852543	0.036926201	4.1352202	5.3854545	5.1484764	5.0099569	5.1484775	5.0099606	4.3604657	6.1788998	5.2568527	2.7331056	3.363927	5.2038695	3.363934	5.2038524	3.7026589	3.1630139	-73.897996	R0:S0:1	-57.035172	uncorrelated	51514b8	2022-04-17@17:49
2x2_2C_8b_C2v_L	5.114233	0	14	2.4798966	0.0028736831	-3.2032532	-3.9490215	-0.11566198	-3.9490223	-0.11566343	0.15710634	-3.5852979	9.6051724	-4.4907637e-06	-9.5486361e-07	0.010330323	-0.17701996	0.010330659	-0.1770201	2.6068597e-06	6.9383933e-06	-0.11496526	-1.08476	1.7192004	0.044745818	-1.7192006	-0.044747309	0.24561554	-2.2734404	2.0688	1	0.20771724	0.014003849	1.2562279	1.6154692	-0.59632392	-0.19354044	0.080130899	0.13165353	0.26301862	1.9393786	1.800131	1.5507652	1.8001306	1.5507731	0.019552786	1.5512806	1.1020246	4.3369345e-05	6.240343e-06	0.11048209	1.1992615	0.11048448	1.199253	-2.1164805e-05	-1.3312317e-05	1.1910849	0.73512907	-1.5750573	-0.58883661	1.5750584	0.58884539	-0.30446569	2.547011	0.028545241	0.23535166	0.058943083	0.18227991	0.37089212	0.18228027	0.37088652	0.019728727	0.34736699	0.036795563	4.1225801	5.3852822	5.1435578	5.0284087	5.1435609	5.0284092	4.3537191	6.1696403	5.2626033	2.733006	3.3602032	5.1996777	3.3602053	5.1996581	3.7068314	3.169908	-74.004798	R0:S0:1	-57.002207	uncorrelated	51514b8	2022-04-17@18:05
2x2_2C_8b_C2v_L	5.2719769	0	14	2.5098793	0.0019244737	-3.2109134	-3.9502419	-0.11435915	-3.9502413	-0.11435842	0.15553402	-3.5819362	9.6310345	-2.7337447e-06	-4.7384316e-07	0.010494542	-0.17550476	0.010494106	-0.17550449	3.7304188e-06	3.6765277e-06	-0.11447692	-1.084027	1.7160984	0.046040202	-1.7160986	-0.046038775	0.24372722	-2.2681198	2.0636	1	0.20900345	0.014097407	1.2571185	1.6169185	-0.59269492	-0.19136702	0.07924346	0.13201518	0.25327936	1.9402843	1.802689	1.5644925	1.802689	1.5644943	0.018920564	1.5567098	1.1033599	2.6596512e-05	3.9042971e-06	0.10827275	1.1787218	0.1082747	1.1787258	-2.4678596e-05	-8.4457942e-06	1.1747211	0.73069178	-1.5661207	-0.58472315	1.5661198	0.584718	-0.3017038	2.5332125	0.028612898	0.2282153	0.058119672	0.18031038	0.36297017	0.18031045	0.36296903	0.019079067	0.34491396	0.036584576	4.0694592	5.3939325	5.1474646	5.0245746	5.147466	5.0245708	4.3478224	6.1492705	5.2628126	2.7325142	3.3685143	5.1579132	3.3685114	5.1579119	3.7119488	3.1845682	-74.102045	R0:S0:1	-56.969241	uncorrelated	51514b8	2022-04-17@18:15
2x2_2C_8b_C2v_L	5.4222909	0	14	2.5398621	0.00030371895	-3.2214347	-3.953531	-0.11041543	-3.9535315	-0.11041363	0.15140434	-3.5796966	9.6568966	-2.0671147e-06	-8.8930672e-06	0.010778933	-0.17201292	0.010781283	-0.17201154	-5.9878474e-06	-8.9549553e-06	-0.11368373	-1.0839388	1.7139106	0.048770043	-1.7139107	-0.048776333	0.239749	-2.2642107	2.0584	1	0.21028966	0.014329698	1.2577878	1.6182275	-0.58969425	-0.18987919	0.078599333	0.13236375	0.24999517	1.940756	1.8046203	1.5630045	1.8046184	1.563	0.018447405	1.5595967	1.1044084	2.1105995e-05	1.5251329e-05	0.10661544	1.1685317	0.1066058	1.1684965	4.0718812e-05	1.4014939e-05	1.1658601	0.7293594	-1.5590323	-0.59497053	1.5590464	0.59500383	-0.29797303	2.5254484	0.028677141	0.22493051	0.057675281	0.17871621	0.36237012	0.17871784	0.36237529	0.018584603	0.34361543	0.036449227	4.0554152	5.3941161	5.1434019	5.0424867	5.143401	5.042506	4.3411696	6.1391683	5.26836	2.7324736	3.3653508	5.1522583	3.3653689	5.1522452	3.7161067	3.1914398	-74.209239	R0:S0:1	-56.936276	uncorrelated	51514b8	2022-04-17@18:30
2x2_2C_8b_C2v_L	5.5762879	0	14	2.5698448	-0.0014585348	-3.2310444	-3.9556345	-0.10794797	-3.9556404	-0.10794986	0.14833268	-3.5766338	9.6827586	-5.6007724e-06	2.0734198e-08	0.010978477	-0.16934954	0.010978032	-0.16935017	4.3820849e-06	9.5141176e-06	-0.11304741	-1.0836036	1.7113415	0.050910011	-1.7113426	-0.05090977	0.23647315	-2.2596067	2.0532	1	0.21157586	0.014438924	1.2585641	1.6196118	-0.58638586	-0.1880532	0.077839136	0.13272091	0.24422292	1.9413943	1.8067977	1.5696819	1.8067982	1.5696887	0.017887164	1.5636305	1.1055783	5.9652912e-05	6.2483652e-06	0.10484371	1.1521806	0.10484786	1.152188	-3.3991693e-05	-1.8301475e-05	1.1538685	0.72673563	-1.5512522	-0.59824231	1.5512474	0.59824101	-0.29432409	2.5150374	0.028743327	0.22041991	0.057087099	0.17698387	0.357556	0.17698345	0.35754978	0.018008687	0.34175557	0.036282029	4.0243236	5.3982428	5.1437626	5.0496777	5.1437647	5.0496736	4.3349003	6.1245521	5.2707487	2.7323126	3.3679185	5.1277146	3.367912	5.1277067	3.720671	3.2015001	-74.312578	R0:S0:1	-56.90331	uncorrelated	51514b8	2022-04-17@18:45
2x2_2C_8b_C2v_L	5.7319366	0	14	2.5998276	-0.003223184	-3.2505168	-3.9602534	-0.10560658	-3.9602603	-0.10560715	0.14540691	-3.5751122	9.7086207	1.8789058e-05	-1.5610508e-05	0.01112974	-0.16678903	0.011131113	-0.16678979	2.8520403e-06	7.8589915e-06	-0.11246835	-1.0847281	1.7092222	0.0527682	-1.7092247	-0.052768581	0.23336085	-2.2553898	2.048	1	0.21286207	0.014476825	1.2593829	1.621035	-0.58293048	-0.18608888	0.077033773	0.13307076	0.23804755	1.9421159	1.8091596	1.5778117	1.8091596	1.5778108	0.01732339	1.5681143	1.106775	-0.00020483762	4.0649134e-05	0.10280447	1.1343134	0.1028014	1.1343235	-2.5107325e-05	-2.1097903e-05	1.140782	0.72389299	-1.5428981	-0.5989551	1.5428964	0.59895867	-0.29072682	2.5035942	0.028808138	0.21569942	0.056423047	0.17510706	0.35201276	0.17510702	0.3520124	0.017431297	0.33964812	0.036102576	3.9904251	5.4029096	5.1448003	5.0545674	5.1448011	5.054565	4.3285326	6.1082575	5.2729802	2.7324994	3.3715885	5.0996872	3.3715812	5.0996953	3.7254395	3.2124952	-74.45069	R0:S0:1	-56.870345	uncorrelated	51514b8	2022-04-17@19:00
2x2_2C_8b_C2v_L	5.8889639	0	14	2.6298103	-0.003854462	-3.2526114	-3.9604416	-0.10392975	-3.9604436	-0.10392852	0.14326187	-3.5715482	9.7344828	1.7763634e-05	-4.9585369e-07	0.011080229	-0.16544273	0.01108024	-0.1654424	7.7606169e-07	-9.7202113e-08	-0.11196451	-1.0829566	1.7057326	0.05315435	-1.705733	-0.053152843	0.23162855	-2.2497465	2.0428	1	0.21414828	0.014381907	1.260261	1.6223654	-0.57946136	-0.18384296	0.076148452	0.13340861	0.22915068	1.9429247	1.8116495	1.5902078	1.8116494	1.5902084	0.016824491	1.5735913	1.1080462	-0.00019744435	-3.671466e-07	0.10020846	1.1145092	0.10020884	1.1145068	-1.7179571e-06	1.1423229e-06	1.1231555	0.71980822	-1.5341981	-0.5898339	1.5341996	0.58982773	-0.2882934	2.4898737	0.028871156	0.20897199	0.055686173	0.17316636	0.34502906	0.17316645	0.34502958	0.016923347	0.33701248	0.035893635	3.9400467	5.411041	5.1492002	5.0477509	5.1491998	5.0477464	4.322953	6.0879966	5.2749229	2.7321434	3.3797271	5.0603893	3.3797303	5.0603882	3.7304529	3.2260854	-74.529519	R0:S0:1	-56.837379	uncorrelated	51514b8	2022-04-17@19:10
2x2_2C_8b_C2v_L	6.0391776	0	14	2.6597931	-0.0066519712	-3.2656827	-3.9627081	-0.099944689	-3.9627139	-0.099945085	0.13781468	-3.5661789	9.7603448	-6.1013618e-07	1.3256342e-05	0.011209445	-0.16139209	0.011210861	-0.16139223	1.3133795e-06	4.0989411e-06	-0.11124293	-1.0832111	1.7034623	0.055815319	-1.7034624	-0.055815138	0.22646048	-2.2449618	2.0376	1	0.21543448	0.014450348	1.2609213	1.6236663	-0.5764796	-0.18236543	0.07552041	0.13373751	0.22828498	1.9432456	1.8134806	1.5890119	1.8134812	1.5890178	0.016346391	1.5761428	1.1090322	6.1954863e-06	-2.7960875e-05	0.098653827	1.1022851	0.098656931	1.1022832	-7.2058349e-06	2.3957936e-07	1.1165789	0.71949486	-1.5273646	-0.59941883	1.5273619	0.59941515	-0.28348985	2.4827047	0.028931481	0.20800322	0.055379179	0.17163465	0.34399718	0.17163414	0.34399254	0.016432202	0.33579624	0.035765221	3.9360149	5.4092886	5.1455444	5.0678568	5.1455445	5.0678543	4.315664	6.0794695	5.2793495	2.7330987	3.3759085	5.0561739	3.3759095	5.0561614	3.7349922	3.2315527	-74.630636	R0:S0:1	-56.804414	uncorrelated	51514b8	2022-04-17@19:26
2x2_2C_8b_C2v_L	6.1978199	0	14	2.6897759	-0.007936909	-3.2684588	-3.9633642	-0.098820413	-3.9633693	-0.098819275	0.13604013	-3.5637474	9.7862069	3.329572e-06	1.4773127e-08	0.011224026	-0.15979611	0.011223449	-0.15979591	3.6734218e-06	5.0304971e-06	-0.11070412	-1.08155	1.7002104	0.056591418	-1.7002119	-0.056588816	0.22441341	-2.2398286	2.0324	1	0.21672069	0.0143197	1.2618376	1.625077	-0.57285646	-0.18001443	0.07460041	0.13409262	0.21896065	1.9440751	1.8159659	1.6045714	1.815966	1.6045735	0.015765055	1.581777	1.1103197	-4.0086456e-05	2.9206645e-06	0.096298733	1.0789162	0.096301346	1.0789222	-2.3853958e-05	-9.1517783e-06	1.0984623	0.71509701	-1.5187556	-0.59023548	1.5187541	0.59022545	-0.28026257	2.4689876	0.028997535	0.2010658	0.054623618	0.16970637	0.33468313	0.16970627	0.33468171	0.015845076	0.33300595	0.035556817	3.8818034	5.4187068	5.151646	5.0581541	5.1516468	5.0581477	4.3105121	6.0588543	5.2800553	2.7322816	3.3856061	5.0090406	3.3856033	5.0090405	3.7395637	3.2449384	-74.71855	R0:S0:1	-56.771448	uncorrelated	51514b8	2022-04-17@19:36
2x2_2C_8b_C2v_L	6.3496042	0	14	2.7197586	-0.010607343	-3.2865238	-3.9649625	-0.09580973	-3.9649531	-0.095805192	0.13165087	-3.5598145	9.812069	1.1516502e-05	1.2324747e-05	0.011307537	-0.15661612	0.011306453	-0.1566159	2.3580315e-06	5.0744865e-06	-0.1103335	-1.0822502	1.6973878	0.05874077	-1.6973857	-0.058737582	0.22039242	-2.2348459	2.0272	1	0.2180069	0.014297933	1.2625465	1.6263587	-0.56978696	-0.17832849	0.073913149	0.13439792	0.21759165	1.94446	1.8179816	1.6068929	1.8179817	1.6068986	0.015339533	1.5850894	1.1113183	-0.00016464296	-2.8437707e-05	0.094556566	1.0643699	0.09456216	1.0643684	-6.5141362e-06	2.2110464e-06	1.0911045	0.71443032	-1.5113191	-0.5947593	1.5113188	0.59474004	-0.27633563	2.4601082	0.029053681	0.20005019	0.054261828	0.16804664	0.33196748	0.16804656	0.33196459	0.015411439	0.33136293	0.035412052	3.8731032	5.4181562	5.1501826	5.0712767	5.1501842	5.071263	4.3036744	6.0473718	5.2829413	2.7338084	3.3846459	4.9959788	3.3846506	4.9959671	3.7443347	3.2519969	-74.83297	R0:S0:1	-56.738483	uncorrelated	51514b8	2022-04-17@19:47
2x2_2C_8b_C2v_L	6.5002924	0	14	2.7497414	-0.013038055	-3.3060184	-3.9672199	-0.090924369	-3.9671562	-0.090915183	0.12408827	-3.5517699	9.837931	1.9242736e-05	-3.7498531e-06	0.011030212	-0.15263718	0.011028797	-0.15263783	3.5327508e-06	-2.5251349e-06	-0.10974486	-1.0832888	1.6951113	0.059720242	-1.6951001	-0.059712048	0.21467432	-2.2289693	2.022	1	0.2192931	0.014182277	1.2632223	1.6275906	-0.56681555	-0.17673521	0.073261562	0.13468807	0.21747402	1.9447754	1.8198699	1.604355	1.8198703	1.6043497	0.014918464	1.5878651	1.1122808	-0.00030507952	2.9085733e-07	0.092321042	1.0526279	0.092322268	1.052656	-3.964271e-06	9.0269878e-06	1.0838717	0.71447966	-1.5042829	-0.5968581	1.504277	0.59681242	-0.27132769	2.4520407	0.029106901	0.19976774	0.053959267	0.16645276	0.33257802	0.16645245	0.3325841	0.014980824	0.32997421	0.035270991	3.8725438	5.415216	5.1467107	5.0899651	5.1467158	5.0899411	4.2955622	6.038116	5.2884382	2.7358011	3.3806931	4.9958171	3.3806847	4.9958349	3.7496787	3.2577352	-74.936208	R0:S0:1	-56.705517	uncorrelated	51514b8	2022-04-17@20:09
2x2_2C_8b_C2v_L	6.6535229	0	14	2.7797241	-0.01562988	-3.3116373	-3.968758	-0.087718304	-3.9687291	-0.087712433	0.11886846	-3.5482965	9.8637931	7.9323109e-06	-8.3118472e-07	0.010937638	-0.14950584	0.010936417	-0.14950471	2.665055e-06	4.6134481e-08	-0.10924963	-1.0821178	1.6923127	0.061073961	-1.6923078	-0.061067725	0.21041988	-2.2239816	2.0168	1	0.22057931	0.014061731	1.2639737	1.6288838	-0.56364763	-0.17489125	0.072529677	0.13499893	0.21509443	1.9451711	1.82193	1.6083467	1.8219294	1.6083474	0.014483177	1.5916081	1.113316	-0.00014895252	-2.7292632e-06	0.090207523	1.0361166	0.090210256	1.0361191	-5.5360222e-06	3.9262363e-06	1.0741259	0.71326934	-1.4967979	-0.59660135	1.4968002	0.59657378	-0.26707823	2.4424025	0.029163981	0.19806444	0.053590033	0.16476501	0.32931606	0.16476552	0.32931801	0.014540306	0.32806382	0.035115109	3.85675	5.4162808	5.1467325	5.099224	5.1467351	5.0992073	4.289122	6.0249115	5.2918492	2.7366687	3.3813676	4.9787077	3.3813718	4.9787083	3.7542824	3.2653513	-75.02472	R0:S0:1	-56.672552	uncorrelated	51514b8	2022-04-17@20:30
