model	E_kin	D	U	e	eb1_1	eb2_1	eb3_1	eb4_1	eb5_1	eb6_1	eb7_1	eb8_1	mu	sb1_1	sb2_1	sb3_1	sb4_1	sb5_1	sb6_1	sb7_1	sb8_1	tb1_1	tb2_1	tb3_1	tb4_1	tb5_1	tb6_1	tb7_1	tb8_1	tpd	tpp	tppp	ave_D	ave_e	ave_mu	ave_tpd	ave_tpp	ave_tppp	ave_U_1	ave_eb1_1	ave_eb2_1	ave_eb3_1	ave_eb4_1	ave_eb5_1	ave_eb6_1	ave_eb7_1	ave_eb8_1	ave_mu_1	ave_sb1_1	ave_sb2_1	ave_sb3_1	ave_sb4_1	ave_sb5_1	ave_sb6_1	ave_sb7_1	ave_sb8_1	ave_tb1_1	ave_tb2_1	ave_tb3_1	ave_tb4_1	ave_tb5_1	ave_tb6_1	ave_tb7_1	ave_tb8_1	var_U_1	var_eb1_1	var_eb2_1	var_eb3_1	var_eb4_1	var_eb5_1	var_eb6_1	var_eb7_1	var_eb8_1	var_mu_1	var_sb1_1	var_sb2_1	var_sb3_1	var_sb4_1	var_sb5_1	var_sb6_1	var_sb7_1	var_sb8_1	var_tb1_1	var_tb2_1	var_tb3_1	var_tb4_1	var_tb5_1	var_tb6_1	var_tb7_1	var_tb8_1	E0_1	sector_1	E0_2	sector_2	githash	iterations	dist_function	distance	diff_hybrid	time
2x2_2C_8b_C2v_L	8.8091074	0	14	2.61	-0.093993138	-5.7258735	-5.7112004	-0.079040737	-5.7125409	-0.085632408	-0.12149574	-4.9073549	9.42	-4.4051142e-06	2.1548288e-05	4.5962065e-05	0.00018943247	0.00024726753	0.0063305628	5.4692746e-05	7.4993383e-05	0.0047071992	-0.95523617	1.3695041	0.024626756	-1.3696391	0.0242432	-0.02800751	-1.6858335	1.39	0.64	0.103	1.9257905e-06	1.3119891	1.6666934	-0.33043986	-0.048213099	0.02179941	0.064978942	1.9999977	1.9761673	1.9411537	1.9999176	1.9411654	1.9999114	1.9998835	1.8841555	1.0644069	1.1424332e-05	1.31266e-06	1.1378156e-05	-0.00021633909	-0.00018242248	-0.0097814339	-6.9244515e-05	-6.798555e-05	-0.0055397029	0.5615021	-0.94094927	-0.034893069	0.94083441	-0.034284056	0.043821943	1.3838747	0.015235637	2.32356e-06	0.023755549	0.058008767	8.2374417e-05	0.057997585	8.8698341e-05	0.00011649757	0.11133133	0.015132161	4.6926618	4.8601647	4.6691441	4.2359711	4.6692844	4.2361949	3.8677488	4.7163143	3.3073592	3.3527654	3.7836675	3.7646686	3.7834697	3.7644941	4.1329471	3.9827328	-85.414727	R0:S0:1	-54.48	uncorrelated	51514b8	1	sharp_wc_10.0_b_50	 3.44e+00	 7.99e-03	2022-03-29@14:59
2x2_2C_8b_C2v_L	8.8091373	0	14	2.61	-0.093987361	-5.7341908	-5.7136817	-0.081263741	-5.7146463	-0.087666792	-0.12295201	-4.9228049	9.43	-1.0317112e-05	-6.8035249e-05	0.00012568622	-9.2751794e-05	2.6512711e-05	-0.00017046128	8.4410551e-05	2.5186753e-05	0.0064130308	-0.95535658	1.3689939	0.021928297	-1.3690293	0.02303815	-0.024646688	-1.6865711	1.39	0.64	0.103	-5.9123431e-06	1.3119898	1.6666955	-0.33043465	-0.048211313	0.021798668	0.064981187	1.9999957	1.9761546	1.9411228	1.9999356	1.9411295	1.999929	1.9999098	1.8841833	1.0644099	2.1359088e-05	6.7678842e-05	-0.00011087923	0.00013983539	-5.5768643e-05	0.00026315322	-8.4918207e-05	-3.7260463e-05	-0.0075601015	0.56165961	-0.94117505	-0.031095725	0.94112509	-0.03263047	0.038619866	1.3837255	0.015236087	4.3203689e-06	0.023768191	0.058038923	6.443469e-05	0.058032412	7.0955273e-05	9.0217836e-05	0.11130596	0.015132306	4.6925955	4.8601734	4.6695848	4.2360745	4.6695104	4.2360957	3.8674868	4.7160913	3.3074435	3.3528621	3.7834775	3.764426	3.7834973	3.7644555	4.1330519	3.9828551	-85.522915	R0:S0:1	-54.56	uncorrelated	51514b8	1	sharp_wc_10.0_b_50	 3.44e+00	 6.91e-04	2022-03-29@15:06
2x2_2C_8b_C2v_L	8.8091808	0	14	2.61	-0.094996713	-5.79951	-5.7340143	-0.09683155	-5.7343358	-0.10293365	-0.13771055	-4.9347047	9.44	5.7333239e-05	-6.0132007e-06	-4.0987072e-05	3.1501145e-05	-1.2935799e-05	-0.00029238334	-0.00010479726	1.6728392e-05	0.017918105	-0.95819308	1.369749	0.025516126	-1.369589	0.028331432	-0.028931176	-1.6866385	1.39	0.64	0.103	1.2454849e-06	1.3119907	1.6666975	-0.33042702	-0.048208741	0.021797515	0.064951616	1.9999662	1.9762454	1.9411675	1.9999129	1.9411889	1.9998929	1.9998759	1.884226	1.0643811	-0.00012154823	8.4309414e-06	2.9585997e-05	-5.1434756e-05	1.9752141e-05	0.00044659618	0.00010466392	-1.2946182e-05	-0.02115831	0.56061409	-0.94084271	-0.03614641	0.94064989	-0.040085468	0.045289464	1.3834687	0.015229845	3.3838039e-05	0.02367788	0.057995413	8.7060494e-05	0.057974698	0.00010709125	0.00012406927	0.11126691	0.015126174	4.6925098	4.8592657	4.6690863	4.2360523	4.6690886	4.2363714	3.8677472	4.7157928	3.3077956	3.3529639	3.7836252	3.764624	3.7834787	3.7644605	4.1329935	3.9829156	-85.891466	R0:S0:1	-54.64	uncorrelated	51514b8	1	sharp_wc_10.0_b_50	 3.44e+00	 6.02e-04	2022-03-29@15:12
2x2_2C_8b_C2v_L	8.8092889	0	14	2.61	-0.099606152	-5.921588	-5.7691542	-0.12758123	-5.7689699	-0.13378518	-0.16726289	-4.9455388	9.45	4.7010549e-05	-9.0673627e-06	9.0961644e-05	0.00017121608	0.00016234285	0.0020473011	-0.00020105353	-5.5470101e-05	0.024458032	-0.96444371	1.3715041	0.032709617	-1.3714523	0.033130183	-0.034852316	-1.6864794	1.39	0.64	0.103	-4.1935548e-06	1.3119929	1.6667022	-0.33040798	-0.048202353	0.021794625	0.064882871	1.9999368	1.9764004	1.9412893	1.999858	1.941294	1.9998538	1.9998213	1.8842883	1.0643141	-9.1210509e-05	-7.7822005e-06	-6.5334211e-05	-0.00023182542	-0.00014702088	-0.0030916552	0.0001931106	3.1428906e-05	-0.028913909	0.55884075	-0.93989846	-0.046155097	0.93985092	-0.046690479	0.054348052	1.3830693	0.015215266	6.3182e-05	0.023523672	0.057877043	0.00014201873	0.057872469	0.0001462222	0.0001786929	0.11121011	0.015111914	4.6920215	4.8575322	4.6680035	4.2362353	4.6680448	4.2363418	3.8683063	4.7154731	3.3085488	3.35332	3.7837911	3.7648679	3.7837231	3.764794	4.1327609	3.9829108	-86.530329	R0:S0:1	-54.72	uncorrelated	51514b8	1	sharp_wc_10.0_b_50	 3.44e+00	 8.90e-04	2022-03-29@15:18
2x2_2C_8b_C2v_L	8.8093187	0	14	2.61	-0.12544202	-6.0491634	-5.7649947	-0.19137224	-5.7651486	-0.19730922	-0.22050921	-4.960852	9.46	-4.1862903e-05	-4.8835868e-05	-3.3718045e-05	-0.00017417833	-0.00025504865	-0.0046604928	0.00021693574	-4.9676794e-05	0.032881523	-0.97053097	1.369919	0.037094459	-1.3699916	0.037550192	-0.039527523	-1.6869002	1.39	0.64	0.103	-3.2238668e-06	1.3119936	1.666703	-0.3304033	-0.048199623	0.021793534	0.06486917	1.9998864	1.9765839	1.9412753	1.9998208	1.9412675	1.9998125	1.9997738	1.8843656	1.0643012	7.4788754e-05	3.2460457e-05	-2.9804039e-05	0.00020265064	0.00018227218	0.0069042809	-0.000200935	4.2403848e-05	-0.038766616	0.55670834	-0.93996136	-0.051820526	0.94005216	-0.052396426	0.061134545	1.3826256	0.015212876	0.00011358274	0.023341161	0.057890652	0.00017920128	0.057898106	0.00018754525	0.0002261561	0.11113926	0.015109835	4.6918439	4.8557564	4.6684205	4.2368713	4.6682905	4.2367094	3.8685333	4.7148176	3.3091814	3.353472	3.7834755	3.7645204	3.7836294	3.7647472	4.1328177	3.9831298	-87.253292	R0:S0:1	-54.8	uncorrelated	51514b8	1	sharp_wc_10.0_b_50	 3.44e+00	 1.12e-03	2022-03-29@15:24
2x2_2C_8b_C2v_L	8.809319	0	14	2.61	-0.23669911	-5.998917	-5.8068109	-0.30947769	-5.8102556	-0.31487305	-0.32405291	-4.9758535	9.47	0.00051748026	-4.4948219e-05	-3.8763986e-05	0.00025810055	-2.5833468e-05	-0.00087803955	0.00021416343	5.0325396e-05	0.037948992	-0.9665068	1.3714552	0.053105656	-1.3718069	0.052612116	-0.051832145	-1.6866761	1.39	0.64	0.103	-2.3833755e-06	1.3119935	1.6667058	-0.3304025	-0.048200998	0.021794017	0.064869773	1.999854	1.9765353	1.9414872	1.9996478	1.9414903	1.9996548	1.9996245	1.8845005	1.0643013	-0.0010489673	5.8728159e-05	2.2608052e-06	-0.00038450017	1.330009e-05	0.0012645601	-0.00021159363	-6.512763e-05	-0.043943642	0.55725289	-0.93829652	-0.072713044	0.93829001	-0.071970685	0.078790692	1.3818219	0.015212624	0.00014600764	0.023389526	0.057684739	0.0003522105	0.057681625	0.00034517098	0.00037548407	0.11101465	0.015109283	4.6924607	4.8564579	4.6666728	4.2379342	4.6665187	4.2377361	3.8696252	4.7138164	3.3088565	3.3531959	3.7835987	3.7648003	3.7837202	3.7649437	4.1326187	3.9832923	-88.297991	R0:S0:1	-54.88	uncorrelated	51514b8	1	sharp_wc_10.0_b_50	 3.44e+00	 1.84e-03	2022-03-29@15:30
2x2_2C_8b_C2v_L	8.809223	0	14	2.61	-0.43384807	-5.8397244	-5.8153234	-0.50219296	-5.8151703	-0.50823606	-0.48627483	-4.9935735	9.48	-0.0013605181	0.00010027814	2.4786718e-05	-0.00054114298	-0.000165366	-0.00235303	0.00066131746	-6.5539097e-05	0.0034551359	-0.95874401	1.3704256	0.062764002	-1.3704871	0.062432628	-0.062678789	-1.6869008	1.39	0.64	0.103	-3.2068356e-06	1.3119913	1.6667057	-0.3304186	-0.048207816	0.021797104	0.064942169	1.9999984	1.9762212	1.9415577	1.9995392	1.9415488	1.9995442	1.9994801	1.8846231	1.0643711	0.0025756152	-8.9604041e-05	-6.4496713e-05	0.00071166957	0.0001204446	0.0032035578	-0.00060668476	8.3898928e-05	-0.0038727508	0.56089072	-0.93771019	-0.083168107	0.93779399	-0.082643071	0.092701633	1.3811169	0.015227799	1.6305657e-06	0.023701963	0.057616314	0.00046072911	0.057624885	0.00045574957	0.00051976127	0.11090087	0.015124104	4.6923856	4.8595405	4.6662818	4.2388861	4.6662576	4.2387491	3.8705074	4.712752	3.3076277	3.3529135	3.783441	3.7646889	3.7835196	3.7647871	4.1326004	3.9835436	-89.571461	R0:S0:1	-54.96	uncorrelated	51514b8	1	sharp_wc_10.0_b_50	 3.44e+00	 1.70e-03	2022-03-29@15:35
2x2_2C_8b_C2v_L	8.8092594	0	14	2.61	-0.71889907	-5.828684	-5.8524749	-0.77628311	-5.853365	-0.78342425	-0.71897933	-5.0147152	9.49	0.00024629281	-8.0521108e-05	8.220578e-06	9.1616322e-05	-3.1080227e-05	2.072577e-05	-6.6756544e-05	4.0292383e-05	-0.013158454	-0.95739339	1.3704254	0.085138459	-1.3705839	0.084417189	-0.084192539	-1.6863788	1.39	0.64	0.103	4.3321591e-07	1.3119919	1.6667148	-0.33041102	-0.048207479	0.021796881	0.06496422	1.999985	1.9762017	1.9418487	1.9992264	1.9418461	1.9992413	1.9991326	1.8849468	1.0643929	-0.00043122873	7.8149623e-05	1.4986538e-06	-0.00011609738	1.8100025e-05	-2.5312055e-05	5.7296418e-05	-4.7355699e-05	0.014091668	0.56109978	-0.93537753	-0.10778596	0.93539055	-0.10674167	0.11974996	1.3791813	0.015232514	1.5024075e-05	0.023721384	0.057333395	0.0007734895	0.057335955	0.00075858371	0.00086712774	0.11060232	0.015128704	4.6927307	4.8599098	4.6641057	4.2411759	4.6641886	4.2411281	3.8730448	4.7103498	3.3074046	3.3527177	3.7833496	3.7648213	3.7833044	3.7647536	4.1321447	3.9839621	-91.917147	R0:S0:1	-55.04	uncorrelated	51514b8	1	sharp_wc_10.0_b_50	 3.44e+00	 3.14e-03	2022-03-29@15:40
2x2_2C_8b_C2v_L	8.8093345	0	14	2.61	-1.0918392	-5.9649241	-5.9180443	-1.132236	-5.923556	-1.1407782	-1.0229208	-5.0443578	9.5	0.005756621	0.00011333088	-0.00024166756	0.0012873675	0.0007043366	0.0039605529	-0.0012942456	0.00013697051	-0.014033946	-0.96449676	1.3705497	0.11699018	-1.3707617	0.11849388	-0.10689798	-1.6863549	1.39	0.64	0.103	2.7272436e-06	1.3119934	1.6667193	-0.33039745	-0.048203671	0.021795144	0.0648822	1.9999788	1.9763761	1.9424248	1.9986961	1.9424626	1.9986644	1.9987331	1.8854039	1.064311	-0.009208689	-0.00012008562	0.00021546244	-0.0014949546	-0.00048466878	-0.0046963724	0.0011152474	-2.0975575e-05	0.014198012	0.55909514	-0.93074687	-0.13994065	0.93045477	-0.14155048	0.14471978	1.376481	0.015215201	2.1208621e-05	0.023547871	0.056773356	0.0013034741	0.05673659	0.0013351591	0.0012663805	0.11018118	0.015111809	4.6920645	4.8580828	4.6597779	4.2449894	4.6594139	4.2451181	3.8756855	4.7067739	3.3081094	3.3530116	3.7832569	3.7651095	3.7833237	3.765226	4.131903	3.9848207	-95.343309	R0:S0:1	-55.12	uncorrelated	51514b8	1	sharp_wc_10.0_b_50	 3.44e+00	 7.60e-04	2022-03-29@15:44
2x2_2C_8b_C2v_L	8.8092683	0	14	2.61	-1.5532799	-6.0466562	-5.9597163	-1.5811392	-5.962816	-1.5933906	-1.4025052	-5.0686187	9.51	0.022194122	0.0031648291	5.6664383e-05	-0.00066181093	-0.00036560644	-0.0022747953	-0.00082981136	7.0434939e-05	0.085011462	-0.96201963	1.3679352	0.14983359	-1.3679869	0.15108258	-0.13917494	-1.6841883	1.39	0.64	0.103	-2.2165472e-06	1.3119909	1.6667237	-0.33040522	-0.048211478	0.021798457	0.064912622	1.9994403	1.9767914	1.9429703	1.998132	1.9429948	1.998107	1.9980893	1.8859959	1.064334	-0.03215237	-0.0025146356	-5.3311891e-05	0.00072513874	0.00022873474	0.0025026493	0.00056568938	-0.0003923164	-0.080441423	0.55414982	-0.92630654	-0.16752328	0.92612415	-0.16862078	0.17769638	1.3728432	0.015221698	0.00055966479	0.023135108	0.056243018	0.0018672003	0.056219082	0.0018921023	0.0019094553	0.10963485	0.015120499	4.6953577	4.8551962	4.6558399	4.2492579	4.6555349	4.2493064	3.8805401	4.7024773	3.309474	3.3521294	3.7829825	3.7651956	3.783083	3.765339	4.1309169	3.9855128	-99.243069	R0:S0:1	-55.2	uncorrelated	51514b8	1	sharp_wc_10.0_b_50	 3.44e+00	 2.09e-03	2022-03-29@15:49
2x2_2C_8b_C2v_L	8.80937	0	14	2.61	-2.1155873	-6.0927166	-5.9788469	-2.1228577	-5.9728078	-2.1411721	-1.8579598	-5.0941743	9.52	0.0062196675	0.0013985364	0.00088479959	-0.0041685399	-0.0027954816	-0.01322048	0.0014046386	-0.00010108281	0.13553076	-0.95452946	1.3628762	0.1840668	-1.3629868	0.18199014	-0.17619206	-1.6810952	1.39	0.64	0.103	-1.0364785e-05	1.3119935	1.6667298	-0.33038938	-0.048203221	0.021795014	0.064951532	1.9989279	1.977295	1.9434771	1.9975785	1.9434217	1.9976339	1.9973215	1.8867929	1.0643783	-0.0081316939	-0.0010644288	-0.00076517088	0.0040968644	0.0018884258	0.013207436	-0.0010918467	5.2027526e-06	-0.11885066	0.54808694	-0.92220499	-0.19072585	0.92260354	-0.188054	0.21042583	1.3680586	0.015229966	0.0010719464	0.022634638	0.055749876	0.0024200548	0.05580408	0.0023648004	0.0026760414	0.10889954	0.015127041	4.6997669	4.8518944	4.6519266	4.2531653	4.6527828	4.2531452	3.886361	4.6968472	3.3098452	3.3509284	3.7829258	3.765547	3.7825549	3.7651415	4.1297206	3.9864195	-103.69824	R0:S0:1	-55.28	uncorrelated	51514b8	1	sharp_wc_10.0_b_50	 3.44e+00	 9.83e-03	2022-03-29@15:53
2x2_2C_8b_C2v_L	8.8091874	0	14	2.61	-2.7784735	-6.106578	-5.9853807	-2.756415	-5.9652982	-2.7833686	-2.3879783	-5.1247558	9.53	-0.026739386	-0.005661335	0.00092089889	-0.0037395666	-0.0028672254	-0.012778317	0.0023684976	-0.00046247559	0.13937504	-0.95547762	1.3563473	0.21968223	-1.3574252	0.20926516	-0.2251562	-1.6757481	1.39	0.64	0.103	-8.7097225e-06	1.3119895	1.6667143	-0.33042105	-0.048214023	0.021799747	0.064919493	1.9989808	1.9772641	1.9439738	1.9970761	1.9436999	1.997357	1.9962139	1.8879294	1.0643387	0.031237729	0.0044802677	-0.00077287387	0.0033489862	0.001941009	0.011630243	-0.0016001412	0.00061201968	-0.11248617	0.54846429	-0.9181471	-0.20963509	0.92030786	-0.19895564	0.25017329	1.3612067	0.015223195	0.0010190397	0.022665357	0.055266702	0.00292186	0.055533566	0.0026413541	0.0037811436	0.10784898	0.015122343	4.6986583	4.8518851	4.6481933	4.2567933	4.6508438	4.2553204	3.8940435	4.6881208	3.3103081	3.3512202	3.782836	3.7657782	3.7823823	3.7650857	4.1287136	3.9882528	-108.76233	R0:S0:1	-55.36	uncorrelated	51514b8	1	sharp_wc_10.0_b_50	 3.44e+00	 2.30e-03	2022-03-29@15:57
2x2_2C_8b_C2v_L	8.8086461	0	14	2.61	-3.5419283	-6.0871638	-5.9801202	-3.4811297	-5.9423134	-3.5194806	-2.9902765	-5.1439003	9.54	-0.0666439	-0.0089697105	-0.00010333797	0.00046915607	-0.00026755782	-0.0010591172	0.0021516964	-0.00050021573	0.098975662	-0.96345617	1.3479108	0.26026145	-1.3514007	0.23517154	-0.30226674	-1.6623066	1.39	0.64	0.103	-6.3382601e-07	1.3119764	1.6666909	-0.33051014	-0.048251685	0.021816093	0.064932265	1.999289	1.9767697	1.944502	1.9965507	1.9438464	1.9972095	1.994137	1.8898014	1.0643187	0.069840992	0.0070960801	3.0791432e-05	-0.00040796566	0.00020328952	0.00086915229	-0.0013493332	0.00060310857	-0.073141518	0.55435588	-0.91377607	-0.22773651	0.91907911	-0.20482144	0.31128742	1.3497218	0.015226164	0.00071090246	0.023156724	0.054753004	0.003446392	0.055391328	0.0027886316	0.0058512099	0.1061146	0.015134583	4.694466	4.8554306	4.6443555	4.2607157	4.6497718	4.2564715	3.9087913	4.6737534	3.311069	3.3520655	3.7826627	3.7658885	3.7823733	3.7650543	4.1264702	3.9909535	-114.40009	R0:S0:1	-55.44	uncorrelated	51514b8	1	sharp_wc_10.0_b_50	 3.44e+00	 1.31e-03	2022-03-29@16:01
2x2_2C_8b_C2v_L	8.8087612	0	14	2.61	-4.4063686	-6.0382286	-5.9607787	-4.2957914	-5.9085399	-4.349211	-3.6650321	-5.1656935	9.55	-0.063457176	-0.00093904183	-0.0024013127	0.0083457193	0.0048327572	0.021157592	0.00083445888	-0.00030663985	0.014675303	-0.96691397	1.3358982	0.31116935	-1.3455129	0.25966408	-0.40250103	-1.6409475	1.39	0.64	0.103	6.0726489e-06	1.3119799	1.6666884	-0.33049395	-0.048240204	0.021811266	0.064915246	1.9997738	1.9763609	1.9451872	1.9958752	1.9438994	1.9971463	1.9911389	1.892901	1.0643093	0.059679977	0.00071709516	0.0016572437	-0.0063244981	-0.0031869058	-0.016024846	-0.00051698926	0.00021497364	-0.0099032652	0.5592536	-0.90816307	-0.24900452	0.9186204	-0.20651596	0.38273586	1.3306573	0.015222346	0.00022619235	0.023563044	0.054085818	0.0041206858	0.055339927	0.0028517899	0.0088344168	0.10324257	0.015128516	4.6917163	4.8582479	4.6389684	4.2653098	4.6495822	4.2570155	3.9308755	4.6512121	3.3097186	3.3529368	3.7827447	3.7664713	3.7821814	3.7649753	4.1224873	3.9949544	-120.64589	R0:S0:1	-55.52	uncorrelated	51514b8	1	sharp_wc_10.0_b_50	 3.44e+00	 2.13e-03	2022-03-29@16:05
2x2_2C_8b_C2v_L	8.8090035	0	14	2.61	-5.3718465	-5.9640861	-5.9222156	-5.1994772	-5.8699078	-5.2727536	-4.4028533	-5.1370896	9.56	-0.018986054	0.0024264008	-0.0063854209	0.021009898	0.0111708	0.049890531	-0.0019999275	0.00064603572	-0.11185548	-0.9542609	1.3191199	0.37457122	-1.3404953	0.28193039	-0.54297124	-1.5975119	1.39	0.64	0.103	-2.0300318e-07	1.3119863	1.6666887	-0.33045717	-0.048218477	0.021801946	0.064937049	1.9996269	1.9766225	1.9460503	1.995003	1.9438518	1.9971425	1.9862822	1.8977999	1.0643479	0.016058902	-0.0019700265	0.0042295031	-0.014592515	-0.0073918098	-0.034496194	0.0011789264	-0.00037847748	0.06877767	0.55614771	-0.90111193	-0.27384035	0.9188831	-0.20438158	0.47621044	1.2998265	0.015226844	0.00037303387	0.023303176	0.053244709	0.0049910132	0.055386735	0.0028555506	0.013654266	0.098689434	0.015128567	4.6946238	4.8564919	4.6314716	4.2704618	4.6506926	4.2574063	3.9673535	4.6161427	3.3086694	3.3523742	3.7834553	3.76799	3.7815053	3.7645839	4.1153685	4.0006604	-127.38421	R0:S0:1	-55.6	uncorrelated	51514b8	1	sharp_wc_10.0_b_50	 3.44e+00	 3.27e-03	2022-03-29@16:10
2x2_2C_8b_C2v_L	8.8087324	0	14	2.61	-6.4394436	-5.8784679	-5.8476838	-6.1906164	-5.8401033	-6.2907892	-5.1961782	-5.0197368	9.57	0.047175987	-0.013921171	-0.014005346	0.041867363	0.013847676	0.063835372	-0.0082476512	0.0037836473	-0.2813631	-0.91667241	1.2971172	0.44770337	-1.3365689	0.30410211	-0.71732627	-1.5254687	1.39	0.64	0.103	1.8284899e-06	1.3119799	1.6666772	-0.330503	-0.048235153	0.021809249	0.064969783	1.9980481	1.9780537	1.9470135	1.99402	1.9437541	1.9972078	1.9795821	1.9043898	1.0643574	-0.035995208	0.011211306	0.0091466034	-0.026670353	-0.0090410442	-0.040362573	0.0045511599	-0.0022101727	0.15750426	0.53872383	-0.89296754	-0.29883645	0.91966901	-0.20096222	0.58094086	1.2571668	0.015233695	0.0019513508	0.021880929	0.052306705	0.0059713936	0.055481829	0.0027902821	0.020277773	0.092534799	0.01514185	4.7055363	4.8466902	4.6243245	4.2774257	4.651113	4.2564029	4.0165455	4.5678512	3.3116904	3.349356	3.7832343	3.768549	3.7818226	3.7650548	4.1066654	4.0089898	-134.55168	R0:S0:1	-55.68	uncorrelated	51514b8	1	sharp_wc_10.0_b_50	 3.44e+00	 3.52e-03	2022-03-29@16:14
2x2_2C_8b_C2v_L	8.8086047	0	14	2.61	-7.6090448	-5.7794509	-5.7210214	-7.268431	-5.8139121	-7.4034559	-6.040254	-4.784943	9.58	0.076995974	-0.036890128	-0.021477235	0.060222573	0.011927728	0.056135983	-0.01606113	0.0088827847	-0.48175918	-0.84611619	1.2715089	0.52193801	-1.3330904	0.32582441	-0.90693403	-1.4278128	1.39	0.64	0.103	9.7031858e-06	1.3119763	1.6666812	-0.33052226	-0.048246165	0.021814184	0.064882461	1.9952781	1.9808909	1.9478244	1.9931971	1.9436174	1.9973675	1.9720956	1.91196	1.0642469	-0.05310558	0.029997032	0.014091529	-0.035233197	-0.0075709575	-0.032507131	0.0082211784	-0.0054012452	0.24557466	0.50209975	-0.88582899	-0.31804962	0.92098994	-0.1964389	0.67917904	1.2064532	0.015215258	0.0047186745	0.019059588	0.051517737	0.0067917374	0.055613842	0.0026308244	0.027643833	0.085427515	0.01513	4.72353	4.8256696	4.6198594	4.2848454	4.650541	4.2538121	4.0704215	4.5114887	3.3181773	3.3449553	3.7817104	3.7674348	3.7832898	3.7664016	4.0980802	4.0194744	-142.03365	R0:S0:1	-55.76	uncorrelated	51514b8	1	sharp_wc_10.0_b_50	 3.44e+00	 3.00e-03	2022-03-29@16:17
2x2_2C_8b_C2v_L	8.8091627	0	14	2.61	-8.8646764	-5.5845348	-5.5422938	-8.4339309	-5.7721414	-8.6114243	-6.8996645	-4.4616696	9.59	0.058497685	-0.024688198	-0.0067206142	0.017524139	0.0042654715	0.020883236	0.0012181366	-0.0006759571	-0.4797997	-0.84848379	1.2392033	0.60534217	-1.3279145	0.34929658	-1.048136	-1.34479	1.39	0.64	0.103	9.003473e-06	1.3119889	1.6667318	-0.33042394	-0.048218366	0.021802468	0.064851884	1.9961614	1.9801056	1.9486586	1.9924313	1.9435964	1.9975419	1.9678849	1.9163528	1.0642578	-0.03667402	0.020420393	0.0045025423	-0.009414288	-0.0026922816	-0.011107668	-0.00081632758	-6.0585345e-05	0.22305993	0.51266316	-0.87904976	-0.33744988	0.92101008	-0.19199456	0.72881788	1.1762099	0.015208213	0.0038364394	0.019841082	0.05070377	0.0075547858	0.055635585	0.0024566369	0.031771231	0.081283158	0.015109209	4.7190827	4.8324159	4.6123392	4.2894689	4.6525936	4.2549017	4.1002675	4.4784533	3.3149575	3.34538	3.7827302	3.7686649	3.7817387	3.7639912	4.0937834	4.0258215	-149.57329	R0:S0:1	-55.84	uncorrelated	51514b8	1	sharp_wc_10.0_b_50	 3.44e+00	 4.63e-03	2022-03-29@16:22
2x2_2C_8b_C2v_L	8.8096264	0	14	2.61	-10.206518	-5.4532211	-5.371018	-9.6766351	-5.6967542	-9.9171903	-7.5741204	-4.6140229	9.6	-0.00075142334	0.0004278123	0.0011842905	-0.0032152075	-0.00018569664	-0.00084544808	-0.0032439459	0.0013719839	-0.49616907	-0.84541154	1.211947	0.68169992	-1.3097801	0.42917337	-0.88452906	-1.4572465	1.39	0.64	0.103	-8.0796584e-07	1.3119984	1.6667666	-0.33034129	-0.048193458	0.021791169	0.064836446	1.9966359	1.9797493	1.9491555	1.9919437	1.94431	1.9969161	1.979496	1.9047373	1.0642638	0.00042700052	-0.00035877402	-0.00080551315	0.0015921437	0.00010634869	0.00041533114	0.001541602	-0.00075496482	0.2109714	0.51761307	-0.87500022	-0.34837555	0.91499944	-0.21536354	0.58230476	1.25514	0.015205052	0.0033625145	0.0201956	0.050218432	0.0080405016	0.054942238	0.0030816099	0.020364282	0.092200876	0.015100966	4.7160085	4.8347215	4.6070663	4.2913766	4.6487497	4.2610344	4.0158838	4.5643827	3.3139873	3.3463492	3.7840393	3.7704412	3.7803148	3.7626699	4.1080934	4.010162	-158.29258	R0:S0:1	-55.92	uncorrelated	51514b8	1	sharp_wc_10.0_b_50	 3.45e+00	 8.13e-03	2022-03-29@16:26
2x2_2C_8b_C2v_L	8.8099065	0	14	2.61	-11.633429	-5.3889682	-5.2474068	-10.991104	-5.566149	-11.319872	-8.0617073	-5.0467242	9.61	-0.014687832	0.0052102815	8.0458841e-05	-0.00016177209	-0.00070607159	-0.0026097988	-0.043731776	0.0062423697	-0.50702323	-0.84844319	1.1991367	0.72972793	-1.2827553	0.53013657	-0.32078189	-1.6592993	1.39	0.64	0.103	2.181282e-06	1.3120033	1.666774	-0.33028993	-0.048177655	0.021782706	0.064824962	1.9970426	1.9792916	1.948929	1.9922094	1.9451856	1.9960622	1.9974712	1.8867306	1.0642532	0.0076996812	-0.0042775998	-7.705399e-05	7.3560956e-05	0.00052175269	0.0011683541	0.019895497	-0.003304086	0.19775666	0.52357044	-0.87700594	-0.34262357	0.90773147	-0.24335662	0.20334678	1.3682536	0.015202933	0.0029561491	0.020650614	0.050439131	0.0077757775	0.054090159	0.0039340612	0.0025266732	0.10895674	0.015101902	4.711069	4.8359145	4.6082026	4.2888489	4.6425808	4.2676301	3.8860189	4.6982277	3.3152652	3.3491621	3.784588	3.7708883	3.7797575	3.7626215	4.1293169	3.985696	-167.82526	R0:S0:1	-56	uncorrelated	51514b8	1	sharp_wc_10.0_b_50	 3.45e+00	 3.16e-02	2022-03-29@16:30
2x2_2C_8b_C2v_L	8.8100916	0	14	2.61	-13.143629	-5.4093484	-5.3071377	-12.365529	-5.4526034	-12.814126	-8.346666	-5.0841142	9.62	0.0022929965	-0.00087702537	0.00032134716	-0.00064936601	-0.00041936254	-0.0017708526	-0.065448836	-0.0055468977	-0.49676868	-0.86099358	1.2258182	0.69504916	-1.2618159	0.61147862	0.19602991	-1.6761801	1.39	0.64	0.103	-5.3468916e-06	1.3120064	1.6667902	-0.33025516	-0.048168792	0.021778108	0.064822327	1.9976052	1.9787051	1.9471983	1.9940018	1.9456679	1.9955929	1.9990459	1.8850737	1.0642478	-0.0011130418	0.00064183006	-0.00019465208	0.00027507976	0.00020595207	0.00074758072	0.029220028	0.0030000608	0.17807037	0.53099201	-0.89152881	-0.30057154	0.90397817	-0.25753068	-0.12166922	1.3780563	0.015202461	0.0023939828	0.021233657	0.052127207	0.0059893913	0.053619545	0.0044023412	0.00095376582	0.1104891	0.015103455	4.7064865	4.8394035	4.6226994	4.277457	4.6370266	4.2689525	3.8751204	4.7110706	3.314832	3.3508777	3.7835966	3.7685409	3.7813908	3.7648704	4.1307225	3.982993	-177.20365	R0:S0:1	-56.08	uncorrelated	51514b8	1	sharp_wc_10.0_b_50	 3.45e+00	 9.02e-02	2022-03-29@16:34
2x2_2C_8b_C2v_L	8.8098823	0	14	2.61	-14.735142	-5.5549857	-5.601527	-13.796356	-5.5231675	-14.391595	-8.4117106	-4.8673256	9.63	-0.007127894	0.0018545836	-0.00030298541	0.0010956641	0.00021087111	0.0011023015	-0.020271314	-0.0058878422	-0.44975287	-0.88564366	1.2977314	0.51156365	-1.2803528	0.58210417	0.64463683	-1.5738115	1.39	0.64	0.103	4.2456314e-06	1.3120029	1.6667858	-0.33029333	-0.048181882	0.021785305	0.064779678	1.9983356	1.9780575	1.9440319	1.9972262	1.9445941	1.9966194	1.9903823	1.8939038	1.0642087	0.0031361386	-0.0016561865	0.00023622266	-0.00042843326	-0.00013127304	-0.00042718055	0.008996876	0.0034112965	0.14839374	0.53888003	-0.91739888	-0.20429169	0.91336481	-0.22568088	-0.39866307	1.3244622	0.01519287	0.0016640156	0.021877598	0.055212456	0.002771893	0.054662668	0.0033777738	0.0095870668	0.10230561	0.015089666	4.7030339	4.845627	4.6498488	4.2577181	4.6411441	4.2573435	3.9367369	4.6444815	3.3117832	3.3505211	3.7812831	3.7635715	3.7851186	3.7685669	4.1214692	3.9957923	-187.16063	R0:S0:1	-56.16	uncorrelated	51514b8	1	sharp_wc_10.0_b_50	 3.45e+00	 1.44e-02	2022-03-29@16:38
2x2_2C_8b_C2v_L	8.8095096	0	14	2.61	-16.407734	-5.8172753	-5.9086533	-15.283732	-5.7502747	-16.05192	-8.1719344	-4.6895442	9.64	-0.013884413	0.0022429339	-0.00036585846	0.0075641543	0.00012337321	0.00067169998	-0.0092481977	-0.0037073899	-0.33755609	-0.92397612	1.3657069	0.12567756	-1.3300033	0.40952934	0.82901576	-1.4926938	1.39	0.64	0.103	4.7637293e-07	1.3119964	1.6667525	-0.33036375	-0.048197691	0.021793377	0.064825546	1.9991993	1.977201	1.9413524	1.9998556	1.9425389	1.9985775	1.983486	1.9007756	1.0642514	0.0056660036	-0.0018819791	0.00023848694	-0.0027821718	-7.449911e-05	-0.0002394121	0.0041533747	0.0022025795	0.1028073	0.54920292	-0.93889521	-0.046520468	0.93031487	-0.14642	-0.52258891	1.2810199	0.015202613	0.00080056792	0.022728739	0.057818475	0.00014436412	0.056660498	0.0014219749	0.016423516	0.095903084	0.015098542	4.6980814	4.8527646	4.6712522	4.2401679	4.6551184	4.2417028	3.9862959	4.5931687	3.3090416	3.3510466	3.7806214	3.7609401	3.7866997	3.7691915	4.1135852	4.0052707	-197.59452	R0:S0:1	-56.24	uncorrelated	51514b8	1	sharp_wc_10.0_b_50	 3.45e+00	 1.61e-02	2022-03-29@16:43
2x2_2C_8b_C2v_L	8.8092905	0	14	2.61	-18.161447	-6.1534893	-5.9133706	-16.828537	-5.9551373	-17.795129	-7.6221572	-4.6971792	9.65	-0.021764175	0.0013005233	0.0028106508	0.038069297	1.6379605e-05	-0.004675822	9.5507824e-05	5.0206934e-05	-0.13604884	-0.96320773	1.3611501	-0.21355587	-1.3709214	0.068045612	0.85835436	-1.4715529	1.39	0.64	0.103	-1.4231661e-05	1.3119928	1.6667258	-0.33040587	-0.048206227	0.021797263	0.064808426	1.9998851	1.9766139	1.9415862	1.9996299	1.9411814	1.9999664	1.980681	1.903499	1.064232	0.0082354175	-0.0010111597	-0.0018531433	-0.013070434	-0.00014924401	0.0015445441	-4.5695643e-05	-2.4782299e-05	0.038355483	0.55621822	-0.93749233	0.073584083	0.94080233	-0.02245648	-0.56526681	1.2633554	0.015199139	0.00011492971	0.023311784	0.057589041	0.00037002292	0.057981816	3.3635464e-05	0.019194896	0.093358863	0.015095612	4.6933941	4.8570764	4.6659693	4.2379204	4.6684828	4.2350621	4.006648	4.5729363	3.3076192	3.3519789	3.7837034	3.7649115	3.7841685	3.7651956	4.1101305	4.0089326	-207.72296	R0:S0:1	-56.32	uncorrelated	51514b8	1	sharp_wc_10.0_b_50	 3.45e+00	 2.65e-02	2022-03-29@16:47
2x2_2C_8b_C2v_L	8.8093438	0	14	2.61	-19.996306	-6.2849514	-5.689454	-18.429545	-5.9022366	-19.622317	-6.7636938	-4.8898196	9.66	-0.11463846	-0.0022527653	0.0005345101	0.0035478435	0.0010808068	-0.015684838	0.0013167192	0.00044782167	0.044049647	-0.97519533	1.3173747	-0.49077939	-1.3588668	-0.2341266	0.74595626	-1.5190906	1.39	0.64	0.103	-4.259116e-06	1.3119933	1.6667309	-0.33039387	-0.048206226	0.021796058	0.064802912	1.9999011	1.9765147	1.9427197	1.9983462	1.9417165	1.9996592	1.9831587	1.9009369	1.0642164	0.040273329	0.001724408	-0.00038450138	-0.0011374653	-0.00072955564	0.004830799	-0.0006193683	-0.00033816403	-0.01152718	0.55745675	-0.92914954	0.1579275	0.93572324	0.071425139	-0.52770421	1.2798457	0.015198269	9.8918059e-05	0.023409997	0.056483384	0.0016530937	0.05746622	0.00034074096	0.016746676	0.095756875	0.015099549	4.6914416	4.8567426	4.6514507	4.240931	4.67051	4.2436031	3.9895137	4.5925736	3.309206	3.3531323	3.7886765	3.7717205	3.7789379	3.7590119	4.1122436	4.0049604	-216.67053	R0:S0:1	-56.4	uncorrelated	51514b8	1	sharp_wc_10.0_b_50	 3.45e+00	 1.32e-02	2022-03-29@16:51
2x2_2C_8b_C2v_L	8.8094666	0	14	2.61	-21.913748	-6.1234525	-5.6777833	-20.078884	-5.7622343	-21.531582	-5.591568	-5.1330415	9.67	-0.083619921	-0.0038920589	-0.002258787	-0.015813797	-6.8717836e-05	0.0006016073	-0.068575236	-0.019327952	0.11981631	-0.96256557	1.314768	-0.51602391	-1.3310234	-0.45071491	0.47815489	-1.618887	1.39	0.64	0.103	3.0020622e-06	1.3119948	1.6667362	-0.33037001	-0.048199647	0.021791663	0.064805899	1.9998949	1.9763969	1.9428412	1.9984044	1.9423999	1.9989142	1.9913427	1.8926747	1.0642101	0.027350053	0.0029551588	0.0015104409	0.004783723	8.2956813e-05	-0.00017042926	0.036725261	0.010572386	-0.029165272	0.55887492	-0.92758159	0.15497005	0.93083821	0.12784609	-0.37622008	1.3318853	0.015198519	0.00010510601	0.023527153	0.056368151	0.0015950084	0.056798773	0.0010854691	0.0086325343	0.10345312	0.015103171	4.6913528	4.8569657	4.6549249	4.2451074	4.6606564	4.2439885	3.9298056	4.6538798	3.3094749	3.3538874	3.7848942	3.7671127	3.782885	3.7643321	4.1225945	3.9938716	-225.17982	R0:S0:1	-56.48	uncorrelated	51514b8	1	sharp_wc_10.0_b_50	 3.45e+00	 8.67e-03	2022-03-29@16:55
2x2_2C_8b_C2v_L	8.8095785	0	14	2.61	-23.913624	-6.0024756	-5.8859335	-21.776409	-5.7021326	-23.521405	-4.1089184	-5.1764107	9.68	-0.014986187	-0.00085553409	-0.00093268544	-0.010654072	0.002465349	-0.017648198	-0.068835038	-0.0036817766	0.24468365	-0.94822629	1.3521575	-0.31337952	-1.318928	-0.53464735	0.079688014	-1.6857516	1.39	0.64	0.103	-6.641263e-06	1.3119968	1.6667368	-0.33035079	-0.048190846	0.021787754	0.06480259	1.9997661	1.9765495	1.9418796	1.9994843	1.9425378	1.9986729	1.9995535	1.8844519	1.0642125	0.0045757549	0.00069080198	0.00046321732	0.0030418054	-0.001563222	0.0047382179	0.041471548	0.0021367413	-0.055505956	0.55710974	-0.93457954	0.088016028	0.93050165	0.14139198	-0.073057202	1.3819093	0.015197826	0.00023386546	0.023375588	0.057306663	0.00051560688	0.05666068	0.0013266711	0.00044649831	0.11106186	0.015101645	4.6920745	4.8553533	4.6679212	4.2434663	4.6536322	4.2393932	3.8700735	4.7147841	3.3100014	3.3541279	3.7800195	3.7604887	3.788033	3.7707558	4.1328024	3.9827561	-233.76789	R0:S0:1	-56.56	uncorrelated	51514b8	1	sharp_wc_10.0_b_50	 3.45e+00	 2.24e-02	2022-03-29@17:00
2x2_2C_8b_C2v_L	8.809669	0	14	2.61	-25.99615	-5.8971245	-5.997998	-23.522187	-5.7634612	-25.591543	-2.3535058	-5.2323114	9.69	0.066479594	0.0078174585	-0.00053548589	0.034173949	0.0034153272	-0.030958205	-0.0042719096	0.00054351588	0.36342277	-0.93332249	1.3709541	0.067079477	-1.3310269	-0.48212011	-0.15896028	-1.6808874	1.39	0.64	0.103	-8.3822444e-06	1.3119994	1.6667427	-0.33033602	-0.048186019	0.021787024	0.064815159	1.999533	1.9768313	1.9413996	1.9999741	1.9419948	1.9990582	1.9980117	1.8861601	1.0642434	-0.018979378	-0.0061930236	0.00014062245	-0.0091863087	-0.002139475	0.0077811232	0.0031236906	7.2517013e-05	-0.076966004	0.55377453	-0.93820515	-0.017684088	0.93507774	0.11896219	0.18124916	1.3717347	0.015200809	0.00046698172	0.023095751	0.05777422	2.587782e-05	0.057187291	0.00094153979	0.0019869315	0.10948565	0.015099683	4.6935432	4.8533718	4.6732983	4.2417832	4.6562709	4.2351342	3.8821794	4.702303	3.3105565	3.3536404	3.7785656	3.7584123	3.7892755	3.7720603	4.1297736	3.9850427	-242.34003	R0:S0:1	-56.64	uncorrelated	51514b8	1	sharp_wc_10.0_b_50	 3.45e+00	 4.95e-02	2022-03-29@17:04
2x2_2C_8b_C2v_L	8.8096029	0	14	2.61	-28.16152	-5.8163865	-5.8510515	-25.317742	-5.9189678	-27.742	-0.39725217	-5.2127161	9.7	0.094900924	0.012373248	-0.008984872	0.097203605	0.0019160009	-0.032251452	-0.0030395128	0.00015120854	0.4360971	-0.92239049	1.344327	0.39479102	-1.3572823	-0.28850498	-0.051070664	-1.6875342	1.39	0.64	0.103	2.414015e-05	1.311998	1.6667383	-0.33034814	-0.048188624	0.021788333	0.0648148	1.9994012	1.9769938	1.9418299	1.9993239	1.9414513	1.9997037	1.9996129	1.8845823	1.0642334	-0.025390492	-0.00982282	0.0056239276	-0.02466121	-0.00070771345	0.0076302388	0.002874153	0.00057894887	-0.086406622	0.55180199	-0.93556794	-0.098144291	0.93856598	0.066394977	0.079915873	1.381219	0.015201016	0.00059875706	0.022934398	0.057351724	0.00067597826	0.057719802	0.00029623367	0.00038708454	0.11094118	0.015102901	4.6940561	4.8519364	4.6635549	4.2393695	4.6669785	4.2375195	3.8703458	4.7138131	3.3111741	3.3536374	3.7840862	3.7657838	3.7836012	3.7647461	4.131968	3.983054	-250.50953	R0:S0:1	-56.72	uncorrelated	51514b8	1	sharp_wc_10.0_b_50	 3.45e+00	 3.40e-02	2022-03-29@17:09
2x2_2C_8b_C2v_L	8.8096663	0	14	2.61	-30.409263	-5.8559048	-5.8246136	-27.161514	-5.9974923	-29.972775	1.7803717	-5.282353	9.71	-0.0017844027	-0.00016665282	-7.4355943e-05	0.0001910848	-0.00020851965	-0.018878363	-0.1576364	0.0035817132	0.41270519	-0.92743866	1.3387396	0.4381604	-1.369649	0.050726995	0.024007888	-1.6832802	1.39	0.64	0.103	3.2322243e-06	1.3119993	1.6667407	-0.33033722	-0.048184458	0.021786419	0.064820091	1.9995564	1.9768675	1.9418126	1.9992986	1.9412374	1.999991	0.0023436584	1.8865277	1.0642497	0.00045567183	-3.7517454e-05	0.00011010136	-4.4283883e-05	0.00010839453	0.0041964427	0.19573651	-0.0019978439	-0.076634286	0.55337022	-0.93627489	-0.10283404	0.93972657	-0.010917408	-0.018221852	1.3695404	0.015202084	0.00044359081	0.023059911	0.057365704	0.00070128184	0.057930499	8.9777274e-06	0.0023418976	0.10914712	0.015100542	4.6934288	4.8530136	4.6596991	4.2356021	4.6727415	4.2398888	4.1296614	4.699464	3.3105133	3.3537003	3.7875252	3.7697606	3.7800319	3.7601793	3.8844514	3.9856928	-262.71785	R0:S0:1	-56.8	uncorrelated	51514b8	2	sharp_wc_10.0_b_50	 3.46e+00	 1.40e-03	2022-03-29@17:15
2x2_2C_8b_C2v_L	8.8092439	0	14	2.61	-32.73951	-6.0442424	-6.0014689	-29.053795	-5.8753374	-32.284469	4.1648477	-5.3494409	9.72	-0.15933138	-0.012841616	0.0073099787	-0.16064242	0.00088049591	0.009304311	-0.50934217	0.016632894	0.30504362	-0.94947835	1.3671501	0.22260994	-1.3460536	0.41673055	0.045882505	-1.6102655	1.39	0.64	0.103	-2.8895078e-05	1.3119904	1.6667165	-0.33041194	-0.048207583	0.021796267	0.064869497	1.99971	1.9765082	1.9413607	1.9997588	1.9416164	1.9995277	0.013206207	1.8972461	1.0642579	0.037617107	0.0098020996	-0.0045806022	0.036588929	-0.0010567883	-0.0019323311	0.46628483	-0.0096909525	-0.053178635	0.55748379	-0.93880319	-0.049236312	0.93774932	-0.084358523	-0.027154283	1.3032153	0.015212323	0.00028997802	0.023416735	0.057810305	0.00024118362	0.057556738	0.00047226307	0.013147674	0.099207587	0.015121634	4.6923407	4.8561387	4.6707707	4.2398512	4.661857	4.2346581	4.116007	4.6205299	3.3100354	3.3537139	3.7809242	3.7619446	3.7869936	3.7689526	3.9636803	3.999751	-276.4557	R0:S0:1	-56.88	uncorrelated	51514b8	1	sharp_wc_10.0_b_50	 3.46e+00	 1.26e-02	2022-03-29@17:20
2x2_2C_8b_C2v_L	8.8090061	0	14	2.61	-35.152997	-6.3284545	-6.070633	-30.996214	-5.7587673	-34.677268	6.6549511	-4.9988616	9.73	-0.24715178	-0.0054181934	-0.0042349715	-0.20462893	0.00022325623	0.0031763904	-0.71411363	0.0044872064	0.083964323	-0.9765827	1.3757934	-0.10693485	-1.3247562	0.59297389	0.011662299	-1.5324561	1.39	0.64	0.103	1.5268194e-05	1.311986	1.6667171	-0.33045298	-0.048225547	0.021804546	0.064852381	1.999823	1.9763426	1.9414289	1.9998496	1.941936	1.9991539	0.015926681	1.8999303	1.0642235	0.05494182	0.0041625655	0.0027057451	0.044326864	4.9441016e-05	-0.0006353516	0.51314468	-0.0026814907	-0.013760197	0.55937516	-0.93744846	0.02233868	0.93604967	-0.11304198	-0.0056956988	1.2863408	0.015208284	0.00017701706	0.023581186	0.057748632	0.00015041703	0.057242166	0.00084597156	0.015841997	0.096695794	0.015120663	4.6921339	4.8587042	4.6763159	4.2452343	4.652936	4.2303632	4.1135033	4.5998137	3.3090131	3.352671	3.7758099	3.7558403	3.7927209	3.7760937	3.9826955	4.0036753	-289.77522	R0:S0:1	-56.96	uncorrelated	51514b8	2	sharp_wc_10.0_b_50	 3.46e+00	 4.49e-04	2022-03-29@17:27
2x2_2C_8b_C2v_L	8.8090674	0	14	2.61	-37.650179	-6.375283	-5.9255009	-32.989465	-5.8676798	-37.150832	9.159042	-4.9579228	9.74	-0.28396785	0.0044513734	-0.0022199145	-0.031389076	-0.00039229651	-0.003771984	-0.64361474	-0.0003482332	-0.066692487	-0.97991049	1.3509077	-0.38347198	-1.3419956	0.48556981	-0.0011844746	-1.5773082	1.39	0.64	0.103	1.1891945e-05	1.3119873	1.6667377	-0.33043976	-0.048227763	0.021805857	0.064815264	1.999801	1.9763528	1.9416986	1.9996128	1.9417295	1.9994984	0.0087395755	1.8928569	1.0642002	0.0595612	-0.0033624752	0.0014284013	0.0064542542	0.00040463938	0.00069854849	0.3802273	0.00042747068	0.010291628	0.55915458	-0.93635651	0.076088828	0.93669732	-0.086938555	0.00045511141	1.3313048	0.015199899	0.00019894579	0.023571122	0.057481436	0.00038711986	0.057448327	0.00050152642	0.0087143012	0.10327155	0.015106152	4.6931201	4.8596981	4.6669	4.2399203	4.6622161	4.2360452	4.1245147	4.6503036	3.3081473	3.3516349	3.7822655	3.7630434	3.7861132	3.7677908	3.9283351	3.9956064	-303.68073	R0:S0:1	-57.04	uncorrelated	51514b8	1	sharp_wc_10.0_b_50	 3.46e+00	 1.70e-02	2022-03-29@17:31
2x2_2C_8b_C2v_L	8.8093457	0	14	2.61	-40.231291	-6.2146637	-5.7986061	-35.034154	-6.0301464	-39.70517	11.677106	-5.185409	9.75	-0.18804355	0.0064234979	0.0045180812	0.046588061	-0.00023558333	-0.013420384	-0.28960686	0.00049257153	-0.15433395	-0.96558266	1.3292805	-0.5629635	-1.3686133	0.083860619	0.0051416756	-1.6678327	1.39	0.64	0.103	-1.083742e-05	1.311993	1.6667319	-0.33039264	-0.048207051	0.02179632	0.064851148	1.9998872	1.976324	1.9418452	1.9992459	1.9413328	1.9999864	0.0012721741	1.8854312	1.0642637	0.037257688	-0.0049216758	-0.0029140395	-0.0091067574	-2.1774173e-05	0.002372864	0.14502061	-2.9205953e-05	0.022478242	0.55965468	-0.9364292	0.10632614	0.93856872	-0.014116307	-0.001914282	1.3763465	0.015207989	0.00011282454	0.023599666	0.057332154	0.00075392873	0.057840175	1.3594925e-05	0.0012716427	0.11015245	0.01510887	4.6921494	4.8584912	4.6562465	4.2324864	4.6750442	4.2430735	4.132166	4.7064692	3.3086575	3.3530394	3.7904042	3.7732682	3.7775005	3.7570305	3.87554	3.984869	-318.27419	R0:S0:1	-57.12	uncorrelated	51514b8	1	sharp_wc_10.0_b_50	 3.46e+00	 2.46e-02	2022-03-29@17:36
2x2_2C_8b_C2v_L	8.8097035	0	14	2.61	-42.89612	-6.0297759	-5.811813	-37.130181	-5.9506227	-42.341394	14.209607	-5.2399844	9.76	0.019992606	-0.00082668323	0.00080299636	0.0078923437	0.0015695858	-0.027075286	0.1507548	-0.0024604797	-0.27902969	-0.94810137	1.3298817	-0.57554564	-1.353421	-0.38816889	0.054621995	-1.6829633	1.39	0.64	0.103	-1.1430074e-05	1.3119998	1.666755	-0.33032746	-0.048188252	0.021787499	0.064817007	1.9998878	1.9763625	1.9419048	1.9992932	1.9416274	1.9997452	0.00028057088	1.8844364	1.064244	-0.0037514558	0.00053546921	-0.00058462571	-0.001466726	-0.0010866415	0.0045312264	-0.065462697	0.001366254	0.038400901	0.55931112	-0.93567586	0.10323552	0.93656762	0.061757705	-0.017921061	1.3821147	0.015200619	0.00011217326	0.023561593	0.057275728	0.00070664664	0.057552221	0.00025481125	0.00028054607	0.11107412	0.015098712	4.6920675	4.8574896	4.6579778	4.2344696	4.6701773	4.2419373	4.1325483	4.7146648	3.3089267	3.3536853	3.788522	3.7709302	3.7797991	3.760014	3.8691726	3.9829696	-332.71262	R0:S0:1	-57.2	uncorrelated	51514b8	1	sharp_wc_10.0_b_50	 3.47e+00	 3.07e-02	2022-03-29@17:40
2x2_2C_8b_C2v_L	8.8098708	0	14	2.61	-45.64523	-5.9594447	-5.9674578	-39.277687	-5.824558	-45.060797	16.755443	-5.1847457	9.77	0.090645309	-0.0078538304	-0.0044574738	-0.073107206	0.00036094834	-0.0030405396	0.3748468	0.0019029006	-0.45948619	-0.9342539	1.3536923	-0.39054274	-1.3297918	-0.63533386	-0.019357502	-1.6635154	1.39	0.64	0.103	1.024795e-05	1.3120029	1.6667758	-0.33029633	-0.048181141	0.021784994	0.064678076	1.9997156	1.9767234	1.9416675	1.9996962	1.9419522	1.9993903	0.0012502945	1.885633	1.0641034	-0.016105718	0.0062103612	0.0028206497	0.013029536	-4.9018268e-05	0.00048853042	-0.14365969	-0.0012894844	0.059835205	0.55503752	-0.93632897	0.066471882	0.9352767	0.095888738	0.0057073075	1.3751391	0.015170745	0.00028436193	0.023203116	0.057512885	0.0003038029	0.057230129	0.00060957768	0.0012497863	0.10996751	0.015068894	4.6926164	4.854442	4.6691744	4.2414683	4.6578303	4.2338955	4.1322584	4.7051135	3.309873	3.3535817	3.7804239	3.760852	3.7884656	3.7707626	3.8753282	3.9853213	-347.79997	R0:S0:1	-57.28	uncorrelated	51514b8	1	sharp_wc_10.0_b_50	 3.47e+00	 6.94e-03	2022-03-29@17:45
2x2_2C_8b_C2v_L	8.8096643	0	14	2.61	-48.47966	-5.9518023	-6.1020305	-41.476738	-5.8904612	-47.863393	19.314235	-5.207206	9.78	0.014629428	-0.001372192	-5.8933724e-05	-0.16704403	-0.00061189532	0.0093582294	0.31856346	0.00048323823	-0.4626986	-0.93330817	1.373998	-0.0075292595	-1.3400066	-0.56201282	-0.0070552723	-1.6704995	1.39	0.64	0.103	-4.2899977e-06	1.3119993	1.6667478	-0.33033698	-0.048186347	0.021787668	0.064775813	1.9997535	1.9766938	1.9413081	1.9999519	1.9415852	1.9995717	0.00072116784	1.8849666	1.0641982	-0.0024647612	0.0010902465	4.3409697e-05	0.028437192	0.00035018775	-0.0014098945	-0.10917263	-0.00035502249	0.057081682	0.55542755	-0.93883407	0.0012205498	0.93848508	0.080383013	0.0018913746	1.3790291	0.015192259	0.00024646551	0.023232489	0.05786366	4.8130827e-05	0.057584854	0.00042826898	0.00072099916	0.11058347	0.015091954	4.6924373	4.854633	4.6744632	4.2421605	4.6585588	4.2305384	4.1322236	4.7105013	3.3097509	3.3536572	3.7781216	3.758174	3.7901272	3.7727309	3.8721524	3.9839204	-363.93902	R0:S0:1	-57.36	uncorrelated	51514b8	2	sharp_wc_10.0_b_50	 3.47e+00	 3.54e-04	2022-03-29@17:52
2x2_2C_8b_C2v_L	8.8093268	0	14	2.61	-51.399398	-6.103031	-6.0256974	-43.728459	-6.0589839	-50.749181	21.885957	-5.2879531	9.79	-0.13347571	0.0078684871	0.010835278	-0.20617128	-0.00021443296	0.010081201	-0.01895858	0.00035208362	-0.33805494	-0.94980861	1.3599173	0.376114	-1.3672046	-0.16471953	0.088796763	-1.688025	1.39	0.64	0.103	-3.1662273e-05	1.3119929	1.6667119	-0.33039962	-0.048200752	0.021793685	0.064879303	1.9998573	1.9764522	1.9413809	1.9997078	1.9411257	1.9999669	3.3390797e-05	1.8841439	1.0642856	0.021359359	-0.0060819187	-0.0068341211	0.03351858	-0.00034333365	-0.0014468274	0.0058754807	1.353514e-05	0.039561871	0.55824233	-0.9391503	-0.058271931	0.94113269	0.02229021	-0.021847306	1.3838425	0.015214675	0.00014267883	0.023472402	0.057787932	0.00029214136	0.058036144	3.3122659e-05	3.3390504e-05	0.11134446	0.015119106	4.6916875	4.8564905	4.6667563	4.2362154	4.6696873	4.2359732	4.1329134	4.716796	3.3095154	3.3538889	3.7842829	3.7659716	3.7833708	3.76428	3.8673136	3.9825781	-380.74176	R0:S0:1	-57.44	uncorrelated	51514b8	1	sharp_wc_10.0_b_50	 3.47e+00	 8.43e-03	2022-03-29@17:57
2x2_2C_8b_C2v_L	8.8092971	0	14	2.61	-54.404678	-6.3684035	-5.9069519	-46.033724	-6.0287805	-53.718872	24.473318	-5.2526528	9.8	-0.28865626	0.0034931216	0.0010283775	-0.01341705	5.3546533e-05	4.2229895e-05	-0.28646991	0.00081534331	-0.073457022	-0.97499857	1.338958	0.56843195	-1.3585082	0.38275727	0.01559602	-1.6767906	1.39	0.64	0.103	-5.4993584e-06	1.3119921	1.6667357	-0.33040021	-0.048212408	0.021798642	0.064787442	1.9998917	1.9763016	1.9417177	1.9995297	1.9415717	1.9998396	0.00039723623	1.8845646	1.0641928	0.043909917	-0.0025908855	-0.00069997443	0.002086099	-6.0130343e-05	-4.560222e-06	0.080968482	-0.00028636185	0.0081618779	0.55986898	-0.93711607	-0.08419516	0.937121	-0.049127229	-0.0035444038	1.3816689	0.015193796	0.00010832371	0.02362195	0.057458194	0.0004702778	0.057606041	0.00016043632	0.00039718527	0.11095094	0.015095659	4.6924251	4.8592168	4.6598907	4.2332438	4.6698306	4.2403916	4.1340431	4.7121765	3.3082665	3.3525311	3.7882105	3.7703494	3.780576	3.7608371	3.8683673	3.9842453	-397.51043	R0:S0:1	-57.52	uncorrelated	51514b8	1	sharp_wc_10.0_b_50	 3.47e+00	 1.86e-02	2022-03-29@18:02
2x2_2C_8b_C2v_L	8.8091081	0	14	2.61	-57.496085	-6.5143412	-5.9668045	-48.393723	-5.9045925	-56.774946	27.076909	-5.2532834	9.81	-0.42383558	-0.0095992631	-0.0044171713	0.070430372	-0.00032694425	-0.0044910917	-0.32667281	-0.0010192846	0.14790964	-0.98627271	1.3477949	0.49063181	-1.3374051	0.63931397	-0.018935266	-1.674674	1.39	0.64	0.103	1.6015136e-05	1.3119881	1.6667355	-0.33043206	-0.048226221	0.021804548	0.064773519	1.9997799	1.9763178	1.9416754	1.9996742	1.9417682	1.9995946	0.00043612244	1.8845808	1.0641549	0.061375839	0.0070603746	0.0028850672	-0.010511626	0.00035776137	0.0005773557	0.084833735	0.00020545807	-0.015629725	0.55955892	-0.93653326	-0.069321942	0.93647714	-0.078166947	0.0039964888	1.3817041	0.015190607	0.00022011099	0.0236058	0.057504148	0.00032579985	0.057410569	0.00040534258	0.0004360611	0.1109337	0.015098417	4.6927811	4.8595398	4.6670879	4.2394441	4.661298	4.234599	4.1348093	4.7113415	3.3086452	3.352058	3.782292	3.7630452	3.786767	3.7684994	3.8678367	3.9847585	-414.74338	R0:S0:1	-57.6	uncorrelated	51514b8	2	sharp_wc_10.0_b_50	 3.48e+00	 5.11e-04	2022-03-29@18:09
2x2_2C_8b_C2v_L	8.8089625	0	14	2.61	-60.673944	-6.522414	-6.1229427	-50.80846	-5.8932771	-59.91699	29.696717	-5.2989881	9.82	-0.48760414	-0.021214816	-0.00095314213	0.048350599	-0.00019869796	-0.0023262201	-0.14435156	-0.00029290961	0.29326275	-0.98518401	1.3702568	0.13421804	-1.3345496	0.68200346	-0.014378016	-1.6843262	1.39	0.64	0.103	9.4638097e-06	1.3119854	1.6667123	-0.33046019	-0.048230218	0.021806206	0.064827332	1.999692	1.9763415	1.9414337	1.9999753	1.941643	1.9995816	7.3084682e-05	1.8840753	1.0642024	0.067287604	0.015644127	0.00077928504	-0.0069223564	4.8215039e-05	0.0002842733	0.034640681	-0.00080045109	-0.029505045	0.55916782	-0.93779643	-0.018116482	0.93812992	-0.07947086	0.0028323529	1.3845514	0.015202561	0.00030797106	0.023582065	0.057742306	2.4677025e-05	0.057528668	0.00041838358	7.3082964e-05	0.1114019	0.015113608	4.6924048	4.8586601	4.6740579	4.2428121	4.6573052	4.2295048	4.1342415	4.7158185	3.3096947	3.3526602	3.7777988	3.7573749	3.7909917	3.7736883	3.8662022	3.9833689	-432.65101	R0:S0:1	-57.68	uncorrelated	51514b8	1	sharp_wc_10.0_b_50	 3.48e+00	 5.95e-03	2022-03-29@18:14
2x2_2C_8b_C2v_L	8.8091475	0	14	2.61	-63.938671	-6.3836665	-6.0789501	-53.278544	-6.0117279	-63.145009	32.332805	-5.2903348	9.83	-0.39736652	-0.018084168	-0.0037128464	-0.092883168	0.00036230622	0.0058689973	0.23457846	-0.00083358131	0.32261458	-0.97186212	1.3617074	-0.34251005	-1.3521947	0.50144121	0.027628316	-1.680602	1.39	0.64	0.103	8.4280867e-06	1.3119892	1.6667188	-0.3304286	-0.048217404	0.021800946	0.06483822	1.9997814	1.9763782	1.9414573	1.9998597	1.94141	1.999795	0.00016709758	1.8842161	1.0642328	0.05231089	0.013494892	0.0024200385	0.012751323	-0.00018765176	-0.00069661411	-0.052298952	-0.00035213328	-0.030922727	0.55884728	-0.93822745	0.044339606	0.9393343	-0.055581872	-0.0050946672	1.38365	0.015205164	0.00021856616	0.023545803	0.057716004	0.00014026302	0.057758223	0.00020498716	0.00016708862	0.11127304	0.015111133	4.6923895	4.8581818	4.6691359	4.2385682	4.6640579	4.2333552	4.1337569	4.7151489	3.3091674	3.352844	3.7818797	3.7624983	3.7865739	3.7682109	3.8672582	3.9833402	-450.46118	R0:S0:1	-57.76	uncorrelated	51514b8	1	sharp_wc_10.0_b_50	 3.48e+00	 9.44e-03	2022-03-29@18:20
2x2_2C_8b_C2v_L	8.8094708	0	14	2.61	-67.290221	-6.2426291	-6.00345	-55.80678	-6.1391096	-66.458994	34.987374	-5.2962966	9.84	-0.087434736	-0.0034498947	-0.00057770456	-0.0083956035	0.00021581934	0.018280421	0.30612365	3.8488349e-05	0.29683807	-0.95710452	1.3489094	-0.5075181	-1.3705429	0.10326877	-8.1776111e-05	-1.6784167	1.39	0.64	0.103	3.3686782e-06	1.311996	1.6667301	-0.33037259	-0.048197061	0.021792334	0.064782705	1.9999379	1.976482	1.9414732	1.9997359	1.9412689	1.9999919	0.00024539081	1.8844971	1.064211	0.010988964	0.0026148394	0.00038007852	0.0011053623	-0.00011191178	-0.002066293	-0.063699868	-0.00017244511	-0.027129878	0.55786966	-0.93895692	0.063090273	0.93959166	-0.010894895	1.1720359e-05	1.3819728	0.015193471	6.2072507e-05	0.02344278	0.057696004	0.00026407246	0.057899586	8.1426863e-06	0.00024537147	0.11101564	0.015090177	4.6919116	4.856928	4.662636	4.2327767	4.6717001	4.2389804	4.133609	4.7132636	3.3086227	3.3532436	3.7873678	3.7692406	3.7808067	3.7610817	3.8678807	3.9838439	-468.70546	R0:S0:1	-57.84	uncorrelated	51514b8	1	sharp_wc_10.0_b_50	 3.48e+00	 1.00e-02	2022-03-29@18:25
