model	E_kin	D	U	e	eb1_1	eb2_1	eb3_1	eb4_1	eb5_1	eb6_1	eb7_1	eb8_1	mu	sb1_1	sb2_1	sb3_1	sb4_1	sb5_1	sb6_1	sb7_1	sb8_1	tb1_1	tb2_1	tb3_1	tb4_1	tb5_1	tb6_1	tb7_1	tb8_1	tpd	tpp	tppp	ave_D	ave_e	ave_mu	ave_tpd	ave_tpp	ave_tppp	ave_U_1	ave_eb1_1	ave_eb2_1	ave_eb3_1	ave_eb4_1	ave_eb5_1	ave_eb6_1	ave_eb7_1	ave_eb8_1	ave_mu_1	ave_sb1_1	ave_sb2_1	ave_sb3_1	ave_sb4_1	ave_sb5_1	ave_sb6_1	ave_sb7_1	ave_sb8_1	ave_tb1_1	ave_tb2_1	ave_tb3_1	ave_tb4_1	ave_tb5_1	ave_tb6_1	ave_tb7_1	ave_tb8_1	var_U_1	var_eb1_1	var_eb2_1	var_eb3_1	var_eb4_1	var_eb5_1	var_eb6_1	var_eb7_1	var_eb8_1	var_mu_1	var_sb1_1	var_sb2_1	var_sb3_1	var_sb4_1	var_sb5_1	var_sb6_1	var_sb7_1	var_sb8_1	var_tb1_1	var_tb2_1	var_tb3_1	var_tb4_1	var_tb5_1	var_tb6_1	var_tb7_1	var_tb8_1	E0_1	sector_1	E0_2	sector_2	githash	iterations	dist_function	distance	diff_hybrid	time
2x2_2C_8b_C2v_L	10.44	0	14	2.61	-0.12749356	-10.331607	-12.205578	-0.32488506	-12.208104	-0.32826235	-0.73696413	-11.861328	16.42	0.0007351311	3.6617546e-05	3.9450186e-05	-2.7505943e-07	-7.6403893e-05	-2.780569e-05	-0.00013541664	-0.00024217279	0.00098333763	-0.8938687	1.3593914	0.054915593	-1.359386	0.055451951	-0.099968379	-1.6903996	1.39	0.64	0.103	0	1.3333333	2	-1.0348894e-09	-3.1061245e-10	0	0.99999977	1.9999991	2	2	2	2	2	2	2	1.9999998	-0.0052463237	-7.4113885e-05	-2.3098427e-05	7.6778969e-06	7.4230175e-05	0.00021229144	0.0010484373	0.00043709618	7.923277e-08	5.8993232e-07	3.0997243e-10	-1.0671209e-10	7.5524707e-10	-3.2051571e-09	1.2624322e-07	7.5112035e-08	5.7785536e-08	8.8565572e-07	2.5306078e-08	0	0	2.4933744e-10	1.7899415e-09	4.2000138e-08	9.5333919e-09	5.7809217e-08	7.999985	7.9999965	8	8	8	8	7.9999993	7.9999997	1.3864621e-05	3.5488463e-06	1.7283687e-09	1.766585e-09	8.9388362e-09	2.581433e-08	6.7273275e-07	3.0167083e-07	-171.60844	R0:S0:1	-110.48	uncorrelated	51514b8	1	sharp_wc_10.0_b_50	 3.03e+01	 1.89e-01	2022-03-29@14:58
2x2_2C_8b_C2v_L	10.44	0	14	2.61	-0.12749356	-10.331607	-12.205578	-0.32488506	-12.208104	-0.32826235	-0.73696413	-11.861328	16.43	0.0007351311	3.6617546e-05	3.9450186e-05	-2.7505943e-07	-7.6403893e-05	-2.780569e-05	-0.00013541664	-0.00024217279	0.00098333763	-0.8938687	1.3593914	0.054915593	-1.359386	0.055451951	-0.099968379	-1.6903996	1.39	0.64	0.103	0	1.3333333	2	-6.2124698e-10	-1.749166e-10	1.50963e-10	0.99999977	1.9999991	2	2	2	2	2	2	2	1.9999998	-0.0052230276	-7.3849415e-05	-2.3312112e-05	7.578168e-06	7.4361123e-05	0.00021124495	0.0010432662	0.00043567604	7.8151159e-08	5.8470107e-07	3.0929709e-10	-1.0414444e-10	7.5149919e-10	-3.1545123e-09	1.2483672e-07	7.4368515e-08	5.7264155e-08	8.7781253e-07	2.5086932e-08	0	0	2.5417712e-10	1.7770994e-09	4.1591839e-08	9.4678354e-09	5.7291263e-08	7.9999851	7.9999965	8	8	8	8	7.9999993	7.9999997	1.3741749e-05	3.5173749e-06	1.7000384e-09	1.7319737e-09	8.8789741e-09	2.5548595e-08	6.6588655e-07	2.9881e-07	-171.68844	R0:S0:1	-110.56	uncorrelated	51514b8	0	sharp_wc_10.0_b_50	 3.01e+01	 1.00e+06	2022-03-29@15:00
2x2_2C_8b_C2v_L	10.44	0	14	2.61	-0.12749356	-10.331963	-12.20575	-0.32498765	-12.208273	-0.32836707	-0.73704686	-11.861467	16.44	0.00070554337	1.1701561e-05	-1.0771097e-05	-5.336119e-06	1.6252427e-05	-3.4618655e-05	-4.4317572e-05	0.00028378809	0.00098839868	-0.89353525	1.3586346	0.054743517	-1.3587163	0.055245226	-0.099551231	-1.6888754	1.39	0.64	0.103	0	1.3333333	2	-3.7906585e-10	0	0	0.9999998	1.9999992	2	2	2	2	2	2	2	1.9999998	-0.0049903963	2.4396923e-06	-1.2286638e-05	3.326981e-05	1.3866435e-06	0.00025313412	0.00026234183	-0.00046946569	-1.2390501e-07	5.3191623e-07	-2.2912066e-10	4.9328038e-10	1.7540482e-09	6.39608e-10	-1.8206528e-08	4.0041009e-08	5.0508573e-08	8.013482e-07	2.2722491e-08	0	0	0	2.553346e-09	2.5917881e-09	8.1316465e-09	5.0530008e-08	7.9999864	7.9999968	8	8	8	8	7.9999999	7.9999998	1.2547817e-05	3.2057243e-06	2.3305318e-09	2.2603598e-09	9.775381e-09	3.2464462e-08	8.6944225e-08	1.7164983e-07	-171.7707	R0:S0:1	-110.64	uncorrelated	51514b8	0	sharp_wc_10.0_b_50	 3.00e+01	 1.00e+06	2022-03-29@15:02
2x2_2C_8b_C2v_L	10.44	0	14	2.61	-0.12749356	-10.332781	-12.206116	-0.32522146	-12.208642	-0.32860508	-0.73723354	-11.861555	16.45	0.00063999233	-1.4662507e-05	-1.0503152e-05	-4.39013e-06	1.6690541e-05	-2.7595581e-05	-0.00013435227	-0.00045273061	0.00099962051	-0.89282341	1.3577347	0.054364409	-1.3578006	0.054769181	-0.099182042	-1.6895801	1.39	0.64	0.103	0	1.3333333	2	-7.3324258e-10	0	0	0.99999982	1.9999993	2	2	2	2	2	2	2	1.9999998	-0.0045055468	-8.6271406e-06	6.2530532e-05	4.6559231e-05	-7.3769637e-05	0.00022012104	0.001073307	0.00080054052	6.9458553e-08	4.3337754e-07	-2.2127927e-09	-1.6942658e-09	4.076774e-09	-1.0210255e-08	2.031304e-07	1.6331707e-07	4.785197e-08	6.5317279e-07	1.8489761e-08	1.388889e-10	0	2.6093439e-10	1.9247111e-09	4.4034665e-08	2.6100333e-08	4.7904543e-08	7.9999889	7.9999974	8	8	8	8	7.9999991	7.9999993	1.0225788e-05	2.6161814e-06	1.1705823e-08	1.1166635e-08	2.0163814e-08	4.0941562e-08	8.7537999e-07	6.6458578e-07	-171.8553	R0:S0:1	-110.72	uncorrelated	51514b8	0	sharp_wc_10.0_b_50	 2.98e+01	 1.00e+06	2022-03-29@15:05
2x2_2C_8b_C2v_L	10.44	0	14	2.61	-0.12749329	-10.334062	-12.206651	-0.32558779	-12.209176	-0.32897666	-0.73753595	-11.861912	16.46	0.00054111343	-2.3969009e-05	7.6096317e-06	-1.3447483e-06	-1.4099813e-05	-1.2699785e-05	-2.0745866e-05	9.2429962e-05	0.0010189775	-0.89217665	1.3574176	0.053871146	-1.3574758	0.054153789	-0.097879935	-1.6874193	1.39	0.64	0.103	0	1.3333333	2	0	0	0	0.99999989	1.9999995	2	2	2	2	2	2	2	1.9999999	-0.0037921574	3.8714876e-05	-1.6796628e-05	7.6672086e-06	2.5096084e-05	9.1178668e-05	0.00012881797	-0.00015540182	-5.8049087e-08	3.068999e-07	0	0	3.8969886e-10	2.6278832e-10	-2.9538816e-09	4.8512309e-09	2.8338608e-08	4.6268935e-07	1.3120031e-08	0	0	0	3.2462388e-10	6.2040328e-10	9.0562757e-10	2.8336887e-08	7.9999922	7.9999981	8	8	8	8	8	8	7.24439e-06	1.8510816e-06	4.126971e-10	2.6179345e-10	1.7566446e-09	4.3222623e-09	1.4062948e-08	2.050168e-08	-171.94279	R0:S0:1	-110.8	uncorrelated	51514b8	0	sharp_wc_10.0_b_50	 2.97e+01	 1.00e+06	2022-03-29@15:07
2x2_2C_8b_C2v_L	10.44	0	14	2.61	-0.12749303	-10.336009	-12.207457	-0.32614223	-12.20998	-0.32953635	-0.73798304	-11.862205	16.47	0.00039717878	-1.2929693e-05	2.3400595e-05	1.807634e-06	-3.888711e-05	4.8836515e-06	1.6373581e-05	6.2764146e-05	0.0010496463	-0.89183887	1.3573869	0.053164753	-1.3574723	0.053304515	-0.096722298	-1.6885954	1.39	0.64	0.103	0	1.3333333	2	0	0	0	0.99999994	1.9999998	2	2	2	2	2	2	2	1.9999999	-0.0027709587	2.0266519e-05	-3.60425e-05	-1.6075547e-05	5.8681327e-05	-4.0169361e-05	-0.00013282675	-0.0001162962	-2.5821873e-08	1.6368466e-07	-2.6351519e-10	-1.2562712e-10	6.8991788e-10	-5.0785292e-10	3.7936162e-09	3.4415614e-09	1.5206455e-08	2.4704946e-07	6.9888273e-09	0	0	1.234941e-10	0	6.7338934e-10	5.3744742e-10	1.520851e-08	7.9999958	7.999999	8	8	8	8	8	8	3.8676799e-06	9.8797736e-07	1.0869167e-09	6.5824221e-10	2.8967738e-09	2.2093952e-09	1.5476621e-08	1.3849116e-08	-172.03361	R0:S0:1	-110.88	uncorrelated	51514b8	0	sharp_wc_10.0_b_50	 2.95e+01	 1.00e+06	2022-03-29@15:09
2x2_2C_8b_C2v_L	10.44	0	14	2.61	-0.12749268	-10.338783	-12.208631	-0.32692306	-12.21115	-0.33032057	-0.73861296	-11.862841	16.48	0.00020207308	1.2076977e-05	1.3503286e-05	2.243933e-06	-2.0759771e-05	2.0763912e-05	4.8730327e-05	-5.3677638e-05	0.0010931896	-0.89195301	1.3572252	0.052192912	-1.3573594	0.052190378	-0.094637191	-1.687098	1.39	0.64	0.103	0	1.3333333	2	0	0	0	0.99999998	1.9999999	2	2	2	2	2	2	2	2	-0.0014036137	-2.0427683e-05	-1.4321747e-05	-1.6314787e-05	2.6442804e-05	-0.00015264048	-0.00033741342	7.7519643e-05	2.5702439e-09	4.2072678e-08	0	0	6.9895804e-10	-1.2895126e-09	3.3901229e-10	4.5364771e-09	4.1489423e-09	6.3392219e-08	1.8032207e-09	0	0	0	9.0897867e-10	4.2744492e-09	4.6762505e-10	4.1503174e-09	7.9999989	7.9999997	8	8	8	8	7.9999999	8	9.9228742e-07	2.5381689e-07	1.3811977e-10	1.6039823e-10	3.4476536e-09	1.2352995e-08	5.8770982e-08	1.9029538e-08	-172.12951	R0:S0:1	-110.96	uncorrelated	51514b8	0	sharp_wc_10.0_b_50	 2.94e+01	 1.00e+06	2022-03-29@15:11
2x2_2C_8b_C2v_L	10.44	0	14	2.61	-0.1274917	-10.342555	-12.21025	-0.32796016	-12.212762	-0.33135722	-0.73943162	-11.863543	16.49	-4.0779592e-05	3.5849375e-05	-1.0340929e-05	2.0114709e-06	1.848764e-05	3.5951617e-05	0.00010558637	-2.3828814e-05	0.0011500444	-0.89231205	1.3568213	0.051011477	-1.3569806	0.050889965	-0.092740632	-1.6880485	1.39	0.64	0.103	0	1.3333333	2	0	0	0	0.99999999	2	2	2	2	2	2	2	2	2	0.00028208637	-4.8694537e-05	1.105111e-05	-1.4685035e-05	-1.9808545e-05	-0.00026110516	-0.00074160328	2.3622256e-05	-1.1870202e-09	1.8703194e-09	0	0	1.8395831e-09	-2.6077263e-09	1.7430945e-08	1.837903e-08	1.3728658e-09	2.5658284e-09	1.5607338e-10	0	0	1.1791546e-10	2.6369547e-09	2.0583879e-08	1.2545573e-09	1.3771579e-09	8	8	8	8	8	8	7.9999997	7.9999999	4.045227e-08	1.1524064e-08	0	1.3231132e-10	9.1148375e-09	3.5419243e-08	2.846951e-07	7.3942298e-08	-172.2307	R0:S0:1	-111.04	uncorrelated	51514b8	0	sharp_wc_10.0_b_50	 2.92e+01	 1.00e+06	2022-03-29@15:13
2x2_2C_8b_C2v_L	10.44	0	14	2.61	-0.12749063	-10.350822	-12.213849	-0.32983545	-12.216336	-0.33319121	-0.7407347	-11.865394	16.5	-0.00020770644	-4.4285869e-05	-1.189504e-05	-9.3586166e-07	2.1954492e-05	1.345236e-05	3.4567428e-05	1.328726e-05	0.0012321404	-0.89141272	1.3561869	0.051707072	-1.3562715	0.051998204	-0.094668214	-1.6866074	1.39	0.64	0.103	0	1.3333333	2	0	0	0	0.99999998	1.9999999	2	2	2	2	2	2	2	2	0.0014298583	6.4194131e-05	1.4654965e-05	7.2021773e-06	-2.7809468e-05	-9.6164931e-05	-0.00024607779	-2.864535e-05	6.7628515e-09	4.4006181e-08	0	0	3.2413175e-10	0	3.6209324e-09	2.2364814e-09	4.1629413e-09	6.5789527e-08	1.9877433e-09	0	0	0	3.6048498e-10	2.2788429e-09	1.6903989e-10	4.1645825e-09	7.9999989	7.9999997	8	8	8	8	8	8	1.0302504e-06	2.6555777e-07	1.24956e-10	0	1.6568627e-09	4.7979266e-09	3.2441331e-08	8.9101602e-09	-172.35531	R0:S0:1	-111.12	uncorrelated	51514b8	1	sharp_wc_10.0_b_50	 2.91e+01	 2.71e-04	2022-03-29@15:17
2x2_2C_8b_C2v_L	10.44	0	14	2.61	-0.12748882	-10.366251	-12.22074	-0.33328997	-12.223197	-0.33662773	-0.74335519	-11.869424	16.51	-0.00020206302	3.0430841e-05	-4.9039865e-06	-2.7571969e-06	8.482203e-06	-1.1829105e-05	-4.3782773e-05	-5.7276614e-05	0.0013568861	-0.89204254	1.3563212	0.051340544	-1.3564193	0.051535755	-0.09205207	-1.6867095	1.39	0.64	0.103	0	1.3333333	2	0	0	0	0.99999998	1.9999999	2	2	2	2	2	2	2	2	0.0013851829	-4.6193134e-05	1.1584758e-05	2.1379053e-05	-1.7479069e-05	8.6944349e-05	0.00031805605	0.00010700014	-1.5498597e-08	4.1125681e-08	0	-1.0789965e-10	3.0218547e-10	-7.6867039e-10	1.0225962e-08	5.8476985e-09	4.0947872e-09	6.1745089e-08	1.8010153e-09	0	0	0	2.8877611e-10	3.7806345e-09	6.4716499e-10	4.0930637e-09	7.999999	7.9999998	8	8	8	8	7.9999999	8	9.673994e-07	2.4829349e-07	2.6987233e-10	4.2689234e-10	1.3864326e-09	4.4224514e-09	5.94509e-08	2.3344358e-08	-172.52075	R0:S0:1	-111.2	uncorrelated	51514b8	1	sharp_wc_10.0_b_50	 2.89e+01	 5.13e-04	2022-03-29@15:21
2x2_2C_8b_C2v_L	10.44	0	14	2.61	-0.12748557	-10.392704	-12.232718	-0.33896821	-12.235119	-0.34226305	-0.74739999	-11.876501	16.52	-1.3301898e-05	8.2944566e-06	5.5947464e-06	-4.7191304e-07	-1.07168e-05	-1.3398206e-05	-3.919171e-05	-1.5609848e-05	0.0015355782	-0.89318045	1.3564779	0.051625921	-1.3565654	0.051887561	-0.09397504	-1.6861853	1.39	0.64	0.103	0	1.3333333	2	0	0	0	1	2	2	2	2	2	2	2	2	2	9.0826931e-05	-1.3681535e-05	-4.9279621e-06	3.6531851e-06	1.1125896e-05	9.5556837e-05	0.00027527622	3.2605261e-05	-3.0357905e-10	2.1717963e-10	0	0	2.424654e-10	-3.6978611e-10	4.464243e-09	2.7957389e-09	1.9638113e-10	2.6249047e-10	0	0	0	0	3.479288e-10	2.8357192e-09	2.0676882e-10	1.9433255e-10	8	8	8	8	8	8	8	8	4.2524253e-09	1.2300472e-09	0	0	1.2563764e-09	4.7726771e-09	4.0535559e-08	1.1153807e-08	-172.74632	R0:S0:1	-111.28	uncorrelated	51514b8	1	sharp_wc_10.0_b_50	 2.88e+01	 4.35e-04	2022-03-29@15:25
2x2_2C_8b_C2v_L	10.44	0	14	2.61	-0.12748076	-10.432805	-12.251016	-0.34740419	-12.253337	-0.35064056	-0.75363503	-11.887755	16.53	0.00025934248	2.0742724e-05	2.1752936e-05	4.4572292e-06	-3.6820807e-05	5.8254897e-06	1.6379448e-05	-1.9637846e-05	0.0017761134	-0.89411186	1.3567986	0.052034732	-1.3568838	0.052305103	-0.092439921	-1.6864273	1.39	0.64	0.103	0	1.3333333	2	0	0	0	0.99999998	1.9999999	2	2	2	2	2	2	2	2	-0.0017622436	-3.1259609e-05	-2.726993e-05	-3.2444024e-05	4.8788206e-05	-4.3366209e-05	-0.00011084788	2.5146998e-05	-1.667582e-09	6.5893933e-08	0	-1.2062944e-10	3.4742608e-10	-3.3284781e-10	1.6299349e-10	4.5480037e-10	6.115035e-09	9.9977653e-08	2.8123326e-09	0	0	0	0	4.5429704e-10	0	6.1135434e-09	7.9999983	7.9999996	8	8	8	8	8	8	1.5640243e-06	4.0002293e-07	5.599205e-10	6.9587047e-10	1.7288121e-09	1.5677648e-09	6.3715807e-09	1.9904828e-09	-173.04815	R0:S0:1	-111.36	uncorrelated	51514b8	1	sharp_wc_10.0_b_50	 2.86e+01	 3.89e-04	2022-03-29@15:29
2x2_2C_8b_C2v_L	10.44	0	14	2.61	-0.12747413	-10.490937	-12.277688	-0.35945029	-12.279896	-0.36260325	-0.76236488	-11.90429	16.54	0.00033822065	3.9456994e-05	-0.00010941818	-1.3794567e-05	0.00018100552	-1.6283e-05	3.9660047e-05	0.00014073394	0.0021650093	-0.89556021	1.3578335	0.052830658	-1.3578671	0.053064912	-0.094346562	-1.6865101	1.39	0.64	0.103	0	1.3333333	2	-3.2709052e-10	-1.1291749e-10	0	0.99999996	1.9999998	2	2	2	2	2	2	2	2	-0.0022881698	-3.4074123e-05	0.00012482662	9.8209239e-05	-0.00022631885	0.00012156215	-0.00028744498	-0.00021108484	-5.1892552e-08	1.0995022e-07	-8.2699151e-10	-7.9777095e-10	5.164993e-09	-3.1182072e-09	1.0842112e-08	8.9819862e-09	1.0844144e-08	1.6864315e-07	4.6877071e-09	5.4414695e-10	3.6306957e-10	1.7759669e-09	5.596803e-10	3.0910643e-09	1.808667e-09	1.0865736e-08	7.9999971	7.9999993	8	8	8	8	7.9999999	8	2.6410053e-06	6.7500847e-07	9.2159964e-09	7.0011534e-09	3.106356e-08	1.6817581e-08	5.5070926e-08	4.0122258e-08	-173.44941	R0:S0:1	-111.44	uncorrelated	51514b8	1	sharp_wc_10.0_b_50	 2.85e+01	 3.19e-04	2022-03-29@15:34
2x2_2C_8b_C2v_L	10.44	0	14	2.61	-0.12746513	-10.569006	-12.313676	-0.37549926	-12.315733	-0.37853801	-0.77416546	-11.926888	16.55	0.00017215992	-4.8894723e-05	4.2430176e-05	5.9860401e-07	-6.5945732e-05	5.8706448e-06	-3.4169807e-05	-0.00012057328	0.002797675	-0.89879291	1.3587451	0.054015224	-1.3587905	0.054224701	-0.09424882	-1.6871908	1.39	0.64	0.103	0	1.3333333	2	-1.0196088e-10	0	0	0.99999999	2	2	2	2	2	2	2	2	2	-0.0011596834	5.5760197e-05	-4.0584675e-05	-2.8272048e-06	7.4141765e-05	-4.1332641e-05	0.00024872014	0.00019140873	-3.1789599e-09	2.8054311e-08	1.410725e-10	0	2.059017e-10	-1.5200631e-10	9.4846906e-09	8.0196176e-09	2.9866931e-09	4.3376271e-08	1.2900347e-09	0	0	1.9127988e-10	0	2.3107916e-09	1.476602e-09	2.9966651e-09	7.9999993	7.9999998	8	8	8	8	8	8	6.7759038e-07	1.7451613e-07	9.2179226e-10	3.7215665e-10	3.0091203e-09	1.5718164e-09	4.4044329e-08	3.4186686e-08	-173.96194	R0:S0:1	-111.52	uncorrelated	51514b8	1	sharp_wc_10.0_b_50	 2.83e+01	 3.45e-04	2022-03-29@15:38
2x2_2C_8b_C2v_L	10.44	0	14	2.61	-0.12745375	-10.667013	-12.35898	-0.3955511	-12.360847	-0.39844483	-0.78903675	-11.955551	16.56	-0.00023883972	-0.00024431243	0.00047729801	4.7636743e-05	-0.00077767456	7.2286423e-05	-0.00020511011	-0.00080355949	0.0036741105	-0.90380997	1.3595334	0.05558843	-1.3596541	0.05578447	-0.092146698	-1.6884693	1.39	0.64	0.103	0	1.3333333	2	-7.1824575e-09	-1.0762094e-09	4.462852e-10	0.99999993	1.9999999	2	2	2	2	2	1.9999999	1.9999999	1.9999999	0.0016040676	0.00023609722	-0.00052083105	-0.00032709224	0.00094354106	-0.00052069885	0.0014686439	0.0012233802	-1.0562531e-07	4.1024461e-08	-6.0354336e-09	-5.792461e-09	7.8124473e-08	-4.8872091e-08	3.241128e-07	2.9323486e-07	2.0716556e-08	8.319396e-08	4.094117e-09	9.4700825e-09	4.0440922e-09	3.0958076e-08	1.0245591e-08	7.9930285e-08	5.9405993e-08	2.1350418e-08	7.9999985	7.9999996	7.9999998	7.9999999	7.9999995	7.9999997	7.9999984	7.9999987	1.3425796e-06	3.8203245e-07	1.4996089e-07	8.8160817e-08	5.2529393e-07	2.8437925e-07	1.5406322e-06	1.2939379e-06	-174.58576	R0:S0:1	-111.6	uncorrelated	51514b8	0	sharp_wc_10.0_b_50	 2.82e+01	 1.00e+06	2022-03-29@15:40
2x2_2C_8b_C2v_L	10.44	0	14	2.61	-0.12743626	-10.78951	-12.415405	-0.42059005	-12.417045	-0.42330019	-0.80734932	-11.990749	16.57	-0.00054828704	3.3628643e-06	2.184935e-05	8.2024573e-06	-3.4990872e-05	5.1325749e-06	-3.855221e-05	2.8479323e-05	0.0054809731	-0.90522172	1.3619354	0.057898996	-1.3619895	0.058088268	-0.097597898	-1.6893751	1.39	0.64	0.103	0	1.3333333	2	-2.1622211e-10	-4.0330155e-10	-1.320418e-10	0.99999989	1.9999996	2	2	2	2	2	2	2	1.9999999	0.0036610879	-8.3031102e-06	-2.9939899e-05	-5.6859806e-05	4.7968589e-05	-3.726515e-05	0.00024864158	-4.3213554e-05	-1.5686835e-07	2.7788516e-07	-2.2183885e-10	-3.6553164e-10	3.8682797e-10	-3.1896136e-10	1.826781e-10	2.3174403e-09	2.6341192e-08	4.3658175e-07	1.1524147e-08	0	1.2304646e-10	0	0	2.2917268e-09	2.0152946e-10	2.634269e-08	7.9999927	7.9999983	8	8	8	8	8	8	6.7624406e-06	1.7216572e-06	1.0319948e-09	1.9999811e-09	1.7537877e-09	1.4073992e-09	3.1709475e-08	9.5691907e-09	-175.34277	R0:S0:1	-111.68	uncorrelated	51514b8	1	sharp_wc_10.0_b_50	 2.80e+01	 3.75e-04	2022-03-29@15:44
2x2_2C_8b_C2v_L	10.44	0	14	2.61	-0.12740845	-10.936286	-12.482972	-0.45072064	-12.484333	-0.45321033	-0.82982253	-12.032725	16.58	-0.00060507989	-4.6899509e-05	-1.4150474e-05	5.2443739e-06	2.1644446e-05	8.3945677e-06	2.365343e-05	-6.6546739e-05	0.0088367522	-0.91057981	1.3642254	0.060633734	-1.3642745	0.060806514	-0.098748653	-1.6911876	1.39	0.64	0.103	0	1.3333333	2	-1.8805581e-10	-1.1773545e-09	-3.0017732e-10	0.99999987	1.9999995	2	2	2	2	2	2	2	1.9999999	0.0040251338	5.5387748e-05	2.2720518e-05	-3.2506386e-05	-3.2802035e-05	-5.26556e-05	-0.00014189762	0.00010503927	-2.7823114e-07	3.3335723e-07	-1.4840977e-10	1.368528e-10	2.9518784e-10	2.6385253e-10	-1.8485309e-09	2.4857175e-09	3.1783357e-08	5.394994e-07	1.3813078e-08	0	0	0	0	7.373897e-10	4.3616843e-10	3.1781527e-08	7.9999911	7.9999979	8	8	8	8	8	8	8.1955895e-06	2.0816102e-06	6.2416229e-10	7.037865e-10	1.2726225e-09	1.6745173e-09	1.2362388e-08	1.068108e-08	-176.23496	R0:S0:1	-111.76	uncorrelated	51514b8	1	sharp_wc_10.0_b_50	 2.79e+01	 4.50e-04	2022-03-29@15:48
2x2_2C_8b_C2v_L	10.44	0	14	2.61	-0.12737032	-11.10792	-12.561872	-0.48604724	-12.562906	-0.48827843	-0.85649917	-12.081551	16.59	-0.00039649336	-0.00017075811	-0.00022111479	-2.695288e-05	0.00035315035	-2.4011371e-05	0.00011436875	-0.00025162566	0.013762729	-0.91754482	1.3670415	0.063901697	-1.3670771	0.064044613	-0.096487498	-1.6940496	1.39	0.64	0.103	0	1.3333333	2	-2.1661593e-10	-7.4628084e-10	-3.3284885e-10	0.99999993	1.9999998	2	2	2	2	2	2	2	1.9999999	0.0026281253	0.0002262167	0.00029729986	0.00019269703	-0.00047820231	0.00018535619	-0.00067729202	0.00042474468	-1.1900087e-07	1.4666647e-07	-1.4108749e-08	-9.7394506e-09	3.5773536e-08	-1.4792237e-08	-4.20162e-08	4.9560273e-08	1.8063056e-08	2.4174199e-07	7.4227895e-09	3.0753009e-09	1.3723493e-09	7.875288e-09	1.2735724e-09	1.669756e-08	7.4315327e-09	1.8059901e-08	7.9999962	7.9999991	7.9999999	8	7.9999998	7.9999999	7.9999997	7.9999998	3.5028055e-06	9.172549e-07	6.4521458e-08	4.4091489e-08	1.6115194e-07	8.060365e-08	2.7448754e-07	2.0577329e-07	-177.26489	R0:S0:1	-111.84	uncorrelated	51514b8	0	sharp_wc_10.0_b_50	 2.78e+01	 1.00e+06	2022-03-29@15:50
2x2_2C_8b_C2v_L	10.44	0	14	2.61	-0.12736	-11.308215	-12.653287	-0.52772821	-12.653951	-0.52965654	-0.88789185	-12.136472	16.6	0.00035783446	8.5048671e-05	-0.00019124367	-3.2828036e-05	0.00030819327	-3.7368463e-05	0.00019512685	0.00064341459	0.022071197	-0.92210016	1.3706108	0.067832839	-1.3706058	0.067933588	-0.10331757	-1.6956283	1.39	0.64	0.103	0	1.3333333	2	-2.4108906e-09	-6.5565997e-10	0	0.99999992	1.9999998	2	2	2	2	2	1.9999999	2	1.9999999	-0.0023776833	-4.8813481e-05	0.00017844458	0.00020137233	-0.00033801296	0.00024092025	-0.0013285198	-0.0010140587	-3.5211974e-07	1.1170807e-07	1.6984699e-09	1.8533916e-09	4.9683968e-09	-4.3109577e-09	2.7416813e-07	2.3108992e-07	2.1838781e-08	2.2370874e-07	4.6735984e-09	1.1531807e-09	1.4994059e-09	4.0001851e-09	2.1472202e-09	6.5229917e-08	4.1253212e-08	2.2055291e-08	7.9999967	7.9999993	8	8	7.9999999	8	7.9999987	7.999999	3.0231396e-06	7.4247528e-07	2.3197064e-08	2.6072942e-08	6.5528633e-08	4.4239369e-08	1.2636107e-06	9.7857524e-07	-178.44912	R0:S0:1	-111.92	uncorrelated	51514b8	0	sharp_wc_10.0_b_50	 2.76e+01	 1.00e+06	2022-03-29@15:53
2x2_2C_8b_C2v_L	10.44	0	14	2.61	-0.12840923	-11.534701	-12.756202	-0.57527684	-12.756446	-0.57685975	-0.92404051	-12.197322	16.61	0.00037501285	-6.1847737e-05	-7.00485e-05	-2.341936e-05	0.00010566912	-2.6482085e-05	1.4681795e-05	-5.5356897e-05	0.022120821	-0.93005944	1.3739791	0.072316772	-1.3739799	0.072406499	-0.10970266	-1.6975436	1.39	0.64	0.103	0	1.3333333	2	-2.2128199e-10	-3.8822887e-10	0	0.99999995	1.9999998	2	2	2	2	2	2	2	2	-0.0024751028	8.7966158e-05	9.4661186e-05	0.00015175506	-0.00014298018	0.00017410719	-7.7677284e-05	9.4112769e-05	-3.032441e-07	1.2363561e-07	-2.0300999e-09	-2.9912502e-09	4.073005e-09	-4.9175747e-09	-1.2485168e-09	1.9536654e-09	1.2410084e-08	2.4177049e-07	5.1331215e-09	3.3957015e-10	8.4421359e-10	7.4288042e-10	1.1114212e-09	2.2148061e-10	3.3134029e-10	1.2410912e-08	7.9999965	7.9999992	8	8	8	8	8	8	3.2002142e-06	7.9117982e-07	9.2827744e-09	1.5129873e-08	1.8340457e-08	2.2650775e-08	5.5751579e-09	8.0675647e-09	-179.77852	R0:S0:1	-112	uncorrelated	51514b8	1	sharp_wc_10.0_b_50	 2.75e+01	 3.99e-04	2022-03-29@15:57
2x2_2C_8b_C2v_L	10.44	0	14	2.61	-0.13051589	-11.789234	-12.870712	-0.62967684	-12.870492	-0.63086956	-0.96617384	-12.262967	16.62	-0.0001591563	0.00011875871	-8.008036e-05	-1.6682528e-05	0.00011339571	-2.6104846e-05	-5.7935018e-05	-0.00018579716	0.018781018	-0.93809775	1.377927	0.077410137	-1.3779201	0.077460403	-0.11209012	-1.7003658	1.39	0.64	0.103	0	1.3333333	2	0	-1.5441574e-10	0	0.99999999	2	2	2	2	2	2	2	2	2	0.0010441478	-0.00015244629	0.0001100027	0.00010958383	-0.00015540544	0.00016996216	0.00039329751	0.00032433718	-5.9390679e-08	2.4462072e-08	-2.4146761e-09	-2.4543885e-09	4.9149254e-09	-5.4161148e-09	3.0847851e-08	2.7062483e-08	3.8746993e-09	4.0560289e-08	1.6093331e-09	4.2752024e-10	4.3534509e-10	8.627481e-10	1.0504264e-09	5.7066805e-09	4.1453099e-09	3.8727048e-09	7.9999994	7.9999998	8	8	8	8	7.9999999	7.9999999	5.746405e-07	1.5428937e-07	1.0511742e-08	1.0607566e-08	2.153014e-08	2.3766028e-08	1.2830226e-07	1.0956736e-07	-181.26128	R0:S0:1	-112.08	uncorrelated	51514b8	1	sharp_wc_10.0_b_50	 2.74e+01	 4.07e-04	2022-03-29@16:01
2x2_2C_8b_C2v_L	10.44	0	14	2.61	-0.13395701	-12.073224	-12.995225	-0.69341824	-12.994515	-0.69416412	-1.0166668	-12.327828	16.63	-0.00023609464	-0.00028486731	-4.0025404e-05	-1.0245016e-05	5.1995392e-05	-7.5472818e-06	5.3222537e-05	0.00019197969	0.027396197	-0.94753989	1.3824972	0.083346752	-1.3824432	0.083366766	-0.11772912	-1.7026792	1.39	0.64	0.103	0	1.3333333	2	-1.1485522e-10	-1.5197317e-10	0	0.99999998	1.9999999	2	2	2	2	2	2	2	2	0.001536009	0.00035239029	4.0482544e-05	5.9910768e-05	-5.6023404e-05	4.5190983e-05	-0.0003522532	-0.00031246028	-5.6340603e-08	6.0271641e-08	0	0	1.6122882e-10	-1.4803287e-10	2.3942196e-08	2.2317788e-08	6.1625957e-09	1.0015102e-07	5.8235292e-09	0	1.2840307e-10	1.0828582e-10	0	4.576294e-09	3.7993431e-09	6.1670082e-09	7.9999987	7.9999996	8	8	8	8	7.9999999	7.9999999	1.2173169e-06	3.7811407e-07	1.2895299e-09	2.0199309e-09	1.8651576e-09	1.450125e-09	1.0173208e-07	9.2358794e-08	-182.898	R0:S0:1	-112.16	uncorrelated	51514b8	1	sharp_wc_10.0_b_50	 2.72e+01	 5.83e-04	2022-03-29@16:05
2x2_2C_8b_C2v_L	10.44	0	14	2.61	-0.14151652	-12.386892	-13.129158	-0.76714162	-13.127933	-0.76738269	-1.0763469	-12.39054	16.64	-7.6958128e-05	0.000169808	1.2672843e-05	-2.1930308e-06	-1.9726072e-05	1.5076334e-05	5.2333575e-05	-2.7168872e-05	0.02825066	-0.95720074	1.3869512	0.089945334	-1.3868844	0.089927424	-0.12371156	-1.7046441	1.39	0.64	0.103	0	1.3333333	2	-1.0586106e-10	-1.1622923e-10	0	1	2	2	2	2	2	2	2	2	2	0.00050324844	-0.00020345588	-1.956815e-05	1.0047979e-05	3.059644e-05	-8.9545916e-05	-0.00029539956	3.8242529e-05	-2.3680643e-08	9.3585316e-09	0	0	4.3000559e-10	-8.9237894e-10	8.2583768e-10	2.9575824e-09	8.6912921e-10	1.0630043e-08	1.5478898e-09	0	0	0	2.9182967e-10	3.1898812e-09	2.2741453e-10	8.7193541e-10	7.9999998	7.9999999	8	8	8	8	8	8	1.474375e-07	5.6961647e-08	3.8741642e-10	2.2487279e-10	1.9466331e-09	4.8429306e-09	4.4626907e-08	1.2594802e-08	-184.69382	R0:S0:1	-112.24	uncorrelated	51514b8	1	sharp_wc_10.0_b_50	 2.71e+01	 1.08e-03	2022-03-29@16:08
2x2_2C_8b_C2v_L	10.44	0	14	2.61	-0.15360333	-12.729706	-13.270806	-0.85223352	-13.269051	-0.85190833	-1.1467069	-12.447764	16.65	0.00015644108	-0.00048063809	1.070262e-05	4.6004835e-07	-1.6694052e-05	-2.1866933e-06	2.2060564e-06	5.1821515e-05	0.034010849	-0.96747835	1.3913857	0.097295629	-1.3913133	0.097240881	-0.12857242	-1.7065031	1.39	0.64	0.103	0	1.3333333	2	-1.3694677e-10	-1.0381568e-10	0	0.99999999	2	2	2	2	2	2	2	2	2	-0.0010208195	0.00055910874	-1.3783977e-06	1.0585813e-06	8.8296448e-06	1.5060816e-05	-3.1952163e-05	-0.00010557035	-1.169862e-07	5.237845e-08	0	0	0	0	9.3711919e-10	2.986869e-09	3.3933392e-09	4.6096695e-08	1.0979816e-08	0	0	0	0	0	4.0022119e-10	3.3958001e-09	7.9999993	7.9999997	8	8	8	8	8	8	6.4952835e-07	3.1654104e-07	3.6071217e-10	3.67572e-10	3.2460957e-10	4.4381069e-10	6.9928678e-09	1.1946089e-08	-186.64356	R0:S0:1	-112.32	uncorrelated	51514b8	1	sharp_wc_10.0_b_50	 2.70e+01	 5.06e-04	2022-03-29@16:12
2x2_2C_8b_C2v_L	10.44	0	14	2.61	-0.17200481	-13.101245	-13.419186	-0.94937749	-13.416894	-0.94842398	-1.2282718	-12.49776	16.66	5.6215747e-05	-0.00034585923	-1.1211019e-05	-8.3823444e-07	1.0919051e-05	-2.7824142e-05	-0.00011346716	-0.00016057016	0.037690735	-0.97892353	1.3959249	0.1054418	-1.3958442	0.1053366	-0.13450627	-1.7074999	1.39	0.64	0.103	0	1.3333333	2	-2.6115547e-10	-1.3408713e-10	0	0.99999999	2	2	2	2	2	2	2	2	2	-0.00036558747	0.00038151303	3.8032685e-05	1.5194627e-05	-4.0669448e-05	0.00015922762	0.0006403927	0.00025143729	-1.8481765e-08	1.4136856e-08	-7.4130542e-10	-3.0157001e-10	1.4881597e-09	-4.0645101e-09	3.8969866e-08	2.4173454e-08	2.1374229e-09	5.8794711e-09	4.8500475e-09	0	0	0	9.0163077e-10	1.48884e-08	3.1138576e-09	2.1563027e-09	7.9999999	7.9999999	8	8	8	8	7.9999997	7.9999999	1.0036969e-07	9.723829e-08	3.7384923e-09	3.10992e-09	7.701158e-09	1.7817435e-08	2.3862212e-07	1.0162661e-07	-188.74633	R0:S0:1	-112.4	uncorrelated	51514b8	1	sharp_wc_10.0_b_50	 2.68e+01	 4.03e-04	2022-03-29@16:16
2x2_2C_8b_C2v_L	10.44	0	14	2.61	-0.19672098	-13.501508	-13.574299	-1.0585735	-13.571461	-1.0569296	-1.3210417	-12.540528	16.67	-0.00037763414	0.00057414459	-5.3068072e-05	-6.0878791e-06	6.3113237e-05	-6.1836013e-05	-0.00029468606	-0.00066434391	0.039290317	-0.99153628	1.4005687	0.11438384	-1.4004771	0.11421458	-0.14151313	-1.7076346	1.39	0.64	0.103	0	1.3333333	2	-4.625514e-10	0	0	0.9999999	1.9999998	2	2	2	2	2	1.9999999	2	1.9999999	0.0023957932	-0.00066812804	9.8075433e-05	5.0154512e-05	-0.00011712806	0.00033761307	0.0016838066	0.0010990824	-5.2672634e-07	1.720105e-07	-3.3151801e-09	-1.7372138e-09	7.3912342e-09	-1.6251078e-08	4.4057809e-07	3.3196882e-07	3.0897196e-08	2.4045814e-07	1.8399422e-08	3.3499603e-10	0	6.0825922e-10	4.0377328e-09	1.0271481e-07	4.9330096e-08	3.0933036e-08	7.9999965	7.999999	8	8	8	7.9999999	7.9999979	7.9999986	3.2859665e-06	1.0364823e-06	1.3899236e-08	1.062446e-08	3.3923558e-08	7.5640839e-08	2.0010236e-06	1.3635261e-06	-191.00212	R0:S0:1	-112.48	uncorrelated	51514b8	0	sharp_wc_10.0_b_50	 2.67e+01	 1.00e+06	2022-03-29@16:18
2x2_2C_8b_C2v_L	10.44	0	14	2.61	-0.22933161	-13.929088	-13.734104	-1.1810638	-13.730713	-1.1786652	-1.4260815	-12.573495	16.68	-0.00039362412	0.0004745199	-7.0967463e-07	9.2707228e-06	-5.6185217e-06	-1.8162735e-05	-0.00011995265	-0.00021289611	0.048381315	-1.0028135	1.4047988	0.12415193	-1.4046985	0.12394803	-0.14639766	-1.7082537	1.39	0.64	0.103	0	1.3333333	2	0	0	0	0.99999994	1.9999998	2	2	2	2	2	2	2	1.9999999	0.0024582034	-0.00052793429	1.9124055e-06	-4.4634778e-05	2.7449446e-06	8.977413e-05	0.00065404144	0.00036777483	-4.9354908e-07	1.4568839e-07	0	0	1.8435209e-10	-3.7483663e-10	6.2056469e-08	4.2669072e-08	1.5519017e-08	2.5994389e-07	1.2942525e-08	0	0	0	2.8635938e-10	1.5372894e-08	5.7290448e-09	1.5521671e-08	7.9999964	7.999999	8	8	8	8	7.9999997	7.9999998	3.3645555e-06	9.5071284e-07	2.6738023e-10	1.0058154e-09	1.0729657e-09	4.2100277e-09	2.8956515e-07	1.7431001e-07	-193.40508	R0:S0:1	-112.56	uncorrelated	51514b8	1	sharp_wc_10.0_b_50	 2.66e+01	 4.64e-04	2022-03-29@16:22
2x2_2C_8b_C2v_L	10.44	0	14	2.61	-0.27218372	-14.383179	-13.897677	-1.3173604	-13.893728	-1.314145	-1.543508	-12.595678	16.69	-4.6126149e-05	5.6092375e-07	4.9337793e-05	1.6287209e-05	-5.9446887e-05	4.3072923e-05	7.0026781e-05	-8.4681535e-05	0.055054924	-1.0158979	1.4088601	0.13472826	-1.408758	0.13447768	-0.15170803	-1.7079441	1.39	0.64	0.103	0	1.3333333	2	0	0	0	1	2	2	2	2	2	2	2	2	2	0.00028254758	-8.091917e-06	-5.3239596e-05	-7.8388938e-05	6.8880269e-05	-0.00020602707	-0.00032731894	0.00010575689	-6.2067239e-09	1.4477984e-09	-3.6298904e-10	-4.6563958e-10	1.5661139e-09	-2.7156072e-09	-6.2258289e-10	4.2454003e-09	5.3075544e-10	3.3578411e-09	0	1.0171686e-10	2.1395152e-10	2.0733193e-10	1.4844685e-09	3.7895491e-09	5.8367355e-10	5.32693e-10	8	8	8	8	8	8	7.9999999	8	4.3928341e-08	1.0676342e-08	2.341463e-09	3.6279149e-09	8.3853573e-09	2.3074973e-08	5.5715856e-08	2.0591836e-08	-195.95492	R0:S0:1	-112.64	uncorrelated	51514b8	1	sharp_wc_10.0_b_50	 2.65e+01	 5.54e-04	2022-03-29@16:26
2x2_2C_8b_C2v_L	10.44	0	14	2.61	-0.32669735	-14.862913	-14.06386	-1.4681284	-14.05935	-1.4640341	-1.6736075	-12.60597	16.7	0.00010487709	0.00081902483	-1.432929e-05	-1.1177166e-05	3.6323956e-05	4.9570568e-05	0.00023852424	0.00012813666	0.061817723	-1.0274153	1.4127355	0.14614891	-1.4126313	0.14582249	-0.15787415	-1.7064025	1.39	0.64	0.103	0	1.3333333	2	-4.4792496e-10	0	0	0.99999998	2	2	2	2	2	2	2	2	2	-0.00059685793	-0.00080775281	-1.7606505e-05	3.4622351e-05	-1.650352e-06	-0.00023637111	-0.0011145444	-0.00019935247	2.1926957e-08	5.9155423e-08	-4.3566415e-10	7.7392342e-10	1.2306574e-09	-7.0497734e-09	6.5900155e-08	4.4410331e-08	5.6774511e-09	1.449334e-08	2.1341092e-08	0	0	0	1.942535e-09	4.387407e-08	3.715563e-09	5.7268394e-09	7.9999997	7.9999996	8	8	8	8	7.9999993	7.9999998	2.6504684e-07	4.0670468e-07	4.6441275e-09	4.5054046e-09	1.1799449e-08	3.5301164e-08	6.5777191e-07	1.9330927e-07	-198.64912	R0:S0:1	-112.72	uncorrelated	51514b8	1	sharp_wc_10.0_b_50	 2.63e+01	 3.07e-04	2022-03-29@16:30
2x2_2C_8b_C2v_L	10.44	0	14	2.61	-0.39341962	-15.367817	-14.232274	-1.6335861	-14.227201	-1.62855	-1.8164655	-12.604084	16.71	0.00053853313	0.00033139591	0.00010116771	1.7992633e-05	-0.00010722583	0.00010569579	0.00020082672	-0.00020414497	0.070604613	-1.0415358	1.4161319	0.15834945	-1.4160394	0.15793566	-0.16458416	-1.7044256	1.39	0.64	0.103	0	1.3333333	2	0	0	0	0.99999992	1.9999997	2	2	2	2	2	2	2	1.9999999	-0.0030921443	-0.00031336576	-0.00010627368	-8.1273267e-05	0.00012442524	-0.00045899079	-0.00085998456	0.00025481096	-3.5157703e-07	1.6477034e-07	-9.9710342e-10	-7.9946698e-10	6.8510585e-09	-1.2397186e-08	-4.2311838e-09	2.77769e-08	2.112319e-08	3.8092256e-07	8.3254292e-09	3.858549e-10	2.2689317e-10	7.4138917e-10	7.2981079e-09	2.5844512e-08	3.5407943e-09	2.1131493e-08	7.9999947	7.9999987	8	8	8	7.9999999	7.9999996	7.9999999	4.9265301e-06	1.2699397e-06	6.9931007e-09	5.1544088e-09	3.7044292e-08	1.1282807e-07	3.8282315e-07	1.3506972e-07	-201.4868	R0:S0:1	-112.8	uncorrelated	51514b8	1	sharp_wc_10.0_b_50	 2.62e+01	 4.70e-04	2022-03-29@16:33
2x2_2C_8b_C2v_L	10.44	0	14	2.61	-0.47307597	-15.89765	-14.402511	-1.8139511	-14.396871	-1.807909	-1.9721636	-12.589893	16.72	0.00066682743	4.7284599e-05	-0.00016109914	-7.2664874e-05	0.00022842259	-2.4632016e-05	0.00019460336	3.432706e-05	0.080010447	-1.0541255	1.4193418	0.17153998	-1.4192512	0.17103494	-0.17079461	-1.7020446	1.39	0.64	0.103	0	1.3333333	2	0	0	0	0.99999988	1.9999995	2	2	2	2	2	2	2	1.9999999	-0.003737776	-2.0874394e-06	0.00018115245	0.0003076995	-0.0002547151	0.00012004266	-0.00082177361	-6.6573739e-05	-7.3270593e-07	2.2481198e-07	-6.2427118e-09	-9.0059238e-09	8.2046961e-09	-4.1079415e-09	2.6570119e-08	2.088066e-08	2.963323e-08	5.4373796e-07	7.2381026e-09	1.2070007e-09	3.2722154e-09	2.204704e-09	5.0214677e-10	2.353955e-08	1.3285915e-09	2.964463e-08	7.9999921	7.9999982	8	7.9999999	8	8	7.9999996	7.9999999	7.321965e-06	1.7868777e-06	3.2605784e-08	5.6866704e-08	4.1846552e-08	2.1328559e-08	3.5027756e-07	9.3077548e-08	-204.46805	R0:S0:1	-112.88	uncorrelated	51514b8	1	sharp_wc_10.0_b_50	 2.61e+01	 4.45e-04	2022-03-29@16:37
2x2_2C_8b_C2v_L	10.44	0	14	2.61	-0.56566638	-16.452411	-14.574569	-2.0092234	-14.568361	-2.002111	-2.1407016	-12.563398	16.73	0.00048976	-3.33091e-05	-0.00080112985	-0.00028314969	0.0010432692	-0.00034141285	0.00021985416	0.00084355276	0.090035225	-1.0651841	1.4223651	0.18572049	-1.4222667	0.18512032	-0.17650549	-1.6992596	1.39	0.64	0.103	0	1.3333333	2	-6.7477339e-09	-8.3574538e-10	3.7836192e-10	0.99999987	1.9999997	2	2	2	2	1.9999999	2	2	1.9999999	-0.0026952145	0.00013778991	0.00083129548	0.0011278754	-0.0011213433	0.0013872434	-0.00097707723	-0.0011610612	-6.1294149e-07	1.3072725e-07	-8.4267994e-08	-1.0232227e-07	1.7413431e-07	-2.0237423e-07	1.6800562e-07	2.0907171e-07	3.7146314e-08	2.7660274e-07	4.2026596e-09	2.464783e-08	4.387745e-08	4.4456202e-08	6.6418065e-08	3.3469036e-08	5.0305012e-08	3.792077e-08	7.9999957	7.999999	7.9999994	7.9999992	7.999999	7.9999987	7.9999992	7.999999	4.0547277e-06	1.0475225e-06	5.443787e-07	7.6858984e-07	9.8296759e-07	1.2418965e-06	7.9810513e-07	9.8962014e-07	-207.59289	R0:S0:1	-112.96	uncorrelated	51514b8	0	sharp_wc_10.0_b_50	 2.60e+01	 1.00e+06	2022-03-29@16:39
2x2_2C_8b_C2v_L	10.44	0	14	2.61	-0.67298378	-17.031017	-14.747557	-2.21997	-14.740773	-2.2117212	-2.322224	-12.524567	16.74	-0.0003239206	0.00041991311	0.0012350785	0.00043439564	-0.0016092371	0.00049780247	-0.00038543792	-0.00052825943	0.10342282	-1.0793355	1.4228489	0.20019929	-1.4228241	0.1995836	-0.17864402	-1.6955066	1.39	0.64	0.103	0	1.3333333	2	-8.8661236e-09	-1.0945572e-09	4.9769573e-10	0.99999983	1.9999999	2	1.9999999	1.9999999	1.9999999	1.9999999	1.9999999	2	1.9999998	0.0017687695	-0.00048810552	-0.0013178868	-0.0016736697	0.0017568262	-0.0019587886	0.0014908313	0.00065733506	-4.1561036e-07	1.3051333e-07	-2.4819181e-07	-2.9366957e-07	4.6222715e-07	-4.9911827e-07	1.1878781e-07	1.0164566e-07	4.9728324e-08	1.1776945e-07	9.215201e-09	6.1354998e-08	9.6269198e-08	1.0792144e-07	1.31994e-07	7.6710907e-08	1.9449529e-08	5.0756662e-08	7.9999979	7.9999993	7.9999986	7.9999981	7.9999975	7.9999972	7.9999987	7.9999995	2.01363e-06	7.3973275e-07	1.3848993e-06	1.7975186e-06	2.3978562e-06	2.6853663e-06	1.2100096e-06	5.3273451e-07	-210.86163	R0:S0:1	-113.04	uncorrelated	51514b8	0	sharp_wc_10.0_b_50	 2.59e+01	 1.00e+06	2022-03-29@16:41
2x2_2C_8b_C2v_L	10.44	0	14	2.61	-0.79532517	-17.633637	-14.921286	-2.4461578	-14.913931	-2.4367076	-2.5166424	-12.473539	16.75	-0.00098896429	3.9117888e-05	-0.0012393431	-0.00047074786	0.0015307602	-0.00075610278	-0.00062593713	-0.00020519221	0.11613042	-1.0915364	1.4258602	0.21720754	-1.4257509	0.21651329	-0.17817676	-1.6919782	1.39	0.64	0.103	0	1.3333333	2	-5.1534673e-09	-6.3965537e-10	2.8609305e-10	0.99999959	1.9999992	2	1.9999999	1.9999999	1.9999999	1.9999997	1.9999998	2	1.9999996	0.0049053503	-2.1842975e-05	0.0013481735	0.0017424096	-0.0017164977	0.0027859159	0.0023951882	0.00064000633	-7.8964196e-07	3.5607542e-07	-2.9750029e-07	-3.5964253e-07	5.9657242e-07	-8.5080811e-07	6.480673e-07	3.1448135e-07	1.1503807e-07	8.9077318e-07	1.0579505e-08	6.4147272e-08	1.0405801e-07	1.0664221e-07	2.6569731e-07	1.9612809e-07	2.4344379e-08	1.1564607e-07	7.9999868	7.9999969	7.9999984	7.9999979	7.999997	7.9999949	7.9999963	7.9999986	1.2280012e-05	3.0529082e-06	1.5295605e-06	2.0043033e-06	2.9587053e-06	4.8499011e-06	3.4663369e-06	1.3885908e-06	-214.27446	R0:S0:1	-113.12	uncorrelated	51514b8	0	sharp_wc_10.0_b_50	 2.57e+01	 1.00e+06	2022-03-29@16:43
2x2_2C_8b_C2v_L	10.44	0	14	2.61	-0.93293429	-18.260132	-15.095954	-2.6878861	-15.088017	-2.6771718	-2.7239103	-12.410312	16.76	-0.0014610678	-0.0006199612	0.00087788673	0.00038328245	-0.0012222684	0.00024085674	-0.00071709947	0.00079272764	0.12860185	-1.1030988	1.4248188	0.23373093	-1.4247775	0.23301901	-0.17581822	-1.6898467	1.39	0.64	0.103	0	1.3333333	2	-8.055635e-10	-1.0756287e-10	0	0.99999948	1.9999983	2	2	1.9999999	1.9999999	2	1.9999998	1.9999999	1.9999995	0.0069787383	0.00040921543	-0.00098498774	-0.0013608363	0.0013526489	-0.00093318529	0.0023224255	-0.0012154973	-2.1207177e-06	6.6920212e-07	-1.8959532e-07	-2.4327552e-07	2.8858277e-07	-2.0464854e-07	-4.0059534e-07	4.0887283e-07	1.395513e-07	1.7731588e-06	2.5225176e-08	3.4342938e-08	6.3235307e-08	6.2330924e-08	2.9938115e-08	1.8168849e-07	6.0536821e-08	1.3965094e-07	7.9999729	7.9999937	7.9999991	7.9999987	7.9999986	7.999999	7.9999967	7.9999981	2.5219096e-05	6.2827208e-06	9.0487883e-07	1.251085e-06	1.3396348e-06	9.4443828e-07	3.0692848e-06	1.8275874e-06	-217.83264	R0:S0:1	-113.2	uncorrelated	51514b8	0	sharp_wc_10.0_b_50	 2.56e+01	 1.00e+06	2022-03-29@16:45
2x2_2C_8b_C2v_L	10.44	0	14	2.61	-1.0856233	-18.910558	-15.271368	-2.9450735	-15.262849	-2.9330323	-2.9440465	-12.335052	16.77	-0.0019214987	-0.0012441385	7.1580635e-05	6.3998472e-05	-0.00024259538	-0.00025891685	-0.001389616	-0.00077852781	0.14163894	-1.1145506	1.4257517	0.25266092	-1.4256774	0.25187096	-0.17084494	-1.6860052	1.39	0.64	0.103	0	1.3333333	2	-2.0583604e-09	-2.6213689e-10	1.1621169e-10	0.99999918	1.9999974	1.9999999	2	2	2	2	1.9999993	1.9999999	1.9999992	0.0087396727	0.00085706065	-1.324363e-05	-0.00016611198	0.00016023118	0.00083353802	0.0046575728	0.0013406058	-3.0142483e-06	1.0005195e-06	0	6.112759e-09	6.6249281e-09	-4.9437601e-08	1.5618078e-06	9.8523725e-07	2.1308833e-07	2.7409009e-06	5.2522366e-08	0	9.3677155e-10	1.3578614e-09	2.3492492e-08	7.3114308e-07	9.9531651e-08	2.133396e-07	7.9999576	7.9999899	8	8	7.9999999	7.9999996	7.9999873	7.9999956	3.9416283e-05	1.005858e-05	1.6627215e-08	2.4894796e-08	1.1493191e-07	3.8368562e-07	1.1917966e-05	4.3573462e-06	-221.53522	R0:S0:1	-113.28	uncorrelated	51514b8	0	sharp_wc_10.0_b_50	 2.55e+01	 1.00e+06	2022-03-29@16:47
2x2_2C_8b_C2v_L	10.44	0	14	2.61	-1.2537528	-19.584768	-15.447552	-3.217836	-15.438447	-3.2044052	-3.1770299	-12.247665	16.78	-0.0022747321	-0.0017916056	-0.00031372681	-8.7075505e-05	0.00020590734	-0.0005369176	-0.0012658086	0.0013478843	0.15514742	-1.1258066	1.4246804	0.27206166	-1.424623	0.27119861	-0.16387169	-1.6834158	1.39	0.64	0.103	0	1.3333333	2	-3.2574431e-09	-4.0963441e-10	1.8312801e-10	0.99999907	1.9999968	1.9999999	2	2	2	1.9999999	1.9999995	1.9999999	1.9999991	0.009750635	0.0013283183	0.00026080155	0.00024370415	-0.00020197642	0.0015823225	0.0037969659	-0.0018189812	-2.2181376e-06	1.3604931e-06	1.955628e-09	1.8523188e-09	5.1216817e-08	-6.9267869e-08	-6.0616952e-07	7.8209558e-07	2.3598017e-07	3.3684593e-06	8.9993176e-08	2.332925e-09	2.0248692e-09	3.2791503e-09	8.464293e-08	4.7962869e-07	1.3853335e-07	2.363798e-07	7.9999479	7.999987	8	8	7.9999997	7.9999986	7.9999917	7.999996	4.837216e-05	1.2945966e-05	4.2981296e-08	3.9928167e-08	3.4200464e-07	1.2773296e-06	7.8010471e-06	3.9351833e-06	-225.38293	R0:S0:1	-113.36	uncorrelated	51514b8	0	sharp_wc_10.0_b_50	 2.54e+01	 1.00e+06	2022-03-29@16:49
2x2_2C_8b_C2v_L	10.44	0	14	2.61	-1.4375328	-20.282686	-15.624393	-3.5062142	-15.614696	-3.4913319	-3.4228614	-12.148495	16.79	-0.0024961134	-0.0020979699	-0.00034212364	-6.9274881e-05	0.00019948818	-0.00057815375	-0.0018390876	-0.00021617459	0.16932305	-1.136854	1.4226176	0.29250971	-1.4226045	0.29155232	-0.15391988	-1.677953	1.39	0.64	0.103	0	1.3333333	2	0	0	0	0.99999889	1.9999965	1.9999999	2	2	2	1.9999999	1.999999	1.9999999	1.9999989	0.010209239	0.0014470085	0.00038163346	0.00024493302	-0.00029466272	0.0016789358	0.0054660601	0.00057758667	-2.9897628e-06	1.3488417e-06	-2.7048682e-08	-1.7832734e-08	8.1289895e-08	-2.1056927e-07	1.2906995e-06	9.1604083e-07	2.8173361e-07	3.6528552e-06	1.0128024e-07	4.927279e-09	2.0531781e-09	4.9917555e-09	9.5100842e-08	9.9300013e-07	5.6230447e-08	2.8173622e-07	7.9999427	7.9999858	7.9999999	7.9999999	7.9999995	7.9999984	7.9999834	7.9999957	5.3288515e-05	1.4213041e-05	1.1654154e-07	8.0687257e-08	4.7097986e-07	1.5433466e-06	1.5546136e-05	4.3344621e-06	-229.37644	R0:S0:1	-113.44	uncorrelated	51514b8	0	sharp_wc_10.0_b_50	 2.53e+01	 1.00e+06	2022-03-29@16:51
2x2_2C_8b_C2v_L	10.44	0	14	2.61	-1.6371586	-21.004245	-15.801806	-3.8102418	-15.791515	-3.7938483	-3.6815199	-12.037346	16.8	-0.002552898	-0.0020101895	-3.2896729e-05	0.0001222313	-0.00022617867	-0.00036928112	-0.0019352734	0.00044566711	0.18441956	-1.1475113	1.4198421	0.3142875	-1.4198878	0.31319392	-0.14206606	-1.6752309	1.39	0.64	0.103	0	1.3333333	2	-1.1952815e-10	0	0	0.99999898	1.9999967	1.9999999	2	2	2	2	1.999999	2	1.999999	0.0099144066	0.0013329185	1.1898079e-05	-0.00033088432	0.0001990336	0.00096672022	0.0053840188	-0.00049044256	-2.8232574e-06	1.213376e-06	-1.8217919e-09	-6.2830661e-09	1.7617071e-08	-1.3250085e-08	2.0735369e-07	7.7496595e-07	2.5481623e-07	3.4137645e-06	8.7059268e-08	0	3.6787773e-09	1.8780719e-09	3.135692e-08	9.5717868e-07	4.920425e-08	2.5481923e-07	7.9999461	7.9999867	8	7.9999999	7.9999999	7.9999995	7.9999843	7.9999961	5.0216872e-05	1.3296257e-05	1.5213072e-08	5.7992864e-08	1.3928793e-07	4.7681742e-07	1.4707189e-05	3.908273e-06	-233.51538	R0:S0:1	-113.52	uncorrelated	51514b8	0	sharp_wc_10.0_b_50	 2.51e+01	 1.00e+06	2022-03-29@16:52
2x2_2C_8b_C2v_L	10.44	0	14	2.61	-1.8576789	-21.747987	-15.978359	-4.1308101	-15.967461	-4.1128571	-3.9529689	-11.919968	16.81	-0.00071741036	-0.00054516684	4.1321126e-05	0.00012413384	-0.00022934731	-0.00015270358	-0.0014972377	0.00031369066	0.20488228	-1.152207	1.4146786	0.34009825	-1.4149226	0.33866986	-0.12124029	-1.6703038	1.39	0.64	0.103	0	1.3333333	2	0	0	0	0.99999982	1.9999998	2	2	2	2	2	1.9999995	2	1.9999998	0.0026448863	0.00034372054	-5.7418736e-05	-0.00032304026	0.00021798204	0.0003649246	0.003954968	-0.00037789103	-2.1965436e-07	8.0067112e-08	-2.8915025e-09	-7.5783087e-09	6.376589e-09	4.00657e-09	2.2595698e-08	4.1921337e-07	4.5510176e-08	2.4186603e-07	5.7613008e-09	1.7795365e-10	3.5064032e-09	1.6371349e-09	4.4462789e-09	5.1383359e-07	2.6513264e-08	4.5509068e-08	7.9999962	7.9999991	8	7.9999999	8	7.9999999	7.9999915	7.9999979	3.5811879e-06	9.4220022e-07	1.7293276e-08	5.6886761e-08	4.3856658e-08	7.3240219e-08	7.9260858e-06	2.1182906e-06	-237.81618	R0:S0:1	-113.6	uncorrelated	51514b8	1	sharp_wc_10.0_b_50	 2.50e+01	 3.49e-04	2022-03-29@16:56
2x2_2C_8b_C2v_L	10.44	0	14	2.61	-2.2062915	-22.485766	-16.12994	-4.4882552	-16.118202	-4.4687116	-4.2367686	-11.91289	16.82	-0.0021099106	-0.0016298379	0.00019352645	0.00011233718	-0.0004395219	-2.3706424e-05	0.00072359345	-5.1547978e-05	0.2262348	-1.1580748	1.407669	0.36659451	-1.4080017	0.36497598	-0.017940298	-1.6780415	1.39	0.64	0.103	0	1.3333333	2	-1.0219449e-10	0	0	0.99999956	1.9999983	2	2	2	2	2	1.9999999	2	1.9999996	0.0071885644	0.00099036472	-0.00020058292	-0.00028900531	0.00043695132	1.0601342e-05	-0.0018207803	5.0129359e-05	-1.6139164e-06	5.5119115e-07	-7.6541924e-09	-1.0212078e-08	2.3886316e-08	-2.9049251e-10	9.2799717e-09	8.5957149e-08	1.1126932e-07	1.7641488e-06	4.4755674e-08	1.4021557e-09	2.8176848e-09	6.3372525e-09	0	1.08088e-07	4.562847e-09	1.1127956e-07	7.9999717	7.999993	8	7.9999999	7.9999999	8	7.9999982	7.9999996	2.645901e-05	7.0156965e-06	3.7917717e-08	5.4896677e-08	1.1944615e-07	4.011045e-08	1.6761481e-06	4.3360614e-07	-242.65366	R0:S0:1	-113.68	uncorrelated	51514b8	1	sharp_wc_10.0_b_50	 2.49e+01	 1.05e-03	2022-03-29@16:59
2x2_2C_8b_C2v_L	10.44	0	14	2.61	-2.6865629	-23.216597	-16.255411	-4.8834327	-16.242594	-4.8622872	-4.5329633	-12.023371	16.83	-0.0030051458	-0.0027808095	5.9285456e-05	-7.8467627e-05	-0.00015337127	-0.00022656684	0.0032360118	0.00034445864	0.26055805	-1.1500072	1.3989308	0.39483747	-1.3993577	0.39302942	0.15502624	-1.6705785	1.39	0.64	0.103	0	1.3333333	2	0	0	0	0.99999883	1.9999972	1.9999999	2	2	2	2	1.999998	1.9999999	1.9999988	0.0092497755	0.0016734929	-4.3434458e-05	0.00017818874	0.00012038462	0.0005086505	-0.0077885881	-0.00023032828	-2.3495494e-06	8.6580073e-07	-2.9082135e-10	-1.5031985e-09	3.4208758e-09	-8.0622452e-09	-1.0032829e-06	1.5122205e-06	2.9350101e-07	2.8942832e-06	1.0862689e-07	0	1.0629009e-09	6.0740124e-10	8.6354035e-09	1.9902119e-06	7.8697247e-08	2.9350651e-07	7.9999532	7.9999878	8	8	8	7.9999999	7.9999673	7.9999921	4.3797918e-05	1.2178405e-05	5.1402897e-09	1.6835731e-08	4.0270866e-08	1.3418068e-07	3.0789767e-05	7.9452298e-06	-248.04647	R0:S0:1	-113.76	uncorrelated	51514b8	1	sharp_wc_10.0_b_50	 2.48e+01	 4.84e-03	2022-03-29@17:03
2x2_2C_8b_C2v_L	10.44	0	14	2.61	-3.3085871	-23.93825	-16.352726	-5.3179944	-16.338571	-5.2952444	-4.8521539	-12.279717	16.84	-0.00033961645	-0.00093763257	-0.00020128529	-0.00019213843	0.00034010474	-0.000352861	0.00014348387	-0.00017372623	0.29824404	-1.138973	1.3864717	0.42584429	-1.3870221	0.4237862	0.22154479	-1.6715598	1.39	0.64	0.103	0	1.3333333	2	0	0	0	0.99999998	2	2	2	2	2	2	2	2	2	0.00088979181	0.00059197077	0.00021947676	0.00043749269	-0.00038039483	0.0008069356	-0.00036106066	0.00030686021	2.3720984e-08	3.5628277e-08	-1.2801184e-08	-2.2043297e-08	4.1995132e-08	-7.5898281e-08	-2.5366216e-08	2.4480655e-08	7.5669974e-09	2.646872e-08	1.126809e-08	1.723234e-09	6.4194206e-09	5.2213895e-09	2.1829741e-08	4.3348081e-09	3.5717678e-09	7.5715691e-09	7.9999995	7.9999997	7.9999999	7.9999999	7.9999998	7.9999996	7.9999999	7.9999999	4.4385547e-07	2.9358235e-07	6.2797427e-08	1.1941775e-07	2.0543573e-07	4.0607798e-07	1.0840011e-07	1.0140749e-07	-254.08649	R0:S0:1	-113.84	uncorrelated	51514b8	1	sharp_wc_10.0_b_50	 2.47e+01	 7.46e-03	2022-03-29@17:06
2x2_2C_8b_C2v_L	10.44	0	14	2.61	-4.0813416	-24.648732	-16.41965	-5.7938695	-16.403905	-5.7695286	-5.1904374	-12.657636	16.85	-0.00054854463	-0.00080351975	2.6782272e-05	1.901634e-05	-3.783474e-05	4.6654541e-05	-0.0084835149	-0.0024542325	0.34519122	-1.1171732	1.3714343	0.46003415	-1.3721263	0.45772752	0.28363872	-1.676278	1.39	0.64	0.103	0	1.3333333	2	-2.5730632e-10	0	0	0.99999726	1.9999999	2	2	2	2	2	1.9999888	1.9999994	1.9999973	0.001298968	0.00048350037	-4.9917234e-05	-5.8622059e-05	6.454452e-05	-0.00011694303	0.018495365	0.0023779096	-9.7842646e-10	2.8069925e-08	-1.2623843e-09	-1.4674138e-09	2.0786032e-09	-3.5634125e-09	-5.4390357e-06	7.8161249e-06	6.8568188e-07	5.5994538e-08	7.673771e-09	0	1.1405632e-10	1.4519852e-10	4.5660276e-10	1.1306266e-05	5.6243859e-07	6.8570733e-07	7.9999991	7.9999997	8	8	8	8	7.9998155	7.9999528	8.7407601e-07	3.3508967e-07	6.2660159e-09	6.6667531e-09	1.0247935e-08	1.4260828e-08	0.00017416277	4.7033427e-05	-260.73028	R0:S0:1	-113.92	uncorrelated	51514b8	1	sharp_wc_10.0_b_50	 2.46e+01	 3.93e-03	2022-03-29@17:10
2x2_2C_8b_C2v_L	10.44	0	14	2.61	-5.0089166	-25.347264	-16.455328	-6.3115757	-16.437751	-6.2856695	-5.5449636	-13.151633	16.86	-0.001773678	-0.0011093678	6.5023822e-05	7.2272547e-05	-8.8543749e-05	0.00015373384	-0.014891793	-0.0057302389	0.39626869	-1.0923983	1.3520222	0.49826025	-1.3529208	0.49560952	0.38042985	-1.6700279	1.39	0.64	0.103	0	1.3333333	2	-1.8656938e-09	-2.6563094e-10	1.1987618e-10	0.99999213	1.9999995	2	2	2	2	2	1.9999686	1.9999981	1.9999921	0.0037597074	0.00060876104	-0.00013533257	-0.00019778195	0.00016912161	-0.00035888303	0.030982951	0.0054413498	-3.6584192e-07	1.0658759e-07	-1.0390838e-08	-1.4840568e-08	1.629243e-08	-3.21483e-08	-1.8798762e-05	2.0474132e-05	1.9733903e-06	4.6587651e-07	1.3780228e-08	6.3027006e-10	1.3103563e-09	1.0207133e-09	4.3035104e-09	3.2010057e-05	1.9269249e-06	1.973636e-06	7.9999924	7.999998	7.9999999	7.9999999	7.9999999	7.9999999	7.9994804	7.9998611	7.206145e-06	1.9640676e-06	5.4953941e-08	6.4047678e-08	8.5892677e-08	1.2834328e-07	0.00049138994	0.00013833098	-267.96645	R0:S0:1	-114	uncorrelated	51514b8	1	sharp_wc_10.0_b_50	 2.45e+01	 9.53e-04	2022-03-29@17:13
2x2_2C_8b_C2v_L	10.44	0	14	2.61	-6.0913972	-26.033764	-16.459565	-6.8712937	-16.439901	-6.8438433	-5.9176736	-13.763522	16.87	-0.0018521468	-0.0031119694	-8.297937e-05	-3.3377972e-05	0.00018268564	-4.0742551e-05	-0.013255462	-0.0069100944	0.456712	-1.055733	1.3288773	0.54058888	-1.3300579	0.53753012	0.48955687	-1.6530159	1.39	0.64	0.103	0	1.3333333	2	-1.0798835e-09	-1.6252066e-10	0	0.99999414	1.9999996	1.9999999	2	2	2	2	1.9999773	1.9999981	1.9999941	0.0033473278	0.0017641071	4.0265827e-05	3.3018159e-05	-0.00013955363	5.9168849e-05	0.026300545	0.0064634238	3.5689754e-08	2.1237392e-07	1.0274734e-09	8.3891379e-10	-1.4907184e-09	5.4120115e-10	-1.5145091e-05	1.370212e-05	1.4678962e-06	3.6679103e-07	9.9432139e-08	0	0	6.4476247e-10	1.1907986e-10	2.3324062e-05	1.9805448e-06	1.4680359e-06	7.9999937	7.999997	8	8	8	8	7.9996231	7.9998897	5.9949333e-06	3.0115611e-06	6.4244505e-09	6.2934026e-09	1.1249076e-08	5.58312e-09	0.00035711864	0.00010946187	-275.80212	R0:S0:1	-114.08	uncorrelated	51514b8	1	sharp_wc_10.0_b_50	 2.44e+01	 1.88e-03	2022-03-29@17:17
2x2_2C_8b_C2v_L	10.44	0	14	2.61	-7.328086	-26.7082	-16.432179	-7.4730577	-16.410166	-7.4440836	-6.3136869	-14.494917	16.88	-0.0027906647	-0.0046408314	4.9084923e-05	5.3777131e-05	-8.4016971e-05	0.00011448138	-0.0024468845	-0.0015068869	0.53517469	-0.99133648	1.3013855	0.58719558	-1.3029139	0.58369905	0.57470783	-1.6452192	1.39	0.64	0.103	0	1.3333333	2	0	0	0	0.99999961	1.9999994	1.9999998	2	2	2	2	1.9999993	1.9999999	1.9999996	0.0044702002	0.0025203229	-5.4327258e-05	-9.8050526e-05	9.6180066e-05	-0.00020705417	0.0046404774	0.0013404844	-2.6789131e-07	1.8264315e-07	-8.1100147e-10	-1.3425227e-09	2.9179281e-09	-5.5327647e-09	-5.6676258e-07	3.7958461e-07	9.76967e-08	6.5212745e-07	2.0171281e-07	1.0115908e-10	3.1957192e-10	3.25727e-10	1.4276971e-09	7.3114526e-07	7.554128e-08	9.7695771e-08	7.9999887	7.9999942	8	8	8	8	7.9999882	7.9999963	1.0831726e-05	5.6863032e-06	3.8359778e-09	6.5023444e-09	1.4304076e-08	2.7739444e-08	1.1216464e-05	3.6446555e-06	-284.24877	R0:S0:1	-114.16	uncorrelated	51514b8	1	sharp_wc_10.0_b_50	 2.43e+01	 1.40e-03	2022-03-29@17:20
2x2_2C_8b_C2v_L	10.44	0	14	2.61	-8.7185964	-27.370585	-16.373064	-8.1166176	-16.34844	-8.0861454	-6.7285902	-15.341581	16.89	-0.0030100504	-0.0060617325	-7.1954508e-06	-5.6954158e-05	3.5860184e-06	-0.00011695161	0.012305423	0.0090625799	0.63145148	-0.89144466	1.2682139	0.63928164	-1.2701555	0.63527937	0.67796156	-1.6204634	1.39	0.64	0.103	0	1.3333333	2	-1.1453801e-09	-1.5932564e-10	0	0.99999542	1.9999994	1.9999997	2	2	2	2	1.9999837	1.9999978	1.9999954	0.0042475289	0.0032041566	5.9283906e-05	0.000134128	-6.3250661e-05	0.00023112199	-0.022241839	-0.0077838474	-3.6991488e-07	7.332828e-08	-3.2220054e-09	-6.9706056e-09	4.2903994e-09	-1.3773173e-08	-1.3726002e-05	7.9591218e-06	1.1492412e-06	5.8775442e-07	3.2385267e-07	1.2383072e-10	5.9882055e-10	1.540883e-10	1.7747457e-09	1.6957801e-05	2.3052804e-06	1.1493942e-06	7.9999892	7.9999925	8	8	8	7.9999999	7.9997264	7.9999058	1.0379474e-05	7.3900575e-06	2.3679567e-08	3.0309035e-08	3.3283219e-08	5.4834006e-08	0.0002602652	9.3109429e-05	-293.28743	R0:S0:1	-114.24	uncorrelated	51514b8	1	sharp_wc_10.0_b_50	 2.42e+01	 1.55e-03	2022-03-29@17:24
2x2_2C_8b_C2v_L	10.44	0	14	2.61	-10.262115	-28.020965	-16.282149	-8.8013735	-16.254653	-8.7694435	-7.1690698	-16.303077	16.9	-0.0029202148	-0.0069214756	0.00012630746	-1.5012838e-05	-0.00026595809	-4.9673807e-05	0.014019393	0.012205943	0.74199033	-0.747562	1.2270511	0.69908352	-1.2295789	0.6944761	0.77315866	-1.5951562	1.39	0.64	0.103	0	1.3333333	2	-1.736684e-09	-2.3167815e-10	1.0640794e-10	0.99999444	1.9999996	1.9999996	2	2	2	2	1.9999807	1.9999965	1.9999944	0.0036516101	0.0035726037	-6.5914165e-05	6.0000098e-05	0.00019756642	9.6054087e-05	-0.02413289	-0.010039526	-4.0830818e-07	-7.8449672e-08	2.5125049e-09	-2.4311033e-09	-4.7689715e-09	-2.8897765e-09	-1.6879183e-05	8.50852e-06	1.3948653e-06	4.341227e-07	4.0113015e-07	1.4117241e-10	1.1740564e-10	1.2747572e-09	3.0193892e-10	2.0107607e-05	3.6053145e-06	1.3951045e-06	7.9999914	7.9999918	8	8	8	8	7.9996745	7.9998742	8.3635051e-06	8.0525882e-06	1.4415866e-08	1.567803e-08	2.5306617e-08	1.6552904e-08	0.00031024091	0.0001240831	-302.92594	R0:S0:1	-114.32	uncorrelated	51514b8	1	sharp_wc_10.0_b_50	 2.40e+01	 1.52e-03	2022-03-29@17:27
2x2_2C_8b_C2v_L	10.44	0	14	2.61	-11.956922	-28.659365	-16.159407	-9.5266047	-16.128778	-9.4932748	-7.6330101	-17.37725	16.91	-0.0021437121	-0.0074412583	2.4314846e-05	-0.00019828992	-7.2394776e-05	-0.00040951951	0.0034163915	0.0037729076	0.86203881	-0.54989828	1.1747298	0.7680724	-1.1781444	0.76271326	0.88149553	-1.5471486	1.39	0.64	0.103	0	1.3333333	2	0	0	0	0.99999953	1.9999998	1.9999996	2	2	2	2	1.999999	1.9999997	1.9999995	0.00232971	0.003784507	-4.1827143e-06	0.00027975179	2.5551759e-05	0.00058100872	-0.0055823061	-0.002977348	-1.2107369e-07	7.7498571e-08	-8.2589448e-10	-5.6093286e-09	2.9666893e-09	-2.5152644e-08	-8.9149903e-07	4.4172383e-07	1.1812818e-07	1.7696126e-07	4.4919375e-07	0	2.5930369e-09	1.0561862e-10	1.1178192e-08	1.0849404e-06	3.0180943e-07	1.1812996e-07	7.9999954	7.999992	8	8	7.9999999	7.9999998	7.9999822	7.9999915	4.51355e-06	7.8471456e-06	1.1526818e-08	4.2444596e-08	5.0767589e-08	1.8439549e-07	1.7012197e-05	8.3666513e-06	-313.14926	R0:S0:1	-114.4	uncorrelated	51514b8	1	sharp_wc_10.0_b_50	 2.39e+01	 1.13e-03	2022-03-29@17:31
2x2_2C_8b_C2v_L	10.44	0	14	2.61	-13.800053	-29.285804	-16.004701	-10.291293	-15.970694	-10.256647	-8.1294095	-18.563789	16.92	-0.0013775199	-0.0080283312	0.00016277438	-7.0339621e-05	-0.00033397649	-0.00016440232	-0.0094699206	-0.011474383	0.97398577	-0.28793941	1.1086673	0.84933376	-1.1133764	0.84300305	0.97804689	-1.5012464	1.39	0.64	0.103	0	1.3333333	2	-4.9195337e-10	0	0	0.99999757	1.9999999	1.9999995	2	2	2	2	1.9999927	1.9999976	1.9999976	0.0013247483	0.0040012633	-0.00017397923	4.8929694e-05	0.00032856894	0.00015867032	0.014802454	0.0085037643	-9.8927979e-08	5.359211e-08	-6.5870629e-09	1.5131653e-09	1.5533044e-08	5.8341283e-09	-7.3238297e-06	2.3321596e-06	6.0879179e-07	5.7860773e-08	5.0153564e-07	9.8432729e-10	0	3.5072052e-09	8.3164053e-10	7.674072e-06	2.411972e-06	6.0885665e-07	7.9999971	7.9999916	8	8	7.9999999	8	7.9998733	7.9999352	2.8834385e-06	8.2310019e-06	2.7060883e-08	1.4284529e-08	7.5364696e-08	3.8103881e-08	0.00012132678	6.3700012e-05	-323.96492	R0:S0:1	-114.48	uncorrelated	51514b8	1	sharp_wc_10.0_b_50	 2.38e+01	 2.17e-03	2022-03-29@17:34
2x2_2C_8b_C2v_L	10.44	0	14	2.61	-15.782825	-29.900267	-15.817537	-11.092842	-15.779913	-11.057037	-8.6545085	-19.861075	16.93	0.00063990264	-0.010447707	0.00015596074	-9.1698361e-05	-0.0002808159	-0.00016578565	-0.014978969	-0.021651702	1.053947	0.035214939	1.0192894	0.94601773	-1.0259843	0.93855428	1.0876764	-1.4238155	1.39	0.64	0.103	0	1.3333333	2	-7.9230198e-10	-1.239986e-10	0	0.99999409	2	1.9999992	2	2	2	2	1.9999834	1.9999926	1.9999941	-0.00061776241	0.0051056402	-0.00016965238	6.3546047e-05	0.00028160599	0.00014696729	0.022299756	0.015172143	-1.987659e-07	3.6295075e-07	-6.9317159e-09	2.2063349e-09	1.2880751e-08	5.373934e-09	-1.799985e-05	4.1104838e-06	1.4843974e-06	1.4067717e-08	8.1633674e-07	9.2684527e-10	1.3106316e-10	2.5601805e-09	7.1207307e-10	1.753933e-05	7.5251094e-06	1.4845066e-06	7.9999965	7.9999866	8	8	7.9999999	8	7.9997042	7.9998191	3.50653e-06	1.3124867e-05	2.8482175e-08	1.6642887e-08	5.9510333e-08	3.2645565e-08	0.00028401054	0.00017744507	-335.33237	R0:S0:1	-114.56	uncorrelated	51514b8	1	sharp_wc_10.0_b_50	 2.37e+01	 2.24e-03	2022-03-29@17:37
2x2_2C_8b_C2v_L	10.44	0	14	2.61	-17.642463	-30.499731	-15.591835	-11.882861	-15.550775	-11.848043	-9.3027517	-21.253018	16.94	-0.0016584897	-0.59448547	-1.5905059e-05	-5.5650482e-05	-3.1445408e-05	-0.00012153974	-0.00047298194	-0.00074619821	1.1889956	-0.0033917837	0.81522741	1.1093219	-0.82880667	1.0994683	1.1950762	-1.338046	1.39	0.64	0.103	0	1.3333333	2	-4.942981e-10	0	0	0.99936604	1.9999938	1.9974578	2	2	2	2	2	2	1.999366	0.0013367475	0.28469068	8.6775475e-06	5.2433876e-05	2.9114339e-05	0.00013192279	0.00064620712	0.00050322318	-0.00050069972	-1.1185192e-05	-4.5407259e-10	-3.6141522e-10	7.0343053e-10	-6.6302095e-10	-9.8419407e-09	8.6997425e-09	0.00015823835	6.2344186e-06	0.0025387135	0	0	0	5.8754779e-10	1.4788503e-08	8.1800042e-09	0.00015828981	7.9898304	7.9585788	8	8	8	8	7.9999997	7.9999998	0.010169513	0.040553847	2.5132187e-08	2.6076463e-08	2.696813e-08	3.313932e-08	2.6692781e-07	2.0466038e-07	-346.74769	R0:S0:1	-114.64	uncorrelated	51514b8	1	sharp_wc_10.0_b_50	 2.36e+01	 5.00e-03	2022-03-29@17:41
2x2_2C_8b_C2v_L	10.44	0	14	2.61	-19.417014	-31.116745	-15.32784	-12.662077	-15.283568	-12.630353	-10.060513	-22.739021	16.95	-0.088768527	-0.70805156	-0.00026376638	-3.1857895e-05	0.00026229121	-2.5270394e-05	0.018049394	0.039197173	1.2616724	-0.24230714	0.47911992	1.2867058	-0.50476218	1.276824	1.3261658	-1.1853871	1.39	0.64	0.103	0	1.3333333	2	-1.3357018e-09	-1.1703574e-10	0	0.99909355	1.9998624	1.9965287	2	2	2	2	1.9999813	1.999981	1.9990934	0.063805253	0.33256313	0.00025634543	0.00010334098	-0.0002566803	9.5599529e-05	-0.023682266	-0.024548721	-0.00073277455	8.0972606e-05	-1.4222451e-08	-7.9677628e-09	1.4183759e-08	-7.4921707e-09	-2.3280498e-05	2.9443157e-06	0.00022611123	0.00013972651	0.0034656452	2.0952902e-09	3.9957637e-10	2.1024977e-09	3.4673509e-10	1.9965801e-05	1.924472e-05	0.00022621643	7.9840139	7.9429876	7.9999999	7.9999999	7.9999999	7.9999999	7.9996247	7.9996202	0.015926283	0.055852667	1.0543198e-07	8.5627135e-08	1.0513424e-07	8.4404255e-08	0.00036299973	0.00037167504	-358.19575	R0:S0:1	-114.72	uncorrelated	51514b8	1	sharp_wc_10.0_b_50	 2.35e+01	 5.04e-02	2022-03-29@17:44
2x2_2C_8b_C2v_L	10.44	0	14	2.61	-21.079771	-31.745808	-15.025556	-13.399829	-14.978266	-13.374344	-10.926357	-24.3191	16.96	-0.25947237	-0.76793179	-0.00083122011	2.7614333e-05	0.0010047704	7.4801511e-05	0.019199399	0.057340148	1.2640644	-0.62104031	0.0098832079	1.3933314	-0.048939772	1.3913922	1.4694815	-0.95658851	1.39	0.64	0.103	0	1.3333333	2	-2.7236716e-09	-2.2105035e-10	0	0.99877225	1.9990422	1.9960692	2	2	2	2	1.9999815	1.9999638	1.998772	0.1731478	0.35372426	0.00075098884	3.6620971e-05	-0.00091163327	-1.4974828e-05	-0.023450359	-0.03390281	-0.0010141393	0.00034368144	-3.476557e-08	-1.2291695e-08	3.9623322e-08	-1.3221996e-08	-2.8133992e-05	2.334294e-06	0.00030601565	0.00097076965	0.0039284479	1.7792211e-08	2.4797142e-10	2.6221644e-08	2.9037306e-10	1.9747976e-05	3.6439894e-05	0.0003062063	7.9688408	7.9323402	7.9999996	7.9999998	7.9999995	7.9999998	7.9995627	7.999341	0.030744974	0.066375731	3.9651442e-07	1.8701367e-07	5.2859866e-07	2.1712492e-07	0.00042579262	0.00064417507	-369.53795	R0:S0:1	-114.8	uncorrelated	51514b8	1	sharp_wc_10.0_b_50	 2.34e+01	 2.05e-02	2022-03-29@17:48
2x2_2C_8b_C2v_L	10.44	0	14	2.61	-22.551212	-32.384699	-14.598219	-13.393028	-14.563619	-13.381363	-11.884356	-25.994741	16.97	-0.22901688	-0.82137896	-0.12540977	-0.026748113	0.14065009	-0.028157916	-0.010108746	-0.065604131	1.3468861	-0.5240264	-0.31360578	1.3641126	0.2961181	1.3682162	1.6316093	-0.50103934	1.39	0.64	0.103	0	1.3333333	2	-2.3693713e-09	-1.0026737e-10	0	0.99849734	1.9993353	1.9956675	1.9995754	1.9999733	1.9994638	1.9999698	1.9999953	1.9999579	1.998497	0.14381863	0.37136056	0.115948	0.026635968	-0.13029505	0.028031218	0.011452819	0.036585336	-0.001018753	0.0003033434	3.5504574e-05	-0.00017347345	-4.4696454e-05	-0.00021802179	-1.8011932e-05	8.5966039e-07	0.00037459631	0.00067365442	0.0043269007	0.00042526376	2.7596865e-05	0.00053691187	3.1239528e-05	4.9710149e-06	4.2206803e-05	0.00037487626	7.9720371	7.9269965	7.9929309	7.9979328	7.9910865	7.9974469	7.9997618	7.9992967	0.027690257	0.071610414	0.0068284155	0.0020538662	0.0086092783	0.0025382384	0.0002355865	0.00068696555	-377.45035	R0:S0:1	-114.88	uncorrelated	51514b8	1	sharp_wc_10.0_b_50	 2.33e+01	 2.15e-02	2022-03-29@17:52
2x2_2C_8b_C2v_L	10.44	0	14	2.61	-23.816716	-33.034635	-14.052746	-12.670382	-14.048121	-12.679831	-12.834916	-27.765858	16.98	0.017527743	-0.91219238	-0.049146448	-0.018791371	0.048657929	-0.019857697	0.015312597	-0.38915959	1.4691279	0.038095522	-0.5225133	1.2647465	0.5478066	1.2553072	1.7382834	0.13133121	1.39	0.64	0.103	0	1.3333333	2	-1.9791546e-09	-1.3122009e-10	0	0.99834797	1.9999829	1.9948531	1.9999305	1.9999871	1.9999319	1.9999856	1.9999816	1.998687	1.9983475	-0.010470867	0.40476637	0.046878501	0.019634498	-0.046409255	0.020770064	-0.016358631	0.20415906	-0.0010603179	-2.4516135e-05	9.6914039e-06	-3.1854333e-05	-8.9674586e-06	-3.2341599e-05	-0.00045464172	1.2019214e-05	0.00041179116	1.7187558e-05	0.0051326819	6.9857868e-05	1.342928e-05	6.8512891e-05	1.4923682e-05	1.9027258e-05	0.001312155	0.00041214352	7.979357	7.9163676	7.9988096	7.999521	7.9988267	7.9995023	7.994606	7.9786042	0.020641521	0.082003839	0.0011501138	0.00047153212	0.0011337575	0.0004892992	0.0053888508	0.020913275	-381.87417	R0:S0:1	-114.96	uncorrelated	51514b8	1	sharp_wc_10.0_b_50	 2.31e+01	 2.85e-02	2022-03-29@17:55
2x2_2C_8b_C2v_L	10.44	0	14	2.61	-24.812827	-33.709251	-13.557404	-11.600626	-13.589149	-11.5531	-12.967954	-29.651699	16.99	0.2658516	-0.90399552	-0.010766662	-0.016046885	0.014207869	-0.021109056	-0.0028568272	-0.44552948	1.4329719	0.55911758	-1.1880117	0.69164345	1.1873321	0.69345294	1.752243	-0.022864882	1.39	0.64	0.103	0	1.3333333	2	-2.7083068e-09	-2.9914981e-10	0	0.99821614	1.9992475	1.9951333	1.9999963	1.9999897	1.9999937	1.9999821	1.9999895	1.9984771	1.9982156	-0.15308617	0.39352118	0.010604925	0.017950976	-0.013950728	0.023704299	0.0030010187	0.21992465	-0.0011367188	-0.00034766896	5.2139197e-06	-2.9104902e-06	-8.8717141e-06	-5.428481e-06	-0.00049748192	1.5188156e-07	0.00044452296	0.00076198501	0.0048593226	3.7692706e-06	1.0395415e-05	6.5212099e-06	1.8133557e-05	1.053462e-05	0.0015216227	0.00044493526	7.9685094	7.9180474	7.9999005	7.9998174	7.9998275	7.9996819	7.9939039	7.9752403	0.031202769	0.08044088	9.7372184e-05	0.00017599038	0.00016883809	0.00030663643	0.0060959672	0.024227296	-383.05242	R0:S0:1	-115.04	uncorrelated	51514b8	1	sharp_wc_10.0_b_50	 2.30e+01	 3.84e-02	2022-03-29@17:59
2x2_2C_8b_C2v_L	10.44	0	14	2.61	-25.533126	-34.406506	-13.171566	-10.185549	-13.233397	-10.002347	-12.180294	-31.652985	17	0.52371187	-0.8516407	0.0036812545	-0.021933767	-0.0056267332	-0.035322185	-0.065698276	-0.35152338	1.2828077	1.0413398	-1.3651965	-0.18846658	1.3693635	-0.17942275	1.6380584	-0.69957141	1.39	0.64	0.103	0	1.3333333	2	-1.0509348e-08	-1.0531685e-09	4.2135856e-10	0.99801808	1.9972694	1.9958429	1.9999993	1.9999764	1.9999982	1.9999369	1.9998181	1.9991625	1.9980174	-0.29356716	0.3633982	-0.0035287025	0.027298086	0.0054289856	0.044590688	0.073033053	0.16320412	-0.0013103235	-0.00082541289	1.0604292e-05	5.3302831e-06	-2.8842587e-05	1.1624651e-05	-0.00040691777	-1.5183064e-06	0.00049351572	0.002753678	0.0041629555	7.2963203e-07	2.3659042e-05	1.8360155e-06	6.3134308e-05	0.00019390959	0.00083872134	0.00049401693	7.9391927	7.9218151	7.9998989	7.9996076	7.9997326	7.9989537	7.9938212	7.9857199	0.059776813	0.076924266	0.00010085573	0.00037610876	0.00026687573	0.0010023713	0.0060739024	0.014000273	-380.99621	R0:S0:1	-115.12	uncorrelated	51514b8	1	sharp_wc_10.0_b_50	 2.29e+01	 2.12e-01	2022-03-29@18:03
2x2_2C_8b_C2v_L	10.44	0	14	2.61	-25.976389	-35.124826	-12.998051	-8.6312729	-13.071012	-8.2285645	-10.461521	-33.778754	17.01	0.7167408	-0.71692199	0.00011065375	-0.00041126291	-0.00043986565	-0.0017826756	-0.020132467	-0.066738807	1.0507947	1.3945538	-1.3265585	-0.2992861	1.3436113	-0.24729673	1.4256734	-1.1854073	1.39	0.64	0.103	0	1.3333333	2	-6.4537269e-09	-5.7453722e-10	1.9729041e-10	0.99805821	1.9950666	1.9971573	2	2	2	1.9999998	1.9999783	1.9999733	1.9980576	-0.39518662	0.29997952	-7.1603719e-06	0.00061534652	0.00033362058	0.0026482776	0.025389436	0.029149213	-0.0012181064	-0.001333206	1.4130717e-08	5.2157274e-08	-9.3626683e-08	2.4932497e-07	-2.5751178e-05	3.6452766e-06	0.00048312207	0.0049519487	0.0028560373	2.5975133e-10	1.2128353e-08	7.1838997e-09	2.2409563e-07	2.314719e-05	2.6823399e-05	0.00048359725	7.9086341	7.9344661	7.9999997	7.9999995	7.9999988	7.999996	7.9995503	7.9994855	0.089529707	0.064692765	3.4064617e-07	4.8761494e-07	1.2315723e-06	3.8562748e-06	0.00043586984	0.00050596367	-376.87218	R0:S0:1	-115.2	uncorrelated	51514b8	1	sharp_wc_10.0_b_50	 2.28e+01	 1.34e-01	2022-03-29@18:06
2x2_2C_8b_C2v_L	10.44	0	14	2.61	-26.14112	-35.857613	-13.074024	-6.9520971	-13.142335	-6.2611486	-8.0081704	-36.021512	17.02	0.85520422	-0.55290423	0.00019858658	-0.00075785755	-0.00045379528	0.00043335244	0.003718642	0.0087169027	0.79095379	1.645438	-1.3471662	0.2195928	1.3558856	0.19229454	1.1265216	-1.7378622	1.39	0.64	0.103	0	1.3333333	2	-5.7922293e-09	-4.0157874e-10	1.1403276e-10	0.99787428	1.9930741	1.9983603	2	1.9999999	2	2	1.9999988	1.9999996	1.9978735	-0.46852099	0.22683147	-0.0002143441	0.0012666868	0.00045641572	-0.00077874299	-0.0059793077	-0.0035172637	-0.0010417303	-0.0017502165	4.1505054e-08	-2.4102445e-08	-2.4947415e-08	-4.2651848e-09	-1.7050205e-06	4.6538997e-08	0.00052861478	0.0069248756	0.0016517816	2.627071e-09	5.1504073e-08	7.487972e-09	1.9407428e-08	1.2969552e-06	3.9657969e-07	0.00052917562	7.8810455	7.946131	7.9999995	7.9999988	7.9999995	7.9999993	7.9999786	7.9999889	0.11639582	0.053397768	5.4231345e-07	1.1247829e-06	4.9595766e-07	6.4282219e-07	2.049281e-05	1.1003302e-05	-371.34029	R0:S0:1	-115.28	uncorrelated	51514b8	1	sharp_wc_10.0_b_50	 2.27e+01	 3.46e-02	2022-03-29@18:10
2x2_2C_8b_C2v_L	10.44	0	14	2.61	-26.026183	-36.515427	-13.623567	-5.2970899	-13.61594	-4.1642001	-9.1134139	-38.170215	17.03	0.60765138	-0.82484243	-6.2841226e-06	-0.00033647863	-0.00014999571	-0.00036490545	0.0042219742	0.012196655	1.2062888	1.2191412	-1.366535	0.21851583	1.3709292	0.19139899	1.2684093	-1.5450909	1.39	0.64	0.103	0	1.3333333	2	-3.4417523e-09	-3.0611053e-10	0	0.99825435	1.9964627	1.9965091	2	2	2	2	1.9999988	1.9999993	1.9982538	-0.33441934	0.33290082	4.0941912e-05	0.00066852573	0.00014565678	0.00086463312	-0.0060608527	-0.0047142884	-0.0012356385	-0.00098857729	1.5541969e-08	1.3109933e-08	-2.0980962e-08	-7.8951986e-09	-1.6130183e-06	1.7730111e-08	0.0004345132	0.0035604354	0.0034997653	3.9976822e-10	1.4445007e-08	1.356649e-09	2.4341924e-08	1.326583e-06	7.0431844e-07	0.0004349049	7.9287358	7.9294674	7.9999998	7.9999996	7.9999997	7.9999994	7.9999772	7.9999839	0.069947205	0.069524564	2.4581263e-07	4.0824146e-07	2.8786991e-07	5.5900759e-07	2.1952995e-05	1.5891964e-05	-373.53189	R0:S0:1	-115.36	uncorrelated	51514b8	2	sharp_wc_10.0_b_50	 2.27e+01	 8.52e-04	2022-03-29@18:16
2x2_2C_8b_C2v_L	10.44	0	14	2.61	-25.649031	-37.121823	-14.61237	-3.6840657	-14.378673	-1.9935204	-12.979119	-40.225001	17.04	0.022588926	-1.043509	1.2688722e-05	-0.00014728879	5.9765245e-05	-0.00044604736	-0.0029963456	-0.50227232	1.5546238	0.045983367	-1.3934908	-0.24152703	1.4083049	-0.1571463	1.7492409	-0.029536163	1.39	0.64	0.103	0	1.3333333	2	-1.5553821e-09	-1.8144079e-10	0	0.99837831	1.9999818	1.994591	2	2	2	1.9999999	1.999995	1.9989078	1.9983778	-0.012639011	0.41496296	-2.222917e-05	0.0003714168	-8.3369112e-05	0.0015931077	0.003149134	0.18649398	-0.0010690775	-7.8748381e-06	6.2310424e-09	-6.3531989e-10	-5.9874937e-08	7.9074847e-08	-0.00028620471	-1.0349626e-06	0.00040414588	1.8321148e-05	0.0053933834	1.4041746e-10	4.5584807e-09	2.635308e-09	8.5634025e-08	5.0503564e-06	0.0010915522	0.00040450411	7.9782828	7.9122539	7.9999999	7.9999998	7.9999996	7.9999985	7.995626	7.9822872	0.021715183	0.086187402	1.3288249e-07	1.8324678e-07	4.4713357e-07	1.4111915e-06	0.0043738033	0.017410838	-381.87134	R0:S0:1	-115.44	uncorrelated	51514b8	1	sharp_wc_10.0_b_50	 2.26e+01	 5.42e-02	2022-03-29@18:20
