model	E_kin	D	U	e	eb1_1	eb2_1	eb3_1	eb4_1	eb5_1	eb6_1	eb7_1	eb8_1	mu	sb1_1	sb2_1	sb3_1	sb4_1	sb5_1	sb6_1	sb7_1	sb8_1	tb1_1	tb2_1	tb3_1	tb4_1	tb5_1	tb6_1	tb7_1	tb8_1	tpd	tpp	tppp	ave_D	ave_e	ave_mu	ave_tpd	ave_tpp	ave_tppp	ave_U_1	ave_eb1_1	ave_eb2_1	ave_eb3_1	ave_eb4_1	ave_eb5_1	ave_eb6_1	ave_eb7_1	ave_eb8_1	ave_mu_1	ave_sb1_1	ave_sb2_1	ave_sb3_1	ave_sb4_1	ave_sb5_1	ave_sb6_1	ave_sb7_1	ave_sb8_1	ave_tb1_1	ave_tb2_1	ave_tb3_1	ave_tb4_1	ave_tb5_1	ave_tb6_1	ave_tb7_1	ave_tb8_1	var_U_1	var_eb1_1	var_eb2_1	var_eb3_1	var_eb4_1	var_eb5_1	var_eb6_1	var_eb7_1	var_eb8_1	var_mu_1	var_sb1_1	var_sb2_1	var_sb3_1	var_sb4_1	var_sb5_1	var_sb6_1	var_sb7_1	var_sb8_1	var_tb1_1	var_tb2_1	var_tb3_1	var_tb4_1	var_tb5_1	var_tb6_1	var_tb7_1	var_tb8_1	E0_1	sector_1	E0_2	sector_2	githash	iterations	dist_function	distance	diff_hybrid	time
2x2_2C_8b_C2v_L	10.44	0	14	2.61	-0.10577688	-10.120083	-12.872472	-0.071725904	-12.876439	-0.17272717	-0.17648434	-12.77926	17.42	-0.00012441001	-0.00026049625	5.8652764e-05	-0.0022645642	-7.0867477e-05	0.004423576	0.00010811791	-0.00022413724	-0.0021824959	-0.8557591	1.3488491	0.004480821	-1.3482965	-0.01681776	0.035467253	-1.6928973	1.39	0.64	0.103	0	1.3333333	2	0	0	0	0.99999453	2	2	1.9999998	1.9999949	1.9999993	1.9999816	2	2	1.9999945	0.00061477097	0.0003303589	-5.2158784e-05	0.012373027	1.7145257e-05	-0.023369398	-0.00065359341	0.00029250449	1.5592048e-08	1.52732e-08	-3.9880284e-06	-2.4284097e-06	1.4106528e-05	1.4041582e-05	-4.894211e-08	2.640305e-08	1.368201e-06	1.2157344e-08	3.9121169e-09	2.0785834e-07	5.1412257e-06	7.287784e-07	1.9089217e-05	1.8566225e-08	3.9530015e-09	1.3681879e-06	7.9999998	7.9999999	7.99998	7.9999157	7.9999288	7.9996977	7.9999997	7.9999999	2.0668823e-07	1.0712872e-07	1.9969144e-05	7.7689958e-05	7.1190188e-05	0.00027887285	2.6208197e-07	1.1410232e-07	-181.71	R0:S0:1	-118.48	uncorrelated	51514b8	1	sharp_wc_10.0_b_50	 1.94e+01	 2.02e-01	2022-03-29@14:58
2x2_2C_8b_C2v_L	10.44	0	14	2.61	-0.10577688	-10.120083	-12.872472	-0.071725904	-12.876439	-0.17272717	-0.17648434	-12.77926	17.43	-0.00012441001	-0.00026049625	5.8652764e-05	-0.0022645642	-7.0867477e-05	0.004423576	0.00010811791	-0.00022413724	-0.0021824959	-0.8557591	1.3488491	0.004480821	-1.3482965	-0.01681776	0.035467253	-1.6928973	1.39	0.64	0.103	0	1.3333333	2	0	0	0	0.99999456	2	2	1.9999998	1.999995	1.9999993	1.9999817	2	2	1.9999946	0.00061287807	0.00033003896	-5.2162516e-05	0.012330919	1.7465499e-05	-0.023292482	-0.00065112859	0.00029201975	1.5491987e-08	1.519253e-08	-3.9609301e-06	-2.4117497e-06	1.4013809e-05	1.3946524e-05	-4.8559602e-08	2.6224087e-08	1.3591503e-06	1.2120299e-08	3.9409569e-09	2.0648427e-07	5.1063296e-06	7.240268e-07	1.8963805e-05	1.846416e-08	3.9738e-09	1.3591656e-06	7.9999998	7.9999999	7.9999802	7.9999162	7.9999293	7.9996997	7.9999997	7.9999999	2.0546833e-07	1.0669728e-07	1.9833465e-05	7.7162042e-05	7.0722278e-05	0.00027703909	2.601101e-07	1.1340898e-07	-181.79	R0:S0:1	-118.56	uncorrelated	51514b8	0	sharp_wc_10.0_b_50	 1.94e+01	 1.00e+06	2022-03-29@15:00
2x2_2C_8b_C2v_L	10.44	0	14	2.61	-0.10577688	-10.120742	-12.87276	-0.0717264	-12.876703	-0.17273313	-0.17662215	-12.779243	17.44	-0.00011472586	-3.7512429e-05	1.0444703e-06	-0.002202238	-0.00018235939	0.0042065516	6.8139737e-05	0.00030476648	-0.0019880679	-0.85576456	1.3480227	0.0045721997	-1.3481691	-0.016845323	0.035205285	-1.69136	1.39	0.64	0.103	0	1.3333333	2	0	0	0	0.99999507	2	2	1.9999998	1.9999953	1.9999993	1.9999835	2	2	1.9999951	0.00056335009	5.8683386e-05	-7.9661534e-06	0.011947995	0.00017461914	-0.022073383	-0.00039274209	-0.00038263955	9.5161643e-09	7.4803996e-09	-3.7166239e-06	-2.1994608e-06	1.2583871e-05	1.1791897e-05	1.1548586e-08	2.3841552e-08	1.2320863e-06	1.0196681e-08	3.6490366e-10	1.9349435e-07	4.7995681e-06	6.5094348e-07	1.703413e-05	6.6408035e-09	5.5054388e-09	1.2320822e-06	7.9999998	8	7.9999814	7.9999214	7.9999365	7.9997306	7.9999999	7.9999999	1.6220839e-07	4.4153138e-08	1.8618808e-05	7.2423178e-05	6.3519813e-05	0.0002485431	9.9072665e-08	1.1330646e-07	-181.87267	R0:S0:1	-118.64	uncorrelated	51514b8	0	sharp_wc_10.0_b_50	 1.93e+01	 1.00e+06	2022-03-29@15:02
2x2_2C_8b_C2v_L	10.44	0	14	2.61	-0.10577688	-10.122221	-12.873351	-0.071727074	-12.877333	-0.17274548	-0.1769183	-12.77897	17.45	-9.4563664e-05	0.00013057882	1.7775127e-05	-0.0020604296	-0.00013469453	0.0037563157	0.00010347331	-0.00061638877	-0.0015827492	-0.85531577	1.3473435	0.0047791759	-1.3470343	-0.016843358	0.034912162	-1.6924358	1.39	0.64	0.103	0	1.3333333	2	-1.0806687e-10	0	0	0.999996	2	2	1.9999998	1.9999959	1.9999995	1.999987	2	2	1.999996	0.0004625499	-0.00018067806	5.1624314e-06	0.011139604	9.1680553e-05	-0.01964262	-0.00063327468	0.00079956771	-1.1455775e-08	9.2665826e-09	-3.2289857e-06	-2.2459178e-06	9.9537009e-06	9.8801368e-06	-9.2533197e-08	1.0503836e-07	1.0007532e-06	6.8651014e-09	1.2455796e-09	1.6801598e-07	4.1835571e-06	5.1406212e-07	1.3487861e-05	1.7317535e-08	2.3662925e-08	1.0007631e-06	7.9999999	7.9999999	7.9999838	7.9999316	7.9999497	7.9997865	7.9999996	7.9999995	1.1534338e-07	4.946303e-08	1.6185609e-05	6.3042355e-05	5.0293409e-05	0.00019701602	3.9796128e-07	4.7839446e-07	-181.95813	R0:S0:1	-118.72	uncorrelated	51514b8	0	sharp_wc_10.0_b_50	 1.92e+01	 1.00e+06	2022-03-29@15:05
2x2_2C_8b_C2v_L	10.44	0	14	2.61	-0.10577688	-10.124507	-12.874242	-0.071728353	-12.878255	-0.17276416	-0.17736951	-12.778829	17.46	-6.7450088e-05	0.000164176	3.5714719e-05	-0.001843365	-7.0104576e-05	0.0030821244	3.1816098e-05	0.000203323	-0.0010039483	-0.8548147	1.3470204	0.0051055344	-1.3466085	-0.016873431	0.034136675	-1.6895096	1.39	0.64	0.103	0	1.3333333	2	0	0	0	0.99999721	2	2	1.9999999	1.9999967	1.9999997	1.9999913	2	2	1.9999972	0.0003289847	-0.0002008094	-4.9006706e-05	0.0099313907	5.7504488e-05	-0.016061223	-0.00018073398	-0.00024812631	-2.1618569e-09	3.7458933e-09	-2.5661889e-06	-1.6398337e-06	6.6537123e-06	6.3509722e-06	3.5772335e-09	8.1898138e-09	6.9708153e-07	3.4610217e-09	1.408397e-09	1.3353671e-07	3.3406357e-06	3.4335442e-07	9.0196636e-06	1.3709371e-09	2.2407836e-09	6.9708377e-07	7.9999999	8	7.9999871	7.9999457	7.9999664	7.9998574	8	8	5.9585573e-08	3.4513654e-08	1.286526e-05	5.0071978e-05	3.3620261e-05	0.00013161536	2.5437813e-08	4.1786756e-08	-182.04698	R0:S0:1	-118.8	uncorrelated	51514b8	0	sharp_wc_10.0_b_50	 1.92e+01	 1.00e+06	2022-03-29@15:07
2x2_2C_8b_C2v_L	10.44	0	14	2.61	-0.10577688	-10.127972	-12.875595	-0.071730985	-12.87964	-0.17279264	-0.17803708	-12.778304	17.47	-3.0683805e-05	4.5103874e-05	3.7010576e-05	-0.0015224408	-3.0142355e-05	0.002107033	4.6635071e-06	6.2309948e-05	-0.00021394803	-0.85448013	1.3468107	0.0056011236	-1.3465964	-0.016917348	0.033445946	-1.6909638	1.39	0.64	0.103	0	1.3333333	2	0	0	0	0.99999854	2	2	1.9999999	1.9999978	1.9999998	1.999996	2	2	1.9999985	0.00014920371	-5.3611647e-05	-4.2791937e-05	0.0081751057	1.4770533e-05	-0.010944594	-2.5777166e-05	-7.3781096e-05	0	4.9375765e-10	-1.7382288e-06	-1.2567213e-06	3.0893199e-06	3.0153494e-06	1.5709216e-10	5.7258358e-10	3.6457822e-07	7.2557338e-10	1.2481216e-10	9.0464941e-08	2.2807795e-06	1.5938075e-07	4.1896552e-06	0	2.0570656e-10	3.6458891e-07	8	8	7.9999913	7.9999631	7.9999844	7.9999337	8	8	1.1573233e-08	4.3017547e-09	8.7168133e-06	3.3969789e-05	1.5611071e-05	6.113852e-05	1.137106e-09	3.2598083e-09	-182.13971	R0:S0:1	-118.88	uncorrelated	51514b8	0	sharp_wc_10.0_b_50	 1.91e+01	 1.00e+06	2022-03-29@15:09
2x2_2C_8b_C2v_L	10.44	0	14	2.61	-0.10577688	-10.132919	-12.877551	-0.071735236	-12.88164	-0.17283305	-0.17896655	-12.77783	17.48	1.6055521e-05	-0.00015028004	1.3100332e-05	-0.0010802803	-2.7819044e-05	0.00080795526	-3.0789561e-05	-7.7478179e-05	0.00075984277	-0.85453813	1.3464813	0.0063049837	-1.3464986	-0.016940247	0.032318282	-1.6888237	1.39	0.64	0.103	0	1.3333333	2	0	0	0	0.9999996	2	2	2	1.9999989	2	1.9999994	2	2	1.9999996	-7.7880608e-05	0.00018942957	-5.5306837e-06	0.0057819168	1.7790885e-05	-0.0041832051	0.0001766825	9.4948342e-05	-1.0005454e-09	2.5401853e-09	-8.6900668e-07	-7.6246696e-07	4.5111014e-07	4.5304925e-07	5.8446022e-10	2.0853688e-09	9.9683149e-08	1.9221957e-10	1.187761e-09	4.5179657e-08	1.1544441e-06	2.3276907e-08	6.1214443e-07	1.2922481e-09	3.8332804e-10	9.9682668e-08	8	8	7.9999956	7.9999815	7.9999977	7.9999903	8	8	8.1712022e-09	2.0019788e-08	4.3597492e-06	1.7035436e-05	2.2809034e-06	8.9373496e-06	1.6995658e-08	9.7019564e-09	-182.23851	R0:S0:1	-118.96	uncorrelated	51514b8	0	sharp_wc_10.0_b_50	 1.90e+01	 1.00e+06	2022-03-29@15:11
2x2_2C_8b_C2v_L	10.44	0	14	2.61	-0.10577688	-10.139639	-12.880228	-0.07174219	-12.884393	-0.17288776	-0.18018577	-12.777002	17.49	6.9451411e-05	-0.0002605471	-6.4881714e-06	-0.00050784865	-4.4309255e-06	-0.00079353452	-8.2603489e-05	6.9208388e-06	0.0018406549	-0.85488799	1.3460371	0.007252411	-1.34603	-0.016909398	0.031323683	-1.6899046	1.39	0.64	0.103	0	1.3333333	2	0	0	0	0.99999981	2	2	2	1.9999998	2	1.9999994	2	2	1.9999998	-0.00033589644	0.00032985315	1.5543874e-05	0.0027094488	9.8366381e-06	0.0040942682	0.00047902186	-1.958213e-05	-8.4973209e-09	1.0239888e-08	-1.9084054e-07	-2.0344571e-07	4.3205205e-07	4.2157977e-07	-1.351122e-08	7.6322375e-09	4.8056853e-08	3.647239e-09	3.7063224e-09	9.9340136e-09	2.5809039e-07	2.2286146e-08	5.8621576e-07	9.4072048e-09	5.1655391e-10	4.8069584e-08	7.9999999	7.9999999	7.999999	7.9999959	7.9999978	7.9999907	7.9999999	8	7.3117155e-08	7.3466484e-08	9.577563e-07	3.754854e-06	2.1845677e-06	8.5550057e-06	1.2281293e-07	3.1266646e-08	-182.34371	R0:S0:1	-119.04	uncorrelated	51514b8	0	sharp_wc_10.0_b_50	 1.89e+01	 1.00e+06	2022-03-29@15:14
2x2_2C_8b_C2v_L	10.44	0	14	2.61	-0.10577688	-10.148406	-12.883727	-0.071753495	-12.887994	-0.17295883	-0.18172136	-12.77619	17.5	0.00012405553	-0.00018630653	-1.1181146e-05	0.00019119648	7.0021748e-05	-0.0026408441	-0.00013076186	-6.7575114e-06	0.0029098099	-0.8551994	1.3456806	0.0084715013	-1.3455589	-0.016813836	0.030160213	-1.6876333	1.39	0.64	0.103	0	1.3333333	2	0	0	0	0.99999854	2	2	2	2	1.9999998	1.9999938	2	2	1.9999985	-0.00059804691	0.00023413437	1.7600444e-05	-0.0010165448	-5.4893684e-05	0.013578301	0.00075293601	-3.9402886e-06	-1.1789742e-08	1.1130452e-08	-2.692358e-08	-2.5166368e-08	4.7479741e-06	4.5607377e-06	-2.7994492e-08	1.8484288e-08	3.6408858e-07	1.1552791e-08	2.1186644e-09	1.4002914e-09	3.7283403e-08	2.4467459e-07	6.4416862e-06	2.281875e-08	1.1992789e-09	3.6408854e-07	7.9999998	7.9999999	7.9999999	7.9999994	7.999976	7.9998981	7.9999997	7.9999999	1.8868972e-07	7.5324219e-08	1.3512135e-07	5.2738154e-07	2.402643e-05	9.4074061e-05	2.9925258e-07	7.5966245e-08	-182.45707	R0:S0:1	-119.12	uncorrelated	51514b8	0	sharp_wc_10.0_b_50	 1.89e+01	 1.00e+06	2022-03-29@15:16
2x2_2C_8b_C2v_L	10.44	0	14	2.61	-0.10577688	-10.15954	-12.888181	-0.071771531	-12.892568	-0.17304875	-0.1835957	-12.774997	17.51	0.00017427333	5.316279e-05	-1.0317479e-05	0.00099914738	0.00017321417	-0.0046302453	-0.00017367527	-8.947436e-06	0.0037962423	-0.85520277	1.3454727	0.0099752639	-1.3453661	-0.016625462	0.029431178	-1.6888451	1.39	0.64	0.103	0	1.3333333	2	0	0	0	0.99999537	2	2	2	1.999999	1.9999993	1.999981	2	2	1.9999954	-0.00083715229	-6.9463774e-05	7.3865242e-06	-0.0052979301	-0.00014834348	0.023725778	0.00099505918	1.793855e-06	-1.8342256e-10	1.5100898e-08	-7.2847918e-07	-9.8067428e-07	1.4488551e-05	1.371331e-05	-4.3316205e-08	3.2258133e-08	1.1576605e-06	2.2730578e-08	7.6354034e-10	3.7812911e-08	1.0504829e-06	7.4668977e-07	1.963547e-05	3.9401661e-08	2.0990436e-09	1.157659e-06	7.9999996	7.9999999	7.9999963	7.9999843	7.9999266	7.9996889	7.9999994	7.9999999	3.5348553e-07	9.2892392e-08	3.6598255e-06	1.4459999e-05	7.3359943e-05	0.00028715166	5.1870494e-07	1.3231442e-07	-182.57901	R0:S0:1	-119.2	uncorrelated	51514b8	0	sharp_wc_10.0_b_50	 1.88e+01	 1.00e+06	2022-03-29@15:18
2x2_2C_8b_C2v_L	10.44	0	14	2.61	-0.10577721	-10.173307	-12.893712	-0.071800863	-12.898237	-0.17316063	-0.18582962	-12.773841	17.52	0.00021513108	0.0002866688	-2.6305287e-05	0.0018751187	0.0002530973	-0.0066152634	-0.00020712864	-7.5407432e-06	0.00432292	-0.85498648	1.3453051	0.011731923	-1.3453602	-0.016292783	0.028853166	-1.686304	1.39	0.64	0.103	0	1.3333333	2	0	0	0	0.9999903	2	2	1.9999999	1.9999965	1.9999985	1.9999616	1.9999999	2	1.9999903	-0.0010297603	-0.00036452387	1.446997e-05	-0.0099157235	-0.00021641923	0.033781572	0.001179645	2.5994847e-06	1.9657288e-08	3.2848383e-08	-2.5503634e-06	-4.0783268e-06	2.9359536e-05	2.726199e-05	-5.6668075e-08	4.5282613e-08	2.4262851e-06	3.450022e-08	5.3070535e-09	1.3232904e-07	3.8610387e-06	1.5125114e-06	3.9697287e-05	5.4824052e-08	2.9522953e-09	2.4262913e-06	7.9999994	7.9999998	7.9999872	7.9999447	7.9998513	7.9993696	7.9999992	7.9999998	5.5160972e-07	2.0978806e-07	1.2819997e-05	5.1046002e-05	0.00014871995	0.00058193249	7.2619365e-07	1.8589759e-07	-182.71145	R0:S0:1	-119.28	uncorrelated	51514b8	0	sharp_wc_10.0_b_50	 1.87e+01	 1.00e+06	2022-03-29@15:20
2x2_2C_8b_C2v_L	10.44	0	14	2.61	-0.10577785	-10.189974	-12.900451	-0.07185046	-12.905137	-0.17329864	-0.18844262	-12.772292	17.53	0.00024097563	0.00032881723	-6.7736324e-05	0.0027472471	0.00028526968	-0.0084062274	-0.00022449831	-1.2734932e-05	0.0043140661	-0.85491502	1.3451074	0.013642461	-1.3453294	-0.015749421	0.029026575	-1.6876817	1.39	0.64	0.103	0	1.3333333	2	0	0	0	0.99998404	2	2	1.9999997	1.9999922	1.9999976	1.9999385	1.9999999	2	1.999984	-0.0011498137	-0.00041817589	5.2567074e-05	-0.014489938	-0.00023774751	0.042777856	0.0012735123	6.6750558e-06	2.6574283e-08	4.2033542e-08	-5.4422025e-06	-1.0058121e-05	4.7053798e-05	4.2315126e-05	-6.6033557e-08	5.2834569e-08	3.9907129e-06	4.2995167e-08	6.9038322e-09	2.8224857e-07	8.7351849e-06	2.4220762e-06	6.3380249e-05	6.3734688e-08	3.4371359e-09	3.9907143e-06	7.9999993	7.9999997	7.9999726	7.999881	7.9997615	7.9989897	7.9999991	7.9999998	6.8932197e-07	2.672345e-07	2.7375486e-05	0.00010997834	0.00023846041	0.00093259403	8.4664262e-07	2.1690651e-07	-182.85465	R0:S0:1	-119.36	uncorrelated	51514b8	0	sharp_wc_10.0_b_50	 1.87e+01	 1.00e+06	2022-03-29@15:23
2x2_2C_8b_C2v_L	10.44	0	14	2.61	-0.10577893	-10.209822	-12.908525	-0.071936558	-12.913403	-0.17346719	-0.1914585	-12.770833	17.54	0.00024563698	0.00010906902	-0.00011753737	0.0035005506	0.00028908021	-0.0097642493	-0.00021764287	-8.7274856e-06	0.0036178659	-0.85536176	1.3449296	0.015512744	-1.3452409	-0.01493062	0.029586447	-1.6848339	1.39	0.64	0.103	0	1.3333333	2	0	0	0	0.99997817	2	2	1.9999995	1.999987	1.9999968	1.9999179	1.9999999	2	1.9999782	-0.0011688581	-0.00014275029	0.00010323288	-0.018416681	-0.00023826342	0.049511037	0.0012287157	-6.1435416e-06	6.9922928e-09	3.0643628e-08	-8.7848614e-06	-1.8336602e-05	6.2989604e-05	5.3641456e-05	-6.8403092e-08	4.9226827e-08	5.4562166e-06	4.4276677e-08	1.8564394e-09	4.5546425e-07	1.4995698e-05	3.2394061e-06	8.4375283e-05	5.939107e-08	3.2058649e-09	5.4562367e-06	7.9999993	7.9999998	7.9999558	7.9998061	7.9996806	7.9986479	7.9999991	7.9999998	6.9083327e-07	1.8814347e-07	4.4223261e-05	0.00017938269	0.00031940944	0.0012481414	7.9277211e-07	2.0266565e-07	-183.01072	R0:S0:1	-119.44	uncorrelated	51514b8	0	sharp_wc_10.0_b_50	 1.86e+01	 1.00e+06	2022-03-29@15:25
2x2_2C_8b_C2v_L	10.44	0	14	2.61	-0.10578055	-10.233112	-12.918054	-0.072082399	-12.923147	-0.17366934	-0.1948996	-12.768997	17.55	0.00021895592	-0.00022963683	-0.00015304711	0.0039889016	0.0002835636	-0.010458796	-0.00018063653	-9.513075e-06	0.002154449	-0.85635203	1.3448516	0.017048532	-1.3452391	-0.013795564	0.031064329	-1.686403	1.39	0.64	0.103	0	1.3333333	2	0	0	0	0.99997474	2	2	1.9999994	1.9999827	1.9999963	1.9999069	2	2	1.9999747	-0.0010390981	0.00028059136	0.00014072576	-0.020931228	-0.00023965195	0.052840959	0.001017233	-1.3447866e-05	-2.0040104e-08	2.6384418e-08	-1.1338723e-05	-2.5882532e-05	7.1695468e-05	5.6125532e-05	-5.4631063e-08	3.3987744e-08	6.3136993e-06	3.4793949e-08	3.5407881e-09	5.8756953e-07	2.0401523e-05	3.6840089e-06	9.5334436e-05	4.1111413e-08	2.217968e-09	6.3137364e-06	7.9999994	7.9999998	7.9999429	7.9997475	7.9996362	7.9984618	7.9999994	7.9999999	5.5540947e-07	1.8020066e-07	5.7123034e-05	0.00023371371	0.00036379286	0.0014199705	5.4956037e-07	1.4042668e-07	-183.1798	R0:S0:1	-119.52	uncorrelated	51514b8	0	sharp_wc_10.0_b_50	 1.85e+01	 1.00e+06	2022-03-29@15:27
2x2_2C_8b_C2v_L	10.44	0	14	2.61	-0.10578217	-10.5358	-13.052252	-0.078577823	-13.057112	-0.17618874	-0.23129273	-12.800815	17.56	-5.6407196e-05	-0.00018469913	-0.0001060262	0.0036084928	-1.0860289e-05	-0.00068782783	3.7257248e-05	-3.0578642e-05	4.9046988e-05	-0.86677746	1.3507919	0.0050373425	-1.3506227	-0.012018612	-0.034175652	-1.6862989	1.39	0.64	0.103	0	1.3333333	2	0	0	0	0.99999716	2	2	1.9999995	1.9999884	2	1.9999996	2	2	1.9999972	0.00026674555	0.00022486423	0.00011254068	-0.018736069	1.3727334e-05	0.0034592137	-0.00020539157	3.2215522e-05	4.1043883e-09	4.9269657e-09	-9.0289784e-06	-5.4414412e-06	3.0535965e-07	2.1003138e-07	1.2476716e-09	1.4118315e-09	7.0938441e-07	2.2837776e-09	1.7259421e-09	4.6477656e-07	1.1794859e-05	1.5589826e-08	4.0344625e-07	1.6375274e-09	1.2601387e-10	7.0938705e-07	8	8	7.9999543	7.9998069	7.9999984	7.9999934	8	8	4.3074348e-08	3.6332456e-08	4.5744732e-05	0.00017806775	1.5582257e-06	6.074593e-06	2.1987641e-08	6.1734609e-09	-184.55568	R0:S0:1	-119.6	uncorrelated	51514b8	1	sharp_wc_10.0_b_50	 1.85e+01	 6.84e-04	2022-03-29@15:32
2x2_2C_8b_C2v_L	10.44	0	14	2.61	-0.10578437	-11.124357	-13.312856	-0.092301763	-13.316823	-0.18130137	-0.32052767	-12.866739	17.57	-0.00010289397	3.4949844e-05	-2.4802631e-05	-0.00022467406	-0.00014764582	0.0050508921	7.3155868e-07	-1.041477e-05	-0.00051735611	-0.88716696	1.3616032	-0.01559746	-1.3623719	-0.011657497	-0.045240596	-1.6886479	1.39	0.64	0.103	0	1.3333333	2	0	0	0	0.999995	2	2	2	2	1.9999992	1.9999789	2	2	1.999995	0.00048485255	-3.9615305e-05	2.2932062e-05	0.0011601554	0.00012835415	-0.025267597	-2.8986851e-06	1.6989251e-05	-4.9469544e-10	4.7092213e-09	-3.4172004e-08	5.6990469e-08	1.6108788e-05	1.0350457e-05	0	0	1.2501171e-06	7.5444939e-09	2.4838087e-10	1.7663844e-09	5.3418319e-08	8.1348989e-07	2.1424175e-05	0	0	1.2501281e-06	7.9999999	8	7.9999998	7.9999992	7.9999169	7.9996492	8	8	1.1849141e-07	3.0946328e-08	1.75475e-07	6.9977455e-07	8.3067141e-05	0.00032384429	1.6767471e-10	3.1967011e-10	-187.20144	R0:S0:1	-119.68	uncorrelated	51514b8	1	sharp_wc_10.0_b_50	 1.84e+01	 1.16e-02	2022-03-29@15:36
2x2_2C_8b_C2v_L	10.44	0	14	2.61	-0.10578702	-12.001227	-13.699517	-0.11706411	-13.701761	-0.18903146	-0.46262829	-12.964483	17.58	5.2156659e-05	0.00020875064	0.00014194298	-0.00054179521	-0.00021142743	0.0055812169	-0.00027977633	7.4076502e-06	0.00032636991	-0.91699394	1.3783448	-0.020502601	-1.3785952	-0.019639389	-0.004179109	-1.6957777	1.39	0.64	0.103	0	1.3333333	2	0	0	0	0.99999389	2	2	2	1.9999997	1.999999	1.9999739	1.9999999	2	1.9999939	-0.00024484335	-0.00022971018	-0.00016728775	0.0027700039	0.00016347214	-0.027788715	0.0014051687	-2.3093529e-06	3.9355287e-09	4.8831229e-09	-1.9606832e-07	4.1084075e-07	1.915568e-05	2.0484846e-05	8.4687262e-09	6.2344488e-08	1.5276598e-06	1.919914e-09	1.7724702e-09	1.051139e-08	3.0818429e-07	9.5150388e-07	2.7165185e-05	6.5683623e-08	3.9408565e-09	1.5276646e-06	8	8	7.999999	7.9999956	7.9998997	7.9995731	7.9999989	7.9999997	3.787203e-08	3.6207418e-08	1.0172573e-06	4.0444588e-06	0.00010034532	0.00039430882	1.003337e-06	2.6267875e-07	-191.12308	R0:S0:1	-119.76	uncorrelated	51514b8	1	sharp_wc_10.0_b_50	 1.83e+01	 1.38e-03	2022-03-29@15:41
2x2_2C_8b_C2v_L	10.44	0	14	2.61	-0.10579014	-13.16724	-14.20618	-0.15336004	-14.206594	-0.20270085	-0.6604384	-13.09213	17.59	0.00030489797	1.8504272e-06	6.0807197e-05	0.0017743143	3.3121026e-05	-5.7431792e-05	5.4626061e-05	9.2162254e-05	0.0047950337	-0.95387448	1.3990158	-0.033049879	-1.3986846	-0.038540716	0.063988165	-1.6983103	1.39	0.64	0.103	0	1.3333333	2	0	0	0	0.99999936	1.9999999	2	1.9999999	1.9999969	2	2	2	2	1.9999994	-0.0014262502	3.5027793e-06	-3.3548005e-05	-0.0089584043	-2.6495989e-05	0.00028581203	-0.00025522352	-0.0001035188	-3.1117987e-08	3.6567377e-08	-1.9541541e-06	4.4279732e-06	1.9132484e-09	4.5774252e-09	8.1310702e-10	2.97188e-09	1.6108369e-07	6.5931304e-08	1.3184973e-09	9.5247585e-08	3.5348538e-06	1.2418688e-10	3.3916052e-09	2.3136915e-09	5.0519589e-10	1.6109202e-07	7.9999989	7.9999997	7.9999896	7.9999541	8	8	8	8	1.026136e-06	2.597893e-07	1.0414105e-05	4.2468452e-05	1.0992215e-08	4.3534886e-08	3.4391146e-08	1.4716545e-08	-196.30887	R0:S0:1	-119.84	uncorrelated	51514b8	1	sharp_wc_10.0_b_50	 1.83e+01	 2.30e-03	2022-03-29@15:45
2x2_2C_8b_C2v_L	10.44	0	14	2.61	-0.11087439	-14.616294	-14.808096	-0.21983221	-14.806955	-0.24199936	-0.92318622	-13.238836	17.6	-8.8377656e-05	-0.00045422387	6.7551435e-05	-5.3249729e-05	5.9214348e-05	0.00018298707	-1.0093714e-05	-0.00022053804	0.023644028	-0.99657887	1.4231117	-0.046819394	-1.4224057	-0.050034285	0.084001891	-1.7033318	1.39	0.64	0.103	0	1.3333333	2	0	0	0	0.99999999	2	2	2	2	2	2	2	2	2	0.00041039285	0.00042225362	-5.7690662e-05	0.00026264624	-7.9437165e-05	-0.00090267021	3.3354513e-05	0.00025731941	1.913943e-09	1.4084019e-08	-1.585297e-09	3.3987095e-09	2.1050331e-08	6.1831827e-08	8.4395336e-10	7.6231019e-09	2.8458527e-09	7.2627282e-09	5.8637859e-09	1.8313262e-10	3.0094212e-09	1.1203065e-09	3.5079205e-08	0	2.3369493e-09	2.8565763e-09	7.9999999	7.9999999	8	8	7.9999999	7.9999995	8	8	1.0690795e-07	1.1630252e-07	1.0609333e-08	3.6291265e-08	1.1249406e-07	4.4735923e-07	1.2200957e-08	4.023182e-08	-202.73215	R0:S0:1	-119.92	uncorrelated	51514b8	1	sharp_wc_10.0_b_50	 1.82e+01	 4.38e-03	2022-03-29@15:50
2x2_2C_8b_C2v_L	10.44	0	14	2.61	-0.48218356	-16.089496	-14.799609	-0.87921532	-14.792631	-0.87526086	-1.3415194	-13.090999	17.61	0.00040453014	0.00044765653	-0.00048249973	-0.00075841248	-0.00065953151	0.002068798	-8.4248166e-07	5.7602955e-05	0.063883625	-1.0336657	1.4154789	-0.091088091	-1.415019	-0.090302016	0.091488865	-1.6939318	1.39	0.64	0.103	0	1.3333333	2	0	0	0	0.99999935	1.9999999	2	2	1.9999997	1.9999999	1.9999976	2	2	1.9999993	-0.0016982728	-0.00037742623	0.00044812572	0.0030695373	0.00059195946	-0.0083983242	3.5835791e-06	-5.6949261e-05	-6.5231425e-08	5.1187314e-08	-2.2311998e-07	1.6080526e-07	1.6013794e-06	1.5986533e-06	0	0	1.6329629e-07	1.0415703e-07	5.9701515e-09	1.6161661e-08	3.2914867e-07	8.3025421e-08	2.4630834e-06	0	1.2219914e-10	1.6331283e-07	7.9999984	7.9999996	7.9999987	7.9999948	7.9999907	7.9999613	8	8	1.4809693e-06	4.3981951e-07	1.3220325e-06	4.8049678e-06	9.282644e-06	3.592662e-05	4.1648628e-10	1.6332344e-09	-209.58184	R0:S0:1	-120	uncorrelated	51514b8	1	sharp_wc_10.0_b_50	 1.81e+01	 3.51e-03	2022-03-29@15:54
2x2_2C_8b_C2v_L	10.44	0	14	2.61	-1.2263408	-17.582619	-14.18195	-2.1336067	-14.164773	-2.1043563	-1.9154749	-12.664316	17.62	0.00011931799	-9.7639233e-05	-0.00011943572	-7.6421656e-05	-0.00017708219	0.00073174299	3.7057014e-05	0.0001838127	0.11672114	-1.0590893	1.3847486	-0.1143638	-1.3844009	-0.11268017	0.058261454	-1.6735163	1.39	0.64	0.103	0	1.3333333	2	0	0	0	0.99999996	2	2	2	2	2	1.9999998	2	2	2	-0.00042468365	8.665436e-05	0.00011640439	0.00022996913	0.00016276633	-0.0022369201	-0.00011909435	-0.00022794611	-1.0874727e-08	3.9442196e-09	-1.9673863e-09	-9.4466019e-10	1.0689605e-07	5.3362026e-08	3.1646113e-09	6.9682352e-09	1.0617795e-08	6.11373e-09	3.1060843e-10	4.9386539e-10	1.7288002e-09	5.3611338e-09	1.644258e-07	4.6127546e-10	1.865323e-09	1.0617653e-08	7.9999999	8	8	8	7.9999993	7.9999973	8	8	9.6162686e-08	2.8534625e-08	1.4030531e-08	2.8335789e-08	6.5697621e-07	2.5290808e-06	1.7019264e-08	3.4517161e-08	-216.90688	R0:S0:1	-120.08	uncorrelated	51514b8	1	sharp_wc_10.0_b_50	 1.81e+01	 2.51e-03	2022-03-29@15:58
2x2_2C_8b_C2v_L	10.44	0	14	2.61	-2.5081614	-18.999322	-13.259718	-3.9850473	-13.244028	-3.9313764	-2.6447793	-12.804623	17.63	-0.015157027	-0.0085468831	2.1886646e-05	0.0012428542	-6.7506978e-05	-0.0034629909	-0.00033054119	-0.00017215895	0.18807831	-1.0666003	1.356785	0.015682728	-1.3558102	0.022657077	-0.0053984515	-1.6837446	1.39	0.64	0.103	0	1.3333333	2	0	0	0	0.99998584	1.999945	1.9999984	2	1.9999998	2	1.9999981	2	2	1.9999858	0.041315808	0.0059752734	-4.6361756e-05	-0.00276723	6.9680533e-05	0.0077676918	0.00095522167	0.00024606551	-3.2546348e-05	2.0614814e-05	-1.515599e-07	-6.0211753e-08	1.19106e-06	-3.5947099e-08	4.4789801e-08	3.665921e-08	3.5406945e-06	5.6241169e-05	1.6422627e-06	6.0064478e-09	2.4526208e-07	4.7154288e-08	1.933026e-06	2.9877581e-08	3.5173127e-09	3.5407304e-06	7.9990776	7.9997662	7.999999	7.9999959	7.9999923	7.9999678	7.9999995	7.9999998	0.00086587637	0.0002332258	9.8509152e-07	3.8563558e-06	7.7330153e-06	3.0357481e-05	4.822633e-07	1.6816758e-07	-227.79446	R0:S0:1	-120.16	uncorrelated	51514b8	1	sharp_wc_10.0_b_50	 1.80e+01	 3.80e-03	2022-03-29@16:01
2x2_2C_8b_C2v_L	10.44	0	14	2.61	-4.4224372	-20.294079	-13.088857	-6.4440748	-13.092541	-6.3684799	-3.5327661	-13.458877	17.64	0.010400389	0.007541886	0.00026776211	-0.0019977036	0.00022254856	0.00055001878	0.0012615917	-0.00035616346	0.29367436	-1.0400836	1.3477065	0.047447282	-1.3468853	0.0607858	-0.19971634	-1.6925267	1.39	0.64	0.103	0	1.3333333	2	0	0	0	0.99999608	1.9999855	1.9999991	2	1.9999997	2	2	1.9999997	2	1.9999961	-0.021314348	-0.0050014493	-0.00026800057	0.0032908344	-0.00025900661	-0.00091005609	-0.0031325852	0.00030722381	-7.8350755e-06	4.4686993e-06	-1.8927571e-07	9.4835067e-09	2.3619485e-08	2.9272273e-08	1.6828221e-07	2.3928381e-07	9.7982357e-07	1.4785412e-05	8.8581069e-07	8.8440375e-09	3.4498075e-07	2.7588296e-09	2.638512e-08	3.2639205e-07	1.5215136e-08	9.79845e-07	7.9997548	7.99993	7.9999986	7.9999943	7.9999998	7.9999995	7.9999947	7.9999987	0.00023201791	6.9646082e-05	1.4162565e-06	5.4494341e-06	1.4970883e-07	4.3058283e-07	4.9959572e-06	1.321832e-06	-246.52436	R0:S0:1	-120.24	uncorrelated	51514b8	1	sharp_wc_10.0_b_50	 1.79e+01	 1.68e-02	2022-03-29@16:04
2x2_2C_8b_C2v_L	10.44	0	14	2.61	-6.9702289	-21.46665	-13.667898	-9.5106901	-13.708299	-9.415669	-4.5944634	-14.632902	17.65	0.047353684	0.048362339	-0.00013810286	-0.0092390552	5.4434859e-05	0.012208795	0.0007977762	-0.00033863587	0.4287945	-0.98058357	1.3742933	-0.019577546	-1.3762798	0.0017725964	-0.3486808	-1.7064488	1.39	0.64	0.103	0	1.3333333	2	0	0	0	0.99994821	1.9998311	1.9999695	1.9999999	1.9999958	1.9999999	1.9999925	1.9999999	2	1.9999482	-0.072841175	-0.030847189	0.00013739454	0.011517221	-6.9672324e-05	-0.015334827	-0.0017036635	0.00026943016	-7.0061503e-05	4.6342902e-05	-1.9673264e-06	-3.2344239e-08	3.500125e-06	2.1822025e-07	7.6593701e-08	5.9554173e-08	1.2946314e-05	0.00017135091	3.0758316e-05	5.8909432e-08	4.2036231e-06	1.0429015e-07	7.4528014e-06	9.7558776e-08	5.1942219e-09	1.2946535e-05	7.9970832	7.9988451	7.9999832	7.9999305	7.9999702	7.9998768	7.9999984	7.9999996	0.0027851277	0.0011418619	1.6824947e-05	6.6559431e-05	2.9816377e-05	0.00011799783	1.4923721e-06	4.1150993e-07	-273.13622	R0:S0:1	-120.32	uncorrelated	51514b8	1	sharp_wc_10.0_b_50	 1.79e+01	 1.50e-02	2022-03-29@16:08
2x2_2C_8b_C2v_L	10.44	0	14	2.61	-10.145422	-22.515542	-14.780086	-13.178052	-14.872688	-13.06852	-5.8963328	-16.24203	17.66	0.014417933	0.024546013	-0.042532629	-0.19905988	-0.041354607	0.22054051	-0.0016047626	0.0010316802	0.66959161	-0.75955759	1.4047508	-0.27523525	-1.4182447	-0.24024248	-0.5406486	-1.6927276	1.39	0.64	0.103	0	1.3333333	2	-1.694632e-09	0	0	0.99932653	1.9999909	1.9999929	1.999944	1.9988314	1.9999437	1.9985466	1.9999997	2	1.9993265	-0.016933807	-0.01505633	0.037347889	0.19225551	0.036126237	-0.21439424	0.0028965931	-0.00082469155	-4.2531089e-06	2.4173119e-06	-0.00047884585	0.0001116154	0.00059716319	0.00012034903	1.7867434e-07	1.6221081e-07	0.00016819667	9.2745813e-06	7.1497514e-06	5.7556108e-05	0.0011698558	5.7748055e-05	0.0014541804	2.8492616e-07	2.8277228e-08	0.00016823884	7.9998216	7.9998476	7.9946063	7.9806112	7.9935136	7.9759393	7.9999953	7.9999985	0.0001723807	0.00014942358	0.0053696012	0.018709025	0.0064639315	0.023212374	4.4261888e-06	1.4922281e-06	-306.72201	R0:S0:1	-120.4	uncorrelated	51514b8	1	sharp_wc_10.0_b_50	 1.78e+01	 5.76e-03	2022-03-29@16:11
2x2_2C_8b_C2v_L	10.44	0	14	2.61	-13.948698	-23.440816	-16.42778	-17.450763	-16.590739	-17.333503	-7.4382215	-18.283828	17.67	-0.022004308	-0.086740903	-0.1809705	-0.40534141	-0.16432406	0.40589919	-0.0033785913	0.0030845196	0.93658851	-0.35757261	1.4017013	-0.65664006	-1.4302071	-0.5985666	-0.78828985	-1.6130079	1.39	0.64	0.103	0	1.3333333	2	-7.6627974e-09	-2.0979883e-10	0	0.99816156	1.9999869	1.9999174	1.9993038	1.9969641	1.9994304	1.9969211	1.9999991	1.9999998	1.9981611	0.020202169	0.051352468	0.14567281	0.30987254	0.13120238	-0.31210271	0.0052075431	-0.0022276939	-2.168388e-05	2.5499373e-06	-0.0012351469	0.00052449968	0.0012251398	0.00046843112	7.6675517e-07	3.9466389e-07	0.00045836478	1.336485e-05	8.2715514e-05	0.00071520931	0.0030477233	0.00058540126	0.0030881401	9.3213807e-07	1.7343805e-07	0.00045871966	7.9994569	7.9985953	7.976894	7.9477271	7.9787945	7.9475082	7.9999845	7.9999936	0.000535886	0.0013707934	0.022766946	0.050795357	0.020931984	0.050985876	1.4882587e-05	6.3422428e-06	-347.34157	R0:S0:1	-120.48	uncorrelated	51514b8	1	sharp_wc_10.0_b_50	 1.77e+01	 2.37e-02	2022-03-29@16:14
2x2_2C_8b_C2v_L	10.44	0	14	2.61	-18.35771	-24.241118	-18.57907	-22.320772	-18.825439	-22.201372	-9.236013	-20.754433	17.68	0.056092127	-0.47752419	-0.37881332	-0.59050356	-0.35691214	0.60146474	-0.00021391029	0.00044043156	1.1593561	0.17437026	1.3892079	-1.0452137	-1.4332448	-0.98210672	-1.0701106	-1.4422928	1.39	0.64	0.103	1.1336124e-10	1.3333333	1.9999999	-2.1743496e-08	-5.2033045e-10	2.4805899e-10	0.99616615	1.9999403	1.9976431	1.9975857	1.9957903	1.9978997	1.9955925	2	2	1.9961639	-0.040871038	0.27403752	0.2742375	0.36466292	0.25551253	-0.37322249	0.00027472968	-0.00029363428	-0.00052534426	-6.5890639e-05	-0.0018931607	0.0011970609	0.0018870111	0.0011056153	5.6189311e-08	6.2858059e-08	0.00095383462	6.0574631e-05	0.0023543817	0.002463495	0.0042363328	0.0021450015	0.0044308241	3.1454128e-09	3.4600598e-09	0.00095551797	7.9897103	7.9612752	7.9443847	7.9221736	7.948719	7.9201705	7.9999985	7.9999985	0.010264695	0.037792339	0.054517309	0.076107866	0.05033534	0.078021801	1.4671045e-06	1.4722577e-06	-394.85716	R0:S0:1	-120.56	uncorrelated	51514b8	1	sharp_wc_10.0_b_50	 1.76e+01	 1.46e-02	2022-03-29@16:18
2x2_2C_8b_C2v_L	10.44	0	14	2.61	-23.303012	-24.936847	-20.931986	-27.761206	-21.271963	-27.650805	-11.287325	-23.650553	17.69	0.24788092	-0.62563281	-0.22229504	-0.89847422	-0.23292921	0.91620642	-0.00052709678	0.0010930464	1.273149	0.53427977	1.7633832	-0.56307769	-1.7815831	-0.57404559	-1.410706	-1.0404346	1.39	0.64	0.103	1.3270432e-10	1.3333333	1.9999999	-2.191591e-08	-4.4266857e-10	2.1588581e-10	0.99517693	1.9993076	1.9961558	1.9992929	1.9933987	1.999246	1.9930873	2	2	1.9951731	-0.14702753	0.34967419	0.14513399	0.45741971	0.14992069	-0.46801591	0.0005951662	-0.00064204306	-0.00096317698	-0.00036984751	-0.0021342748	0.00056791324	0.0022458294	0.00061611284	8.4666898e-08	4.3414804e-08	0.0011988154	0.0007001946	0.0038431942	0.00072541438	0.0065884753	0.00077333479	0.0068985788	1.3192762e-08	1.3375256e-08	0.0012016862	7.9735341	7.9346095	7.9627511	7.8902362	7.9607848	7.8850301	7.9999981	7.9999981	0.026192616	0.06391654	0.036965096	0.10745383	0.038916129	0.11254873	1.9033778e-06	1.9154262e-06	-447.69073	R0:S0:1	-120.64	uncorrelated	51514b8	1	sharp_wc_10.0_b_50	 1.75e+01	 3.21e-02	2022-03-29@16:21
2x2_2C_8b_C2v_L	10.44	0	14	2.61	-28.745438	-25.50986	-23.268188	-33.807718	-23.702651	-33.719877	-12.836115	-26.972768	17.7	0.53626693	-0.62195926	0.088038396	-1.1784671	0.077965909	1.193598	0.0016056941	0.065665904	1.2214313	0.94394382	1.9748377	0.20859466	-1.999836	0.18113656	-1.6811326	0.075703167	1.39	0.64	0.103	0	1.3333333	1.9999999	-1.9197191e-08	-3.397339e-10	1.6313065e-10	0.99449059	1.9977973	1.9963473	1.9998748	1.9920564	1.9998942	1.991813	1.9999996	1.9999625	1.9944853	-0.26407291	0.3403879	-0.05232531	0.50193937	-0.045611911	-0.50953047	-0.001641421	-0.034535731	-0.0010225356	-0.00084553587	-0.002211526	-0.00021286337	0.0022866145	-0.00017944302	1.2754404e-05	3.971874e-07	0.0013684166	0.0022157328	0.003665188	0.00012765835	0.0079109416	0.00010765808	0.0081519979	3.6126275e-07	3.7542588e-05	0.0013723815	7.9497714	7.931861	7.9668216	7.8710971	7.9661863	7.8672571	7.9998467	7.9993866	0.049474277	0.06677257	0.033143932	0.12651089	0.033787846	0.13027568	0.00015321296	0.00059942586	-503.5103	R0:S0:1	-120.72	uncorrelated	51514b8	1	sharp_wc_10.0_b_50	 1.74e+01	 8.75e-02	2022-03-29@16:25
2x2_2C_8b_C2v_L	10.44	0	14	2.61	-34.691141	-25.870214	-25.186194	-40.501589	-25.7272	-40.450441	-12.868078	-30.740837	17.71	0.90942088	-0.2399236	0.0015158531	-1.4456243	0.022419012	1.4730203	-0.037246084	0.23284647	0.50217963	1.4479996	2.119272	0.0037073728	-2.1526381	0.05010596	-1.6480526	-0.56159276	1.39	0.64	0.103	0	1.3333333	1.9999999	-1.3340811e-08	-2.5555986e-10	1.1164626e-10	0.99429507	1.9955067	1.9994586	1.9999646	1.9914288	1.9999579	1.9910815	1.9999522	1.9996277	1.9942891	-0.37821043	0.12967989	-0.00079117395	0.52150106	-0.012220721	-0.53189531	0.03724102	-0.10881741	-0.00030279174	-0.00097485287	-0.0021967124	-2.4918921e-05	0.0023061122	-3.278115e-05	0.00014293108	2.1315486e-05	0.001416649	0.0044862301	0.00054781567	3.5354249e-05	0.0085322007	4.2272041e-05	0.0088762961	5.0689326e-05	0.00037270321	0.0014211414	7.9249573	7.9734114	7.9657176	7.861599	7.9642524	7.8560057	7.9977811	7.9937705	0.073694029	0.026391376	0.034282176	0.13616484	0.035745624	0.14166964	0.002193028	0.0061041326	-558.72536	R0:S0:1	-120.8	uncorrelated	51514b8	1	sharp_wc_10.0_b_50	 1.73e+01	 9.71e-02	2022-03-29@16:28
2x2_2C_8b_C2v_L	10.44	0	14	2.61	-41.162131	-25.966387	-26.343398	-47.87906	-27.000959	-47.880929	-11.436461	-34.977546	17.72	1.0538487	0.16373775	-0.072925119	-1.7070738	-0.074924459	1.7370381	0.020468644	-0.074378281	-0.36092495	1.5066168	2.2189326	-0.16763918	-2.2575536	-0.16788358	-1.4719951	-1.0700672	1.39	0.64	0.103	0	1.3333333	1.9999999	-8.4801458e-09	-1.4409806e-10	0	0.99437331	1.9955892	1.9997453	1.999921	1.9912493	1.9999187	1.9909415	1.9999831	1.99997	1.9943672	-0.37485452	-0.088180266	0.0387094	0.527057	0.038985709	-0.53619016	-0.022528571	0.030906199	0.00018433088	-0.00084545046	-0.0020922672	0.00018461279	0.0021860368	0.00015172917	1.9544623e-05	5.2388688e-06	0.0013970921	0.0044018046	0.00025794961	8.0324139e-05	0.0087107059	8.2621409e-05	0.0090156793	1.7990849e-05	3.0101651e-05	0.0014016513	7.9275557	7.9783723	7.9642317	7.8587614	7.9629892	7.8538283	7.9996117	7.9994482	0.071283465	0.021536607	0.035751011	0.13924632	0.036993592	0.14411291	0.00037825872	0.00054262607	-612.18329	R0:S0:1	-120.88	uncorrelated	51514b8	1	sharp_wc_10.0_b_50	 1.72e+01	 1.24e-01	2022-03-29@16:32
2x2_2C_8b_C2v_L	10.44	0	14	2.61	-48.159479	-25.729341	-26.394815	-55.969068	-27.189786	-56.040959	-9.7157345	-39.643859	17.73	1.1798192	0.29568647	-0.014797294	-1.8949618	-0.029111548	1.945884	-0.0097843671	0.027428207	-0.67370949	1.4813333	2.2442957	-0.036108764	-2.2961188	-0.069043978	-1.2723643	-1.5302359	1.39	0.64	0.103	0	1.3333333	1.9999999	-8.6665051e-09	-4.0829626e-10	1.8558837e-10	0.99465528	1.9958682	1.9991791	1.9999744	1.9919562	1.9999672	1.9915408	1.9999948	1.9999968	1.9946496	-0.3628331	-0.16039734	0.0077419836	0.50557396	0.015109719	-0.51838985	0.012433509	-0.010095978	0.00036262072	-0.00083854821	-0.0017430809	7.6436329e-05	0.0018588059	2.9621526e-05	5.9602853e-06	4.1282682e-07	0.0013276467	0.0041259604	0.00083116237	2.5657206e-05	0.0080099242	3.3044424e-05	0.0084217555	5.4962373e-06	3.2254109e-06	0.0013318881	7.9299468	7.970287	7.9677958	7.8704517	7.9660477	7.8637814	7.9999039	7.9999281	0.06909712	0.029410074	0.032203467	0.12793295	0.033949592	0.13452551	9.2769126e-05	7.0991063e-05	-664.75272	R0:S0:1	-120.96	uncorrelated	51514b8	1	sharp_wc_10.0_b_50	 1.72e+01	 3.21e-02	2022-03-29@16:36
