Number of OpenMP threads = 4
!!!!!!!!!!!!!!!!!!!!!!!!!!!!! - Fading to Sr2CuO2Cl2 - !!!!!!!!!!!!!!!!!!!!!!!!!!!!!
reading data file /home/theod/code_pyqcm/simulations/cdmft_max_supra_sid.tsv, line 1
111 columns read
----->  D  =  0.0
----->  U  =  14.0
----->  e  =  2.3
----->  eb1_1  =  -0.006655534
----->  eb2_1  =  -3.3502828
----->  eb3_1  =  -4.1133163
----->  eb4_1  =  -0.10235806
----->  eb5_1  =  -4.113222
----->  eb6_1  =  -0.1023468
----->  eb7_1  =  0.14108001
----->  eb8_1  =  -3.7537133
----->  mu  =  9.68
----->  sb1_1  =  -0.0001012231
----->  sb2_1  =  7.5002141e-06
----->  sb3_1  =  0.011771903
----->  sb4_1  =  -0.16264369
----->  sb5_1  =  0.011773954
----->  sb6_1  =  -0.16264057
----->  sb7_1  =  1.0013529e-05
----->  sb8_1  =  -2.0059213e-06
----->  tb1_1  =  -0.11240159
----->  tb2_1  =  -1.1061747
----->  tb3_1  =  1.7476608
----->  tb4_1  =  0.057892245
----->  tb5_1  =  -1.7476438
----->  tb6_1  =  -0.057886658
----->  tb7_1  =  0.22749261
----->  tb8_1  =  -2.3061557
----->  tpd  =  2.1
----->  tpp  =  1.0
----->  tppp  =  0.2

******************************* CDMFT procedure *******************************

minimization method =  CG
mixing state =  1
frequency grid type =  sharp
fictitious inverse temperature =  50
frequency cutoff =  2.0
--------------------------------------------------------------------------------

CDMFT iteration 1, distance =  1.66e+02, diff param =  6.21e-02
127 minimization steps, time(MIN)/time(ED)=0.00651
sb1_1     =  0.0000	sb2_1     = -0.0000	sb3_1     =  0.0101	sb4_1     = -0.1828	sb5_1     =  0.0101	
sb6_1     = -0.1828	sb7_1     =  0.0000	sb8_1     =  0.0000	eb1_1     =  0.0073	eb2_1     = -3.2405	
eb3_1     = -3.9554	eb4_1     = -0.1165	eb5_1     = -3.9553	eb6_1     = -0.1165	eb7_1     =  0.1567	
eb8_1     = -3.5865	tb1_1     = -0.1179	tb2_1     = -1.1037	tb3_1     =  1.7426	tb4_1     =  0.0430	
tb5_1     = -1.7426	tb6_1     = -0.0430	tb7_1     =  0.2522	tb8_1     = -2.3029	

CDMFT iteration 2, distance =  1.92e+02, diff param =  1.10e-02, diff hybrid =  9.64e-02
60 minimization steps, time(MIN)/time(ED)=0.00439
sb1_1     = -0.0000	sb2_1     =  0.0000	sb3_1     =  0.0064	sb4_1     = -0.1959	sb5_1     =  0.0064	
sb6_1     = -0.1959	sb7_1     =  0.0000	sb8_1     =  0.0000	eb1_1     =  0.0128	eb2_1     = -3.2246	
eb3_1     = -3.9502	eb4_1     = -0.1356	eb5_1     = -3.9501	eb6_1     = -0.1355	eb7_1     =  0.1720	
eb8_1     = -3.5954	tb1_1     = -0.1194	tb2_1     = -1.0962	tb3_1     =  1.7354	tb4_1     =  0.0236	
tb5_1     = -1.7353	tb6_1     = -0.0236	tb7_1     =  0.2660	tb8_1     = -2.2954	

CDMFT iteration 3, distance =  1.79e+02, diff param =  1.51e-02, diff hybrid =  4.47e-02
79 minimization steps, time(MIN)/time(ED)=0.00369
sb1_1     =  0.0001	sb2_1     =  0.0000	sb3_1     =  0.0080	sb4_1     = -0.1889	sb5_1     =  0.0080	
sb6_1     = -0.1889	sb7_1     = -0.0000	sb8_1     = -0.0000	eb1_1     =  0.0052	eb2_1     = -3.1585	
eb3_1     = -3.9330	eb4_1     = -0.1315	eb5_1     = -3.9330	eb6_1     = -0.1315	eb7_1     =  0.1731	
eb8_1     = -3.6017	tb1_1     = -0.1181	tb2_1     = -1.0891	tb3_1     =  1.7364	tb4_1     =  0.0303	
tb5_1     = -1.7364	tb6_1     = -0.0303	tb7_1     =  0.2587	tb8_1     = -2.3029	

CDMFT iteration 4, distance =  1.82e+02, diff param =  1.85e-03, diff hybrid =  2.64e-02
28 minimization steps, time(MIN)/time(ED)=0.00301
sb1_1     = -0.0000	sb2_1     = -0.0000	sb3_1     =  0.0079	sb4_1     = -0.1903	sb5_1     =  0.0079	
sb6_1     = -0.1903	sb7_1     =  0.0000	sb8_1     =  0.0000	eb1_1     =  0.0075	eb2_1     = -3.1594	
eb3_1     = -3.9328	eb4_1     = -0.1298	eb5_1     = -3.9328	eb6_1     = -0.1298	eb7_1     =  0.1703	
eb8_1     = -3.5958	tb1_1     = -0.1186	tb2_1     = -1.0884	tb3_1     =  1.7346	tb4_1     =  0.0298	
tb5_1     = -1.7346	tb6_1     = -0.0298	tb7_1     =  0.2604	tb8_1     = -2.2993	

CDMFT iteration 5, distance =  1.84e+02, diff param =  1.14e-03, diff hybrid =  8.70e-03
24 minimization steps, time(MIN)/time(ED)=0.00256
sb1_1     =  0.0000	sb2_1     =  0.0000	sb3_1     =  0.0075	sb4_1     = -0.1911	sb5_1     =  0.0075	
sb6_1     = -0.1911	sb7_1     = -0.0000	sb8_1     = -0.0000	eb1_1     =  0.0092	eb2_1     = -3.1613	
eb3_1     = -3.9339	eb4_1     = -0.1317	eb5_1     = -3.9339	eb6_1     = -0.1317	eb7_1     =  0.1721	
eb8_1     = -3.5974	tb1_1     = -0.1185	tb2_1     = -1.0885	tb3_1     =  1.7345	tb4_1     =  0.0281	
tb5_1     = -1.7345	tb6_1     = -0.0281	tb7_1     =  0.2613	tb8_1     = -2.2993	

CDMFT iteration 6, distance =  1.82e+02, diff param =  7.99e-04, diff hybrid =  3.84e-03
10 minimization steps, time(MIN)/time(ED)=0.00221
====================== CDMFT converged on the parameters ======================
sb1_1     =  0.0000	sb2_1     =  0.0000	sb3_1     =  0.0079	sb4_1     = -0.1902	sb5_1     =  0.0079	
sb6_1     = -0.1902	sb7_1     =  0.0000	sb8_1     =  0.0000	eb1_1     =  0.0075	eb2_1     = -3.1612	
eb3_1     = -3.9339	eb4_1     = -0.1313	eb5_1     = -3.9339	eb6_1     = -0.1313	eb7_1     =  0.1721	
eb8_1     = -3.5975	tb1_1     = -0.1185	tb2_1     = -1.0889	tb3_1     =  1.7352	tb4_1     =  0.0300	
tb5_1     = -1.7352	tb6_1     = -0.0300	tb7_1     =  0.2602	tb8_1     = -2.3002	
   <D> = 0.011015
   <e> = 1.251959
   <mu> = 1.607485
   <tpd> = -0.614989
   <tpp> = -0.203115
   <tppp> = 0.084308
************************* CDMFT completed successfully *************************

******************************* CDMFT procedure *******************************

minimization method =  CG
mixing state =  1
frequency grid type =  sharp
fictitious inverse temperature =  50
frequency cutoff =  2.0
--------------------------------------------------------------------------------

CDMFT iteration 1, distance =  1.80e+02, diff param =  9.47e-03
52 minimization steps, time(MIN)/time(ED)=0.00134
sb1_1     =  0.0000	sb2_1     =  0.0000	sb3_1     =  0.0079	sb4_1     = -0.1913	sb5_1     =  0.0079	
sb6_1     = -0.1913	sb7_1     = -0.0000	sb8_1     = -0.0000	eb1_1     =  0.0082	eb2_1     = -3.1539	
eb3_1     = -3.9130	eb4_1     = -0.1318	eb5_1     = -3.9130	eb6_1     = -0.1318	eb7_1     =  0.1719	
eb8_1     = -3.5644	tb1_1     = -0.1187	tb2_1     = -1.0871	tb3_1     =  1.7302	tb4_1     =  0.0297	
tb5_1     = -1.7302	tb6_1     = -0.0297	tb7_1     =  0.2616	tb8_1     = -2.2915	

CDMFT iteration 2, distance =  1.82e+02, diff param =  9.98e-04, diff hybrid =  7.12e-03
22 minimization steps, time(MIN)/time(ED)=0.00098
====================== CDMFT converged on the parameters ======================
sb1_1     =  0.0000	sb2_1     =  0.0000	sb3_1     =  0.0073	sb4_1     = -0.1922	sb5_1     =  0.0073	
sb6_1     = -0.1922	sb7_1     =  0.0000	sb8_1     = -0.0000	eb1_1     =  0.0094	eb2_1     = -3.1542	
eb3_1     = -3.9131	eb4_1     = -0.1330	eb5_1     = -3.9131	eb6_1     = -0.1330	eb7_1     =  0.1729	
eb8_1     = -3.5661	tb1_1     = -0.1187	tb2_1     = -1.0867	tb3_1     =  1.7296	tb4_1     =  0.0273	
tb5_1     = -1.7296	tb6_1     = -0.0273	tb7_1     =  0.2625	tb8_1     = -2.2912	
   <D> = 0.010957
   <e> = 1.250954
   <mu> = 1.606334
   <tpd> = -0.618062
   <tpp> = -0.205712
   <tppp> = 0.085269
************************* CDMFT completed successfully *************************

******************************* CDMFT procedure *******************************

minimization method =  CG
mixing state =  1
frequency grid type =  sharp
fictitious inverse temperature =  50
frequency cutoff =  2.0
--------------------------------------------------------------------------------

CDMFT iteration 1, distance =  1.78e+02, diff param =  1.04e-02
59 minimization steps, time(MIN)/time(ED)=0.00152
sb1_1     =  0.0000	sb2_1     =  0.0000	sb3_1     =  0.0075	sb4_1     = -0.1922	sb5_1     =  0.0075	
sb6_1     = -0.1922	sb7_1     = -0.0000	sb8_1     = -0.0000	eb1_1     =  0.0082	eb2_1     = -3.1383	
eb3_1     = -3.8877	eb4_1     = -0.1334	eb5_1     = -3.8877	eb6_1     = -0.1334	eb7_1     =  0.1735	
eb8_1     = -3.5355	tb1_1     = -0.1188	tb2_1     = -1.0841	tb3_1     =  1.7248	tb4_1     =  0.0281	
tb5_1     = -1.7248	tb6_1     = -0.0281	tb7_1     =  0.2626	tb8_1     = -2.2845	

CDMFT iteration 2, distance =  1.81e+02, diff param =  8.98e-04, diff hybrid =  7.06e-03
12 minimization steps, time(MIN)/time(ED)=0.00095
====================== CDMFT converged on the parameters ======================
sb1_1     =  0.0000	sb2_1     =  0.0000	sb3_1     =  0.0070	sb4_1     = -0.1931	sb5_1     =  0.0070	
sb6_1     = -0.1931	sb7_1     =  0.0000	sb8_1     = -0.0000	eb1_1     =  0.0095	eb2_1     = -3.1384	
eb3_1     = -3.8878	eb4_1     = -0.1340	eb5_1     = -3.8877	eb6_1     = -0.1340	eb7_1     =  0.1737	
eb8_1     = -3.5357	tb1_1     = -0.1189	tb2_1     = -1.0836	tb3_1     =  1.7239	tb4_1     =  0.0257	
tb5_1     = -1.7239	tb6_1     = -0.0257	tb7_1     =  0.2636	tb8_1     = -2.2835	
   <D> = 0.010466
   <e> = 1.250450
   <mu> = 1.605836
   <tpd> = -0.619353
   <tpp> = -0.207002
   <tppp> = 0.085700
************************* CDMFT completed successfully *************************

******************************* CDMFT procedure *******************************

minimization method =  CG
mixing state =  1
frequency grid type =  sharp
fictitious inverse temperature =  50
frequency cutoff =  2.0
--------------------------------------------------------------------------------

CDMFT iteration 1, distance =  1.77e+02, diff param =  1.03e-02
69 minimization steps, time(MIN)/time(ED)=0.00171
sb1_1     =  0.0000	sb2_1     = -0.0000	sb3_1     =  0.0071	sb4_1     = -0.1933	sb5_1     =  0.0071	
sb6_1     = -0.1933	sb7_1     = -0.0000	sb8_1     =  0.0000	eb1_1     =  0.0088	eb2_1     = -3.1232	
eb3_1     = -3.8631	eb4_1     = -0.1346	eb5_1     = -3.8631	eb6_1     = -0.1347	eb7_1     =  0.1743	
eb8_1     = -3.5039	tb1_1     = -0.1189	tb2_1     = -1.0811	tb3_1     =  1.7191	tb4_1     =  0.0259	
tb5_1     = -1.7191	tb6_1     = -0.0259	tb7_1     =  0.2639	tb8_1     = -2.2762	

CDMFT iteration 2, distance =  1.79e+02, diff param =  8.30e-04, diff hybrid =  6.93e-03
11 minimization steps, time(MIN)/time(ED)=0.00103
====================== CDMFT converged on the parameters ======================
sb1_1     =  0.0000	sb2_1     =  0.0000	sb3_1     =  0.0066	sb4_1     = -0.1941	sb5_1     =  0.0066	
sb6_1     = -0.1941	sb7_1     =  0.0000	sb8_1     = -0.0000	eb1_1     =  0.0098	eb2_1     = -3.1231	
eb3_1     = -3.8630	eb4_1     = -0.1354	eb5_1     = -3.8630	eb6_1     = -0.1354	eb7_1     =  0.1747	
eb8_1     = -3.5042	tb1_1     = -0.1189	tb2_1     = -1.0806	tb3_1     =  1.7184	tb4_1     =  0.0237	
tb5_1     = -1.7184	tb6_1     = -0.0236	tb7_1     =  0.2648	tb8_1     = -2.2754	
   <D> = 0.009818
   <e> = 1.249918
   <mu> = 1.605210
   <tpd> = -0.620802
   <tpp> = -0.208304
   <tppp> = 0.086149
************************* CDMFT completed successfully *************************

******************************* CDMFT procedure *******************************

minimization method =  CG
mixing state =  1
frequency grid type =  sharp
fictitious inverse temperature =  50
frequency cutoff =  2.0
--------------------------------------------------------------------------------

CDMFT iteration 1, distance =  1.75e+02, diff param =  1.11e-02
67 minimization steps, time(MIN)/time(ED)=0.00166
sb1_1     =  0.0000	sb2_1     = -0.0000	sb3_1     =  0.0066	sb4_1     = -0.1942	sb5_1     =  0.0066	
sb6_1     = -0.1942	sb7_1     = -0.0000	sb8_1     = -0.0000	eb1_1     =  0.0089	eb2_1     = -3.1046	
eb3_1     = -3.8350	eb4_1     = -0.1356	eb5_1     = -3.8350	eb6_1     = -0.1356	eb7_1     =  0.1751	
eb8_1     = -3.4736	tb1_1     = -0.1189	tb2_1     = -1.0776	tb3_1     =  1.7128	tb4_1     =  0.0238	
tb5_1     = -1.7128	tb6_1     = -0.0238	tb7_1     =  0.2651	tb8_1     = -2.2685	

CDMFT iteration 2, distance =  1.77e+02, diff param =  1.01e-03, diff hybrid =  7.10e-03
12 minimization steps, time(MIN)/time(ED)=0.00102
sb1_1     =  0.0000	sb2_1     =  0.0000	sb3_1     =  0.0060	sb4_1     = -0.1951	sb5_1     =  0.0060	
sb6_1     = -0.1951	sb7_1     =  0.0000	sb8_1     =  0.0000	eb1_1     =  0.0103	eb2_1     = -3.1046	
eb3_1     = -3.8351	eb4_1     = -0.1365	eb5_1     = -3.8351	eb6_1     = -0.1365	eb7_1     =  0.1757	
eb8_1     = -3.4735	tb1_1     = -0.1190	tb2_1     = -1.0771	tb3_1     =  1.7120	tb4_1     =  0.0211	
tb5_1     = -1.7120	tb6_1     = -0.0211	tb7_1     =  0.2661	tb8_1     = -2.2674	

CDMFT iteration 3, distance =  1.76e+02, diff param =  1.59e-03, diff hybrid =  5.10e-03
39 minimization steps, time(MIN)/time(ED)=0.00106
sb1_1     =  0.0001	sb2_1     =  0.0000	sb3_1     =  0.0060	sb4_1     = -0.1943	sb5_1     =  0.0060	
sb6_1     = -0.1943	sb7_1     = -0.0000	sb8_1     =  0.0000	eb1_1     =  0.0088	eb2_1     = -3.0988	
eb3_1     = -3.8319	eb4_1     = -0.1359	eb5_1     = -3.8319	eb6_1     = -0.1359	eb7_1     =  0.1753	
eb8_1     = -3.4734	tb1_1     = -0.1189	tb2_1     = -1.0764	tb3_1     =  1.7121	tb4_1     =  0.0214	
tb5_1     = -1.7121	tb6_1     = -0.0214	tb7_1     =  0.2651	tb8_1     = -2.2682	

CDMFT iteration 4, distance =  1.76e+02, diff param =  3.12e-04, diff hybrid =  3.59e-03
7 minimization steps, time(MIN)/time(ED)=0.00086
====================== CDMFT converged on the parameters ======================
sb1_1     =  0.0001	sb2_1     =  0.0000	sb3_1     =  0.0058	sb4_1     = -0.1946	sb5_1     =  0.0058	
sb6_1     = -0.1946	sb7_1     =  0.0000	sb8_1     = -0.0000	eb1_1     =  0.0093	eb2_1     = -3.0988	
eb3_1     = -3.8319	eb4_1     = -0.1358	eb5_1     = -3.8319	eb6_1     = -0.1358	eb7_1     =  0.1751	
eb8_1     = -3.4733	tb1_1     = -0.1189	tb2_1     = -1.0764	tb3_1     =  1.7118	tb4_1     =  0.0206	
tb5_1     = -1.7118	tb6_1     = -0.0206	tb7_1     =  0.2655	tb8_1     = -2.2678	
   <D> = 0.008670
   <e> = 1.249555
   <mu> = 1.604824
   <tpd> = -0.621612
   <tpp> = -0.209201
   <tppp> = 0.086434
************************* CDMFT completed successfully *************************

******************************* CDMFT procedure *******************************

minimization method =  CG
mixing state =  1
frequency grid type =  sharp
fictitious inverse temperature =  50
frequency cutoff =  2.0
--------------------------------------------------------------------------------

CDMFT iteration 1, distance =  1.74e+02, diff param =  1.06e-02
71 minimization steps, time(MIN)/time(ED)=0.00180
sb1_1     =  0.0001	sb2_1     = -0.0000	sb3_1     =  0.0058	sb4_1     = -0.1952	sb5_1     =  0.0058	
sb6_1     = -0.1952	sb7_1     = -0.0000	sb8_1     = -0.0000	eb1_1     =  0.0093	eb2_1     = -3.0848	
eb3_1     = -3.8068	eb4_1     = -0.1366	eb5_1     = -3.8068	eb6_1     = -0.1366	eb7_1     =  0.1755	
eb8_1     = -3.4397	tb1_1     = -0.1189	tb2_1     = -1.0739	tb3_1     =  1.7065	tb4_1     =  0.0204	
tb5_1     = -1.7065	tb6_1     = -0.0204	tb7_1     =  0.2662	tb8_1     = -2.2596	

CDMFT iteration 2, distance =  1.75e+02, diff param =  8.97e-04, diff hybrid =  7.19e-03
12 minimization steps, time(MIN)/time(ED)=0.00109
====================== CDMFT converged on the parameters ======================
sb1_1     =  0.0000	sb2_1     =  0.0000	sb3_1     =  0.0052	sb4_1     = -0.1960	sb5_1     =  0.0052	
sb6_1     = -0.1960	sb7_1     =  0.0000	sb8_1     = -0.0000	eb1_1     =  0.0104	eb2_1     = -3.0848	
eb3_1     = -3.8069	eb4_1     = -0.1377	eb5_1     = -3.8068	eb6_1     = -0.1377	eb7_1     =  0.1764	
eb8_1     = -3.4402	tb1_1     = -0.1190	tb2_1     = -1.0734	tb3_1     =  1.7058	tb4_1     =  0.0181	
tb5_1     = -1.7058	tb6_1     = -0.0181	tb7_1     =  0.2670	tb8_1     = -2.2589	
   <D> = 0.008046
   <e> = 1.248780
   <mu> = 1.603867
   <tpd> = -0.623909
   <tpp> = -0.211113
   <tppp> = 0.087126
************************* CDMFT completed successfully *************************

******************************* CDMFT procedure *******************************

minimization method =  CG
mixing state =  1
frequency grid type =  sharp
fictitious inverse temperature =  50
frequency cutoff =  2.0
--------------------------------------------------------------------------------

CDMFT iteration 1, distance =  1.71e+02, diff param =  1.24e-02
72 minimization steps, time(MIN)/time(ED)=0.00180
sb1_1     =  0.0001	sb2_1     =  0.0000	sb3_1     =  0.0053	sb4_1     = -0.1957	sb5_1     =  0.0053	
sb6_1     = -0.1957	sb7_1     = -0.0000	sb8_1     =  0.0000	eb1_1     =  0.0086	eb2_1     = -3.0602	
eb3_1     = -3.7758	eb4_1     = -0.1370	eb5_1     = -3.7758	eb6_1     = -0.1370	eb7_1     =  0.1761	
eb8_1     = -3.4083	tb1_1     = -0.1190	tb2_1     = -1.0695	tb3_1     =  1.6998	tb4_1     =  0.0185	
tb5_1     = -1.6998	tb6_1     = -0.0185	tb7_1     =  0.2669	tb8_1     = -2.2519	

CDMFT iteration 2, distance =  1.75e+02, diff param =  2.79e-03, diff hybrid =  8.16e-03
27 minimization steps, time(MIN)/time(ED)=0.00127
sb1_1     = -0.0002	sb2_1     = -0.0000	sb3_1     =  0.0045	sb4_1     = -0.1974	sb5_1     =  0.0045	
sb6_1     = -0.1974	sb7_1     =  0.0000	sb8_1     = -0.0000	eb1_1     =  0.0115	eb2_1     = -3.0663	
eb3_1     = -3.7823	eb4_1     = -0.1396	eb5_1     = -3.7823	eb6_1     = -0.1396	eb7_1     =  0.1778	
eb8_1     = -3.4096	tb1_1     = -0.1189	tb2_1     = -1.0698	tb3_1     =  1.6999	tb4_1     =  0.0149	
tb5_1     = -1.6999	tb6_1     = -0.0149	tb7_1     =  0.2688	tb8_1     = -2.2506	

CDMFT iteration 3, distance =  1.70e+02, diff param =  3.54e-03, diff hybrid =  7.99e-03
29 minimization steps, time(MIN)/time(ED)=0.00110
sb1_1     =  0.0001	sb2_1     =  0.0000	sb3_1     =  0.0049	sb4_1     = -0.1953	sb5_1     =  0.0049	
sb6_1     = -0.1953	sb7_1     = -0.0000	sb8_1     =  0.0000	eb1_1     =  0.0067	eb2_1     = -3.0564	
eb3_1     = -3.7742	eb4_1     = -0.1366	eb5_1     = -3.7742	eb6_1     = -0.1366	eb7_1     =  0.1756	
eb8_1     = -3.4093	tb1_1     = -0.1192	tb2_1     = -1.0686	tb3_1     =  1.6999	tb4_1     =  0.0166	
tb5_1     = -1.6999	tb6_1     = -0.0166	tb7_1     =  0.2662	tb8_1     = -2.2524	

CDMFT iteration 4, distance =  1.75e+02, diff param =  2.68e-03, diff hybrid =  9.50e-03
37 minimization steps, time(MIN)/time(ED)=0.00106
sb1_1     = -0.0001	sb2_1     = -0.0000	sb3_1     =  0.0040	sb4_1     = -0.1974	sb5_1     =  0.0040	
sb6_1     = -0.1974	sb7_1     =  0.0000	sb8_1     = -0.0000	eb1_1     =  0.0119	eb2_1     = -3.0625	
eb3_1     = -3.7781	eb4_1     = -0.1394	eb5_1     = -3.7781	eb6_1     = -0.1394	eb7_1     =  0.1772	
eb8_1     = -3.4067	tb1_1     = -0.1187	tb2_1     = -1.0692	tb3_1     =  1.6990	tb4_1     =  0.0130	
tb5_1     = -1.6990	tb6_1     = -0.0129	tb7_1     =  0.2687	tb8_1     = -2.2497	

CDMFT iteration 5, distance =  1.69e+02, diff param =  5.00e-03, diff hybrid =  1.07e-02
55 minimization steps, time(MIN)/time(ED)=0.00111
sb1_1     =  0.0002	sb2_1     =  0.0000	sb3_1     =  0.0047	sb4_1     = -0.1946	sb5_1     =  0.0047	
sb6_1     = -0.1946	sb7_1     = -0.0000	sb8_1     =  0.0000	eb1_1     =  0.0048	eb2_1     = -3.0471	
eb3_1     = -3.7679	eb4_1     = -0.1353	eb5_1     = -3.7679	eb6_1     = -0.1353	eb7_1     =  0.1744	
eb8_1     = -3.4085	tb1_1     = -0.1193	tb2_1     = -1.0671	tb3_1     =  1.6990	tb4_1     =  0.0158	
tb5_1     = -1.6990	tb6_1     = -0.0159	tb7_1     =  0.2654	tb8_1     = -2.2526	

CDMFT iteration 6, distance =  1.76e+02, diff param =  8.26e-03, diff hybrid =  1.33e-02
85 minimization steps, time(MIN)/time(ED)=0.00126
sb1_1     = -0.0001	sb2_1     = -0.0000	sb3_1     =  0.0034	sb4_1     = -0.1982	sb5_1     =  0.0034	
sb6_1     = -0.1982	sb7_1     =  0.0000	sb8_1     = -0.0000	eb1_1     =  0.0133	eb2_1     = -3.0769	
eb3_1     = -3.7830	eb4_1     = -0.1409	eb5_1     = -3.7830	eb6_1     = -0.1409	eb7_1     =  0.1780	
eb8_1     = -3.4054	tb1_1     = -0.1185	tb2_1     = -1.0713	tb3_1     =  1.6995	tb4_1     =  0.0108	
tb5_1     = -1.6995	tb6_1     = -0.0108	tb7_1     =  0.2695	tb8_1     = -2.2486	

CDMFT iteration 7, distance =  1.66e+02, diff param =  1.29e-02, diff hybrid =  1.70e-02
71 minimization steps, time(MIN)/time(ED)=0.00134
sb1_1     = -0.0002	sb2_1     =  0.0000	sb3_1     =  0.0048	sb4_1     = -0.1925	sb5_1     =  0.0048	
sb6_1     = -0.1925	sb7_1     = -0.0000	sb8_1     = -0.0000	eb1_1     = -0.0005	eb2_1     = -3.0354	
eb3_1     = -3.7547	eb4_1     = -0.1317	eb5_1     = -3.7547	eb6_1     = -0.1317	eb7_1     =  0.1720	
eb8_1     = -3.4082	tb1_1     = -0.1202	tb2_1     = -1.0650	tb3_1     =  1.6974	tb4_1     =  0.0163	
tb5_1     = -1.6974	tb6_1     = -0.0164	tb7_1     =  0.2634	tb8_1     = -2.2538	

CDMFT iteration 8, distance =  1.81e+02, diff param =  2.16e-02, diff hybrid =  2.55e-02
90 minimization steps, time(MIN)/time(ED)=0.00145
sb1_1     = -0.0001	sb2_1     = -0.0000	sb3_1     =  0.0023	sb4_1     = -0.2008	sb5_1     =  0.0023	
sb6_1     = -0.2008	sb7_1     =  0.0000	sb8_1     =  0.0000	eb1_1     =  0.0171	eb2_1     = -3.1162	
eb3_1     = -3.7946	eb4_1     = -0.1458	eb5_1     = -3.7947	eb6_1     = -0.1458	eb7_1     =  0.1812	
eb8_1     = -3.4014	tb1_1     = -0.1183	tb2_1     = -1.0764	tb3_1     =  1.7003	tb4_1     =  0.0064	
tb5_1     = -1.7003	tb6_1     = -0.0063	tb7_1     =  0.2725	tb8_1     = -2.2454	

CDMFT iteration 9, distance =  1.59e+02, diff param =  2.78e-02, diff hybrid =  3.58e-02
92 minimization steps, time(MIN)/time(ED)=0.00155
sb1_1     = -0.0001	sb2_1     = -0.0000	sb3_1     =  0.0043	sb4_1     = -0.1870	sb5_1     =  0.0043	
sb6_1     = -0.1870	sb7_1     = -0.0000	sb8_1     =  0.0000	eb1_1     = -0.0179	eb2_1     = -3.0477	
eb3_1     = -3.7230	eb4_1     = -0.1231	eb5_1     = -3.7231	eb6_1     = -0.1231	eb7_1     =  0.1671	
eb8_1     = -3.4063	tb1_1     = -0.1268	tb2_1     = -1.0635	tb3_1     =  1.6935	tb4_1     =  0.0150	
tb5_1     = -1.6935	tb6_1     = -0.0151	tb7_1     =  0.2589	tb8_1     = -2.2561	

CDMFT iteration 10, distance =  1.90e+02, diff param =  4.69e-02, diff hybrid =  5.95e-02
131 minimization steps, time(MIN)/time(ED)=0.00170
sb1_1     = -0.0002	sb2_1     = -0.0000	sb3_1     =  0.0000	sb4_1     = -0.2056	sb5_1     =  0.0000	
sb6_1     = -0.2056	sb7_1     =  0.0001	sb8_1     = -0.0000	eb1_1     =  0.0211	eb2_1     = -3.2219	
eb3_1     = -3.8096	eb4_1     = -0.1559	eb5_1     = -3.8095	eb6_1     = -0.1559	eb7_1     =  0.1887	
eb8_1     = -3.3884	tb1_1     = -0.1175	tb2_1     = -1.0901	tb3_1     =  1.7004	tb4_1     = -0.0017	
tb5_1     = -1.7004	tb6_1     =  0.0019	tb7_1     =  0.2790	tb8_1     = -2.2381	

CDMFT iteration 11, distance =  1.56e+02, diff param =  4.33e-02, diff hybrid =  7.57e-02
133 minimization steps, time(MIN)/time(ED)=0.00186
sb1_1     = -0.0001	sb2_1     =  0.0000	sb3_1     = -0.0018	sb4_1     = -0.1843	sb5_1     = -0.0017	
sb6_1     = -0.1843	sb7_1     = -0.0001	sb8_1     =  0.0000	eb1_1     = -0.0312	eb2_1     = -3.0941	
eb3_1     = -3.7088	eb4_1     = -0.1233	eb5_1     = -3.7088	eb6_1     = -0.1233	eb7_1     =  0.1688	
eb8_1     = -3.4056	tb1_1     = -0.1340	tb2_1     = -1.0669	tb3_1     =  1.6927	tb4_1     = -0.0065	
tb5_1     = -1.6927	tb6_1     =  0.0062	tb7_1     =  0.2561	tb8_1     = -2.2580	

CDMFT iteration 12, distance =  1.93e+02, diff param =  4.96e-02, diff hybrid =  8.89e-02
133 minimization steps, time(MIN)/time(ED)=0.00197
sb1_1     = -0.0004	sb2_1     = -0.0000	sb3_1     =  0.0004	sb4_1     = -0.2073	sb5_1     =  0.0003	
sb6_1     = -0.2073	sb7_1     =  0.0002	sb8_1     = -0.0000	eb1_1     =  0.0234	eb2_1     = -3.2617	
eb3_1     = -3.8088	eb4_1     = -0.1605	eb5_1     = -3.8088	eb6_1     = -0.1605	eb7_1     =  0.1928	
eb8_1     = -3.3749	tb1_1     = -0.1165	tb2_1     = -1.0957	tb3_1     =  1.6996	tb4_1     =  0.0023	
tb5_1     = -1.6996	tb6_1     = -0.0019	tb7_1     =  0.2815	tb8_1     = -2.2335	

CDMFT iteration 13, distance =  1.56e+02, diff param =  4.72e-02, diff hybrid =  9.42e-02
118 minimization steps, time(MIN)/time(ED)=0.00207
sb1_1     = -0.0004	sb2_1     =  0.0001	sb3_1     =  0.0018	sb4_1     = -0.1843	sb5_1     =  0.0020	
sb6_1     = -0.1843	sb7_1     = -0.0002	sb8_1     =  0.0001	eb1_1     = -0.0323	eb2_1     = -3.1083	
eb3_1     = -3.7103	eb4_1     = -0.1259	eb5_1     = -3.7103	eb6_1     = -0.1259	eb7_1     =  0.1719	
eb8_1     = -3.4078	tb1_1     = -0.1347	tb2_1     = -1.0685	tb3_1     =  1.6934	tb4_1     =  0.0066	
tb5_1     = -1.6934	tb6_1     = -0.0072	tb7_1     =  0.2560	tb8_1     = -2.2591	

CDMFT iteration 14, distance =  1.92e+02, diff param =  4.56e-02, diff hybrid =  9.53e-02
98 minimization steps, time(MIN)/time(ED)=0.00209
sb1_1     = -0.0009	sb2_1     = -0.0000	sb3_1     = -0.0002	sb4_1     = -0.2069	sb5_1     = -0.0005	
sb6_1     = -0.2069	sb7_1     =  0.0006	sb8_1     = -0.0001	eb1_1     =  0.0238	eb2_1     = -3.2514	
eb3_1     = -3.8072	eb4_1     = -0.1597	eb5_1     = -3.8071	eb6_1     = -0.1597	eb7_1     =  0.1921	
eb8_1     = -3.3727	tb1_1     = -0.1163	tb2_1     = -1.0944	tb3_1     =  1.6994	tb4_1     = -0.0019	
tb5_1     = -1.6994	tb6_1     =  0.0030	tb7_1     =  0.2811	tb8_1     = -2.2330	

CDMFT iteration 15, distance =  1.56e+02, diff param =  4.61e-02, diff hybrid =  9.53e-02
132 minimization steps, time(MIN)/time(ED)=0.00218
sb1_1     = -0.0010	sb2_1     =  0.0002	sb3_1     = -0.0025	sb4_1     = -0.1845	sb5_1     = -0.0020	
sb6_1     = -0.1845	sb7_1     = -0.0006	sb8_1     =  0.0001	eb1_1     = -0.0317	eb2_1     = -3.1021	
eb3_1     = -3.7118	eb4_1     = -0.1260	eb5_1     = -3.7115	eb6_1     = -0.1261	eb7_1     =  0.1721	
eb8_1     = -3.4083	tb1_1     = -0.1343	tb2_1     = -1.0678	tb3_1     =  1.6936	tb4_1     = -0.0088	
tb5_1     = -1.6936	tb6_1     =  0.0071	tb7_1     =  0.2562	tb8_1     = -2.2592	

CDMFT iteration 16, distance =  1.92e+02, diff param =  4.56e-02, diff hybrid =  9.42e-02
109 minimization steps, time(MIN)/time(ED)=0.00220
sb1_1     = -0.0024	sb2_1     = -0.0002	sb3_1     =  0.0007	sb4_1     = -0.2067	sb5_1     =  0.0001	
sb6_1     = -0.2067	sb7_1     =  0.0014	sb8_1     = -0.0003	eb1_1     =  0.0236	eb2_1     = -3.2478	
eb3_1     = -3.8068	eb4_1     = -0.1592	eb5_1     = -3.8071	eb6_1     = -0.1592	eb7_1     =  0.1916	
eb8_1     = -3.3734	tb1_1     = -0.1164	tb2_1     = -1.0939	tb3_1     =  1.6994	tb4_1     =  0.0041	
tb5_1     = -1.6994	tb6_1     = -0.0012	tb7_1     =  0.2808	tb8_1     = -2.2333	

CDMFT iteration 17, distance =  1.56e+02, diff param =  4.60e-02, diff hybrid =  9.44e-02
121 minimization steps, time(MIN)/time(ED)=0.00226
sb1_1     = -0.0026	sb2_1     =  0.0004	sb3_1     =  0.0018	sb4_1     = -0.1846	sb5_1     =  0.0031	
sb6_1     = -0.1845	sb7_1     = -0.0015	sb8_1     =  0.0004	eb1_1     = -0.0313	eb2_1     = -3.0973	
eb3_1     = -3.7120	eb4_1     = -0.1260	eb5_1     = -3.7127	eb6_1     = -0.1260	eb7_1     =  0.1717	
eb8_1     = -3.4072	tb1_1     = -0.1341	tb2_1     = -1.0672	tb3_1     =  1.6936	tb4_1     =  0.0065	
tb5_1     = -1.6937	tb6_1     = -0.0109	tb7_1     =  0.2562	tb8_1     = -2.2588	

CDMFT iteration 18, distance =  1.91e+02, diff param =  4.61e-02, diff hybrid =  9.35e-02
118 minimization steps, time(MIN)/time(ED)=0.00229
sb1_1     = -0.0063	sb2_1     = -0.0004	sb3_1     =  0.0004	sb4_1     = -0.2066	sb5_1     = -0.0013	
sb6_1     = -0.2066	sb7_1     =  0.0037	sb8_1     = -0.0007	eb1_1     =  0.0235	eb2_1     = -3.2498	
eb3_1     = -3.8060	eb4_1     = -0.1589	eb5_1     = -3.8054	eb6_1     = -0.1588	eb7_1     =  0.1912	
eb8_1     = -3.3743	tb1_1     = -0.1163	tb2_1     = -1.0942	tb3_1     =  1.6992	tb4_1     =  0.0009	
tb5_1     = -1.6991	tb6_1     =  0.0065	tb7_1     =  0.2806	tb8_1     = -2.2335	

CDMFT iteration 19, distance =  1.56e+02, diff param =  4.62e-02, diff hybrid =  9.43e-02
133 minimization steps, time(MIN)/time(ED)=0.00234
sb1_1     = -0.0069	sb2_1     =  0.0011	sb3_1     = -0.0041	sb4_1     = -0.1843	sb5_1     = -0.0009	
sb6_1     = -0.1846	sb7_1     = -0.0038	sb8_1     =  0.0009	eb1_1     = -0.0311	eb2_1     = -3.0961	
eb3_1     = -3.7140	eb4_1     = -0.1255	eb5_1     = -3.7122	eb6_1     = -0.1257	eb7_1     =  0.1717	
eb8_1     = -3.4083	tb1_1     = -0.1338	tb2_1     = -1.0671	tb3_1     =  1.6937	tb4_1     = -0.0148	
tb5_1     = -1.6937	tb6_1     =  0.0034	tb7_1     =  0.2563	tb8_1     = -2.2590	

CDMFT iteration 20, distance =  1.91e+02, diff param =  4.64e-02, diff hybrid =  9.40e-02
122 minimization steps, time(MIN)/time(ED)=0.00236
sb1_1     = -0.0158	sb2_1     = -0.0010	sb3_1     =  0.0025	sb4_1     = -0.2064	sb5_1     = -0.0017	
sb6_1     = -0.2065	sb7_1     =  0.0095	sb8_1     = -0.0019	eb1_1     =  0.0241	eb2_1     = -3.2482	
eb3_1     = -3.8060	eb4_1     = -0.1585	eb5_1     = -3.8077	eb6_1     = -0.1588	eb7_1     =  0.1910	
eb8_1     = -3.3753	tb1_1     = -0.1157	tb2_1     = -1.0940	tb3_1     =  1.6991	tb4_1     =  0.0122	
tb5_1     = -1.6995	tb6_1     =  0.0065	tb7_1     =  0.2805	tb8_1     = -2.2338	

CDMFT iteration 21, distance =  1.56e+02, diff param =  4.60e-02, diff hybrid =  9.64e-02
144 minimization steps, time(MIN)/time(ED)=0.00241
sb1_1     = -0.0172	sb2_1     =  0.0029	sb3_1     = -0.0016	sb4_1     = -0.1847	sb5_1     =  0.0065	
sb6_1     = -0.1839	sb7_1     = -0.0096	sb8_1     =  0.0023	eb1_1     = -0.0317	eb2_1     = -3.0990	
eb3_1     = -3.7130	eb4_1     = -0.1261	eb5_1     = -3.7178	eb6_1     = -0.1255	eb7_1     =  0.1718	
eb8_1     = -3.4102	tb1_1     = -0.1331	tb2_1     = -1.0676	tb3_1     =  1.6939	tb4_1     = -0.0053	
tb5_1     = -1.6940	tb6_1     = -0.0232	tb7_1     =  0.2564	tb8_1     = -2.2595	

CDMFT iteration 22, distance =  1.91e+02, diff param =  5.06e-02, diff hybrid =  9.92e-02
135 minimization steps, time(MIN)/time(ED)=0.00244
sb1_1     = -0.0360	sb2_1     = -0.0026	sb3_1     =  0.0049	sb4_1     = -0.2064	sb5_1     = -0.0056	
sb6_1     = -0.2061	sb7_1     =  0.0236	sb8_1     = -0.0046	eb1_1     =  0.0290	eb2_1     = -3.2609	
eb3_1     = -3.8162	eb4_1     = -0.1601	eb5_1     = -3.8124	eb6_1     = -0.1591	eb7_1     =  0.1916	
eb8_1     = -3.3787	tb1_1     = -0.1129	tb2_1     = -1.0958	tb3_1     =  1.7007	tb4_1     =  0.0206	
tb5_1     = -1.6998	tb6_1     =  0.0259	tb7_1     =  0.2804	tb8_1     = -2.2343	

CDMFT iteration 23, distance =  1.57e+02, diff param =  4.81e-02, diff hybrid =  1.10e-01
122 minimization steps, time(MIN)/time(ED)=0.00246
sb1_1     = -0.0397	sb2_1     =  0.0071	sb3_1     = -0.0113	sb4_1     = -0.1828	sb5_1     =  0.0075	
sb6_1     = -0.1840	sb7_1     = -0.0236	sb8_1     =  0.0056	eb1_1     = -0.0360	eb2_1     = -3.1174	
eb3_1     = -3.7346	eb4_1     = -0.1268	eb5_1     = -3.7251	eb6_1     = -0.1279	eb7_1     =  0.1731	
eb8_1     = -3.4138	tb1_1     = -0.1304	tb2_1     = -1.0704	tb3_1     =  1.6958	tb4_1     = -0.0411	
tb5_1     = -1.6955	tb6_1     = -0.0266	tb7_1     =  0.2562	tb8_1     = -2.2603	

CDMFT iteration 24, distance =  1.90e+02, diff param =  6.68e-02, diff hybrid =  1.27e-01
138 minimization steps, time(MIN)/time(ED)=0.00248
sb1_1     = -0.0647	sb2_1     = -0.0070	sb3_1     =  0.0111	sb4_1     = -0.2059	sb5_1     = -0.0108	
sb6_1     = -0.2066	sb7_1     =  0.0534	sb8_1     = -0.0099	eb1_1     =  0.0535	eb2_1     = -3.3109	
eb3_1     = -3.8522	eb4_1     = -0.1651	eb5_1     = -3.8584	eb6_1     = -0.1672	eb7_1     =  0.1965	
eb8_1     = -3.3993	tb1_1     = -0.1121	tb2_1     = -1.1026	tb3_1     =  1.7054	tb4_1     =  0.0535	
tb5_1     = -1.7069	tb6_1     =  0.0498	tb7_1     =  0.2804	tb8_1     = -2.2386	

CDMFT iteration 25, distance =  1.60e+02, diff param =  6.08e-02, diff hybrid =  1.65e-01
115 minimization steps, time(MIN)/time(ED)=0.00250
sb1_1     = -0.0717	sb2_1     =  0.0146	sb3_1     = -0.0168	sb4_1     = -0.1814	sb5_1     =  0.0180	
sb6_1     = -0.1811	sb7_1     = -0.0501	sb8_1     =  0.0116	eb1_1     = -0.0523	eb2_1     = -3.1661	
eb3_1     = -3.7827	eb4_1     = -0.1362	eb5_1     = -3.7911	eb6_1     = -0.1349	eb7_1     =  0.1804	
eb8_1     = -3.4291	tb1_1     = -0.1257	tb2_1     = -1.0782	tb3_1     =  1.7033	tb4_1     = -0.0626	
tb5_1     = -1.7036	tb6_1     = -0.0684	tb7_1     =  0.2557	tb8_1     = -2.2633	

CDMFT iteration 26, distance =  1.91e+02, diff param =  1.24e-01, diff hybrid =  2.03e-01
157 minimization steps, time(MIN)/time(ED)=0.00255
sb1_1     =  0.1316	sb2_1     = -0.0146	sb3_1     =  0.0164	sb4_1     = -0.2125	sb5_1     = -0.0152	
sb6_1     = -0.2098	sb7_1     =  0.0958	sb8_1     = -0.0149	eb1_1     = -0.1253	eb2_1     = -3.5631	
eb3_1     = -3.9653	eb4_1     = -0.1967	eb5_1     = -3.9891	eb6_1     = -0.1935	eb7_1     =  0.2217	
eb8_1     = -3.4681	tb1_1     = -0.1021	tb2_1     = -1.1351	tb3_1     =  1.7227	tb4_1     =  0.0898	
tb5_1     = -1.7281	tb6_1     =  0.0889	tb7_1     =  0.2849	tb8_1     = -2.2545	

CDMFT iteration 27, distance =  1.68e+02, diff param =  1.02e-01, diff hybrid =  2.56e-01
198 minimization steps, time(MIN)/time(ED)=0.00264
sb1_1     = -0.0981	sb2_1     =  0.0213	sb3_1     = -0.0232	sb4_1     = -0.1770	sb5_1     =  0.0218	
sb6_1     = -0.1788	sb7_1     = -0.0830	sb8_1     =  0.0176	eb1_1     = -0.0817	eb2_1     = -3.3145	
eb3_1     = -3.8641	eb4_1     = -0.1484	eb5_1     = -3.8945	eb6_1     = -0.1555	eb7_1     =  0.1997	
eb8_1     = -3.4653	tb1_1     = -0.1294	tb2_1     = -1.1001	tb3_1     =  1.7126	tb4_1     = -0.0994	
tb5_1     = -1.7210	tb6_1     = -0.0925	tb7_1     =  0.2535	tb8_1     = -2.2713	

CDMFT iteration 28, distance =  1.92e+02, diff param =  1.37e-01, diff hybrid =  2.92e-01
148 minimization steps, time(MIN)/time(ED)=0.00268
sb1_1     =  0.1413	sb2_1     = -0.0165	sb3_1     =  0.0163	sb4_1     = -0.2188	sb5_1     = -0.0168	
sb6_1     = -0.2200	sb7_1     =  0.1226	sb8_1     = -0.0161	eb1_1     = -0.1672	eb2_1     = -3.7070	
eb3_1     = -4.0753	eb4_1     = -0.2199	eb5_1     = -4.0632	eb6_1     = -0.2210	eb7_1     =  0.2419	
eb8_1     = -3.5267	tb1_1     = -0.1216	tb2_1     = -1.1523	tb3_1     =  1.7418	tb4_1     =  0.1093	
tb5_1     = -1.7390	tb6_1     =  0.1102	tb7_1     =  0.2929	tb8_1     = -2.2675	

CDMFT iteration 29, distance =  1.71e+02, diff param =  1.24e-01, diff hybrid =  3.22e-01
145 minimization steps, time(MIN)/time(ED)=0.00272
sb1_1     = -0.1089	sb2_1     =  0.0226	sb3_1     = -0.0225	sb4_1     = -0.1776	sb5_1     =  0.0233	
sb6_1     = -0.1768	sb7_1     = -0.0970	sb8_1     =  0.0191	eb1_1     = -0.0952	eb2_1     = -3.3973	
eb3_1     = -3.9394	eb4_1     = -0.1627	eb5_1     = -3.9193	eb6_1     = -0.1579	eb7_1     =  0.2093	
eb8_1     = -3.4871	tb1_1     = -0.1309	tb2_1     = -1.1125	tb3_1     =  1.7274	tb4_1     = -0.1041	
tb5_1     = -1.7220	tb6_1     = -0.1080	tb7_1     =  0.2513	tb8_1     = -2.2760	

CDMFT iteration 30, distance =  1.91e+02, diff param =  1.25e-01, diff hybrid =  3.34e-01
218 minimization steps, time(MIN)/time(ED)=0.00283
sb1_1     = -0.1410	sb2_1     = -0.0163	sb3_1     =  0.0162	sb4_1     = -0.2204	sb5_1     = -0.0167	
sb6_1     = -0.2211	sb7_1     =  0.1268	sb8_1     = -0.0161	eb1_1     = -0.1709	eb2_1     = -3.6905	
eb3_1     = -4.0883	eb4_1     = -0.2222	eb5_1     = -4.0752	eb6_1     = -0.2220	eb7_1     =  0.2415	
eb8_1     = -3.5318	tb1_1     =  0.1237	tb2_1     = -1.1501	tb3_1     =  1.7441	tb4_1     =  0.1119	
tb5_1     = -1.7412	tb6_1     =  0.1132	tb7_1     =  0.2940	tb8_1     = -2.2683	

CDMFT iteration 31, distance =  1.71e+02, diff param =  1.24e-01, diff hybrid =  3.40e-01
139 minimization steps, time(MIN)/time(ED)=0.00287
sb1_1     =  0.1105	sb2_1     =  0.0226	sb3_1     = -0.0223	sb4_1     = -0.1785	sb5_1     =  0.0231	
sb6_1     = -0.1777	sb7_1     = -0.0976	sb8_1     =  0.0190	eb1_1     = -0.0964	eb2_1     = -3.3987	
eb3_1     = -3.9432	eb4_1     = -0.1632	eb5_1     = -3.9239	eb6_1     = -0.1595	eb7_1     =  0.2104	
eb8_1     = -3.4904	tb1_1     =  0.1299	tb2_1     = -1.1129	tb3_1     =  1.7279	tb4_1     = -0.1041	
tb5_1     = -1.7229	tb6_1     = -0.1077	tb7_1     =  0.2519	tb8_1     = -2.2767	

CDMFT iteration 32, distance =  1.91e+02, diff param =  1.24e-01, diff hybrid =  3.40e-01
211 minimization steps, time(MIN)/time(ED)=0.00295
sb1_1     =  0.1410	sb2_1     = -0.0161	sb3_1     =  0.0163	sb4_1     = -0.2207	sb5_1     = -0.0165	
sb6_1     = -0.2209	sb7_1     =  0.1267	sb8_1     = -0.0160	eb1_1     = -0.1712	eb2_1     = -3.6905	
eb3_1     = -4.0858	eb4_1     = -0.2227	eb5_1     = -4.0802	eb6_1     = -0.2224	eb7_1     =  0.2420	
eb8_1     = -3.5328	tb1_1     = -0.1237	tb2_1     = -1.1501	tb3_1     =  1.7435	tb4_1     =  0.1123	
tb5_1     = -1.7423	tb6_1     =  0.1129	tb7_1     =  0.2941	tb8_1     = -2.2686	

CDMFT iteration 33, distance =  1.71e+02, diff param =  1.24e-01, diff hybrid =  3.40e-01
161 minimization steps, time(MIN)/time(ED)=0.00300
sb1_1     = -0.1104	sb2_1     =  0.0225	sb3_1     = -0.0226	sb4_1     = -0.1781	sb5_1     =  0.0229	
sb6_1     = -0.1777	sb7_1     = -0.0978	sb8_1     =  0.0190	eb1_1     = -0.0961	eb2_1     = -3.3943	
eb3_1     = -3.9373	eb4_1     = -0.1621	eb5_1     = -3.9296	eb6_1     = -0.1606	eb7_1     =  0.2104	
eb8_1     = -3.4902	tb1_1     = -0.1298	tb2_1     = -1.1123	tb3_1     =  1.7263	tb4_1     = -0.1054	
tb5_1     = -1.7244	tb6_1     = -0.1068	tb7_1     =  0.2517	tb8_1     = -2.2766	

CDMFT iteration 34, distance =  1.91e+02, diff param =  1.24e-01, diff hybrid =  3.40e-01
188 minimization steps, time(MIN)/time(ED)=0.00306
sb1_1     = -0.1409	sb2_1     = -0.0160	sb3_1     =  0.0164	sb4_1     = -0.2209	sb5_1     = -0.0164	
sb6_1     = -0.2208	sb7_1     =  0.1268	sb8_1     = -0.0160	eb1_1     = -0.1708	eb2_1     = -3.6827	
eb3_1     = -4.0836	eb4_1     = -0.2225	eb5_1     = -4.0837	eb6_1     = -0.2224	eb7_1     =  0.2419	
eb8_1     = -3.5328	tb1_1     =  0.1235	tb2_1     = -1.1490	tb3_1     =  1.7430	tb4_1     =  0.1126	
tb5_1     = -1.7430	tb6_1     =  0.1127	tb7_1     =  0.2941	tb8_1     = -2.2686	

CDMFT iteration 35, distance =  1.71e+02, diff param =  1.23e-01, diff hybrid =  3.40e-01
135 minimization steps, time(MIN)/time(ED)=0.00309
sb1_1     =  0.1106	sb2_1     =  0.0227	sb3_1     = -0.0227	sb4_1     = -0.1780	sb5_1     =  0.0227	
sb6_1     = -0.1780	sb7_1     = -0.0976	sb8_1     =  0.0190	eb1_1     = -0.0965	eb2_1     = -3.4049	
eb3_1     = -3.9337	eb4_1     = -0.1614	eb5_1     = -3.9342	eb6_1     = -0.1615	eb7_1     =  0.2102	
eb8_1     = -3.4889	tb1_1     =  0.1301	tb2_1     = -1.1138	tb3_1     =  1.7254	tb4_1     = -0.1061	
tb5_1     = -1.7256	tb6_1     = -0.1060	tb7_1     =  0.2516	tb8_1     = -2.2762	

CDMFT iteration 36, distance =  1.91e+02, diff param =  1.24e-01, diff hybrid =  3.40e-01
183 minimization steps, time(MIN)/time(ED)=0.00314
sb1_1     =  0.1410	sb2_1     = -0.0162	sb3_1     =  0.0165	sb4_1     = -0.2209	sb5_1     = -0.0164	
sb6_1     = -0.2208	sb7_1     =  0.1268	sb8_1     = -0.0160	eb1_1     = -0.1711	eb2_1     = -3.6959	
eb3_1     = -4.0824	eb4_1     = -0.2227	eb5_1     = -4.0839	eb6_1     = -0.2227	eb7_1     =  0.2419	
eb8_1     = -3.5326	tb1_1     = -0.1238	tb2_1     = -1.1509	tb3_1     =  1.7427	tb4_1     =  0.1127	
tb5_1     = -1.7431	tb6_1     =  0.1126	tb7_1     =  0.2941	tb8_1     = -2.2686	

CDMFT iteration 37, distance =  1.71e+02, diff param =  1.25e-01, diff hybrid =  3.40e-01
173 minimization steps, time(MIN)/time(ED)=0.00319
sb1_1     = -0.1105	sb2_1     =  0.0225	sb3_1     = -0.0228	sb4_1     = -0.1779	sb5_1     =  0.0227	
sb6_1     = -0.1780	sb7_1     = -0.0977	sb8_1     =  0.0190	eb1_1     = -0.0962	eb2_1     = -3.3964	
eb3_1     = -3.9330	eb4_1     = -0.1612	eb5_1     = -3.9354	eb6_1     = -0.1617	eb7_1     =  0.2105	
eb8_1     = -3.4902	tb1_1     = -0.1298	tb2_1     = -1.1126	tb3_1     =  1.7252	tb4_1     = -0.1064	
tb5_1     = -1.7258	tb6_1     = -0.1059	tb7_1     =  0.2517	tb8_1     = -2.2766	

CDMFT iteration 38, distance =  1.91e+02, diff param =  1.24e-01, diff hybrid =  3.40e-01
194 minimization steps, time(MIN)/time(ED)=0.00324
sb1_1     = -0.1409	sb2_1     = -0.0161	sb3_1     =  0.0165	sb4_1     = -0.2208	sb5_1     = -0.0164	
sb6_1     = -0.2208	sb7_1     =  0.1268	sb8_1     = -0.0160	eb1_1     = -0.1709	eb2_1     = -3.6837	
eb3_1     = -4.0825	eb4_1     = -0.2225	eb5_1     = -4.0836	eb6_1     = -0.2225	eb7_1     =  0.2420	
eb8_1     = -3.5328	tb1_1     =  0.1236	tb2_1     = -1.1491	tb3_1     =  1.7427	tb4_1     =  0.1127	
tb5_1     = -1.7430	tb6_1     =  0.1126	tb7_1     =  0.2942	tb8_1     = -2.2686	

CDMFT iteration 39, distance =  1.71e+02, diff param =  1.23e-01, diff hybrid =  3.40e-01
157 minimization steps, time(MIN)/time(ED)=0.00328
sb1_1     =  0.1105	sb2_1     =  0.0226	sb3_1     = -0.0228	sb4_1     = -0.1779	sb5_1     =  0.0228	
sb6_1     = -0.1780	sb7_1     = -0.0977	sb8_1     =  0.0190	eb1_1     = -0.0963	eb2_1     = -3.3978	
eb3_1     = -3.9347	eb4_1     = -0.1614	eb5_1     = -3.9362	eb6_1     = -0.1617	eb7_1     =  0.2103	
eb8_1     = -3.4897	tb1_1     =  0.1299	tb2_1     = -1.1128	tb3_1     =  1.7256	tb4_1     = -0.1063	
tb5_1     = -1.7260	tb6_1     = -0.1060	tb7_1     =  0.2516	tb8_1     = -2.2764	

CDMFT iteration 40, distance =  1.91e+02, diff param =  1.24e-01, diff hybrid =  3.40e-01
170 minimization steps, time(MIN)/time(ED)=0.00331
sb1_1     =  0.1410	sb2_1     = -0.0162	sb3_1     =  0.0165	sb4_1     = -0.2209	sb5_1     = -0.0165	
sb6_1     = -0.2209	sb7_1     =  0.1268	sb8_1     = -0.0160	eb1_1     = -0.1713	eb2_1     = -3.6909	
eb3_1     = -4.0832	eb4_1     = -0.2227	eb5_1     = -4.0836	eb6_1     = -0.2227	eb7_1     =  0.2419	
eb8_1     = -3.5324	tb1_1     = -0.1238	tb2_1     = -1.1501	tb3_1     =  1.7429	tb4_1     =  0.1127	
tb5_1     = -1.7430	tb6_1     =  0.1127	tb7_1     =  0.2941	tb8_1     = -2.2685	

CDMFT iteration 41, distance =  1.71e+02, diff param =  1.23e-01, diff hybrid =  3.40e-01
144 minimization steps, time(MIN)/time(ED)=0.00334
sb1_1     = -0.1106	sb2_1     =  0.0226	sb3_1     = -0.0228	sb4_1     = -0.1780	sb5_1     =  0.0228	
sb6_1     = -0.1781	sb7_1     = -0.0977	sb8_1     =  0.0190	eb1_1     = -0.0965	eb2_1     = -3.4038	
eb3_1     = -3.9364	eb4_1     = -0.1617	eb5_1     = -3.9369	eb6_1     = -0.1618	eb7_1     =  0.2103	
eb8_1     = -3.4893	tb1_1     = -0.1300	tb2_1     = -1.1136	tb3_1     =  1.7260	tb4_1     = -0.1063	
tb5_1     = -1.7261	tb6_1     = -0.1062	tb7_1     =  0.2516	tb8_1     = -2.2763	

CDMFT iteration 42, distance =  1.91e+02, diff param =  1.24e-01, diff hybrid =  3.40e-01
241 minimization steps, time(MIN)/time(ED)=0.00341
sb1_1     = -0.1410	sb2_1     = -0.0162	sb3_1     =  0.0164	sb4_1     = -0.2208	sb5_1     = -0.0164	
sb6_1     = -0.2208	sb7_1     =  0.1269	sb8_1     = -0.0160	eb1_1     = -0.1713	eb2_1     = -3.6949	
eb3_1     = -4.0829	eb4_1     = -0.2226	eb5_1     = -4.0829	eb6_1     = -0.2226	eb7_1     =  0.2420	
eb8_1     = -3.5329	tb1_1     =  0.1239	tb2_1     = -1.1507	tb3_1     =  1.7429	tb4_1     =  0.1127	
tb5_1     = -1.7428	tb6_1     =  0.1127	tb7_1     =  0.2941	tb8_1     = -2.2687	

CDMFT iteration 43, distance =  1.71e+02, diff param =  1.24e-01, diff hybrid =  3.40e-01
138 minimization steps, time(MIN)/time(ED)=0.00343
sb1_1     =  0.1106	sb2_1     =  0.0226	sb3_1     = -0.0228	sb4_1     = -0.1780	sb5_1     =  0.0228	
sb6_1     = -0.1780	sb7_1     = -0.0977	sb8_1     =  0.0190	eb1_1     = -0.0965	eb2_1     = -3.4033	
eb3_1     = -3.9360	eb4_1     = -0.1616	eb5_1     = -3.9361	eb6_1     = -0.1616	eb7_1     =  0.2103	
eb8_1     = -3.4895	tb1_1     =  0.1300	tb2_1     = -1.1135	tb3_1     =  1.7259	tb4_1     = -0.1062	
tb5_1     = -1.7259	tb6_1     = -0.1062	tb7_1     =  0.2516	tb8_1     = -2.2764	

CDMFT iteration 44, distance =  1.91e+02, diff param =  1.23e-01, diff hybrid =  3.40e-01
171 minimization steps, time(MIN)/time(ED)=0.00346
sb1_1     =  0.1410	sb2_1     = -0.0161	sb3_1     =  0.0165	sb4_1     = -0.2209	sb5_1     = -0.0165	
sb6_1     = -0.2209	sb7_1     =  0.1269	sb8_1     = -0.0161	eb1_1     = -0.1712	eb2_1     = -3.6890	
eb3_1     = -4.0832	eb4_1     = -0.2227	eb5_1     = -4.0834	eb6_1     = -0.2228	eb7_1     =  0.2421	
eb8_1     = -3.5337	tb1_1     = -0.1237	tb2_1     = -1.1499	tb3_1     =  1.7429	tb4_1     =  0.1128	
tb5_1     = -1.7430	tb6_1     =  0.1127	tb7_1     =  0.2942	tb8_1     = -2.2689	

CDMFT iteration 45, distance =  1.71e+02, diff param =  1.24e-01, diff hybrid =  3.40e-01
197 minimization steps, time(MIN)/time(ED)=0.00351
sb1_1     = -0.1105	sb2_1     =  0.0226	sb3_1     = -0.0228	sb4_1     = -0.1779	sb5_1     =  0.0227	
sb6_1     = -0.1779	sb7_1     = -0.0979	sb8_1     =  0.0190	eb1_1     = -0.0964	eb2_1     = -3.4006	
eb3_1     = -3.9342	eb4_1     = -0.1614	eb5_1     = -3.9345	eb6_1     = -0.1615	eb7_1     =  0.2104	
eb8_1     = -3.4902	tb1_1     = -0.1299	tb2_1     = -1.1132	tb3_1     =  1.7255	tb4_1     = -0.1062	
tb5_1     = -1.7255	tb6_1     = -0.1061	tb7_1     =  0.2516	tb8_1     = -2.2766	

CDMFT iteration 46, distance =  1.91e+02, diff param =  1.24e-01, diff hybrid =  3.40e-01
199 minimization steps, time(MIN)/time(ED)=0.00355
sb1_1     = -0.1409	sb2_1     = -0.0161	sb3_1     =  0.0164	sb4_1     = -0.2208	sb5_1     = -0.0164	
sb6_1     = -0.2208	sb7_1     =  0.1269	sb8_1     = -0.0161	eb1_1     = -0.1711	eb2_1     = -3.6884	
eb3_1     = -4.0829	eb4_1     = -0.2226	eb5_1     = -4.0827	eb6_1     = -0.2226	eb7_1     =  0.2420	
eb8_1     = -3.5329	tb1_1     =  0.1237	tb2_1     = -1.1498	tb3_1     =  1.7428	tb4_1     =  0.1126	
tb5_1     = -1.7428	tb6_1     =  0.1127	tb7_1     =  0.2941	tb8_1     = -2.2686	

CDMFT iteration 47, distance =  1.71e+02, diff param =  1.23e-01, diff hybrid =  3.40e-01
222 minimization steps, time(MIN)/time(ED)=0.00361
sb1_1     =  0.1106	sb2_1     =  0.0226	sb3_1     = -0.0228	sb4_1     = -0.1779	sb5_1     =  0.0228	
sb6_1     = -0.1779	sb7_1     = -0.0977	sb8_1     =  0.0190	eb1_1     = -0.0964	eb2_1     = -3.4037	
eb3_1     = -3.9343	eb4_1     = -0.1614	eb5_1     = -3.9341	eb6_1     = -0.1614	eb7_1     =  0.2103	
eb8_1     = -3.4896	tb1_1     =  0.1300	tb2_1     = -1.1136	tb3_1     =  1.7255	tb4_1     = -0.1061	
tb5_1     = -1.7255	tb6_1     = -0.1061	tb7_1     =  0.2516	tb8_1     = -2.2764	

CDMFT iteration 48, distance =  1.91e+02, diff param =  1.24e-01, diff hybrid =  3.40e-01
164 minimization steps, time(MIN)/time(ED)=0.00363
sb1_1     =  0.1410	sb2_1     = -0.0162	sb3_1     =  0.0165	sb4_1     = -0.2209	sb5_1     = -0.0165	
sb6_1     = -0.2209	sb7_1     =  0.1269	sb8_1     = -0.0161	eb1_1     = -0.1713	eb2_1     = -3.6972	
eb3_1     = -4.0839	eb4_1     = -0.2227	eb5_1     = -4.0838	eb6_1     = -0.2227	eb7_1     =  0.2421	
eb8_1     = -3.5341	tb1_1     = -0.1239	tb2_1     = -1.1510	tb3_1     =  1.7431	tb4_1     =  0.1127	
tb5_1     = -1.7430	tb6_1     =  0.1127	tb7_1     =  0.2942	tb8_1     = -2.2690	

CDMFT iteration 49, distance =  1.71e+02, diff param =  1.24e-01, diff hybrid =  3.40e-01
173 minimization steps, time(MIN)/time(ED)=0.00365
sb1_1     = -0.1106	sb2_1     =  0.0227	sb3_1     = -0.0227	sb4_1     = -0.1779	sb5_1     =  0.0227	
sb6_1     = -0.1779	sb7_1     = -0.0977	sb8_1     =  0.0190	eb1_1     = -0.0967	eb2_1     = -3.4045	
eb3_1     = -3.9344	eb4_1     = -0.1615	eb5_1     = -3.9343	eb6_1     = -0.1614	eb7_1     =  0.2102	
eb8_1     = -3.4891	tb1_1     = -0.1301	tb2_1     = -1.1137	tb3_1     =  1.7255	tb4_1     = -0.1062	
tb5_1     = -1.7255	tb6_1     = -0.1062	tb7_1     =  0.2515	tb8_1     = -2.2763	

CDMFT iteration 50, distance =  1.91e+02, diff param =  1.26e-01, diff hybrid =  3.40e-01
173 minimization steps, time(MIN)/time(ED)=0.00368
sb1_1     = -0.1414	sb2_1     = -0.0166	sb3_1     =  0.0164	sb4_1     = -0.2207	sb5_1     = -0.0164	
sb6_1     = -0.2207	sb7_1     =  0.1269	sb8_1     = -0.0161	eb1_1     = -0.1725	eb2_1     = -3.7169	
eb3_1     = -4.0805	eb4_1     = -0.2224	eb5_1     = -4.0805	eb6_1     = -0.2224	eb7_1     =  0.2421	
eb8_1     = -3.5344	tb1_1     =  0.1245	tb2_1     = -1.1537	tb3_1     =  1.7424	tb4_1     =  0.1126	
tb5_1     = -1.7423	tb6_1     =  0.1126	tb7_1     =  0.2943	tb8_1     = -2.2691	

CDMFT iteration 51, distance =  1.71e+02, diff param =  1.26e-01, diff hybrid =  3.40e-01
199 minimization steps, time(MIN)/time(ED)=0.00372
sb1_1     =  0.1106	sb2_1     =  0.0227	sb3_1     = -0.0227	sb4_1     = -0.1780	sb5_1     =  0.0227	
sb6_1     = -0.1780	sb7_1     = -0.0977	sb8_1     =  0.0190	eb1_1     = -0.0967	eb2_1     = -3.4065	
eb3_1     = -3.9345	eb4_1     = -0.1615	eb5_1     = -3.9346	eb6_1     = -0.1615	eb7_1     =  0.2103	
eb8_1     = -3.4889	tb1_1     =  0.1301	tb2_1     = -1.1140	tb3_1     =  1.7256	tb4_1     = -0.1062	
tb5_1     = -1.7256	tb6_1     = -0.1061	tb7_1     =  0.2516	tb8_1     = -2.2762	

CDMFT iteration 52, distance =  1.91e+02, diff param =  1.23e-01, diff hybrid =  3.40e-01
147 minimization steps, time(MIN)/time(ED)=0.00373
sb1_1     =  0.1409	sb2_1     = -0.0161	sb3_1     =  0.0164	sb4_1     = -0.2207	sb5_1     = -0.0164	
sb6_1     = -0.2207	sb7_1     =  0.1268	sb8_1     = -0.0160	eb1_1     = -0.1712	eb2_1     = -3.6866	
eb3_1     = -4.0825	eb4_1     = -0.2222	eb5_1     = -4.0827	eb6_1     = -0.2222	eb7_1     =  0.2420	
eb8_1     = -3.5331	tb1_1     = -0.1237	tb2_1     = -1.1495	tb3_1     =  1.7427	tb4_1     =  0.1126	
tb5_1     = -1.7428	tb6_1     =  0.1126	tb7_1     =  0.2942	tb8_1     = -2.2687	

CDMFT iteration 53, distance =  1.71e+02, diff param =  1.23e-01, diff hybrid =  3.40e-01
190 minimization steps, time(MIN)/time(ED)=0.00376
sb1_1     = -0.1105	sb2_1     =  0.0225	sb3_1     = -0.0227	sb4_1     = -0.1780	sb5_1     =  0.0227	
sb6_1     = -0.1780	sb7_1     = -0.0977	sb8_1     =  0.0190	eb1_1     = -0.0963	eb2_1     = -3.4006	
eb3_1     = -3.9339	eb4_1     = -0.1614	eb5_1     = -3.9343	eb6_1     = -0.1614	eb7_1     =  0.2104	
eb8_1     = -3.4900	tb1_1     = -0.1299	tb2_1     = -1.1132	tb3_1     =  1.7255	tb4_1     = -0.1061	
tb5_1     = -1.7256	tb6_1     = -0.1060	tb7_1     =  0.2517	tb8_1     = -2.2765	

CDMFT iteration 54, distance =  1.91e+02, diff param =  1.26e-01, diff hybrid =  3.40e-01
170 minimization steps, time(MIN)/time(ED)=0.00378
sb1_1     = -0.1411	sb2_1     = -0.0164	sb3_1     =  0.0164	sb4_1     = -0.2208	sb5_1     = -0.0164	
sb6_1     = -0.2208	sb7_1     =  0.1267	sb8_1     = -0.0160	eb1_1     = -0.1717	eb2_1     = -3.7065	
eb3_1     = -4.0829	eb4_1     = -0.2226	eb5_1     = -4.0831	eb6_1     = -0.2226	eb7_1     =  0.2419	
eb8_1     = -3.5328	tb1_1     =  0.1241	tb2_1     = -1.1522	tb3_1     =  1.7428	tb4_1     =  0.1126	
tb5_1     = -1.7429	tb6_1     =  0.1126	tb7_1     =  0.2941	tb8_1     = -2.2686	

CDMFT iteration 55, distance =  1.71e+02, diff param =  1.26e-01, diff hybrid =  3.40e-01
151 minimization steps, time(MIN)/time(ED)=0.00379
sb1_1     =  0.1104	sb2_1     =  0.0225	sb3_1     = -0.0228	sb4_1     = -0.1780	sb5_1     =  0.0228	
sb6_1     = -0.1780	sb7_1     = -0.0978	sb8_1     =  0.0190	eb1_1     = -0.0962	eb2_1     = -3.3892	
eb3_1     = -3.9366	eb4_1     = -0.1616	eb5_1     = -3.9369	eb6_1     = -0.1617	eb7_1     =  0.2105	
eb8_1     = -3.4903	tb1_1     =  0.1297	tb2_1     = -1.1116	tb3_1     =  1.7260	tb4_1     = -0.1063	
tb5_1     = -1.7261	tb6_1     = -0.1062	tb7_1     =  0.2517	tb8_1     = -2.2766	

CDMFT iteration 56, distance =  1.91e+02, diff param =  1.25e-01, diff hybrid =  3.40e-01
147 minimization steps, time(MIN)/time(ED)=0.00380
sb1_1     =  0.1409	sb2_1     = -0.0161	sb3_1     =  0.0165	sb4_1     = -0.2209	sb5_1     = -0.0165	
sb6_1     = -0.2209	sb7_1     =  0.1269	sb8_1     = -0.0160	eb1_1     = -0.1710	eb2_1     = -3.6865	
eb3_1     = -4.0853	eb4_1     = -0.2228	eb5_1     = -4.0854	eb6_1     = -0.2228	eb7_1     =  0.2420	
eb8_1     = -3.5329	tb1_1     = -0.1237	tb2_1     = -1.1495	tb3_1     =  1.7433	tb4_1     =  0.1128	
tb5_1     = -1.7433	tb6_1     =  0.1128	tb7_1     =  0.2941	tb8_1     = -2.2686	

CDMFT iteration 57, distance =  1.71e+02, diff param =  1.25e-01, diff hybrid =  3.40e-01
211 minimization steps, time(MIN)/time(ED)=0.00384
sb1_1     = -0.1105	sb2_1     =  0.0224	sb3_1     = -0.0228	sb4_1     = -0.1779	sb5_1     =  0.0228	
sb6_1     = -0.1779	sb7_1     = -0.0978	sb8_1     =  0.0190	eb1_1     = -0.0961	eb2_1     = -3.3892	
eb3_1     = -3.9342	eb4_1     = -0.1614	eb5_1     = -3.9343	eb6_1     = -0.1615	eb7_1     =  0.2103	
eb8_1     = -3.4896	tb1_1     = -0.1297	tb2_1     = -1.1116	tb3_1     =  1.7255	tb4_1     = -0.1062	
tb5_1     = -1.7255	tb6_1     = -0.1062	tb7_1     =  0.2516	tb8_1     = -2.2764	

CDMFT iteration 58, distance =  1.91e+02, diff param =  1.25e-01, diff hybrid =  3.40e-01
170 minimization steps, time(MIN)/time(ED)=0.00387
sb1_1     = -0.1409	sb2_1     = -0.0161	sb3_1     =  0.0164	sb4_1     = -0.2208	sb5_1     = -0.0164	
sb6_1     = -0.2208	sb7_1     =  0.1268	sb8_1     = -0.0161	eb1_1     = -0.1708	eb2_1     = -3.6853	
eb3_1     = -4.0826	eb4_1     = -0.2225	eb5_1     = -4.0826	eb6_1     = -0.2225	eb7_1     =  0.2420	
eb8_1     = -3.5335	tb1_1     =  0.1236	tb2_1     = -1.1493	tb3_1     =  1.7428	tb4_1     =  0.1126	
tb5_1     = -1.7428	tb6_1     =  0.1126	tb7_1     =  0.2942	tb8_1     = -2.2688	

CDMFT iteration 59, distance =  1.71e+02, diff param =  1.22e-01, diff hybrid =  3.40e-01
178 minimization steps, time(MIN)/time(ED)=0.00388
sb1_1     =  0.1106	sb2_1     =  0.0226	sb3_1     = -0.0228	sb4_1     = -0.1780	sb5_1     =  0.0228	
sb6_1     = -0.1780	sb7_1     = -0.0977	sb8_1     =  0.0190	eb1_1     = -0.0966	eb2_1     = -3.4069	
eb3_1     = -3.9342	eb4_1     = -0.1615	eb5_1     = -3.9344	eb6_1     = -0.1615	eb7_1     =  0.2103	
eb8_1     = -3.4896	tb1_1     =  0.1301	tb2_1     = -1.1141	tb3_1     =  1.7255	tb4_1     = -0.1061	
tb5_1     = -1.7256	tb6_1     = -0.1061	tb7_1     =  0.2516	tb8_1     = -2.2764	

CDMFT iteration 60, distance =  1.91e+02, diff param =  1.24e-01, diff hybrid =  3.40e-01
219 minimization steps, time(MIN)/time(ED)=0.00392
sb1_1     =  0.1410	sb2_1     = -0.0162	sb3_1     =  0.0164	sb4_1     = -0.2208	sb5_1     = -0.0164	
sb6_1     = -0.2208	sb7_1     =  0.1268	sb8_1     = -0.0160	eb1_1     = -0.1713	eb2_1     = -3.6927	
eb3_1     = -4.0828	eb4_1     = -0.2226	eb5_1     = -4.0829	eb6_1     = -0.2226	eb7_1     =  0.2419	
eb8_1     = -3.5328	tb1_1     = -0.1238	tb2_1     = -1.1503	tb3_1     =  1.7428	tb4_1     =  0.1127	
tb5_1     = -1.7429	tb6_1     =  0.1127	tb7_1     =  0.2941	tb8_1     = -2.2686	

CDMFT iteration 61, distance =  1.71e+02, diff param =  1.24e-01, diff hybrid =  3.40e-01
183 minimization steps, time(MIN)/time(ED)=0.00394
sb1_1     = -0.1106	sb2_1     =  0.0226	sb3_1     = -0.0228	sb4_1     = -0.1780	sb5_1     =  0.0228	
sb6_1     = -0.1780	sb7_1     = -0.0977	sb8_1     =  0.0190	eb1_1     = -0.0965	eb2_1     = -3.4023	
eb3_1     = -3.9342	eb4_1     = -0.1615	eb5_1     = -3.9343	eb6_1     = -0.1615	eb7_1     =  0.2104	
eb8_1     = -3.4894	tb1_1     = -0.1300	tb2_1     = -1.1134	tb3_1     =  1.7255	tb4_1     = -0.1062	
tb5_1     = -1.7255	tb6_1     = -0.1061	tb7_1     =  0.2516	tb8_1     = -2.2763	

CDMFT iteration 62, distance =  1.91e+02, diff param =  1.23e-01, diff hybrid =  3.40e-01
155 minimization steps, time(MIN)/time(ED)=0.00395
sb1_1     = -0.1410	sb2_1     = -0.0162	sb3_1     =  0.0164	sb4_1     = -0.2208	sb5_1     = -0.0164	
sb6_1     = -0.2208	sb7_1     =  0.1268	sb8_1     = -0.0161	eb1_1     = -0.1714	eb2_1     = -3.6871	
eb3_1     = -4.0816	eb4_1     = -0.2226	eb5_1     = -4.0817	eb6_1     = -0.2226	eb7_1     =  0.2419	
eb8_1     = -3.5331	tb1_1     =  0.1238	tb2_1     = -1.1495	tb3_1     =  1.7426	tb4_1     =  0.1127	
tb5_1     = -1.7426	tb6_1     =  0.1127	tb7_1     =  0.2941	tb8_1     = -2.2687	

CDMFT iteration 63, distance =  1.71e+02, diff param =  1.23e-01, diff hybrid =  3.40e-01
176 minimization steps, time(MIN)/time(ED)=0.00397
sb1_1     =  0.1105	sb2_1     =  0.0226	sb3_1     = -0.0227	sb4_1     = -0.1779	sb5_1     =  0.0227	
sb6_1     = -0.1779	sb7_1     = -0.0978	sb8_1     =  0.0190	eb1_1     = -0.0964	eb2_1     = -3.4009	
eb3_1     = -3.9345	eb4_1     = -0.1613	eb5_1     = -3.9346	eb6_1     = -0.1614	eb7_1     =  0.2104	
eb8_1     = -3.4897	tb1_1     =  0.1299	tb2_1     = -1.1132	tb3_1     =  1.7255	tb4_1     = -0.1062	
tb5_1     = -1.7256	tb6_1     = -0.1061	tb7_1     =  0.2516	tb8_1     = -2.2764	

CDMFT iteration 64, distance =  1.91e+02, diff param =  1.26e-01, diff hybrid =  3.40e-01
169 minimization steps, time(MIN)/time(ED)=0.00399
sb1_1     =  0.1412	sb2_1     = -0.0164	sb3_1     =  0.0164	sb4_1     = -0.2208	sb5_1     = -0.0164	
sb6_1     = -0.2208	sb7_1     =  0.1269	sb8_1     = -0.0161	eb1_1     = -0.1722	eb2_1     = -3.7070	
eb3_1     = -4.0822	eb4_1     = -0.2225	eb5_1     = -4.0823	eb6_1     = -0.2225	eb7_1     =  0.2421	
eb8_1     = -3.5342	tb1_1     = -0.1242	tb2_1     = -1.1523	tb3_1     =  1.7427	tb4_1     =  0.1126	
tb5_1     = -1.7427	tb6_1     =  0.1126	tb7_1     =  0.2942	tb8_1     = -2.2691	

CDMFT iteration 65, distance =  1.71e+02, diff param =  1.24e-01, diff hybrid =  3.40e-01
132 minimization steps, time(MIN)/time(ED)=0.00398
sb1_1     = -0.1106	sb2_1     =  0.0227	sb3_1     = -0.0228	sb4_1     = -0.1780	sb5_1     =  0.0228	
sb6_1     = -0.1780	sb7_1     = -0.0977	sb8_1     =  0.0190	eb1_1     = -0.0967	eb2_1     = -3.4070	
eb3_1     = -3.9373	eb4_1     = -0.1617	eb5_1     = -3.9374	eb6_1     = -0.1618	eb7_1     =  0.2102	
eb8_1     = -3.4882	tb1_1     = -0.1302	tb2_1     = -1.1141	tb3_1     =  1.7261	tb4_1     = -0.1063	
tb5_1     = -1.7262	tb6_1     = -0.1063	tb7_1     =  0.2515	tb8_1     = -2.2760	

CDMFT iteration 66, distance =  1.91e+02, diff param =  1.24e-01, diff hybrid =  3.40e-01
149 minimization steps, time(MIN)/time(ED)=0.00399
sb1_1     = -0.1411	sb2_1     = -0.0163	sb3_1     =  0.0164	sb4_1     = -0.2208	sb5_1     = -0.0164	
sb6_1     = -0.2208	sb7_1     =  0.1268	sb8_1     = -0.0160	eb1_1     = -0.1718	eb2_1     = -3.6980	
eb3_1     = -4.0831	eb4_1     = -0.2225	eb5_1     = -4.0831	eb6_1     = -0.2226	eb7_1     =  0.2419	
eb8_1     = -3.5321	tb1_1     =  0.1240	tb2_1     = -1.1511	tb3_1     =  1.7429	tb4_1     =  0.1127	
tb5_1     = -1.7429	tb6_1     =  0.1127	tb7_1     =  0.2941	tb8_1     = -2.2684	

CDMFT iteration 67, distance =  1.71e+02, diff param =  1.25e-01, diff hybrid =  3.40e-01
158 minimization steps, time(MIN)/time(ED)=0.00400
sb1_1     =  0.1105	sb2_1     =  0.0225	sb3_1     = -0.0227	sb4_1     = -0.1779	sb5_1     =  0.0227	
sb6_1     = -0.1779	sb7_1     = -0.0978	sb8_1     =  0.0190	eb1_1     = -0.0962	eb2_1     = -3.3941	
eb3_1     = -3.9336	eb4_1     = -0.1614	eb5_1     = -3.9337	eb6_1     = -0.1614	eb7_1     =  0.2105	
eb8_1     = -3.4905	tb1_1     =  0.1298	tb2_1     = -1.1123	tb3_1     =  1.7254	tb4_1     = -0.1061	
tb5_1     = -1.7254	tb6_1     = -0.1061	tb7_1     =  0.2517	tb8_1     = -2.2767	

CDMFT iteration 68, distance =  1.91e+02, diff param =  1.25e-01, diff hybrid =  3.40e-01
172 minimization steps, time(MIN)/time(ED)=0.00402
sb1_1     =  0.1410	sb2_1     = -0.0161	sb3_1     =  0.0165	sb4_1     = -0.2208	sb5_1     = -0.0165	
sb6_1     = -0.2208	sb7_1     =  0.1268	sb8_1     = -0.0161	eb1_1     = -0.1712	eb2_1     = -3.6901	
eb3_1     = -4.0826	eb4_1     = -0.2225	eb5_1     = -4.0826	eb6_1     = -0.2225	eb7_1     =  0.2419	
eb8_1     = -3.5329	tb1_1     = -0.1238	tb2_1     = -1.1500	tb3_1     =  1.7428	tb4_1     =  0.1126	
tb5_1     = -1.7428	tb6_1     =  0.1126	tb7_1     =  0.2941	tb8_1     = -2.2686	

CDMFT iteration 69, distance =  1.71e+02, diff param =  1.24e-01, diff hybrid =  3.40e-01
170 minimization steps, time(MIN)/time(ED)=0.00403
sb1_1     = -0.1105	sb2_1     =  0.0225	sb3_1     = -0.0227	sb4_1     = -0.1779	sb5_1     =  0.0227	
sb6_1     = -0.1779	sb7_1     = -0.0977	sb8_1     =  0.0190	eb1_1     = -0.0962	eb2_1     = -3.3975	
eb3_1     = -3.9341	eb4_1     = -0.1614	eb5_1     = -3.9341	eb6_1     = -0.1614	eb7_1     =  0.2103	
eb8_1     = -3.4894	tb1_1     = -0.1298	tb2_1     = -1.1127	tb3_1     =  1.7255	tb4_1     = -0.1061	
tb5_1     = -1.7255	tb6_1     = -0.1061	tb7_1     =  0.2516	tb8_1     = -2.2763	

CDMFT iteration 70, distance =  1.91e+02, diff param =  1.24e-01, diff hybrid =  3.40e-01
166 minimization steps, time(MIN)/time(ED)=0.00405
sb1_1     = -0.1409	sb2_1     = -0.0161	sb3_1     =  0.0164	sb4_1     = -0.2208	sb5_1     = -0.0164	
sb6_1     = -0.2208	sb7_1     =  0.1267	sb8_1     = -0.0160	eb1_1     = -0.1710	eb2_1     = -3.6874	
eb3_1     = -4.0826	eb4_1     = -0.2225	eb5_1     = -4.0826	eb6_1     = -0.2225	eb7_1     =  0.2417	
eb8_1     = -3.5314	tb1_1     =  0.1237	tb2_1     = -1.1496	tb3_1     =  1.7428	tb4_1     =  0.1126	
tb5_1     = -1.7428	tb6_1     =  0.1126	tb7_1     =  0.2940	tb8_1     = -2.2682	

CDMFT iteration 71, distance =  1.71e+02, diff param =  1.23e-01, diff hybrid =  3.40e-01
114 minimization steps, time(MIN)/time(ED)=0.00404
sb1_1     =  0.1106	sb2_1     =  0.0227	sb3_1     = -0.0227	sb4_1     = -0.1779	sb5_1     =  0.0227	
sb6_1     = -0.1779	sb7_1     = -0.0977	sb8_1     =  0.0190	eb1_1     = -0.0966	eb2_1     = -3.4050	
eb3_1     = -3.9317	eb4_1     = -0.1614	eb5_1     = -3.9317	eb6_1     = -0.1613	eb7_1     =  0.2102	
eb8_1     = -3.4893	tb1_1     =  0.1301	tb2_1     = -1.1138	tb3_1     =  1.7250	tb4_1     = -0.1060	
tb5_1     = -1.7250	tb6_1     = -0.1060	tb7_1     =  0.2516	tb8_1     = -2.2763	

CDMFT iteration 72, distance =  1.91e+02, diff param =  1.27e-01, diff hybrid =  3.40e-01
179 minimization steps, time(MIN)/time(ED)=0.00406
sb1_1     =  0.1414	sb2_1     = -0.0166	sb3_1     =  0.0164	sb4_1     = -0.2208	sb5_1     = -0.0164	
sb6_1     = -0.2208	sb7_1     =  0.1269	sb8_1     = -0.0161	eb1_1     = -0.1725	eb2_1     = -3.7174	
eb3_1     = -4.0828	eb4_1     = -0.2225	eb5_1     = -4.0828	eb6_1     = -0.2225	eb7_1     =  0.2423	
eb8_1     = -3.5347	tb1_1     = -0.1245	tb2_1     = -1.1537	tb3_1     =  1.7428	tb4_1     =  0.1126	
tb5_1     = -1.7428	tb6_1     =  0.1126	tb7_1     =  0.2943	tb8_1     = -2.2692	

CDMFT iteration 73, distance =  1.71e+02, diff param =  1.26e-01, diff hybrid =  3.40e-01
193 minimization steps, time(MIN)/time(ED)=0.00408
sb1_1     = -0.1105	sb2_1     =  0.0226	sb3_1     = -0.0227	sb4_1     = -0.1778	sb5_1     =  0.0227	
sb6_1     = -0.1778	sb7_1     = -0.0978	sb8_1     =  0.0190	eb1_1     = -0.0966	eb2_1     = -3.4039	
eb3_1     = -3.9344	eb4_1     = -0.1614	eb5_1     = -3.9345	eb6_1     = -0.1614	eb7_1     =  0.2105	
eb8_1     = -3.4899	tb1_1     = -0.1301	tb2_1     = -1.1136	tb3_1     =  1.7255	tb4_1     = -0.1062	
tb5_1     = -1.7256	tb6_1     = -0.1062	tb7_1     =  0.2517	tb8_1     = -2.2765	

CDMFT iteration 74, distance =  1.91e+02, diff param =  1.23e-01, diff hybrid =  3.40e-01
158 minimization steps, time(MIN)/time(ED)=0.00409
sb1_1     = -0.1410	sb2_1     = -0.0161	sb3_1     =  0.0164	sb4_1     = -0.2209	sb5_1     = -0.0164	
sb6_1     = -0.2209	sb7_1     =  0.1268	sb8_1     = -0.0160	eb1_1     = -0.1711	eb2_1     = -3.6875	
eb3_1     = -4.0841	eb4_1     = -0.2227	eb5_1     = -4.0841	eb6_1     = -0.2227	eb7_1     =  0.2419	
eb8_1     = -3.5327	tb1_1     =  0.1237	tb2_1     = -1.1496	tb3_1     =  1.7431	tb4_1     =  0.1127	
tb5_1     = -1.7431	tb6_1     =  0.1127	tb7_1     =  0.2941	tb8_1     = -2.2686	

CDMFT iteration 75, distance =  1.71e+02, diff param =  1.23e-01, diff hybrid =  3.40e-01
186 minimization steps, time(MIN)/time(ED)=0.00410
sb1_1     =  0.1106	sb2_1     =  0.0227	sb3_1     = -0.0227	sb4_1     = -0.1779	sb5_1     =  0.0227	
sb6_1     = -0.1779	sb7_1     = -0.0977	sb8_1     =  0.0190	eb1_1     = -0.0968	eb2_1     = -3.4075	
eb3_1     = -3.9342	eb4_1     = -0.1616	eb5_1     = -3.9342	eb6_1     = -0.1615	eb7_1     =  0.2103	
eb8_1     = -3.4899	tb1_1     =  0.1302	tb2_1     = -1.1141	tb3_1     =  1.7255	tb4_1     = -0.1061	
tb5_1     = -1.7255	tb6_1     = -0.1062	tb7_1     =  0.2516	tb8_1     = -2.2765	

CDMFT iteration 76, distance =  1.91e+02, diff param =  1.27e-01, diff hybrid =  3.40e-01
153 minimization steps, time(MIN)/time(ED)=0.00411
sb1_1     =  0.1413	sb2_1     = -0.0165	sb3_1     =  0.0165	sb4_1     = -0.2209	sb5_1     = -0.0165	
sb6_1     = -0.2209	sb7_1     =  0.1268	sb8_1     = -0.0160	eb1_1     = -0.1721	eb2_1     = -3.7204	
eb3_1     = -4.0843	eb4_1     = -0.2226	eb5_1     = -4.0844	eb6_1     = -0.2226	eb7_1     =  0.2419	
eb8_1     = -3.5329	tb1_1     = -0.1244	tb2_1     = -1.1542	tb3_1     =  1.7431	tb4_1     =  0.1127	
tb5_1     = -1.7432	tb6_1     =  0.1127	tb7_1     =  0.2941	tb8_1     = -2.2687	

CDMFT iteration 77, distance =  1.71e+02, diff param =  1.28e-01, diff hybrid =  3.40e-01
141 minimization steps, time(MIN)/time(ED)=0.00411
sb1_1     = -0.1105	sb2_1     =  0.0225	sb3_1     = -0.0227	sb4_1     = -0.1779	sb5_1     =  0.0227	
sb6_1     = -0.1779	sb7_1     = -0.0978	sb8_1     =  0.0190	eb1_1     = -0.0963	eb2_1     = -3.3930	
eb3_1     = -3.9313	eb4_1     = -0.1613	eb5_1     = -3.9314	eb6_1     = -0.1613	eb7_1     =  0.2105	
eb8_1     = -3.4903	tb1_1     = -0.1298	tb2_1     = -1.1121	tb3_1     =  1.7250	tb4_1     = -0.1060	
tb5_1     = -1.7250	tb6_1     = -0.1060	tb7_1     =  0.2517	tb8_1     = -2.2766	

CDMFT iteration 78, distance =  1.91e+02, diff param =  1.25e-01, diff hybrid =  3.40e-01
160 minimization steps, time(MIN)/time(ED)=0.00412
sb1_1     = -0.1411	sb2_1     = -0.0162	sb3_1     =  0.0164	sb4_1     = -0.2208	sb5_1     = -0.0164	
sb6_1     = -0.2208	sb7_1     =  0.1267	sb8_1     = -0.0160	eb1_1     = -0.1714	eb2_1     = -3.6947	
eb3_1     = -4.0826	eb4_1     = -0.2225	eb5_1     = -4.0825	eb6_1     = -0.2225	eb7_1     =  0.2418	
eb8_1     = -3.5312	tb1_1     =  0.1239	tb2_1     = -1.1506	tb3_1     =  1.7428	tb4_1     =  0.1126	
tb5_1     = -1.7428	tb6_1     =  0.1126	tb7_1     =  0.2941	tb8_1     = -2.2681	

CDMFT iteration 79, distance =  1.71e+02, diff param =  1.23e-01, diff hybrid =  3.40e-01
162 minimization steps, time(MIN)/time(ED)=0.00413
sb1_1     =  0.1106	sb2_1     =  0.0227	sb3_1     = -0.0227	sb4_1     = -0.1780	sb5_1     =  0.0227	
sb6_1     = -0.1780	sb7_1     = -0.0976	sb8_1     =  0.0189	eb1_1     = -0.0966	eb2_1     = -3.4074	
eb3_1     = -3.9342	eb4_1     = -0.1615	eb5_1     = -3.9342	eb6_1     = -0.1615	eb7_1     =  0.2101	
eb8_1     = -3.4881	tb1_1     =  0.1301	tb2_1     = -1.1141	tb3_1     =  1.7255	tb4_1     = -0.1061	
tb5_1     = -1.7255	tb6_1     = -0.1061	tb7_1     =  0.2515	tb8_1     = -2.2760	

CDMFT iteration 80, distance =  1.91e+02, diff param =  1.25e-01, diff hybrid =  3.40e-01
175 minimization steps, time(MIN)/time(ED)=0.00414
sb1_1     =  0.1412	sb2_1     = -0.0163	sb3_1     =  0.0164	sb4_1     = -0.2208	sb5_1     = -0.0164	
sb6_1     = -0.2208	sb7_1     =  0.1268	sb8_1     = -0.0160	eb1_1     = -0.1719	eb2_1     = -3.7043	
eb3_1     = -4.0830	eb4_1     = -0.2226	eb5_1     = -4.0829	eb6_1     = -0.2225	eb7_1     =  0.2419	
eb8_1     = -3.5330	tb1_1     = -0.1241	tb2_1     = -1.1519	tb3_1     =  1.7429	tb4_1     =  0.1127	
tb5_1     = -1.7429	tb6_1     =  0.1127	tb7_1     =  0.2941	tb8_1     = -2.2687	

CDMFT iteration 81, distance =  1.71e+02, diff param =  1.26e-01, diff hybrid =  3.40e-01
146 minimization steps, time(MIN)/time(ED)=0.00414
sb1_1     = -0.1105	sb2_1     =  0.0225	sb3_1     = -0.0227	sb4_1     = -0.1779	sb5_1     =  0.0227	
sb6_1     = -0.1779	sb7_1     = -0.0977	sb8_1     =  0.0190	eb1_1     = -0.0963	eb2_1     = -3.3946	
eb3_1     = -3.9329	eb4_1     = -0.1614	eb5_1     = -3.9327	eb6_1     = -0.1614	eb7_1     =  0.2103	
eb8_1     = -3.4892	tb1_1     = -0.1299	tb2_1     = -1.1123	tb3_1     =  1.7253	tb4_1     = -0.1061	
tb5_1     = -1.7252	tb6_1     = -0.1061	tb7_1     =  0.2516	tb8_1     = -2.2763	

CDMFT iteration 82, distance =  1.91e+02, diff param =  1.25e-01, diff hybrid =  3.40e-01
153 minimization steps, time(MIN)/time(ED)=0.00414
sb1_1     = -0.1410	sb2_1     = -0.0162	sb3_1     =  0.0164	sb4_1     = -0.2208	sb5_1     = -0.0164	
sb6_1     = -0.2208	sb7_1     =  0.1269	sb8_1     = -0.0161	eb1_1     = -0.1713	eb2_1     = -3.6925	
eb3_1     = -4.0829	eb4_1     = -0.2225	eb5_1     = -4.0828	eb6_1     = -0.2225	eb7_1     =  0.2421	
eb8_1     = -3.5339	tb1_1     =  0.1238	tb2_1     = -1.1504	tb3_1     =  1.7428	tb4_1     =  0.1126	
tb5_1     = -1.7428	tb6_1     =  0.1126	tb7_1     =  0.2942	tb8_1     = -2.2690	

CDMFT iteration 83, distance =  1.71e+02, diff param =  1.24e-01, diff hybrid =  3.40e-01
171 minimization steps, time(MIN)/time(ED)=0.00415
sb1_1     =  0.1106	sb2_1     =  0.0226	sb3_1     = -0.0227	sb4_1     = -0.1779	sb5_1     =  0.0228	
sb6_1     = -0.1779	sb7_1     = -0.0977	sb8_1     =  0.0190	eb1_1     = -0.0966	eb2_1     = -3.4019	
eb3_1     = -3.9342	eb4_1     = -0.1615	eb5_1     = -3.9340	eb6_1     = -0.1614	eb7_1     =  0.2104	
eb8_1     = -3.4902	tb1_1     =  0.1301	tb2_1     = -1.1133	tb3_1     =  1.7255	tb4_1     = -0.1061	
tb5_1     = -1.7254	tb6_1     = -0.1062	tb7_1     =  0.2517	tb8_1     = -2.2766	

CDMFT iteration 84, distance =  1.91e+02, diff param =  1.24e-01, diff hybrid =  3.40e-01
193 minimization steps, time(MIN)/time(ED)=0.00417
sb1_1     =  0.1410	sb2_1     = -0.0162	sb3_1     =  0.0164	sb4_1     = -0.2208	sb5_1     = -0.0164	
sb6_1     = -0.2208	sb7_1     =  0.1268	sb8_1     = -0.0160	eb1_1     = -0.1713	eb2_1     = -3.6917	
eb3_1     = -4.0828	eb4_1     = -0.2226	eb5_1     = -4.0827	eb6_1     = -0.2226	eb7_1     =  0.2420	
eb8_1     = -3.5328	tb1_1     = -0.1239	tb2_1     = -1.1502	tb3_1     =  1.7428	tb4_1     =  0.1126	
tb5_1     = -1.7428	tb6_1     =  0.1127	tb7_1     =  0.2941	tb8_1     = -2.2687	

CDMFT iteration 85, distance =  1.71e+02, diff param =  1.24e-01, diff hybrid =  3.40e-01
193 minimization steps, time(MIN)/time(ED)=0.00419
sb1_1     = -0.1106	sb2_1     =  0.0226	sb3_1     = -0.0227	sb4_1     = -0.1779	sb5_1     =  0.0227	
sb6_1     = -0.1779	sb7_1     = -0.0977	sb8_1     =  0.0190	eb1_1     = -0.0965	eb2_1     = -3.4027	
eb3_1     = -3.9344	eb4_1     = -0.1615	eb5_1     = -3.9341	eb6_1     = -0.1614	eb7_1     =  0.2102	
eb8_1     = -3.4886	tb1_1     = -0.1300	tb2_1     = -1.1134	tb3_1     =  1.7256	tb4_1     = -0.1061	
tb5_1     = -1.7255	tb6_1     = -0.1061	tb7_1     =  0.2515	tb8_1     = -2.2761	

CDMFT iteration 86, distance =  1.91e+02, diff param =  1.24e-01, diff hybrid =  3.40e-01
200 minimization steps, time(MIN)/time(ED)=0.00420
sb1_1     = -0.1410	sb2_1     = -0.0162	sb3_1     =  0.0164	sb4_1     = -0.2208	sb5_1     = -0.0164	
sb6_1     = -0.2208	sb7_1     =  0.1269	sb8_1     = -0.0161	eb1_1     = -0.1714	eb2_1     = -3.6945	
eb3_1     = -4.0827	eb4_1     = -0.2225	eb5_1     = -4.0828	eb6_1     = -0.2225	eb7_1     =  0.2421	
eb8_1     = -3.5340	tb1_1     =  0.1239	tb2_1     = -1.1506	tb3_1     =  1.7428	tb4_1     =  0.1127	
tb5_1     = -1.7428	tb6_1     =  0.1126	tb7_1     =  0.2942	tb8_1     = -2.2690	

CDMFT iteration 87, distance =  1.71e+02, diff param =  1.25e-01, diff hybrid =  3.40e-01
182 minimization steps, time(MIN)/time(ED)=0.00422
sb1_1     =  0.1104	sb2_1     =  0.0225	sb3_1     = -0.0228	sb4_1     = -0.1780	sb5_1     =  0.0228	
sb6_1     = -0.1780	sb7_1     = -0.0978	sb8_1     =  0.0190	eb1_1     = -0.0962	eb2_1     = -3.3913	
eb3_1     = -3.9352	eb4_1     = -0.1615	eb5_1     = -3.9354	eb6_1     = -0.1616	eb7_1     =  0.2103	
eb8_1     = -3.4896	tb1_1     =  0.1298	tb2_1     = -1.1118	tb3_1     =  1.7257	tb4_1     = -0.1062	
tb5_1     = -1.7258	tb6_1     = -0.1062	tb7_1     =  0.2516	tb8_1     = -2.2764	

CDMFT iteration 88, distance =  1.91e+02, diff param =  1.25e-01, diff hybrid =  3.40e-01
152 minimization steps, time(MIN)/time(ED)=0.00422
sb1_1     =  0.1410	sb2_1     = -0.0162	sb3_1     =  0.0164	sb4_1     = -0.2208	sb5_1     = -0.0164	
sb6_1     = -0.2208	sb7_1     =  0.1268	sb8_1     = -0.0160	eb1_1     = -0.1711	eb2_1     = -3.6910	
eb3_1     = -4.0821	eb4_1     = -0.2225	eb5_1     = -4.0821	eb6_1     = -0.2225	eb7_1     =  0.2419	
eb8_1     = -3.5330	tb1_1     = -0.1237	tb2_1     = -1.1501	tb3_1     =  1.7427	tb4_1     =  0.1126	
tb5_1     = -1.7427	tb6_1     =  0.1126	tb7_1     =  0.2941	tb8_1     = -2.2687	

CDMFT iteration 89, distance =  1.71e+02, diff param =  1.25e-01, diff hybrid =  3.40e-01
157 minimization steps, time(MIN)/time(ED)=0.00422
sb1_1     = -0.1105	sb2_1     =  0.0225	sb3_1     = -0.0227	sb4_1     = -0.1779	sb5_1     =  0.0227	
sb6_1     = -0.1779	sb7_1     = -0.0978	sb8_1     =  0.0190	eb1_1     = -0.0962	eb2_1     = -3.3917	
eb3_1     = -3.9328	eb4_1     = -0.1614	eb5_1     = -3.9328	eb6_1     = -0.1614	eb7_1     =  0.2104	
eb8_1     = -3.4903	tb1_1     = -0.1297	tb2_1     = -1.1119	tb3_1     =  1.7252	tb4_1     = -0.1061	
tb5_1     = -1.7252	tb6_1     = -0.1061	tb7_1     =  0.2517	tb8_1     = -2.2766	

CDMFT iteration 90, distance =  1.91e+02, diff param =  1.24e-01, diff hybrid =  3.40e-01
157 minimization steps, time(MIN)/time(ED)=0.00423
sb1_1     = -0.1408	sb2_1     = -0.0160	sb3_1     =  0.0165	sb4_1     = -0.2208	sb5_1     = -0.0165	
sb6_1     = -0.2208	sb7_1     =  0.1268	sb8_1     = -0.0161	eb1_1     = -0.1708	eb2_1     = -3.6804	
eb3_1     = -4.0836	eb4_1     = -0.2226	eb5_1     = -4.0835	eb6_1     = -0.2226	eb7_1     =  0.2420	
eb8_1     = -3.5334	tb1_1     =  0.1236	tb2_1     = -1.1486	tb3_1     =  1.7430	tb4_1     =  0.1127	
tb5_1     = -1.7430	tb6_1     =  0.1127	tb7_1     =  0.2942	tb8_1     = -2.2688	

CDMFT iteration 91, distance =  1.71e+02, diff param =  1.22e-01, diff hybrid =  3.40e-01
178 minimization steps, time(MIN)/time(ED)=0.00424
sb1_1     =  0.1106	sb2_1     =  0.0226	sb3_1     = -0.0227	sb4_1     = -0.1779	sb5_1     =  0.0227	
sb6_1     = -0.1779	sb7_1     = -0.0978	sb8_1     =  0.0190	eb1_1     = -0.0965	eb2_1     = -3.4046	
eb3_1     = -3.9341	eb4_1     = -0.1614	eb5_1     = -3.9340	eb6_1     = -0.1614	eb7_1     =  0.2104	
eb8_1     = -3.4904	tb1_1     =  0.1301	tb2_1     = -1.1137	tb3_1     =  1.7255	tb4_1     = -0.1061	
tb5_1     = -1.7255	tb6_1     = -0.1062	tb7_1     =  0.2517	tb8_1     = -2.2767	

CDMFT iteration 92, distance =  1.91e+02, diff param =  1.25e-01, diff hybrid =  3.40e-01
199 minimization steps, time(MIN)/time(ED)=0.00425
sb1_1     =  0.1411	sb2_1     = -0.0163	sb3_1     =  0.0164	sb4_1     = -0.2208	sb5_1     = -0.0164	
sb6_1     = -0.2208	sb7_1     =  0.1268	sb8_1     = -0.0160	eb1_1     = -0.1716	eb2_1     = -3.6998	
eb3_1     = -4.0828	eb4_1     = -0.2225	eb5_1     = -4.0828	eb6_1     = -0.2225	eb7_1     =  0.2417	
eb8_1     = -3.5315	tb1_1     = -0.1240	tb2_1     = -1.1513	tb3_1     =  1.7428	tb4_1     =  0.1127	
tb5_1     = -1.7428	tb6_1     =  0.1127	tb7_1     =  0.2940	tb8_1     = -2.2682	

CDMFT iteration 93, distance =  1.71e+02, diff param =  1.25e-01, diff hybrid =  3.40e-01
147 minimization steps, time(MIN)/time(ED)=0.00425
sb1_1     = -0.1105	sb2_1     =  0.0225	sb3_1     = -0.0227	sb4_1     = -0.1779	sb5_1     =  0.0227	
sb6_1     = -0.1779	sb7_1     = -0.0976	sb8_1     =  0.0190	eb1_1     = -0.0963	eb2_1     = -3.3968	
eb3_1     = -3.9343	eb4_1     = -0.1614	eb5_1     = -3.9343	eb6_1     = -0.1614	eb7_1     =  0.2103	
eb8_1     = -3.4892	tb1_1     = -0.1299	tb2_1     = -1.1126	tb3_1     =  1.7255	tb4_1     = -0.1061	
tb5_1     = -1.7255	tb6_1     = -0.1061	tb7_1     =  0.2516	tb8_1     = -2.2763	

CDMFT iteration 94, distance =  1.91e+02, diff param =  1.24e-01, diff hybrid =  3.40e-01
172 minimization steps, time(MIN)/time(ED)=0.00426
sb1_1     = -0.1409	sb2_1     = -0.0161	sb3_1     =  0.0164	sb4_1     = -0.2208	sb5_1     = -0.0164	
sb6_1     = -0.2208	sb7_1     =  0.1268	sb8_1     = -0.0160	eb1_1     = -0.1709	eb2_1     = -3.6856	
eb3_1     = -4.0828	eb4_1     = -0.2225	eb5_1     = -4.0827	eb6_1     = -0.2225	eb7_1     =  0.2419	
eb8_1     = -3.5329	tb1_1     =  0.1236	tb2_1     = -1.1494	tb3_1     =  1.7428	tb4_1     =  0.1126	
tb5_1     = -1.7428	tb6_1     =  0.1126	tb7_1     =  0.2941	tb8_1     = -2.2686	

CDMFT iteration 95, distance =  1.71e+02, diff param =  1.24e-01, diff hybrid =  3.40e-01
171 minimization steps, time(MIN)/time(ED)=0.00427
sb1_1     =  0.1104	sb2_1     =  0.0225	sb3_1     = -0.0228	sb4_1     = -0.1779	sb5_1     =  0.0227	
sb6_1     = -0.1779	sb7_1     = -0.0976	sb8_1     =  0.0190	eb1_1     = -0.0962	eb2_1     = -3.3949	
eb3_1     = -3.9340	eb4_1     = -0.1615	eb5_1     = -3.9341	eb6_1     = -0.1615	eb7_1     =  0.2102	
eb8_1     = -3.4888	tb1_1     =  0.1298	tb2_1     = -1.1124	tb3_1     =  1.7255	tb4_1     = -0.1061	
tb5_1     = -1.7255	tb6_1     = -0.1061	tb7_1     =  0.2516	tb8_1     = -2.2762	

CDMFT iteration 96, distance =  1.91e+02, diff param =  1.26e-01, diff hybrid =  3.40e-01
149 minimization steps, time(MIN)/time(ED)=0.00428
sb1_1     =  0.1411	sb2_1     = -0.0163	sb3_1     =  0.0166	sb4_1     = -0.2211	sb5_1     = -0.0166	
sb6_1     = -0.2210	sb7_1     =  0.1267	sb8_1     = -0.0160	eb1_1     = -0.1717	eb2_1     = -3.7031	
eb3_1     = -4.0883	eb4_1     = -0.2230	eb5_1     = -4.0888	eb6_1     = -0.2230	eb7_1     =  0.2418	
eb8_1     = -3.5315	tb1_1     = -0.1241	tb2_1     = -1.1518	tb3_1     =  1.7439	tb4_1     =  0.1128	
tb5_1     = -1.7440	tb6_1     =  0.1128	tb7_1     =  0.2940	tb8_1     = -2.2682	

CDMFT iteration 97, distance =  1.71e+02, diff param =  1.25e-01, diff hybrid =  3.40e-01
139 minimization steps, time(MIN)/time(ED)=0.00427
sb1_1     = -0.1105	sb2_1     =  0.0227	sb3_1     = -0.0228	sb4_1     = -0.1779	sb5_1     =  0.0228	
sb6_1     = -0.1779	sb7_1     = -0.0979	sb8_1     =  0.0190	eb1_1     = -0.0967	eb2_1     = -3.4046	
eb3_1     = -3.9344	eb4_1     = -0.1616	eb5_1     = -3.9351	eb6_1     = -0.1617	eb7_1     =  0.2105	
eb8_1     = -3.4902	tb1_1     = -0.1302	tb2_1     = -1.1137	tb3_1     =  1.7256	tb4_1     = -0.1063	
tb5_1     = -1.7257	tb6_1     = -0.1062	tb7_1     =  0.2516	tb8_1     = -2.2766	

CDMFT iteration 98, distance =  1.91e+02, diff param =  1.24e-01, diff hybrid =  3.40e-01
181 minimization steps, time(MIN)/time(ED)=0.00428
sb1_1     = -0.1410	sb2_1     = -0.0162	sb3_1     =  0.0164	sb4_1     = -0.2209	sb5_1     = -0.0164	
sb6_1     = -0.2208	sb7_1     =  0.1269	sb8_1     = -0.0160	eb1_1     = -0.1715	eb2_1     = -3.6905	
eb3_1     = -4.0832	eb4_1     = -0.2226	eb5_1     = -4.0835	eb6_1     = -0.2226	eb7_1     =  0.2420	
eb8_1     = -3.5333	tb1_1     =  0.1239	tb2_1     = -1.1500	tb3_1     =  1.7429	tb4_1     =  0.1127	
tb5_1     = -1.7430	tb6_1     =  0.1127	tb7_1     =  0.2942	tb8_1     = -2.2688	

CDMFT iteration 99, distance =  1.71e+02, diff param =  1.26e-01, diff hybrid =  3.40e-01
137 minimization steps, time(MIN)/time(ED)=0.00428
sb1_1     =  0.1104	sb2_1     =  0.0223	sb3_1     = -0.0227	sb4_1     = -0.1778	sb5_1     =  0.0227	
sb6_1     = -0.1778	sb7_1     = -0.0977	sb8_1     =  0.0190	eb1_1     = -0.0959	eb2_1     = -3.3818	
eb3_1     = -3.9320	eb4_1     = -0.1612	eb5_1     = -3.9324	eb6_1     = -0.1613	eb7_1     =  0.2103	
eb8_1     = -3.4890	tb1_1     =  0.1295	tb2_1     = -1.1105	tb3_1     =  1.7250	tb4_1     = -0.1061	
tb5_1     = -1.7251	tb6_1     = -0.1061	tb7_1     =  0.2516	tb8_1     = -2.2762	

CDMFT iteration 100, distance =  1.91e+02, diff param =  1.26e-01, diff hybrid =  3.40e-01
175 minimization steps, time(MIN)/time(ED)=0.00429
sb1_1     =  0.1410	sb2_1     = -0.0161	sb3_1     =  0.0164	sb4_1     = -0.2208	sb5_1     = -0.0164	
sb6_1     = -0.2208	sb7_1     =  0.1268	sb8_1     = -0.0161	eb1_1     = -0.1710	eb2_1     = -3.6915	
eb3_1     = -4.0825	eb4_1     = -0.2225	eb5_1     = -4.0823	eb6_1     = -0.2225	eb7_1     =  0.2420	
eb8_1     = -3.5335	tb1_1     = -0.1237	tb2_1     = -1.1502	tb3_1     =  1.7427	tb4_1     =  0.1126	
tb5_1     = -1.7427	tb6_1     =  0.1126	tb7_1     =  0.2942	tb8_1     = -2.2688	

CDMFT iteration 101, distance =  1.71e+02, diff param =  1.23e-01, diff hybrid =  3.40e-01
192 minimization steps, time(MIN)/time(ED)=0.00430
sb1_1     = -0.1105	sb2_1     =  0.0226	sb3_1     = -0.0227	sb4_1     = -0.1779	sb5_1     =  0.0227	
sb6_1     = -0.1779	sb7_1     = -0.0977	sb8_1     =  0.0190	eb1_1     = -0.0964	eb2_1     = -3.4038	
eb3_1     = -3.9344	eb4_1     = -0.1615	eb5_1     = -3.9340	eb6_1     = -0.1614	eb7_1     =  0.2102	
eb8_1     = -3.4898	tb1_1     = -0.1300	tb2_1     = -1.1136	tb3_1     =  1.7256	tb4_1     = -0.1061	
tb5_1     = -1.7255	tb6_1     = -0.1061	tb7_1     =  0.2516	tb8_1     = -2.2765	
Traceback (most recent call last):
  File "/home/theod/code_pyqcm/simulations/cdmft_fade_with_mu.py", line 137, in <module>
    fade(fade_func, initial_P, material_P, 20)
  File "/home/theod/.local/lib/python3.8/site-packages/pyqcm/loop.py", line 390, in fade
    F()
  File "/home/theod/code_pyqcm/simulations/cdmft_fade_with_mu.py", line 125, in fade_func
    cdmft(
  File "/home/theod/.local/lib/python3.8/site-packages/pyqcm/cdmft.py", line 514, in cdmft
    raise pyqcm.TooManyIterationsError(maxiter)
pyqcm.TooManyIterationsError: 100
