model	D	U	e	eb1_1	eb2_1	eb3_1	eb4_1	eb5_1	eb6_1	eb7_1	eb8_1	mu	sb1_1	sb2_1	sb3_1	sb4_1	sb5_1	sb6_1	sb7_1	sb8_1	tb1_1	tb2_1	tb3_1	tb4_1	tb5_1	tb6_1	tb7_1	tb8_1	tpd	tpp	tppp	ave_D_1	ave_U_1	ave_eb1_1	ave_eb2_1	ave_eb3_1	ave_eb4_1	ave_eb5_1	ave_eb6_1	ave_eb7_1	ave_eb8_1	ave_mu_1	ave_sb1_1	ave_sb2_1	ave_sb3_1	ave_sb4_1	ave_sb5_1	ave_sb6_1	ave_sb7_1	ave_sb8_1	ave_tb1_1	ave_tb2_1	ave_tb3_1	ave_tb4_1	ave_tb5_1	ave_tb6_1	ave_tb7_1	ave_tb8_1	var_D_1	var_U_1	var_eb1_1	var_eb2_1	var_eb3_1	var_eb4_1	var_eb5_1	var_eb6_1	var_eb7_1	var_eb8_1	var_mu_1	var_sb1_1	var_sb2_1	var_sb3_1	var_sb4_1	var_sb5_1	var_sb6_1	var_sb7_1	var_sb8_1	var_tb1_1	var_tb2_1	var_tb3_1	var_tb4_1	var_tb5_1	var_tb6_1	var_tb7_1	var_tb8_1	E0_1	sector_1	E0_2	sector_2	githash	distance	diff_param	diff_hybrid	time
2x2_2C_8b_C2v_L	0.1	14	1.79	0.067568316	-7.7565397	-8.9462485	-0.054341021	-8.9499186	-0.065673681	0.6300933	-9.9272982	13.5	-7.4851573e-07	0.00042497174	0.0046450702	-0.01567861	0.0046857636	0.017087767	0.0017096815	-0.00046201611	-1.3576477e-07	-0.74481281	1.1471343	-0.0042024344	-1.1474317	-0.0034399222	0.069664122	-1.5522561	1.27	0.63	0.15	-0.15076988	0.059547977	0	1.9763749	1.9505451	1.9997647	1.9505689	1.9997987	0.00015436981	1.9158356	1.0590996	4.0464722e-06	-0.00030996606	-0.13917204	0.020135744	-0.13912378	-0.020429731	-0.009000637	0.00035487624	1.3691107e-07	0.57026125	-0.86028381	0.049289507	0.86001791	0.044846508	-0.042466245	1.1782993	0.67908752	0.015709104	0	0.023541494	0.048888605	0.00025664035	0.048865631	0.00021638	0.00015497002	0.081934398	0.015670387	3.4424234	4.7292839	4.6045766	4.2613407	4.6049256	4.2610031	4.1255494	4.5133739	4.5575766	3.480545	3.7681486	3.7404222	3.7677164	3.7405128	3.8758684	4.0411334	-127.64603	R0:S0:1	-93.68	uncorrelated	51514b8	 6.54e+01	 0.00e+00	 1.00e+06	2022-04-11@05:47
2x2_2C_8b_C2v_L	0.1	14	1.79	0.067568316	-7.7565397	-8.9462485	-0.054341021	-8.9499186	-0.065673681	0.6300933	-9.9272982	13.52	-7.4851573e-07	0.00042497174	0.0046450702	-0.01567861	0.0046857636	0.017087767	0.0017096815	-0.00046201611	-1.3576477e-07	-0.74481281	1.1471343	-0.0042024344	-1.1474317	-0.0034399222	0.069664122	-1.5522561	1.27	0.63	0.15	-0.15341902	0.060031488	0	1.9762945	1.9504004	1.9997523	1.9504244	1.9997879	0.00015506902	1.915524	1.059582	4.1027874e-06	-0.00031078166	-0.14187822	0.020520621	-0.14182801	-0.02078745	-0.0091142883	0.00035522322	1.3795732e-07	0.57102419	-0.86119495	0.050568413	0.86092722	0.046060967	-0.04243717	1.1805847	0.67801435	0.015883508	0	0.023621662	0.049031231	0.00027016739	0.049008058	0.0002280048	0.00015569001	0.08222849	0.015844619	3.4399396	4.7323307	4.6077794	4.2645854	4.6081305	4.2642162	4.1262977	4.5150526	4.5600604	3.4784189	3.7657381	3.7372763	3.7653044	3.7373865	3.8751334	4.0413644	-127.73078	R0:S0:1	-93.84	uncorrelated	51514b8	 6.83e+01	 4.81e-04	 1.00e+06	2022-04-11@05:54
2x2_2C_8b_C2v_L	0.1	14	1.79	0.067568316	-7.7566502	-8.9464136	-0.054710981	-8.9500724	-0.066012162	0.63027824	-9.9273013	13.54	-7.4851573e-07	-0.00025669914	0.0046244227	-0.016281634	0.0045973005	0.01764811	0.0015005443	-0.00049144038	-1.3576477e-07	-0.74344169	1.1448562	-0.0042501042	-1.1453646	-0.0038462868	0.070628248	-1.5493819	1.27	0.63	0.15	-0.15646617	0.060399031	0	1.976275	1.9504487	1.9997195	1.9504256	1.9997381	0.00015921922	1.915505	1.0599503	4.1751199e-06	0.0002587151	-0.14464879	0.021678688	-0.14468783	-0.022319625	-0.0082297628	-7.7225763e-06	1.3739939e-07	0.57119341	-0.86038147	0.053211089	0.86066909	0.051276797	-0.04300408	1.1807793	0.67690459	0.016043506	0	0.02364132	0.048985817	0.0003072143	0.049008016	0.00028254745	0.00015987928	0.082247197	0.016005135	3.4391663	4.7332961	4.6099837	4.2686267	4.6094346	4.2672106	4.1267696	4.5149819	4.5608337	3.4778073	3.7629473	3.7334765	3.7635868	3.7347603	3.8747128	4.041868	-127.80997	R0:S0:1	-94	uncorrelated	51514b8	 7.15e+01	 0.00e+00	 1.00e+06	2022-04-11@05:59
2x2_2C_8b_C2v_L	0.1	14	1.79	0.067568316	-7.7567054	-8.9464961	-0.054895961	-8.9501493	-0.066181403	0.63037071	-9.9273029	13.56	-7.4851573e-07	-0.00059753458	0.004614099	-0.016583146	0.0045530689	0.017928282	0.0013959757	-0.00050615252	-1.3576477e-07	-0.74275612	1.1437172	-0.0042739392	-1.1443311	-0.0040494692	0.07111031	-1.5479448	1.27	0.63	0.15	-0.15949889	0.060859846	0	1.9762258	1.9504042	1.999693	1.9503572	1.9997018	0.00016180081	1.9153363	1.0604109	4.2423942e-06	0.0005526567	-0.14756489	0.022525838	-0.14765362	-0.023365799	-0.0078334633	-0.00020012769	1.3771364e-07	0.57163622	-0.86036655	0.055346458	0.86093617	0.054743889	-0.043273748	1.1820583	0.67571258	0.016225722	0	0.023690546	0.049031	0.00033689483	0.049076239	0.00032230504	0.0001624947	0.082406796	0.016187538	3.4373805	4.7354569	4.6128513	4.2726014	4.6118409	4.2706549	4.1274969	4.5157226	4.5626195	3.4762996	3.7601307	3.7297016	3.7613169	3.7315888	3.8740202	4.0423351	-127.892	R0:S0:1	-94.16	uncorrelated	51514b8	 7.49e+01	 1.68e-04	 1.00e+06	2022-04-11@06:05
2x2_2C_8b_C2v_L	0.1	14	1.79	0.067568316	-7.7568315	-8.9465171	-0.055502306	-8.9502221	-0.066743918	0.63066249	-9.9270396	13.58	-7.4851573e-07	0.00031101072	0.0050197897	-0.017280608	0.0050626314	0.01866326	0.0013248487	8.2423045e-05	-1.3576477e-07	-0.74138434	1.1437833	-0.0045867101	-1.143652	-0.0047556142	0.071454594	-1.54721	1.27	0.63	0.15	-0.16296005	0.061440562	0	1.9762318	1.9502394	1.9996244	1.9502955	1.9996065	0.0001640202	1.9150671	1.0609895	4.3087878e-06	-1.3451181e-05	-0.15132079	0.024372327	-0.1512267	-0.025763783	-0.0074596984	-0.00019784928	1.4027079e-07	0.57132188	-0.8614361	0.060583197	0.86090728	0.06288929	-0.043445692	1.1841605	0.67425705	0.016447255	0	0.023685088	0.04919319	0.00041352951	0.049138536	0.00042693754	0.00016474567	0.08266049	0.016409124	3.4344831	4.7383218	4.6159866	4.2767982	4.615971	4.2769484	4.129086	4.5164199	4.5655169	3.4736962	3.7576727	3.7260038	3.7573337	3.7260052	3.8724631	4.0433189	-127.97718	R0:S0:1	-94.32	uncorrelated	51514b8	 7.87e+01	 2.32e-04	 1.00e+06	2022-04-11@06:11
2x2_2C_8b_C2v_L	0.1	14	1.79	0.067568316	-7.7569632	-8.9466561	-0.056399019	-8.9503391	-0.067577915	0.63105814	-9.9267968	13.6	-7.4851573e-07	0.00083239854	0.0048242845	-0.01826529	0.0046908597	0.019543816	0.00068478917	-0.00092248493	-1.3576477e-07	-0.74037689	1.1421081	-0.0048908251	-1.1424213	-0.0054861533	0.072370957	-1.5446251	1.27	0.63	0.15	-0.16621961	0.061924241	0	1.9761939	1.950221	1.9995348	1.9502778	1.9994833	0.00016679702	1.9150112	1.0614737	4.389156e-06	-0.001078721	-0.15442077	0.026645189	-0.15415565	-0.028504834	-0.0035182782	0.0013326272	1.5019538e-07	0.57166698	-0.86125817	0.066518022	0.86057375	0.071839477	-0.043981313	1.184643	0.6729019	0.016644575	0	0.023723027	0.049212607	0.00051476974	0.049157986	0.00056267801	0.00016753178	0.082713893	0.016607004	3.4331859	4.7399356	4.6180254	4.2811173	4.6192502	4.2828861	4.1297857	4.5164338	4.5668141	3.4726343	3.7553216	3.7223284	3.7538782	3.7209706	3.8718099	4.0439592	-128.05977	R0:S0:1	-94.48	uncorrelated	51514b8	 8.27e+01	 3.55e-04	 1.00e+06	2022-04-11@06:17
2x2_2C_8b_C2v_L	0.1	14	1.79	0.067568316	-7.7571139	-8.9468353	-0.058846868	-8.9505089	-0.069882631	0.63196666	-9.9258294	13.62	-7.4851573e-07	-0.0012618774	0.004443173	-0.019074255	0.0041813549	0.020158026	0.00038340074	0.00028241266	-1.3576477e-07	-0.74112884	1.1405744	-0.0054609967	-1.1412116	-0.0062832013	0.072595432	-1.5444007	1.27	0.63	0.15	-0.1695436	0.062528095	0	1.9760666	1.9502785	1.9994201	1.9501835	1.9993397	0.00016886878	1.9147063	1.0620769	4.4546486e-06	0.001484256	-0.15721077	0.029209395	-0.157405	-0.031291241	-0.0026554655	-0.0013632751	1.3939384e-07	0.57295206	-0.8600269	0.074140944	0.86124157	0.081543013	-0.044108781	1.1868853	0.67147809	0.016873013	0	0.023849898	0.049159773	0.00064101671	0.049250861	0.00071825513	0.00016963333	0.083001967	0.016835552	3.4303027	4.7437264	4.622823	4.2889481	4.6201871	4.2859237	4.1306305	4.5180537	4.5696973	3.4702326	3.7500773	3.7153497	3.7529275	3.7189911	3.8709959	4.04433	-128.15115	R0:S0:1	-94.64	uncorrelated	51514b8	 8.69e+01	 4.11e-04	 1.00e+06	2022-04-11@06:23
2x2_2C_8b_C2v_L	0.1	14	1.79	0.067568316	-7.7575011	-8.9469554	-0.062784113	-8.9506835	-0.073580681	0.63330866	-9.9244957	13.64	-7.4851573e-07	0.00065321539	0.0050839923	-0.019416853	0.0051181242	0.020619191	-0.00039874353	0.00023872913	-1.3576477e-07	-0.73877594	1.1406588	-0.0061657809	-1.1407337	-0.0069985197	0.07325163	-1.542669	1.27	0.63	0.15	-0.17368869	0.063225219	0	1.976134	1.9500974	1.9992976	1.9501443	1.9992066	0.00017327132	1.9145024	1.062772	4.5331305e-06	-0.00049613214	-0.16186913	0.031702235	-0.16173427	-0.033921825	0.0024450596	0.000201828	1.5240006e-07	0.57188282	-0.86122946	0.082704709	0.8607579	0.090022479	-0.044464034	1.1886157	0.66961864	0.01714591	0	0.023783618	0.049337708	0.00077048589	0.049292108	0.00085900642	0.00017409332	0.083193895	0.017108686	3.427177	4.7464085	4.6257817	4.2934081	4.6260101	4.294452	4.1328434	4.5178112	4.572823	3.4673566	3.7476219	3.7118201	3.7470809	3.7114872	3.8688376	4.0459449	-128.24688	R0:S0:1	-94.8	uncorrelated	51514b8	 9.18e+01	 2.62e-04	 1.00e+06	2022-04-11@06:29
2x2_2C_8b_C2v_L	0.1	14	1.79	0.067568316	-7.7578916	-8.9472538	-0.067984043	-8.9509794	-0.078472124	0.63504106	-9.9227418	13.66	-7.4851573e-07	0.00067007549	0.0043455025	-0.020148391	0.0039526184	0.021259813	-0.0013988046	-7.2498237e-05	-1.3576477e-07	-0.73809925	1.1384583	-0.0066865238	-1.1390231	-0.0072431006	0.073969741	-1.5408108	1.27	0.63	0.15	-0.17705967	0.063779002	0	1.9760869	1.9501464	1.9991797	1.9501683	1.9991164	0.00018205282	1.91434	1.063326	4.615279e-06	-0.00090712589	-0.1647095	0.034255857	-0.16443302	-0.035977967	0.008588706	0.00086828115	1.6074478e-07	0.57225441	-0.86038222	0.090404366	0.86008805	0.095356715	-0.044873268	1.1898939	0.66816446	0.01737055	0	0.023830773	0.049292014	0.00089463426	0.049271282	0.0009525991	0.00018302556	0.083347346	0.017333586	3.4248981	4.7490519	4.6280282	4.2983099	4.6287684	4.2993352	4.1339184	4.5182422	4.5751019	3.4654075	3.7446488	3.7078237	3.7438498	3.7072995	3.867843	4.0467226	-128.34454	R0:S0:1	-94.96	uncorrelated	51514b8	 9.70e+01	 3.48e-04	 1.00e+06	2022-04-11@06:35
2x2_2C_8b_C2v_L	0.1	14	1.79	0.067568316	-7.7583633	-8.9474425	-0.07549899	-8.9512407	-0.085535542	0.63742467	-9.9201973	13.68	-7.4851573e-07	-0.00068815532	0.0050116956	-0.021395638	0.0052393369	0.02264385	-0.0019757642	0.00074122572	-1.3576477e-07	-0.73852434	1.1389565	-0.007345288	-1.1389875	-0.0074236464	0.074456353	-1.5397344	1.27	0.63	0.15	-0.18165931	0.064646627	0	1.9759815	1.9500134	1.9990138	1.9500326	1.9989968	0.00019014439	1.914081	1.0641924	4.6926415e-06	0.00058718418	-0.16960988	0.037886882	-0.16970313	-0.039062085	0.011663427	-0.00068219401	1.5752124e-07	0.57322964	-0.86075763	0.10009588	0.86064222	0.10161688	-0.045155725	1.1918954	0.66598629	0.017699389	0	0.023936099	0.049424715	0.0010692214	0.049405595	0.001078757	0.00019126112	0.083592292	0.017663126	3.4215133	4.7532276	4.6338231	4.3066381	4.6332728	4.3059085	4.1353691	4.5191292	4.5784867	3.4625642	3.7392234	3.7007569	3.7395596	3.7016091	3.8664725	4.0477429	-128.45562	R0:S0:1	-95.12	uncorrelated	51514b8	 1.03e+02	 3.08e-04	 1.00e+06	2022-04-11@06:41
2x2_2C_8b_C2v_L	0.1	14	1.79	0.067568316	-7.7590039	-8.9478638	-0.084887776	-8.9516626	-0.094354265	0.64033844	-9.9170857	13.7	-7.4851573e-07	-0.00069542456	0.0041617873	-0.023297406	0.0039196401	0.024481597	-0.002747115	0.00077617212	-1.3576477e-07	-0.73767463	1.1365408	-0.007594534	-1.1373855	-0.0070183193	0.075091304	-1.5382442	1.27	0.63	0.15	-0.18545047	0.065298711	0	1.9759555	1.9501038	1.9988665	1.9500471	1.9989392	0.00020273287	1.9138428	1.0648433	4.7783793e-06	0.00048301132	-0.17272553	0.041515786	-0.17281609	-0.041528285	0.01654181	-0.0005366173	1.6390627e-07	0.57326756	-0.8594273	0.10788945	0.86003703	0.10395499	-0.045490845	1.1937818	0.66429689	0.017964863	0	0.023962495	0.049339313	0.0012254323	0.049394331	0.0011392127	0.00020409685	0.083816852	0.017928922	3.4182889	4.7566607	4.6366682	4.3129187	4.636065	4.31065	4.1370301	4.519604	4.5817111	3.4597277	3.7353633	3.6955816	3.7362822	3.6972799	3.8649154	4.0488809	-128.56821	R0:S0:1	-95.28	uncorrelated	51514b8	 1.09e+02	 3.03e-04	 1.00e+06	2022-04-11@06:47
2x2_2C_8b_C2v_L	0.1	14	1.79	0.067568316	-7.7597945	-8.948147	-0.096567133	-8.9520537	-0.10531068	0.64386677	-9.9132878	13.72	-7.4851573e-07	2.1395219e-05	0.0047496422	-0.025372296	0.005113299	0.026770971	-0.0031120602	0.0014160848	-1.3576477e-07	-0.73626682	1.1373072	-0.0081511563	-1.1374637	-0.0071610193	0.075854253	-1.5365165	1.27	0.63	0.15	-0.19054165	0.066276376	0	1.9759729	1.9499243	1.9986409	1.9499592	1.9987737	0.00021395245	1.9135927	1.0658181	4.8671686e-06	-2.0726436e-05	-0.17830908	0.04637546	-0.17838694	-0.045865135	0.019096998	-0.00054945012	1.7049549e-07	0.57270174	-0.86025977	0.11885469	0.85986814	0.11162416	-0.045920803	1.1958887	0.66175448	0.018341514	0	0.023945992	0.049517149	0.0014619889	0.049483374	0.0013145456	0.00021552283	0.084052514	0.01830639	3.4140526	4.7608203	4.6419818	4.3211781	4.6425429	4.3202869	4.1396792	4.5194084	4.5859474	3.4559382	3.7304432	3.6889953	3.729801	3.6888576	3.8623707	4.0508609	-128.69277	R0:S0:1	-95.44	uncorrelated	51514b8	 1.17e+02	 2.27e-04	 1.00e+06	2022-04-11@06:53
2x2_2C_8b_C2v_L	0.1	14	1.79	0.067568316	-7.7607027	-8.9486343	-0.11063457	-8.9525928	-0.11851534	0.64802136	-9.9087148	13.74	-7.4851573e-07	0.00061759023	0.0043367732	-0.0281201	0.004460438	0.029372876	-0.0037749597	0.00032599953	-1.3576477e-07	-0.73505255	1.1358588	-0.0083895602	-1.1364557	-0.0071316807	0.076482745	-1.5354722	1.27	0.63	0.15	-0.19525849	0.067189612	0	1.9759865	1.94992	1.9984128	1.9499825	1.9986113	0.00023188964	1.9132547	1.066728	4.9576531e-06	-0.0015411191	-0.18284454	0.051575188	-0.18259712	-0.050281143	0.024159583	0.0015657338	1.8992924e-07	0.57212891	-0.85969665	0.12877814	0.85880373	0.11860071	-0.046273911	1.1986249	0.65943441	0.018700705	0	0.023933395	0.049524085	0.0017024182	0.049464701	0.0014854352	0.00023383241	0.08437054	0.018666112	3.4091814	4.7656128	4.6453701	4.3285031	4.6479876	4.3292483	4.1424626	4.5196569	4.5908186	3.4515537	3.726321	3.6833336	3.7237903	3.6810777	3.8597232	4.0527763	-128.8237	R0:S0:1	-95.6	uncorrelated	51514b8	 1.25e+02	 2.37e-04	 1.00e+06	2022-04-11@06:59
2x2_2C_8b_C2v_L	0.1	14	1.79	0.067568316	-7.7617253	-8.9491434	-0.12721961	-8.9531987	-0.13408513	0.65280077	-9.9034987	13.76	-1.4999863e-06	0.00084299047	0.0041667089	-0.03092045	0.0042755235	0.031939877	-0.0032061656	0.00202142	-1.6387059e-06	-0.73423347	1.1352586	-0.0087927808	-1.1358105	-0.0076246007	0.077569946	-1.5331114	1.27	0.63	0.15	-0.20038693	0.068211762	0	1.9759638	1.9499213	1.9981453	1.9499279	1.998343	0.00022852833	1.9130533	1.0677481	1.0140714e-05	-0.00044114607	-0.1877241	0.057316518	-0.18775605	-0.055993456	0.020209279	-0.00070119566	2.1324235e-06	0.57204228	-0.85869462	0.13963283	0.85854817	0.1303773	-0.046853861	1.2003759	0.65676318	0.019099554	0	0.023956725	0.049527093	0.0019799696	0.049521153	0.0017655685	0.000230328	0.084560618	0.019066108	3.4049774	4.7700378	4.6517402	4.3392936	4.6525006	4.3379054	4.1450566	4.5192542	4.5950226	3.4478632	3.7193545	3.6744972	3.7187664	3.6743733	3.8571591	4.0547987	-128.96356	R0:S0:1	-95.76	uncorrelated	51514b8	 1.34e+02	 5.96e-04	 1.00e+06	2022-04-11@07:05
2x2_2C_8b_C2v_L	0.1	14	1.79	0.067568316	-7.7627956	-8.9497986	-0.14828122	-8.9540029	-0.15387047	0.65841701	-9.8970244	13.78	-2.2514568e-06	-0.0023549381	0.0042676477	-0.0314564	0.0043893532	0.031646039	-0.0023043331	0.00033353484	-5.4768971e-06	-0.73609657	1.1351014	-0.010636604	-1.1351997	-0.011638429	0.078478654	-1.5321769	1.27	0.63	0.15	-0.2058659	0.069573349	0	1.9757846	1.9499292	1.9977476	1.9498893	1.9975522	0.00022419406	1.9126991	1.0691095	1.5417182e-05	0.001991816	-0.19308585	0.063451699	-0.19343391	-0.065434085	0.014141126	-0.0013657827	7.349587e-06	0.5736927	-0.8573309	0.15674129	0.85799838	0.1651115	-0.047400065	1.2031787	0.65353589	0.01958674	0	0.024135644	0.049524269	0.0023673775	0.049561518	0.0025647597	0.0002257903	0.084895084	0.019554104	3.3993438	4.7769768	4.6603228	4.3527258	4.6577921	4.3513609	4.1476296	4.5200123	4.6006562	3.4431117	3.7101007	3.6641671	3.7123803	3.6669279	3.8546124	4.0566187	-129.12345	R0:S0:1	-95.92	uncorrelated	51514b8	 1.44e+02	 7.21e-04	 1.00e+06	2022-04-11@07:11
2x2_2C_8b_C2v_L	0.1	14	1.79	0.067568316	-7.7642926	-8.9507497	-0.17274491	-8.9550819	-0.1768367	0.6647902	-9.8895852	13.8	-3.2534176e-06	0.0014690543	0.0030605314	-0.034524982	0.0021409869	0.034081887	-0.00015476769	-0.00027141355	-1.5154931e-05	-0.7320547	1.1326354	-0.01279126	-1.1328881	-0.015367125	0.079349621	-1.5305862	1.27	0.63	0.15	-0.21144369	0.070986683	1.9901729e-10	1.97601	1.9500763	1.996963	1.9501228	1.9964021	0.00021933817	1.912279	1.0705172	2.2865897e-05	-0.001390444	-0.1980991	0.074617316	-0.1974763	-0.078766768	0.0014930911	0.0011538653	2.1521242e-05	0.57030727	-0.8550264	0.18317273	0.85466784	0.20264835	-0.047820176	1.2069563	0.65007432	0.020102378	1.9901729e-10	0.0239132	0.049385006	0.0031715162	0.049339368	0.0037415626	0.00022072154	0.085287906	0.020070134	3.3909347	4.7837627	4.6657483	4.3676456	4.6650225	4.3715037	4.1538228	4.5179658	4.6090653	3.4351505	3.7026076	3.6550098	3.7026791	3.6554955	3.8484297	4.0610105	-129.28892	R0:S0:1	-96.08	uncorrelated	51514b8	 1.58e+02	 8.04e-04	 1.00e+06	2022-04-11@07:17
2x2_2C_8b_C2v_L	0.1	14	1.79	0.067568316	-7.7656859	-8.9518115	-0.20234805	-8.9563364	-0.20476296	0.67200921	-9.8807473	13.82	-9.4781429e-06	-0.0015292508	0.0028326439	-0.039243703	0.0027581644	0.038907945	0.0028286285	-0.00040426317	-7.2542319e-05	-0.73426612	1.1339442	-0.015284356	-1.1338314	-0.015767029	0.080441836	-1.5281884	1.27	0.63	0.15	-0.21802528	0.07271273	4.3726566e-09	1.9758089	1.950018	1.9959382	1.9499974	1.9958375	0.00025261933	1.91203	1.0722405	6.5483655e-05	0.0022718137	-0.20454275	0.088212947	-0.20486867	-0.088753717	-0.019383388	-0.0019564782	0.00010777211	0.57214258	-0.85395548	0.21312051	0.85447019	0.21672552	-0.048543549	1.2091021	0.64589264	0.020717568	4.3726591e-09	0.024114057	0.049447681	0.0042281833	0.049466212	0.0043251997	0.00025466461	0.085523781	0.020687901	3.3844958	4.7917004	4.6762046	4.3889567	4.6734544	4.3866659	4.1568829	4.5176377	4.6155043	3.4297539	3.6913396	3.6410898	3.6937436	3.6441086	3.8456306	4.0635478	-129.48165	R0:S0:1	-96.24	uncorrelated	51514b8	 1.72e+02	 6.13e-04	 1.00e+06	2022-04-11@07:22
2x2_2C_8b_C2v_L	0.1	14	1.79	0.067568316	-7.7675289	-8.9533346	-0.23652533	-8.9579734	-0.23694963	0.68000857	-9.8705952	13.84	-1.6495906e-05	0.0014720794	0.0019709733	-0.041744037	0.0023890171	0.042182768	0.0056324054	-0.0019255415	-0.0002496992	-0.73027248	1.1327071	-0.015865238	-1.1337275	-0.014885888	0.081049201	-1.5267567	1.27	0.63	0.15	-0.22438887	0.074090659	5.0792916e-08	1.976038	1.9500519	1.9956827	1.9500228	1.9959282	0.00031644254	1.9115457	1.0736118	0.00011769056	-0.001049987	-0.21070044	0.093764731	-0.2107724	-0.092109286	-0.036925203	0.001238853	0.00038404502	0.56869594	-0.85273207	0.22208613	0.85291338	0.21448047	-0.048694428	1.2132929	0.64239506	0.021269231	5.0793266e-08	0.02388808	0.049419378	0.0044661538	0.049448114	0.0042169679	0.00031994126	0.085977159	0.021240088	3.3758352	4.7987645	4.6811597	4.3981108	4.6820096	4.3968765	4.1628132	4.5162863	4.6241658	3.4215991	3.6849963	3.6336922	3.6846093	3.6331626	3.8401163	4.0677812	-129.68549	R0:S0:1	-96.4	uncorrelated	51514b8	 1.92e+02	 5.27e-04	 1.00e+06	2022-04-11@07:26
2x2_2C_8b_C2v_L	0.1	14	1.79	0.067568316	-7.7692511	-8.9551523	-0.27547608	-8.9600482	-0.27372256	0.68877667	-9.8590191	13.86	-1.2338656e-05	-0.00081046182	0.0028527856	-0.04443227	0.0031881055	0.045485231	0.0079424427	-0.0029599784	-0.0008129392	-0.73235337	1.1331758	-0.0166247	-1.1332927	-0.013860136	0.081871238	-1.5249909	1.27	0.63	0.15	-0.23185131	0.0757934	5.5117485e-07	1.9758593	1.9499869	1.9954315	1.9500519	1.9960628	0.00041435514	1.9111713	1.0753121	6.9481872e-05	0.00090842033	-0.21856573	0.099621875	-0.21860611	-0.095392083	-0.053279481	0.00026055117	0.0012942813	0.57018604	-0.85198461	0.23048003	0.8512311	0.21106771	-0.049242415	1.216344	0.63815268	0.021932115	5.5121702e-07	0.024066995	0.049488067	0.0047005874	0.049425959	0.0040635134	0.00042005287	0.086330745	0.021904936	3.3684756	4.8075049	4.6891833	4.4102399	4.6906254	4.4074739	4.1660866	4.51666	4.6315349	3.4153867	3.6760521	3.6231689	3.6748072	3.6213029	3.8374816	4.0704367	-129.91153	R0:S0:1	-96.56	uncorrelated	51514b8	 2.12e+02	 5.67e-03	 1.00e+06	2022-04-11@07:30
2x2_2C_8b_C2v_L	0.1	14	1.79	0.071618646	-7.7694322	-8.9575698	-0.2785838	-8.9623961	-0.27718617	0.68781603	-9.8564652	13.86	4.5857844e-05	0.00015553151	0.0021503304	-0.044918125	0.0022980131	0.045143309	-0.0039376699	0.0013051344	-0.024197107	-0.73279457	1.1328644	-0.016648625	-1.133371	-0.015998611	0.081992027	-1.5245278	1.27	0.63	0.15	-0.23211295	0.076060735	0.00053238739	1.9758398	1.9500826	1.995246	1.95012	1.9953988	0.00028293164	1.9111445	1.0755754	0.0001590441	-0.00071356326	-0.21851643	0.10166315	-0.21839427	-0.10071707	0.026681	0.00033598916	0.03920852	0.57031448	-0.85090534	0.23228892	0.85040963	0.2277244	-0.049222988	1.2166919	0.6375221	0.022003076	0.00056364784	0.024086435	0.049395822	0.0048881047	0.04936	0.004734854	0.00028558139	0.086355434	0.021977449	3.3682041	4.8087093	4.69054	4.4134491	4.6918274	4.4138732	4.1675154	4.5158093	4.6412007	3.4142457	3.6740703	3.6214732	3.6728377	3.6198826	3.8352591	4.0714014	-129.92936	R0:S0:1	-96.56	uncorrelated	51514b8	 2.22e+02	 0.00e+00	 2.90e-03	2022-04-11@07:34
2x2_2C_8b_C2v_L	0.1	14	1.79	0.079719305	-7.7717314	-8.964495	-0.32825713	-8.9694363	-0.32515018	0.69546767	-9.8385231	13.88	0.00016431933	0.00068548589	0.0014844019	-0.048686696	0.0014563994	0.048311469	-0.024814679	0.0084586245	-0.071586121	-0.73478515	1.1326688	-0.017167417	-1.1334568	-0.018063675	0.082954391	-1.5218564	1.27	0.63	0.15	-0.24557905	0.081208336	0.009229313	1.9758574	1.9504719	1.9936218	1.9505396	1.9934186	0.0021677879	1.9104198	1.0806802	0.0079597586	-0.0037273527	-0.23199881	0.12224531	-0.23130503	-0.1233985	0.17393695	0.0015725093	0.14462796	0.56750996	-0.8436472	0.25065939	0.84274846	0.25633246	-0.050630207	1.2239074	0.62570139	0.02371036	0.012213304	0.02407153	0.049030751	0.0065043184	0.048965712	0.006709963	0.0022118868	0.087024902	0.023699115	3.35819	4.8375596	4.7137299	4.4544027	4.7160613	4.458485	4.1812159	4.5063745	4.7560866	3.3856014	3.6461405	3.5931815	3.6437193	3.5903827	3.832735	4.0826584	-130.21283	R0:S0:1	-96.72	uncorrelated	51514b8	 2.41e+02	 2.28e-02	 1.00e+06	2022-04-11@07:37
2x2_2C_8b_C2v_L	0.1	14	1.79	0.10938982	-7.7724193	-8.9667228	-0.3237485	-8.971621	-0.32080251	0.69297518	-9.8367418	13.88	0.00012262838	4.8681584e-05	0.00032268779	-0.050108261	0.00051574926	0.050222043	0.0019941455	-0.00065875559	0.031877852	-0.73402223	1.1331451	-0.021843289	-1.133552	-0.02131332	0.084389699	-1.5226887	1.27	0.63	0.15	-0.24029921	0.078968283	0.00093399669	1.9757759	1.9503257	1.9931315	1.9503398	1.9932438	0.00027052851	1.9105153	1.0784719	-0.00066902603	9.5729527e-05	-0.22580639	0.1244292	-0.22584256	-0.12377722	-0.013621228	6.8005967e-05	-0.053810355	0.56984947	-0.84635799	0.27991638	0.84621714	0.27702085	-0.050604038	1.2222202	0.63095636	0.022964612	0.00098558661	0.024152112	0.049167277	0.0070280815	0.049153555	0.0069186844	0.00027265794	0.086945286	0.022943081	3.3563946	4.8232876	4.7051138	4.4485078	4.7052381	4.448092	4.1762461	4.5135264	4.6592235	3.401457	3.6559794	3.6014436	3.6558567	3.6010796	3.8265583	4.0776732	-130.19892	R0:S0:1	-96.72	uncorrelated	51514b8	 2.62e+02	 1.00e-03	 1.85e-02	2022-04-11@07:41
2x2_2C_8b_C2v_L	0.1	14	1.79	0.11084183	-7.7725253	-8.9669679	-0.3238367	-8.9718758	-0.3209043	0.69287186	-9.836639	13.88	1.1197232e-05	-1.125531e-05	0.0012996922	-0.048312507	0.00142709	0.048262023	0.0016055269	-0.00057715833	0.029817324	-0.73349294	1.1328427	-0.019906919	-1.1331515	-0.019658854	0.083266532	-1.5220683	1.27	0.63	0.15	-0.23998133	0.07842677	0.00076212604	1.9757877	1.9502745	1.9941153	1.950294	1.9941523	0.00025769388	1.9106178	1.077935	9.7018144e-05	0.00013450648	-0.22580568	0.11568238	-0.22581866	-0.11539019	-0.010976285	3.2468498e-05	-0.049175613	0.56996015	-0.84722412	0.26012164	0.84706118	0.25901789	-0.04991392	1.2212725	0.63196177	0.022836993	0.00079959092	0.02414002	0.049216276	0.0060175168	0.049197193	0.0059825338	0.00025962554	0.086850012	0.022814175	3.3586509	4.82041	4.7024688	4.4378188	4.7023402	4.4376717	4.1744485	4.514341	4.6544138	3.4041279	3.6593937	3.6050806	3.6594091	3.6049954	3.8282448	4.0765035	-130.19747	R0:S0:1	-96.72	uncorrelated	51514b8	 2.57e+02	 0.00e+00	 8.93e-04	2022-04-11@07:44
2x2_2C_8b_C2v_L	0.1	14	1.79	0.18523785	-7.7767241	-8.9815689	-0.37249519	-8.9864905	-0.36832258	0.69516811	-9.8110236	13.9	-0.00011611677	-0.00054414335	1.7054236e-05	-0.051687645	8.850267e-05	0.051193612	0.021799356	-0.0074142184	0.16167108	-0.73413857	1.1330058	-0.025517259	-1.1327816	-0.025937808	0.084921901	-1.5193641	1.27	0.63	0.15	-0.28539187	0.10844087	0.089484678	1.9769858	1.9535488	1.9814697	1.9535625	1.9802522	0.0023059664	1.9073043	1.1077417	0.027268751	0.0067761311	-0.27014352	0.24767735	-0.27225474	-0.25661994	-0.1760637	-0.0067368546	-0.54706905	0.54161212	-0.79419269	0.35652634	0.79360821	0.36710913	-0.049992259	1.2607507	0.5632028	0.031383767	0.11758439	0.022952544	0.046094001	0.018558293	0.046079424	0.01975551	0.002353663	0.089887576	0.031443422	3.5707784	4.9664602	4.8604531	4.6985137	4.8626378	4.7069228	4.2910403	4.4346708	5.2389156	3.2387727	3.4747672	3.4400857	3.4708964	3.4395259	3.7230762	4.1637702	-130.52291	R0:S0:1	-96.88	uncorrelated	51514b8	 1.40e+02	 1.16e-01	 1.00e+06	2022-04-11@07:48
