model	E_kin	D	U	e	eb1_1	eb2_1	eb3_1	eb4_1	eb5_1	eb6_1	eb7_1	eb8_1	mu	sb1_1	sb2_1	sb3_1	sb4_1	sb5_1	sb6_1	sb7_1	sb8_1	tb1_1	tb2_1	tb3_1	tb4_1	tb5_1	tb6_1	tb7_1	tb8_1	tpd	tpp	tppp	ave_D	ave_e	ave_mu	ave_tpd	ave_tpp	ave_tppp	ave_D_1	ave_U_1	ave_eb1_1	ave_eb2_1	ave_eb3_1	ave_eb4_1	ave_eb5_1	ave_eb6_1	ave_eb7_1	ave_eb8_1	ave_mu_1	ave_sb1_1	ave_sb2_1	ave_sb3_1	ave_sb4_1	ave_sb5_1	ave_sb6_1	ave_sb7_1	ave_sb8_1	ave_tb1_1	ave_tb2_1	ave_tb3_1	ave_tb4_1	ave_tb5_1	ave_tb6_1	ave_tb7_1	ave_tb8_1	var_D_1	var_U_1	var_eb1_1	var_eb2_1	var_eb3_1	var_eb4_1	var_eb5_1	var_eb6_1	var_eb7_1	var_eb8_1	var_mu_1	var_sb1_1	var_sb2_1	var_sb3_1	var_sb4_1	var_sb5_1	var_sb6_1	var_sb7_1	var_sb8_1	var_tb1_1	var_tb2_1	var_tb3_1	var_tb4_1	var_tb5_1	var_tb6_1	var_tb7_1	var_tb8_1	E0_1	sector_1	E0_2	sector_2	githash	iterations	dist_function	distance	diff_hybrid	time
2x2_2C_8b_C2v_L	3.7205904	0.1	14	1.24	0.059267122	-6.0524281	-6.9654484	-0.041300284	-6.9654536	-0.041236528	0.039452768	-6.4126768	9.5	0.0017789269	1.3080373e-05	0.0017993348	-0.00058615538	0.0018003111	-0.00059465869	-0.0069838546	-2.5577453e-05	8.5270586e-05	-0.83482451	1.2792786	0.0010103391	-1.2792793	-0.0009686157	-0.00025561752	-1.5940373	1.32	0.617	0.159	-0.021034199	1.317921	1.6665107	-0.28275652	-0.034281691	0.015526068	-0.04669097	0.047455376	3.9241244e-07	1.9810356	1.9565204	1.9999998	1.9565209	1.9999998	8.1448892e-06	1.9186125	1.0469561	-0.0023300058	-1.4757799e-05	-0.043921952	0.00062692804	-0.043922711	0.00064118343	0.011584452	2.0421456e-05	-0.00013122437	0.51313615	-0.81540644	-0.0014713429	0.81539798	0.0014076236	0.00024147872	1.1589935	0.70795316	0.01139231	3.924133e-07	0.018906114	0.043021033	1.7950663e-07	0.043020497	1.6885213e-07	8.1455954e-06	0.079294736	0.011374997	3.4715513	4.6664658	4.5000375	4.1748695	4.5000622	4.1748996	4.1269151	4.4875197	4.5284522	3.4996492	3.8355965	3.8251319	3.8355705	3.8251018	3.8731382	4.0432619	-93.222552	R0:S0:1	-66.08	uncorrelated	51514b8	2	sharp_wc_2.0_b_50	 9.45e-01	 2.93e-02	2022-04-08@19:25
2x2_2C_8b_C2v_L	3.720492	0.1	14	1.24	0.059282482	-6.3689686	-7.27129	-0.042211233	-7.2711596	-0.041977531	0.047786927	-6.8943266	10	0.00010454682	-9.3107805e-06	0.0019528338	9.2117709e-05	0.001956349	-2.9138513e-05	-0.0043696907	4.9399898e-05	2.2568015e-05	-0.82823753	1.2641067	-0.0004812872	-1.2641394	0.0010199921	4.39314e-05	-1.5923351	1.32	0.617	0.159	-0.021783792	1.3179233	1.6665348	-0.28272953	-0.034274888	0.015522773	-0.04842253	0.047808833	1.7152518e-09	1.9807147	1.9561456	2	1.9561392	1.9999998	3.9184726e-06	1.9185583	1.0473266	-0.00015116776	2.0371261e-05	-0.044431206	-5.7231387e-05	-0.044433648	0.00013163746	0.0080383733	-4.1451216e-05	-3.1520457e-05	0.51743538	-0.81867261	0.00079667705	0.81875074	-0.0017103525	-3.866753e-05	1.1592527	0.70741822	0.011487197	1.7152518e-09	0.019224934	0.043387459	4.2293644e-08	0.043393653	1.9211363e-07	3.9185461e-06	0.07934501	0.011462363	3.4711464	4.6691489	4.5049106	4.1771796	4.5047929	4.1770089	4.1258114	4.4889609	4.5288536	3.4997105	3.8335304	3.8228207	3.8336781	3.8229926	3.8742141	4.0423114	-98.03749	R0:S0:1	-70.08	uncorrelated	51514b8	1	sharp_wc_2.0_b_50	 1.31e+00	 5.00e-02	2022-04-08@19:31
2x2_2C_8b_C2v_L	3.7203941	0.1	14	1.24	0.059298554	-6.6885908	-7.5801955	-0.043122127	-7.5799443	-0.042718	0.056116739	-7.3759214	10.5	0.001349388	8.3540943e-07	0.0019458177	-3.6654746e-05	0.0019444731	-7.1443305e-05	-0.0017170505	-5.639756e-05	1.9283183e-05	-0.82211749	1.2503459	0.00065169696	-1.2503416	-0.0010934798	0.00039449709	-1.590687	1.32	0.617	0.159	-0.022949505	1.3179271	1.6665911	-0.28267316	-0.034265966	0.015518037	-0.051071597	0.04823215	3.41746e-07	1.9803693	1.9556881	1.9999999	1.9556869	1.9999997	7.7070873e-07	1.9184978	1.047764	-0.0021775697	-1.0737819e-05	-0.045957073	-3.2325899e-05	-0.045958091	-4.386713e-05	0.003545486	3.5748469e-05	-2.4792695e-05	0.52202099	-0.82265541	-0.0012207898	0.82266366	0.0020474592	-0.00032759658	1.1595339	0.70670752	0.011603689	3.4174638e-07	0.019568215	0.04383498	9.8039619e-08	0.043836102	2.7575817e-07	7.7073786e-07	0.079401969	0.011572902	3.4707045	4.6720487	4.510541	4.1797642	4.5105694	4.1797866	4.1246209	4.4905401	4.5292985	3.4997768	3.8312431	3.8202366	3.8312244	3.8202155	3.8753841	4.0413245	-102.87328	R0:S0:1	-74.08	uncorrelated	51514b8	1	sharp_wc_2.0_b_50	 2.04e+00	 1.10e-03	2022-04-08@19:37
2x2_2C_8b_C2v_L	3.7203914	0.1	14	1.24	0.059325536	-7.0120605	-7.8931378	-0.04403399	-7.8927864	-0.043476951	0.064445508	-7.8572544	11	0.0010507101	7.2568733e-06	0.0021191179	-0.0004430868	0.0021178606	-0.00022687073	0.0010214956	-5.7402011e-05	2.5908298e-05	-0.81730747	1.238745	0.0015051955	-1.2387354	-0.0018167353	0.00092252542	-1.5893216	1.32	0.617	0.159	-0.024672753	1.3179348	1.6667075	-0.28255673	-0.034250422	0.015509593	-0.054980679	0.048779049	2.6525776e-07	1.9799607	1.9551109	1.9999993	1.9551093	1.999999	3.9063563e-07	1.9184157	1.0483226	-0.0019180735	-1.419193e-05	-0.048969166	0.00024120838	-0.048970021	-1.0203863e-05	-0.0024034148	3.6188612e-05	-3.0743371e-05	0.52739203	-0.82761718	-0.0031667452	0.82763038	0.0038621193	-0.00072378449	1.1599222	0.70572052	0.011757659	2.6525795e-07	0.019974274	0.044399777	6.7306898e-07	0.044401388	9.8537511e-07	3.9070136e-07	0.07948027	0.011722289	3.4702029	4.6754628	4.5177398	4.1832453	4.517768	4.1832657	4.1231398	4.4925614	4.5297994	3.4998823	3.8281959	3.8167599	3.8281806	3.816742	3.8768628	4.0401307	-107.73706	R0:S0:1	-78.08	uncorrelated	51514b8	1	sharp_wc_2.0_b_50	 3.30e+00	 3.48e-04	2022-04-08@19:43
2x2_2C_8b_C2v_L	3.7204163	0.1	14	1.24	0.059363427	-7.339541	-8.2102417	-0.044946822	-8.2098155	-0.044254369	0.072773522	-8.3383407	11.5	-0.00080104377	1.7325284e-05	0.0023909847	-0.0011298813	0.0023904862	-0.00049481827	0.0038837741	4.809098e-06	4.0940219e-05	-0.81346321	1.2289746	0.0020982933	-1.2289387	-0.001190791	0.0016283891	-1.5881238	1.32	0.617	0.159	-0.027170557	1.3179462	1.6668871	-0.28238046	-0.034228984	0.015497501	-0.060633375	0.049464998	2.045307e-07	1.9795025	1.9544314	1.9999982	1.9544311	1.9999994	6.9579125e-06	1.9183198	1.0490187	0.0016831018	-7.3299217e-06	-0.053809895	0.00070719773	-0.05380861	0.00026658428	-0.010619168	-1.408419e-06	-4.5498755e-05	0.53334162	-0.83337044	-0.0050403772	0.83337088	0.0028845268	-0.0012129128	1.1603816	0.70438117	0.011959358	2.0453083e-07	0.020429521	0.04506484	1.7539612e-06	0.045065191	5.6493406e-07	6.9616738e-06	0.079572288	0.011920403	3.4695758	4.6793645	4.5263761	4.1876754	4.5264025	4.1876999	4.121493	4.4948677	4.530426	3.4999527	3.824356	3.8123384	3.8243352	3.8123045	3.8785517	4.038852	-112.62894	R0:S0:1	-82.08	uncorrelated	51514b8	0	sharp_wc_2.0_b_50	 5.45e+00	 1.00e+06	2022-04-08@19:47
2x2_2C_8b_C2v_L	3.7201795	0.1	14	1.24	0.059414596	-7.6723874	-8.5335662	-0.045863209	-8.5330838	-0.045051146	0.081135962	-8.8181478	12	0.0010444308	-1.0026335e-06	0.0027023741	-0.00056330984	0.0027083268	-0.00035745811	0.0067752952	-0.00015943057	1.3673325e-05	-0.80899386	1.2194218	-0.00040963787	-1.2193866	-6.3108343e-05	0.0039046075	-1.5865846	1.32	0.617	0.159	-0.030862292	1.3179587	1.6671089	-0.28218015	-0.034209005	0.015484649	-0.068987205	0.050271773	4.8344245e-07	1.9790791	1.9537727	1.9999999	1.9537733	2	3.0364202e-05	1.9182242	1.0498337	-0.0025851399	-1.5380023e-05	-0.061232029	0.00058090369	-0.061233178	0.00029960452	-0.022120168	8.699973e-05	-1.3257907e-05	0.53874478	-0.83877541	0.0013369555	0.83875979	0.00011118825	-0.0027727286	1.1608997	0.70259655	0.012219369	4.8344286e-07	0.020850296	0.045709988	1.3631079e-07	0.045709442	7.6918836e-09	3.0451007e-05	0.079664311	0.01217745	3.4685577	4.6834295	4.5354476	4.1930593	4.5355315	4.1931496	4.1202822	4.496837	4.5314466	3.4996442	3.8197714	3.8069417	3.819692	3.8068505	3.8799115	4.0379997	-117.55382	R0:S0:1	-86.08	uncorrelated	51514b8	1	sharp_wc_2.0_b_50	 9.21e+00	 2.29e-04	2022-04-08@19:54
2x2_2C_8b_C2v_L	3.7198234	0.1	14	1.24	0.059495397	-8.0115382	-8.8646962	-0.046762437	-8.8641596	-0.045864884	0.090072152	-9.294397	12.5	-0.0023524514	2.6397449e-06	0.0031955254	-5.3790473e-05	0.0031886953	-5.5446133e-05	0.005622876	-0.00029569771	-2.379862e-05	-0.80573821	1.2117369	0.0018801989	-1.2116543	-0.00023006783	0.013757702	-1.5853162	1.32	0.617	0.159	-0.036593534	1.3179781	1.6674764	-0.28186474	-0.034181396	0.015465401	-0.081956065	0.051425425	3.7625255e-06	1.9786054	1.9530563	1.9999968	1.9530616	2	3.9361762e-05	1.9180495	1.0509936	0.0070970917	-4.2988703e-06	-0.073116961	-0.00054572046	-0.073105488	-2.5297049e-05	-0.022799108	0.00013025081	1.4375665e-05	0.54466518	-0.84436633	-0.0069084123	0.84430086	0.00083027221	-0.0093531813	1.1620192	0.69978615	0.012623312	3.7625455e-06	0.021321097	0.046412416	3.1988651e-06	0.046407347	4.6334469e-08	4.041625e-05	0.079832012	0.012579371	3.4667577	4.6886784	4.5466666	4.2009791	4.5467868	4.2011242	4.1194283	4.4992563	4.533276	3.4987304	3.8131424	3.7990462	3.8130041	3.7988762	3.8808222	4.03746	-122.5201	R0:S0:1	-90.08	uncorrelated	51514b8	1	sharp_wc_2.0_b_50	 1.63e+01	 6.51e-04	2022-04-08@20:03
2x2_2C_8b_C2v_L	3.7190373	0.1	14	1.24	0.05966908	-8.3577354	-9.2046901	-0.047588494	-9.2040527	-0.046690824	0.10432293	-9.7639775	13	0.0019219282	1.1394794e-05	0.0039103476	0.0030742168	0.0038339173	0.0016453925	-0.00016474665	5.2774943e-06	-9.0401783e-05	-0.80218202	1.2051776	-0.0001852131	-1.2050549	-0.00081793067	0.020571488	-1.5840658	1.32	0.617	0.159	-0.046341581	1.3180078	1.6681383	-0.28136338	-0.034151524	0.015438323	-0.10404037	0.053320442	4.2180251e-06	1.9781776	1.9523889	1.9999996	1.9523979	1.9999983	1.4478499e-05	1.9177283	1.0528922	-0.007415691	-2.2618904e-05	-0.093592033	-0.0024561137	-0.093554424	-0.0017999959	0.00088169826	2.1857207e-05	8.5402013e-05	0.54972926	-0.84881818	-0.0007274954	0.84871371	0.0048391116	-0.013428933	1.1644792	0.69459702	0.013363005	4.2180549e-06	0.021746883	0.047069749	4.3625363e-07	0.047061101	1.7244494e-06	1.4551091e-05	0.080138788	0.013317483	3.4623228	4.6963222	4.5613856	4.2145705	4.5615297	4.2148157	4.12077	4.5011658	4.5377153	3.4954676	3.8019544	3.7854331	3.8017706	3.7851979	3.8793375	4.0387969	-127.52582	R0:S0:1	-94.08	uncorrelated	51514b8	1	sharp_wc_2.0_b_50	 3.15e+01	 2.34e-03	2022-04-08@20:12
2x2_2C_8b_C2v_L	3.7179038	0.1	14	1.24	0.1500244	-8.7120079	-9.5526854	-0.21309662	-9.552007	-0.21209519	0.42938912	-10.08663	13.5	0.00060219539	0.00020453483	0.003577359	0.027877135	0.0038293644	0.029583503	2.5891321e-05	-0.00010380877	-0.022409668	-0.80059929	1.2008706	0.0092667586	-1.2013857	-0.0071920267	0.054430439	-1.5763802	1.32	0.617	0.159	-0.066290323	1.3180716	1.6700209	-0.2802041	-0.034126787	0.015391216	-0.14944661	0.058539776	6.5891017e-05	1.9777681	1.9519338	1.999411	1.9518837	1.9995305	9.6568849e-05	1.9157437	1.0580844	-0.0030021106	-0.00015779294	-0.1355699	-0.034639483	-0.13574597	-0.034149478	-0.00015872227	0.00012830515	0.02228311	0.5532125	-0.84873808	-0.08536868	0.84918701	0.074411583	-0.033472526	1.1796908	0.68054961	0.015459133	6.6819608e-05	0.022156856	0.047530692	0.00060168529	0.047579679	0.00048116356	9.7049084e-05	0.082017623	0.015419841	3.4424653	4.7195831	4.5905439	4.2573789	4.5908719	4.2563315	4.1303551	4.509157	4.5585212	3.4781825	3.772358	3.7469582	3.7724439	3.747079	3.8705399	4.0448703	-132.96116	R0:S0:1	-98.08	uncorrelated	51514b8	1	sharp_wc_2.0_b_50	 7.57e+01	 4.96e-03	2022-04-08@20:20
2x2_2C_8b_C2v_L	3.7245889	0.1	14	1.24	0.33151634	-9.0743325	-9.9090973	-0.54084755	-9.9085456	-0.540285	1.0652894	-10.261218	14	-0.00020696832	1.6600359e-05	-0.0044821397	0.069450247	-0.0040169051	0.069431666	0.002581865	-0.0012474042	-0.058239785	-0.80632733	1.2041992	0.033915207	-1.2043462	-0.032115872	0.10387763	-1.5688058	1.32	0.617	0.159	-0.12837681	1.3183916	1.6834285	-0.27401975	-0.03430131	0.015293412	-0.29366517	0.094323765	0.0028750072	1.9781325	1.9543044	1.9867208	1.9543393	1.9874579	0.00032483898	1.9091144	1.0937575	0.001758491	-0.00072031264	-0.26850881	-0.20553645	-0.26831002	-0.20117879	-0.014267492	0.001200466	0.1117705	0.5340509	-0.79909688	-0.38815124	0.79845234	0.37555239	-0.057616815	1.2422339	0.59237753	0.028779898	0.0029640378	0.021820317	0.045320655	0.0134105	0.045288218	0.012674056	0.00032628429	0.088243602	0.028778186	3.2831351	4.8972718	4.7642665	4.5953754	4.7672711	4.5937792	4.2489752	4.4657947	4.7634431	3.3145115	3.5597339	3.4968798	3.5574079	3.4936243	3.7544336	4.1358567	-138.86993	R0:S0:1	-102.08	uncorrelated	51514b8	1	sharp_wc_2.0_b_50	 6.97e+02	 8.53e-03	2022-04-08@20:26
2x2_2C_8b_C2v_L	4.083988	0.1	14	1.24	0.22129792	-9.4050548	-10.278604	-0.068541588	-10.277355	-0.066932748	1.6714095	-10.305876	14.5	-0.0027779103	0.001114264	-0.001192481	0.039038231	-0.0011346377	0.038777927	0.20414529	0.00029645553	0.063599633	-0.8205548	1.1982823	0.051077246	-1.19822	-0.050858954	-0.00037917292	-1.4674717	1.32	0.617	0.159	-0.18482403	1.3231658	1.825742	-0.18576931	-0.028849819	0.013220265	-0.30321754	0.39880328	0.048067053	1.9915301	1.9798369	1.8324936	1.9799312	1.8291049	0.068445586	1.8977953	1.3984301	0.012904039	0.00062864106	-0.26832676	-1.2584011	-0.26822064	-1.2645749	-1.1833222	-0.0037873725	-0.89434273	0.20410361	-0.36137819	-0.71026988	0.35957823	0.71721557	-0.0030746076	1.4526695	0.34310901	0.047603917	0.047142015	0.0085428457	0.020351287	0.18864197	0.02025435	0.19300241	0.066457257	0.098299024	0.047679654	1.6346707	6.8154003	6.4113583	5.5293281	6.4183255	5.5193401	4.9111033	3.773795	6.5082375	1.3026331	1.7574765	2.8402702	1.7478159	2.8502705	3.4664132	4.8010769	-141.63945	R0:S0:1	-106.08	uncorrelated	51514b8	3	sharp_wc_2.0_b_50	 2.17e+02	 3.49e-03	2022-04-08@20:40
