model	D	U	e	eb1_1	eb2_1	eb3_1	eb4_1	eb5_1	eb6_1	eb7_1	eb8_1	mu	sb1_1	sb2_1	sb3_1	sb4_1	sb5_1	sb6_1	sb7_1	sb8_1	tb1_1	tb2_1	tb3_1	tb4_1	tb5_1	tb6_1	tb7_1	tb8_1	tpd	tpp	tppp	ave_D_1	ave_U_1	ave_eb1_1	ave_eb2_1	ave_eb3_1	ave_eb4_1	ave_eb5_1	ave_eb6_1	ave_eb7_1	ave_eb8_1	ave_mu_1	ave_sb1_1	ave_sb2_1	ave_sb3_1	ave_sb4_1	ave_sb5_1	ave_sb6_1	ave_sb7_1	ave_sb8_1	ave_tb1_1	ave_tb2_1	ave_tb3_1	ave_tb4_1	ave_tb5_1	ave_tb6_1	ave_tb7_1	ave_tb8_1	var_D_1	var_U_1	var_eb1_1	var_eb2_1	var_eb3_1	var_eb4_1	var_eb5_1	var_eb6_1	var_eb7_1	var_eb8_1	var_mu_1	var_sb1_1	var_sb2_1	var_sb3_1	var_sb4_1	var_sb5_1	var_sb6_1	var_sb7_1	var_sb8_1	var_tb1_1	var_tb2_1	var_tb3_1	var_tb4_1	var_tb5_1	var_tb6_1	var_tb7_1	var_tb8_1	E0_1	sector_1	E0_2	sector_2	githash	distance	diff_param	diff_hybrid	time
2x2_2C_8b_C2v_L	0.1	14	1.24	0.0086839677	-3.1445289	-3.9164807	-0.13437878	-3.9164407	-0.13437791	0.17455273	-3.5797676	9.5	2.7540906e-05	-4.0887161e-07	0.0069035686	-0.19307525	0.0069033966	-0.1930765	-1.0933969e-05	2.552128e-06	-0.11908613	-1.0874005	1.7341014	0.025163995	-1.7340927	-0.025176042	0.26343251	-2.2991102	1.32	0.617	0.159	-0.043147346	0.13185934	0.13421925	1.9448554	1.7869546	1.7424987	1.7869547	1.7424904	0.014822092	1.5535603	1.1008188	-0.00021138519	4.8997281e-06	-0.089139665	1.0540974	-0.08914898	1.0541112	5.4070961e-05	1.7094806e-06	1.1156655	0.68220327	-1.63106	-0.23423063	1.6310533	0.23426454	-0.29478323	2.5541081	0.49216735	0.028620018	0.12477011	0.054151931	0.19480515	0.24591229	0.19480509	0.24591848	0.015064876	0.34634959	0.037277038	3.4589435	5.5445757	5.2979213	4.7343742	5.2979243	4.7343959	4.3935201	6.1467328	5.1373309	2.6768226	3.517	4.9129945	3.5169883	4.9129967	3.6850728	3.1699116	-73.504326	R0:S0:1	-66.08	uncorrelated	51514b8	 2.31e+01	 9.34e-01	 1.00e+06	2022-04-08@19:18
2x2_2C_8b_C2v_L	0.1	14	1.24	0.05391662	-5.0460868	-6.1973857	-0.037256706	-6.1973879	-0.03719955	0.026998464	-5.9166314	9.5	0.026508032	1.5455319e-05	0.0039112938	0.0049770547	0.0039090364	0.0049694738	-0.05200921	9.1824274e-05	-0.00016308455	-0.77507282	1.2148239	-0.042594749	-1.214827	0.042585043	0.00055805735	-1.5376502	1.32	0.617	0.159	-0.04718219	0.048960524	8.7867189e-05	1.9802428	1.9551666	1.9996945	1.9551654	1.9996951	0.00046017704	1.9171171	1.0484668	-0.034852044	-5.994313e-06	-0.046820291	-0.0030040357	-0.04681944	-0.0029733353	0.086601865	-5.9718144e-05	0.00025795868	0.52348635	-0.82725686	0.064029348	0.82727338	-0.06401838	-0.00056373953	1.1684474	0.70637307	0.011734867	8.7913713e-05	0.019694947	0.04434682	0.00030890209	0.04434801	0.00030837456	0.00046317882	0.080711011	0.011721914	3.4683403	4.6753579	4.5155944	4.1830033	4.5155566	4.182949	4.1187759	4.5049924	4.5324275	3.4976313	3.8298333	3.8193489	3.8298756	3.8193986	3.8842231	4.0345622	-87.060533	R0:S0:1	-66.08	uncorrelated	51514b8	 9.81e-01	 3.20e-01	 1.75e+00	2022-04-08@19:22
2x2_2C_8b_C2v_L	0.1	14	1.24	0.059267122	-6.0524281	-6.9654484	-0.041300284	-6.9654536	-0.041236528	0.039452768	-6.4126768	9.5	0.0017789269	1.3080373e-05	0.0017993348	-0.00058615538	0.0018003111	-0.00059465869	-0.0069838546	-2.5577453e-05	8.5270586e-05	-0.83482451	1.2792786	0.0010103391	-1.2792793	-0.0009686157	-0.00025561752	-1.5940373	1.32	0.617	0.159	-0.04669097	0.047455376	3.9241244e-07	1.9810356	1.9565204	1.9999998	1.9565209	1.9999998	8.1448892e-06	1.9186125	1.0469561	-0.0023300058	-1.4757799e-05	-0.043921952	0.00062692804	-0.043922711	0.00064118343	0.011584452	2.0421456e-05	-0.00013122437	0.51313615	-0.81540644	-0.0014713429	0.81539798	0.0014076236	0.00024147872	1.1589935	0.70795316	0.01139231	3.924133e-07	0.018906114	0.043021033	1.7950663e-07	0.043020497	1.6885213e-07	8.1455954e-06	0.079294736	0.011374997	3.4715513	4.6664658	4.5000375	4.1748695	4.5000622	4.1748996	4.1269151	4.4875197	4.5284522	3.4996492	3.8355965	3.8251319	3.8355705	3.8251018	3.8731382	4.0432619	-93.222552	R0:S0:1	-66.08	uncorrelated	51514b8	 9.45e-01	 1.20e-04	 2.93e-02	2022-04-08@19:25
2x2_2C_8b_C2v_L	0.1	14	1.24	0.059267208	-6.0526556	-6.9655182	-0.041300282	-6.9655234	-0.041236526	0.039456965	-6.4126798	10	0.0015792718	-2.5481384e-06	0.0018379809	-0.00057795572	0.0018373414	-0.00058641679	-0.0068306505	-4.4777239e-06	7.7868642e-05	-0.83448778	1.2790696	0.00099402205	-1.2790702	-0.00095299637	-0.00025023212	-1.5939028	1.32	0.617	0.159	-0.048358562	0.051474475	3.6794416e-07	1.979585	1.9530342	1.9999998	1.9530342	1.9999998	9.527406e-06	1.9113399	1.0509562	-0.002245913	1.8036926e-06	-0.04615673	0.0005782375	-0.046156397	0.00059217494	0.012529918	2.1270856e-06	-0.00011492564	0.52979913	-0.84582744	-0.0015934906	0.84582757	0.0015245913	0.0002241658	1.2095254	0.70475679	0.012314981	3.679447e-07	0.020350031	0.04643189	2.0063157e-07	0.046431898	1.8770011e-07	9.5281651e-06	0.086144234	0.012286529	3.4376756	4.7098274	4.5388878	4.1894121	4.5388874	4.1894115	4.1258419	4.5392451	4.5623277	3.4697669	3.8229379	3.8105895	3.8229383	3.8105899	3.8742192	4.0302966	-95.320434	R0:S0:1	-70.08	uncorrelated	51514b8	 1.31e+00	 1.47e-01	 1.00e+06	2022-04-08@19:28
2x2_2C_8b_C2v_L	0.1	14	1.24	0.059282482	-6.3689686	-7.27129	-0.042211233	-7.2711596	-0.041977531	0.047786927	-6.8943266	10	0.00010454682	-9.3107805e-06	0.0019528338	9.2117709e-05	0.001956349	-2.9138513e-05	-0.0043696907	4.9399898e-05	2.2568015e-05	-0.82823753	1.2641067	-0.0004812872	-1.2641394	0.0010199921	4.39314e-05	-1.5923351	1.32	0.617	0.159	-0.04842253	0.047808833	1.7152518e-09	1.9807147	1.9561456	2	1.9561392	1.9999998	3.9184726e-06	1.9185583	1.0473266	-0.00015116776	2.0371261e-05	-0.044431206	-5.7231387e-05	-0.044433648	0.00013163746	0.0080383733	-4.1451216e-05	-3.1520457e-05	0.51743538	-0.81867261	0.00079667705	0.81875074	-0.0017103525	-3.866753e-05	1.1592527	0.70741822	0.011487197	1.7152518e-09	0.019224934	0.043387459	4.2293644e-08	0.043393653	1.9211363e-07	3.9185461e-06	0.07934501	0.011462363	3.4711464	4.6691489	4.5049106	4.1771796	4.5047929	4.1770089	4.1258114	4.4889609	4.5288536	3.4997105	3.8335304	3.8228207	3.8336781	3.8229926	3.8742141	4.0423114	-98.03749	R0:S0:1	-70.08	uncorrelated	51514b8	 1.31e+00	 1.39e-04	 5.00e-02	2022-04-08@19:31
2x2_2C_8b_C2v_L	0.1	14	1.24	0.059297756	-6.6856081	-7.5773114	-0.043122183	-7.5770546	-0.042718504	0.056117464	-7.3760038	10.5	-0.0013892924	-1.3300776e-06	0.0019041871	0.0007567854	0.0019033058	0.00052934483	-0.0018330783	2.0122624e-05	-3.5738891e-05	-0.82129877	1.2484848	-0.0019184266	-1.2484447	0.002910947	0.00033884033	-1.590537	1.32	0.617	0.159	-0.051076339	0.048176354	3.62398e-07	1.9803972	1.9557829	1.9999991	1.9557842	1.9999981	8.7528793e-07	1.9185059	1.0477079	0.0022420398	3.274489e-06	-0.045885827	-0.00058349891	-0.045884687	-0.00023794504	0.003785549	-1.1203642e-05	4.5792051e-05	0.52164624	-0.82181486	0.0035249916	0.82180062	-0.0054163066	-0.00028127686	1.1595028	0.70679719	0.011591128	3.6239843e-07	0.01954048	0.043742193	8.6100029e-07	0.04374096	1.9488325e-06	8.7531314e-07	0.079394128	0.011560226	3.4706608	4.6718931	4.509509	4.1793892	4.5095211	4.1794186	4.1248081	4.490312	4.5293424	3.4997001	3.8315823	3.8206176	3.8315626	3.8205967	3.8751976	4.0414767	-102.85256	R0:S0:1	-74.08	uncorrelated	51514b8	 2.04e+00	 1.64e-03	 1.00e+06	2022-04-08@19:34
2x2_2C_8b_C2v_L	0.1	14	1.24	0.059298554	-6.6885908	-7.5801955	-0.043122127	-7.5799443	-0.042718	0.056116739	-7.3759214	10.5	0.001349388	8.3540943e-07	0.0019458177	-3.6654746e-05	0.0019444731	-7.1443305e-05	-0.0017170505	-5.639756e-05	1.9283183e-05	-0.82211749	1.2503459	0.00065169696	-1.2503416	-0.0010934798	0.00039449709	-1.590687	1.32	0.617	0.159	-0.051071597	0.04823215	3.41746e-07	1.9803693	1.9556881	1.9999999	1.9556869	1.9999997	7.7070873e-07	1.9184978	1.047764	-0.0021775697	-1.0737819e-05	-0.045957073	-3.2325899e-05	-0.045958091	-4.386713e-05	0.003545486	3.5748469e-05	-2.4792695e-05	0.52202099	-0.82265541	-0.0012207898	0.82266366	0.0020474592	-0.00032759658	1.1595339	0.70670752	0.011603689	3.4174638e-07	0.019568215	0.04383498	9.8039619e-08	0.043836102	2.7575817e-07	7.7073786e-07	0.079401969	0.011572902	3.4707045	4.6720487	4.510541	4.1797642	4.5105694	4.1797866	4.1246209	4.4905401	4.5292985	3.4997768	3.8312431	3.8202366	3.8312244	3.8202155	3.8753841	4.0413245	-102.87328	R0:S0:1	-74.08	uncorrelated	51514b8	 2.04e+00	 0.00e+00	 1.10e-03	2022-04-08@19:37
2x2_2C_8b_C2v_L	0.1	14	1.24	0.059315424	-7.0110324	-7.8918604	-0.044032965	-7.8914892	-0.043457981	0.064445538	-7.8574188	11	0.0053424666	5.7754139e-06	0.002062182	-0.00095616448	0.0020597899	-0.00071513876	0.0010137911	-0.00019713775	7.2523565e-05	-0.81716041	1.2387756	0.0043357197	-1.2388227	-0.0071703618	0.00080034684	-1.589304	1.32	0.617	0.159	-0.054961687	0.048789474	6.8568005e-06	1.9799639	1.9551026	1.9999944	1.9550934	1.9999846	3.7765455e-07	1.9184193	1.048333	-0.0097527739	-2.9726169e-05	-0.048926179	0.00038494269	-0.048931352	-0.00021417799	-0.0023852844	0.00010954438	-8.6601434e-05	0.52734838	-0.82767502	-0.0091621693	0.82777731	0.015266534	-0.00062870665	1.1598973	0.70570202	0.011759923	6.8569213e-06	0.019971004	0.044407999	5.6091375e-06	0.044416853	1.5411875e-05	3.7770324e-07	0.079476847	0.011724535	3.4702108	4.6754425	4.5179681	4.1834436	4.5178704	4.183336	4.1231451	4.4925309	4.5298498	3.4998724	3.8280406	3.8166004	3.8281806	3.8167846	3.8768574	4.04014	-107.73036	R0:S0:1	-78.08	uncorrelated	51514b8	 3.30e+00	 1.58e-03	 1.00e+06	2022-04-08@19:40
2x2_2C_8b_C2v_L	0.1	14	1.24	0.059325536	-7.0120605	-7.8931378	-0.04403399	-7.8927864	-0.043476951	0.064445508	-7.8572544	11	0.0010507101	7.2568733e-06	0.0021191179	-0.0004430868	0.0021178606	-0.00022687073	0.0010214956	-5.7402011e-05	2.5908298e-05	-0.81730747	1.238745	0.0015051955	-1.2387354	-0.0018167353	0.00092252542	-1.5893216	1.32	0.617	0.159	-0.054980679	0.048779049	2.6525776e-07	1.9799607	1.9551109	1.9999993	1.9551093	1.999999	3.9063563e-07	1.9184157	1.0483226	-0.0019180735	-1.419193e-05	-0.048969166	0.00024120838	-0.048970021	-1.0203863e-05	-0.0024034148	3.6188612e-05	-3.0743371e-05	0.52739203	-0.82761718	-0.0031667452	0.82763038	0.0038621193	-0.00072378449	1.1599222	0.70572052	0.011757659	2.6525795e-07	0.019974274	0.044399777	6.7306898e-07	0.044401388	9.8537511e-07	3.9070136e-07	0.07948027	0.011722289	3.4702029	4.6754628	4.5177398	4.1832453	4.517768	4.1832657	4.1231398	4.4925614	4.5297994	3.4998823	3.8281959	3.8167599	3.8281806	3.816742	3.8768628	4.0401307	-107.73706	R0:S0:1	-78.08	uncorrelated	51514b8	 3.30e+00	 0.00e+00	 3.48e-04	2022-04-08@19:43
2x2_2C_8b_C2v_L	0.1	14	1.24	0.059363427	-7.339541	-8.2102417	-0.044946822	-8.2098155	-0.044254369	0.072773522	-8.3383407	11.5	-0.00080104377	1.7325284e-05	0.0023909847	-0.0011298813	0.0023904862	-0.00049481827	0.0038837741	4.809098e-06	4.0940219e-05	-0.81346321	1.2289746	0.0020982933	-1.2289387	-0.001190791	0.0016283891	-1.5881238	1.32	0.617	0.159	-0.060633375	0.049464998	2.045307e-07	1.9795025	1.9544314	1.9999982	1.9544311	1.9999994	6.9579125e-06	1.9183198	1.0490187	0.0016831018	-7.3299217e-06	-0.053809895	0.00070719773	-0.05380861	0.00026658428	-0.010619168	-1.408419e-06	-4.5498755e-05	0.53334162	-0.83337044	-0.0050403772	0.83337088	0.0028845268	-0.0012129128	1.1603816	0.70438117	0.011959358	2.0453083e-07	0.020429521	0.04506484	1.7539612e-06	0.045065191	5.6493406e-07	6.9616738e-06	0.079572288	0.011920403	3.4695758	4.6793645	4.5263761	4.1876754	4.5264025	4.1876999	4.121493	4.4948677	4.530426	3.4999527	3.824356	3.8123384	3.8243352	3.8123045	3.8785517	4.038852	-112.62894	R0:S0:1	-82.08	uncorrelated	51514b8	 5.45e+00	 2.04e-04	 1.00e+06	2022-04-08@19:47
2x2_2C_8b_C2v_L	0.1	14	1.24	0.059412178	-7.6712407	-8.531849	-0.04586047	-8.5313706	-0.04505015	0.081100932	-8.8191767	12	-0.00407894	1.4481028e-06	0.0027552359	-0.0019985316	0.002732808	-0.00083317735	0.0068632481	-2.1932711e-05	6.0629208e-05	-0.80941501	1.2191726	0.0021269069	-1.219123	0.00095141898	0.0025721346	-1.5864864	1.32	0.617	0.159	-0.068998134	0.050271136	7.3630996e-06	1.9790507	1.9537767	1.9999975	1.9537771	1.9999994	3.0772698e-05	1.9182568	1.0498337	0.010096264	5.5497856e-06	-0.061263322	0.0012961667	-0.061251411	0.00093293211	-0.02240425	4.2019968e-06	-6.6329392e-05	0.53913091	-0.83873684	-0.0058894693	0.83872981	-0.0030042178	-0.0018286161	1.1606287	0.70259399	0.012219237	7.3631953e-06	0.020878439	0.045706065	2.517952e-06	0.045705702	6.3651257e-07	3.0811562e-05	0.079633759	0.012177436	3.4688385	4.6833689	4.5354346	4.1930704	4.5354626	4.1931206	4.1199982	4.496865	4.5312271	3.4999299	3.8197469	3.8069496	3.8197212	3.8068843	3.880198	4.0378405	-117.54653	R0:S0:1	-86.08	uncorrelated	51514b8	 9.21e+00	 1.39e-03	 1.00e+06	2022-04-08@19:51
2x2_2C_8b_C2v_L	0.1	14	1.24	0.059414596	-7.6723874	-8.5335662	-0.045863209	-8.5330838	-0.045051146	0.081135962	-8.8181478	12	0.0010444308	-1.0026335e-06	0.0027023741	-0.00056330984	0.0027083268	-0.00035745811	0.0067752952	-0.00015943057	1.3673325e-05	-0.80899386	1.2194218	-0.00040963787	-1.2193866	-6.3108343e-05	0.0039046075	-1.5865846	1.32	0.617	0.159	-0.068987205	0.050271773	4.8344245e-07	1.9790791	1.9537727	1.9999999	1.9537733	2	3.0364202e-05	1.9182242	1.0498337	-0.0025851399	-1.5380023e-05	-0.061232029	0.00058090369	-0.061233178	0.00029960452	-0.022120168	8.699973e-05	-1.3257907e-05	0.53874478	-0.83877541	0.0013369555	0.83875979	0.00011118825	-0.0027727286	1.1608997	0.70259655	0.012219369	4.8344286e-07	0.020850296	0.045709988	1.3631079e-07	0.045709442	7.6918836e-09	3.0451007e-05	0.079664311	0.01217745	3.4685577	4.6834295	4.5354476	4.1930593	4.5355315	4.1931496	4.1202822	4.496837	4.5314466	3.4996442	3.8197714	3.8069417	3.819692	3.8068505	3.8799115	4.0379997	-117.55382	R0:S0:1	-86.08	uncorrelated	51514b8	 9.21e+00	 0.00e+00	 2.29e-04	2022-04-08@19:54
2x2_2C_8b_C2v_L	0.1	14	1.24	0.059479092	-8.0103913	-8.8627695	-0.046783303	-8.8622521	-0.045867385	0.089532676	-9.2966793	12.5	0.0064602001	-1.813434e-05	0.0030594681	0.001158121	0.0031009242	0.00014310119	0.0097025956	-0.00039795253	-5.2142646e-05	-0.80506914	1.2119488	-0.0057145146	-1.2119076	0.0013992467	0.0076911341	-1.585311	1.32	0.617	0.159	-0.08189623	0.051451215	2.7617006e-05	1.9786383	1.9530257	1.9999713	1.9530338	1.9999983	9.7248224e-05	1.9180771	1.0510199	-0.019453472	-3.0660562e-05	-0.073028706	0.0008156394	-0.073030528	0.00031537071	-0.039317788	0.00021764863	7.4910336e-05	0.54422979	-0.84464186	0.02067871	0.8445182	-0.0051079391	-0.0052546885	1.1618432	0.69975866	0.012628532	2.7618091e-05	0.021288488	0.046442281	2.8705864e-05	0.046434664	1.7468581e-06	9.8231885e-05	0.079805555	0.012584276	3.4665549	4.6886881	4.5468844	4.2010722	4.5472788	4.2014332	4.1194762	4.4989077	4.533693	3.4984446	3.8131329	3.7991548	3.8127458	3.7985806	3.8811347	4.0375663	-122.51497	R0:S0:1	-90.08	uncorrelated	51514b8	 1.63e+01	 2.94e-03	 1.00e+06	2022-04-08@19:58
2x2_2C_8b_C2v_L	0.1	14	1.24	0.059495397	-8.0115382	-8.8646962	-0.046762437	-8.8641596	-0.045864884	0.090072152	-9.294397	12.5	-0.0023524514	2.6397449e-06	0.0031955254	-5.3790473e-05	0.0031886953	-5.5446133e-05	0.005622876	-0.00029569771	-2.379862e-05	-0.80573821	1.2117369	0.0018801989	-1.2116543	-0.00023006783	0.013757702	-1.5853162	1.32	0.617	0.159	-0.081956065	0.051425425	3.7625255e-06	1.9786054	1.9530563	1.9999968	1.9530616	2	3.9361762e-05	1.9180495	1.0509936	0.0070970917	-4.2988703e-06	-0.073116961	-0.00054572046	-0.073105488	-2.5297049e-05	-0.022799108	0.00013025081	1.4375665e-05	0.54466518	-0.84436633	-0.0069084123	0.84430086	0.00083027221	-0.0093531813	1.1620192	0.69978615	0.012623312	3.7625455e-06	0.021321097	0.046412416	3.1988651e-06	0.046407347	4.6334469e-08	4.041625e-05	0.079832012	0.012579371	3.4667577	4.6886784	4.5466666	4.2009791	4.5467868	4.2011242	4.1194283	4.4992563	4.533276	3.4987304	3.8131424	3.7990462	3.8130041	3.7988762	3.8808222	4.03746	-122.5201	R0:S0:1	-90.08	uncorrelated	51514b8	 1.63e+01	 0.00e+00	 6.51e-04	2022-04-08@20:02
2x2_2C_8b_C2v_L	0.1	14	1.24	0.059605813	-8.3570628	-9.2037455	-0.047644456	-9.2031561	-0.046695547	0.099582142	-9.7670869	13	-0.010949379	1.838824e-05	0.003868378	0.00043151233	0.0038217444	0.00042525384	0.00042433769	-0.00045471516	-7.2725528e-05	-0.80330635	1.2052992	0.0088664426	-1.2051323	-0.0016359808	0.031207689	-1.5841165	1.32	0.617	0.159	-0.10400419	0.053385238	0.00015079159	1.9781055	1.9523566	1.9998716	1.9524086	1.9999954	5.5486238e-05	1.9177998	1.0529556	0.042635705	-0.00024699532	-0.093581781	-0.0050513257	-0.093502629	-0.0012243394	-0.0022368202	0.00050297774	8.2653591e-05	0.55067625	-0.84918016	-0.043281808	0.84847805	0.0081600557	-0.020644064	1.1638156	0.6945163	0.013376403	0.0001508161	0.021818368	0.047100726	0.00012838487	0.047050983	4.5866665e-06	5.5942224e-05	0.080072211	0.013332101	3.4633258	4.696192	4.560912	4.2147146	4.5626118	4.2160503	4.1198007	4.5016314	4.5380231	3.49612	3.8024569	3.7863083	3.8006936	3.7839862	3.8806084	4.0380974	-127.52842	R0:S0:1	-94.08	uncorrelated	51514b8	 3.14e+01	 4.11e-03	 1.00e+06	2022-04-08@20:07
2x2_2C_8b_C2v_L	0.1	14	1.24	0.05966908	-8.3577354	-9.2046901	-0.047588494	-9.2040527	-0.046690824	0.10432293	-9.7639775	13	0.0019219282	1.1394794e-05	0.0039103476	0.0030742168	0.0038339173	0.0016453925	-0.00016474665	5.2774943e-06	-9.0401783e-05	-0.80218202	1.2051776	-0.0001852131	-1.2050549	-0.00081793067	0.020571488	-1.5840658	1.32	0.617	0.159	-0.10404037	0.053320442	4.2180251e-06	1.9781776	1.9523889	1.9999996	1.9523979	1.9999983	1.4478499e-05	1.9177283	1.0528922	-0.007415691	-2.2618904e-05	-0.093592033	-0.0024561137	-0.093554424	-0.0017999959	0.00088169826	2.1857207e-05	8.5402013e-05	0.54972926	-0.84881818	-0.0007274954	0.84871371	0.0048391116	-0.013428933	1.1644792	0.69459702	0.013363005	4.2180549e-06	0.021746883	0.047069749	4.3625363e-07	0.047061101	1.7244494e-06	1.4551091e-05	0.080138788	0.013317483	3.4623228	4.6963222	4.5613856	4.2145705	4.5615297	4.2148157	4.12077	4.5011658	4.5377153	3.4954676	3.8019544	3.7854331	3.8017706	3.7851979	3.8793375	4.0387969	-127.52582	R0:S0:1	-94.08	uncorrelated	51514b8	 3.15e+01	 0.00e+00	 2.34e-03	2022-04-08@20:11
2x2_2C_8b_C2v_L	0.1	14	1.24	0.059935646	-8.710979	-9.5535479	-0.04834138	-9.552763	-0.047528968	0.12388829	-10.226889	13.5	0.01386757	2.5262514e-05	0.0048468408	0.0088207121	0.0046439927	0.0047450577	-0.010587573	0.00074349504	-0.00018613616	-0.79832527	1.1997437	-0.006605874	-1.1995885	-0.0018266969	0.024345966	-1.5828332	1.32	0.617	0.159	-0.14838184	0.058004893	0.00042028261	1.9778626	1.9519529	1.9998945	1.9520121	1.9999738	0.00048767204	1.9171876	1.0575776	-0.073725336	-0.00060165536	-0.13491086	-0.00072517173	-0.13467204	-0.0065165445	0.082354711	0.00050752657	-0.00027860814	0.55242622	-0.8490442	0.036982754	0.8482392	0.01835731	-0.016219669	1.1693676	0.6813619	0.015313938	0.00042049131	0.022062479	0.047510261	0.00011120523	0.047453609	2.6527677e-05	0.00051504848	0.080654559	0.015267704	3.4478169	4.7145784	4.5870529	4.2455264	4.5890523	4.2499772	4.1277625	4.500139	4.5560852	3.4820141	3.7757419	3.7552859	3.7736569	3.7502397	3.8751027	4.0457101	-132.57507	R0:S0:1	-98.08	uncorrelated	51514b8	 7.45e+01	 8.62e-02	 1.00e+06	2022-04-08@20:17
2x2_2C_8b_C2v_L	0.1	14	1.24	0.1500244	-8.7120079	-9.5526854	-0.21309662	-9.552007	-0.21209519	0.42938912	-10.08663	13.5	0.00060219539	0.00020453483	0.003577359	0.027877135	0.0038293644	0.029583503	2.5891321e-05	-0.00010380877	-0.022409668	-0.80059929	1.2008706	0.0092667586	-1.2013857	-0.0071920267	0.054430439	-1.5763802	1.32	0.617	0.159	-0.14944661	0.058539776	6.5891017e-05	1.9777681	1.9519338	1.999411	1.9518837	1.9995305	9.6568849e-05	1.9157437	1.0580844	-0.0030021106	-0.00015779294	-0.1355699	-0.034639483	-0.13574597	-0.034149478	-0.00015872227	0.00012830515	0.02228311	0.5532125	-0.84873808	-0.08536868	0.84918701	0.074411583	-0.033472526	1.1796908	0.68054961	0.015459133	6.6819608e-05	0.022156856	0.047530692	0.00060168529	0.047579679	0.00048116356	9.7049084e-05	0.082017623	0.015419841	3.4424653	4.7195831	4.5905439	4.2573789	4.5908719	4.2563315	4.1303551	4.509157	4.5585212	3.4781825	3.772358	3.7469582	3.7724439	3.747079	3.8705399	4.0448703	-132.96116	R0:S0:1	-98.08	uncorrelated	51514b8	 7.57e+01	 4.24e-04	 4.96e-03	2022-04-08@20:20
2x2_2C_8b_C2v_L	0.1	14	1.24	0.33116782	-9.07431	-9.9086962	-0.54383791	-9.9081518	-0.54281393	1.0664758	-10.261632	14	-0.0069410356	-9.8751725e-06	0.0016013759	0.078765074	0.0025998296	0.084523914	0.0061204405	-0.00074331589	-0.067937664	-0.80335924	1.2005422	0.029036596	-1.2007602	-0.020258594	0.11387595	-1.5618641	1.32	0.617	0.159	-0.30774074	0.098487729	0.0048855095	1.9784009	1.9546723	1.9854607	1.9550031	1.9881556	0.00043489707	1.9095038	1.0978882	0.047179873	-0.004921727	-0.28572675	-0.22779488	-0.2822472	-0.21390667	-0.031728618	0.0055346107	0.14294766	0.52906888	-0.79300941	-0.39550784	0.78839221	0.3450487	-0.062789761	1.2417767	0.5812432	0.03035888	0.0050818448	0.021555902	0.044966558	0.014745489	0.044651028	0.012098209	0.00043790205	0.08787881	0.030372969	3.2763746	4.9156982	4.7775165	4.628075	4.7925849	4.6287872	4.2650219	4.4510275	4.7998735	3.295339	3.5390254	3.4695639	3.5266166	3.4531341	3.7394189	4.1504289	-138.86869	R0:S0:1	-102.08	uncorrelated	51514b8	 6.04e+02	 6.17e-03	 1.00e+06	2022-04-08@20:23
2x2_2C_8b_C2v_L	0.1	14	1.24	0.33151634	-9.0743325	-9.9090973	-0.54084755	-9.9085456	-0.540285	1.0652894	-10.261218	14	-0.00020696832	1.6600359e-05	-0.0044821397	0.069450247	-0.0040169051	0.069431666	0.002581865	-0.0012474042	-0.058239785	-0.80632733	1.2041992	0.033915207	-1.2043462	-0.032115872	0.10387763	-1.5688058	1.32	0.617	0.159	-0.29366517	0.094323765	0.0028750072	1.9781325	1.9543044	1.9867208	1.9543393	1.9874579	0.00032483898	1.9091144	1.0937575	0.001758491	-0.00072031264	-0.26850881	-0.20553645	-0.26831002	-0.20117879	-0.014267492	0.001200466	0.1117705	0.5340509	-0.79909688	-0.38815124	0.79845234	0.37555239	-0.057616815	1.2422339	0.59237753	0.028779898	0.0029640378	0.021820317	0.045320655	0.0134105	0.045288218	0.012674056	0.00032628429	0.088243602	0.028778186	3.2831351	4.8972718	4.7642665	4.5953754	4.7672711	4.5937792	4.2489752	4.4657947	4.7634431	3.3145115	3.5597339	3.4968798	3.5574079	3.4936243	3.7544336	4.1358567	-138.86993	R0:S0:1	-102.08	uncorrelated	51514b8	 6.97e+02	 7.02e-04	 8.53e-03	2022-04-08@20:26
2x2_2C_8b_C2v_L	0.1	14	1.24	0.60397198	-9.4449605	-10.274512	-1.028199	-10.274095	-1.0283368	2.0094967	-10.288563	14.5	0.00043501959	-0.0001845932	-0.017773712	0.11902172	-0.018061864	0.11686064	0.0070206454	-0.002326527	-0.10089586	-0.81538157	1.2120283	0.071149759	-1.2124885	-0.073591266	0.17023231	-1.5604199	1.32	0.617	0.159	-0.31629292	0.43174021	0.046741325	1.9933618	1.9839867	1.951625	1.9840742	1.9523651	0.0005250894	1.8781834	1.4312148	-0.0029308498	0.0019524009	-0.26801782	-0.92002709	-0.26662113	-0.91233532	-0.039238985	-0.0048485375	0.93767531	0.16385294	-0.29223754	-0.33035958	0.29055925	0.32927017	-0.059847351	1.6251497	0.34466099	0.041589954	0.045685534	0.0067176224	0.016349489	0.04714649	0.016261546	0.046465819	0.00052783521	0.11640552	0.041730613	1.4537857	7.0299311	6.7075387	6.3726303	6.7155494	6.3833349	5.4302765	3.7997783	6.6849015	1.0824053	1.4981213	1.7442801	1.4896464	1.7314576	2.5783681	4.9751361	-145.60004	R0:S0:1	-106.08	uncorrelated	51514b8	 2.31e+02	 2.98e-01	 1.00e+06	2022-04-08@20:28
2x2_2C_8b_C2v_L	0.1	14	1.24	0.19569898	-9.4144826	-10.292987	-0.086005869	-10.291653	-0.083227904	1.7476919	-10.28842	14.5	0.065416378	-0.0010040209	-0.0025075525	0.044051945	-0.002296759	0.044014089	0.21698438	0.00082336456	0.001403224	-0.78553977	1.1992449	0.055340094	-1.1993943	-0.054756478	-0.001437228	-1.4606496	1.32	0.617	0.159	-0.32499145	0.39269075	0.014023362	1.9919071	1.9792209	1.8294676	1.9791289	1.8283682	0.070179381	1.8995876	1.3923215	-0.26353799	-0.0001140913	-0.28711369	-1.3156878	-0.28732059	-1.3150858	-1.1920115	0.0020762565	-0.022851554	0.20341557	-0.37240241	-0.77541034	0.37392709	0.77711969	0.0028434152	1.4308811	0.34288527	0.049669835	0.014985008	0.0081663124	0.020946773	0.18095357	0.02103905	0.18244618	0.068114969	0.096684685	0.049736152	1.4477387	6.7718715	6.3504357	5.5277492	6.344885	5.5210484	4.8519315	3.8148566	6.7755496	1.3538026	1.8028867	2.8957631	1.8095823	2.9080537	3.5419642	4.7615098	-141.73595	R0:S0:1	-106.08	uncorrelated	51514b8	 2.20e+02	 2.47e-02	 3.25e-02	2022-04-08@20:32
2x2_2C_8b_C2v_L	0.1	14	1.24	0.21644345	-9.4069511	-10.281446	-0.080128263	-10.280145	-0.081166222	1.6869105	-10.302451	14.5	-0.0024371676	0.0014631153	-0.0024097658	0.044336503	-0.0024406109	0.044437649	0.20577339	-0.00028220334	0.064567827	-0.81857261	1.1993711	0.049523002	-1.1992802	-0.049553262	0.00060734174	-1.4669368	1.32	0.617	0.159	-0.29789445	0.40048795	0.050313618	1.9916744	1.9799919	1.8445638	1.9800824	1.8446857	0.068423895	1.8976985	1.4001106	0.011157369	-0.00020288696	-0.26249224	-1.2987535	-0.26221192	-1.3025658	-1.1837034	-0.0029015072	-0.91738889	0.20123996	-0.35887746	-0.6654358	0.35721906	0.66456636	-0.002924971	1.454145	0.3435499	0.047081267	0.04928102	0.0083963361	0.020194635	0.16631698	0.02010297	0.16582388	0.066438726	0.098385531	0.047158698	1.6399049	6.8274227	6.422429	5.5870006	6.4290116	5.5911818	4.9162841	3.7698097	6.504259	1.2875586	1.7462041	2.7820956	1.7378979	2.7751156	3.4612839	4.8048721	-141.70832	R0:S0:1	-106.08	uncorrelated	51514b8	 2.17e+02	 5.44e-03	 1.44e-02	2022-04-08@20:36
2x2_2C_8b_C2v_L	0.1	14	1.24	0.22129792	-9.4050548	-10.278604	-0.068541588	-10.277355	-0.066932748	1.6714095	-10.305876	14.5	-0.0027779103	0.001114264	-0.001192481	0.039038231	-0.0011346377	0.038777927	0.20414529	0.00029645553	0.063599633	-0.8205548	1.1982823	0.051077246	-1.19822	-0.050858954	-0.00037917292	-1.4674717	1.32	0.617	0.159	-0.30321754	0.39880328	0.048067053	1.9915301	1.9798369	1.8324936	1.9799312	1.8291049	0.068445586	1.8977953	1.3984301	0.012904039	0.00062864106	-0.26832676	-1.2584011	-0.26822064	-1.2645749	-1.1833222	-0.0037873725	-0.89434273	0.20410361	-0.36137819	-0.71026988	0.35957823	0.71721557	-0.0030746076	1.4526695	0.34310901	0.047603917	0.047142015	0.0085428457	0.020351287	0.18864197	0.02025435	0.19300241	0.066457257	0.098299024	0.047679654	1.6346707	6.8154003	6.4113583	5.5293281	6.4183255	5.5193401	4.9111033	3.773795	6.5082375	1.3026331	1.7574765	2.8402702	1.7478159	2.8502705	3.4664132	4.8010769	-141.63945	R0:S0:1	-106.08	uncorrelated	51514b8	 2.17e+02	 2.76e-04	 3.49e-03	2022-04-08@20:40
2x2_2C_8b_C2v_L	0.1	14	1.24	-0.18051273	-9.7037731	-10.660244	1.2005078	-10.657546	1.2041067	2.2477151	-10.220668	15	-0.0068533509	0.0046742811	0.012360862	-0.056458013	0.012523795	-0.057806634	0.6049678	0.0031041238	0.33815468	-0.84494707	1.1851878	0.063326623	-1.1847752	-0.064333272	-0.25895176	-1.2732401	1.32	0.617	0.159	-0.22182541	0.70752367	0.5700849	1.9867183	1.9976049	0.0077549833	1.9929008	0.010032772	0.25444237	1.9722959	1.7069359	0.31328643	-0.074469537	-0.059645527	0.024860436	-0.33738569	0.14049546	-1.3428887	0.50833778	-3.1823819	0.31303595	-0.04717758	-0.45074391	0.13444	0.49295399	1.9226222	0.46666425	0.43434771	0.061768577	0.43201348	0.013191748	0.0024342404	0.0077673951	0.0073039342	0.010010534	0.23783725	0.027890397	0.062116761	5.910849	6.1431745	7.7690299	0.31823129	7.3043954	0.74658054	3.4965369	5.9173442	2.6081197	1.8493858	0.25675814	7.6771067	0.7345315	7.2581166	4.7915939	2.121255	-147.90034	R0:S0:1	-110.08	uncorrelated	51514b8	 1.57e+02	 1.44e-01	 1.00e+06	2022-04-08@20:43
2x2_2C_8b_C2v_L	0.1	14	1.24	-0.39286228	-9.7026385	-10.661706	1.1761575	-10.660162	1.1799811	2.3162201	-10.228204	15	0.010118116	-0.0034967371	0.022263913	-0.13018292	0.0013597451	-0.13507863	0.23050317	-0.01664226	-0.065170572	-0.79335103	1.1745067	-0.044877562	-1.1685687	-0.0053591165	0.039926436	-1.4378136	1.32	0.617	0.159	-0.36629608	0.9607442	1.9993071	1.9999741	1.9959862	0.0009191384	1.99659	0.0029700363	0.0022647487	1.9998695	1.9607386	-0.13844602	0.010340375	-0.33865317	-0.031528427	-0.30659336	0.060132524	-0.0042462773	0.0019060621	0.00026352385	0.0006390731	-0.070334907	0.16107118	0.064499366	0.28512955	-0.25563362	0.0022352321	0.41071931	0.017532515	0.00075857837	2.6131046e-05	0.0041812268	0.00096377687	0.0035476465	0.0030975844	0.0023423818	0.00013152368	0.017540566	7.9877775	7.9958579	7.6222771	0.30417041	7.6360749	0.35958956	0.036934066	7.9893696	0.011291907	0.0043025822	0.37926739	7.6933559	0.36544512	7.6406373	7.9605344	0.01121947	-147.38458	R0:S0:1	-110.08	uncorrelated	51514b8	 2.60e+02	 5.54e-01	 3.80e-01	2022-04-08@20:45
2x2_2C_8b_C2v_L	0.1	14	1.24	-0.39378586	-9.610775	-10.567788	0.19909256	-10.553127	0.1819819	0.035034036	-10.615426	15	-0.0013863446	0.00058354339	-0.0014204638	-0.084412933	-0.00062014806	-0.082590399	0.079006424	0.00019622934	-0.083444484	-0.77544836	1.184086	0.02110602	-1.1832668	-0.017787939	-0.0052275418	-1.5219717	1.32	0.617	0.159	-0.32758091	0.83872916	1.9997662	1.9997703	1.9955832	0.035531322	1.9955476	0.033426298	1.4854297	1.9640261	1.8386682	0.0161522	-0.0026205947	-0.27522045	0.22280143	-0.2810523	0.21459322	-3.1776079	0.011484779	0.0058982337	0.0061855999	-0.082081974	-0.7718912	0.082584324	0.72695086	0.30408975	0.50530503	0.41391769	0.035410168	0.0002465116	0.00023203629	0.0045445394	0.046512632	0.0045866383	0.044922712	0.34743781	0.035070053	0.035460242	7.9585543	7.9589005	7.5709505	0.85599052	7.5681114	0.84229608	2.585103	6.1584147	0.045058202	0.044138942	0.44118192	7.1435865	0.44491908	7.1626636	6.2965734	1.7396273	-147.70817	R0:S0:1	-110.08	uncorrelated	51514b8	 2.23e+02	 1.30e-02	 3.98e-02	2022-04-08@20:48
2x2_2C_8b_C2v_L	0.1	14	1.24	-0.39529997	-9.610072	-10.5667	0.20211619	-10.551834	0.19167603	0.088705437	-10.611633	15	0.00040594021	-0.00011669332	0.0054065678	-0.083143591	0.004880891	-0.08150865	0.081931259	-0.00053227008	-0.079248371	-0.78027539	1.1849686	-0.0017383028	-1.1853451	0.00011860225	0.0018146472	-1.5162599	1.32	0.617	0.159	-0.3071816	0.82505445	1.9997641	1.9997378	1.9963338	0.0060318692	1.996588	0.0067445208	1.3717342	1.9562387	1.8249887	-0.0015910187	0.0038018428	-0.27345743	0.078089816	-0.2626576	0.079533879	-3.3719483	-0.02386497	0.006419627	0.0070054102	-0.067253784	-0.28564991	0.06254448	0.30740171	-0.24896675	0.61455948	0.42751035	0.034765847	0.0002531659	0.00026579029	0.0038066596	0.0081042986	0.0035419824	0.0091547805	0.38404976	0.042480821	0.034815586	7.9540442	7.9543251	7.6505077	0.44634435	7.67504	0.43222912	2.0556386	5.7917672	0.051298447	0.050122946	0.36883799	7.5876916	0.34247201	7.5966168	7.3026752	2.0795114	-147.60785	R0:S0:1	-110.08	uncorrelated	51514b8	 2.20e+02	 3.33e-03	 1.75e-02	2022-04-08@20:52
2x2_2C_8b_C2v_L	0.1	14	1.24	-0.39608422	-9.6096723	-10.565877	0.20506308	-10.550964	0.19598741	0.10246299	-10.609048	15	-0.00067128356	0.0003337963	0.004966567	-0.082744215	0.0054076633	-0.081524644	0.083995778	0.00020148914	-0.07873574	-0.78047607	1.1854834	-0.0011486603	-1.1851884	0.00394225	-0.0022464166	-1.5149861	1.32	0.617	0.159	-0.30198518	0.81978589	1.9997513	1.9997213	1.9967711	0.0053451213	1.9962626	0.0047895296	1.3296765	1.9544013	1.8197169	0.0016862636	-0.0074588944	-0.2530934	0.069311082	-0.27400122	0.068890891	-3.3884565	0.046131815	0.0067665012	0.0074332821	-0.059275617	-0.26968976	0.068532918	0.23481516	0.4066276	0.64033458	0.42920691	0.034957182	0.00026811831	0.00028264095	0.0033527911	0.0071353191	0.0038829935	0.0064646735	0.40279823	0.044232463	0.035008047	7.9514179	7.9516831	7.6931096	0.39327826	7.6457926	0.43410102	2.0129462	5.7079328	0.05451731	0.053226479	0.32529081	7.6381001	0.37635603	7.6076475	7.4409804	2.1603041	-147.58703	R0:S0:1	-110.08	uncorrelated	51514b8	 2.18e+02	 2.93e-03	 2.92e-03	2022-04-08@20:55
2x2_2C_8b_C2v_L	0.1	14	1.24	-0.39688192	-9.6092521	-10.565089	0.20591886	-10.550116	0.20150752	0.11120578	-10.606714	15	0.0013007115	-0.00058217184	0.0061775873	-0.082521653	0.0048421903	-0.081869197	0.08522686	-0.00087442118	-0.078530602	-0.78064822	1.1854516	-0.0060032631	-1.1852406	0.00066232805	0.0046027306	-1.5140888	1.32	0.617	0.159	-0.30294941	0.82227851	1.9997621	1.9997215	1.995862	0.0043081219	1.9971347	0.0049205771	1.2436581	1.9552628	1.8222099	-6.8581022e-05	0.017684509	-0.29056778	0.067843166	-0.239029	0.062448624	-3.2425055	-0.11311857	0.0065158631	0.0074137154	-0.07582867	-0.21148098	0.052513389	0.26273206	-0.94214427	0.62838341	0.42904103	0.035203495	0.00025651762	0.00028253626	0.0042999712	0.0057631674	0.0029755095	0.0065876318	0.46576511	0.043460786	0.035254169	7.9516518	7.9517078	7.6079611	0.46182536	7.7278069	0.35091963	2.4105265	5.7445312	0.054120391	0.053062636	0.41653192	7.5859324	0.28786341	7.6746363	6.9362852	2.1329903	-147.57355	R0:S0:1	-110.08	uncorrelated	51514b8	 2.19e+02	 5.00e-03	 3.56e-03	2022-04-08@20:58
2x2_2C_8b_C2v_L	0.1	14	1.24	-0.39790757	-9.6086843	-10.564019	0.21254181	-10.549016	0.20173663	0.11906375	-10.603678	15	-0.0050401843	0.0028071362	0.0042794102	-0.083061307	0.0072413905	-0.081648837	0.086311192	0.0020466652	-0.078622779	-0.78053778	1.1856221	0.0026012858	-1.1849397	0.010099304	-0.011102722	-1.5135981	1.32	0.617	0.159	-0.31587225	0.84391584	1.9997875	1.9997543	1.997538	0.0063203637	1.9952541	0.003097128	0.97842724	1.9625044	1.8438559	0.034671645	-0.03541191	-0.22875994	0.066612869	-0.32448616	0.057935056	-2.6148978	0.20847346	0.0037983153	0.0064361063	-0.045060551	-0.32661461	0.086643398	0.16689892	1.7612739	0.52729253	0.42569184	0.035058267	0.00022937001	0.00024934277	0.0025546208	0.0083875219	0.0049351948	0.0041649352	0.59973385	0.036690737	0.035105264	7.9585017	7.957793	7.7624793	0.32929787	7.5468641	0.49195502	3.6364977	6.0711847	0.045143185	0.045554788	0.24616783	7.6797049	0.47560595	7.5510319	5.1684165	1.8438962	-147.56783	R0:S0:1	-110.08	uncorrelated	51514b8	 2.25e+02	 1.12e-02	 7.56e-03	2022-04-08@21:01
2x2_2C_8b_C2v_L	0.1	14	1.24	-0.40074388	-9.6068463	-10.560386	0.19422667	-10.545672	0.22554164	0.11322285	-10.594011	15	0.0065383168	-0.0030414942	0.0091525786	-0.080878262	0.0018019748	-0.084647271	0.084679764	-0.0034378288	-0.07934326	-0.77988746	1.1854242	-0.01507816	-1.1840011	-0.010179181	0.019852535	-1.5138382	1.32	0.617	0.159	-0.32291606	0.85521287	1.9997521	1.9997783	1.9953401	0.0012359374	1.9972766	0.013465407	0.86462689	1.9664346	1.8551572	-0.053836116	0.036317721	-0.32975103	0.028151885	-0.23510774	0.10586697	-2.2906189	-0.20147295	0.0025741268	0.0057999078	-0.084714777	-0.062380773	0.050125756	0.49646633	-2.0093262	0.47254663	0.42322522	0.034293262	0.0002694371	0.00022487639	0.0048489704	0.001629196	0.0028170291	0.017522153	0.6137573	0.03292392	0.034338434	7.9620698	7.9617315	7.5541259	0.43062138	7.7345406	0.44340969	4.011499	6.257474	0.040427335	0.040936094	0.46470851	7.5995332	0.27210468	7.5551366	4.5835128	1.6695971	-147.55735	R0:S0:1	-110.08	uncorrelated	51514b8	 2.28e+02	 1.57e-02	 1.50e-02	2022-04-08@21:05
2x2_2C_8b_C2v_L	0.1	14	1.24	-0.40363297	-9.6045211	-10.556082	0.22727303	-10.541348	0.19016083	0.10572843	-10.58058	15	-0.0049467994	0.0015639189	0.0016667221	-0.085272331	0.0091038982	-0.080897807	0.083668726	0.0036026525	-0.079738752	-0.77965888	1.1841875	0.011252165	-1.1842837	0.014457403	-0.020681337	-1.5133704	1.32	0.617	0.159	-0.32212368	0.85245493	1.9998072	1.9997816	1.9971534	0.014854737	1.9954379	0.0013252176	0.91456276	1.9655454	1.8523984	0.035016115	-0.031785173	-0.23811436	0.11398737	-0.32519719	0.030026273	-2.384547	0.18402749	0.003362925	0.0057897317	-0.052458029	-0.5211934	0.082872346	0.070380545	1.961192	0.48468446	0.42321648	0.034342828	0.000206767	0.00022138795	0.0029427666	0.01928317	0.004747234	0.0017567452	0.61286749	0.033751004	0.034388579	7.9620886	7.9615709	7.7226692	0.47193668	7.5645186	0.42548791	3.9414533	6.2188229	0.040749177	0.041222737	0.28455506	7.5264548	0.45429342	7.6049753	4.717159	1.7024737	-147.52095	R0:S0:1	-110.08	uncorrelated	51514b8	 2.27e+02	 1.57e-02	 1.99e-02	2022-04-08@21:08
2x2_2C_8b_C2v_L	0.1	14	1.24	-0.40607416	-9.6025299	-10.552406	0.19261429	-10.537323	0.2280054	0.10264684	-10.568658	15	0.0063384333	-0.0029972773	0.0086950661	-0.081164339	0.002205032	-0.085421855	0.083176032	-0.0032809576	-0.080202929	-0.77898016	1.1848748	-0.013265912	-1.1831212	-0.0098877099	0.019325191	-1.5126088	1.32	0.617	0.159	-0.32114175	0.85042776	1.9997363	1.999774	1.9954775	0.001609308	1.9971623	0.013330013	0.95495122	1.9647563	1.8503708	-0.053994778	0.032551197	-0.32251321	0.03601163	-0.23926405	0.10723184	-2.4705462	-0.17776782	0.0031198769	0.005934934	-0.082272978	-0.094469593	0.052189212	0.49246875	-1.8954148	0.49530699	0.42362677	0.034392823	0.00028629671	0.00022909977	0.0047053346	0.0021466978	0.0029357681	0.017322796	0.61002361	0.034496502	0.034438754	7.9609313	7.9609156	7.5677835	0.43320677	7.7244191	0.45271628	3.8472731	6.1843859	0.041870062	0.041978269	0.45130165	7.5986868	0.28329569	7.5477901	4.8607634	1.732984	-147.48129	R0:S0:1	-110.08	uncorrelated	51514b8	 2.27e+02	 1.45e-02	 1.96e-02	2022-04-08@21:11
2x2_2C_8b_C2v_L	0.1	14	1.24	-0.40812238	-9.6006615	-10.548626	0.22488192	-10.5339	0.19474165	0.10228591	-10.557121	15	-0.0040671591	0.0013384261	0.0024624043	-0.085041222	0.008258233	-0.081428092	0.08308501	0.0031143809	-0.08075419	-0.77825275	1.1839229	0.0094537392	-1.18369	0.012713279	-0.018661375	-1.5119967	1.32	0.617	0.159	-0.3207487	0.84961736	1.9998199	1.9997789	1.9971671	0.013009464	1.995483	0.0017760712	0.96706693	1.9644205	1.8495602	0.024331745	-0.030099784	-0.2393853	0.10559195	-0.32161697	0.039078414	-2.4993395	0.17710258	0.0039033481	0.0058791637	-0.052077831	-0.48458102	0.082215364	0.10649171	1.871494	0.49960368	0.42375787	0.034432197	0.00019214712	0.00022410471	0.0029311564	0.016962625	0.0046995405	0.0023724617	0.60824073	0.034816143	0.034478198	7.9615296	7.9609749	7.7251113	0.44863286	7.5682157	0.43812807	3.8120374	6.1710183	0.041664288	0.041960708	0.28275353	7.5524874	0.4510753	7.5945246	4.9139406	1.744988	-147.4428	R0:S0:1	-110.08	uncorrelated	51514b8	 2.26e+02	 1.52e-02	 1.86e-02	2022-04-08@21:14
2x2_2C_8b_C2v_L	0.1	14	1.24	-0.41023948	-9.5983738	-10.544545	0.18841588	-10.529544	0.23111019	0.10233407	-10.543837	15	0.0072177624	-0.0037254053	0.0086460626	-0.080758941	0.0022581614	-0.085848382	0.083178959	-0.002964377	-0.080143763	-0.77938285	1.1845716	-0.013050114	-1.182371	-0.0094513015	0.018222412	-1.5108141	1.32	0.617	0.159	-0.32026496	0.84913954	1.9996822	1.9997679	1.9954825	0.0017002583	1.997179	0.012689502	0.97491241	1.9642073	1.8490821	-0.065415151	0.033276678	-0.32162239	0.037018396	-0.23876853	0.10425665	-2.5178154	-0.17680255	0.0029576219	0.0060586666	-0.082155407	-0.09701907	0.051883508	0.4810631	-1.8554962	0.50230089	0.42394212	0.03445348	0.00034646756	0.0002353405	0.004700122	0.0022833136	0.002919076	0.016454425	0.60706507	0.03501929	0.034499623	7.9598522	7.9602948	7.5688874	0.43517233	7.7261112	0.44338304	3.788163	6.1627675	0.042881759	0.042677626	0.45050979	7.5980127	0.28185838	7.5580432	4.9479456	1.752477	-147.39855	R0:S0:1	-110.08	uncorrelated	51514b8	 2.26e+02	 1.41e-02	 1.82e-02	2022-04-08@21:18
2x2_2C_8b_C2v_L	0.1	14	1.24	-0.41159976	-9.5967735	-10.541185	0.22033402	-10.52664	0.20049216	0.10262673	-10.534051	15	-0.00522859	0.0024363814	0.0022581786	-0.08451038	0.0086800462	-0.08231794	0.082998861	0.0031089542	-0.080561361	-0.77815034	1.1837538	0.0093670195	-1.1827767	0.013104409	-0.018391475	-1.5102119	1.32	0.617	0.159	-0.320738	0.84991559	1.9997873	1.9997757	1.9971763	0.013143429	1.9954678	0.0016992647	0.96506571	1.9644359	1.8498586	0.039176256	-0.031809897	-0.23891781	0.1058326	-0.32242967	0.037874048	-2.4942763	0.17847684	0.003490913	0.0059180806	-0.051917943	-0.48492347	0.082394187	0.10146806	1.8721384	0.49886356	0.42378322	0.03441453	0.0002286738	0.0002274562	0.0029217297	0.017216116	0.0047154536	0.0022562037	0.60909067	0.03480292	0.034460417	7.961317	7.9609244	7.7259068	0.44984118	7.5675688	0.43570036	3.8156757	6.1750252	0.041677434	0.041993801	0.28190438	7.5511973	0.45170226	7.5967585	4.9046684	1.7412291	-147.36539	R0:S0:1	-110.08	uncorrelated	51514b8	 2.27e+02	 1.12e-02	 1.80e-02	2022-04-08@21:21
2x2_2C_8b_C2v_L	0.1	14	1.24	-0.41207957	-9.595963	-10.539769	0.20728188	-10.525023	0.21280156	0.10180831	-10.529325	15	0.0073640542	-0.0038333568	0.0087291139	-0.083080926	0.0024918614	-0.08347819	0.082993916	-0.0030514886	-0.080414698	-0.77882573	1.1831253	-0.013065323	-1.1834272	-0.0092649518	0.018456275	-1.5098874	1.32	0.617	0.159	-0.32052237	0.84941847	1.9996728	1.9997686	1.9954876	0.0016928497	1.997152	0.013402017	0.97307888	1.964267	1.8493612	-0.067235236	0.033295911	-0.32155722	0.038206008	-0.23976798	0.10681063	-2.510309	-0.17610376	0.0029221494	0.0060395685	-0.08209513	-0.10342347	0.052257789	0.48594649	-1.8612251	0.50111694	0.42382103	0.034431354	0.00035686238	0.00023466632	0.0046944592	0.0022323021	0.0029470514	0.017678629	0.60768974	0.034961181	0.034477419	7.9598862	7.9604154	7.5689851	0.4340718	7.7246276	0.45476196	3.7978556	6.1679475	0.042806418	0.042533008	0.45026552	7.5979568	0.28331494	7.5463535	4.9330502	1.747397	-147.35032	R0:S0:1	-110.08	uncorrelated	51514b8	 2.26e+02	 1.10e-02	 1.80e-02	2022-04-08@21:24
2x2_2C_8b_C2v_L	0.1	14	1.24	-0.41245407	-9.5953982	-10.538684	0.21441906	-10.524046	0.20494447	0.10208848	-10.526004	15	-0.0085583683	0.0050116951	0.0024349865	-0.083793267	0.0088853298	-0.082731886	0.082945089	0.0028888669	-0.080462866	-0.7786279	1.1837329	0.0092618453	-1.1821101	0.013145897	-0.01822875	-1.5098826	1.32	0.617	0.159	-0.32035427	0.84936932	1.9995854	1.9997629	1.9971674	0.013320409	1.9954757	0.0016698349	0.97275662	1.9642198	1.849312	0.082423485	-0.035125331	-0.23908466	0.106366	-0.32201543	0.037615509	-2.5113112	0.17730379	0.0026104097	0.0061316467	-0.052037428	-0.48505856	0.082226831	0.10071245	1.8593223	0.50158368	0.42389435	0.034438058	0.00045490259	0.00024048032	0.0029308545	0.017551339	0.0047070663	0.0022057554	0.60765584	0.035007411	0.034484157	7.9587458	7.9600082	7.7255489	0.45284725	7.5686251	0.43363838	3.7957928	6.1667824	0.043751938	0.04294071	0.28237017	7.5483245	0.45068429	7.5985095	4.936136	1.7484489	-147.33862	R0:S0:1	-110.08	uncorrelated	51514b8	 2.26e+02	 1.08e-02	 1.80e-02	2022-04-08@21:27
2x2_2C_8b_C2v_L	0.1	14	1.24	-0.41280236	-9.5949343	-10.537827	0.20754361	-10.523062	0.21170711	0.10224081	-10.523241	15	0.0060381179	-0.0028259674	0.0085499625	-0.083197791	0.0025143307	-0.083369849	0.083057768	-0.0031404872	-0.080568887	-0.77861326	1.1828176	-0.0127262	-1.1833101	-0.0090453101	0.018485597	-1.5093556	1.32	0.617	0.159	-0.32067049	0.84964418	1.9997505	1.9997734	1.9954799	0.0018022511	1.9971631	0.013221114	0.96890299	1.9643208	1.8495871	-0.049900482	0.032033689	-0.32174842	0.040217502	-0.23963732	0.10578151	-2.502306	-0.17727721	0.0032767165	0.0059581886	-0.082279294	-0.11159621	0.052047263	0.48194278	-1.8671399	0.50026319	0.4237872	0.034425074	0.00026978496	0.0002297585	0.0047023022	0.0023812862	0.0029358383	0.017467337	0.60833613	0.034911503	0.034471039	7.9608722	7.9607663	7.5678508	0.43849953	7.725671	0.45168899	3.8069322	6.1710884	0.042020281	0.042172522	0.45139449	7.593827	0.28222762	7.5495536	4.9187928	1.7447025	-147.32922	R0:S0:1	-110.08	uncorrelated	51514b8	 2.27e+02	 1.17e-02	 1.80e-02	2022-04-08@21:31
2x2_2C_8b_C2v_L	0.1	14	1.24	-0.41352363	-9.5935346	-10.535198	0.22197115	-10.520296	0.19476045	0.10147136	-10.51483	15	-0.0079926061	0.0042575498	0.0023471942	-0.084713431	0.0084674577	-0.081480629	0.082780979	0.003205192	-0.080249536	-0.77906448	1.1832689	0.0093894567	-1.1827601	0.012826087	-0.018479611	-1.5091396	1.32	0.617	0.159	-0.32056926	0.84957932	1.9996299	1.9997669	1.9971619	0.013099276	1.9954858	0.0017402762	0.97298477	1.9642522	1.8495222	0.075425543	-0.033785038	-0.23949137	0.10591605	-0.32161713	0.038364827	-2.5079675	0.17546768	0.0027366378	0.0060598815	-0.052162563	-0.48477112	0.082072303	0.1037632	1.8627008	0.50090742	0.42382841	0.034405638	0.00040474781	0.00023633624	0.0029366937	0.017129505	0.0046968537	0.002324121	0.60784361	0.034974294	0.034451617	7.9594371	7.9603734	7.7247446	0.45038955	7.5692775	0.43588565	3.8011837	6.169993	0.043114681	0.042566238	0.28316826	7.5508071	0.44996148	7.5966548	4.9290748	1.7451649	-147.30074	R0:S0:1	-110.08	uncorrelated	51514b8	 2.26e+02	 1.16e-02	 1.80e-02	2022-04-08@21:34
2x2_2C_8b_C2v_L	0.1	14	1.24	-0.41390574	-9.5928472	-10.534009	0.20954062	-10.51882	0.2090331	0.10139484	-10.510797	15	0.010164536	-0.0061355199	0.0085875738	-0.083418755	0.0023974828	-0.082965398	0.082871882	-0.0028603526	-0.080375777	-0.7788903	1.1825504	-0.012675472	-1.1833619	-0.0092759846	0.018117599	-1.5085457	1.32	0.617	0.159	-0.32042819	0.8490824	1.9994351	1.9997562	1.9954866	0.0018121589	1.9971456	0.013602631	0.97941393	1.9641207	1.849025	-0.10338376	0.036318422	-0.32128135	0.040439074	-0.23971625	0.10756526	-2.522828	-0.17566709	0.0022800617	0.0062469862	-0.082136199	-0.11249048	0.052366497	0.48760821	-1.8484938	0.50268287	0.42379805	0.034457086	0.00062287908	0.00024726162	0.0046952268	0.0023903695	0.0029536067	0.018007958	0.60706331	0.035100034	0.034503229	7.9567564	7.9594621	7.5687879	0.43781515	7.7241846	0.45792781	3.7808228	6.1641414	0.04543029	0.043496551	0.45050846	7.5945419	0.28382485	7.5432063	4.9561878	1.7505867	-147.28655	R0:S0:1	-110.08	uncorrelated	51514b8	 2.26e+02	 1.11e-02	 1.80e-02	2022-04-08@21:37
2x2_2C_8b_C2v_L	0.1	14	1.24	-0.41429136	-9.5923447	-10.532927	0.21568677	-10.517831	0.20235127	0.10184371	-10.507557	15	-0.0081459605	0.0045823434	0.0025475714	-0.083920435	0.0085466823	-0.082485923	0.082871676	0.0028779686	-0.080635461	-0.77852152	1.1833808	0.0092031012	-1.1819194	0.012967235	-0.018212514	-1.5085011	1.32	0.617	0.159	-0.32036961	0.84942619	1.9996187	1.9997651	1.9971639	0.013188723	1.9954844	0.0017209071	0.97400254	1.9641698	1.8493689	0.076995857	-0.034456938	-0.23944289	0.10587373	-0.32158806	0.038378846	-2.512645	0.17694182	0.0027211252	0.0060941827	-0.052069881	-0.48328692	0.082119148	0.10377958	1.8575541	0.50186376	0.4239033	0.034423958	0.00041741377	0.00023821631	0.0029347092	0.017355124	0.0046981817	0.0022814395	0.60766063	0.035054636	0.03447	7.9592069	7.9601869	7.725462	0.45122747	7.5690152	0.43509502	3.7938184	6.167198	0.043363844	0.042760718	0.28246484	7.5500417	0.4502836	7.5973106	4.9383195	1.74787	-147.27521	R0:S0:1	-110.08	uncorrelated	51514b8	 2.26e+02	 1.25e-02	 1.79e-02	2022-04-08@21:40
2x2_2C_8b_C2v_L	0.1	14	1.24	-0.41497722	-9.5908942	-10.529976	0.19525807	-10.51498	0.22148209	0.10154878	-10.498592	15	0.0095069433	-0.0055134425	0.0085615079	-0.081376203	0.0023616023	-0.084495499	0.08282493	-0.0029448265	-0.080374343	-0.77886519	1.1832863	-0.012979561	-1.1821877	-0.0093602373	0.018372916	-1.5079451	1.32	0.617	0.159	-0.32033292	0.84947339	1.9995035	1.9997602	1.9954903	0.0016804709	1.9971639	0.013011641	0.97410847	1.964151	1.8494161	-0.094727176	0.035581231	-0.32150047	0.037345645	-0.23940197	0.10539584	-2.5116394	-0.17624141	0.0023780371	0.0061720732	-0.082009509	-0.099663988	0.052076931	0.48318096	-1.8592329	0.50191052	0.42392918	0.034411832	0.00054616278	0.00024313593	0.0046921357	0.002239587	0.0029348999	0.017013791	0.60759039	0.035071733	0.034457886	7.9577726	7.9598507	7.5695485	0.43376189	7.725403	0.44859564	3.7959422	6.1677956	0.044515314	0.043094822	0.44970714	7.5985554	0.28254021	7.5526334	4.9361303	1.7471379	-147.24483	R0:S0:1	-110.08	uncorrelated	51514b8	 2.26e+02	 1.44e-02	 1.81e-02	2022-04-08@21:43
2x2_2C_8b_C2v_L	0.1	14	1.24	-0.41604512	-9.5889926	-10.526088	0.22664775	-10.511273	0.19068151	0.10115581	-10.486985	15	-0.0077409607	0.0041375085	0.0023035988	-0.085249506	0.0085789977	-0.080841029	0.082748074	0.0031333893	-0.080453071	-0.77865385	1.1825077	0.0092907901	-1.182713	0.012974774	-0.018375587	-1.5069089	1.32	0.617	0.159	-0.32043003	0.84956417	1.9996493	1.9997679	1.997168	0.012752764	1.9954849	0.0016797029	0.97651701	1.964135	1.8495071	0.072033911	-0.033527396	-0.23950337	0.10451736	-0.32173571	0.036994304	-2.5144358	0.17506239	0.0028102921	0.0060414205	-0.052053873	-0.48037475	0.08200079	0.098065108	1.8562787	0.50194687	0.42392098	0.034389833	0.00038287659	0.00023536671	0.0029306561	0.016603495	0.004698262	0.0022487781	0.60756566	0.035085608	0.034435777	7.9596976	7.9604737	7.7252522	0.44538703	7.5699769	0.43338621	3.7922769	6.1684031	0.042901948	0.042469165	0.28269639	7.5560578	0.44928023	7.5991109	4.9402544	1.7463883	-147.2046	R0:S0:1	-110.08	uncorrelated	51514b8	 2.26e+02	 1.21e-02	 1.82e-02	2022-04-08@21:47
2x2_2C_8b_C2v_L	0.1	14	1.24	-0.41638526	-9.5882164	-10.52478	0.21107407	-10.509561	0.20885522	0.10045338	-10.482415	15	0.01103483	-0.0066219737	0.0084730645	-0.083485071	0.0025207765	-0.082910645	0.082589108	-0.0031442062	-0.080398473	-0.77886875	1.1823004	-0.012644333	-1.1829996	-0.0090863796	0.018389626	-1.5068607	1.32	0.617	0.159	-0.32050648	0.84924864	1.9993414	1.999754	1.9954971	0.0017916438	1.9971368	0.013419744	0.98095907	1.964056	1.8491914	-0.11472174	0.03660714	-0.32099514	0.040269933	-0.24049054	0.10685355	-2.5218608	-0.17350163	0.0021136563	0.0062769819	-0.081918958	-0.1125992	0.052479931	0.48415609	-1.8503938	0.50285789	0.42381096	0.034415284	0.00072717908	0.00024941286	0.0046845989	0.0023582327	0.0029631319	0.017770968	0.6068856	0.035158888	0.034461343	7.955665	7.9593497	7.5699523	0.43608216	7.7236861	0.45629482	3.7838777	6.1660323	0.046308737	0.043596461	0.44924481	7.595807	0.28434579	7.5450249	4.9537273	1.748199	-147.18939	R0:S0:1	-110.08	uncorrelated	51514b8	 2.26e+02	 1.10e-02	 1.81e-02	2022-04-08@21:50
2x2_2C_8b_C2v_L	0.1	14	1.24	-0.4166417	-9.5877853	-10.523852	0.21592169	-10.508697	0.20285164	0.10057161	-10.47957	15	-0.0069491163	0.0038415123	0.0024572209	-0.083980991	0.0087916523	-0.0824684	0.082659949	0.0026970261	-0.080895929	-0.77793004	1.182932	0.0091198656	-1.181542	0.01292999	-0.017918981	-1.506655	1.32	0.617	0.159	-0.3200585	0.84873634	1.9996977	1.9997681	1.9971521	0.013114015	1.9954904	0.0017145496	0.98770899	1.9638241	1.8486789	0.061715488	-0.033010402	-0.23980091	0.10575868	-0.32114599	0.03823017	-2.5407188	0.17442395	0.0031103118	0.006055539	-0.052287026	-0.48165598	0.081901692	0.10316772	1.8338897	0.50593634	0.42398958	0.03443977	0.00032863666	0.00023518194	0.0029471192	0.017253706	0.0046919948	0.0022706373	0.60536898	0.03538109	0.034485895	7.9599982	7.9603154	7.7244154	0.45153434	7.5706993	0.4332307	3.7585593	6.1559498	0.042816858	0.042667697	0.28368601	7.5501015	0.44867471	7.5991741	4.9908137	1.7575106	-147.17861	R0:S0:1	-110.08	uncorrelated	51514b8	 2.26e+02	 1.09e-02	 1.79e-02	2022-04-08@21:53
2x2_2C_8b_C2v_L	0.1	14	1.24	-0.41681196	-9.5872881	-10.522944	0.20790733	-10.507632	0.21083217	0.10110186	-10.476605	15	0.008239926	-0.004667414	0.0093676714	-0.082984457	0.002854211	-0.083214353	0.082556062	-0.0028509397	-0.080979153	-0.7778662	1.1822273	-0.013827117	-1.1823896	-0.008728119	0.018241043	-1.5065058	1.32	0.617	0.159	-0.32035012	0.84973218	1.9996127	1.9997662	1.9954809	0.0014834955	1.9971592	0.012904054	0.97539338	1.9641057	1.8496751	-0.078104194	0.034400778	-0.32232285	0.034020978	-0.24038633	0.10427137	-2.5122527	-0.17621868	0.0026940884	0.0060626417	-0.082000489	-0.086417521	0.052024479	0.4755145	-1.8567727	0.50195126	0.42401541	0.034371376	0.00042405203	0.00023703436	0.0047020758	0.0019462141	0.002940412	0.017068133	0.60781798	0.035114401	0.03441731	7.9593382	7.9603899	7.5701367	0.42562401	7.7260455	0.44759508	3.7942038	6.16945	0.043206829	0.042538738	0.44904262	7.6056387	0.28189144	7.5539993	4.9367953	1.7452322	-147.16802	R0:S0:1	-110.08	uncorrelated	51514b8	 2.27e+02	 1.06e-02	 1.78e-02	2022-04-08@21:56
2x2_2C_8b_C2v_L	0.1	14	1.24	-0.41696887	-9.5868952	-10.522133	0.21282462	-10.506907	0.20556229	0.10064244	-10.474307	15	-0.0043895317	0.0016185586	0.002509715	-0.083442903	0.0085472658	-0.082796419	0.082593477	0.0027487515	-0.080991633	-0.7778987	1.1834213	0.0093426191	-1.1815988	0.012936674	-0.018053063	-1.5062998	1.32	0.617	0.159	-0.32041095	0.84902572	1.9998112	1.999777	1.9971339	0.013506822	1.9954904	0.0017158058	0.98345503	1.9639234	1.8489685	0.028649781	-0.030042128	-0.24034539	0.10755794	-0.32119358	0.038457492	-2.5302275	0.17490878	0.0038342187	0.0059154256	-0.052570762	-0.48781177	0.08194576	0.10434619	1.8420493	0.50443095	0.4238313	0.034435694	0.00020156048	0.00022609881	0.0029656631	0.017809244	0.0046921221	0.0022665018	0.60634771	0.035286866	0.034481723	7.9613221	7.9608422	7.7231232	0.45753699	7.5702463	0.43358163	3.7716805	6.1613934	0.041821861	0.042124391	0.28491353	7.5436823	0.44908558	7.5986231	4.9707897	1.7525194	-147.15984	R0:S0:1	-110.08	uncorrelated	51514b8	 2.26e+02	 1.07e-02	 1.79e-02	2022-04-08@22:00
2x2_2C_8b_C2v_L	0.1	14	1.24	-0.41713533	-9.586345	-10.521121	0.20462501	-10.505795	0.21325412	0.10063333	-10.471004	15	0.0089640852	-0.0052213843	0.0091335415	-0.082692491	0.0028776441	-0.083642875	0.082595168	-0.0030037923	-0.080862537	-0.77804792	1.1822481	-0.013353202	-1.1821198	-0.0085066509	0.018018017	-1.5058703	1.32	0.617	0.159	-0.32015502	0.84922059	1.9995502	1.9997627	1.9954903	0.0016030238	1.9971594	0.012587216	0.98474376	1.9639282	1.8491634	-0.087757254	0.034798501	-0.3215836	0.036193072	-0.24056093	0.10299438	-2.5317183	-0.17408591	0.0025710327	0.0061287545	-0.081866046	-0.095080242	0.052028747	0.47024594	-1.840859	0.50437454	0.42407251	0.034389062	0.00049382442	0.00024064501	0.0046921798	0.0021155447	0.0029405619	0.016619372	0.60629744	0.035281369	0.034435069	7.9584186	7.960069	7.5708653	0.42926757	7.726014	0.44382847	3.7699994	6.161636	0.044019791	0.042887797	0.44838706	7.6026712	0.2820511	7.5582483	4.9724239	1.7522007	-147.14822	R0:S0:1	-110.08	uncorrelated	51514b8	 2.26e+02	 1.12e-02	 1.77e-02	2022-04-08@22:03
2x2_2C_8b_C2v_L	0.1	14	1.24	-0.41738403	-9.5854047	-10.519302	0.21596454	-10.503955	0.20082356	0.10031135	-10.465403	15	-0.0069283208	0.0035553949	0.0024902315	-0.083878545	0.0085183396	-0.082183976	0.082459269	0.002891065	-0.080832316	-0.77813096	1.1828699	0.0092190004	-1.1815944	0.012800495	-0.018041832	-1.5058097	1.32	0.617	0.159	-0.32032286	0.84906641	1.9996999	1.9997698	1.9971425	0.013208851	1.9954935	0.0017413789	0.98523163	1.9638873	1.8490092	0.061553139	-0.032511095	-0.24025287	0.10631009	-0.32110201	0.038669823	-2.5322978	0.17396733	0.0030917189	0.0060192889	-0.052434194	-0.4837762	0.081873521	0.10524057	1.8402218	0.50468985	0.42389581	0.034413395	0.00032619512	0.00023335546	0.0029570386	0.017368534	0.0046890122	0.0023117501	0.60613916	0.035319998	0.0344594	7.9601832	7.9605168	7.7237104	0.45323947	7.5706648	0.43425027	3.7695589	6.1613435	0.0425975	0.042446609	0.28434051	7.5482056	0.4486329	7.5981212	4.9745366	1.7522701	-147.12842	R0:S0:1	-110.08	uncorrelated	51514b8	 2.26e+02	 1.11e-02	 1.77e-02	2022-04-08@22:06
2x2_2C_8b_C2v_L	0.1	14	1.24	-0.41760614	-9.5847488	-10.518103	0.20541158	-10.502573	0.21178608	0.10033156	-10.46144	15	0.0092552388	-0.0054118815	0.0082964977	-0.082985914	0.0022650181	-0.083342274	0.08246255	-0.0027185835	-0.080564332	-0.77855916	1.1817391	-0.012514276	-1.1821865	-0.0095225681	0.017909301	-1.5055088	1.32	0.617	0.159	-0.32027171	0.8488813	1.9995245	1.99976	1.995503	0.0018545063	1.9971291	0.013759975	0.98653617	1.9638542	1.848824	-0.091491755	0.03510894	-0.32050083	0.040837506	-0.2400502	0.10865853	-2.5351364	-0.17431807	0.0025166772	0.006184559	-0.081846483	-0.11403654	0.052666435	0.49185818	-1.836611	0.50503162	0.42382836	0.034441526	0.00052217588	0.00024339869	0.0046784688	0.0024577594	0.0029705423	0.018159284	0.60604579	0.03535183	0.034487617	7.9578707	7.9597698	7.5703312	0.43790106	7.7227077	0.46102624	3.7651165	6.1605107	0.044498172	0.043199294	0.44895799	7.5947482	0.28536138	7.5400486	4.9801132	1.7530105	-147.11451	R0:S0:1	-110.08	uncorrelated	51514b8	 2.26e+02	 1.13e-02	 1.78e-02	2022-04-08@22:09
2x2_2C_8b_C2v_L	0.1	14	1.24	-0.417775	-9.5840692	-10.516685	0.21458102	-10.501265	0.20220125	0.10056275	-10.457339	15	-0.0088666454	0.0050302897	0.0021496978	-0.08365221	0.0087433731	-0.082333951	0.082434913	0.0030302333	-0.080853469	-0.77807523	1.182774	0.0095670222	-1.1812378	0.013097144	-0.018388398	-1.5052457	1.32	0.617	0.159	-0.32049068	0.84964615	1.9995609	1.999764	1.9971429	0.013646373	1.9954864	0.0016530782	0.97667523	1.9640719	1.8495891	0.086355681	-0.034669567	-0.23974597	0.10821121	-0.3217731	0.03722637	-2.5119188	0.17484373	0.0025603583	0.0061022782	-0.052476294	-0.49157914	0.081953317	0.099811615	1.8569356	0.50196174	0.42382827	0.034383121	0.00048176622	0.00023934362	0.002956163	0.017957972	0.0046965199	0.0021880927	0.60779127	0.035144849	0.03442905	7.9586536	7.9602115	7.7233342	0.45881218	7.5702424	0.43170556	3.7953101	6.1710009	0.043756638	0.042715486	0.28459534	7.5420528	0.44892707	7.6001112	4.9359982	1.7434261	-147.10041	R0:S0:1	-110.08	uncorrelated	51514b8	 2.27e+02	 1.16e-02	 1.80e-02	2022-04-08@22:13
2x2_2C_8b_C2v_L	0.1	14	1.24	-0.41809486	-9.583264	-10.515213	0.20310704	-10.499676	0.21364393	0.099766659	-10.452782	15	0.0094540716	-0.0053551165	0.0084497814	-0.082508273	0.0018448224	-0.083424181	0.082293903	-0.0031937007	-0.080365302	-0.77880131	1.1819989	-0.012582713	-1.1820834	-0.0098938503	0.01847338	-1.5047866	1.32	0.617	0.159	-0.32067918	0.84958933	1.9995071	1.9997619	1.9955009	0.001792502	1.9971208	0.014058749	0.9804964	1.9640858	1.8495324	-0.094365217	0.034780943	-0.32104415	0.039870891	-0.24008006	0.11032416	-2.5158938	-0.17280163	0.0024274816	0.0061345769	-0.081804515	-0.11107674	0.052883123	0.49888143	-1.8528259	0.50173135	0.42368098	0.034383059	0.00054136701	0.00024137402	0.0046809711	0.0023769859	0.0029786501	0.018499712	0.60769055	0.035129036	0.034428948	7.95796	7.9600901	7.5706117	0.43587763	7.7212961	0.46572367	3.7905558	6.1721095	0.044294409	0.042837907	0.44846812	7.5960814	0.28666999	7.5348315	4.9418157	1.7421028	-147.08482	R0:S0:1	-110.08	uncorrelated	51514b8	 2.27e+02	 1.15e-02	 1.82e-02	2022-04-08@22:16
2x2_2C_8b_C2v_L	0.1	14	1.24	-0.41826609	-9.5824267	-10.513506	0.21468905	-10.4981	0.20162242	0.099189254	-10.44774	15	-0.0089126251	0.0050830963	0.0025391502	-0.083787096	0.0085072953	-0.082366188	0.082283518	0.0029761771	-0.080665142	-0.77831434	1.1825406	0.0090353691	-1.1810919	0.012595886	-0.018007006	-1.5044801	1.32	0.617	0.159	-0.32017198	0.84880526	1.9995517	1.9997626	1.997133	0.013116816	1.9955076	0.0017923721	0.9942302	1.963741	1.848748	0.087510662	-0.034131395	-0.2407803	0.10597342	-0.32045562	0.039587671	-2.547516	0.1710563	0.0026358088	0.0061365078	-0.052591995	-0.48107021	0.081604064	0.10935625	1.8270186	0.50633841	0.42395037	0.0343989	0.00049172991	0.00024071066	0.0029671483	0.017276332	0.0046742924	0.0023802243	0.60484495	0.035455796	0.034444932	7.958327	7.9600258	7.7229572	0.45316139	7.5721672	0.43443364	3.7505482	6.1572552	0.044112437	0.042948999	0.28519667	7.5485987	0.44708103	7.5979411	5.0019414	1.755448	-147.0663	R0:S0:1	-110.08	uncorrelated	51514b8	 2.26e+02	 1.08e-02	 1.79e-02	2022-04-08@22:19
2x2_2C_8b_C2v_L	0.1	14	1.24	-0.41845785	-9.5819111	-10.512543	0.20647106	-10.497008	0.21007872	0.099529732	-10.444543	15	0.0070007644	-0.0036830452	0.0082612219	-0.083122518	0.0024460562	-0.083143536	0.082354455	-0.0029782977	-0.080752154	-0.77818143	1.1813652	-0.0121701	-1.1819368	-0.0090394617	0.017856623	-1.5043127	1.32	0.617	0.159	-0.32015876	0.84860131	1.9996929	1.9997687	1.9955113	0.0019488769	1.9971283	0.013335417	0.99430843	1.9636727	1.848544	-0.062809292	0.032303862	-0.31996649	0.042454966	-0.24070995	0.10670668	-2.5502034	-0.17189048	0.0031178267	0.0060428103	-0.081677632	-0.12089075	0.052640444	0.48281346	-1.8246226	0.50718078	0.42390476	0.034425451	0.00033371878	0.00023451974	0.0046697306	0.0025833855	0.0029720286	0.017640639	0.60456423	0.035522112	0.034471481	7.9599926	7.960412	7.5713697	0.43962934	7.7229113	0.45612768	3.7465737	6.1546697	0.042791076	0.042576485	0.44792215	7.5931343	0.28527022	7.545554	5.0083508	1.7579388	-147.05449	R0:S0:1	-110.08	uncorrelated	51514b8	 2.26e+02	 1.17e-02	 1.76e-02	2022-04-08@22:22
2x2_2C_8b_C2v_L	0.1	14	1.24	-0.41867695	-9.5802735	-10.509573	0.22245146	-10.493807	0.19217254	0.0994608	-10.435335	15	-0.0071577845	0.0036847091	0.0022756445	-0.084689402	0.0087234524	-0.080937445	0.082347639	0.0029538169	-0.080534697	-0.77852935	1.1818512	0.009207273	-1.1816805	0.013001847	-0.017864713	-1.5034161	1.32	0.617	0.159	-0.31995222	0.84882744	1.999685	1.9997689	1.9971459	0.0128737	1.9955031	0.0016513169	0.99475954	1.9636795	1.8487702	0.064893055	-0.032317666	-0.24016829	0.10517762	-0.3208324	0.036427222	-2.5497529	0.17161657	0.0030394412	0.0060338683	-0.052420233	-0.48049186	0.081571684	0.095853855	1.8245878	0.50693811	0.42406717	0.034388846	0.00034261549	0.00023429854	0.0029537633	0.016822176	0.0046795844	0.0022055727	0.60473507	0.035515199	0.034434834	7.9599743	7.9604898	7.723616	0.44893669	7.572738	0.42973332	3.7468425	6.1559869	0.042756229	0.042495564	0.28453478	7.5528263	0.44656687	7.6026708	5.0062818	1.7566312	-147.02097	R0:S0:1	-110.08	uncorrelated	51514b8	 2.26e+02	 1.35e-02	 1.76e-02	2022-04-08@22:26
