model	E_kin	D	U	e	eb1_1	eb2_1	eb3_1	eb4_1	eb5_1	eb6_1	eb7_1	eb8_1	mu	sb1_1	sb2_1	sb3_1	sb4_1	sb5_1	sb6_1	sb7_1	sb8_1	tb1_1	tb2_1	tb3_1	tb4_1	tb5_1	tb6_1	tb7_1	tb8_1	tpd	tpp	tppp	ave_D	ave_e	ave_mu	ave_tpd	ave_tpp	ave_tppp	ave_D_1	ave_U_1	ave_eb1_1	ave_eb2_1	ave_eb3_1	ave_eb4_1	ave_eb5_1	ave_eb6_1	ave_eb7_1	ave_eb8_1	ave_mu_1	ave_sb1_1	ave_sb2_1	ave_sb3_1	ave_sb4_1	ave_sb5_1	ave_sb6_1	ave_sb7_1	ave_sb8_1	ave_tb1_1	ave_tb2_1	ave_tb3_1	ave_tb4_1	ave_tb5_1	ave_tb6_1	ave_tb7_1	ave_tb8_1	var_D_1	var_U_1	var_eb1_1	var_eb2_1	var_eb3_1	var_eb4_1	var_eb5_1	var_eb6_1	var_eb7_1	var_eb8_1	var_mu_1	var_sb1_1	var_sb2_1	var_sb3_1	var_sb4_1	var_sb5_1	var_sb6_1	var_sb7_1	var_sb8_1	var_tb1_1	var_tb2_1	var_tb3_1	var_tb4_1	var_tb5_1	var_tb6_1	var_tb7_1	var_tb8_1	E0_1	sector_1	E0_2	sector_2	githash	iterations	dist_function	distance	diff_hybrid	time
2x2_2C_8b_C2v_L	6.7652982	0.1	14	2.06	0.10920127	-5.500172	-6.0855424	-0.022887995	-6.0855438	-0.022851746	0.026480622	-5.3523006	9.5	-7.3021433e-06	-1.0604125e-07	0.0024408917	-0.00021999779	0.0024404726	-0.00022685965	0.0034121806	3.1581692e-05	-6.4317542e-07	-0.87427587	1.3190539	-0.0047155732	-1.319054	0.0047262134	0.00074541637	-1.6322837	1.36	0.677	0.153	-0.021364248	1.3143994	1.6664674	-0.31206169	-0.042773601	0.019180153	-0.047218059	0.058145682	0	1.9781442	1.9473421	1.9999967	1.9473413	1.9999967	1.9512917e-06	1.8974328	1.0575144	9.0069523e-06	9.6772636e-06	-0.050831937	0.0007751397	-0.050830246	0.00078551784	-0.0056037798	-2.5597972e-05	1.1741871e-06	0.5426809	-0.89294046	0.007000133	0.89295223	-0.0070166817	-0.00073343394	1.3019452	0.7001464	0.013791851	0	0.021787679	0.051993034	3.2713672e-06	0.051993843	3.2862495e-06	1.95184e-06	0.099120856	0.013763848	3.3692844	4.786556	4.599973	4.2112335	4.5999433	4.2111956	4.1328826	4.6281589	4.6307156	3.4077704	3.8045949	3.788792	3.8046266	3.78883	3.8671298	4.0102474	-86.732403	R0:S0:1	-59.52	uncorrelated	51514b8	3	sharp_wc_2.0_b_50	 1.32e+00	 8.69e-04	2022-04-08@16:53
2x2_2C_8b_C2v_L	6.7644447	0.1	14	2.06	0.10920127	-5.6557999	-6.288015	-0.024643136	-6.2880417	-0.024640379	0.027051956	-5.8792905	10	9.4241962e-06	-3.7235377e-07	0.0024496346	-0.0003104912	0.0024467054	-0.00032642334	-0.0023741353	-2.1611423e-05	5.4119388e-06	-0.85400495	1.2907295	-0.00038708627	-1.2907299	-4.0976042e-06	0.003059523	-1.6369393	1.36	0.677	0.153	-0.021924705	1.3143885	1.6664177	-0.3122005	-0.042801985	0.019194258	-0.048528154	0.058640509	0	1.9777936	1.9467488	2	1.9467499	2	1.8053001e-06	1.8973279	1.0580207	-1.2776088e-05	-8.8929044e-06	-0.050487749	0.0004313823	-0.050487652	0.00041168283	0.0043304135	1.8636649e-05	-8.789933e-06	0.54669167	-0.89759913	0.00066695743	0.8975844	-2.6558521e-05	-0.0028069978	1.30302	0.69948914	0.013915021	0	0.022136721	0.052570495	4.2636749e-08	0.05256938	1.3822749e-08	1.8127057e-06	0.099209513	0.013875487	3.365189	4.7929664	4.607146	4.2142842	4.6071758	4.2143244	4.1350918	4.6270071	4.634811	3.4045579	3.8019751	3.7857161	3.8019414	3.7856757	3.8649205	4.011466	-90.895518	R0:S0:1	-63.52	uncorrelated	51514b8	1	sharp_wc_2.0_b_50	 1.55e+00	 7.15e-02	2022-04-08@16:59
2x2_2C_8b_C2v_L	6.7648697	0.1	14	2.06	0.10920127	-6.0461272	-6.7827014	-0.026361246	-6.7831579	-0.026958077	0.033155828	-6.3545934	10.5	-1.7813164e-05	-6.5269364e-06	0.0025743419	-4.9885332e-05	0.0026521464	-0.00024402221	-5.1770232e-05	2.2976067e-06	-1.3295709e-05	-0.85105983	1.2922923	-0.0027431468	-1.2924572	-0.0027498413	0.003395417	-1.6339202	1.36	0.677	0.153	-0.022915606	1.3144011	1.666514	-0.31205533	-0.042773179	0.019179747	-0.050837728	0.058889036	0	1.9774736	1.9466269	1.9999983	1.9466078	1.9999983	6.9313002e-07	1.8972905	1.0582883	2.68566e-05	1.8985887e-05	-0.051340535	0.00036121392	-0.051380787	-2.3871453e-05	0.00010571761	-2.3602966e-05	1.9435644e-05	0.55066358	-0.8984502	0.0050486581	0.8986627	0.0050286903	-0.0029059148	1.3029895	0.69910683	0.013988987	0	0.022454486	0.05268826	1.6961192e-06	0.052706636	1.6856839e-06	6.9315699e-07	0.099243702	0.013942735	3.365669	4.7947306	4.6094931	4.215943	4.6092186	4.215508	4.1331556	4.6290599	4.634331	3.4055304	3.8005136	3.7840703	3.8008726	3.7845051	3.8668498	4.0100262	-96.617879	R0:S0:1	-67.52	uncorrelated	51514b8	1	sharp_wc_2.0_b_50	 2.23e+00	 4.85e-03	2022-04-08@17:05
2x2_2C_8b_C2v_L	6.7659565	0.1	14	2.06	0.10920127	-6.6735268	-7.5692684	-0.028348009	-7.5703954	-0.029791819	0.045027667	-6.7805773	11	4.1647323e-05	-1.9862152e-06	0.0028059471	-0.00038595737	0.002805518	9.2338752e-05	-0.0044314526	-4.653081e-06	3.8146388e-06	-0.86428486	1.3192206	0.0040282367	-1.3193197	-0.0033973555	-9.9583316e-05	-1.6257771	1.36	0.677	0.153	-0.024433402	1.3144283	1.6666868	-0.3117471	-0.042708529	0.019147851	-0.054359428	0.058790925	3.7366132e-10	1.9773032	1.947276	1.9999953	1.9472781	1.9999966	6.4110991e-06	1.8970217	1.058214	-7.0778131e-05	1.4028072e-06	-0.053339135	-0.00010604523	-0.053337144	-0.00052952792	0.010285937	1.4504055e-06	-5.0760305e-06	0.55298396	-0.89320504	-0.0083597693	0.89319105	0.0071009639	7.9545058e-05	1.3039864	0.69929608	0.013994942	3.7366132e-10	0.02262306	0.052054487	4.6570734e-06	0.052052455	3.3529991e-06	6.411227e-06	0.099497485	0.013944972	3.3685141	4.7931837	4.6031409	4.2142641	4.6030994	4.2142348	4.128513	4.6350654	4.6314859	3.4084314	3.8019021	3.7857723	3.8019271	3.7857914	3.8715265	4.0063402	-103.90182	R0:S0:1	-71.52	uncorrelated	51514b8	1	sharp_wc_2.0_b_50	 3.54e+00	 4.65e-03	2022-04-08@17:12
2x2_2C_8b_C2v_L	6.7667228	0.1	14	2.06	0.10920127	-7.5395067	-8.6430217	-0.032056529	-8.6447114	-0.033189312	0.063209252	-7.1628683	11.5	3.2746969e-05	9.2499587e-06	0.0031919322	0.00030195783	0.0029858615	0.0047533093	0.005633491	-1.1749323e-07	4.3516498e-05	-0.8893984	1.3645622	0.010325299	-1.3647943	-0.011496245	7.8360599e-05	-1.6136994	1.36	0.677	0.153	-0.026698374	1.3144553	1.6668197	-0.31146222	-0.042643715	0.019115561	-0.059620933	0.058233701	5.0448098e-10	1.977525	1.9490108	1.9999575	1.9490004	1.9999429	1.3850428e-05	1.8963861	1.0576803	-6.3755158e-05	9.8476018e-06	-0.056693725	-0.0019373933	-0.056595442	-0.0064443688	-0.015089226	-2.0937444e-05	-5.3328264e-05	0.55055618	-0.87899688	-0.024986439	0.87913985	0.028489435	-5.6548942e-05	1.3072206	0.70020771	0.013914963	5.0448099e-10	0.02240177	0.050362365	4.2521267e-05	0.050372334	5.754597e-05	1.3850641e-05	0.10009291	0.013862922	3.3718866	4.7884347	4.5859542	4.2096127	4.5856056	4.2095248	4.1234587	4.6439408	4.6281134	3.4111902	3.8061295	3.7907211	3.8065003	3.7909196	3.8766261	4.0017484	-112.73302	R0:S0:1	-75.52	uncorrelated	51514b8	1	sharp_wc_2.0_b_50	 5.85e+00	 4.60e-03	2022-04-08@17:19
2x2_2C_8b_C2v_L	6.766596	0.1	14	2.06	0.10919807	-8.6374457	-9.9391443	-0.082454213	-9.9412456	-0.084469647	0.090109108	-7.5547873	12	-0.00064079829	-1.1110317e-05	0.0025625518	0.017320082	0.0025260018	0.015418053	-0.0026410692	-5.1977495e-05	0.0047004427	-0.92353612	1.420025	0.013201834	-1.4196903	-0.016061672	-0.0014674864	-1.6041028	1.36	0.677	0.153	-0.030082782	1.3144735	1.6668872	-0.31128996	-0.042602824	0.019093959	-0.067412767	0.057329742	2.3238985e-06	1.9782097	1.9515431	1.9998436	1.9515921	1.9998016	4.42259e-06	1.8955547	1.0567902	0.0014610502	-1.7981922e-05	-0.061460962	-0.01850927	-0.061411456	-0.017339915	0.0083544263	5.6845697e-05	-0.0053562642	0.54228979	-0.85781784	-0.040961077	0.85731925	0.048607616	0.0010287936	1.3120073	0.70144744	0.013786707	2.3241485e-06	0.021720787	0.047890726	0.00016066172	0.047843098	0.00020257307	4.4239921e-06	0.10086784	0.013733891	3.3741728	4.7815665	4.5600262	4.2031142	4.5601964	4.204005	4.1206593	4.6522243	4.6258442	3.4122109	3.8130617	3.7980539	3.8125717	3.797494	3.8793678	3.9984607	-123.1243	R0:S0:1	-79.52	uncorrelated	51514b8	1	sharp_wc_2.0_b_50	 1.00e+01	 6.12e-03	2022-04-08@17:27
2x2_2C_8b_C2v_L	6.7654543	0.1	14	2.06	0.19849421	-9.9108051	-11.232912	-0.62953269	-11.235304	-0.63031428	0.14658512	-8.0269573	12.5	0.00079115302	1.4414223e-05	-0.0083204451	0.042787565	-0.0089254793	0.05364889	-0.00058171204	-5.831885e-05	-0.024741827	-0.962697	1.460762	0.061296868	-1.4660294	-0.051954106	-0.015617389	-1.6034973	1.36	0.677	0.153	-0.035212916	1.3144792	1.6670436	-0.31119818	-0.042608208	0.019090568	-0.07844543	0.057100481	5.3477279e-05	1.9792253	1.9547356	1.9976915	1.9543732	1.9981677	9.2064084e-06	1.8950307	1.0565363	-0.0021321932	0.00010723581	-0.064703197	-0.049398591	-0.064729332	-0.056019492	0.0022415169	-0.00017204073	0.026459478	0.52944824	-0.82893853	-0.1802662	0.83266154	0.15699111	0.010365449	1.3156237	0.70076613	0.013862472	5.3548612e-05	0.020711223	0.044773844	0.0023149126	0.04512721	0.0018419913	9.2162656e-06	0.10135307	0.013816296	3.3739948	4.7751208	4.5369883	4.2195848	4.5362626	4.2121862	4.1232316	4.6538476	4.6264124	3.4101365	3.8117708	3.7979447	3.8150821	3.8014831	3.8768376	3.9996795	-135.99495	R0:S0:1	-83.52	uncorrelated	51514b8	1	sharp_wc_2.0_b_50	 1.80e+01	 8.66e-03	2022-04-08@17:35
2x2_2C_8b_C2v_L	6.7638953	0.1	14	2.06	0.38955254	-11.356632	-12.520959	-1.6813465	-12.523034	-1.6782976	0.24160441	-8.572718	13	-0.00012272864	-0.00029066998	-0.041148299	0.097567038	-0.040136214	0.12107493	0.0030467751	0.00045581502	-0.044628461	-1.0064011	1.4908271	0.13102647	-1.5118275	-0.10432723	-0.034097988	-1.6109252	1.36	0.677	0.153	-0.043976977	1.3144871	1.6676165	-0.31092894	-0.042646761	0.019092801	-0.096672272	0.058360945	0.00014784515	1.9804646	1.9583326	1.9925598	1.9570298	1.9945678	5.0181898e-05	1.8947751	1.0576847	0.00031537173	0.00044285712	-0.066314814	-0.10081021	-0.067992369	-0.11105746	-0.014452245	-0.00072320696	0.044600787	0.51303455	-0.79366299	-0.32455331	0.80701542	0.27005923	0.021410799	1.3184212	0.69611066	0.014404433	0.00014826207	0.019479586	0.041260176	0.007441235	0.042534716	0.0054447221	5.0655588e-05	0.10158616	0.014386421	3.3701194	4.7711471	4.5220921	4.2687931	4.5228691	4.243563	4.1317999	4.6488395	4.6311365	3.4039673	3.7985474	3.7864561	3.8075095	3.795781	3.8685673	4.0059952	-151.36535	R0:S0:1	-87.52	uncorrelated	51514b8	2	sharp_wc_2.0_b_50	 3.55e+01	 1.38e-03	2022-04-08@17:43
2x2_2C_8b_C2v_L	6.7624903	0.1	14	2.06	0.6893719	-12.972957	-13.801209	-3.2370928	-13.802781	-3.2278884	0.39067285	-9.1828206	13.5	-0.00012421422	1.6045462e-05	-0.11100794	0.20464478	-0.095406148	0.23426456	0.00078833774	0.0002443418	-0.076205864	-1.0594614	1.527677	0.23062333	-1.5692372	-0.17898531	-0.060326357	-1.6261283	1.36	0.677	0.153	-0.062732384	1.3145279	1.6694629	-0.30992216	-0.042711313	0.019077791	-0.13729795	0.062797736	0.00044846081	1.9816792	1.9616793	1.9853081	1.9593951	1.9894176	0.00010975729	1.8945154	1.0618106	0.0004755575	8.3420048e-06	-0.075323903	-0.18582621	-0.083883342	-0.19114434	-0.0047428081	-0.00013893274	0.073131957	0.49569481	-0.75698873	-0.44954402	0.78016597	0.37000456	0.035931267	1.3226076	0.68209912	0.016183875	0.00045144906	0.018273217	0.03799857	0.01465557	0.040239327	0.010580302	0.00011048736	0.10182459	0.016250367	3.3579064	4.7775743	4.5247221	4.3446988	4.5349029	4.3070241	4.1498952	4.6373335	4.6469647	3.3886315	3.7690367	3.7584731	3.7764534	3.7652432	3.8510554	4.0205205	-169.24848	R0:S0:1	-91.52	uncorrelated	51514b8	1	sharp_wc_2.0_b_50	 8.97e+01	 5.82e-03	2022-04-08@17:48
2x2_2C_8b_C2v_L	6.7704304	0.1	14	2.06	1.0965154	-14.759055	-15.072642	-5.2947641	-15.073525	-5.2764916	0.58859971	-9.8516603	14	0.00033137406	0.00023678861	-0.22366904	0.37195992	-0.18179472	0.40817573	-0.00041031219	-0.00014911684	-0.12369626	-1.1282679	1.5860347	0.36824733	-1.6507604	-0.28568981	-0.10252368	-1.6553312	1.36	0.677	0.153	-0.12251961	1.31484	1.681586	-0.30390317	-0.042994146	0.019000438	-0.27442862	0.090962436	0.0028124994	1.9832644	1.9671235	1.9735377	1.9637739	1.9793914	0.00032079878	1.8915257	1.0893466	-0.00061771899	-0.00050926506	-0.14628543	-0.36720112	-0.16990497	-0.35899432	0.0033033285	0.00043953063	0.15084042	0.46389538	-0.67980974	-0.57850301	0.71504729	0.496032	0.057049773	1.3575194	0.60641608	0.027395075	0.0028514693	0.01670781	0.03273449	0.026230021	0.036037852	0.020487724	0.00032548878	0.10457686	0.027667042	3.2426388	4.9045204	4.6572612	4.5796638	4.6737336	4.5403242	4.2550473	4.582155	4.7995977	3.2587744	3.5923047	3.5779171	3.5994688	3.5777162	3.748218	4.1025204	-189.69407	R0:S0:1	-95.52	uncorrelated	51514b8	1	sharp_wc_2.0_b_50	 7.56e+02	 6.05e-03	2022-04-08@17:53
2x2_2C_8b_C2v_L	6.9741337	0.1	14	2.06	1.5254644	-16.685959	-16.345818	-7.7735623	-16.343257	-7.7526065	0.050922119	-10.014054	14.5	-0.0017038868	-0.0020421083	-0.51517761	0.56195624	-0.47577792	0.5965682	-0.092328723	0.00011888127	-0.19203843	-1.2487846	1.5497608	0.73040276	-1.6227545	-0.66503335	-3.37605e-05	-1.6120866	1.36	0.677	0.153	-0.23999268	1.3179731	1.8002637	-0.24944627	-0.044499878	0.019994952	-0.45070068	0.50616705	0.050477303	1.9960706	1.994253	1.9438375	1.9934838	1.9432372	0.53643852	1.8956567	1.5047019	0.0013892659	0.0013874113	0.0076583424	-1.0507873	-0.034344284	-1.0676412	2.904972	-0.0005435872	1.0557144	0.11144801	-0.14212669	-0.49285786	0.16352836	0.48818227	0.001293799	1.3332551	0.31060887	0.062390876	0.048938952	0.0039569647	0.0058294941	0.05514576	0.0066173723	0.055530815	0.36126364	0.099388524	0.063085661	1.2829351	7.2243174	6.5992468	6.2118686	6.5923957	6.1975814	2.7204067	4.3003976	6.7749017	0.82801203	1.4876876	1.9232721	1.5022028	1.9285678	7.313188	3.8791282	-211.79104	R0:S0:1	-99.52	uncorrelated	51514b8	2	sharp_wc_2.0_b_50	 2.89e+02	 7.86e-03	2022-04-08@18:02
2x2_2C_8b_C2v_L	7.6175388	0.1	14	2.06	1.9048748	-18.759399	-17.637875	-10.642117	-17.629543	-10.635308	-0.034982662	-9.2759481	15	0.2474433	0.00072897142	-0.86653444	0.49686576	-0.85810034	0.51460713	-0.00027982314	5.2931587e-05	-0.00020557125	-0.98669482	1.1561058	1.2523386	-1.192736	-1.2345677	0.083536917	-1.5329322	1.36	0.677	0.153	-0.19876108	1.3261903	1.9195398	-0.11639216	-0.024174063	0.01152151	-0.28778722	0.80645967	0.00037391378	1.9998755	1.9902776	1.9712294	1.990628	1.9701092	0.66008241	1.9398076	1.805934	-0.0085912645	-0.0005659193	0.52969595	-0.87985039	0.51877631	-0.89821455	0.01442035	-0.000893063	0.0011108275	0.0050300837	0.066126314	-0.17826678	-0.063311769	0.18102844	-3.3896119	0.73635437	0.42059213	0.036501659	0.00038643818	0.00012523334	0.009855165	0.029505422	0.0095111375	0.030594298	0.37798456	0.057738725	0.036837348	0.056596588	7.9493374	7.5179002	7.257296	7.5202905	7.2424677	7.6363754	5.6810421	7.9505305	0.052777268	0.48575492	0.75727964	0.48384256	0.77117637	2.0042721	2.1252996	-234.48808	R0:S0:1	-103.52	uncorrelated	51514b8	8	sharp_wc_2.0_b_50	 2.37e+02	 8.28e-04	2022-04-08@18:27
2x2_2C_8b_C2v_L	8.1738138	0.1	14	2.06	2.6147971	-20.970861	-18.959969	-13.918818	-18.946209	-13.952552	0.26303449	-8.0569972	15.5	0.28104318	0.0045274396	-1.1256841	0.16747727	-1.1298873	0.14556727	0.074862189	0.00015543585	-0.0024981718	-1.0087299	0.35226383	1.7269206	-0.305559	-1.7357942	0.00017406952	-1.4018244	1.36	0.677	0.153	-0.12737888	1.3330185	1.9928531	-0.0061553556	-0.00053480358	0.00037742847	-0.1873927	0.97786782	3.6769414e-06	1.9999995	1.9775384	1.9957462	1.97714	1.9962354	6.3467456e-07	1.9999986	1.9778219	-1.1981529e-05	-0.0031954246	0.83346799	-0.34500008	0.84080167	-0.32282201	-5.1546294e-06	-0.00050298482	0.010249026	1.0848879e-05	0.080208569	-0.045530159	-0.08119722	0.043297982	-0.00362533	2.613788e-05	0.46457946	0.0075104409	3.8327769e-06	5.1415942e-07	0.022233077	0.004467975	0.022612613	0.0039548252	7.6810259e-07	1.4243207e-06	0.0075550321	0.00021705972	7.9998256	7.5619525	7.759926	7.5568283	7.7669297	0.00016981689	7.9998977	7.9997793	0.00017944598	0.4283566	0.23892917	0.4333197	0.23214372	7.999846	0.00018309035	-258.6732	R0:S0:1	-107.52	uncorrelated	51514b8	2	sharp_wc_2.0_b_50	 1.62e+02	 9.52e-03	2022-04-08@18:35
