model	D	U	e	eb1_1	eb2_1	eb3_1	eb4_1	eb5_1	eb6_1	eb7_1	eb8_1	mu	sb1_1	sb2_1	sb3_1	sb4_1	sb5_1	sb6_1	sb7_1	sb8_1	tb1_1	tb2_1	tb3_1	tb4_1	tb5_1	tb6_1	tb7_1	tb8_1	tpd	tpp	tppp	ave_D_1	ave_U_1	ave_eb1_1	ave_eb2_1	ave_eb3_1	ave_eb4_1	ave_eb5_1	ave_eb6_1	ave_eb7_1	ave_eb8_1	ave_mu_1	ave_sb1_1	ave_sb2_1	ave_sb3_1	ave_sb4_1	ave_sb5_1	ave_sb6_1	ave_sb7_1	ave_sb8_1	ave_tb1_1	ave_tb2_1	ave_tb3_1	ave_tb4_1	ave_tb5_1	ave_tb6_1	ave_tb7_1	ave_tb8_1	var_D_1	var_U_1	var_eb1_1	var_eb2_1	var_eb3_1	var_eb4_1	var_eb5_1	var_eb6_1	var_eb7_1	var_eb8_1	var_mu_1	var_sb1_1	var_sb2_1	var_sb3_1	var_sb4_1	var_sb5_1	var_sb6_1	var_sb7_1	var_sb8_1	var_tb1_1	var_tb2_1	var_tb3_1	var_tb4_1	var_tb5_1	var_tb6_1	var_tb7_1	var_tb8_1	E0_1	sector_1	E0_2	sector_2	githash	distance	diff_param	diff_hybrid	time
2x2_2C_8b_C2v_L	0.1	14	1.93	0.0086839677	-3.1445289	-3.9164807	-0.13437878	-3.9164407	-0.13437791	0.17455273	-3.5797676	9.425	2.7540906e-05	-4.0887161e-07	0.0069035686	-0.19307525	0.0069033966	-0.1930765	-1.0933969e-05	2.552128e-06	-0.11908613	-1.0874005	1.7341014	0.025163995	-1.7340927	-0.025176042	0.26343251	-2.2991102	1.25	0.649	0.161	-0.039548716	0.12995676	0.15300028	1.943568	1.7849491	1.7136812	1.7849488	1.7136734	0.015941585	1.5478547	1.0973613	-0.00021800262	5.0421372e-06	-0.0769727	1.0855552	-0.07698185	1.0855648	5.5443787e-05	1.7868262e-06	1.1405359	0.69089082	-1.6372522	-0.27309813	1.6372476	0.27313407	-0.29879129	2.5650535	0.48147878	0.028266462	0.14261398	0.055312167	0.19605289	0.26986005	0.19605314	0.26986517	0.016219615	0.34859916	0.037351388	3.5740623	5.5136309	5.2775861	4.764073	5.2775898	4.7640946	4.4012331	6.1638332	5.1337077	2.6911731	3.5014404	5.0069615	3.5014307	5.0069622	3.6776888	3.1601469	-73.174594	R0:S0:1	-59.96	uncorrelated	51514b8	 2.04e+01	 7.03e-01	 1.00e+06	2022-04-07@10:09
2x2_2C_8b_C2v_L	0.1	14	1.93	-0.052808118	-4.6356625	-5.5435821	-0.039166685	-5.5436486	-0.039885169	0.029143867	-5.202771	9.425	-3.7021283e-05	-5.5979164e-06	0.0037656154	0.0047634956	0.0037803216	0.0047780528	-0.05740362	2.2076226e-05	0.028705233	-0.7443829	1.1547895	-0.046341588	-1.1547202	0.046453712	0.00011491165	-1.4650446	1.25	0.649	0.161	-0.04716212	0.049661192	1.9998988	1.9804174	1.9547731	1.9996534	1.9547822	1.9996521	0.00054582975	1.9149643	1.0491855	7.5892316e-05	5.0638765e-07	-0.047632791	-0.002581755	-0.047638667	-0.0025852924	0.094207288	-5.1069778e-06	-0.037411038	0.52126689	-0.83068711	0.068938916	0.83058492	-0.069090567	-0.00012403456	1.1820953	0.70596385	0.01189459	0.00010122501	0.019521529	0.044733004	0.00035033008	0.044724158	0.000351491	0.00055003653	0.082749517	0.011887841	4.5311052	4.6727309	4.5197006	4.1847938	4.5197951	4.1849788	4.1090419	4.5287531	3.4697774	3.4987518	3.8285568	3.8178747	3.8284123	3.8177004	3.8945076	4.0237303	-81.924019	R0:S0:1	-59.96	uncorrelated	51514b8	 8.92e-01	 2.64e-01	 1.73e+00	2022-04-07@10:13
2x2_2C_8b_C2v_L	0.1	14	1.93	-0.055390158	-5.4864125	-6.1730401	-0.045848275	-6.1729361	-0.046536074	0.070257807	-5.5727636	9.425	-7.5225081e-07	5.4996287e-07	0.0017209887	-0.0028295579	0.0017235342	-0.0037114396	-0.009150748	5.0525812e-05	-0.00010772997	-0.79677825	1.2104606	-0.0046506055	-1.210478	0.0047757968	0.0018451399	-1.5101397	1.25	0.649	0.161	-0.046682896	0.048449027	2	1.9810151	1.9558011	1.9999953	1.9557979	1.9999942	1.3784521e-05	1.9159657	1.0479703	1.1949026e-06	4.4089449e-06	-0.044834424	0.0040472438	-0.044834596	0.0051848493	0.014875796	-3.4592764e-05	0.00014002084	0.51347775	-0.82179385	0.0072006259	0.82183067	-0.0074675549	-0.0017794926	1.1759956	0.70726288	0.011618956	1.4279928e-09	0.018926658	0.043726215	4.6882366e-06	0.04372923	5.7617751e-06	1.3788335e-05	0.081802726	0.011608742	4.5274959	4.6656725	4.5077721	4.1777221	4.5077302	4.1776596	4.1152818	4.5166118	3.4725041	3.5006081	3.8331343	3.8223139	3.8331916	3.8223846	3.8848083	4.0301788	-86.976694	R0:S0:1	-59.96	uncorrelated	51514b8	 8.46e-01	 1.44e-04	 3.27e-02	2022-04-07@10:18
