Number of OpenMP threads = 4
!!!!!!!!!!!!!!!!!!!!!!!!!!!!! - Fading to Sr2CuO2Cl2 - !!!!!!!!!!!!!!!!!!!!!!!!!!!!!
reading data file /home/theod/code_pyqcm/simulations/cdmft_max_supra_sid.tsv, line 1
111 columns read
----->  D  =  0.0
----->  U  =  14.0
----->  e  =  2.3
----->  eb1_1  =  -0.006655534
----->  eb2_1  =  -3.3502828
----->  eb3_1  =  -4.1133163
----->  eb4_1  =  -0.10235806
----->  eb5_1  =  -4.113222
----->  eb6_1  =  -0.1023468
----->  eb7_1  =  0.14108001
----->  eb8_1  =  -3.7537133
----->  mu  =  9.68
----->  sb1_1  =  -0.0001012231
----->  sb2_1  =  7.5002141e-06
----->  sb3_1  =  0.011771903
----->  sb4_1  =  -0.16264369
----->  sb5_1  =  0.011773954
----->  sb6_1  =  -0.16264057
----->  sb7_1  =  1.0013529e-05
----->  sb8_1  =  -2.0059213e-06
----->  tb1_1  =  -0.11240159
----->  tb2_1  =  -1.1061747
----->  tb3_1  =  1.7476608
----->  tb4_1  =  0.057892245
----->  tb5_1  =  -1.7476438
----->  tb6_1  =  -0.057886658
----->  tb7_1  =  0.22749261
----->  tb8_1  =  -2.3061557
----->  tpd  =  2.1
----->  tpp  =  1.0
----->  tppp  =  0.2

******************************* CDMFT procedure *******************************

minimization method =  CG
mixing state =  1
frequency grid type =  sharp
fictitious inverse temperature =  50
frequency cutoff =  2.0
--------------------------------------------------------------------------------

CDMFT iteration 1, distance =  1.66e+02, diff param =  6.21e-02
127 minimization steps, time(MIN)/time(ED)=0.00293
sb1_1     =  0.0000	sb2_1     = -0.0000	sb3_1     =  0.0101	sb4_1     = -0.1828	sb5_1     =  0.0101	
sb6_1     = -0.1828	sb7_1     =  0.0000	sb8_1     =  0.0000	eb1_1     =  0.0073	eb2_1     = -3.2405	
eb3_1     = -3.9554	eb4_1     = -0.1165	eb5_1     = -3.9553	eb6_1     = -0.1165	eb7_1     =  0.1567	
eb8_1     = -3.5865	tb1_1     = -0.1179	tb2_1     = -1.1037	tb3_1     =  1.7426	tb4_1     =  0.0430	
tb5_1     = -1.7426	tb6_1     = -0.0430	tb7_1     =  0.2522	tb8_1     = -2.3029	

CDMFT iteration 2, distance =  1.92e+02, diff param =  1.10e-02, diff hybrid =  9.64e-02
60 minimization steps, time(MIN)/time(ED)=0.00232
sb1_1     = -0.0000	sb2_1     =  0.0000	sb3_1     =  0.0064	sb4_1     = -0.1959	sb5_1     =  0.0064	
sb6_1     = -0.1959	sb7_1     =  0.0000	sb8_1     =  0.0000	eb1_1     =  0.0128	eb2_1     = -3.2246	
eb3_1     = -3.9502	eb4_1     = -0.1356	eb5_1     = -3.9501	eb6_1     = -0.1355	eb7_1     =  0.1720	
eb8_1     = -3.5954	tb1_1     = -0.1194	tb2_1     = -1.0962	tb3_1     =  1.7354	tb4_1     =  0.0236	
tb5_1     = -1.7353	tb6_1     = -0.0236	tb7_1     =  0.2660	tb8_1     = -2.2954	

CDMFT iteration 3, distance =  1.79e+02, diff param =  1.51e-02, diff hybrid =  4.47e-02
79 minimization steps, time(MIN)/time(ED)=0.00223
sb1_1     =  0.0001	sb2_1     =  0.0000	sb3_1     =  0.0080	sb4_1     = -0.1889	sb5_1     =  0.0080	
sb6_1     = -0.1889	sb7_1     = -0.0000	sb8_1     = -0.0000	eb1_1     =  0.0052	eb2_1     = -3.1585	
eb3_1     = -3.9330	eb4_1     = -0.1315	eb5_1     = -3.9330	eb6_1     = -0.1315	eb7_1     =  0.1731	
eb8_1     = -3.6017	tb1_1     = -0.1181	tb2_1     = -1.0891	tb3_1     =  1.7364	tb4_1     =  0.0303	
tb5_1     = -1.7364	tb6_1     = -0.0303	tb7_1     =  0.2587	tb8_1     = -2.3029	

CDMFT iteration 4, distance =  1.82e+02, diff param =  1.85e-03, diff hybrid =  2.64e-02
28 minimization steps, time(MIN)/time(ED)=0.00189
sb1_1     = -0.0000	sb2_1     = -0.0000	sb3_1     =  0.0079	sb4_1     = -0.1903	sb5_1     =  0.0079	
sb6_1     = -0.1903	sb7_1     =  0.0000	sb8_1     =  0.0000	eb1_1     =  0.0075	eb2_1     = -3.1594	
eb3_1     = -3.9328	eb4_1     = -0.1298	eb5_1     = -3.9328	eb6_1     = -0.1298	eb7_1     =  0.1703	
eb8_1     = -3.5958	tb1_1     = -0.1186	tb2_1     = -1.0884	tb3_1     =  1.7346	tb4_1     =  0.0298	
tb5_1     = -1.7346	tb6_1     = -0.0298	tb7_1     =  0.2604	tb8_1     = -2.2993	

CDMFT iteration 5, distance =  1.84e+02, diff param =  1.14e-03, diff hybrid =  8.70e-03
24 minimization steps, time(MIN)/time(ED)=0.00165
sb1_1     =  0.0000	sb2_1     =  0.0000	sb3_1     =  0.0075	sb4_1     = -0.1911	sb5_1     =  0.0075	
sb6_1     = -0.1911	sb7_1     = -0.0000	sb8_1     = -0.0000	eb1_1     =  0.0092	eb2_1     = -3.1613	
eb3_1     = -3.9339	eb4_1     = -0.1317	eb5_1     = -3.9339	eb6_1     = -0.1317	eb7_1     =  0.1721	
eb8_1     = -3.5974	tb1_1     = -0.1185	tb2_1     = -1.0885	tb3_1     =  1.7345	tb4_1     =  0.0281	
tb5_1     = -1.7345	tb6_1     = -0.0281	tb7_1     =  0.2613	tb8_1     = -2.2993	

CDMFT iteration 6, distance =  1.82e+02, diff param =  7.99e-04, diff hybrid =  3.84e-03
10 minimization steps, time(MIN)/time(ED)=0.00144
====================== CDMFT converged on the parameters ======================
sb1_1     =  0.0000	sb2_1     =  0.0000	sb3_1     =  0.0079	sb4_1     = -0.1902	sb5_1     =  0.0079	
sb6_1     = -0.1902	sb7_1     =  0.0000	sb8_1     =  0.0000	eb1_1     =  0.0075	eb2_1     = -3.1612	
eb3_1     = -3.9339	eb4_1     = -0.1313	eb5_1     = -3.9339	eb6_1     = -0.1313	eb7_1     =  0.1721	
eb8_1     = -3.5975	tb1_1     = -0.1185	tb2_1     = -1.0889	tb3_1     =  1.7352	tb4_1     =  0.0300	
tb5_1     = -1.7352	tb6_1     = -0.0300	tb7_1     =  0.2602	tb8_1     = -2.3002	
   <D> = 0.011015
   <e> = 1.251959
   <mu> = 1.607485
   <tpd> = -0.614989
   <tpp> = -0.203115
   <tppp> = 0.084308
************************* CDMFT completed successfully *************************

******************************* CDMFT procedure *******************************

minimization method =  CG
mixing state =  1
frequency grid type =  sharp
fictitious inverse temperature =  50
frequency cutoff =  2.0
--------------------------------------------------------------------------------

CDMFT iteration 1, distance =  1.68e+02, diff param =  5.50e-02
113 minimization steps, time(MIN)/time(ED)=0.00284
sb1_1     = -0.0000	sb2_1     =  0.0000	sb3_1     =  0.0111	sb4_1     = -0.1679	sb5_1     =  0.0111	
sb6_1     = -0.1679	sb7_1     = -0.0000	sb8_1     = -0.0000	eb1_1     = -0.0109	eb2_1     = -3.2620	
eb3_1     = -4.0648	eb4_1     = -0.1117	eb5_1     = -4.0648	eb6_1     = -0.1117	eb7_1     =  0.1530	
eb8_1     = -3.7533	tb1_1     = -0.1133	tb2_1     = -1.0876	tb3_1     =  1.7312	tb4_1     =  0.0485	
tb5_1     = -1.7312	tb6_1     = -0.0485	tb7_1     =  0.2347	tb8_1     = -2.2951	

CDMFT iteration 2, distance =  1.45e+02, diff param =  2.24e-02, diff hybrid =  1.05e-01
94 minimization steps, time(MIN)/time(ED)=0.00257
sb1_1     =  0.0000	sb2_1     = -0.0000	sb3_1     =  0.0130	sb4_1     = -0.1540	sb5_1     =  0.0130	
sb6_1     = -0.1540	sb7_1     =  0.0001	sb8_1     = -0.0000	eb1_1     = -0.0231	eb2_1     = -3.3390	
eb3_1     = -4.1075	eb4_1     = -0.1030	eb5_1     = -4.1074	eb6_1     = -0.1030	eb7_1     =  0.1373	
eb8_1     = -3.7423	tb1_1     = -0.1121	tb2_1     = -1.1017	tb3_1     =  1.7444	tb4_1     =  0.0654	
tb5_1     = -1.7444	tb6_1     = -0.0654	tb7_1     =  0.2173	tb8_1     = -2.3006	

CDMFT iteration 3, distance =  1.48e+02, diff param =  6.98e-03, diff hybrid =  4.32e-02
53 minimization steps, time(MIN)/time(ED)=0.00211
sb1_1     = -0.0001	sb2_1     =  0.0000	sb3_1     =  0.0114	sb4_1     = -0.1574	sb5_1     =  0.0114	
sb6_1     = -0.1574	sb7_1     =  0.0000	sb8_1     =  0.0000	eb1_1     = -0.0103	eb2_1     = -3.3534	
eb3_1     = -4.0996	eb4_1     = -0.0923	eb5_1     = -4.0996	eb6_1     = -0.0923	eb7_1     =  0.1267	
eb8_1     = -3.7300	tb1_1     = -0.1122	tb2_1     = -1.1039	tb3_1     =  1.7405	tb4_1     =  0.0595	
tb5_1     = -1.7405	tb6_1     = -0.0595	tb7_1     =  0.2201	tb8_1     = -2.2941	

CDMFT iteration 4, distance =  1.53e+02, diff param =  4.98e-03, diff hybrid =  2.57e-02
47 minimization steps, time(MIN)/time(ED)=0.00184
sb1_1     = -0.0000	sb2_1     =  0.0000	sb3_1     =  0.0106	sb4_1     = -0.1615	sb5_1     =  0.0106	
sb6_1     = -0.1615	sb7_1     =  0.0000	sb8_1     = -0.0000	eb1_1     = -0.0045	eb2_1     = -3.3616	
eb3_1     = -4.1033	eb4_1     = -0.0969	eb5_1     = -4.1032	eb6_1     = -0.0969	eb7_1     =  0.1345	
eb8_1     = -3.7446	tb1_1     = -0.1116	tb2_1     = -1.1049	tb3_1     =  1.7410	tb4_1     =  0.0535	
tb5_1     = -1.7410	tb6_1     = -0.0534	tb7_1     =  0.2255	tb8_1     = -2.2973	

CDMFT iteration 5, distance =  1.51e+02, diff param =  3.48e-03, diff hybrid =  1.35e-02
38 minimization steps, time(MIN)/time(ED)=0.00166
sb1_1     = -0.0000	sb2_1     =  0.0000	sb3_1     =  0.0117	sb4_1     = -0.1592	sb5_1     =  0.0117	
sb6_1     = -0.1592	sb7_1     = -0.0000	sb8_1     = -0.0000	eb1_1     = -0.0096	eb2_1     = -3.3611	
eb3_1     = -4.1101	eb4_1     = -0.1011	eb5_1     = -4.1101	eb6_1     = -0.1011	eb7_1     =  0.1390	
eb8_1     = -3.7487	tb1_1     = -0.1113	tb2_1     = -1.1055	tb3_1     =  1.7436	tb4_1     =  0.0587	
tb5_1     = -1.7436	tb6_1     = -0.0588	tb7_1     =  0.2233	tb8_1     = -2.3004	

CDMFT iteration 6, distance =  1.49e+02, diff param =  1.60e-03, diff hybrid =  1.37e-02
23 minimization steps, time(MIN)/time(ED)=0.00148
sb1_1     =  0.0000	sb2_1     = -0.0000	sb3_1     =  0.0122	sb4_1     = -0.1579	sb5_1     =  0.0122	
sb6_1     = -0.1579	sb7_1     =  0.0000	sb8_1     = -0.0000	eb1_1     = -0.0117	eb2_1     = -3.3609	
eb3_1     = -4.1105	eb4_1     = -0.0994	eb5_1     = -4.1105	eb6_1     = -0.0994	eb7_1     =  0.1364	
eb8_1     = -3.7445	tb1_1     = -0.1119	tb2_1     = -1.1053	tb3_1     =  1.7434	tb4_1     =  0.0619	
tb5_1     = -1.7434	tb6_1     = -0.0619	tb7_1     =  0.2218	tb8_1     = -2.2994	

CDMFT iteration 7, distance =  1.51e+02, diff param =  1.24e-03, diff hybrid =  5.22e-03
12 minimization steps, time(MIN)/time(ED)=0.00131
sb1_1     =  0.0000	sb2_1     = -0.0000	sb3_1     =  0.0117	sb4_1     = -0.1592	sb5_1     =  0.0117	
sb6_1     = -0.1592	sb7_1     = -0.0000	sb8_1     = -0.0000	eb1_1     = -0.0088	eb2_1     = -3.3611	
eb3_1     = -4.1107	eb4_1     = -0.0977	eb5_1     = -4.1107	eb6_1     = -0.0977	eb7_1     =  0.1348	
eb8_1     = -3.7440	tb1_1     = -0.1118	tb2_1     = -1.1052	tb3_1     =  1.7429	tb4_1     =  0.0594	
tb5_1     = -1.7428	tb6_1     = -0.0594	tb7_1     =  0.2231	tb8_1     = -2.2983	

CDMFT iteration 8, distance =  1.51e+02, diff param =  5.68e-04, diff hybrid =  6.58e-03
8 minimization steps, time(MIN)/time(ED)=0.00118
====================== CDMFT converged on the parameters ======================
sb1_1     =  0.0000	sb2_1     =  0.0000	sb3_1     =  0.0115	sb4_1     = -0.1596	sb5_1     =  0.0115	
sb6_1     = -0.1596	sb7_1     =  0.0000	sb8_1     =  0.0000	eb1_1     = -0.0083	eb2_1     = -3.3612	
eb3_1     = -4.1107	eb4_1     = -0.0988	eb5_1     = -4.1107	eb6_1     = -0.0988	eb7_1     =  0.1363	
eb8_1     = -3.7440	tb1_1     = -0.1116	tb2_1     = -1.1052	tb3_1     =  1.7430	tb4_1     =  0.0585	
tb5_1     = -1.7430	tb6_1     = -0.0585	tb7_1     =  0.2236	tb8_1     = -2.2983	
   <D> = 0.014879
   <e> = 1.262473
   <mu> = 1.624711
   <tpd> = -0.573424
   <tpp> = -0.178064
   <tppp> = 0.074260
************************* CDMFT completed successfully *************************

******************************* CDMFT procedure *******************************

minimization method =  CG
mixing state =  1
frequency grid type =  sharp
fictitious inverse temperature =  50
frequency cutoff =  2.0
--------------------------------------------------------------------------------

CDMFT iteration 1, distance =  1.40e+02, diff param =  8.90e-02
204 minimization steps, time(MIN)/time(ED)=0.00466
sb1_1     = -0.0000	sb2_1     = -0.0000	sb3_1     =  0.0130	sb4_1     = -0.1375	sb5_1     =  0.0130	
sb6_1     = -0.1375	sb7_1     =  0.0000	sb8_1     = -0.0000	eb1_1     = -0.0703	eb2_1     = -3.6534	
eb3_1     = -4.3000	eb4_1     = -0.0986	eb5_1     = -4.3001	eb6_1     = -0.0986	eb7_1     =  0.1214	
eb8_1     = -3.9048	tb1_1     = -0.1224	tb2_1     = -1.1205	tb3_1     =  1.7486	tb4_1     =  0.0750	
tb5_1     = -1.7486	tb6_1     = -0.0750	tb7_1     =  0.1941	tb8_1     = -2.2929	

CDMFT iteration 2, distance =  7.61e+01, diff param =  2.27e-01, diff hybrid =  1.11e-01
211 minimization steps, time(MIN)/time(ED)=0.00468
sb1_1     = -0.0000	sb2_1     =  0.0000	sb3_1     =  0.0172	sb4_1     = -0.0747	sb5_1     =  0.0172	
sb6_1     = -0.0747	sb7_1     =  0.1938	sb8_1     = -0.0001	eb1_1     = -0.2703	eb2_1     = -4.4907	
eb3_1     = -4.6863	eb4_1     = -0.2011	eb5_1     = -4.6862	eb6_1     = -0.2010	eb7_1     =  0.2277	
eb8_1     = -4.1191	tb1_1     = -0.1961	tb2_1     = -1.2107	tb3_1     =  1.8099	tb4_1     =  0.1616	
tb5_1     = -1.8099	tb6_1     = -0.1616	tb7_1     =  0.0004	tb8_1     = -2.3261	

CDMFT iteration 3, distance =  7.43e+01, diff param =  9.83e-02, diff hybrid =  1.91e-01
136 minimization steps, time(MIN)/time(ED)=0.00449
sb1_1     = -0.0001	sb2_1     =  0.0000	sb3_1     =  0.0087	sb4_1     = -0.0723	sb5_1     =  0.0087	
sb6_1     = -0.0724	sb7_1     =  0.1477	sb8_1     =  0.0000	eb1_1     = -0.0744	eb2_1     = -4.1398	
eb3_1     = -4.6711	eb4_1     = -0.0895	eb5_1     = -4.6710	eb6_1     = -0.0895	eb7_1     =  0.0501	
eb8_1     = -4.0293	tb1_1     = -0.1492	tb2_1     = -1.1927	tb3_1     =  1.8165	tb4_1     =  0.1450	
tb5_1     = -1.8165	tb6_1     = -0.1450	tb7_1     = -0.0000	tb8_1     = -2.3233	

CDMFT iteration 4, distance =  1.21e+02, diff param =  1.26e-01, diff hybrid =  1.05e-01
120 minimization steps, time(MIN)/time(ED)=0.00396
sb1_1     =  0.0012	sb2_1     = -0.0001	sb3_1     =  0.0082	sb4_1     = -0.1223	sb5_1     =  0.0082	
sb6_1     = -0.1223	sb7_1     =  0.1550	sb8_1     = -0.0000	eb1_1     = -0.0097	eb2_1     = -3.7786	
eb3_1     = -4.3685	eb4_1     = -0.0573	eb5_1     = -4.3677	eb6_1     = -0.0571	eb7_1     = -0.0458	
eb8_1     = -3.8654	tb1_1     = -0.1131	tb2_1     = -1.1506	tb3_1     =  1.7635	tb4_1     =  0.0779	
tb5_1     = -1.7634	tb6_1     = -0.0778	tb7_1     = -0.0001	tb8_1     = -2.2833	

CDMFT iteration 5, distance =  1.21e+02, diff param =  3.90e-02, diff hybrid =  1.69e-01
153 minimization steps, time(MIN)/time(ED)=0.00373
sb1_1     = -0.0001	sb2_1     = -0.0000	sb3_1     =  0.0107	sb4_1     = -0.1224	sb5_1     =  0.0107	
sb6_1     = -0.1224	sb7_1     =  0.1697	sb8_1     =  0.0000	eb1_1     = -0.1100	eb2_1     = -3.9206	
eb3_1     = -4.3359	eb4_1     = -0.0791	eb5_1     = -4.3376	eb6_1     = -0.0795	eb7_1     = -0.0852	
eb8_1     = -3.8942	tb1_1     = -0.1361	tb2_1     = -1.1552	tb3_1     =  1.7608	tb4_1     =  0.0760	
tb5_1     = -1.7611	tb6_1     = -0.0762	tb7_1     =  0.0002	tb8_1     = -2.2958	

CDMFT iteration 6, distance =  7.71e+01, diff param =  1.58e-01, diff hybrid =  7.23e-02
331 minimization steps, time(MIN)/time(ED)=0.00437
sb1_1     =  0.0001	sb2_1     = -0.0000	sb3_1     =  0.0167	sb4_1     = -0.0761	sb5_1     =  0.0167	
sb6_1     = -0.0761	sb7_1     =  0.1071	sb8_1     = -0.0000	eb1_1     = -0.2517	eb2_1     = -4.4885	
eb3_1     = -4.6495	eb4_1     = -0.1786	eb5_1     = -4.6493	eb6_1     = -0.1788	eb7_1     =  0.0165	
eb8_1     = -3.8654	tb1_1     = -0.1936	tb2_1     = -1.2121	tb3_1     =  1.8060	tb4_1     =  0.1559	
tb5_1     = -1.8059	tb6_1     = -0.1559	tb7_1     =  0.0006	tb8_1     = -2.2850	

CDMFT iteration 7, distance =  7.91e+01, diff param =  1.39e-01, diff hybrid =  1.40e-01
178 minimization steps, time(MIN)/time(ED)=0.00444
sb1_1     = -0.0001	sb2_1     =  0.0000	sb3_1     =  0.0089	sb4_1     = -0.0802	sb5_1     =  0.0089	
sb6_1     = -0.0804	sb7_1     =  0.1361	sb8_1     =  0.0000	eb1_1     = -0.0485	eb2_1     = -3.8814	
eb3_1     = -4.5653	eb4_1     = -0.0770	eb5_1     = -4.5658	eb6_1     = -0.0772	eb7_1     =  0.0288	
eb8_1     = -3.9606	tb1_1     = -0.1325	tb2_1     = -1.1639	tb3_1     =  1.7989	tb4_1     =  0.1315	
tb5_1     = -1.7990	tb6_1     = -0.1315	tb7_1     = -0.0001	tb8_1     = -2.3067	

CDMFT iteration 8, distance =  1.16e+02, diff param =  7.39e-02, diff hybrid =  9.05e-02
106 minimization steps, time(MIN)/time(ED)=0.00415
sb1_1     =  0.0005	sb2_1     =  0.0000	sb3_1     =  0.0087	sb4_1     = -0.1199	sb5_1     =  0.0087	
sb6_1     = -0.1199	sb7_1     =  0.1526	sb8_1     = -0.0000	eb1_1     = -0.0108	eb2_1     = -3.7471	
eb3_1     = -4.3637	eb4_1     = -0.0605	eb5_1     = -4.3614	eb6_1     = -0.0599	eb7_1     = -0.0491	
eb8_1     = -3.8613	tb1_1     = -0.1121	tb2_1     = -1.1465	tb3_1     =  1.7630	tb4_1     =  0.0799	
tb5_1     = -1.7626	tb6_1     = -0.0795	tb7_1     = -0.0003	tb8_1     = -2.2833	

CDMFT iteration 9, distance =  1.19e+02, diff param =  6.69e-02, diff hybrid =  1.34e-01
109 minimization steps, time(MIN)/time(ED)=0.00393
sb1_1     = -0.0003	sb2_1     =  0.0001	sb3_1     =  0.0112	sb4_1     = -0.1199	sb5_1     =  0.0113	
sb6_1     = -0.1200	sb7_1     =  0.1661	sb8_1     =  0.0000	eb1_1     = -0.1410	eb2_1     = -4.0377	
eb3_1     = -4.3399	eb4_1     = -0.0815	eb5_1     = -4.3423	eb6_1     = -0.0822	eb7_1     = -0.0828	
eb8_1     = -3.8891	tb1_1     = -0.1490	tb2_1     = -1.1663	tb3_1     =  1.7615	tb4_1     =  0.0804	
tb5_1     = -1.7619	tb6_1     = -0.0809	tb7_1     =  0.0002	tb8_1     = -2.2950	

CDMFT iteration 10, distance =  7.76e+01, diff param =  1.30e-01, diff hybrid =  7.09e-02
293 minimization steps, time(MIN)/time(ED)=0.00422
sb1_1     =  0.0001	sb2_1     = -0.0001	sb3_1     =  0.0166	sb4_1     = -0.0774	sb5_1     =  0.0166	
sb6_1     = -0.0772	sb7_1     =  0.1100	sb8_1     = -0.0001	eb1_1     = -0.2414	eb2_1     = -4.4345	
eb3_1     = -4.6471	eb4_1     = -0.1734	eb5_1     = -4.6467	eb6_1     = -0.1735	eb7_1     =  0.0237	
eb8_1     = -3.8750	tb1_1     = -0.1906	tb2_1     = -1.2068	tb3_1     =  1.8060	tb4_1     =  0.1548	
tb5_1     = -1.8059	tb6_1     = -0.1548	tb7_1     =  0.0014	tb8_1     = -2.2861	

CDMFT iteration 11, distance =  8.03e+01, diff param =  1.26e-01, diff hybrid =  1.36e-01
122 minimization steps, time(MIN)/time(ED)=0.00416
sb1_1     = -0.0002	sb2_1     =  0.0000	sb3_1     =  0.0091	sb4_1     = -0.0823	sb5_1     =  0.0091	
sb6_1     = -0.0825	sb7_1     =  0.1344	sb8_1     =  0.0000	eb1_1     = -0.0482	eb2_1     = -3.8895	
eb3_1     = -4.5558	eb4_1     = -0.0771	eb5_1     = -4.5567	eb6_1     = -0.0774	eb7_1     =  0.0258	
eb8_1     = -3.9519	tb1_1     = -0.1319	tb2_1     = -1.1648	tb3_1     =  1.7971	tb4_1     =  0.1299	
tb5_1     = -1.7972	tb6_1     = -0.1299	tb7_1     = -0.0002	tb8_1     = -2.3044	

CDMFT iteration 12, distance =  1.15e+02, diff param =  7.11e-02, diff hybrid =  8.67e-02
127 minimization steps, time(MIN)/time(ED)=0.00403
sb1_1     =  0.0012	sb2_1     =  0.0001	sb3_1     =  0.0090	sb4_1     = -0.1192	sb5_1     =  0.0089	
sb6_1     = -0.1190	sb7_1     =  0.1512	sb8_1     = -0.0001	eb1_1     = -0.0115	eb2_1     = -3.7296	
eb3_1     = -4.3743	eb4_1     = -0.0622	eb5_1     = -4.3672	eb6_1     = -0.0605	eb7_1     = -0.0486	
eb8_1     = -3.8614	tb1_1     = -0.1119	tb2_1     = -1.1442	tb3_1     =  1.7649	tb4_1     =  0.0817	
tb5_1     = -1.7637	tb6_1     = -0.0805	tb7_1     = -0.0011	tb8_1     = -2.2835	

CDMFT iteration 13, distance =  1.19e+02, diff param =  7.75e-02, diff hybrid =  1.27e-01
201 minimization steps, time(MIN)/time(ED)=0.00402
sb1_1     = -0.0011	sb2_1     =  0.0003	sb3_1     =  0.0114	sb4_1     = -0.1193	sb5_1     =  0.0116	
sb6_1     = -0.1196	sb7_1     =  0.1650	sb8_1     =  0.0001	eb1_1     = -0.1488	eb2_1     = -4.0742	
eb3_1     = -4.3450	eb4_1     = -0.0818	eb5_1     = -4.3499	eb6_1     = -0.0837	eb7_1     = -0.0816	
eb8_1     = -3.8865	tb1_1     = -0.1523	tb2_1     = -1.1699	tb3_1     =  1.7625	tb4_1     =  0.0813	
tb5_1     = -1.7633	tb6_1     = -0.0828	tb7_1     =  0.0007	tb8_1     = -2.2943	

CDMFT iteration 14, distance =  7.77e+01, diff param =  1.24e-01, diff hybrid =  7.07e-02
241 minimization steps, time(MIN)/time(ED)=0.00414
sb1_1     =  0.0004	sb2_1     = -0.0002	sb3_1     =  0.0166	sb4_1     = -0.0781	sb5_1     =  0.0166	
sb6_1     = -0.0776	sb7_1     =  0.1105	sb8_1     = -0.0003	eb1_1     = -0.2394	eb2_1     = -4.4371	
eb3_1     = -4.6449	eb4_1     = -0.1712	eb5_1     = -4.6435	eb6_1     = -0.1715	eb7_1     =  0.0243	
eb8_1     = -3.8757	tb1_1     = -0.1902	tb2_1     = -1.2072	tb3_1     =  1.8058	tb4_1     =  0.1541	
tb5_1     = -1.8055	tb6_1     = -0.1540	tb7_1     =  0.0043	tb8_1     = -2.2862	

CDMFT iteration 15, distance =  8.07e+01, diff param =  1.26e-01, diff hybrid =  1.34e-01
178 minimization steps, time(MIN)/time(ED)=0.00418
sb1_1     = -0.0007	sb2_1     =  0.0001	sb3_1     =  0.0091	sb4_1     = -0.0827	sb5_1     =  0.0093	
sb6_1     = -0.0834	sb7_1     =  0.1338	sb8_1     =  0.0000	eb1_1     = -0.0479	eb2_1     = -3.8908	
eb3_1     = -4.5528	eb4_1     = -0.0769	eb5_1     = -4.5554	eb6_1     = -0.0778	eb7_1     =  0.0246	
eb8_1     = -3.9470	tb1_1     = -0.1315	tb2_1     = -1.1649	tb3_1     =  1.7965	tb4_1     =  0.1293	
tb5_1     = -1.7969	tb6_1     = -0.1294	tb7_1     = -0.0006	tb8_1     = -2.3031	

CDMFT iteration 16, distance =  1.14e+02, diff param =  6.95e-02, diff hybrid =  8.57e-02
128 minimization steps, time(MIN)/time(ED)=0.00408
sb1_1     =  0.0049	sb2_1     = -0.0000	sb3_1     =  0.0091	sb4_1     = -0.1191	sb5_1     =  0.0087	
sb6_1     = -0.1185	sb7_1     =  0.1508	sb8_1     = -0.0002	eb1_1     = -0.0119	eb2_1     = -3.7450	
eb3_1     = -4.3801	eb4_1     = -0.0643	eb5_1     = -4.3563	eb6_1     = -0.0588	eb7_1     = -0.0485	
eb8_1     = -3.8610	tb1_1     = -0.1119	tb2_1     = -1.1463	tb3_1     =  1.7659	tb4_1     =  0.0833	
tb5_1     = -1.7618	tb6_1     = -0.0795	tb7_1     = -0.0036	tb8_1     = -2.2834	

CDMFT iteration 17, distance =  1.19e+02, diff param =  7.21e-02, diff hybrid =  1.25e-01
240 minimization steps, time(MIN)/time(ED)=0.00412
sb1_1     = -0.0033	sb2_1     =  0.0010	sb3_1     =  0.0111	sb4_1     = -0.1190	sb5_1     =  0.0118	
sb6_1     = -0.1198	sb7_1     =  0.1648	sb8_1     =  0.0002	eb1_1     = -0.1464	eb2_1     = -4.0610	
eb3_1     = -4.3387	eb4_1     = -0.0793	eb5_1     = -4.3564	eb6_1     = -0.0857	eb7_1     = -0.0811	
eb8_1     = -3.8861	tb1_1     = -0.1513	tb2_1     = -1.1686	tb3_1     =  1.7614	tb4_1     =  0.0796	
tb5_1     = -1.7643	tb6_1     = -0.0846	tb7_1     =  0.0024	tb8_1     = -2.2942	

CDMFT iteration 18, distance =  7.78e+01, diff param =  1.26e-01, diff hybrid =  7.04e-02
279 minimization steps, time(MIN)/time(ED)=0.00427
sb1_1     =  0.0013	sb2_1     = -0.0005	sb3_1     =  0.0166	sb4_1     = -0.0789	sb5_1     =  0.0165	
sb6_1     = -0.0772	sb7_1     =  0.1094	sb8_1     = -0.0009	eb1_1     = -0.2404	eb2_1     = -4.4470	
eb3_1     = -4.6446	eb4_1     = -0.1706	eb5_1     = -4.6401	eb6_1     = -0.1713	eb7_1     =  0.0233	
eb8_1     = -3.8742	tb1_1     = -0.1906	tb2_1     = -1.2083	tb3_1     =  1.8059	tb4_1     =  0.1540	
tb5_1     = -1.8049	tb6_1     = -0.1536	tb7_1     =  0.0136	tb8_1     = -2.2860	

CDMFT iteration 19, distance =  8.07e+01, diff param =  1.27e-01, diff hybrid =  1.33e-01
160 minimization steps, time(MIN)/time(ED)=0.00428
sb1_1     = -0.0022	sb2_1     =  0.0004	sb3_1     =  0.0090	sb4_1     = -0.0820	sb5_1     =  0.0095	
sb6_1     = -0.0842	sb7_1     =  0.1337	sb8_1     =  0.0001	eb1_1     = -0.0482	eb2_1     = -3.8958	
eb3_1     = -4.5509	eb4_1     = -0.0762	eb5_1     = -4.5590	eb6_1     = -0.0792	eb7_1     =  0.0246	
eb8_1     = -3.9462	tb1_1     = -0.1315	tb2_1     = -1.1656	tb3_1     =  1.7961	tb4_1     =  0.1292	
tb5_1     = -1.7975	tb6_1     = -0.1296	tb7_1     = -0.0022	tb8_1     = -2.3029	

CDMFT iteration 20, distance =  1.15e+02, diff param =  7.25e-02, diff hybrid =  8.56e-02
136 minimization steps, time(MIN)/time(ED)=0.00419
sb1_1     =  0.0144	sb2_1     = -0.0001	sb3_1     =  0.0094	sb4_1     = -0.1199	sb5_1     =  0.0083	
sb6_1     = -0.1183	sb7_1     =  0.1512	sb8_1     = -0.0005	eb1_1     = -0.0124	eb2_1     = -3.7359	
eb3_1     = -4.3979	eb4_1     = -0.0690	eb5_1     = -4.3338	eb6_1     = -0.0539	eb7_1     = -0.0490	
eb8_1     = -3.8603	tb1_1     = -0.1111	tb2_1     = -1.1450	tb3_1     =  1.7688	tb4_1     =  0.0862	
tb5_1     = -1.7579	tb6_1     = -0.0757	tb7_1     = -0.0097	tb8_1     = -2.2831	

CDMFT iteration 21, distance =  1.19e+02, diff param =  7.58e-02, diff hybrid =  1.26e-01
147 minimization steps, time(MIN)/time(ED)=0.00413
sb1_1     = -0.0090	sb2_1     =  0.0027	sb3_1     =  0.0104	sb4_1     = -0.1184	sb5_1     =  0.0124	
sb6_1     = -0.1206	sb7_1     =  0.1651	sb8_1     =  0.0006	eb1_1     = -0.1446	eb2_1     = -4.0615	
eb3_1     = -4.3224	eb4_1     = -0.0733	eb5_1     = -4.3726	eb6_1     = -0.0912	eb7_1     = -0.0817	
eb8_1     = -3.8874	tb1_1     = -0.1506	tb2_1     = -1.1690	tb3_1     =  1.7588	tb4_1     =  0.0748	
tb5_1     = -1.7668	tb6_1     = -0.0886	tb7_1     =  0.0070	tb8_1     = -2.2945	

CDMFT iteration 22, distance =  7.79e+01, diff param =  1.40e-01, diff hybrid =  7.34e-02
235 minimization steps, time(MIN)/time(ED)=0.00420
sb1_1     =  0.0038	sb2_1     = -0.0014	sb3_1     =  0.0167	sb4_1     = -0.0804	sb5_1     =  0.0165	
sb6_1     = -0.0756	sb7_1     =  0.0275	sb8_1     = -0.0067	eb1_1     = -0.2384	eb2_1     = -4.4284	
eb3_1     = -4.6483	eb4_1     = -0.1700	eb5_1     = -4.6361	eb6_1     = -0.1720	eb7_1     = -0.1963	
eb8_1     = -4.0986	tb1_1     = -0.1897	tb2_1     = -1.2064	tb3_1     =  1.8067	tb4_1     =  0.1543	
tb5_1     = -1.8041	tb6_1     = -0.1531	tb7_1     = -0.1854	tb8_1     = -2.3242	

CDMFT iteration 23, distance =  7.99e+01, diff param =  1.16e-01, diff hybrid =  1.60e-01
176 minimization steps, time(MIN)/time(ED)=0.00425
sb1_1     = -0.0038	sb2_1     =  0.0008	sb3_1     =  0.0090	sb4_1     = -0.0799	sb5_1     =  0.0100	
sb6_1     = -0.0846	sb7_1     = -0.0053	sb8_1     =  0.0003	eb1_1     = -0.0574	eb2_1     = -3.9675	
eb3_1     = -4.5807	eb4_1     = -0.0779	eb5_1     = -4.6067	eb6_1     = -0.0856	eb7_1     = -0.0279	
eb8_1     = -3.9612	tb1_1     = -0.1374	tb2_1     = -1.1723	tb3_1     =  1.8008	tb4_1     =  0.1328	
tb5_1     = -1.8051	tb6_1     = -0.1335	tb7_1     = -0.1347	tb8_1     = -2.3062	

CDMFT iteration 24, distance =  1.15e+02, diff param =  8.59e-02, diff hybrid =  1.07e-01
137 minimization steps, time(MIN)/time(ED)=0.00420
sb1_1     =  0.0153	sb2_1     = -0.0002	sb3_1     =  0.0095	sb4_1     = -0.1196	sb5_1     =  0.0083	
sb6_1     = -0.1181	sb7_1     = -0.0086	sb8_1     = -0.0004	eb1_1     = -0.0129	eb2_1     = -3.7494	
eb3_1     = -4.4041	eb4_1     = -0.0691	eb5_1     = -4.3494	eb6_1     = -0.0545	eb7_1     =  0.0469	
eb8_1     = -3.8608	tb1_1     = -0.1112	tb2_1     = -1.1470	tb3_1     =  1.7700	tb4_1     =  0.0873	
tb5_1     = -1.7607	tb6_1     = -0.0769	tb7_1     = -0.1501	tb8_1     = -2.2831	

CDMFT iteration 25, distance =  1.19e+02, diff param =  7.00e-02, diff hybrid =  1.31e-01
183 minimization steps, time(MIN)/time(ED)=0.00418
sb1_1     = -0.0085	sb2_1     =  0.0024	sb3_1     =  0.0104	sb4_1     = -0.1185	sb5_1     =  0.0123	
sb6_1     = -0.1207	sb7_1     =  0.0074	sb8_1     =  0.0007	eb1_1     = -0.1423	eb2_1     = -4.0440	
eb3_1     = -4.3219	eb4_1     = -0.0733	eb5_1     = -4.3747	eb6_1     = -0.0909	eb7_1     =  0.0813	
eb8_1     = -3.8879	tb1_1     = -0.1496	tb2_1     = -1.1670	tb3_1     =  1.7587	tb4_1     =  0.0749	
tb5_1     = -1.7671	tb6_1     = -0.0884	tb7_1     = -0.1650	tb8_1     = -2.2946	

CDMFT iteration 26, distance =  7.80e+01, diff param =  1.30e-01, diff hybrid =  7.35e-02
243 minimization steps, time(MIN)/time(ED)=0.00425
sb1_1     =  0.0039	sb2_1     = -0.0015	sb3_1     =  0.0167	sb4_1     = -0.0805	sb5_1     =  0.0165	
sb6_1     = -0.0758	sb7_1     = -0.1057	sb8_1     = -0.0024	eb1_1     = -0.2392	eb2_1     = -4.4360	
eb3_1     = -4.6455	eb4_1     = -0.1696	eb5_1     = -4.6341	eb6_1     = -0.1716	eb7_1     =  0.0263	
eb8_1     = -3.8745	tb1_1     = -0.1900	tb2_1     = -1.2072	tb3_1     =  1.8063	tb4_1     =  0.1541	
tb5_1     = -1.8038	tb6_1     = -0.1528	tb7_1     = -0.0346	tb8_1     = -2.2863	

CDMFT iteration 27, distance =  8.02e+01, diff param =  1.26e-01, diff hybrid =  1.34e-01
229 minimization steps, time(MIN)/time(ED)=0.00431
sb1_1     = -0.0054	sb2_1     =  0.0010	sb3_1     =  0.0087	sb4_1     = -0.0792	sb5_1     =  0.0101	
sb6_1     = -0.0849	sb7_1     = -0.1343	sb8_1     =  0.0004	eb1_1     = -0.0521	eb2_1     = -3.8880	
eb3_1     = -4.5527	eb4_1     = -0.0764	eb5_1     = -4.5757	eb6_1     = -0.0845	eb7_1     =  0.0273	
eb8_1     = -3.9521	tb1_1     = -0.1328	tb2_1     = -1.1639	tb3_1     =  1.7963	tb4_1     =  0.1309	
tb5_1     = -1.8002	tb6_1     = -0.1318	tb7_1     =  0.0058	tb8_1     = -2.3042	

CDMFT iteration 28, distance =  1.15e+02, diff param =  7.29e-02, diff hybrid =  8.48e-02
131 minimization steps, time(MIN)/time(ED)=0.00425
sb1_1     =  0.0208	sb2_1     = -0.0001	sb3_1     =  0.0097	sb4_1     = -0.1206	sb5_1     =  0.0080	
sb6_1     = -0.1183	sb7_1     = -0.1508	sb8_1     = -0.0006	eb1_1     = -0.0134	eb2_1     = -3.7553	
eb3_1     = -4.4188	eb4_1     = -0.0730	eb5_1     = -4.3251	eb6_1     = -0.0501	eb7_1     = -0.0479	
eb8_1     = -3.8612	tb1_1     = -0.1106	tb2_1     = -1.1476	tb3_1     =  1.7723	tb4_1     =  0.0893	
tb5_1     = -1.7563	tb6_1     = -0.0735	tb7_1     =  0.0141	tb8_1     = -2.2830	

CDMFT iteration 29, distance =  1.19e+02, diff param =  6.63e-02, diff hybrid =  1.31e-01
207 minimization steps, time(MIN)/time(ED)=0.00425
sb1_1     = -0.0137	sb2_1     =  0.0038	sb3_1     =  0.0097	sb4_1     = -0.1182	sb5_1     =  0.0127	
sb6_1     = -0.1215	sb7_1     = -0.1655	sb8_1     =  0.0010	eb1_1     = -0.1351	eb2_1     = -4.0127	
eb3_1     = -4.3099	eb4_1     = -0.0681	eb5_1     = -4.3852	eb6_1     = -0.0948	eb7_1     = -0.0821	
eb8_1     = -3.8888	tb1_1     = -0.1464	tb2_1     = -1.1642	tb3_1     =  1.7567	tb4_1     =  0.0703	
tb5_1     = -1.7687	tb6_1     = -0.0911	tb7_1     = -0.0106	tb8_1     = -2.2947	

CDMFT iteration 30, distance =  7.81e+01, diff param =  1.44e-01, diff hybrid =  7.74e-02
246 minimization steps, time(MIN)/time(ED)=0.00430
sb1_1     =  0.0058	sb2_1     = -0.0022	sb3_1     =  0.0167	sb4_1     = -0.0816	sb5_1     =  0.0165	
sb6_1     = -0.0745	sb7_1     = -0.0432	sb8_1     = -0.0102	eb1_1     = -0.2391	eb2_1     = -4.4283	
eb3_1     = -4.6475	eb4_1     = -0.1695	eb5_1     = -4.6288	eb6_1     = -0.1726	eb7_1     = -0.1927	
eb8_1     = -4.0891	tb1_1     = -0.1897	tb2_1     = -1.2064	tb3_1     =  1.8067	tb4_1     =  0.1543	
tb5_1     = -1.8027	tb6_1     = -0.1524	tb7_1     =  0.1804	tb8_1     = -2.3237	

CDMFT iteration 31, distance =  7.95e+01, diff param =  1.11e-01, diff hybrid =  1.61e-01
201 minimization steps, time(MIN)/time(ED)=0.00435
sb1_1     = -0.0059	sb2_1     =  0.0012	sb3_1     =  0.0088	sb4_1     = -0.0778	sb5_1     =  0.0103	
sb6_1     = -0.0852	sb7_1     =  0.0078	sb8_1     =  0.0004	eb1_1     = -0.0603	eb2_1     = -3.9926	
eb3_1     = -4.5792	eb4_1     = -0.0775	eb5_1     = -4.6172	eb6_1     = -0.0890	eb7_1     = -0.0298	
eb8_1     = -3.9649	tb1_1     = -0.1386	tb2_1     = -1.1753	tb3_1     =  1.8005	tb4_1     =  0.1338	
tb5_1     = -1.8069	tb6_1     = -0.1348	tb7_1     =  0.1352	tb8_1     = -2.3071	

CDMFT iteration 32, distance =  1.15e+02, diff param =  9.08e-02, diff hybrid =  1.07e-01
160 minimization steps, time(MIN)/time(ED)=0.00433
sb1_1     =  0.0200	sb2_1     = -0.0003	sb3_1     =  0.0096	sb4_1     = -0.1200	sb5_1     =  0.0080	
sb6_1     = -0.1181	sb7_1     =  0.0116	sb8_1     = -0.0005	eb1_1     = -0.0135	eb2_1     = -3.7561	
eb3_1     = -4.4123	eb4_1     = -0.0715	eb5_1     = -4.3353	eb6_1     = -0.0516	eb7_1     =  0.0463	
eb8_1     = -3.8624	tb1_1     = -0.1107	tb2_1     = -1.1478	tb3_1     =  1.7713	tb4_1     =  0.0890	
tb5_1     = -1.7582	tb6_1     = -0.0750	tb7_1     =  0.1501	tb8_1     = -2.2834	

CDMFT iteration 33, distance =  1.19e+02, diff param =  7.02e-02, diff hybrid =  1.34e-01
182 minimization steps, time(MIN)/time(ED)=0.00431
sb1_1     = -0.0117	sb2_1     =  0.0033	sb3_1     =  0.0099	sb4_1     = -0.1184	sb5_1     =  0.0125	
sb6_1     = -0.1212	sb7_1     = -0.0098	sb8_1     =  0.0009	eb1_1     = -0.1394	eb2_1     = -4.0440	
eb3_1     = -4.3153	eb4_1     = -0.0697	eb5_1     = -4.3811	eb6_1     = -0.0933	eb7_1     =  0.0816	
eb8_1     = -3.8881	tb1_1     = -0.1485	tb2_1     = -1.1675	tb3_1     =  1.7576	tb4_1     =  0.0719	
tb5_1     = -1.7680	tb6_1     = -0.0902	tb7_1     =  0.1653	tb8_1     = -2.2945	

CDMFT iteration 34, distance =  7.81e+01, diff param =  1.44e-01, diff hybrid =  7.64e-02
257 minimization steps, time(MIN)/time(ED)=0.00436
sb1_1     =  0.0053	sb2_1     = -0.0020	sb3_1     =  0.0167	sb4_1     = -0.0814	sb5_1     =  0.0165	
sb6_1     = -0.0751	sb7_1     =  0.1821	sb8_1     = -0.0090	eb1_1     = -0.2411	eb2_1     = -4.4558	
eb3_1     = -4.6460	eb4_1     = -0.1691	eb5_1     = -4.6297	eb6_1     = -0.1718	eb7_1     =  0.1934	
eb8_1     = -4.0911	tb1_1     = -0.1907	tb2_1     = -1.2093	tb3_1     =  1.8065	tb4_1     =  0.1538	
tb5_1     = -1.8030	tb6_1     = -0.1522	tb7_1     =  0.0376	tb8_1     = -2.3235	

CDMFT iteration 35, distance =  7.97e+01, diff param =  1.18e-01, diff hybrid =  1.61e-01
194 minimization steps, time(MIN)/time(ED)=0.00439
sb1_1     = -0.0052	sb2_1     =  0.0010	sb3_1     =  0.0089	sb4_1     = -0.0786	sb5_1     =  0.0102	
sb6_1     = -0.0851	sb7_1     =  0.1348	sb8_1     =  0.0003	eb1_1     = -0.0593	eb2_1     = -3.9788	
eb3_1     = -4.5787	eb4_1     = -0.0777	eb5_1     = -4.6134	eb6_1     = -0.0879	eb7_1     =  0.0289	
eb8_1     = -3.9612	tb1_1     = -0.1380	tb2_1     = -1.1736	tb3_1     =  1.8004	tb4_1     =  0.1333	
tb5_1     = -1.8062	tb6_1     = -0.1342	tb7_1     = -0.0069	tb8_1     = -2.3062	

CDMFT iteration 36, distance =  1.15e+02, diff param =  8.81e-02, diff hybrid =  1.07e-01
171 minimization steps, time(MIN)/time(ED)=0.00437
sb1_1     =  0.0184	sb2_1     = -0.0002	sb3_1     =  0.0096	sb4_1     = -0.1198	sb5_1     =  0.0081	
sb6_1     = -0.1180	sb7_1     =  0.1500	sb8_1     = -0.0004	eb1_1     = -0.0133	eb2_1     = -3.7509	
eb3_1     = -4.4111	eb4_1     = -0.0707	eb5_1     = -4.3427	eb6_1     = -0.0527	eb7_1     = -0.0463	
eb8_1     = -3.8623	tb1_1     = -0.1109	tb2_1     = -1.1471	tb3_1     =  1.7711	tb4_1     =  0.0886	
tb5_1     = -1.7596	tb6_1     = -0.0759	tb7_1     = -0.0105	tb8_1     = -2.2834	

CDMFT iteration 37, distance =  1.19e+02, diff param =  6.72e-02, diff hybrid =  1.32e-01
187 minimization steps, time(MIN)/time(ED)=0.00435
sb1_1     = -0.0105	sb2_1     =  0.0030	sb3_1     =  0.0101	sb4_1     = -0.1183	sb5_1     =  0.0124	
sb6_1     = -0.1210	sb7_1     =  0.1650	sb8_1     =  0.0008	eb1_1     = -0.1381	eb2_1     = -4.0251	
eb3_1     = -4.3175	eb4_1     = -0.0711	eb5_1     = -4.3797	eb6_1     = -0.0925	eb7_1     = -0.0813	
eb8_1     = -3.8874	tb1_1     = -0.1478	tb2_1     = -1.1654	tb3_1     =  1.7580	tb4_1     =  0.0731	
tb5_1     = -1.7679	tb6_1     = -0.0897	tb7_1     =  0.0090	tb8_1     = -2.2944	

CDMFT iteration 38, distance =  7.81e+01, diff param =  1.49e-01, diff hybrid =  7.49e-02
214 minimization steps, time(MIN)/time(ED)=0.00437
sb1_1     =  0.0048	sb2_1     = -0.0018	sb3_1     =  0.0167	sb4_1     = -0.0811	sb5_1     =  0.0165	
sb6_1     = -0.0754	sb7_1     =  0.0340	sb8_1     = -0.0082	eb1_1     = -0.2426	eb2_1     = -4.4760	
eb3_1     = -4.6466	eb4_1     = -0.1692	eb5_1     = -4.6327	eb6_1     = -0.1717	eb7_1     = -0.1949	
eb8_1     = -4.0932	tb1_1     = -0.1916	tb2_1     = -1.2114	tb3_1     =  1.8065	tb4_1     =  0.1540	
tb5_1     = -1.8035	tb6_1     = -0.1525	tb7_1     = -0.1835	tb8_1     = -2.3235	

CDMFT iteration 39, distance =  7.98e+01, diff param =  1.21e-01, diff hybrid =  1.61e-01
166 minimization steps, time(MIN)/time(ED)=0.00439
sb1_1     = -0.0047	sb2_1     =  0.0009	sb3_1     =  0.0090	sb4_1     = -0.0792	sb5_1     =  0.0102	
sb6_1     = -0.0850	sb7_1     = -0.0064	sb8_1     =  0.0003	eb1_1     = -0.0586	eb2_1     = -3.9841	
eb3_1     = -4.5800	eb4_1     = -0.0777	eb5_1     = -4.6111	eb6_1     = -0.0870	eb7_1     = -0.0283	
eb8_1     = -3.9609	tb1_1     = -0.1378	tb2_1     = -1.1743	tb3_1     =  1.8007	tb4_1     =  0.1330	
tb5_1     = -1.8059	tb6_1     = -0.1338	tb7_1     = -0.1347	tb8_1     = -2.3062	

CDMFT iteration 40, distance =  1.14e+02, diff param =  8.77e-02, diff hybrid =  1.07e-01
140 minimization steps, time(MIN)/time(ED)=0.00436
sb1_1     =  0.0178	sb2_1     = -0.0003	sb3_1     =  0.0096	sb4_1     = -0.1197	sb5_1     =  0.0082	
sb6_1     = -0.1180	sb7_1     = -0.0099	sb8_1     = -0.0004	eb1_1     = -0.0133	eb2_1     = -3.7564	
eb3_1     = -4.4090	eb4_1     = -0.0702	eb5_1     = -4.3447	eb6_1     = -0.0533	eb7_1     =  0.0465	
eb8_1     = -3.8620	tb1_1     = -0.1110	tb2_1     = -1.1479	tb3_1     =  1.7708	tb4_1     =  0.0881	
tb5_1     = -1.7599	tb6_1     = -0.0763	tb7_1     = -0.1499	tb8_1     = -2.2834	

CDMFT iteration 41, distance =  1.19e+02, diff param =  7.15e-02, diff hybrid =  1.31e-01
171 minimization steps, time(MIN)/time(ED)=0.00434
sb1_1     = -0.0098	sb2_1     =  0.0028	sb3_1     =  0.0102	sb4_1     = -0.1183	sb5_1     =  0.0124	
sb6_1     = -0.1208	sb7_1     =  0.0086	sb8_1     =  0.0008	eb1_1     = -0.1418	eb2_1     = -4.0557	
eb3_1     = -4.3181	eb4_1     = -0.0717	eb5_1     = -4.3788	eb6_1     = -0.0921	eb7_1     =  0.0813	
eb8_1     = -3.8862	tb1_1     = -0.1495	tb2_1     = -1.1687	tb3_1     =  1.7581	tb4_1     =  0.0737	
tb5_1     = -1.7678	tb6_1     = -0.0894	tb7_1     = -0.1649	tb8_1     = -2.2941	

CDMFT iteration 42, distance =  7.80e+01, diff param =  1.40e-01, diff hybrid =  7.47e-02
248 minimization steps, time(MIN)/time(ED)=0.00437
sb1_1     =  0.0046	sb2_1     = -0.0017	sb3_1     =  0.0167	sb4_1     = -0.0810	sb5_1     =  0.0165	
sb6_1     = -0.0756	sb7_1     = -0.1841	sb8_1     = -0.0078	eb1_1     = -0.2389	eb2_1     = -4.4361	
eb3_1     = -4.6443	eb4_1     = -0.1688	eb5_1     = -4.6311	eb6_1     = -0.1711	eb7_1     =  0.1951	
eb8_1     = -4.0963	tb1_1     = -0.1899	tb2_1     = -1.2073	tb3_1     =  1.8062	tb4_1     =  0.1538	
tb5_1     = -1.8033	tb6_1     = -0.1523	tb7_1     = -0.0322	tb8_1     = -2.3241	

CDMFT iteration 43, distance =  7.99e+01, diff param =  1.12e-01, diff hybrid =  1.60e-01
142 minimization steps, time(MIN)/time(ED)=0.00437
sb1_1     = -0.0044	sb2_1     =  0.0009	sb3_1     =  0.0090	sb4_1     = -0.0795	sb5_1     =  0.0102	
sb6_1     = -0.0851	sb7_1     = -0.1346	sb8_1     =  0.0003	eb1_1     = -0.0587	eb2_1     = -3.9974	
eb3_1     = -4.5776	eb4_1     = -0.0778	eb5_1     = -4.6083	eb6_1     = -0.0866	eb7_1     =  0.0282	
eb8_1     = -3.9621	tb1_1     = -0.1380	tb2_1     = -1.1761	tb3_1     =  1.8002	tb4_1     =  0.1329	
tb5_1     = -1.8054	tb6_1     = -0.1336	tb7_1     =  0.0061	tb8_1     = -2.3064	

CDMFT iteration 44, distance =  1.14e+02, diff param =  8.99e-02, diff hybrid =  1.07e-01
177 minimization steps, time(MIN)/time(ED)=0.00436
sb1_1     =  0.0166	sb2_1     = -0.0002	sb3_1     =  0.0095	sb4_1     = -0.1195	sb5_1     =  0.0083	
sb6_1     = -0.1179	sb7_1     = -0.1498	sb8_1     = -0.0004	eb1_1     = -0.0131	eb2_1     = -3.7442	
eb3_1     = -4.4075	eb4_1     = -0.0698	eb5_1     = -4.3465	eb6_1     = -0.0537	eb7_1     = -0.0464	
eb8_1     = -3.8623	tb1_1     = -0.1110	tb2_1     = -1.1462	tb3_1     =  1.7706	tb4_1     =  0.0879	
tb5_1     = -1.7603	tb6_1     = -0.0767	tb7_1     =  0.0094	tb8_1     = -2.2835	

CDMFT iteration 45, distance =  1.19e+02, diff param =  7.07e-02, diff hybrid =  1.31e-01
212 minimization steps, time(MIN)/time(ED)=0.00436
sb1_1     = -0.0092	sb2_1     =  0.0027	sb3_1     =  0.0103	sb4_1     = -0.1183	sb5_1     =  0.0124	
sb6_1     = -0.1207	sb7_1     = -0.1648	sb8_1     =  0.0008	eb1_1     = -0.1416	eb2_1     = -4.0405	
eb3_1     = -4.3194	eb4_1     = -0.0723	eb5_1     = -4.3775	eb6_1     = -0.0917	eb7_1     = -0.0811	
eb8_1     = -3.8870	tb1_1     = -0.1493	tb2_1     = -1.1668	tb3_1     =  1.7583	tb4_1     =  0.0743	
tb5_1     = -1.7676	tb6_1     = -0.0892	tb7_1     = -0.0081	tb8_1     = -2.2943	

CDMFT iteration 46, distance =  7.80e+01, diff param =  1.44e-01, diff hybrid =  7.41e-02
207 minimization steps, time(MIN)/time(ED)=0.00437
sb1_1     =  0.0044	sb2_1     = -0.0017	sb3_1     =  0.0167	sb4_1     = -0.0809	sb5_1     =  0.0165	
sb6_1     = -0.0757	sb7_1     = -0.0299	sb8_1     = -0.0073	eb1_1     = -0.2397	eb2_1     = -4.4450	
eb3_1     = -4.6449	eb4_1     = -0.1690	eb5_1     = -4.6326	eb6_1     = -0.1711	eb7_1     = -0.1954	
eb8_1     = -4.0971	tb1_1     = -0.1902	tb2_1     = -1.2082	tb3_1     =  1.8063	tb4_1     =  0.1538	
tb5_1     = -1.8036	tb6_1     = -0.1525	tb7_1     =  0.1847	tb8_1     = -2.3240	

CDMFT iteration 47, distance =  7.99e+01, diff param =  1.13e-01, diff hybrid =  1.60e-01
175 minimization steps, time(MIN)/time(ED)=0.00439
sb1_1     = -0.0042	sb2_1     =  0.0008	sb3_1     =  0.0090	sb4_1     = -0.0797	sb5_1     =  0.0101	
sb6_1     = -0.0849	sb7_1     =  0.0058	sb8_1     =  0.0003	eb1_1     = -0.0585	eb2_1     = -3.9995	
eb3_1     = -4.5797	eb4_1     = -0.0779	eb5_1     = -4.6080	eb6_1     = -0.0863	eb7_1     = -0.0280	
eb8_1     = -3.9608	tb1_1     = -0.1379	tb2_1     = -1.1763	tb3_1     =  1.8006	tb4_1     =  0.1328	
tb5_1     = -1.8053	tb6_1     = -0.1336	tb7_1     =  0.1345	tb8_1     = -2.3061	

CDMFT iteration 48, distance =  1.14e+02, diff param =  9.23e-02, diff hybrid =  1.07e-01
135 minimization steps, time(MIN)/time(ED)=0.00436
sb1_1     =  0.0161	sb2_1     = -0.0002	sb3_1     =  0.0095	sb4_1     = -0.1194	sb5_1     =  0.0083	
sb6_1     = -0.1179	sb7_1     =  0.0089	sb8_1     = -0.0004	eb1_1     = -0.0129	eb2_1     = -3.7317	
eb3_1     = -4.4026	eb4_1     = -0.0693	eb5_1     = -4.3454	eb6_1     = -0.0541	eb7_1     =  0.0465	
eb8_1     = -3.8614	tb1_1     = -0.1110	tb2_1     = -1.1445	tb3_1     =  1.7697	tb4_1     =  0.0876	
tb5_1     = -1.7600	tb6_1     = -0.0769	tb7_1     =  0.1498	tb8_1     = -2.2833	

CDMFT iteration 49, distance =  1.19e+02, diff param =  7.70e-02, diff hybrid =  1.31e-01
200 minimization steps, time(MIN)/time(ED)=0.00435
sb1_1     = -0.0088	sb2_1     =  0.0025	sb3_1     =  0.0104	sb4_1     = -0.1183	sb5_1     =  0.0123	
sb6_1     = -0.1206	sb7_1     = -0.0076	sb8_1     =  0.0007	eb1_1     = -0.1434	eb2_1     = -4.0642	
eb3_1     = -4.3207	eb4_1     = -0.0729	eb5_1     = -4.3757	eb6_1     = -0.0912	eb7_1     =  0.0812	
eb8_1     = -3.8869	tb1_1     = -0.1503	tb2_1     = -1.1695	tb3_1     =  1.7585	tb4_1     =  0.0748	
tb5_1     = -1.7673	tb6_1     = -0.0889	tb7_1     =  0.1648	tb8_1     = -2.2943	

CDMFT iteration 50, distance =  7.80e+01, diff param =  1.34e-01, diff hybrid =  7.39e-02
248 minimization steps, time(MIN)/time(ED)=0.00438
sb1_1     =  0.0041	sb2_1     = -0.0016	sb3_1     =  0.0167	sb4_1     = -0.0806	sb5_1     =  0.0165	
sb6_1     = -0.0759	sb7_1     =  0.1053	sb8_1     = -0.0026	eb1_1     = -0.2433	eb2_1     = -4.4879	
eb3_1     = -4.6460	eb4_1     = -0.1691	eb5_1     = -4.6343	eb6_1     = -0.1710	eb7_1     =  0.0266	
eb8_1     = -3.8759	tb1_1     = -0.1920	tb2_1     = -1.2126	tb3_1     =  1.8064	tb4_1     =  0.1539	
tb5_1     = -1.8039	tb6_1     = -0.1525	tb7_1     =  0.0363	tb8_1     = -2.2867	

CDMFT iteration 51, distance =  8.01e+01, diff param =  1.33e-01, diff hybrid =  1.34e-01
227 minimization steps, time(MIN)/time(ED)=0.00442
sb1_1     = -0.0056	sb2_1     =  0.0011	sb3_1     =  0.0087	sb4_1     = -0.0790	sb5_1     =  0.0101	
sb6_1     = -0.0850	sb7_1     =  0.1341	sb8_1     =  0.0004	eb1_1     = -0.0527	eb2_1     = -3.8995	
eb3_1     = -4.5530	eb4_1     = -0.0765	eb5_1     = -4.5764	eb6_1     = -0.0848	eb7_1     =  0.0273	
eb8_1     = -3.9502	tb1_1     = -0.1329	tb2_1     = -1.1654	tb3_1     =  1.7964	tb4_1     =  0.1310	
tb5_1     = -1.8004	tb6_1     = -0.1318	tb7_1     = -0.0061	tb8_1     = -2.3037	

CDMFT iteration 52, distance =  1.15e+02, diff param =  7.52e-02, diff hybrid =  8.47e-02
158 minimization steps, time(MIN)/time(ED)=0.00439
sb1_1     =  0.0212	sb2_1     = -0.0002	sb3_1     =  0.0097	sb4_1     = -0.1205	sb5_1     =  0.0080	
sb6_1     = -0.1182	sb7_1     =  0.1506	sb8_1     = -0.0006	eb1_1     = -0.0134	eb2_1     = -3.7384	
eb3_1     = -4.4189	eb4_1     = -0.0730	eb5_1     = -4.3264	eb6_1     = -0.0501	eb7_1     = -0.0476	
eb8_1     = -3.8606	tb1_1     = -0.1104	tb2_1     = -1.1453	tb3_1     =  1.7723	tb4_1     =  0.0893	
tb5_1     = -1.7566	tb6_1     = -0.0737	tb7_1     = -0.0141	tb8_1     = -2.2829	

CDMFT iteration 53, distance =  1.19e+02, diff param =  7.99e-02, diff hybrid =  1.30e-01
263 minimization steps, time(MIN)/time(ED)=0.00441
sb1_1     = -0.0136	sb2_1     =  0.0039	sb3_1     =  0.0097	sb4_1     = -0.1181	sb5_1     =  0.0127	
sb6_1     = -0.1214	sb7_1     =  0.1655	sb8_1     =  0.0010	eb1_1     = -0.1414	eb2_1     = -4.0728	
eb3_1     = -4.3095	eb4_1     = -0.0682	eb5_1     = -4.3857	eb6_1     = -0.0950	eb7_1     = -0.0822	
eb8_1     = -3.8882	tb1_1     = -0.1494	tb2_1     = -1.1709	tb3_1     =  1.7566	tb4_1     =  0.0705	
tb5_1     = -1.7688	tb6_1     = -0.0913	tb7_1     =  0.0107	tb8_1     = -2.2945	

CDMFT iteration 54, distance =  7.81e+01, diff param =  1.38e-01, diff hybrid =  7.82e-02
254 minimization steps, time(MIN)/time(ED)=0.00443
sb1_1     =  0.0059	sb2_1     = -0.0023	sb3_1     =  0.0167	sb4_1     = -0.0817	sb5_1     =  0.0165	
sb6_1     = -0.0746	sb7_1     =  0.0427	sb8_1     = -0.0101	eb1_1     = -0.2398	eb2_1     = -4.4387	
eb3_1     = -4.6472	eb4_1     = -0.1688	eb5_1     = -4.6285	eb6_1     = -0.1717	eb7_1     = -0.1924	
eb8_1     = -4.0894	tb1_1     = -0.1900	tb2_1     = -1.2075	tb3_1     =  1.8068	tb4_1     =  0.1539	
tb5_1     = -1.8028	tb6_1     = -0.1520	tb7_1     = -0.1805	tb8_1     = -2.3237	

CDMFT iteration 55, distance =  7.96e+01, diff param =  1.16e-01, diff hybrid =  1.61e-01
183 minimization steps, time(MIN)/time(ED)=0.00445
sb1_1     = -0.0058	sb2_1     =  0.0012	sb3_1     =  0.0088	sb4_1     = -0.0780	sb5_1     =  0.0104	
sb6_1     = -0.0853	sb7_1     = -0.0078	sb8_1     =  0.0004	eb1_1     = -0.0598	eb2_1     = -3.9702	
eb3_1     = -4.5772	eb4_1     = -0.0773	eb5_1     = -4.6165	eb6_1     = -0.0889	eb7_1     = -0.0296	
eb8_1     = -3.9654	tb1_1     = -0.1381	tb2_1     = -1.1724	tb3_1     =  1.8002	tb4_1     =  0.1335	
tb5_1     = -1.8067	tb6_1     = -0.1346	tb7_1     = -0.1351	tb8_1     = -2.3072	

CDMFT iteration 56, distance =  1.15e+02, diff param =  8.73e-02, diff hybrid =  1.07e-01
168 minimization steps, time(MIN)/time(ED)=0.00444
sb1_1     =  0.0199	sb2_1     = -0.0003	sb3_1     =  0.0097	sb4_1     = -0.1199	sb5_1     =  0.0081	
sb6_1     = -0.1179	sb7_1     = -0.0115	sb8_1     = -0.0005	eb1_1     = -0.0136	eb2_1     = -3.7555	
eb3_1     = -4.4151	eb4_1     = -0.0716	eb5_1     = -4.3403	eb6_1     = -0.0518	eb7_1     =  0.0461	
eb8_1     = -3.8622	tb1_1     = -0.1107	tb2_1     = -1.1478	tb3_1     =  1.7718	tb4_1     =  0.0893	
tb5_1     = -1.7591	tb6_1     = -0.0754	tb7_1     = -0.1499	tb8_1     = -2.2833	

CDMFT iteration 57, distance =  1.19e+02, diff param =  6.45e-02, diff hybrid =  1.33e-01
178 minimization steps, time(MIN)/time(ED)=0.00442
sb1_1     = -0.0115	sb2_1     =  0.0032	sb3_1     =  0.0099	sb4_1     = -0.1182	sb5_1     =  0.0125	
sb6_1     = -0.1211	sb7_1     =  0.0098	sb8_1     =  0.0009	eb1_1     = -0.1351	eb2_1     = -4.0102	
eb3_1     = -4.3131	eb4_1     = -0.0698	eb5_1     = -4.3835	eb6_1     = -0.0934	eb7_1     =  0.0814	
eb8_1     = -3.8882	tb1_1     = -0.1466	tb2_1     = -1.1639	tb3_1     =  1.7572	tb4_1     =  0.0721	
tb5_1     = -1.7685	tb6_1     = -0.0904	tb7_1     = -0.1651	tb8_1     = -2.2946	

CDMFT iteration 58, distance =  7.81e+01, diff param =  1.45e-01, diff hybrid =  7.58e-02
327 minimization steps, time(MIN)/time(ED)=0.00447
sb1_1     =  0.0053	sb2_1     = -0.0020	sb3_1     =  0.0167	sb4_1     = -0.0814	sb5_1     =  0.0165	
sb6_1     = -0.0752	sb7_1     = -0.1824	sb8_1     = -0.0090	eb1_1     = -0.2385	eb2_1     = -4.4287	
eb3_1     = -4.6454	eb4_1     = -0.1689	eb5_1     = -4.6296	eb6_1     = -0.1720	eb7_1     =  0.1939	
eb8_1     = -4.0922	tb1_1     = -0.1896	tb2_1     = -1.2064	tb3_1     =  1.8064	tb4_1     =  0.1539	
tb5_1     = -1.8029	tb6_1     = -0.1524	tb7_1     = -0.0375	tb8_1     = -2.3237	

CDMFT iteration 59, distance =  7.97e+01, diff param =  1.15e-01, diff hybrid =  1.61e-01
169 minimization steps, time(MIN)/time(ED)=0.00448
sb1_1     = -0.0051	sb2_1     =  0.0010	sb3_1     =  0.0089	sb4_1     = -0.0787	sb5_1     =  0.0103	
sb6_1     = -0.0852	sb7_1     = -0.1348	sb8_1     =  0.0004	eb1_1     = -0.0589	eb2_1     = -3.9683	
eb3_1     = -4.5786	eb4_1     = -0.0776	eb5_1     = -4.6128	eb6_1     = -0.0878	eb7_1     =  0.0288	
eb8_1     = -3.9602	tb1_1     = -0.1378	tb2_1     = -1.1723	tb3_1     =  1.8004	tb4_1     =  0.1333	
tb5_1     = -1.8061	tb6_1     = -0.1342	tb7_1     =  0.0070	tb8_1     = -2.3059	

CDMFT iteration 60, distance =  1.15e+02, diff param =  8.61e-02, diff hybrid =  1.07e-01
155 minimization steps, time(MIN)/time(ED)=0.00446
sb1_1     =  0.0183	sb2_1     = -0.0002	sb3_1     =  0.0096	sb4_1     = -0.1198	sb5_1     =  0.0082	
sb6_1     = -0.1180	sb7_1     = -0.1500	sb8_1     = -0.0004	eb1_1     = -0.0134	eb2_1     = -3.7575	
eb3_1     = -4.4115	eb4_1     = -0.0708	eb5_1     = -4.3423	eb6_1     = -0.0527	eb7_1     = -0.0464	
eb8_1     = -3.8627	tb1_1     = -0.1110	tb2_1     = -1.1480	tb3_1     =  1.7712	tb4_1     =  0.0886	
tb5_1     = -1.7594	tb6_1     = -0.0758	tb7_1     =  0.0106	tb8_1     = -2.2835	

CDMFT iteration 61, distance =  1.19e+02, diff param =  7.09e-02, diff hybrid =  1.32e-01
251 minimization steps, time(MIN)/time(ED)=0.00447
sb1_1     = -0.0106	sb2_1     =  0.0030	sb3_1     =  0.0101	sb4_1     = -0.1183	sb5_1     =  0.0124	
sb6_1     = -0.1210	sb7_1     = -0.1650	sb8_1     =  0.0008	eb1_1     = -0.1410	eb2_1     = -4.0510	
eb3_1     = -4.3160	eb4_1     = -0.0709	eb5_1     = -4.3806	eb6_1     = -0.0926	eb7_1     = -0.0812	
eb8_1     = -3.8876	tb1_1     = -0.1491	tb2_1     = -1.1682	tb3_1     =  1.7577	tb4_1     =  0.0730	
tb5_1     = -1.7681	tb6_1     = -0.0898	tb7_1     = -0.0090	tb8_1     = -2.2944	

CDMFT iteration 62, distance =  7.80e+01, diff param =  1.42e-01, diff hybrid =  7.53e-02
212 minimization steps, time(MIN)/time(ED)=0.00448
sb1_1     =  0.0049	sb2_1     = -0.0018	sb3_1     =  0.0168	sb4_1     = -0.0812	sb5_1     =  0.0165	
sb6_1     = -0.0754	sb7_1     = -0.0343	sb8_1     = -0.0083	eb1_1     = -0.2394	eb2_1     = -4.4409	
eb3_1     = -4.6486	eb4_1     = -0.1694	eb5_1     = -4.6340	eb6_1     = -0.1722	eb7_1     = -0.1941	
eb8_1     = -4.0932	tb1_1     = -0.1900	tb2_1     = -1.2078	tb3_1     =  1.8069	tb4_1     =  0.1541	
tb5_1     = -1.8037	tb6_1     = -0.1526	tb7_1     =  0.1832	tb8_1     = -2.3236	

CDMFT iteration 63, distance =  7.97e+01, diff param =  1.11e-01, diff hybrid =  1.61e-01
155 minimization steps, time(MIN)/time(ED)=0.00448
sb1_1     = -0.0047	sb2_1     =  0.0010	sb3_1     =  0.0089	sb4_1     = -0.0790	sb5_1     =  0.0102	
sb6_1     = -0.0850	sb7_1     =  0.0065	sb8_1     =  0.0003	eb1_1     = -0.0593	eb2_1     = -4.0084	
eb3_1     = -4.5785	eb4_1     = -0.0777	eb5_1     = -4.6113	eb6_1     = -0.0872	eb7_1     = -0.0286	
eb8_1     = -3.9609	tb1_1     = -0.1383	tb2_1     = -1.1774	tb3_1     =  1.8004	tb4_1     =  0.1331	
tb5_1     = -1.8059	tb6_1     = -0.1340	tb7_1     =  0.1347	tb8_1     = -2.3061	

CDMFT iteration 64, distance =  1.14e+02, diff param =  9.05e-02, diff hybrid =  1.07e-01
202 minimization steps, time(MIN)/time(ED)=0.00448
sb1_1     =  0.0172	sb2_1     = -0.0003	sb3_1     =  0.0095	sb4_1     = -0.1197	sb5_1     =  0.0082	
sb6_1     = -0.1181	sb7_1     =  0.0097	sb8_1     = -0.0004	eb1_1     = -0.0132	eb2_1     = -3.7553	
eb3_1     = -4.4081	eb4_1     = -0.0699	eb5_1     = -4.3454	eb6_1     = -0.0533	eb7_1     =  0.0465	
eb8_1     = -3.8626	tb1_1     = -0.1111	tb2_1     = -1.1477	tb3_1     =  1.7707	tb4_1     =  0.0880	
tb5_1     = -1.7600	tb6_1     = -0.0762	tb7_1     =  0.1500	tb8_1     = -2.2835	

CDMFT iteration 65, distance =  1.19e+02, diff param =  6.95e-02, diff hybrid =  1.32e-01
263 minimization steps, time(MIN)/time(ED)=0.00449
sb1_1     = -0.0096	sb2_1     =  0.0028	sb3_1     =  0.0102	sb4_1     = -0.1184	sb5_1     =  0.0124	
sb6_1     = -0.1209	sb7_1     = -0.0083	sb8_1     =  0.0008	eb1_1     = -0.1406	eb2_1     = -4.0440	
eb3_1     = -4.3181	eb4_1     = -0.0718	eb5_1     = -4.3778	eb6_1     = -0.0918	eb7_1     =  0.0813	
eb8_1     = -3.8873	tb1_1     = -0.1489	tb2_1     = -1.1674	tb3_1     =  1.7580	tb4_1     =  0.0737	
tb5_1     = -1.7676	tb6_1     = -0.0892	tb7_1     =  0.1650	tb8_1     = -2.2944	

CDMFT iteration 66, distance =  7.80e+01, diff param =  1.42e-01, diff hybrid =  7.44e-02
327 minimization steps, time(MIN)/time(ED)=0.00454
sb1_1     =  0.0045	sb2_1     = -0.0017	sb3_1     =  0.0167	sb4_1     = -0.0808	sb5_1     =  0.0165	
sb6_1     = -0.0755	sb7_1     =  0.1844	sb8_1     = -0.0076	eb1_1     = -0.2390	eb2_1     = -4.4333	
eb3_1     = -4.6453	eb4_1     = -0.1692	eb5_1     = -4.6322	eb6_1     = -0.1715	eb7_1     =  0.1955	
eb8_1     = -4.0967	tb1_1     = -0.1898	tb2_1     = -1.2069	tb3_1     =  1.8063	tb4_1     =  0.1540	
tb5_1     = -1.8034	tb6_1     = -0.1525	tb7_1     =  0.0313	tb8_1     = -2.3241	

CDMFT iteration 67, distance =  7.98e+01, diff param =  1.18e-01, diff hybrid =  1.61e-01
140 minimization steps, time(MIN)/time(ED)=0.00454
sb1_1     = -0.0043	sb2_1     =  0.0008	sb3_1     =  0.0089	sb4_1     = -0.0794	sb5_1     =  0.0101	
sb6_1     = -0.0848	sb7_1     =  0.1347	sb8_1     =  0.0003	eb1_1     = -0.0579	eb2_1     = -3.9602	
eb3_1     = -4.5701	eb4_1     = -0.0776	eb5_1     = -4.6046	eb6_1     = -0.0864	eb7_1     =  0.0283	
eb8_1     = -3.9623	tb1_1     = -0.1374	tb2_1     = -1.1713	tb3_1     =  1.7989	tb4_1     =  0.1327	
tb5_1     = -1.8047	tb6_1     = -0.1336	tb7_1     = -0.0060	tb8_1     = -2.3065	

CDMFT iteration 68, distance =  1.15e+02, diff param =  8.54e-02, diff hybrid =  1.07e-01
162 minimization steps, time(MIN)/time(ED)=0.00452
sb1_1     =  0.0166	sb2_1     = -0.0002	sb3_1     =  0.0095	sb4_1     = -0.1196	sb5_1     =  0.0083	
sb6_1     = -0.1181	sb7_1     =  0.1501	sb8_1     = -0.0004	eb1_1     = -0.0130	eb2_1     = -3.7378	
eb3_1     = -4.4061	eb4_1     = -0.0697	eb5_1     = -4.3459	eb6_1     = -0.0538	eb7_1     = -0.0467	
eb8_1     = -3.8635	tb1_1     = -0.1110	tb2_1     = -1.1453	tb3_1     =  1.7703	tb4_1     =  0.0878	
tb5_1     = -1.7601	tb6_1     = -0.0766	tb7_1     = -0.0094	tb8_1     = -2.2838	

CDMFT iteration 69, distance =  1.19e+02, diff param =  7.78e-02, diff hybrid =  1.31e-01
196 minimization steps, time(MIN)/time(ED)=0.00452
sb1_1     = -0.0091	sb2_1     =  0.0026	sb3_1     =  0.0103	sb4_1     = -0.1183	sb5_1     =  0.0124	
sb6_1     = -0.1207	sb7_1     =  0.1649	sb8_1     =  0.0007	eb1_1     = -0.1456	eb2_1     = -4.0725	
eb3_1     = -4.3197	eb4_1     = -0.0725	eb5_1     = -4.3773	eb6_1     = -0.0917	eb7_1     = -0.0813	
eb8_1     = -3.8870	tb1_1     = -0.1511	tb2_1     = -1.1702	tb3_1     =  1.7583	tb4_1     =  0.0744	
tb5_1     = -1.7675	tb6_1     = -0.0891	tb7_1     =  0.0079	tb8_1     = -2.2943	

CDMFT iteration 70, distance =  7.80e+01, diff param =  1.42e-01, diff hybrid =  7.46e-02
206 minimization steps, time(MIN)/time(ED)=0.00452
sb1_1     =  0.0043	sb2_1     = -0.0016	sb3_1     =  0.0167	sb4_1     = -0.0807	sb5_1     =  0.0165	
sb6_1     = -0.0757	sb7_1     =  0.0297	sb8_1     = -0.0072	eb1_1     = -0.2414	eb2_1     = -4.4622	
eb3_1     = -4.6460	eb4_1     = -0.1692	eb5_1     = -4.6333	eb6_1     = -0.1715	eb7_1     = -0.1962	
eb8_1     = -4.0983	tb1_1     = -0.1910	tb2_1     = -1.2099	tb3_1     =  1.8064	tb4_1     =  0.1540	
tb5_1     = -1.8037	tb6_1     = -0.1526	tb7_1     = -0.1850	tb8_1     = -2.3243	

CDMFT iteration 71, distance =  7.99e+01, diff param =  1.17e-01, diff hybrid =  1.60e-01
193 minimization steps, time(MIN)/time(ED)=0.00453
sb1_1     = -0.0041	sb2_1     =  0.0008	sb3_1     =  0.0090	sb4_1     = -0.0797	sb5_1     =  0.0101	
sb6_1     = -0.0848	sb7_1     = -0.0057	sb8_1     =  0.0003	eb1_1     = -0.0583	eb2_1     = -3.9966	
eb3_1     = -4.5800	eb4_1     = -0.0780	eb5_1     = -4.6076	eb6_1     = -0.0860	eb7_1     = -0.0280	
eb8_1     = -3.9618	tb1_1     = -0.1379	tb2_1     = -1.1760	tb3_1     =  1.8006	tb4_1     =  0.1328	
tb5_1     = -1.8053	tb6_1     = -0.1335	tb7_1     = -0.1346	tb8_1     = -2.3064	

CDMFT iteration 72, distance =  1.14e+02, diff param =  9.10e-02, diff hybrid =  1.07e-01
173 minimization steps, time(MIN)/time(ED)=0.00452
sb1_1     =  0.0151	sb2_1     = -0.0001	sb3_1     =  0.0095	sb4_1     = -0.1195	sb5_1     =  0.0083	
sb6_1     = -0.1180	sb7_1     = -0.0089	sb8_1     = -0.0004	eb1_1     = -0.0129	eb2_1     = -3.7345	
eb3_1     = -4.4060	eb4_1     = -0.0693	eb5_1     = -4.3484	eb6_1     = -0.0541	eb7_1     =  0.0465	
eb8_1     = -3.8607	tb1_1     = -0.1111	tb2_1     = -1.1449	tb3_1     =  1.7703	tb4_1     =  0.0875	
tb5_1     = -1.7606	tb6_1     = -0.0769	tb7_1     = -0.1499	tb8_1     = -2.2831	

CDMFT iteration 73, distance =  1.19e+02, diff param =  8.20e-02, diff hybrid =  1.31e-01
225 minimization steps, time(MIN)/time(ED)=0.00451
sb1_1     = -0.0088	sb2_1     =  0.0026	sb3_1     =  0.0103	sb4_1     = -0.1185	sb5_1     =  0.0123	
sb6_1     = -0.1207	sb7_1     =  0.0074	sb8_1     =  0.0007	eb1_1     = -0.1462	eb2_1     = -4.0927	
eb3_1     = -4.3212	eb4_1     = -0.0730	eb5_1     = -4.3749	eb6_1     = -0.0910	eb7_1     =  0.0812	
eb8_1     = -3.8873	tb1_1     = -0.1516	tb2_1     = -1.1726	tb3_1     =  1.7586	tb4_1     =  0.0747	
tb5_1     = -1.7671	tb6_1     = -0.0886	tb7_1     = -0.1649	tb8_1     = -2.2944	

CDMFT iteration 74, distance =  7.79e+01, diff param =  1.23e-01, diff hybrid =  7.41e-02
272 minimization steps, time(MIN)/time(ED)=0.00454
sb1_1     =  0.0041	sb2_1     = -0.0015	sb3_1     =  0.0167	sb4_1     = -0.0806	sb5_1     =  0.0165	
sb6_1     = -0.0759	sb7_1     = -0.1050	sb8_1     = -0.0025	eb1_1     = -0.2387	eb2_1     = -4.4312	
eb3_1     = -4.6450	eb4_1     = -0.1692	eb5_1     = -4.6330	eb6_1     = -0.1712	eb7_1     =  0.0257	
eb8_1     = -3.8749	tb1_1     = -0.1897	tb2_1     = -1.2067	tb3_1     =  1.8062	tb4_1     =  0.1539	
tb5_1     = -1.8037	tb6_1     = -0.1525	tb7_1     = -0.0362	tb8_1     = -2.2865	

CDMFT iteration 75, distance =  8.01e+01, diff param =  1.24e-01, diff hybrid =  1.34e-01
176 minimization steps, time(MIN)/time(ED)=0.00453
sb1_1     = -0.0056	sb2_1     =  0.0011	sb3_1     =  0.0088	sb4_1     = -0.0791	sb5_1     =  0.0101	
sb6_1     = -0.0850	sb7_1     = -0.1343	sb8_1     =  0.0004	eb1_1     = -0.0525	eb2_1     = -3.8927	
eb3_1     = -4.5541	eb4_1     = -0.0767	eb5_1     = -4.5772	eb6_1     = -0.0850	eb7_1     =  0.0275	
eb8_1     = -3.9513	tb1_1     = -0.1329	tb2_1     = -1.1645	tb3_1     =  1.7965	tb4_1     =  0.1311	
tb5_1     = -1.8005	tb6_1     = -0.1320	tb7_1     =  0.0060	tb8_1     = -2.3040	

CDMFT iteration 76, distance =  1.15e+02, diff param =  7.39e-02, diff hybrid =  8.45e-02
133 minimization steps, time(MIN)/time(ED)=0.00451
sb1_1     =  0.0211	sb2_1     = -0.0001	sb3_1     =  0.0097	sb4_1     = -0.1205	sb5_1     =  0.0080	
sb6_1     = -0.1182	sb7_1     = -0.1507	sb8_1     = -0.0006	eb1_1     = -0.0135	eb2_1     = -3.7486	
eb3_1     = -4.4195	eb4_1     = -0.0731	eb5_1     = -4.3262	eb6_1     = -0.0501	eb7_1     = -0.0476	
eb8_1     = -3.8618	tb1_1     = -0.1105	tb2_1     = -1.1467	tb3_1     =  1.7724	tb4_1     =  0.0894	
tb5_1     = -1.7566	tb6_1     = -0.0737	tb7_1     =  0.0142	tb8_1     = -2.2832	

CDMFT iteration 77, distance =  1.19e+02, diff param =  6.91e-02, diff hybrid =  1.31e-01
179 minimization steps, time(MIN)/time(ED)=0.00449
sb1_1     = -0.0138	sb2_1     =  0.0038	sb3_1     =  0.0096	sb4_1     = -0.1182	sb5_1     =  0.0127	
sb6_1     = -0.1216	sb7_1     = -0.1655	sb8_1     =  0.0010	eb1_1     = -0.1351	eb2_1     = -4.0213	
eb3_1     = -4.3061	eb4_1     = -0.0679	eb5_1     = -4.3870	eb6_1     = -0.0951	eb7_1     = -0.0821	
eb8_1     = -3.8888	tb1_1     = -0.1466	tb2_1     = -1.1654	tb3_1     =  1.7560	tb4_1     =  0.0701	
tb5_1     = -1.7691	tb6_1     = -0.0913	tb7_1     = -0.0107	tb8_1     = -2.2947	

CDMFT iteration 78, distance =  7.81e+01, diff param =  1.46e-01, diff hybrid =  7.76e-02
214 minimization steps, time(MIN)/time(ED)=0.00450
sb1_1     =  0.0060	sb2_1     = -0.0022	sb3_1     =  0.0169	sb4_1     = -0.0819	sb5_1     =  0.0166	
sb6_1     = -0.0745	sb7_1     = -0.0435	sb8_1     = -0.0103	eb1_1     = -0.2394	eb2_1     = -4.4333	
eb3_1     = -4.6607	eb4_1     = -0.1707	eb5_1     = -4.6404	eb6_1     = -0.1739	eb7_1     = -0.1922	
eb8_1     = -4.0883	tb1_1     = -0.1899	tb2_1     = -1.2069	tb3_1     =  1.8089	tb4_1     =  0.1550	
tb5_1     = -1.8046	tb6_1     = -0.1530	tb7_1     =  0.1802	tb8_1     = -2.3235	

CDMFT iteration 79, distance =  7.94e+01, diff param =  1.12e-01, diff hybrid =  1.61e-01
203 minimization steps, time(MIN)/time(ED)=0.00451
sb1_1     = -0.0059	sb2_1     =  0.0012	sb3_1     =  0.0088	sb4_1     = -0.0776	sb5_1     =  0.0104	
sb6_1     = -0.0851	sb7_1     =  0.0078	sb8_1     =  0.0004	eb1_1     = -0.0607	eb2_1     = -3.9937	
eb3_1     = -4.5803	eb4_1     = -0.0776	eb5_1     = -4.6195	eb6_1     = -0.0893	eb7_1     = -0.0302	
eb8_1     = -3.9657	tb1_1     = -0.1387	tb2_1     = -1.1754	tb3_1     =  1.8007	tb4_1     =  0.1340	
tb5_1     = -1.8073	tb6_1     = -0.1349	tb7_1     =  0.1353	tb8_1     = -2.3073	

CDMFT iteration 80, distance =  1.15e+02, diff param =  9.06e-02, diff hybrid =  1.07e-01
185 minimization steps, time(MIN)/time(ED)=0.00450
sb1_1     =  0.0201	sb2_1     = -0.0003	sb3_1     =  0.0097	sb4_1     = -0.1200	sb5_1     =  0.0080	
sb6_1     = -0.1181	sb7_1     =  0.0114	sb8_1     = -0.0004	eb1_1     = -0.0135	eb2_1     = -3.7552	
eb3_1     = -4.4147	eb4_1     = -0.0714	eb5_1     = -4.3405	eb6_1     = -0.0517	eb7_1     =  0.0460	
eb8_1     = -3.8625	tb1_1     = -0.1108	tb2_1     = -1.1477	tb3_1     =  1.7717	tb4_1     =  0.0891	
tb5_1     = -1.7592	tb6_1     = -0.0753	tb7_1     =  0.1499	tb8_1     = -2.2834	

CDMFT iteration 81, distance =  1.19e+02, diff param =  7.50e-02, diff hybrid =  1.35e-01
163 minimization steps, time(MIN)/time(ED)=0.00448
sb1_1     = -0.0115	sb2_1     =  0.0033	sb3_1     =  0.0100	sb4_1     = -0.1183	sb5_1     =  0.0125	
sb6_1     = -0.1212	sb7_1     = -0.0098	sb8_1     =  0.0009	eb1_1     = -0.1428	eb2_1     = -4.0685	
eb3_1     = -4.3147	eb4_1     = -0.0698	eb5_1     = -4.3830	eb6_1     = -0.0934	eb7_1     =  0.0815	
eb8_1     = -3.8870	tb1_1     = -0.1499	tb2_1     = -1.1701	tb3_1     =  1.7575	tb4_1     =  0.0720	
tb5_1     = -1.7684	tb6_1     = -0.0902	tb7_1     =  0.1651	tb8_1     = -2.2942	

CDMFT iteration 82, distance =  7.80e+01, diff param =  1.45e-01, diff hybrid =  7.68e-02
268 minimization steps, time(MIN)/time(ED)=0.00450
sb1_1     =  0.0053	sb2_1     = -0.0020	sb3_1     =  0.0167	sb4_1     = -0.0814	sb5_1     =  0.0165	
sb6_1     = -0.0752	sb7_1     =  0.1825	sb8_1     = -0.0090	eb1_1     = -0.2434	eb2_1     = -4.4897	
eb3_1     = -4.6452	eb4_1     = -0.1688	eb5_1     = -4.6297	eb6_1     = -0.1715	eb7_1     =  0.1940	
eb8_1     = -4.0929	tb1_1     = -0.1919	tb2_1     = -1.2129	tb3_1     =  1.8064	tb4_1     =  0.1538	
tb5_1     = -1.8030	tb6_1     = -0.1521	tb7_1     =  0.0373	tb8_1     = -2.3238	

CDMFT iteration 83, distance =  7.97e+01, diff param =  1.22e-01, diff hybrid =  1.61e-01
164 minimization steps, time(MIN)/time(ED)=0.00450
sb1_1     = -0.0051	sb2_1     =  0.0010	sb3_1     =  0.0089	sb4_1     = -0.0787	sb5_1     =  0.0103	
sb6_1     = -0.0851	sb7_1     =  0.1348	sb8_1     =  0.0004	eb1_1     = -0.0594	eb2_1     = -3.9894	
eb3_1     = -4.5796	eb4_1     = -0.0777	eb5_1     = -4.6131	eb6_1     = -0.0877	eb7_1     =  0.0288	
eb8_1     = -3.9632	tb1_1     = -0.1381	tb2_1     = -1.1750	tb3_1     =  1.8006	tb4_1     =  0.1333	
tb5_1     = -1.8062	tb6_1     = -0.1341	tb7_1     = -0.0069	tb8_1     = -2.3067	

CDMFT iteration 84, distance =  1.14e+02, diff param =  9.15e-02, diff hybrid =  1.07e-01
132 minimization steps, time(MIN)/time(ED)=0.00448
sb1_1     =  0.0181	sb2_1     = -0.0002	sb3_1     =  0.0096	sb4_1     = -0.1196	sb5_1     =  0.0081	
sb6_1     = -0.1178	sb7_1     =  0.1499	sb8_1     = -0.0004	eb1_1     = -0.0133	eb2_1     = -3.7407	
eb3_1     = -4.4062	eb4_1     = -0.0705	eb5_1     = -4.3375	eb6_1     = -0.0527	eb7_1     = -0.0462	
eb8_1     = -3.8646	tb1_1     = -0.1109	tb2_1     = -1.1457	tb3_1     =  1.7702	tb4_1     =  0.0885	
tb5_1     = -1.7586	tb6_1     = -0.0760	tb7_1     = -0.0104	tb8_1     = -2.2841	

CDMFT iteration 85, distance =  1.19e+02, diff param =  6.87e-02, diff hybrid =  1.32e-01
197 minimization steps, time(MIN)/time(ED)=0.00447
sb1_1     = -0.0104	sb2_1     =  0.0029	sb3_1     =  0.0101	sb4_1     = -0.1182	sb5_1     =  0.0124	
sb6_1     = -0.1209	sb7_1     =  0.1650	sb8_1     =  0.0008	eb1_1     = -0.1384	eb2_1     = -4.0241	
eb3_1     = -4.3164	eb4_1     = -0.0711	eb5_1     = -4.3799	eb6_1     = -0.0925	eb7_1     = -0.0813	
eb8_1     = -3.8874	tb1_1     = -0.1480	tb2_1     = -1.1652	tb3_1     =  1.7577	tb4_1     =  0.0733	
tb5_1     = -1.7679	tb6_1     = -0.0898	tb7_1     =  0.0088	tb8_1     = -2.2944	

CDMFT iteration 86, distance =  7.81e+01, diff param =  1.43e-01, diff hybrid =  7.48e-02
283 minimization steps, time(MIN)/time(ED)=0.00450
sb1_1     =  0.0048	sb2_1     = -0.0018	sb3_1     =  0.0167	sb4_1     = -0.0811	sb5_1     =  0.0165	
sb6_1     = -0.0755	sb7_1     =  0.0337	sb8_1     = -0.0082	eb1_1     = -0.2375	eb2_1     = -4.4229	
eb3_1     = -4.6451	eb4_1     = -0.1689	eb5_1     = -4.6308	eb6_1     = -0.1714	eb7_1     = -0.1945	
eb8_1     = -4.0948	tb1_1     = -0.1893	tb2_1     = -1.2058	tb3_1     =  1.8063	tb4_1     =  0.1539	
tb5_1     = -1.8032	tb6_1     = -0.1524	tb7_1     = -0.1835	tb8_1     = -2.3239	

CDMFT iteration 87, distance =  7.99e+01, diff param =  1.09e-01, diff hybrid =  1.60e-01
97 minimization steps, time(MIN)/time(ED)=0.00448
sb1_1     = -0.0046	sb2_1     =  0.0009	sb3_1     =  0.0090	sb4_1     = -0.0794	sb5_1     =  0.0102	
sb6_1     = -0.0851	sb7_1     = -0.0063	sb8_1     =  0.0003	eb1_1     = -0.0590	eb2_1     = -4.0015	
eb3_1     = -4.5852	eb4_1     = -0.0781	eb5_1     = -4.6111	eb6_1     = -0.0870	eb7_1     = -0.0283	
eb8_1     = -3.9607	tb1_1     = -0.1381	tb2_1     = -1.1766	tb3_1     =  1.8015	tb4_1     =  0.1332	
tb5_1     = -1.8058	tb6_1     = -0.1339	tb7_1     = -0.1346	tb8_1     = -2.3061	

CDMFT iteration 88, distance =  1.14e+02, diff param =  9.04e-02, diff hybrid =  1.07e-01
147 minimization steps, time(MIN)/time(ED)=0.00447
sb1_1     =  0.0166	sb2_1     = -0.0002	sb3_1     =  0.0095	sb4_1     = -0.1196	sb5_1     =  0.0082	
sb6_1     = -0.1179	sb7_1     = -0.0096	sb8_1     = -0.0004	eb1_1     = -0.0132	eb2_1     = -3.7521	
eb3_1     = -4.4090	eb4_1     = -0.0700	eb5_1     = -4.3458	eb6_1     = -0.0535	eb7_1     =  0.0464	
eb8_1     = -3.8624	tb1_1     = -0.1111	tb2_1     = -1.1473	tb3_1     =  1.7708	tb4_1     =  0.0880	
tb5_1     = -1.7601	tb6_1     = -0.0765	tb7_1     = -0.1498	tb8_1     = -2.2835	

CDMFT iteration 89, distance =  1.19e+02, diff param =  7.54e-02, diff hybrid =  1.31e-01
199 minimization steps, time(MIN)/time(ED)=0.00446
sb1_1     = -0.0096	sb2_1     =  0.0028	sb3_1     =  0.0102	sb4_1     = -0.1183	sb5_1     =  0.0124	
sb6_1     = -0.1208	sb7_1     =  0.0082	sb8_1     =  0.0008	eb1_1     = -0.1442	eb2_1     = -4.0718	
eb3_1     = -4.3166	eb4_1     = -0.0718	eb5_1     = -4.3787	eb6_1     = -0.0918	eb7_1     =  0.0811	
eb8_1     = -3.8870	tb1_1     = -0.1506	tb2_1     = -1.1704	tb3_1     =  1.7577	tb4_1     =  0.0739	
tb5_1     = -1.7678	tb6_1     = -0.0892	tb7_1     = -0.1649	tb8_1     = -2.2943	

CDMFT iteration 90, distance =  7.80e+01, diff param =  1.43e-01, diff hybrid =  7.46e-02
192 minimization steps, time(MIN)/time(ED)=0.00447
sb1_1     =  0.0045	sb2_1     = -0.0017	sb3_1     =  0.0168	sb4_1     = -0.0809	sb5_1     =  0.0166	
sb6_1     = -0.0757	sb7_1     = -0.1845	sb8_1     = -0.0076	eb1_1     = -0.2400	eb2_1     = -4.4592	
eb3_1     = -4.6518	eb4_1     = -0.1696	eb5_1     = -4.6388	eb6_1     = -0.1721	eb7_1     =  0.1956	
eb8_1     = -4.0983	tb1_1     = -0.1906	tb2_1     = -1.2098	tb3_1     =  1.8074	tb4_1     =  0.1543	
tb5_1     = -1.8045	tb6_1     = -0.1528	tb7_1     = -0.0311	tb8_1     = -2.3244	

CDMFT iteration 91, distance =  7.97e+01, diff param =  1.19e-01, diff hybrid =  1.60e-01
166 minimization steps, time(MIN)/time(ED)=0.00447
sb1_1     = -0.0043	sb2_1     =  0.0008	sb3_1     =  0.0090	sb4_1     = -0.0795	sb5_1     =  0.0102	
sb6_1     = -0.0848	sb7_1     = -0.1347	sb8_1     =  0.0003	eb1_1     = -0.0584	eb2_1     = -3.9783	
eb3_1     = -4.5866	eb4_1     = -0.0783	eb5_1     = -4.6121	eb6_1     = -0.0867	eb7_1     =  0.0284	
eb8_1     = -3.9622	tb1_1     = -0.1377	tb2_1     = -1.1736	tb3_1     =  1.8018	tb4_1     =  0.1332	
tb5_1     = -1.8060	tb6_1     = -0.1339	tb7_1     =  0.0060	tb8_1     = -2.3065	

CDMFT iteration 92, distance =  1.14e+02, diff param =  8.84e-02, diff hybrid =  1.07e-01
157 minimization steps, time(MIN)/time(ED)=0.00446
sb1_1     =  0.0156	sb2_1     = -0.0002	sb3_1     =  0.0095	sb4_1     = -0.1194	sb5_1     =  0.0083	
sb6_1     = -0.1178	sb7_1     = -0.1497	sb8_1     = -0.0004	eb1_1     = -0.0132	eb2_1     = -3.7481	
eb3_1     = -4.4070	eb4_1     = -0.0696	eb5_1     = -4.3473	eb6_1     = -0.0539	eb7_1     = -0.0462	
eb8_1     = -3.8621	tb1_1     = -0.1112	tb2_1     = -1.1468	tb3_1     =  1.7705	tb4_1     =  0.0879	
tb5_1     = -1.7604	tb6_1     = -0.0771	tb7_1     =  0.0091	tb8_1     = -2.2834	

CDMFT iteration 93, distance =  1.19e+02, diff param =  7.00e-02, diff hybrid =  1.31e-01
205 minimization steps, time(MIN)/time(ED)=0.00446
sb1_1     = -0.0090	sb2_1     =  0.0026	sb3_1     =  0.0103	sb4_1     = -0.1184	sb5_1     =  0.0123	
sb6_1     = -0.1208	sb7_1     = -0.1649	sb8_1     =  0.0007	eb1_1     = -0.1407	eb2_1     = -4.0415	
eb3_1     = -4.3200	eb4_1     = -0.0724	eb5_1     = -4.3761	eb6_1     = -0.0914	eb7_1     = -0.0809	
eb8_1     = -3.8867	tb1_1     = -0.1490	tb2_1     = -1.1670	tb3_1     =  1.7583	tb4_1     =  0.0744	
tb5_1     = -1.7673	tb6_1     = -0.0888	tb7_1     = -0.0077	tb8_1     = -2.2942	

CDMFT iteration 94, distance =  7.80e+01, diff param =  1.42e-01, diff hybrid =  7.37e-02
205 minimization steps, time(MIN)/time(ED)=0.00446
sb1_1     =  0.0042	sb2_1     = -0.0016	sb3_1     =  0.0167	sb4_1     = -0.0808	sb5_1     =  0.0165	
sb6_1     = -0.0760	sb7_1     = -0.0294	sb8_1     = -0.0071	eb1_1     = -0.2395	eb2_1     = -4.4365	
eb3_1     = -4.6447	eb4_1     = -0.1691	eb5_1     = -4.6320	eb6_1     = -0.1711	eb7_1     = -0.1948	
eb8_1     = -4.0948	tb1_1     = -0.1901	tb2_1     = -1.2071	tb3_1     =  1.8062	tb4_1     =  0.1538	
tb5_1     = -1.8035	tb6_1     = -0.1523	tb7_1     =  0.1844	tb8_1     = -2.3235	

CDMFT iteration 95, distance =  7.99e+01, diff param =  1.14e-01, diff hybrid =  1.60e-01
169 minimization steps, time(MIN)/time(ED)=0.00447
sb1_1     = -0.0041	sb2_1     =  0.0008	sb3_1     =  0.0090	sb4_1     = -0.0798	sb5_1     =  0.0101	
sb6_1     = -0.0848	sb7_1     =  0.0055	sb8_1     =  0.0003	eb1_1     = -0.0582	eb2_1     = -3.9838	
eb3_1     = -4.5788	eb4_1     = -0.0782	eb5_1     = -4.6066	eb6_1     = -0.0862	eb7_1     = -0.0280	
eb8_1     = -3.9581	tb1_1     = -0.1376	tb2_1     = -1.1744	tb3_1     =  1.8004	tb4_1     =  0.1328	
tb5_1     = -1.8051	tb6_1     = -0.1336	tb7_1     =  0.1345	tb8_1     = -2.3054	

CDMFT iteration 96, distance =  1.14e+02, diff param =  8.74e-02, diff hybrid =  1.07e-01
146 minimization steps, time(MIN)/time(ED)=0.00446
sb1_1     =  0.0148	sb2_1     = -0.0001	sb3_1     =  0.0095	sb4_1     = -0.1195	sb5_1     =  0.0083	
sb6_1     = -0.1180	sb7_1     =  0.0089	sb8_1     = -0.0004	eb1_1     = -0.0130	eb2_1     = -3.7488	
eb3_1     = -4.4054	eb4_1     = -0.0694	eb5_1     = -4.3479	eb6_1     = -0.0542	eb7_1     =  0.0465	
eb8_1     = -3.8621	tb1_1     = -0.1113	tb2_1     = -1.1468	tb3_1     =  1.7702	tb4_1     =  0.0876	
tb5_1     = -1.7605	tb6_1     = -0.0770	tb7_1     =  0.1499	tb8_1     = -2.2834	

CDMFT iteration 97, distance =  1.19e+02, diff param =  6.90e-02, diff hybrid =  1.31e-01
213 minimization steps, time(MIN)/time(ED)=0.00445
sb1_1     = -0.0088	sb2_1     =  0.0025	sb3_1     =  0.0103	sb4_1     = -0.1185	sb5_1     =  0.0123	
sb6_1     = -0.1207	sb7_1     = -0.0073	sb8_1     =  0.0007	eb1_1     = -0.1409	eb2_1     = -4.0376	
eb3_1     = -4.3215	eb4_1     = -0.0729	eb5_1     = -4.3747	eb6_1     = -0.0909	eb7_1     =  0.0810	
eb8_1     = -3.8867	tb1_1     = -0.1490	tb2_1     = -1.1665	tb3_1     =  1.7586	tb4_1     =  0.0747	
tb5_1     = -1.7671	tb6_1     = -0.0885	tb7_1     =  0.1649	tb8_1     = -2.2942	

CDMFT iteration 98, distance =  7.80e+01, diff param =  1.38e-01, diff hybrid =  7.34e-02
219 minimization steps, time(MIN)/time(ED)=0.00446
sb1_1     =  0.0040	sb2_1     = -0.0015	sb3_1     =  0.0168	sb4_1     = -0.0807	sb5_1     =  0.0166	
sb6_1     = -0.0760	sb7_1     =  0.1052	sb8_1     = -0.0025	eb1_1     = -0.2424	eb2_1     = -4.4764	
eb3_1     = -4.6562	eb4_1     = -0.1705	eb5_1     = -4.6434	eb6_1     = -0.1728	eb7_1     =  0.0261	
eb8_1     = -3.8740	tb1_1     = -0.1915	tb2_1     = -1.2114	tb3_1     =  1.8080	tb4_1     =  0.1545	
tb5_1     = -1.8052	tb6_1     = -0.1534	tb7_1     =  0.0359	tb8_1     = -2.2862	

CDMFT iteration 99, distance =  8.00e+01, diff param =  1.29e-01, diff hybrid =  1.34e-01
184 minimization steps, time(MIN)/time(ED)=0.00446
sb1_1     = -0.0056	sb2_1     =  0.0011	sb3_1     =  0.0087	sb4_1     = -0.0789	sb5_1     =  0.0101	
sb6_1     = -0.0849	sb7_1     =  0.1344	sb8_1     =  0.0004	eb1_1     = -0.0530	eb2_1     = -3.9164	
eb3_1     = -4.5548	eb4_1     = -0.0767	eb5_1     = -4.5776	eb6_1     = -0.0848	eb7_1     =  0.0277	
eb8_1     = -3.9540	tb1_1     = -0.1333	tb2_1     = -1.1676	tb3_1     =  1.7967	tb4_1     =  0.1312	
tb5_1     = -1.8006	tb6_1     = -0.1320	tb7_1     = -0.0059	tb8_1     = -2.3047	

CDMFT iteration 100, distance =  1.15e+02, diff param =  7.65e-02, diff hybrid =  8.49e-02
132 minimization steps, time(MIN)/time(ED)=0.00444
sb1_1     =  0.0202	sb2_1     = -0.0001	sb3_1     =  0.0097	sb4_1     = -0.1204	sb5_1     =  0.0080	
sb6_1     = -0.1181	sb7_1     =  0.1506	sb8_1     = -0.0006	eb1_1     = -0.0135	eb2_1     = -3.7578	
eb3_1     = -4.4151	eb4_1     = -0.0726	eb5_1     = -4.3208	eb6_1     = -0.0502	eb7_1     = -0.0475	
eb8_1     = -3.8616	tb1_1     = -0.1107	tb2_1     = -1.1480	tb3_1     =  1.7716	tb4_1     =  0.0891	
tb5_1     = -1.7555	tb6_1     = -0.0738	tb7_1     = -0.0138	tb8_1     = -2.2832	

CDMFT iteration 101, distance =  1.19e+02, diff param =  6.60e-02, diff hybrid =  1.31e-01
199 minimization steps, time(MIN)/time(ED)=0.00444
sb1_1     = -0.0136	sb2_1     =  0.0038	sb3_1     =  0.0097	sb4_1     = -0.1183	sb5_1     =  0.0126	
sb6_1     = -0.1215	sb7_1     =  0.1656	sb8_1     =  0.0009	eb1_1     = -0.1342	eb2_1     = -4.0156	
eb3_1     = -4.3099	eb4_1     = -0.0681	eb5_1     = -4.3837	eb6_1     = -0.0944	eb7_1     = -0.0820	
eb8_1     = -3.8886	tb1_1     = -0.1462	tb2_1     = -1.1647	tb3_1     =  1.7566	tb4_1     =  0.0703	
tb5_1     = -1.7685	tb6_1     = -0.0908	tb7_1     =  0.0103	tb8_1     = -2.2946	
Traceback (most recent call last):
  File "/home/theod/code_pyqcm/simulations/cdmft_fade_with_mu.py", line 137, in <module>
    fade(fade_func, initial_P, material_P, 20)
  File "/home/theod/.local/lib/python3.8/site-packages/pyqcm/loop.py", line 390, in fade
    F()
  File "/home/theod/code_pyqcm/simulations/cdmft_fade_with_mu.py", line 125, in fade_func
    cdmft(
  File "/home/theod/.local/lib/python3.8/site-packages/pyqcm/cdmft.py", line 514, in cdmft
    raise pyqcm.TooManyIterationsError(maxiter)
pyqcm.TooManyIterationsError: 100
