model	D	U	e	eb1_1	eb2_1	eb3_1	eb4_1	eb5_1	eb6_1	eb7_1	eb8_1	mu	sb1_1	sb2_1	sb3_1	sb4_1	sb5_1	sb6_1	sb7_1	sb8_1	tb1_1	tb2_1	tb3_1	tb4_1	tb5_1	tb6_1	tb7_1	tb8_1	tpd	tpp	tppp	ave_D_1	ave_U_1	ave_eb1_1	ave_eb2_1	ave_eb3_1	ave_eb4_1	ave_eb5_1	ave_eb6_1	ave_eb7_1	ave_eb8_1	ave_mu_1	ave_sb1_1	ave_sb2_1	ave_sb3_1	ave_sb4_1	ave_sb5_1	ave_sb6_1	ave_sb7_1	ave_sb8_1	ave_tb1_1	ave_tb2_1	ave_tb3_1	ave_tb4_1	ave_tb5_1	ave_tb6_1	ave_tb7_1	ave_tb8_1	var_D_1	var_U_1	var_eb1_1	var_eb2_1	var_eb3_1	var_eb4_1	var_eb5_1	var_eb6_1	var_eb7_1	var_eb8_1	var_mu_1	var_sb1_1	var_sb2_1	var_sb3_1	var_sb4_1	var_sb5_1	var_sb6_1	var_sb7_1	var_sb8_1	var_tb1_1	var_tb2_1	var_tb3_1	var_tb4_1	var_tb5_1	var_tb6_1	var_tb7_1	var_tb8_1	E0_1	sector_1	E0_2	sector_2	githash	distance	diff_param	diff_hybrid	time
2x2_2C_8b_C2v_L	0.1	14	1.24	0.1500244	-8.7120079	-9.5526854	-0.21309662	-9.552007	-0.21209519	0.42938912	-10.08663	13.5	0.00060219539	0.00020453483	0.003577359	0.027877135	0.0038293644	0.029583503	2.5891321e-05	-0.00010380877	-0.022409668	-0.80059929	1.2008706	0.0092667586	-1.2013857	-0.0071920267	0.054430439	-1.5763802	1.32	0.617	0.159	-0.14944661	0.058539779	6.5891024e-05	1.9777681	1.9519338	1.999411	1.9518837	1.9995305	9.6568845e-05	1.9157437	1.0580844	-0.0030021127	-0.00015778272	-0.1355699	-0.034639483	-0.13574598	-0.034149478	-0.00015872611	0.00012829212	0.022283111	0.55321249	-0.84873805	-0.085368676	0.84918705	0.074411587	-0.033472526	1.1796909	0.68054961	0.015459134	6.6819614e-05	0.022156855	0.04753069	0.00060168527	0.047579683	0.00048116359	9.7049079e-05	0.082017634	0.015419842	3.4424652	4.7195831	4.5905439	4.2573789	4.5908718	4.2563314	4.1303551	4.5091571	4.5585213	3.4781824	3.772358	3.7469582	3.772444	3.747079	3.8705399	4.0448703	-132.96116	R0:S0:1	-98.08	uncorrelated	51514b8	 7.57e+01	 4.23e-04	 1.00e+06	2022-04-11@05:48
2x2_2C_8b_C2v_L	0.1	14	1.24	0.15022731	-8.7119926	-9.55269	-0.2132761	-9.55205	-0.21234106	0.42979167	-10.086387	13.52	0.00039311755	7.820879e-06	0.0033780203	0.029343115	0.0036370293	0.029839886	1.8369875e-06	-0.00014134484	-0.022727205	-0.80139093	1.2014457	0.0088675235	-1.2014255	-0.0074901897	0.053945158	-1.5762523	1.32	0.617	0.159	-0.15194977	0.059018214	7.0745222e-05	1.9776554	1.9517542	1.9993887	1.9517616	1.9994819	9.5404469e-05	1.9154568	1.0585621	-0.0019614894	-0.00011170916	-0.13808549	-0.036161655	-0.13817082	-0.035233897	5.87172e-06	0.00018638494	0.022761397	0.55443816	-0.85003158	-0.086309805	0.84988494	0.078273654	-0.033159442	1.1817556	0.67950455	0.015628558	7.1787506e-05	0.022269116	0.047707384	0.00062597707	0.047700464	0.00053116375	9.5883969e-05	0.082288715	0.01558934	3.4402992	4.7225628	4.5936312	4.2602987	4.5942881	4.2601731	4.1307545	4.5109605	4.5607752	3.4763647	3.7702973	3.7441846	3.7697164	3.743602	3.8701341	4.0448749	-133.04707	R0:S0:1	-98.24	uncorrelated	51514b8	 7.90e+01	 5.04e-04	 1.00e+06	2022-04-11@05:52
2x2_2C_8b_C2v_L	0.1	14	1.24	0.15035526	-8.7120833	-9.5528743	-0.21342389	-9.5522189	-0.21249728	0.43000364	-10.086439	13.54	0.00026218595	0.00011121839	0.0037039452	0.030260891	0.0038511468	0.030495463	5.6853058e-05	0.00011574117	-0.023354076	-0.79966334	1.1989476	0.0086345322	-1.1991841	-0.0076415763	0.054756248	-1.5735438	1.32	0.617	0.159	-0.15521569	0.059401172	7.9077852e-05	1.9776644	1.9518138	1.9993562	1.9517807	1.9994282	9.9117615e-05	1.9154117	1.0589447	-0.0013609766	3.3574927e-06	-0.1411594	-0.037509504	-0.14128517	-0.036695074	-0.00039468199	-0.00011749713	0.023588667	0.55423532	-0.84911984	-0.088083308	0.84944209	0.082155044	-0.033639175	1.1821788	0.67833715	0.015796835	8.0337416e-05	0.022260451	0.047650633	0.00066030082	0.047682804	0.00058681083	9.9651913e-05	0.082331702	0.015758191	3.439209	4.7236601	4.5957003	4.2641208	4.5956789	4.2631906	4.1315438	4.5107839	4.5620098	3.4753907	3.7675185	3.7405948	3.7677793	3.7409777	3.8693858	4.0455971	-133.12533	R0:S0:1	-98.4	uncorrelated	51514b8	 8.28e+01	 1.21e-04	 1.00e+06	2022-04-11@05:55
2x2_2C_8b_C2v_L	0.1	14	1.24	0.15054364	-8.7121448	-9.5529111	-0.21363947	-9.5522861	-0.21271822	0.43029969	-10.086338	13.56	0.0001529481	5.9246508e-05	0.0034983009	0.03091445	0.0036552569	0.031020226	-7.5752454e-05	-0.00038810675	-0.024023447	-0.79859566	1.1989599	0.0085145809	-1.1987338	-0.0079464969	0.055382957	-1.5720651	1.32	0.617	0.159	-0.15802252	0.059864254	8.8456917e-05	1.9776465	1.9516689	1.9993181	1.951708	1.9993631	0.00010211565	1.9152405	1.0594068	-0.000716787	-0.00031721782	-0.1439475	-0.038713373	-0.14391075	-0.038203176	0.00059421531	0.00054189692	0.024474758	0.55430507	-0.85011871	-0.090276396	0.84962438	0.08670004	-0.034001661	1.1835023	0.67716513	0.015973643	8.9972403e-05	0.02227851	0.047793366	0.0007000751	0.047755685	0.00065414289	0.00010269611	0.082493313	0.015935273	3.4373689	4.7256728	4.5983205	4.2670037	4.599326	4.2679086	4.132464	4.5113468	4.5640087	3.4737403	3.7655791	3.7379888	3.7644689	3.7367467	3.8684987	4.0461875	-133.20839	R0:S0:1	-98.56	uncorrelated	51514b8	 8.68e+01	 1.68e-04	 1.00e+06	2022-04-11@05:59
2x2_2C_8b_C2v_L	0.1	14	1.24	0.15084042	-8.7121958	-9.5530494	-0.21396258	-9.552421	-0.21304928	0.43074402	-10.086094	13.58	1.5961948e-05	-1.440374e-05	0.0036317062	0.03212731	0.0036518709	0.031957745	0.00015843994	0.00058477543	-0.024828959	-0.79788091	1.1975986	0.0084631332	-1.1974624	-0.0084343829	0.055990589	-1.5711397	1.32	0.617	0.159	-0.16137658	0.060391269	0.00010157456	1.9776154	1.9516682	1.9992542	1.9516547	1.9992576	0.00010543892	1.9150058	1.0599317	-0.00018426351	0.00034260068	-0.14711253	-0.040702902	-0.14718202	-0.040541993	-0.0011745935	-0.00069216266	0.025588636	0.55448594	-0.84960212	-0.093764894	0.84980493	0.093562123	-0.034356268	1.1853077	0.67582113	0.016180514	0.0001034562	0.022309774	0.047796143	0.00076712461	0.047808941	0.00076359337	0.00010607339	0.082714794	0.016142527	3.4348991	4.7284209	4.6018684	4.2723215	4.6012435	4.2715505	4.1336669	4.5121406	4.5666963	3.4715234	3.7618142	3.7331348	3.7624493	3.7338831	3.8673332	4.0469268	-133.29109	R0:S0:1	-98.72	uncorrelated	51514b8	 9.13e+01	 1.41e-04	 1.00e+06	2022-04-11@06:03
2x2_2C_8b_C2v_L	0.1	14	1.24	0.15127522	-8.7122426	-9.5531934	-0.21443844	-9.5525632	-0.21353142	0.4313662	-10.085783	13.6	-0.00013699433	-0.00011364447	0.0036850054	0.033482309	0.003579919	0.033058862	-0.00012423243	-0.00047055839	-0.025778635	-0.79744167	1.1965316	0.0085167509	-1.1964495	-0.0091248972	0.056894723	-1.5694775	1.32	0.617	0.159	-0.16481184	0.060944987	0.00011861395	1.9775624	1.951614	1.9991649	1.9516259	1.9991142	0.0001101152	1.9148521	1.0604841	0.00081028125	-0.00017605421	-0.15049135	-0.043109269	-0.15040248	-0.043435811	0.00092966286	0.00049559126	0.026906992	0.5549764	-0.84969922	-0.098540901	0.84955138	0.10210154	-0.034903647	1.186506	0.67437047	0.016397298	0.00012099593	0.022362742	0.04785054	0.00086082382	0.047839025	0.00091257755	0.00011082058	0.082860258	0.016360029	3.4329365	4.7308484	4.6045054	4.2766339	4.6047719	4.2774539	4.1345968	4.5126322	4.5689348	3.469801	3.7591211	3.7294679	3.7587851	3.7290384	3.8664545	4.0476034	-133.37413	R0:S0:1	-98.88	uncorrelated	51514b8	 9.60e+01	 1.24e-04	 1.00e+06	2022-04-11@06:07
2x2_2C_8b_C2v_L	0.1	14	1.24	0.15190659	-8.7122884	-9.553345	-0.21512995	-9.5527229	-0.21422473	0.4322323	-10.08526	13.62	-0.00030877404	-0.00016006778	0.0036496185	0.034791215	0.0034052184	0.034215589	5.8308462e-05	0.00027632782	-0.026827837	-0.79720764	1.1958148	0.0087332352	-1.1956251	-0.0099800426	0.057660535	-1.5685496	1.32	0.617	0.159	-0.16835386	0.061572235	0.00014019209	1.9775058	1.9515698	1.9990485	1.9515605	1.9989249	0.00011445476	1.9146132	1.0611093	0.0015975558	0.00033029616	-0.15387321	-0.045830688	-0.15381983	-0.046838883	-0.00048125468	-0.00045405142	0.028416375	0.55545027	-0.84952116	-0.10448275	0.84971825	0.11239606	-0.035363183	1.1883456	0.67280552	0.016635927	0.00014323702	0.022419423	0.047895917	0.00098265783	0.04790457	0.0011092655	0.00011522814	0.083085785	0.016599247	3.4302454	4.7340348	4.6085854	4.2828052	4.6076459	4.2829017	4.1358664	4.5134266	4.5719697	3.4673907	3.7550487	3.7241457	3.7558685	3.7249894	3.8652334	4.0484074	-133.45916	R0:S0:1	-99.04	uncorrelated	51514b8	 1.01e+02	 1.24e-04	 1.00e+06	2022-04-11@06:10
2x2_2C_8b_C2v_L	0.1	14	1.24	0.15284206	-8.7123556	-9.5535327	-0.21615769	-9.5529205	-0.21524792	0.43342591	-10.084586	13.64	-0.00044468689	-0.00012791072	0.0034983	0.035600944	0.0031403965	0.03508446	-0.00015150572	-0.00049264567	-0.027822712	-0.79681721	1.1952445	0.0091774449	-1.1949249	-0.010859803	0.058519639	-1.5668799	1.32	0.617	0.159	-0.17192813	0.062211003	0.00016439661	1.9774523	1.9514892	1.9989059	1.9515226	1.9987192	0.00011952217	1.914449	1.061747	0.0025423064	-0.00018554743	-0.15737496	-0.048508369	-0.15712971	-0.050158344	0.0011911864	0.00054227697	0.029926764	0.55591514	-0.84978484	-0.11171461	0.84946587	0.12261146	-0.035884247	1.1896497	0.67116658	0.016880314	0.00016821735	0.022472958	0.047976391	0.001130964	0.047943839	0.0013227291	0.00012037669	0.083241088	0.016844291	3.4279494	4.7368292	4.6118339	4.2880933	4.6117893	4.2899823	4.1370359	4.5137995	4.5746482	3.465336	3.7518846	3.7199088	3.7516222	3.719441	3.8641191	4.0492665	-133.54472	R0:S0:1	-99.2	uncorrelated	51514b8	 1.07e+02	 1.77e-04	 1.00e+06	2022-04-11@06:14
2x2_2C_8b_C2v_L	0.1	14	1.24	0.15411514	-8.7124507	-9.5538007	-0.21754692	-9.5531897	-0.21663124	0.43497058	-10.083618	13.66	-0.00050537723	-7.1233981e-05	0.0034229556	0.036004014	0.003000707	0.035652431	0.00018948815	0.00079682612	-0.028651651	-0.79610922	1.1941368	0.009850417	-1.19383	-0.011645434	0.058943317	-1.5662593	1.32	0.617	0.159	-0.17584209	0.06292803	0.00018989522	1.9774297	1.9514944	1.9987353	1.9514766	1.9985043	0.00012275585	1.914153	1.0624619	0.0026054557	0.00062605231	-0.1610037	-0.051262363	-0.16093112	-0.053360187	-0.0015384796	-0.0010976885	0.031356204	0.55589666	-0.84905809	-0.12007609	0.84943687	0.13250101	-0.036123049	1.1919796	0.66937835	0.017155064	0.00019453442	0.022495941	0.047974081	0.0013072665	0.047990589	0.001545088	0.00012366784	0.08351984	0.017119258	3.4244102	4.7406404	4.6164039	4.2956482	4.6145929	4.2957711	4.1389697	4.5144291	4.5785974	3.4620761	3.7469565	3.7136363	3.7485366	3.7152611	3.8622238	4.0505125	-133.63184	R0:S0:1	-99.36	uncorrelated	51514b8	 1.13e+02	 2.17e-04	 1.00e+06	2022-04-11@06:18
2x2_2C_8b_C2v_L	0.1	14	1.24	0.15577639	-8.7125733	-9.5541326	-0.21934089	-9.5535139	-0.2184243	0.43688665	-10.08254	13.68	-0.00043637055	-5.6735066e-05	0.0033503209	0.03592443	0.0029785617	0.035816282	-0.00020458251	-0.00066585841	-0.029192262	-0.79513802	1.1928508	0.010762054	-1.1927117	-0.012275421	0.059663325	-1.5640356	1.32	0.617	0.159	-0.17989324	0.063633241	0.00021335082	1.9774085	1.9514669	1.9985306	1.9514863	1.9983174	0.0001274883	1.9140272	1.0631673	0.0026125277	-0.00033658751	-0.16494379	-0.054037554	-0.16469566	-0.056023876	0.0016722193	0.00078707944	0.032508613	0.55594401	-0.84883313	-0.12995632	0.84864793	0.14052858	-0.036553741	1.1930752	0.66749189	0.017433508	0.00021871213	0.022517444	0.048002726	0.0015174158	0.047983824	0.0017371203	0.00012848046	0.083638866	0.01739817	3.4218954	4.7434484	4.6192942	4.3015688	4.6192555	4.3035938	4.1405459	4.5142168	4.5814942	3.4597802	3.7436109	3.7092639	3.7434186	3.7088563	3.8607017	4.0517884	-133.71849	R0:S0:1	-99.52	uncorrelated	51514b8	 1.20e+02	 1.80e-04	 1.00e+06	2022-04-11@06:21
2x2_2C_8b_C2v_L	0.1	14	1.24	0.15788947	-8.7127196	-9.554519	-0.22158217	-9.5539004	-0.22067552	0.43922312	-10.081089	13.7	-0.00023570199	-4.5402618e-05	0.0032407117	0.035491052	0.003038087	0.035667254	8.469301e-05	0.00037463422	-0.029376349	-0.79402762	1.1915965	0.011924646	-1.1915525	-0.01264879	0.059861553	-1.563324	1.32	0.617	0.159	-0.18415535	0.064431189	0.00023245448	1.9774123	1.9514858	1.9982911	1.9514606	1.9981651	0.00012954088	1.9137197	1.0639639	0.0012213273	0.00034661612	-0.16887877	-0.056922567	-0.16888318	-0.058212842	-0.00073677701	-0.00057607335	0.033327462	0.55555832	-0.84796273	-0.14101033	0.84832046	0.14679702	-0.036643082	1.1955521	0.6654798	0.017743096	0.00023829865	0.022514295	0.047987089	0.0017615482	0.048011083	0.0018922961	0.00013057019	0.083928256	0.017707651	3.417826	4.7475997	4.62381	4.3097754	4.6227863	4.3097373	4.1429503	4.5145485	4.5858914	3.456011	3.7384993	3.7029038	3.739485	3.7038854	3.8583262	4.0534081	-133.80824	R0:S0:1	-99.68	uncorrelated	51514b8	 1.28e+02	 1.32e-04	 1.00e+06	2022-04-11@06:25
2x2_2C_8b_C2v_L	0.1	14	1.24	0.16052491	-8.7128782	-9.5549656	-0.22431624	-9.5543441	-0.2234387	0.44200901	-10.079445	13.72	0.00010689323	-4.420771e-05	0.0030730517	0.035147319	0.0031761761	0.035540902	-9.4231589e-05	-0.00032962124	-0.029261397	-0.79305697	1.1904304	0.013305316	-1.190539	-0.012752796	0.060484828	-1.5613418	1.32	0.617	0.159	-0.1885463	0.065244195	0.00024771207	1.9773972	1.9514683	1.9979831	1.9514659	1.9980558	0.00013387396	1.9135505	1.0647772	-0.000537774	-0.00020740303	-0.17307591	-0.060470395	-0.17308819	-0.060076293	0.00078533552	0.00042972621	0.03382814	0.55547326	-0.84755007	-0.15428369	0.84750358	0.15088817	-0.03700684	1.1970107	0.66334117	0.018062718	0.0002537985	0.022529887	0.048006353	0.0020753008	0.04800899	0.0020026566	0.00013497799	0.08408795	0.01802755	3.4145887	4.7510748	4.627288	4.3173151	4.6278945	4.3173857	4.1449616	4.5142962	4.5893952	3.4530621	3.7344014	3.6977229	3.7339276	3.6970855	3.8563667	4.0549813	-133.89873	R0:S0:1	-99.84	uncorrelated	51514b8	 1.36e+02	 5.42e-04	 1.00e+06	2022-04-11@06:29
2x2_2C_8b_C2v_L	0.1	14	1.24	0.16443378	-8.7129871	-9.5554858	-0.22808414	-9.55489	-0.22728766	0.44570392	-10.077034	13.74	0.00034301682	0.00029997404	0.002546591	0.039504531	0.0029302985	0.039341543	0.00010538178	0.00042783724	-0.030567468	-0.79397757	1.1903418	0.014158577	-1.1903588	-0.012357861	0.062353897	-1.5610001	1.32	0.617	0.159	-0.19351263	0.066338219	0.00030562863	1.9772923	1.951411	1.9974152	1.9514215	1.9977552	0.00014473093	1.9131956	1.0658655	-0.0020088205	-0.00013342525	-0.17777781	-0.069416545	-0.17792622	-0.066447025	-0.00084292137	-0.00020480869	0.036383383	0.55633698	-0.84723789	-0.17264775	0.84699537	0.15909544	-0.038142898	1.1998113	0.66067694	0.018466648	0.00031343004	0.02263478	0.048065456	0.0026752215	0.048055943	0.0023242011	0.00014601511	0.084422409	0.018433249	3.4097543	4.7569449	4.6327262	4.3297573	4.634002	4.3281773	4.1474708	4.5149831	4.5951158	3.4485946	3.7285314	3.689352	3.7275319	3.6883886	3.853976	4.0566552	-133.9973	R0:S0:1	-100	uncorrelated	51514b8	 1.47e+02	 4.48e-04	 1.00e+06	2022-04-11@06:33
2x2_2C_8b_C2v_L	0.1	14	1.24	0.16958314	-8.7132998	-9.5562003	-0.23332379	-9.5555894	-0.23250581	0.45032745	-10.074175	13.76	0.00052332787	-0.00012606424	0.0026766622	0.040711552	0.0033327998	0.040913792	-9.5856695e-05	-0.00023695635	-0.033556874	-0.7910901	1.1898339	0.013011121	-1.1901503	-0.011737267	0.063373001	-1.559196	1.32	0.617	0.159	-0.1986947	0.067270006	0.0003939378	1.9773984	1.9513825	1.9974275	1.9513446	1.9976531	0.00014957376	1.9129361	1.0667922	-0.0030827628	-3.6341488e-05	-0.18287859	-0.071161404	-0.1832105	-0.069338862	0.00069688566	0.00018901102	0.040779006	0.55463279	-0.84665015	-0.17065848	0.84694318	0.16159255	-0.038680267	1.2021106	0.65814763	0.018848693	0.00040573397	0.022530218	0.048097041	0.0026649675	0.048134011	0.0024334971	0.00015095752	0.084665994	0.018816223	3.405259	4.76113	4.6382654	4.3371281	4.6388518	4.3355831	4.15105	4.5140396	4.6010696	3.4440025	3.7226875	3.6818866	3.7225058	3.6817112	3.850456	4.0593178	-134.09718	R0:S0:1	-100.16	uncorrelated	51514b8	 1.60e+02	 5.06e-04	 1.00e+06	2022-04-11@06:36
2x2_2C_8b_C2v_L	0.1	14	1.24	0.17642499	-8.7134003	-9.5571299	-0.24001402	-9.5565728	-0.23919316	0.45591209	-10.070667	13.78	7.8686364e-05	0.00035809312	0.0035386071	0.04150056	0.0030366079	0.041706939	-7.8912614e-05	-0.00017360374	-0.033435331	-0.79400787	1.188877	0.011842986	-1.1885943	-0.011634849	0.064128855	-1.5577092	1.32	0.617	0.159	-0.20396989	0.068259356	0.00040862632	1.977164	1.951348	1.9975038	1.9514133	1.9975328	0.00015451356	1.9127316	1.0677832	-0.00029678113	-0.00058811113	-0.18838426	-0.072088501	-0.18798496	-0.071985924	0.00082301133	0.00062954048	0.041348109	0.55722527	-0.84625916	-0.16731056	0.84549814	0.16593426	-0.039146125	1.2036469	0.65558454	0.019248277	0.0004203649	0.022763622	0.048133374	0.002585806	0.048070693	0.0025574115	0.00015599561	0.084860654	0.019216913	3.4020619	4.7662253	4.6425572	4.342651	4.6438018	4.3441507	4.1519542	4.515167	4.6046039	3.4414213	3.7178755	3.6757221	3.7164454	3.6740291	3.8496189	4.0601339	-134.20423	R0:S0:1	-100.32	uncorrelated	51514b8	 1.71e+02	 5.11e-04	 1.00e+06	2022-04-11@06:40
2x2_2C_8b_C2v_L	0.1	14	1.24	0.18505933	-8.7138595	-9.5582522	-0.24835115	-9.5576825	-0.24756581	0.46257055	-10.06644	13.8	-0.00022254375	-0.00028340255	0.0030921913	0.04199608	0.0033283748	0.041604321	-9.4499633e-05	-7.53337e-05	-0.035727979	-0.7901259	1.1884071	0.011484477	-1.1885277	-0.013305011	0.06472872	-1.5562033	1.32	0.617	0.159	-0.20949773	0.069440342	0.00049890102	1.977343	1.951396	1.9974197	1.9513197	1.9970537	0.00015787772	1.9123809	1.0689595	0.0011600779	0.00050220121	-0.1934391	-0.074590567	-0.1937339	-0.077465228	0.00058745433	-0.00040205338	0.045303778	0.55448019	-0.84460514	-0.16910576	0.84558046	0.18289372	-0.03940275	1.2067877	0.65253986	0.019709041	0.00051417592	0.02258684	0.048092	0.002668731	0.048164729	0.0030443734	0.00015940432	0.085188966	0.01967795	3.3957789	4.7717532	4.6507378	4.3539837	4.6484723	4.3542732	4.1570015	4.5136095	4.6123728	3.4349743	3.7090573	3.6650975	3.711255	3.6675356	3.8446139	4.0637911	-134.31618	R0:S0:1	-100.48	uncorrelated	51514b8	 1.89e+02	 6.78e-04	 1.00e+06	2022-04-11@06:43
2x2_2C_8b_C2v_L	0.1	14	1.24	0.19678624	-8.7141224	-9.5597828	-0.25902823	-9.5592441	-0.25829463	0.47052029	-10.061117	13.82	-0.00042332882	-2.2100418e-05	0.0020785943	0.044135026	0.0018487052	0.043774909	0.00020194511	0.00045270945	-0.035296298	-0.79276686	1.1874297	0.016128771	-1.1872504	-0.017518405	0.06639344	-1.5556566	1.32	0.617	0.159	-0.21557269	0.071303142	0.00055555704	1.9771626	1.9515075	1.9959527	1.9514745	1.9956037	0.0001723273	1.911976	1.0708201	0.0022964334	0.0005709533	-0.19889223	-0.090636988	-0.19895892	-0.092889695	-0.0018167691	-0.00087534468	0.046794262	0.55599895	-0.84219113	-0.21344654	0.84272676	0.22410356	-0.040462643	1.2101737	0.64827334	0.020338093	0.0005699476	0.02276726	0.047987647	0.0041772153	0.048018591	0.0045336369	0.00017404588	0.085570101	0.020308586	3.3879212	4.7813226	4.6594704	4.3780148	4.6574712	4.3785691	4.1612486	4.5133001	4.6209241	3.4277324	3.6981784	3.6518725	3.6999082	3.653935	3.8405239	4.0668382	-134.44144	R0:S0:1	-100.64	uncorrelated	51514b8	 2.06e+02	 5.28e-04	 1.00e+06	2022-04-11@06:47
2x2_2C_8b_C2v_L	0.1	14	1.24	0.21060202	-8.714746	-9.5616384	-0.27175582	-9.5611433	-0.27110167	0.47963452	-10.055103	13.84	-0.00030439877	-0.00029870751	0.0014374304	0.044902485	0.00070625541	0.04454602	0.00010534492	-0.00032487452	-0.039119124	-0.78887551	1.1860108	0.019879357	-1.1854332	-0.020318492	0.06765034	-1.5533958	1.32	0.617	0.159	-0.22220497	0.073159758	0.00075261348	1.9773625	1.9516274	1.9945693	1.9517063	1.9944747	0.00018156174	1.9116242	1.0726707	0.0020011758	-9.5700165e-05	-0.20509014	-0.10395602	-0.20459913	-0.10434017	-0.00066276975	0.00041288791	0.054040178	0.55274247	-0.83977196	-0.24880096	0.83897556	0.25137046	-0.041130573	1.2136487	0.64374475	0.02099827	0.000773615	0.022570011	0.047874835	0.00558261	0.047798477	0.0056768624	0.00018337883	0.085898425	0.020969969	3.3791592	4.7898081	4.6673361	4.3999228	4.6677844	4.4015287	4.1686473	4.5098285	4.6326477	3.4183413	3.6878925	3.6402959	3.6870137	3.6394852	3.8332267	4.0723679	-134.56912	R0:S0:1	-100.8	uncorrelated	51514b8	 2.33e+02	 1.34e-03	 1.00e+06	2022-04-11@06:50
2x2_2C_8b_C2v_L	0.1	14	1.24	0.21167351	-8.7146924	-9.5618062	-0.27249609	-9.5612877	-0.27184741	0.47975773	-10.054788	13.84	1.8381539e-06	3.4017069e-05	0.0022690148	0.045395765	0.0021285512	0.045362175	5.9215595e-05	1.8354e-05	-0.03917281	-0.79117926	1.186682	0.016366412	-1.1865434	-0.01615182	0.067508319	-1.5536041	1.32	0.617	0.159	-0.22223598	0.072703099	0.00071350986	1.9772118	1.9515151	1.995624	1.9515361	1.9956785	0.00017755712	1.9116657	1.0722151	2.2981819e-05	-8.1509717e-05	-0.20552218	-0.095788886	-0.20541042	-0.095376837	-0.00043793635	6.093061e-05	0.053152332	0.5548143	-0.84112803	-0.22211462	0.84087969	0.22045558	-0.041026612	1.2129804	0.64460041	0.020900576	0.00073418454	0.022719492	0.047984246	0.0045100851	0.047964095	0.0044545844	0.00017936122	0.085861605	0.020872651	3.381831	4.7880969	4.6652322	4.3891688	4.665677	4.3893339	4.1659931	4.5119105	4.6296262	3.4212711	3.6911524	3.6431228	3.6906806	3.6425707	3.8358498	4.0704867	-134.57379	R0:S0:1	-100.8	uncorrelated	51514b8	 2.32e+02	 0.00e+00	 9.90e-04	2022-04-11@06:53
2x2_2C_8b_C2v_L	0.1	14	1.24	0.22980716	-8.7152358	-9.5642677	-0.28854228	-9.5637502	-0.2879967	0.49024298	-10.047325	13.86	0.00066150415	0.00047786783	0.0028885196	0.047347094	0.0033357285	0.047962172	-2.1334427e-05	0.00013032761	-0.042557612	-0.79274813	1.1864974	0.014773095	-1.186771	-0.012134489	0.068683596	-1.5520367	1.32	0.617	0.159	-0.22922337	0.074029513	0.00085208606	1.9770745	1.9514711	1.9957887	1.9514894	1.996397	0.00018213905	1.9113406	1.0735376	-0.0038040742	-0.00062256173	-0.2126746	-0.097272935	-0.21274741	-0.092806501	0.00026110288	0.00038300656	0.058555167	0.5559871	-0.84057586	-0.2173346	0.84010542	0.19797481	-0.041639614	1.2156345	0.64105017	0.021467213	0.00087860119	0.022856974	0.04803158	0.0043410684	0.048015344	0.0037207878	0.00018403991	0.086168833	0.021441502	3.3768714	4.7951315	4.6707429	4.396226	4.6734183	4.3942513	4.1690107	4.5122481	4.637065	3.416189	3.6848463	3.6347122	3.6827614	3.6321721	3.8329023	4.0729003	-134.71915	R0:S0:1	-100.96	uncorrelated	51514b8	 2.62e+02	 1.41e-03	 1.00e+06	2022-04-11@06:57
2x2_2C_8b_C2v_L	0.1	14	1.24	0.2308208	-8.7154058	-9.5644748	-0.28888441	-9.5639642	-0.28836046	0.49018839	-10.047124	13.86	-2.0158364e-05	5.4859449e-05	0.0016346405	0.047677493	0.0018654959	0.047664099	-9.8333038e-05	3.0766718e-05	-0.040377327	-0.79064317	1.1863096	0.017375076	-1.1863655	-0.017186161	0.068872546	-1.5520846	1.32	0.617	0.159	-0.22902532	0.074455842	0.00079808042	1.9772155	1.9515876	1.9949652	1.9515751	1.9950145	0.00018627782	1.9112718	1.0739633	0.00016289773	-7.1271665e-05	-0.21186994	-0.1046608	-0.2119747	-0.10429662	0.00081055298	5.9019408e-05	0.056363721	0.55404415	-0.83904725	-0.23800402	0.83914862	0.23664446	-0.041770321	1.2164623	0.64031026	0.021551275	0.00081945712	0.022717205	0.047919238	0.0051831726	0.047931436	0.0051332944	0.0001882013	0.086231416	0.02152496	3.3737641	4.7968795	4.6741428	4.4066262	4.6742864	4.406332	4.1714522	4.5105433	4.6390478	3.4133231	3.6806585	3.6304092	3.6806266	3.6303342	3.8304952	4.0745592	-134.72072	R0:S0:1	-100.96	uncorrelated	51514b8	 2.61e+02	 0.00e+00	 9.87e-04	2022-04-11@07:00
2x2_2C_8b_C2v_L	0.1	14	1.24	0.25439583	-8.7163531	-9.5678345	-0.30838356	-9.5673254	-0.30803246	0.50187058	-10.038109	13.88	-0.00032200138	-7.02419e-05	0.00032894716	0.05065518	0.0011500978	0.050416056	-0.00040229911	3.7335924e-05	-0.040229938	-0.78929959	1.1861488	0.018937063	-1.1864893	-0.01993364	0.070407932	-1.5505532	1.32	0.617	0.159	-0.23609036	0.076541038	0.00083495468	1.9772809	1.9517242	1.994017	1.951621	1.9937152	0.00019751632	1.9108197	1.076043	0.001845515	0.00029419279	-0.21814974	-0.11656548	-0.21875544	-0.1183259	0.0031672045	-0.00021984999	0.057974041	0.55235195	-0.83601001	-0.25888965	0.83720566	0.26665162	-0.042602877	1.2205639	0.63536748	0.022292881	0.00085369108	0.022653756	0.047793192	0.0061518254	0.047892015	0.0064583591	0.00019958577	0.086654931	0.022268163	3.3634157	4.8072692	4.6857184	4.4294241	4.6836647	4.4290197	4.1784509	4.5082916	4.6499183	3.4033712	3.6671209	3.6144037	3.6692803	3.616954	3.823623	4.0797208	-134.88128	R0:S0:1	-101.12	uncorrelated	51514b8	 2.98e+02	 8.68e-04	 1.00e+06	2022-04-11@07:03
2x2_2C_8b_C2v_L	0.1	14	1.24	0.28272835	-8.7174434	-9.5722923	-0.33155764	-9.5718692	-0.33142934	0.51464868	-10.0275	13.9	-0.0003271285	-0.0004659602	0.0015118766	0.050208514	0.00050089877	0.05012168	-0.00032493071	0.00034182222	-0.048511736	-0.79052871	1.1849924	0.020760127	-1.1844938	-0.021937739	0.071368546	-1.5487659	1.32	0.617	0.159	-0.24444431	0.078825899	0.0012442916	1.9772049	1.951869	1.993389	1.9519025	1.9929986	0.00020310615	1.9103745	1.0783228	0.0016965236	0.00065280175	-0.22662036	-0.12408366	-0.22625489	-0.12659792	0.0023946506	-0.00070934756	0.071769041	0.55235097	-0.8329855	-0.27358656	0.83282494	0.28273545	-0.043071555	1.2245851	0.62983122	0.023139296	0.0012784811	0.022730987	0.04765753	0.0067604369	0.047624459	0.0071561517	0.00020521002	0.087072911	0.023117159	3.3550849	4.8189745	4.69596	4.4480537	4.6945787	4.4497591	4.1853118	4.5062789	4.6647625	3.3933843	3.654305	3.6004243	3.6551091	3.6016002	3.816837	4.0849914	-135.05722	R0:S0:1	-101.28	uncorrelated	51514b8	 3.56e+02	 6.64e-04	 1.00e+06	2022-04-11@07:07
2x2_2C_8b_C2v_L	0.1	14	1.24	0.3164624	-8.718854	-9.5777152	-0.35749877	-9.5773223	-0.35770694	0.52817553	-10.015271	13.92	-0.00030472674	0.0001855454	0.00012838921	0.054883656	-0.0005295866	0.054248313	-0.0002991292	-0.00020322525	-0.049000761	-0.79202901	1.1853576	0.023284393	-1.1848128	-0.02388914	0.073413123	-1.547109	1.32	0.617	0.159	-0.25269291	0.081536325	0.0013162412	1.9771273	1.9519953	1.9917801	1.9520832	1.9916796	0.00021791754	1.9098792	1.0810272	0.0022379057	-0.00070703923	-0.23436492	-0.14207906	-0.23374205	-0.14224577	0.0028925086	0.00091270357	0.074782944	0.55218837	-0.82984	-0.30475473	0.82893415	0.30713702	-0.044227679	1.2290906	0.62356932	0.024079836	0.0013463371	0.022810073	0.047541609	0.0084006415	0.047456547	0.0084960468	0.00022021661	0.087537681	0.024060767	3.3427517	4.8327854	4.7082265	4.4768368	4.7089746	4.478567	4.1931606	4.5038553	4.6781121	3.3815444	3.6391907	3.5827298	3.6380315	3.5818975	3.8091611	4.0909227	-135.24967	R0:S0:1	-101.44	uncorrelated	51514b8	 4.18e+02	 4.15e-04	 1.00e+06	2022-04-11@07:10
2x2_2C_8b_C2v_L	0.1	14	1.24	0.35482306	-8.7206998	-9.5842051	-0.38662308	-9.5838058	-0.3871822	0.54260649	-10.001532	13.94	0.00017771429	-0.00015837535	-0.0014818842	0.056674956	-0.00054190175	0.056417218	-5.8267825e-05	-0.00017388795	-0.05336212	-0.78998077	1.1850621	0.024270273	-1.1851504	-0.024871394	0.074677462	-1.5452175	1.32	0.617	0.159	-0.26123689	0.084079931	0.0015625908	1.977265	1.9522393	1.991195	1.9521628	1.9910047	0.00022260545	1.9093122	1.0835626	-0.0012566503	0.00041596516	-0.24167809	-0.15110214	-0.24235538	-0.15205252	0.00030231725	-0.0002662357	0.083108373	0.54932963	-0.82547459	-0.31528973	0.82636404	0.31951842	-0.04474658	1.2343304	0.61753037	0.025020474	0.0015975277	0.022675368	0.047313102	0.0089741151	0.04738614	0.0091634099	0.00022491198	0.088067646	0.025003797	3.3305108	4.846195	4.7218081	4.4993067	4.7201737	4.4985288	4.2027024	4.5004581	4.6943123	3.3682327	3.6229307	3.5643862	3.6245869	3.5664153	3.799683	4.0980298	-135.45341	R0:S0:1	-101.6	uncorrelated	51514b8	 5.14e+02	 3.12e-04	 1.00e+06	2022-04-11@07:13
2x2_2C_8b_C2v_L	0.1	14	1.24	0.39806463	-8.7227033	-9.5917065	-0.41876364	-9.5913735	-0.4197443	0.55788283	-9.9862442	13.96	0.00047894507	7.1942924e-05	-0.00028037755	0.059450736	-0.0011460435	0.059362367	0.00060772822	0.00067767902	-0.055935572	-0.79099145	1.1849192	0.026386718	-1.1846829	-0.02538463	0.076103247	-1.5433268	1.32	0.617	0.159	-0.27153742	0.087272155	0.0017265879	1.9772433	1.9524093	1.9900224	1.9524739	1.9904152	0.00023348493	1.9087285	1.0867484	-0.0030983218	0.00050676213	-0.25225147	-0.16542068	-0.25187313	-0.16313029	-0.00561569	-0.0012308171	0.089232088	0.54823076	-0.82163748	-0.33635724	0.8208624	0.32865755	-0.045443329	1.2397627	0.60999632	0.026181315	0.0017612355	0.022699515	0.047154775	0.010144373	0.047093421	0.0097468324	0.00023594196	0.088614792	0.026167905	3.3158394	4.8627767	4.73536	4.5265319	4.7369356	4.5256911	4.2128132	4.4970124	4.7116017	3.3535124	3.6057735	3.5448535	3.6042743	3.5429566	3.7897013	4.1058241	-135.67305	R0:S0:1	-101.76	uncorrelated	51514b8	 6.15e+02	 3.09e-04	 1.00e+06	2022-04-11@07:16
2x2_2C_8b_C2v_L	0.1	14	1.24	0.44603912	-8.7250404	-9.6003824	-0.45365598	-9.6000265	-0.4550824	0.57372693	-9.9693888	13.98	0.00058314067	0.00050274246	-0.0022408339	0.061254123	-0.0010013211	0.06197783	0.00052403728	-0.0007512001	-0.058632758	-0.79235961	1.1849946	0.026798165	-1.1857789	-0.025929891	0.077506554	-1.5412291	1.32	0.617	0.159	-0.28044598	0.090054677	0.0018530667	1.9771897	1.9526557	1.9897643	1.9525588	1.990018	0.00023877208	1.9081725	1.0895266	-0.0029516232	-0.00066650596	-0.26005079	-0.17272993	-0.26069993	-0.17153251	-0.0040736769	0.00091052484	0.09457508	0.54766023	-0.81716191	-0.3405944	0.81801919	0.33555873	-0.046062153	1.2447817	0.60351232	0.027213023	0.0018865807	0.022755212	0.046924882	0.010383654	0.047019227	0.010132972	0.0002412383	0.089136113	0.027202427	3.3027488	4.8778022	4.7493318	4.547171	4.7497486	4.5454664	4.2214173	4.4946112	4.7267916	3.3404858	3.5889854	3.5255721	3.5893011	3.5253571	3.7811776	4.1124057	-135.90608	R0:S0:1	-101.92	uncorrelated	51514b8	 7.06e+02	 3.07e-04	 1.00e+06	2022-04-11@07:19
2x2_2C_8b_C2v_L	0.1	14	1.24	0.49863627	-8.7278203	-9.6102736	-0.49090343	-9.6099814	-0.49285076	0.58991215	-9.950927	14	0.00073398277	0.00042398026	-0.0012230771	0.064205273	-0.0015634229	0.06519976	0.00096324803	-0.00049710118	-0.062671121	-0.79212332	1.1852694	0.028436008	-1.1854306	-0.02629653	0.078950139	-1.5389436	1.32	0.617	0.159	-0.29214797	0.093980461	0.0021224286	1.9772809	1.9528912	1.9887316	1.9529635	1.9894532	0.00024834779	1.9074813	1.0934434	-0.0034725563	-0.00087992078	-0.2720351	-0.18748594	-0.27143713	-0.18365162	-0.0078505311	0.00074744621	0.10363919	0.54477265	-0.81216917	-0.35701586	0.81110969	0.34308133	-0.046639331	1.2514617	0.59440755	0.028632874	0.0021580075	0.022667839	0.046705315	0.011407381	0.046637361	0.010689485	0.00025094066	0.089782053	0.02862636	3.283915	4.8986649	4.7664003	4.5777455	4.7700326	4.577092	4.2351483	4.4890914	4.7498264	3.3209164	3.5676744	3.5013108	3.5646531	3.4970665	3.7675555	4.122975	-136.15091	R0:S0:1	-102.08	uncorrelated	51514b8	 7.52e+02	 2.29e-04	 1.00e+06	2022-04-11@07:22
2x2_2C_8b_C2v_L	0.1	14	1.24	0.55587947	-8.7309189	-9.6213481	-0.53071111	-9.6210167	-0.53323553	0.60655247	-9.9308758	14.02	0.00070362074	0.0004160932	-0.0029468054	0.066927428	-0.0015671351	0.067977887	0.0013991601	-7.8850923e-07	-0.066485711	-0.7926436	1.1856799	0.029140198	-1.1868829	-0.027520943	0.080281574	-1.537114	1.32	0.617	0.159	-0.30287299	0.097862095	0.0023567614	1.9773366	1.9532854	1.9882441	1.953124	1.9886943	0.00025863656	1.9067192	1.0973172	-0.0043142821	0.00066230168	-0.28119979	-0.19845017	-0.28247726	-0.19629281	-0.01252549	-0.0011943277	0.11193922	0.54227563	-0.80540324	-0.36318374	0.80687662	0.3549629	-0.047122874	1.2585713	0.58571335	0.030017528	0.0023928639	0.022615829	0.046334405	0.011880541	0.046491935	0.011435896	0.00026139199	0.090493966	0.030014817	3.264472	4.9201722	4.7868299	4.6079655	4.786928	4.604708	4.2485528	4.4843448	4.7728618	3.3010184	3.5433806	3.4738617	3.5443074	3.4737486	3.7542431	4.1330975	-136.41018	R0:S0:1	-102.24	uncorrelated	51514b8	 7.18e+02	 1.47e-02	 1.00e+06	2022-04-11@07:24
2x2_2C_8b_C2v_L	0.1	14	1.24	0.53449528	-8.7354436	-9.6317704	-0.48937479	-9.6314439	-0.4916524	0.57508717	-9.9313429	14.02	0.00035001692	0.00017963384	-0.0030520749	0.065682826	-0.0033242521	0.065374336	0.00034222518	-0.00015329381	-0.065825458	-0.79259555	1.1856549	0.03104887	-1.1854597	-0.031873152	0.079199473	-1.536714	1.32	0.617	0.159	-0.30279858	0.098932389	0.0025062157	1.9774014	1.9534957	1.98632	1.9534937	1.9860783	0.00025301954	1.9066937	1.0983907	-0.0020485826	0.00018942964	-0.28088142	-0.21211999	-0.28090604	-0.21333441	-0.0031749229	-0.00024973123	0.1144345	0.54102905	-0.80269179	-0.38948898	0.8028201	0.39379035	-0.046687259	1.2593286	0.58392779	0.03021588	0.0025454205	0.022551869	0.046128337	0.013830317	0.046129859	0.014066136	0.00025574548	0.090515218	0.030212564	3.2596903	4.9252405	4.7923141	4.627887	4.7912815	4.6281524	4.2524709	4.4810782	4.779411	3.2955574	3.5357173	3.4677535	3.5364505	3.4690736	3.7502965	4.1359927	-136.29522	R0:S0:1	-102.24	uncorrelated	51514b8	 7.07e+02	 0.00e+00	 1.02e-03	2022-04-11@07:27
2x2_2C_8b_C2v_L	0.1	14	1.24	0.5537234	-8.747937	-9.6648398	-0.44922335	-9.6644932	-0.45163727	0.52936954	-9.910646	14.04	-0.00041545152	-0.00034300163	-0.0045181395	0.0660365	-0.0068439403	0.063139669	-0.0012894448	5.4142673e-05	-0.068602241	-0.79292949	1.1861637	0.035496653	-1.184003	-0.041475808	0.078355632	-1.5339323	1.32	0.617	0.159	-0.31337686	0.10599348	0.0031471174	1.9776411	1.9544173	1.9809975	1.9544976	1.9785016	0.00027432167	1.9057843	1.1054497	0.0015290831	0.0010700412	-0.2893678	-0.25677424	-0.2888022	-0.26717869	0.012035577	-0.00042581125	0.12999887	0.53485374	-0.78867087	-0.45044391	0.78884341	0.48648033	-0.046267424	1.2691634	0.57011656	0.03219249	0.0031929689	0.022318546	0.045241142	0.019182347	0.045157779	0.021611001	0.00027790043	0.091356848	0.032192483	3.2251223	4.9627813	4.830154	4.7088752	4.8215041	4.7138811	4.2775109	4.4672841	4.8220374	3.2586496	3.4887321	3.4236785	3.4942374	3.4352796	3.7254083	4.1546228	-136.33922	R0:S0:1	-102.4	uncorrelated	51514b8	 6.00e+02	 2.42e-03	 1.00e+06	2022-04-11@07:30
2x2_2C_8b_C2v_L	0.1	14	1.24	0.55212187	-8.748231	-9.6654388	-0.44638556	-9.6649599	-0.4488275	0.52719312	-9.9106352	14.04	4.4940129e-05	-1.9475562e-05	-0.0032150302	0.065271041	-0.0034679512	0.06548632	-2.4133035e-05	0.00015884569	-0.068010564	-0.79369947	1.1865932	0.032544949	-1.1868716	-0.032685276	0.077742721	-1.5338473	1.32	0.617	0.159	-0.31476794	0.10490967	0.0030489326	1.97756	1.9541711	1.9826157	1.954139	1.9825725	0.00025590826	1.9058807	1.1043668	-0.00041815429	0.00026439457	-0.2918513	-0.24497601	-0.29195105	-0.24536969	3.1363124e-05	-0.00037772917	0.12747861	0.53627531	-0.79211023	-0.43159685	0.79245254	0.43236539	-0.045847183	1.267936	0.5714638	0.03207472	0.0030941049	0.0223989	0.045480322	0.017573855	0.04551171	0.017615573	0.0002591021	0.091270386	0.032074625	3.229874	4.958163	4.820443	4.6899087	4.8200226	4.6895184	4.2735549	4.4701976	4.8164688	3.2639456	3.4995717	3.431324	3.5000861	3.4318522	3.7292312	4.1520666	-136.3299	R0:S0:1	-102.4	uncorrelated	51514b8	 6.04e+02	 0.00e+00	 1.42e-03	2022-04-11@07:33
2x2_2C_8b_C2v_L	0.1	14	1.24	0.55144969	-8.7661911	-9.7113105	-0.36180303	-9.7105322	-0.36424625	0.44613191	-9.8887953	14.06	-0.00024183632	-0.00019931454	-0.0025140223	0.062967032	-0.001893539	0.065362599	-0.00012140072	0.00066724637	-0.069217785	-0.79551877	1.1880958	0.032768445	-1.1901252	-0.029171447	0.074553915	-1.5305338	1.32	0.617	0.159	-0.32742288	0.11253194	0.0038953752	1.9777901	1.9549929	1.9759854	1.9549018	1.9776951	0.00025475552	1.9049759	1.1119914	0.0016810242	-0.00040084387	-0.30398875	-0.29531141	-0.30415067	-0.28840872	0.0012992305	-0.00015214598	0.14509113	0.52968914	-0.77931807	-0.49146493	0.7795977	0.46774418	-0.044049187	1.2780908	0.55622896	0.034279517	0.003949156	0.022175871	0.044686809	0.024318233	0.044780013	0.022674218	0.00025891715	0.092107736	0.034282842	3.1903407	5.0020573	4.8538327	4.7758143	4.8593005	4.7722148	4.3007572	4.4547637	4.8662706	3.2212158	3.4551827	3.3910069	3.4521366	3.3831741	3.7019483	4.1727451	-136.25533	R0:S0:1	-102.56	uncorrelated	51514b8	 4.96e+02	 3.34e-02	 1.00e+06	2022-04-11@07:36
2x2_2C_8b_C2v_L	0.1	14	1.24	0.48991302	-8.7766762	-9.7272973	-0.27117963	-9.7267493	-0.27442434	0.36970726	-9.8831654	14.06	-0.00089224796	-0.00040484235	-0.0015891783	0.057018173	-0.0012901856	0.057239603	0.0015972454	-0.00050385353	-0.067418874	-0.79395877	1.1877266	0.030432639	-1.1878742	-0.03001618	0.070131621	-1.5290697	1.32	0.617	0.159	-0.32510347	0.11374119	0.004575253	1.9779995	1.9552611	1.9719519	1.9552545	1.9725191	0.00026907342	1.9049344	1.1132129	0.0044823443	0.00033995146	-0.30131282	-0.31559529	-0.30139619	-0.3129933	-0.019166275	-8.9900931e-05	0.15344966	0.5263179	-0.77596541	-0.51389766	0.7759223	0.50785265	-0.041785092	1.2792221	0.55466757	0.034357422	0.0046430335	0.02196754	0.044419937	0.028573452	0.044427202	0.027997475	0.00027567097	0.09213931	0.034357369	3.1835832	5.0105517	4.8609568	4.8098618	4.8620175	4.8073842	4.3060455	4.4495246	4.8802205	3.210484	3.4454038	3.3876715	3.4448572	3.3864699	3.6965607	4.1762255	-135.96253	R0:S0:1	-102.56	uncorrelated	51514b8	 4.72e+02	 0.00e+00	 2.21e-03	2022-04-11@07:39
