model	E_kin	D	U	e	eb1_1	eb2_1	eb3_1	eb4_1	eb5_1	eb6_1	eb7_1	eb8_1	mu	sb1_1	sb2_1	sb3_1	sb4_1	sb5_1	sb6_1	sb7_1	sb8_1	tb1_1	tb2_1	tb3_1	tb4_1	tb5_1	tb6_1	tb7_1	tb8_1	tpd	tpp	tppp	ave_D	ave_e	ave_mu	ave_tpd	ave_tpp	ave_tppp	ave_D_1	ave_U_1	ave_eb1_1	ave_eb2_1	ave_eb3_1	ave_eb4_1	ave_eb5_1	ave_eb6_1	ave_eb7_1	ave_eb8_1	ave_mu_1	ave_sb1_1	ave_sb2_1	ave_sb3_1	ave_sb4_1	ave_sb5_1	ave_sb6_1	ave_sb7_1	ave_sb8_1	ave_tb1_1	ave_tb2_1	ave_tb3_1	ave_tb4_1	ave_tb5_1	ave_tb6_1	ave_tb7_1	ave_tb8_1	var_D_1	var_U_1	var_eb1_1	var_eb2_1	var_eb3_1	var_eb4_1	var_eb5_1	var_eb6_1	var_eb7_1	var_eb8_1	var_mu_1	var_sb1_1	var_sb2_1	var_sb3_1	var_sb4_1	var_sb5_1	var_sb6_1	var_sb7_1	var_sb8_1	var_tb1_1	var_tb2_1	var_tb3_1	var_tb4_1	var_tb5_1	var_tb6_1	var_tb7_1	var_tb8_1	E0_1	sector_1	E0_2	sector_2	githash	iterations	dist_function	distance	diff_hybrid	time
2x2_2C_8b_C2v_L	7.5390811	0.1	14	2.24	-0.077765458	-5.5082501	-5.9424206	0.025211748	-5.9420586	0.024771032	0.041156943	-5.2532258	9.5	-1.8296243e-05	-2.1332282e-06	0.0023229986	0.0025947288	0.0023258814	0.0033080979	-0.0021450341	-3.6890058e-05	-0.0014768691	-0.86043898	1.2794212	-0.0001794851	-1.2793801	-8.8526515e-06	8.4704415e-06	-1.5874198	1.32	0.678	0.198	-0.021334855	1.3149558	1.6664983	-0.30746707	-0.041503961	0.018463843	-0.047166219	0.056376019	1.9999997	1.9785612	1.9488453	1.0056748e-06	1.9488468	1.6046161e-06	7.5231023e-07	1.9009223	1.0557936	3.2983093e-05	-8.6378726e-06	-0.049836964	-0.0038808836	-0.049840223	-0.0049247956	0.0035193451	3.0267027e-05	0.001858302	0.53944806	-0.88082093	0.00050196942	0.88079962	-0.00031284908	-8.3332211e-06	1.2782045	0.70132987	0.013400043	2.5460434e-07	0.021370868	0.050526093	1.005756e-06	0.05052468	1.6048557e-06	7.5231511e-07	0.095889752	0.013378379	4.6059948	4.7595799	4.5835549	3.7947833	4.5836123	3.7947128	4.1238061	4.6125371	3.3940075	3.4302566	3.8095536	4.2052245	3.8094927	4.2052997	3.8761986	4.0104205	-85.930197	R0:S0:1	-58.08	uncorrelated	51514b8	3	sharp_wc_2.0_b_50	 1.20e+00	 9.99e-04	2022-04-08@19:30
2x2_2C_8b_C2v_L	7.5391716	0.1	14	2.24	-0.080949973	-5.8526861	-6.3643248	0.025387594	-6.3649013	0.025457286	0.044263136	-5.7350142	10	3.8862073e-06	7.0818683e-05	0.0024672647	-0.00096723166	0.0024555505	0.0029027419	-0.0010328565	-3.1990666e-06	-0.0016303179	-0.85346876	1.2729748	-1.5822023e-05	-1.2729976	0.00022236442	0.00018578869	-1.5858116	1.32	0.678	0.198	-0.021920196	1.3149615	1.6665377	-0.30741532	-0.041490903	0.018457641	-0.048561027	0.056640993	1.9999996	1.9782936	1.9486559	1.6826864e-07	1.9486612	1.5427343e-06	2.1682668e-07	1.9008111	1.0560787	-6.2575986e-06	-5.9390554e-05	-0.049432696	0.0015946815	-0.049424398	-0.0048128662	0.0018794224	2.0930894e-05	0.0022587587	0.54275233	-0.88230145	-7.8417721e-05	0.88224651	-0.00057017089	-0.00016925802	1.2788593	0.70101106	0.013472848	3.7613744e-07	0.021636775	0.050709287	1.6827062e-07	0.050704105	1.5428126e-06	2.1682884e-07	0.095989027	0.013441844	4.6067777	4.7622136	4.5863889	3.7932852	4.5864237	3.7932105	4.1230234	4.6140675	3.3932256	3.4299443	3.8082035	4.2067161	3.8081386	4.2068015	3.876978	4.0095719	-91.274764	R0:S0:1	-62.08	uncorrelated	51514b8	1	sharp_wc_2.0_b_50	 1.39e+00	 7.02e-02	2022-04-08@19:36
2x2_2C_8b_C2v_L	7.5389288	0.1	14	2.24	-0.084134593	-6.1974128	-6.7864118	0.025563402	-6.7879222	0.026143417	0.047369309	-6.216976	10.5	2.4834124e-05	3.0817448e-05	0.0023655737	-0.0045073132	0.0023628204	0.0024144282	9.1852258e-05	3.7014698e-05	-0.0016180135	-0.84528107	1.2656357	0.00014844225	-1.2657747	0.00044951579	0.00036205507	-1.5837958	1.32	0.678	0.198	-0.022941358	1.3149631	1.6665531	-0.30740321	-0.041488245	0.018455749	-0.050913954	0.056880083	1.9999995	1.9780786	1.9485278	4.6429687e-06	1.9485297	1.3806664e-06	9.8546296e-09	1.9007224	1.0563328	-3.5784069e-05	-1.4360394e-05	-0.050229648	0.0083645741	-0.050226058	-0.0045210608	-0.0001876876	-2.096098e-05	0.0024942576	0.54537293	-0.88324254	-0.00066769511	0.88323232	-0.00077767993	-0.00030825207	1.279405	0.70064139	0.013545526	4.5898964e-07	0.021850481	0.050833597	4.6435847e-06	0.050831721	1.3806919e-06	9.8547188e-09	0.096068937	0.013507125	4.6076249	4.7645491	4.5886416	3.7918217	4.5885817	3.7918641	4.1226197	4.6151162	3.3923792	3.4295074	3.8069258	4.2082145	3.8069697	4.2081466	3.8773804	4.0090915	-96.61846	R0:S0:1	-66.08	uncorrelated	51514b8	0	sharp_wc_2.0_b_50	 2.00e+00	 1.00e+06	2022-04-08@19:40
2x2_2C_8b_C2v_L	7.5391018	0.1	14	2.24	-0.087320492	-6.5451013	-7.210686	0.025734858	-7.2130135	0.026826541	0.050474494	-6.6998391	11	-3.8403423e-06	9.4847037e-07	0.0026934076	0.0019295742	0.002692522	0.000372033	0.00085545842	-1.0203235e-05	0.00074475461	-0.84038491	1.2617137	0.00012620004	-1.26196	0.00034769565	0.00065153708	-1.5827562	1.32	0.678	0.198	-0.02453949	1.3149737	1.6666765	-0.30726552	-0.041467377	0.018444925	-0.054580493	0.057319262	1.9999999	1.9776988	1.9481788	1.0907391e-06	1.9481762	5.6012496e-08	2.6232355e-07	1.9005757	1.0567844	5.0327579e-06	4.2410366e-06	-0.052983776	-0.0040520021	-0.052983454	-0.00082883697	-0.0019919861	-4.2002604e-06	-0.001293586	0.55001339	-0.88592914	0.00011537149	0.88597718	-0.00041242259	-0.00052219228	1.2801732	0.69990449	0.013671697	1.2337766e-07	0.022227903	0.051173682	1.0908408e-06	0.051176104	5.6015916e-08	2.6235912e-07	0.096205394	0.013627976	4.6084723	4.7680463	4.5933507	3.7891874	4.5931634	3.7894023	4.121335	4.6173706	3.3915288	3.4293287	3.8046757	4.2108211	3.8048589	4.2105982	3.8786666	4.0079593	-101.9874	R0:S0:1	-70.08	uncorrelated	51514b8	1	sharp_wc_2.0_b_50	 3.15e+00	 5.81e-04	2022-04-08@19:47
2x2_2C_8b_C2v_L	7.5390887	0.1	14	2.24	-0.090517818	-6.897304	-7.6384936	0.026236892	-7.6414311	0.027494781	0.053578256	-7.1833365	11.5	-3.5527776e-05	5.4050143e-06	0.0029335449	0.0014538386	0.0029316829	-0.0016601416	0.0012035539	-2.1993651e-05	0.00073062373	-0.83567368	1.2577448	-0.00017222974	-1.2578721	-0.0001195476	0.0015384402	-1.5817094	1.32	0.678	0.198	-0.026887346	1.3149846	1.6668158	-0.30711792	-0.041447591	0.018433837	-0.059928747	0.057804068	1.9999998	1.9773144	1.9478579	8.5860481e-07	1.9478821	1.1096908e-06	7.5021823e-07	1.900436	1.0572794	4.3142934e-05	-1.7473104e-05	-0.057498125	-0.0035863933	-0.057486171	0.0040808271	-0.0032577991	3.1253906e-05	-0.0014533534	0.55466101	-0.88835971	0.00039849365	0.88812084	0.00037940005	-0.0011663196	1.2809002	0.69896286	0.013823446	1.5602898e-07	0.022609862	0.051486791	8.5860639e-07	0.051463376	1.1096949e-06	7.5078496e-07	0.096336228	0.013775429	4.6093947	4.7716603	4.5976783	3.7865371	4.5977739	3.7862573	4.12013	4.6195539	3.3906067	3.4291107	3.8024553	4.2134696	3.8022213	4.2137514	3.8798748	4.0069664	-107.38011	R0:S0:1	-74.08	uncorrelated	51514b8	1	sharp_wc_2.0_b_50	 5.21e+00	 1.91e-03	2022-04-08@19:54
2x2_2C_8b_C2v_L	7.5390092	0.1	14	2.24	-0.093726635	-7.2540719	-8.0697983	0.027070114	-8.0731355	0.028148245	0.056680593	-7.6674948	12	-7.1366145e-05	2.1920948e-05	0.0031977374	-0.0058282567	0.0031939012	-0.0037234399	0.0011353871	-3.0232151e-05	-0.0015853925	-0.8317136	1.25481	-0.00074685032	-1.2546133	-0.00095819689	0.0030224357	-1.5808403	1.32	0.678	0.198	-0.03037649	1.3149995	1.667022	-0.30690938	-0.041422914	0.018419027	-0.06784385	0.058443373	1.999999	1.9768971	1.9474966	1.9057716e-05	1.9475801	8.2340874e-06	1.1947798e-06	1.9002882	1.0579274	8.0453614e-05	-7.8871961e-05	-0.064684372	0.01685569	-0.064633271	0.01105351	-0.0036690078	0.00011770578	0.0036895277	0.55964658	-0.8910333	-0.00053095675	0.89014226	0.0016627836	-0.0021782545	1.2816829	0.69755055	0.014038327	1.0068866e-06	0.023024641	0.051839822	1.9099905e-05	0.051759337	8.2374397e-06	1.19768e-06	0.096475719	0.013986913	4.6105596	4.7757629	4.6026501	3.7832277	4.6035314	3.7815754	4.1189823	4.6218335	3.3894495	3.4287567	3.7996535	4.2169218	3.7983675	4.2184895	3.8810255	4.0061095	-112.7993	R0:S0:1	-78.08	uncorrelated	51514b8	0	sharp_wc_2.0_b_50	 8.87e+00	 1.00e+06	2022-04-08@19:58
2x2_2C_8b_C2v_L	7.538539	0.1	14	2.24	-0.096959341	-7.6162332	-8.5048535	0.0289598	-8.5082236	0.028759438	0.0598883	-8.1500167	12.5	-8.6476628e-05	1.3849893e-05	0.0039784496	0.0023362539	0.0038494158	-0.0041069563	0.00074765759	-6.4886707e-05	-0.0016558802	-0.82756745	1.2509222	0.00045733948	-1.2512218	-0.0032653192	0.01341177	-1.5797648	1.32	0.678	0.198	-0.035845012	1.3150169	1.6673084	-0.3066524	-0.041400434	0.01840235	-0.080311606	0.059304274	1.9999984	1.9765036	1.9473006	4.6959072e-06	1.9473052	1.7751027e-05	7.2649214e-06	1.9001111	1.058794	9.3000198e-05	-5.4489116e-06	-0.07652585	-0.0083022069	-0.076466417	0.015835247	-0.0030033146	2.492201e-05	0.0046519883	0.5642334	-0.89190827	0.00031299352	0.89189602	0.0041219829	-0.0092239783	1.2827525	0.6953187	0.014365352	1.6479949e-06	0.023415976	0.052033803	4.6989908e-06	0.052029208	1.7940732e-05	7.3155459e-06	0.096643275	0.014311563	4.6124476	4.7804691	4.6088566	3.7765267	4.6086144	3.7765392	4.1185326	4.6238993	3.3875674	3.427768	3.7942845	4.2235104	3.7944654	4.2236009	3.8815182	4.0058898	-118.23965	R0:S0:1	-82.08	uncorrelated	51514b8	1	sharp_wc_2.0_b_50	 1.58e+01	 2.28e-03	2022-04-08@20:08
