model	E_kin	D	U	e	eb1_1	eb2_1	eb3_1	eb4_1	eb5_1	eb6_1	eb7_1	eb8_1	mu	sb1_1	sb2_1	sb3_1	sb4_1	sb5_1	sb6_1	sb7_1	sb8_1	tb1_1	tb2_1	tb3_1	tb4_1	tb5_1	tb6_1	tb7_1	tb8_1	tpd	tpp	tppp	ave_D	ave_e	ave_mu	ave_tpd	ave_tpp	ave_tppp	ave_D_1	ave_U_1	ave_eb1_1	ave_eb2_1	ave_eb3_1	ave_eb4_1	ave_eb5_1	ave_eb6_1	ave_eb7_1	ave_eb8_1	ave_mu_1	ave_sb1_1	ave_sb2_1	ave_sb3_1	ave_sb4_1	ave_sb5_1	ave_sb6_1	ave_sb7_1	ave_sb8_1	ave_tb1_1	ave_tb2_1	ave_tb3_1	ave_tb4_1	ave_tb5_1	ave_tb6_1	ave_tb7_1	ave_tb8_1	var_D_1	var_U_1	var_eb1_1	var_eb2_1	var_eb3_1	var_eb4_1	var_eb5_1	var_eb6_1	var_eb7_1	var_eb8_1	var_mu_1	var_sb1_1	var_sb2_1	var_sb3_1	var_sb4_1	var_sb5_1	var_sb6_1	var_sb7_1	var_sb8_1	var_tb1_1	var_tb2_1	var_tb3_1	var_tb4_1	var_tb5_1	var_tb6_1	var_tb7_1	var_tb8_1	E0_1	sector_1	E0_2	sector_2	githash	iterations	dist_function	distance	diff_hybrid	time
2x2_2C_8b_C2v_L	6.0860284	0.1	14	1.77	0.63101919	-15.097382	-16.18393	-1.1418489	-16.182347	-1.1353311	4.4086365	-12.702029	13.5	0.0007500647	-0.00026875211	-0.038357964	0.070658346	-0.038213602	0.082255245	0.45237518	0.024547242	0.06282319	-0.94235471	1.3529562	0.096447835	-1.3654757	-0.083079491	-0.02732851	-1.3533354	1.13	0.62	0.188	-0.073817514	1.3208464	1.670294	-0.25384364	-0.027973673	0.012483139	-0.16550236	0.046528261	0.00037707546	1.9879599	1.9765751	1.9890145	1.9761708	1.9910013	0.030505657	1.9589891	1.046178	-0.0036893475	-0.00032609557	-0.092722051	-0.1192909	-0.093548939	-0.12018687	-0.70784959	-0.0070627997	-0.057649828	0.41353652	-0.59661016	-0.39928673	0.6013931	0.35820219	0.01270798	0.82124602	0.68839696	0.01319617	0.00037972302	0.01201456	0.023300533	0.010977154	0.023701369	0.009011499	0.030212063	0.040503848	0.013200915	3.5539161	4.5392447	4.3676088	4.2789785	4.375166	4.2691597	4.0854438	4.2016624	4.450777	3.567556	3.8113326	3.801148	3.8076957	3.7955996	4.1211779	4.0783341	-180.74837	R0:S0:1	-93.84	uncorrelated	51514b8	0	sharp_wc_2.0_b_50	 4.48e+01	 1.00e+06	2022-04-11@05:43
2x2_2C_8b_C2v_L	6.0859787	0.1	14	1.77	0.63109162	-15.09738	-16.183926	-1.1419546	-16.18233	-1.1354203	4.408644	-12.702031	13.52	0.00070954919	-0.00032126384	-0.038149501	0.070999899	-0.038006271	0.082464839	0.45227785	0.024853032	0.06284673	-0.94212158	1.3526253	0.096194556	-1.3654359	-0.083268488	-0.027072742	-1.3532034	1.13	0.62	0.188	-0.075373171	1.320852	1.6705214	-0.25372924	-0.02797306	0.012480135	-0.16910699	0.047189228	0.00039095525	1.9879487	1.976574	1.988808	1.9761458	1.9907319	0.030729331	1.9588632	1.0468378	-0.0033785854	-7.0123426e-05	-0.095113429	-0.12190497	-0.096051416	-0.12282595	-0.71057281	-0.0074860446	-0.0581288	0.41354345	-0.5962172	-0.40264181	0.60141894	0.3633676	0.012286172	0.82265511	0.68676865	0.013447535	0.0003938002	0.012025864	0.023302207	0.011182662	0.02372648	0.0092802394	0.030431197	0.040626398	0.013452261	3.5508376	4.5425228	4.3722646	4.2854758	4.3784589	4.2746613	4.0866184	4.2012193	4.4541069	3.5645444	3.8065457	3.7960313	3.8043406	3.7919026	4.1214663	4.0795729	-180.83202	R0:S0:1	-94	uncorrelated	51514b8	0	sharp_wc_2.0_b_50	 4.69e+01	 1.00e+06	2022-04-11@05:46
2x2_2C_8b_C2v_L	6.0857467	0.1	14	1.77	0.63136636	-15.097385	-16.183924	-1.1423663	-16.182331	-1.1357891	4.4087132	-12.702104	13.54	0.00061462526	-0.0004221019	-0.038013509	0.072258962	-0.038127974	0.083672531	0.45091223	0.024680322	0.063503605	-0.94064139	1.3510307	0.094861732	-1.3636037	-0.082602187	-0.027408726	-1.3514545	1.13	0.62	0.188	-0.077075332	1.3208553	1.6707016	-0.25365019	-0.027976364	0.012478362	-0.17319107	0.047764473	0.00041464987	1.9879627	1.9766078	1.9887383	1.976188	1.990553	0.030798654	1.9588304	1.0474111	-0.0030712346	-0.00010797337	-0.09773797	-0.1248113	-0.098599942	-0.12592176	-0.71148267	-0.0073258304	-0.059196653	0.41318706	-0.59544096	-0.40332879	0.60055588	0.36639685	0.012513701	0.82312053	0.68505941	0.013695052	0.00041785423	0.012012042	0.023269296	0.011253038	0.023685301	0.0094598829	0.030499159	0.040658408	0.013700563	3.5490289	4.5444405	4.3758525	4.2902046	4.3817311	4.2799951	4.0879032	4.2002653	4.4563125	3.5626611	3.802531	3.7915403	3.8005349	3.7876192	4.1207419	4.0808844	-180.91198	R0:S0:1	-94.16	uncorrelated	51514b8	0	sharp_wc_2.0_b_50	 4.92e+01	 1.00e+06	2022-04-11@05:49
2x2_2C_8b_C2v_L	6.0856237	0.1	14	1.77	0.63150373	-15.097388	-16.183922	-1.1425722	-16.182331	-1.1359734	4.4087478	-12.702141	13.56	0.00056716329	-0.00047252093	-0.037945512	0.072888493	-0.038188825	0.084276376	0.45022942	0.024593967	0.063832043	-0.9399013	1.3502334	0.09419532	-1.3626876	-0.082269037	-0.027576719	-1.3505801	1.13	0.62	0.188	-0.078788446	1.3208604	1.6709283	-0.25354173	-0.027977487	0.012475626	-0.17719052	0.048435662	0.00043588047	1.9879621	1.9766181	1.9885686	1.9762032	1.9903418	0.030955229	1.9587459	1.0480809	-0.002943113	-0.00014435619	-0.10034638	-0.12767259	-0.10117321	-0.12880099	-0.71342318	-0.007220324	-0.060029423	0.41302954	-0.59493851	-0.40592179	0.59998881	0.37011228	0.012641257	0.82412551	0.6832564	0.013965439	0.00043940685	0.012012711	0.023259698	0.011422229	0.023670798	0.0096710935	0.030652543	0.040740729	0.013971274	3.5463344	4.5473241	4.3799121	4.2959581	4.3857301	4.2861005	4.0892723	4.199461	4.4593754	3.5599588	3.7981958	3.7868075	3.7962111	3.7828476	4.1204502	4.0823027	-180.9939	R0:S0:1	-94.32	uncorrelated	51514b8	0	sharp_wc_2.0_b_50	 5.17e+01	 1.00e+06	2022-04-11@05:52
2x2_2C_8b_C2v_L	6.0855741	0.1	14	1.77	0.63182058	-15.097378	-16.183828	-1.1429952	-16.182252	-1.1363867	4.408805	-12.702199	13.58	0.00058010787	-0.00041432435	-0.038213237	0.073460522	-0.038512213	0.084650793	0.44904187	0.025579828	0.064265031	-0.93876856	1.3505583	0.094152141	-1.362458	-0.082404037	-0.026872301	-1.3489813	1.13	0.62	0.188	-0.080517589	1.3208666	1.6711757	-0.25341284	-0.027976714	0.012471583	-0.18108284	0.049143552	0.00045975397	1.9879689	1.9766016	1.9882905	1.9761957	1.9900462	0.031043668	1.9587015	1.0487882	-0.0026433472	0.0003290477	-0.10282523	-0.1309046	-0.10370196	-0.13191369	-0.71458115	-0.0082270574	-0.060976762	0.41277361	-0.59469222	-0.41038241	0.59970948	0.37545126	0.011687502	0.82472242	0.68133921	0.014243629	0.00046364182	0.012006054	0.023276681	0.011698999	0.023678831	0.0099659739	0.030739194	0.040783982	0.014249851	3.5441333	4.5496868	4.3851804	4.303489	4.3898481	4.2927604	4.0906994	4.1984088	4.4619822	3.5577026	3.7928659	3.7811032	3.791896	3.7781284	4.1197027	4.0837578	-181.07673	R0:S0:1	-94.48	uncorrelated	51514b8	0	sharp_wc_2.0_b_50	 5.44e+01	 1.00e+06	2022-04-11@05:54
2x2_2C_8b_C2v_L	6.0854691	0.1	14	1.77	0.63227142	-15.09735	-16.183722	-1.1435847	-16.182157	-1.1369646	4.408781	-12.702181	13.6	0.00060299418	-0.00032284459	-0.038754143	0.074633377	-0.038934153	0.085408615	0.4493793	0.024473171	0.064624536	-0.9376181	1.3503213	0.09370135	-1.3617906	-0.08243962	-0.028022232	-1.3486266	1.13	0.62	0.188	-0.082385794	1.3208724	1.6714624	-0.25328541	-0.02798001	0.012469514	-0.18536799	0.049984062	0.00048747142	1.9879855	1.9765922	1.9880118	1.9762233	1.9897505	0.031355243	1.95858	1.0496254	-0.003411758	-0.00049521167	-0.10557278	-0.13477676	-0.1062854	-0.13550429	-0.71835099	-0.0067514576	-0.062035831	0.41222891	-0.59445992	-0.41471724	0.59881117	0.3804497	0.013187808	0.82617814	0.67923082	0.014568136	0.00049177377	0.011989683	0.023286585	0.011977043	0.023652363	0.010261255	0.031044258	0.040902142	0.014574688	3.5398996	4.5540183	4.3890084	4.309676	4.3958432	4.301564	4.0926102	4.1971027	4.4666858	3.5534527	3.78882	3.7766218	3.7855426	3.7712825	4.1198006	4.0858021	-181.16145	R0:S0:1	-94.64	uncorrelated	51514b8	0	sharp_wc_2.0_b_50	 5.74e+01	 1.00e+06	2022-04-11@05:57
2x2_2C_8b_C2v_L	6.085346	0.1	14	1.77	0.63292325	-15.09729	-16.183581	-1.1444196	-16.182028	-1.1377964	4.4088176	-12.702231	13.62	0.00062617976	-0.00021730242	-0.039558265	0.076604964	-0.039483278	0.086605242	0.44832554	0.025522098	0.064834829	-0.93658956	1.3496731	0.092979928	-1.3606407	-0.082366462	-0.027400099	-1.3465902	1.13	0.62	0.188	-0.084366629	1.3208784	1.6717362	-0.25315447	-0.027981525	0.012465958	-0.18998384	0.050806798	0.0005148972	1.9879909	1.9766214	1.9877663	1.9762511	1.9894031	0.031468955	1.9585581	1.0504461	-0.0031009737	3.2880575e-05	-0.10826068	-0.13923319	-0.10916891	-0.13974953	-0.71981884	-0.0078619269	-0.062950883	0.4119713	-0.59353001	-0.41810669	0.59805012	0.38633435	0.012191813	0.82658275	0.67694446	0.014901035	0.00051961472	0.011984508	0.023258548	0.012223045	0.023625558	0.010608661	0.031155707	0.040923489	0.014908514	3.5372775	4.5568566	4.3950924	4.31817	4.4000231	4.3089645	4.0943466	4.1955983	4.4697948	3.5507725	3.7823485	3.7695488	3.7808271	3.7660506	4.1189566	4.0876056	-181.24424	R0:S0:1	-94.8	uncorrelated	51514b8	0	sharp_wc_2.0_b_50	 6.06e+01	 1.00e+06	2022-04-11@06:00
2x2_2C_8b_C2v_L	6.0852351	0.1	14	1.77	0.63380581	-15.097189	-16.183369	-1.1455435	-16.181834	-1.1389313	4.4087627	-12.702196	13.64	0.00059569578	-0.0001652754	-0.040643335	0.079074321	-0.040157936	0.087873874	0.44890996	0.025080603	0.064955525	-0.93577751	1.3492966	0.092302376	-1.3595793	-0.08243905	-0.028126783	-1.3457499	1.13	0.62	0.188	-0.086474038	1.320885	1.6720703	-0.25300843	-0.02798552	0.012463572	-0.19490401	0.051806503	0.00054602374	1.9880004	1.976635	1.9874386	1.9762963	1.9890206	0.031821811	1.9584614	1.0514415	-0.0033657694	-0.00041557689	-0.11119776	-0.14455726	-0.1121045	-0.14444352	-0.72406945	-0.0071063622	-0.06397894	0.41151517	-0.59285925	-0.42277412	0.59688893	0.39253839	0.013045321	0.82782102	0.67440636	0.015289196	0.00055119213	0.011975194	0.023245963	0.012551436	0.02358171	0.010990984	0.03150117	0.041017476	0.015297482	3.532524	4.5618032	4.4004376	4.3264385	4.4062473	4.318782	4.0965446	4.1938153	4.4750953	3.5460093	3.776626	3.7631792	3.7740234	3.7586842	4.1190858	4.0899943	-181.33037	R0:S0:1	-94.96	uncorrelated	51514b8	0	sharp_wc_2.0_b_50	 6.43e+01	 1.00e+06	2022-04-11@06:03
2x2_2C_8b_C2v_L	6.085211	0.1	14	1.77	0.63497296	-15.097036	-16.183039	-1.1470546	-16.181542	-1.1404693	4.4087413	-12.702215	13.66	0.00048528508	-0.00020738826	-0.041976769	0.081699063	-0.040908727	0.088901931	0.44845716	0.02589124	0.065171377	-0.93526976	1.3499025	0.091900104	-1.3589654	-0.082756949	-0.027936096	-1.3432984	1.13	0.62	0.188	-0.088621869	1.3208931	1.6724157	-0.25283739	-0.027985425	0.012458668	-0.19981308	0.052809638	0.00057963765	1.9879949	1.9766293	1.9870563	1.9763228	1.9885792	0.032027366	1.9584637	1.0524422	-0.0026370356	-6.1725271e-05	-0.11405348	-0.15024037	-0.1151335	-0.14931623	-0.72659286	-0.0078426168	-0.065085396	0.41140083	-0.59232427	-0.42817881	0.595994	0.39973489	0.012503847	0.82801424	0.6717338	0.015680677	0.00058529858	0.011980828	0.023252533	0.012934339	0.023556439	0.011431395	0.03170256	0.041015202	0.015690126	3.5292322	4.5654454	4.4072247	4.3363795	4.4121953	4.3285947	4.0984686	4.191852	4.4789771	3.5426549	3.7696389	3.7554988	3.7675547	3.7516867	4.1186696	4.0920841	-181.41679	R0:S0:1	-95.12	uncorrelated	51514b8	0	sharp_wc_2.0_b_50	 6.82e+01	 1.00e+06	2022-04-11@06:05
2x2_2C_8b_C2v_L	6.0852043	0.1	14	1.77	0.63644782	-15.096829	-16.182602	-1.1490208	-16.181156	-1.1424614	4.40861	-12.702138	13.68	0.00032074643	-0.00029976109	-0.043458538	0.084475768	-0.04161285	0.089759236	0.44985644	0.025671607	0.065763989	-0.93494793	1.3511038	0.091282108	-1.3585178	-0.083128421	-0.028714331	-1.3420738	1.13	0.62	0.188	-0.090896464	1.3209019	1.6728272	-0.25264968	-0.027988114	0.012455082	-0.20498478	0.053981171	0.0006256636	1.9879954	1.9765997	1.986673	1.9763574	1.9881315	0.032507434	1.9583876	1.0536089	-0.0022722271	-0.00042452754	-0.11718348	-0.15625207	-0.11827277	-0.1543217	-0.7322755	-0.0072245147	-0.066775707	0.41104374	-0.59212626	-0.43342777	0.59486725	0.40675583	0.01331909	0.82908155	0.6688574	0.016125636	0.00063202622	0.011980523	0.023282904	0.013318601	0.0235232	0.011877571	0.03217243	0.041088983	0.016136061	3.5236565	4.5713992	4.4136863	4.345863	4.4196237	4.3399772	4.1008647	4.1895598	4.4853301	3.5370017	3.7630944	3.7482052	3.7596035	3.7432085	4.1194315	4.0948	-181.50726	R0:S0:1	-95.28	uncorrelated	51514b8	0	sharp_wc_2.0_b_50	 7.27e+01	 1.00e+06	2022-04-11@06:08
2x2_2C_8b_C2v_L	6.0851287	0.1	14	1.77	0.63885206	-15.096469	-16.181918	-1.1526268	-16.180542	-1.1459112	4.4084121	-12.702074	13.7	0.0003383854	-8.7004084e-05	-0.04183897	0.085746976	-0.040841703	0.089580823	0.45102524	0.026737986	0.067769198	-0.93500708	1.3528871	0.087903887	-1.357686	-0.082523071	-0.028861112	-1.3386041	1.13	0.62	0.188	-0.093346432	1.3209105	1.6732089	-0.25246729	-0.027989215	0.012450263	-0.21082153	0.054999706	0.00070008458	1.9879789	1.9765357	1.9870628	1.9763743	1.9879542	0.032958509	1.9584525	1.0546257	-0.0020373341	-9.5119815e-05	-0.12164698	-0.15833798	-0.12236239	-0.15749363	-0.73752771	-0.0080708811	-0.06982406	0.41106311	-0.59231256	-0.42594645	0.59417595	0.40946542	0.012899473	0.82865787	0.66604566	0.016563148	0.00070782458	0.011997138	0.023347278	0.01293219	0.023507339	0.012052765	0.032614124	0.041025593	0.016574604	3.5197695	4.5760456	4.4211397	4.3508146	4.4245624	4.3470027	4.1026409	4.1870168	4.4904471	3.5327938	3.7559377	3.7400209	3.7540888	3.7371079	4.1208098	4.0970237	-181.59969	R0:S0:1	-95.44	uncorrelated	51514b8	1	sharp_wc_2.0_b_50	 7.77e+01	 6.18e-04	2022-04-11@06:13
2x2_2C_8b_C2v_L	6.0850525	0.1	14	1.77	0.64275971	-15.095914	-16.180862	-1.1579645	-16.179571	-1.1510774	4.4080608	-12.701919	13.72	-8.4132266e-05	-0.00035431827	-0.040875947	0.089067265	-0.040767017	0.090343034	0.45382297	0.027634157	0.068144659	-0.93514823	1.3550453	0.083923555	-1.3566348	-0.082217317	-0.029674609	-1.3344078	1.13	0.62	0.188	-0.095967217	1.3209197	1.6736443	-0.25227009	-0.027991917	0.012445879	-0.21714217	0.056208013	0.00074985497	1.9879653	1.9764707	1.9874535	1.9764089	1.9876396	0.033657781	1.9585607	1.0558304	0.0002196174	0.00034511381	-0.12626443	-0.16188668	-0.12656166	-0.16217808	-0.74553935	-0.0087876879	-0.071434246	0.41095182	-0.59240956	-0.41783562	0.59318801	0.41425012	0.012829841	0.82784339	0.66285097	0.017068138	0.00075838393	0.012010962	0.023412791	0.012547846	0.023474018	0.01236566	0.033298567	0.040919927	0.017080988	3.5143282	4.5820529	4.4296607	4.3569465	4.4301121	4.3557509	4.1045289	4.1837251	4.4967873	3.5272617	3.7477327	3.7304502	3.7477753	3.7301133	4.1236942	4.099615	-181.69791	R0:S0:1	-95.6	uncorrelated	51514b8	1	sharp_wc_2.0_b_50	 8.33e+01	 9.57e-04	2022-04-11@06:19
2x2_2C_8b_C2v_L	6.084968	0.1	14	1.77	0.64820682	-15.095156	-16.179425	-1.1651126	-16.178235	-1.1580302	4.4075759	-12.701696	13.74	-0.00092878093	-0.0010751395	-0.040393639	0.094373072	-0.041276845	0.092012348	0.45775756	0.028717785	0.067095296	-0.93534957	1.3575495	0.079137138	-1.355267	-0.082105534	-0.030890761	-1.3288834	1.13	0.62	0.188	-0.098764761	1.3209295	1.6741237	-0.25205991	-0.027995726	0.012441544	-0.22397882	0.057582496	0.00077541608	1.9879521	1.9764079	1.9878843	1.9764613	1.9871973	0.034541813	1.9587492	1.0571999	0.0046635646	0.0011392692	-0.1310775	-0.16663347	-0.13094429	-0.16832714	-0.75551846	-0.0098196528	-0.071728934	0.41078507	-0.59235359	-0.40834062	0.59192992	0.42089493	0.012679949	0.82624249	0.65924981	0.017637508	0.00078406122	0.01202438	0.02347646	0.012126713	0.023423269	0.012806589	0.034163527	0.040735968	0.017652308	3.5079044	4.5888622	4.439539	4.3643107	4.4359495	4.3658345	4.1064302	4.1796256	4.5037549	3.5209752	3.7381858	3.7191765	3.7409547	3.7224926	4.1278267	4.1024612	-181.80126	R0:S0:1	-95.76	uncorrelated	51514b8	0	sharp_wc_2.0_b_50	 8.95e+01	 1.00e+06	2022-04-11@06:21
2x2_2C_8b_C2v_L	6.0849644	0.1	14	1.77	0.65545621	-15.094265	-16.177332	-1.1745625	-16.176312	-1.1672886	4.4069865	-12.701382	13.76	-0.0001018988	0.00063850048	-0.041412005	0.099681263	-0.04289422	0.093348467	0.46295611	0.030284575	0.070479451	-0.93120509	1.3641045	0.075713917	-1.3560969	-0.083587598	-0.032213692	-1.3223026	1.13	0.62	0.188	-0.10163574	1.32094	1.6747153	-0.25181666	-0.028007297	0.0124396	-0.2302389	0.05917927	0.00091141459	1.9880597	1.9762063	1.9879828	1.9764808	1.986474	0.035700969	1.9589754	1.0587855	0.00019957578	-6.9279095e-05	-0.13574994	-0.17277741	-0.13460007	-0.17555439	-0.76849313	-0.0093053307	-0.077030373	0.40840442	-0.59409489	-0.40435577	0.59077648	0.43166239	0.014166118	0.8244504	0.65543148	0.018248182	0.00092258252	0.011917567	0.023677523	0.012036107	0.023405469	0.013525625	0.035296017	0.040514623	0.018265687	3.4997678	4.5973139	4.4494092	4.3729515	4.4457921	4.3813964	4.109763	4.1732431	4.5140759	3.5120012	3.7295376	3.7089628	3.7305732	3.711628	4.1320833	4.1070258	-181.91428	R0:S0:1	-95.92	uncorrelated	51514b8	0	sharp_wc_2.0_b_50	 9.80e+01	 1.00e+06	2022-04-11@06:24
2x2_2C_8b_C2v_L	6.08497	0.1	14	1.77	0.66524876	-15.092781	-16.174815	-1.1876299	-16.173824	-1.1799292	4.4067278	-12.700955	13.78	-0.0006570885	0.00042427643	-0.03875322	0.1026046	-0.042873077	0.09464429	0.46754573	0.032035778	0.072120626	-0.93386435	1.3651122	0.070966938	-1.3543847	-0.083244469	-0.033120096	-1.3166341	1.13	0.62	0.188	-0.10480734	1.3209525	1.6753091	-0.25155159	-0.028009781	0.012433817	-0.23810835	0.060834517	0.0010157537	1.9879886	1.976189	1.9885796	1.9765495	1.9861482	0.036722348	1.9591714	1.0604364	0.0035844811	0.00076254057	-0.14178793	-0.17530021	-0.13978865	-0.18153102	-0.77969708	-0.010787835	-0.080550466	0.40914575	-0.59330611	-0.39205816	0.5891956	0.4361577	0.013626139	0.82279939	0.65112973	0.018938636	0.0010287214	0.011988743	0.023696315	0.011444627	0.023338764	0.013848753	0.036293975	0.040323337	0.018958333	3.4926162	4.6059372	4.4606814	4.3811142	4.4527844	4.3919996	4.1119369	4.1686953	4.5230058	3.504496	3.7181504	3.6959443	3.7223899	3.702552	4.1369087	4.1103082	-182.03526	R0:S0:1	-96.08	uncorrelated	51514b8	1	sharp_wc_2.0_b_50	 1.07e+02	 9.64e-04	2022-04-11@06:29
2x2_2C_8b_C2v_L	6.0850761	0.1	14	1.77	0.67821984	-15.090979	-16.17147	-1.2041256	-16.170481	-1.1960987	4.4071116	-12.700413	13.8	-0.00079293293	0.00044927707	-0.039403681	0.1057275	-0.044096995	0.096184092	0.46993985	0.033227935	0.072788859	-0.93276029	1.3661031	0.070669514	-1.3537615	-0.084434448	-0.033729541	-1.3128709	1.13	0.62	0.188	-0.10802381	1.3209662	1.6760007	-0.25125254	-0.028016715	0.012429105	-0.24558751	0.062774072	0.0011001122	1.9880181	1.9762049	1.9882024	1.9766219	1.9854969	0.037444672	1.9592232	1.0623703	0.0044580462	0.00099343064	-0.14665475	-0.18279378	-0.14435656	-0.1895269	-0.78783041	-0.011425334	-0.083215988	0.40808487	-0.59200268	-0.39701172	0.58722897	0.44529173	0.013575217	0.8228124	0.64628093	0.019687892	0.0011141	0.011959691	0.023682417	0.011822501	0.023268817	0.014494404	0.03699888	0.040272387	0.019709398	3.4838903	4.615235	4.4726558	4.3967102	4.4638457	4.4086254	4.1163052	4.1632771	4.533173	3.4954579	3.7056287	3.6822744	3.7102579	3.6897761	4.1374387	4.1153848	-182.1668	R0:S0:1	-96.24	uncorrelated	51514b8	1	sharp_wc_2.0_b_50	 1.17e+02	 1.19e-03	2022-04-11@06:35
2x2_2C_8b_C2v_L	6.0852962	0.1	14	1.77	0.6947668	-15.088567	-16.167296	-1.2252175	-16.166172	-1.2167667	4.4084489	-12.699734	13.82	-0.00060820139	0.00052866118	-0.040915785	0.10525569	-0.044991484	0.0974612	0.46884381	0.033093231	0.075292499	-0.93375971	1.362912	0.073928721	-1.352386	-0.085701424	-0.03413649	-1.3125559	1.13	0.62	0.188	-0.11137407	1.320982	1.676755	-0.25091273	-0.02802058	0.012422485	-0.25335823	0.064867494	0.0012439921	1.9879921	1.9763753	1.9873277	1.9767339	1.9849275	0.037607701	1.9590594	1.0644613	0.0032160482	0.00058762815	-0.15106832	-0.19089337	-0.14900476	-0.19737704	-0.79010359	-0.01085057	-0.088052831	0.40799192	-0.58869613	-0.41137318	0.58456035	0.45284167	0.014234423	0.82506835	0.64095582	0.020490765	0.0012603436	0.011985947	0.02351558	0.012687319	0.023159839	0.015056872	0.037157674	0.040431932	0.020513528	3.4760688	4.6245621	4.4843776	4.4162217	4.4771403	4.4270416	4.1218948	4.1590552	4.5433665	3.4869015	3.6920355	3.6683627	3.6956894	3.6746405	4.1331427	4.1209687	-182.31037	R0:S0:1	-96.4	uncorrelated	51514b8	1	sharp_wc_2.0_b_50	 1.30e+02	 1.03e-03	2022-04-11@06:40
2x2_2C_8b_C2v_L	6.0856164	0.1	14	1.77	0.71552444	-15.085598	-16.162132	-1.2511001	-16.160741	-1.242287	4.4108223	-12.698898	13.84	-0.00057333141	-1.9891583e-05	-0.045223279	0.10279063	-0.046425365	0.098920675	0.46391989	0.032285275	0.076613772	-0.9332014	1.3558254	0.08269358	-1.3507286	-0.087691602	-0.033588681	-1.3159805	1.13	0.62	0.188	-0.11478016	1.3209993	1.6775881	-0.25053996	-0.028025769	0.012415832	-0.26100336	0.067214123	0.0013543735	1.9880072	1.9767171	1.985361	1.9768805	1.9842377	0.037153888	1.9586395	1.0668077	0.0028165269	0.00056852184	-0.15401601	-0.20338597	-0.15334364	-0.2064031	-0.78607172	-0.010427473	-0.091641368	0.40717119	-0.5830771	-0.44327422	0.58118348	0.46172768	0.014112357	0.83007923	0.63503289	0.021351082	0.0013719071	0.011971373	0.023179191	0.014630037	0.023016924	0.015737488	0.0367142	0.040841067	0.021374064	3.4674862	4.6341063	4.4967922	4.4442304	4.4935292	4.4492766	4.1297761	4.1552477	4.5537728	3.4777935	3.6763149	3.6536055	3.6778863	3.6564723	4.1224663	4.1279996	-182.46638	R0:S0:1	-96.56	uncorrelated	51514b8	1	sharp_wc_2.0_b_50	 1.45e+02	 8.17e-04	2022-04-11@06:45
2x2_2C_8b_C2v_L	6.0860954	0.1	14	1.77	0.74049276	-15.082072	-16.155978	-1.2817735	-16.154187	-1.2726597	4.4142317	-12.697904	13.86	-0.00068832301	-0.0011963812	-0.052326164	0.098332329	-0.048398639	0.10056252	0.4551681	0.030804066	0.076752679	-0.93108537	1.3448432	0.09696409	-1.3487892	-0.090404981	-0.032086115	-1.3231447	1.13	0.62	0.188	-0.11816317	1.3210185	1.6785052	-0.2501253	-0.028030846	0.012408601	-0.26815191	0.069784771	0.001417503	1.9880627	1.9772214	1.9821299	1.9770652	1.9834526	0.036084894	1.9579595	1.0693801	0.0031879107	0.00084417552	-0.15524507	-0.22023136	-0.15705966	-0.21631358	-0.77559544	-0.010082873	-0.093775707	0.40563949	-0.57529193	-0.49173514	0.57702045	0.47142384	0.013294708	0.83784175	0.6286819	0.022243285	0.0014347667	0.011916426	0.02268171	0.017814997	0.022836584	0.016511265	0.035669557	0.041503474	0.022265479	3.4581454	4.6437393	4.5091669	4.4804527	4.5134859	4.4755377	4.1398311	4.1520182	4.5641532	3.4682452	3.6592339	3.6393941	3.6564409	3.634963	4.105491	4.1363194	-182.6354	R0:S0:1	-96.72	uncorrelated	51514b8	0	sharp_wc_2.0_b_50	 1.62e+02	 1.00e+06	2022-04-11@06:48
2x2_2C_8b_C2v_L	6.0864682	0.1	14	1.77	0.77340459	-15.076804	-16.146824	-1.3236394	-16.144793	-1.3131128	4.414469	-12.696426	13.88	0.00085594512	-0.00053268772	-0.051377956	0.10102661	-0.049744899	0.10346065	0.46544938	0.033426278	0.080532737	-0.9335502	1.3443116	0.096702394	-1.3482767	-0.091465091	-0.034727903	-1.3114469	1.13	0.62	0.188	-0.12233778	1.3210394	1.6795754	-0.24967308	-0.02803909	0.012402065	-0.27823428	0.072747635	0.0016327738	1.988016	1.9773	1.9820885	1.9771752	1.9830649	0.038109144	1.9585066	1.0723356	-0.0053025751	-0.0005736157	-0.16232871	-0.22821465	-0.16305277	-0.22557077	-0.79762478	-0.009173529	-0.10092566	0.40554019	-0.57279333	-0.49050728	0.57405906	0.4753064	0.016069659	0.83301686	0.62170882	0.023378558	0.0016530047	0.011963608	0.022606221	0.017852042	0.022730282	0.016892115	0.037645358	0.040969727	0.023404468	3.4450148	4.6592292	4.5253249	4.4978455	4.5302051	4.4959422	4.1439022	4.1416293	4.5807469	3.4540056	3.6418201	3.6209084	3.6383551	3.6160438	4.1150841	4.1429072	-182.83488	R0:S0:1	-96.88	uncorrelated	51514b8	1	sharp_wc_2.0_b_50	 1.87e+02	 1.96e-03	2022-04-11@06:53
2x2_2C_8b_C2v_L	6.0869448	0.1	14	1.77	0.81548631	-15.069673	-16.134121	-1.3773078	-16.131932	-1.3646677	4.4177437	-12.694453	13.9	-0.00073131787	0.00076517519	-0.052767845	0.10907372	-0.054083158	0.10792994	0.46677938	0.03307445	0.084061498	-0.93336078	1.3491015	0.093453652	-1.3469623	-0.096163461	-0.033937839	-1.3091808	1.13	0.62	0.188	-0.12685118	1.3210624	1.6808167	-0.24915995	-0.028054141	0.012396852	-0.28877816	0.075982674	0.0018512832	1.9880416	1.9772683	1.9825155	1.9773335	1.9816365	0.038689907	1.9584007	1.0755553	0.0032195067	5.240264e-05	-0.16924938	-0.23769749	-0.16878476	-0.24143409	-0.80469349	-0.010256916	-0.10802375	0.40410997	-0.57114941	-0.48070907	0.57045609	0.49351627	0.014476015	0.83515221	0.61375581	0.024614555	0.0018738513	0.011938778	0.022641359	0.01743358	0.022576433	0.018301857	0.038211174	0.041072181	0.024645602	3.4302799	4.6759165	4.5486287	4.5186824	4.5464294	4.5223741	4.1534041	4.1326235	4.5989888	3.4380146	3.6185965	3.5954115	3.6199454	3.5975036	4.1097172	4.1528442	-183.0647	R0:S0:1	-97.04	uncorrelated	51514b8	1	sharp_wc_2.0_b_50	 2.23e+02	 1.77e-03	2022-04-11@06:58
2x2_2C_8b_C2v_L	6.0875239	0.1	14	1.77	0.86696295	-15.060389	-16.117775	-1.4437814	-16.115495	-1.4286434	4.4236302	-12.691958	13.92	-0.003719829	0.0030011666	-0.050902017	0.11816814	-0.054685379	0.10812103	0.46079957	0.02952922	0.087923337	-0.93499249	1.3562395	0.08709875	-1.3430397	-0.099901322	-0.030731671	-1.3134324	1.13	0.62	0.188	-0.13156487	1.3210879	1.6820866	-0.24860577	-0.028062782	0.012388234	-0.30023313	0.07899503	0.0020866673	1.9880099	1.9770988	1.9837321	1.9775453	1.981173	0.038016017	1.9578744	1.0785575	0.017449756	0.00015979765	-0.17828077	-0.24302475	-0.17594306	-0.25023079	-0.79874382	-0.010213864	-0.11502416	0.40377712	-0.57141337	-0.45967231	0.56608394	0.49894539	0.01197905	0.8415622	0.60557844	0.025861408	0.0021113589	0.011971082	0.022812793	0.016234302	0.022369445	0.018748212	0.037553409	0.041585025	0.025896752	3.417843	4.6908697	4.5703264	4.5328074	4.563563	4.5438164	4.1649325	4.126774	4.6151075	3.4243109	3.597766	3.5711687	3.6002724	3.5777986	4.094311	4.1631347	-183.32394	R0:S0:1	-97.2	uncorrelated	51514b8	1	sharp_wc_2.0_b_50	 2.67e+02	 1.36e-03	2022-04-11@07:03
2x2_2C_8b_C2v_L	6.0884297	0.1	14	1.77	0.92816592	-15.048573	-16.097146	-1.5242592	-16.094202	-1.5059549	4.4278046	-12.688823	13.94	0.00027510005	-0.00039562592	-0.056887661	0.11974985	-0.059171817	0.11178843	0.46928439	0.026666289	0.09182972	-0.93525401	1.3500473	0.096989497	-1.3395875	-0.10627115	-0.027242067	-1.3036333	1.13	0.62	0.188	-0.13620939	1.3211171	1.683639	-0.24796453	-0.028076947	0.012382182	-0.3106591	0.083228556	0.0022806883	1.988034	1.9774825	1.9819302	1.97783	1.9800477	0.039799765	1.958242	1.0827839	-0.0010144078	0.00066881194	-0.18259812	-0.26018997	-0.18074662	-0.26508678	-0.81843863	-0.0083767777	-0.12261706	0.40209149	-0.56431033	-0.48399291	0.56011458	0.51174455	0.011395578	0.83907185	0.59630026	0.027337115	0.002306192	0.011947863	0.022436352	0.018003867	0.022091166	0.019851305	0.039290748	0.041225674	0.027375882	3.3984417	4.7122499	4.5933567	4.568457	4.5886282	4.5766124	4.1738952	4.1129352	4.6375289	3.4038302	3.5711884	3.546088	3.5727029	3.5509533	4.0973572	4.1743406	-183.61125	R0:S0:1	-97.36	uncorrelated	51514b8	1	sharp_wc_2.0_b_50	 3.24e+02	 2.17e-03	2022-04-11@07:08
2x2_2C_8b_C2v_L	6.0896077	0.1	14	1.77	0.99900027	-15.034064	-16.072229	-1.6194337	-16.068002	-1.5972584	4.4310216	-12.685084	13.96	0.0085932585	-0.0077336591	-0.06374538	0.11144496	-0.061975339	0.11487864	0.48815887	0.023801959	0.095876171	-0.93633744	1.3300778	0.11880459	-1.3360141	-0.11155785	-0.02308246	-1.2825071	1.13	0.62	0.188	-0.14066857	1.3211496	1.6852897	-0.24726794	-0.028084334	0.012374162	-0.32052283	0.087927226	0.0025718564	1.9880415	1.9783127	1.9785833	1.9781095	1.9797033	0.043444891	1.9593613	1.0874872	-0.037342386	0.0014624256	-0.18445025	-0.27908951	-0.18527955	-0.27552844	-0.85607892	-0.0053665272	-0.13019079	0.40054915	-0.55156257	-0.52981834	0.55396452	0.51404768	0.011921552	0.82867077	0.58697311	0.028889695	0.0025980682	0.011941301	0.021616102	0.021279419	0.021818054	0.020182375	0.042835673	0.040133297	0.028929035	3.3769889	4.7358428	4.6133289	4.6109759	4.6172044	4.6077569	4.1780866	4.0952971	4.6626139	3.3813131	3.5439787	3.5250302	3.5421584	3.5209331	4.1173636	4.1837345	-183.92642	R0:S0:1	-97.52	uncorrelated	51514b8	1	sharp_wc_2.0_b_50	 3.80e+02	 1.39e-03	2022-04-11@07:13
2x2_2C_8b_C2v_L	6.0909864	0.1	14	1.77	1.0790275	-15.016564	-16.041918	-1.730613	-16.036211	-1.7023725	4.4409448	-12.680691	13.98	0.002834216	-0.0023252064	-0.069314498	0.10689265	-0.066124429	0.12137771	0.48454734	0.015862047	0.10176563	-0.93913945	1.3135471	0.13616398	-1.3348269	-0.11622878	-0.015915331	-1.2848922	1.13	0.62	0.188	-0.14565841	1.3211864	1.6871254	-0.24647122	-0.02809223	0.012363869	-0.33172096	0.092474418	0.0027632609	1.9879935	1.9790355	1.9763929	1.9783228	1.9792485	0.043119099	1.9589134	1.0920297	-0.013188661	-0.00078535658	-0.18752236	-0.29489546	-0.19105048	-0.28942828	-0.85447309	-0.0029768028	-0.13976151	0.40008305	-0.53970614	-0.55643465	0.54852904	0.51681353	0.0086910029	0.83477493	0.57649865	0.03048723	0.0027904225	0.011990186	0.020902526	0.023420863	0.021611192	0.020624693	0.042517535	0.040569412	0.030529742	3.3583383	4.7576045	4.6386395	4.6505099	4.6470603	4.6403032	4.1929771	4.0848446	4.6845207	3.3612814	3.5126422	3.4988038	3.5104576	3.4891752	4.1008606	4.1979054	-184.27606	R0:S0:1	-97.68	uncorrelated	51514b8	1	sharp_wc_2.0_b_50	 4.35e+02	 2.67e-03	2022-04-11@07:17
2x2_2C_8b_C2v_L	6.0925559	0.1	14	1.77	1.1668997	-14.996098	-16.005209	-1.8577687	-15.998392	-1.8206295	4.4533474	-12.675623	14	-0.00012373685	0.00084661358	-0.075844594	0.11880975	-0.071001638	0.12825688	0.47850216	0.00493311	0.1065263	-0.93948517	1.3160628	0.13996966	-1.3331631	-0.12244294	-0.0046620332	-1.2900173	1.13	0.62	0.188	-0.15158285	1.3212286	1.6894043	-0.24553716	-0.028113863	0.012357654	-0.3457428	0.097981742	0.0030295682	1.9880317	1.9792052	1.9760563	1.9786019	1.9784701	0.042388733	1.958217	1.0975161	-0.00073984459	-0.0013789649	-0.19477112	-0.31378469	-0.19865703	-0.30722872	-0.84934562	-0.00051211591	-0.14926779	0.39770381	-0.534332	-0.55564035	0.54180006	0.52288976	0.0029439365	0.84394375	0.56359277	0.032467585	0.0030568905	0.011953316	0.020740087	0.023747028	0.02133991	0.02138331	0.041805887	0.041247277	0.032518398	3.3322954	4.7864069	4.6741645	4.6868835	4.6812276	4.6789091	4.2137883	4.071233	4.7144503	3.3338212	3.4754839	3.4608612	3.4735077	3.4526565	4.075917	4.2172226	-184.65921	R0:S0:1	-97.84	uncorrelated	51514b8	1	sharp_wc_2.0_b_50	 4.53e+02	 1.90e-03	2022-04-11@07:22
2x2_2C_8b_C2v_L	6.0944971	0.1	14	1.77	1.2620417	-14.972477	-15.962218	-2.0012526	-15.954486	-1.9518048	4.4676385	-12.669855	14.02	-0.00065030834	0.00081214292	-0.07774148	0.14152242	-0.076875051	0.13568449	0.47291783	-0.0098107249	0.11252167	-0.94121924	1.335479	0.12872447	-1.3303268	-0.1301836	0.0099592497	-1.2950711	1.13	0.62	0.188	-0.15833169	1.3212783	1.6922016	-0.24442762	-0.028145036	0.012354565	-0.36230852	0.10458041	0.0034360375	1.9880628	1.9788391	1.9779919	1.9789702	1.9774063	0.041765444	1.9574632	1.1040795	0.0027340936	-5.5803553e-05	-0.20799467	-0.32825063	-0.20766835	-0.32870117	-0.84560315	0.0026109967	-0.1620875	0.39493038	-0.53514976	-0.52376141	0.53351466	0.53176043	-0.0044890007	0.85413265	0.54829559	0.034852041	0.0034646173	0.011924062	0.021111804	0.021846461	0.02098106	0.022420347	0.041198692	0.041980612	0.03491688	3.2991099	4.823705	4.7203088	4.719785	4.7191882	4.7226962	4.2392052	4.0536759	4.7534071	3.2983971	3.4317972	3.4104682	3.4316758	3.4118239	4.0472096	4.2410905	-185.07544	R0:S0:1	-98	uncorrelated	51514b8	1	sharp_wc_2.0_b_50	 4.16e+02	 1.00e-03	2022-04-11@07:27
2x2_2C_8b_C2v_L	6.0970158	0.1	14	1.77	1.3627543	-14.945625	-15.913274	-2.1606554	-15.904438	-2.0949849	4.4815244	-12.663199	14.04	0.00087076535	-0.00053880214	-0.074114383	0.16727564	-0.083413155	0.14214239	0.47793617	-0.029327944	0.11913582	-0.9435633	1.358695	0.11135866	-1.3252718	-0.14048307	0.029830542	-1.2905246	1.13	0.62	0.188	-0.16546567	1.3213367	1.6955644	-0.243124	-0.028183104	0.012355317	-0.3798583	0.11264879	0.0039297621	1.988116	1.9783266	1.9803841	1.9794686	1.9761197	0.043075976	1.9573043	1.1121049	-0.00032158871	0.0022032632	-0.22484566	-0.34016538	-0.21666176	-0.35242226	-0.86150611	0.0067568185	-0.17742508	0.39112286	-0.53706373	-0.48295523	0.52294355	0.54245072	-0.014250606	0.85859989	0.53105435	0.037623767	0.00395966	0.011873154	0.021630206	0.01950139	0.020493554	0.02367298	0.042472978	0.042133765	0.037706501	3.2559589	4.8716609	4.7739264	4.7583999	4.7637054	4.7735211	4.2648791	4.0282315	4.8032584	3.2525365	3.3814572	3.3519631	3.3823296	3.3648571	4.0309115	4.2681852	-185.51884	R0:S0:1	-98.16	uncorrelated	51514b8	1	sharp_wc_2.0_b_50	 3.53e+02	 1.58e-03	2022-04-11@07:31
2x2_2C_8b_C2v_L	6.0999054	0.1	14	1.77	1.468455	-14.915692	-15.858954	-2.3366622	-15.848272	-2.2497656	4.4952114	-12.655704	14.06	0.0031067777	-0.0026463441	-0.060158066	0.18450279	-0.090588028	0.14745211	0.49183583	-0.054013623	0.1245214	-0.94417077	1.373843	0.090876953	-1.3174848	-0.15339282	0.052635005	-1.2777413	1.13	0.62	0.188	-0.17251829	1.3213997	1.6992284	-0.24172464	-0.028223615	0.012359794	-0.39757497	0.12163656	0.0043453156	1.9882362	1.9779468	1.9836111	1.9800706	1.9747434	0.046092783	1.9576828	1.1210585	-0.0044130674	0.005251824	-0.2445962	-0.33813387	-0.22492939	-0.3766579	-0.89399576	0.011945597	-0.19142123	0.38576857	-0.53669069	-0.42973644	0.51081301	0.55397397	-0.025502075	0.8576918	0.51302671	0.040601905	0.0043745585	0.011755606	0.022016035	0.01632335	0.019903128	0.025011854	0.045403983	0.041763326	0.04070063	3.2050119	4.9262358	4.8319619	4.8005798	4.810339	4.8260388	4.2890892	3.9969304	4.8593758	3.1996501	3.3253938	3.2872658	3.3301073	3.3163298	4.0271644	4.2968848	-185.98338	R0:S0:1	-98.32	uncorrelated	51514b8	1	sharp_wc_2.0_b_50	 3.02e+02	 1.72e-03	2022-04-11@07:36
2x2_2C_8b_C2v_L	6.1037921	0.1	14	1.77	1.5672342	-14.882367	-15.799276	-2.5222049	-15.784961	-2.4084551	4.5111169	-12.647178	14.08	-0.0010122624	0.00084717507	-0.088496406	0.17465472	-0.098066523	0.15158959	0.49946504	-0.062132926	0.13130275	-0.94568785	1.3392005	0.1406496	-1.3069669	-0.1683537	0.059666489	-1.2703897	1.13	0.62	0.188	-0.17826763	1.3214714	1.7030088	-0.24017212	-0.028240061	0.012356707	-0.41002901	0.13133526	0.0048597121	1.9883246	1.9797712	1.9781062	1.9808212	1.9735356	0.047918771	1.957698	1.1307584	0.0078953609	0.0033870904	-0.23588034	-0.38177931	-0.22800241	-0.39933581	-0.91470286	0.013998528	-0.2076975	0.38110397	-0.50871541	-0.50279562	0.49561946	0.56116862	-0.028566528	0.86058408	0.49601156	0.04328248	0.0048892057	0.011669626	0.020211481	0.021711303	0.019164326	0.02618675	0.047172842	0.041746091	0.04338474	3.1576469	4.9782908	4.8830332	4.8780285	4.8722109	4.890421	4.3151086	3.9679318	4.912797	3.1493296	3.2616913	3.2401648	3.2633825	3.2559299	4.0134897	4.3256956	-186.4272	R0:S0:1	-98.48	uncorrelated	51514b8	1	sharp_wc_2.0_b_50	 2.67e+02	 2.97e-03	2022-04-11@07:41
2x2_2C_8b_C2v_L	6.1078296	0.1	14	1.77	1.6574947	-14.845672	-15.734988	-2.7226504	-15.71444	-2.5703207	4.5294735	-12.637759	14.1	-0.0074014736	0.0070137972	-0.10642185	0.13342001	-0.10392497	0.15357538	0.49736969	-0.051201822	0.13587046	-0.94679024	1.2571666	0.2186097	-1.2951477	-0.18239441	0.049370661	-1.2698286	1.13	0.62	0.188	-0.18261706	1.3215413	1.7061619	-0.23871534	-0.028217033	0.012338501	-0.41891444	0.13897813	0.0051447522	1.9883526	1.9826608	1.9716019	1.9814611	1.9731911	0.047685665	1.9573362	1.1384485	0.023976519	-0.00084947095	-0.21888681	-0.40781069	-0.22847568	-0.41161643	-0.91520272	0.011474638	-0.21717982	0.37846843	-0.46674674	-0.58258079	0.4827881	0.56063545	-0.023563973	0.86667364	0.48306018	0.04526842	0.0051727545	0.011643376	0.017335226	0.028096375	0.018533144	0.026520896	0.046942361	0.042096764	0.045357977	3.1250378	5.0137236	4.9205922	4.9468701	4.9240299	4.941073	4.3369956	3.9497102	4.9483362	3.1155666	3.2034618	3.2133291	3.2080812	3.2056629	3.9907214	4.3471114	-186.85571	R0:S0:1	-98.64	uncorrelated	51514b8	1	sharp_wc_2.0_b_50	 2.46e+02	 9.72e-03	2022-04-11@07:45
2x2_2C_8b_C2v_L	6.1121638	0.1	14	1.77	1.7360434	-14.805631	-15.664902	-2.9480622	-15.636486	-2.7331463	4.54688	-12.627284	14.12	-0.0090205084	0.0085178787	-0.076060189	0.081494908	-0.10990691	0.15788009	0.49926391	-0.023261054	0.14105444	-0.94762185	1.1863042	0.26835726	-1.2854598	-0.19549695	0.022426407	-1.2642769	1.13	0.62	0.188	-0.18786168	1.3216184	1.7098584	-0.23709749	-0.028206267	0.012327614	-0.43194406	0.14767579	0.0056118927	1.9884318	1.9844357	1.9723281	1.982026	1.9725989	0.048287948	1.957257	1.1471925	0.0292714	0.00014736867	-0.22416386	-0.38532477	-0.23284035	-0.42856222	-0.92441145	0.0016483516	-0.23099328	0.37425622	-0.43784517	-0.57675765	0.47108066	0.56279872	-0.014348364	0.87046491	0.46773293	0.047747451	0.0056397518	0.011566563	0.015563164	0.027469706	0.017977152	0.027096775	0.047517411	0.042171892	0.047825541	3.0823504	5.0608228	4.9739566	5.0020764	4.972448	4.9892192	4.3624717	3.9242667	4.9964603	3.070224	3.1360757	3.1621316	3.1553802	3.1573798	3.9700336	4.373908	-187.30184	R0:S0:1	-98.8	uncorrelated	51514b8	1	sharp_wc_2.0_b_50	 2.28e+02	 1.00e-02	2022-04-11@07:50
2x2_2C_8b_C2v_L	6.1192774	0.1	14	1.77	1.7774142	-14.762352	-15.585378	-3.2005799	-15.550929	-2.8823432	4.5558326	-12.616586	14.14	-0.0006526537	0.00030860218	-0.11881836	0.13307223	-0.11120964	0.16603561	0.51010361	0.011558037	0.1458102	-0.94874402	1.2130393	0.26950698	-1.2851863	-0.19815682	-0.010583734	-1.2512885	1.13	0.62	0.188	-0.19572869	1.3217384	1.71663	-0.23446704	-0.028256272	0.012349682	-0.45043752	0.1647101	0.0066922949	1.9887378	1.9848813	1.9704071	1.9827032	1.9729597	0.051271418	1.9573453	1.1641783	0.0022435577	0.00034712768	-0.22348907	-0.44844651	-0.2433208	-0.45317149	-0.95929121	-0.0042326703	-0.26064865	0.36262952	-0.42318683	-0.57966062	0.45323004	0.54529934	0.0030837559	0.87574034	0.44087022	0.051922263	0.0067206155	0.011265646	0.015135239	0.029291776	0.017314819	0.026735486	0.050394536	0.042080318	0.052025916	2.9858455	5.1666561	5.0766724	5.097414	5.079333	5.0875868	4.414545	3.8656484	5.105173	2.9662411	3.0324288	3.0628366	3.0445157	3.0509178	3.9381231	4.4316454	-187.78019	R0:S0:1	-98.96	uncorrelated	51514b8	2	sharp_wc_2.0_b_50	 2.07e+02	 2.72e-03	2022-04-11@07:56
2x2_2C_8b_C2v_L	6.1302456	0.1	14	1.77	1.7804463	-14.716045	-15.49967	-3.4893971	-15.457474	-3.0155749	4.5568768	-12.605788	14.16	0.013853404	-0.013582552	-0.13669039	0.22008885	-0.12268963	0.19048986	0.52634223	0.05154829	0.14826428	-0.94673321	1.3088215	0.21643118	-1.2959092	-0.19972291	-0.045997372	-1.2358983	1.13	0.62	0.188	-0.20531752	1.3219122	1.7266577	-0.23062072	-0.028334988	0.012401665	-0.47136623	0.19071674	0.0086521097	1.9893863	1.9836681	1.971963	1.9836353	1.9707707	0.056239396	1.9573111	1.1900592	-0.036924962	0.0041717657	-0.24945853	-0.51473703	-0.25296025	-0.51323105	-1.0150321	-0.010450997	-0.30627601	0.34127283	-0.42685029	-0.52967371	0.42801815	0.54353473	0.021855068	0.88538956	0.40511396	0.057235975	0.0086762471	0.010624554	0.01637575	0.027686464	0.016404436	0.028854181	0.055175934	0.042105825	0.057400057	2.8300925	5.3367121	5.2403974	5.2323113	5.2337245	5.2327228	4.4925797	3.7757884	5.2800344	2.7964411	2.8795848	2.8965002	2.8852288	2.9055757	3.8922186	4.5204609	-188.30477	R0:S0:1	-99.12	uncorrelated	51514b8	1	sharp_wc_2.0_b_50	 1.91e+02	 1.60e-02	2022-04-11@08:00
2x2_2C_8b_C2v_L	6.1445975	0.1	14	1.77	1.7380044	-14.666729	-15.413145	-3.8196047	-15.357343	-3.1309897	4.5562129	-12.595725	14.18	0.0061608433	-0.0068345667	-0.091902888	0.28406211	-0.12721454	0.20245926	0.51603872	0.063482359	0.148364	-0.94596563	1.3848411	0.13325345	-1.2986306	-0.20190306	-0.057527661	-1.2485468	1.13	0.62	0.188	-0.21339488	1.3221263	1.7372766	-0.22603388	-0.028299089	0.0124407	-0.4872449	0.21627244	0.010626686	1.9900066	1.9819402	1.9776442	1.9846891	1.9696578	0.055638933	1.9552658	1.2155358	-0.01312917	0.0050304363	-0.29701586	-0.52282928	-0.26179869	-0.55882552	-1.0206431	-0.015824584	-0.35361387	0.32046295	-0.43602913	-0.43347997	0.40105174	0.53182251	0.02237149	0.91643676	0.37435105	0.0613417	0.010641649	0.010011042	0.018129009	0.022132036	0.01536913	0.029923808	0.054592421	0.044086127	0.061552483	2.6762142	5.5066185	5.3982715	5.3679566	5.3916585	5.3760632	4.5860277	3.6991199	5.4503311	2.626426	2.7340582	2.7213314	2.7212851	2.7565376	3.7945956	4.6114175	-188.83978	R0:S0:1	-99.28	uncorrelated	51514b8	1	sharp_wc_2.0_b_50	 1.83e+02	 1.57e-02	2022-04-11@08:05
2x2_2C_8b_C2v_L	6.1611499	0.1	14	1.77	1.6439508	-14.614488	-15.327153	-4.1922224	-15.250787	-3.2247548	4.5433467	-12.586656	14.2	-0.0056247784	0.005935632	-0.011456915	0.31313421	-0.13385177	0.20419573	0.51790259	0.055756562	0.1477827	-0.94583982	1.4122616	0.028308805	-1.2866361	-0.21431851	-0.050436216	-1.2433152	1.13	0.62	0.188	-0.21927513	1.3223637	1.747338	-0.2210971	-0.028128434	0.012445611	-0.49679499	0.2394492	0.01324376	1.9905529	1.98052	1.9855908	1.9859589	1.9683816	0.057630335	1.9546665	1.238702	0.020187647	0.0028423765	-0.34976169	-0.46466622	-0.26191565	-0.59553086	-1.0483261	-0.016557931	-0.40616091	0.30192291	-0.44009778	-0.30559224	0.37273254	0.5259695	0.015749195	0.9309993	0.35176707	0.064105301	0.013244451	0.0094701441	0.019562239	0.014353961	0.014111078	0.031163567	0.056493542	0.04465983	0.064336302	2.5453273	5.6593477	5.535888	5.5049361	5.5315959	5.5003945	4.6573748	3.6259547	5.6020931	2.4727046	2.6038991	2.5502606	2.5743871	2.6296471	3.7356692	4.6878955	-189.371	R0:S0:1	-99.44	uncorrelated	51514b8	1	sharp_wc_2.0_b_50	 1.79e+02	 8.65e-03	2022-04-11@08:09
2x2_2C_8b_C2v_L	6.177779	0.1	14	1.77	1.4923004	-14.559712	-15.240079	-4.6058865	-15.138099	-3.2944775	4.5168034	-12.578955	14.22	-0.0066371883	0.0066771703	0.088236529	0.33679444	-0.13950351	0.19290795	0.53004615	0.024589397	0.14017748	-0.93891217	1.4070892	-0.10318101	-1.2570897	-0.23755445	-0.021229503	-1.2239216	1.13	0.62	0.188	-0.22370038	1.3225971	1.7566202	-0.21627933	-0.027913796	0.012420006	-0.50105716	0.26185428	0.015644466	1.9912017	1.9791816	1.9913975	1.9875075	1.967634	0.062281524	1.9552503	1.261117	0.028659857	0.0062940269	-0.40583976	-0.3851465	-0.2535292	-0.61886572	-1.098688	-0.012120068	-0.45160243	0.28216295	-0.44123177	-0.17684269	0.34074553	0.51810446	0.00078820007	0.9323149	0.33477419	0.06585471	0.015623547	0.0088250138	0.020897291	0.0086387889	0.012566577	0.031917284	0.060927494	0.044084957	0.066095609	2.4185887	5.804487	5.6564778	5.6466842	5.6704433	5.621744	4.7107515	3.551782	5.7442329	2.3239275	2.4856241	2.3974194	2.4275724	2.5072791	3.7110019	4.7561191	-189.91073	R0:S0:1	-99.6	uncorrelated	51514b8	2	sharp_wc_2.0_b_50	 1.76e+02	 5.79e-04	2022-04-11@08:16
2x2_2C_8b_C2v_L	6.1929199	0.1	14	1.77	1.2763349	-14.502178	-15.154093	-5.0657036	-15.019299	-3.3385343	4.4794779	-12.572759	14.24	0.00097677101	-0.00067951237	0.1744497	0.31962007	-0.14345193	0.1715243	0.53788775	-0.026161866	0.13073615	-0.93209439	1.3402472	-0.23936657	-1.2127324	-0.26929302	0.022108852	-1.2114307	1.13	0.62	0.188	-0.2264627	1.3228067	1.7643095	-0.21202006	-0.027673421	0.01236853	-0.50093121	0.28078802	0.018962563	1.9917231	1.979413	1.9955286	1.9890348	1.9674268	0.066306377	1.9555354	1.2801105	0.014490351	0.012137871	-0.44087849	-0.25709797	-0.23870639	-0.62601364	-1.1406843	-0.00166107	-0.50425418	0.26617025	-0.4252424	-0.043338316	0.31056084	0.51068302	-0.017104232	0.93499688	0.32417417	0.066635183	0.018915897	0.0083056519	0.020643988	0.0045178028	0.011036038	0.032188649	0.064753722	0.043802742	0.066860117	2.3281001	5.9228831	5.7602829	5.7822615	5.7863902	5.7234538	4.7503758	3.4943023	5.859075	2.2015407	2.3723754	2.2663719	2.3041514	2.408433	3.6949142	4.8096915	-190.45463	R0:S0:1	-99.76	uncorrelated	51514b8	1	sharp_wc_2.0_b_50	 1.74e+02	 4.77e-03	2022-04-11@08:21
2x2_2C_8b_C2v_L	6.2086558	0.1	14	1.77	0.98459044	-14.442088	-15.068407	-5.5708844	-14.894582	-3.3577436	4.4365009	-12.568711	14.26	-0.0057772728	0.00634828	0.24573035	0.27529803	-0.12932983	0.14200256	0.51742336	-0.066907327	0.11619969	-0.92187254	1.2158138	-0.39499154	-1.1686724	-0.29069535	0.059241409	-1.2363853	1.13	0.62	0.188	-0.22808905	1.3230203	1.7716392	-0.20771271	-0.027388041	0.012291572	-0.49668816	0.29859401	0.024487221	1.9922663	1.98119	1.9961112	1.9901895	1.9700165	0.063738412	1.9530341	1.2979957	0.040716135	0.011173937	-0.45286522	-0.097542316	-0.23186571	-0.60306096	-1.1252288	0.0023295628	-0.57603257	0.25038883	-0.39350358	0.093702576	0.28516078	0.4798174	-0.036236264	0.96693467	0.31701627	0.066434069	0.02439248	0.0077632307	0.018835605	0.0039359875	0.0098767682	0.02974875	0.062304689	0.046225217	0.066630234	2.2655803	6.0316199	5.8538454	5.9062407	5.9118224	5.8417361	4.811139	3.4600346	5.962816	2.087235	2.2600597	2.1684939	2.1725656	2.2848652	3.6153188	4.8607517	-191.01905	R0:S0:1	-99.92	uncorrelated	51514b8	1	sharp_wc_2.0_b_50	 1.71e+02	 6.50e-03	2022-04-11@08:26
2x2_2C_8b_C2v_L	6.2312251	0.1	14	1.77	0.4026595	-14.374625	-14.981788	-6.128217	-14.762898	-3.3293547	4.3499087	-12.573299	14.28	0.00015314042	0.0001935214	0.27167913	0.1917281	-0.14453254	0.17449427	0.52663273	-0.024874439	0.083202536	-0.89724201	1.0049846	-0.56705834	-1.2032558	-0.26832543	0.020897785	-1.2138934	1.13	0.62	0.188	-0.22713657	1.3233138	1.7814392	-0.20181204	-0.026962637	0.012168449	-0.47353847	0.32350518	0.048102135	1.9931715	1.9861546	1.9922255	1.9903853	1.9682207	0.069652138	1.9539708	1.3229935	0.02385489	0.011226435	-0.41279625	0.082532112	-0.21446087	-0.65518603	-1.1858218	-0.0043988284	-0.80434578	0.22579711	-0.31985942	0.22387954	0.27153234	0.462507	-0.019382292	0.96474969	0.31557074	0.064112613	0.047938304	0.0068546223	0.013853342	0.0078904858	0.0096921715	0.031439819	0.067900093	0.045303044	0.064278067	2.30748	6.1822916	6.0185821	6.0858997	6.0621869	5.9603447	4.8564151	3.3792621	6.0954448	1.9210966	2.0619366	2.0349281	2.0309664	2.162829	3.6015317	4.9288635	-191.5851	R0:S0:1	-100.08	uncorrelated	51514b8	1	sharp_wc_2.0_b_50	 1.67e+02	 8.15e-03	2022-04-11@08:31
2x2_2C_8b_C2v_L	6.2516087	0.1	14	1.77	-0.42213817	-14.296425	-14.894433	-6.7413365	-14.628179	-3.2506723	4.2331284	-12.587488	14.3	0.085818642	0.00022064172	0.22508452	0.088978571	-0.13358352	0.21072334	0.50176133	0.037730264	8.0598255e-05	-0.8974932	0.69934568	-0.73930314	-1.2602169	-0.21433846	-0.033197231	-1.2365732	1.13	0.62	0.188	-0.22793598	1.3235834	1.7903504	-0.19634504	-0.026567851	0.01203485	-0.45653309	0.34537606	1.9484203	1.9936558	1.9928953	1.9851846	1.9897994	1.9675424	0.067893299	1.9514899	1.3449124	-0.86384995	0.0082305455	-0.31078745	0.26726955	-0.22269338	-0.70440026	-1.1795106	-0.015782695	-0.018175967	0.20867254	-0.21747461	0.32411911	0.27066969	0.42943998	0.0031412773	0.99797137	0.31454509	0.061598752	0.05110376	0.0063719812	0.0071060521	0.015078254	0.01029951	0.031988039	0.066223309	0.04769519	0.061747412	6.1882332	6.3290468	6.1758459	6.2255527	6.1918454	6.0593536	4.9279366	3.3316807	2.1928363	1.7698509	1.863739	1.9464417	1.9133471	2.0485627	3.5165356	4.9911798	-193.0187	R0:S0:1	-100.24	uncorrelated	51514b8	2	sharp_wc_2.0_b_50	 1.66e+02	 1.30e-03	2022-04-11@08:39
2x2_2C_8b_C2v_L	6.2637747	0.1	14	1.77	-1.4539895	-14.207095	-14.806823	-7.3976848	-14.495875	-3.0904139	4.0490191	-12.618245	14.32	-0.14065416	-0.015877087	0.099688651	0.0063804656	-0.13102929	0.19645828	0.48800113	-0.0040692918	0.014901506	-0.92659014	0.26869497	-0.88128252	-1.2423193	-0.21643091	0.0032883582	-1.2397092	1.13	0.62	0.188	-0.23198852	1.3237565	1.7960055	-0.1927883	-0.026322394	0.011943734	-0.46170522	0.35907343	1.9767902	1.9935515	1.9988512	1.9786836	1.990432	1.9667622	0.071099498	1.9510295	1.3586469	0.62288549	0.018427885	-0.13092217	0.41104918	-0.22347206	-0.71891507	-1.2116521	-0.0056799349	-0.015583105	0.20423918	-0.084625158	0.38259624	0.25661241	0.42934119	-0.0087332825	1.0065115	0.31033596	0.061538215	0.023014256	0.006485828	0.0011488298	0.021715897	0.0096678671	0.03277147	0.069244279	0.048138023	0.06167378	6.3064956	6.4305906	6.2765573	6.2806671	6.2641508	6.1211517	4.9507478	3.3016429	1.8524754	1.6804026	1.7292669	1.9204038	1.8371103	1.9878889	3.5144457	5.0249931	-195.60331	R0:S0:1	-100.4	uncorrelated	51514b8	2	sharp_wc_2.0_b_50	 1.68e+02	 4.11e-03	2022-04-11@08:46
2x2_2C_8b_C2v_L	6.2859058	0.1	14	1.77	-2.8075124	-14.111203	-14.717621	-8.041534	-14.365484	-2.818222	3.789242	-12.673207	14.34	0.21609667	-0.02637043	-0.21727199	0.016325551	-0.12051066	0.15816816	0.44973904	0.042468089	-0.026343598	-0.96157884	-0.19714989	-0.93912435	-1.1995974	-0.22586479	-0.037193862	-1.2719817	1.13	0.62	0.188	-0.23249973	1.3240443	1.8046569	-0.18690869	-0.025822514	0.011756252	-0.45005243	0.37779957	1.9813673	1.9935326	1.9981192	1.9811645	1.9915265	1.9684147	0.069960077	1.948166	1.3773309	-0.59554012	0.026831504	0.19515084	0.38096395	-0.21221657	-0.69936269	-1.2084739	-0.01445571	0.015842903	0.19610542	0.093118383	0.34771709	0.23288401	0.40953941	0.0075629379	1.0414747	0.31148557	0.059024157	0.018485076	0.0065134466	0.0018792632	0.019219912	0.0085654562	0.031267995	0.068161728	0.050896223	0.059184606	6.4236888	6.558899	6.3810279	6.397355	6.3847607	6.2364567	5.0057953	3.2747016	1.6858776	1.5579375	1.6245219	1.7988256	1.7112099	1.8733693	3.4503291	5.0703115	-198.66657	R0:S0:1	-100.56	uncorrelated	51514b8	2	sharp_wc_2.0_b_50	 1.67e+02	 7.32e-03	2022-04-11@08:52
2x2_2C_8b_C2v_L	6.3216472	0.1	14	1.77	-4.6101246	-14.010761	-14.633989	-8.6866795	-14.237443	-2.3883018	3.4101291	-12.761916	14.36	0.30501854	-0.02416262	-0.49709027	0.19309357	-0.098790603	0.13945876	0.40995834	0.0078124519	-0.027250741	-0.99278114	-0.63820373	-0.93952409	-1.2046429	-0.19233686	-0.0075153007	-1.2950514	1.13	0.62	0.188	-0.23052898	1.3244947	1.8174588	-0.17766157	-0.024962848	0.011423429	-0.42479046	0.4031633	1.983661	1.9939343	1.9875237	1.9901787	1.9918666	1.9690347	0.073204351	1.9461204	1.4024756	-0.59288044	0.025358545	0.49576923	0.13253884	-0.21153087	-0.70967446	-1.2450479	-0.0030039455	0.0074170596	0.17746349	0.23379078	0.22634273	0.21751708	0.37701516	0.00172851	1.069413	0.31731416	0.054277305	0.01621244	0.0061195473	0.012431163	0.010062526	0.0082327093	0.030674322	0.071185666	0.052855944	0.054541794	6.5965949	6.7436794	6.4583726	6.5831493	6.5386538	6.3702743	5.0553151	3.2263372	1.4796437	1.3726468	1.5856488	1.591059	1.5612249	1.7319652	3.4158813	5.1288389	-202.50276	R0:S0:1	-100.72	uncorrelated	51514b8	3	sharp_wc_2.0_b_50	 1.64e+02	 1.21e-03	2022-04-11@09:01
2x2_2C_8b_C2v_L	6.357965	0.1	14	1.77	-6.852101	-13.89968	-14.571178	-9.3622978	-14.11389	-1.7624585	2.8936375	-12.888244	14.38	0.40911977	0.0066409275	-0.46828938	0.35866527	-0.079941574	0.11894362	0.35586947	0.002815652	0.0082091752	-1.0229802	-0.98516108	-0.80892179	-1.2106055	-0.15351534	-0.002899622	-1.3299707	1.13	0.62	0.188	-0.22630233	1.324947	1.8288096	-0.16850659	-0.023975205	0.011024989	-0.40007092	0.42118464	1.9850262	1.9942238	1.9830071	1.9941376	1.9919918	1.96477	0.07754249	1.9436491	1.4203849	-0.59191895	0.0041573631	0.54811043	-0.124339	-0.21136335	-0.76818855	-1.286742	-0.0025650607	-0.010188622	0.16375122	0.27607592	0.10772203	0.20812537	0.37522922	-0.00067503435	1.0984594	0.3248581	0.050153079	0.014861998	0.0058367155	0.016996729	0.0059825223	0.0081123265	0.034847997	0.075227593	0.0552204	0.050466954	6.7266203	6.8798175	6.5350598	6.6694703	6.6469435	6.4364472	5.0742661	3.2064718	1.3306341	1.2358109	1.5509885	1.4590182	1.454865	1.6692517	3.415244	5.1593207	-206.93578	R0:S0:1	-100.88	uncorrelated	51514b8	2	sharp_wc_2.0_b_50	 1.60e+02	 1.26e-03	2022-04-11@09:07
2x2_2C_8b_C2v_L	6.417264	0.1	14	1.77	-9.5307318	-13.778757	-14.506541	-10.074246	-13.958656	-0.093935288	1.878252	-13.08086	14.4	0.52888675	0.059418089	-0.32129012	0.55888601	-0.0080412741	0.036998373	0.24466703	0.0066611834	0.081303694	-1.0517679	-1.3136514	-0.51422161	-1.2204313	-0.053043453	-0.008072685	-1.4037174	1.13	0.62	0.188	-0.21052453	1.3256566	1.8420929	-0.15445608	-0.022020068	0.010191476	-0.35207709	0.41898588	1.9859632	1.9940678	1.9816979	1.9905151	1.9900087	1.8399042	0.085891152	1.9394564	1.4180522	-0.58410906	-0.012516685	0.46819757	-0.41809013	-0.2409686	-1.3576131	-1.3463617	-0.036789209	-0.043193413	0.16171976	0.3120126	-0.0026224801	0.23628199	0.75286889	-0.040030075	1.1331914	0.33539259	0.046673894	0.013936474	0.0059940257	0.018453544	0.0095444396	0.010066658	0.17416746	0.082916031	0.059220507	0.04703394	6.7638647	6.915781	6.4993118	6.5081774	6.5961863	5.6113292	4.9868002	3.282673	1.278939	1.1945656	1.6593505	1.5745989	1.4793251	2.6483307	3.5276175	5.0917397	-210.29302	R0:S0:1	-101.04	uncorrelated	51514b8	3	sharp_wc_2.0_b_50	 1.50e+02	 4.26e-03	2022-04-11@09:19
2x2_2C_8b_C2v_L	6.2974029	0.1	14	1.77	-12.645965	-13.648662	-14.452888	-10.829924	-13.767953	2.6157885	0.042427326	-13.323275	14.42	0.66335905	0.12919546	-0.044782959	0.70419373	0.12103856	-0.16150114	0.079731359	0.00011358003	0.19334382	-1.0702846	-1.4836785	-0.049306892	-1.2287435	0.17651359	0.00035195494	-1.5175506	1.13	0.62	0.188	-0.27830465	1.3243611	1.8311815	-0.17964468	-0.026564173	0.01230751	-0.49528159	0.58364899	1.9840014	1.9968985	1.9873368	1.9796374	1.9881786	0.0092478647	0.79944779	1.9520495	1.5827895	-0.66974348	-0.12364621	0.43410878	-0.71444696	-0.44538362	-0.11662979	-3.374069	-0.00052270594	-0.012482416	0.071064837	0.24554284	-0.24024601	0.23164691	-0.43878843	-0.014384118	0.853379	0.301939	0.063431453	0.015866821	0.0031389513	0.012921413	0.020172435	0.011990088	0.0093677655	0.42879611	0.046774806	0.063911073	7.3284812	7.5027796	6.714618	6.6398716	6.7652169	1.2119559	1.9911783	4.3668744	0.68204086	0.53956973	1.3633632	1.3779561	1.2974008	6.8117593	8.6313338	3.618801	-218.01345	R0:S0:1	-101.2	uncorrelated	51514b8	3	sharp_wc_2.0_b_50	 1.92e+02	 1.06e-03	2022-04-11@09:31
2x2_2C_8b_C2v_L	6.4986327	0.1	14	1.77	-16.199197	-13.511021	-14.424516	-11.640118	-13.547792	6.3861231	-2.6180472	-13.605558	14.44	0.77616943	0.20757283	0.30826361	0.66976073	0.23911057	-0.39691611	-0.24783241	-0.019943139	0.34175578	-1.0732948	-1.3636465	0.51974944	-1.1936578	0.33662347	0.026557719	-1.6269103	1.13	0.62	0.188	-0.20169829	1.3266671	1.8666526	-0.13399795	-0.019556579	0.0091630199	-0.30518941	0.45977073	1.9875789	1.9943101	1.9935764	1.9763972	1.9868121	0.0088863485	1.9988432	1.9198554	1.4584076	-0.57448032	-0.19053006	-0.02232042	-0.73731401	-0.40512646	0.010312764	0.073019002	0.026809692	-0.025034666	0.11650561	0.14374106	-0.22294124	0.23464883	-0.38917043	-0.095966935	1.3439327	0.35202113	0.031514357	0.012360597	0.0057786531	0.0065788881	0.023380119	0.013364506	0.0089907923	0.0011689496	0.077888633	0.031990874	7.1134118	7.2473771	6.9703466	6.7309763	6.8342099	1.2542993	2.3709841	3.226127	0.92121916	0.85565013	1.1844636	1.3364806	1.3103225	6.8465945	5.6478289	5.3390504	-231.88202	R0:S0:1	-101.36	uncorrelated	51514b8	1	sharp_wc_2.0_b_50	 1.47e+02	 5.61e-02	2022-04-11@09:35
2x2_2C_8b_C2v_L	6.1305668	0.1	14	1.77	-20.188062	-13.362795	-14.42771	-12.507802	-13.283798	11.206311	-6.1294662	-13.920977	14.46	0.92833553	0.30923555	0.68704684	0.48403215	0.45290922	-0.7325772	-0.52523907	-0.054669572	0.53697237	-1.0711894	-0.88341031	1.1393032	-1.1792673	0.58749854	0.080675543	-1.7483589	1.13	0.62	0.188	-0.34851528	1.3224979	1.8028371	-0.21709571	-0.032117033	0.014804098	-0.65777082	0.80834993	1.9848522	1.9963099	1.9974798	1.9629158	1.9693353	0.0036215446	1.9486774	1.9978024	1.8076722	-0.68302618	-0.31734258	-0.24693495	-0.93728783	-0.86383592	-0.10813779	1.2166981	-0.0025563326	-0.014554093	0.0086157772	-0.086612153	-0.4461923	0.38452824	-0.30457456	-0.045289807	0.046373427	0.23391742	0.062957768	0.015060452	0.0037686304	0.0025649634	0.036992085	0.030715171	0.0036977461	0.049792793	0.0022249543	0.063583365	7.6884972	7.8330642	6.5894494	6.238868	6.423301	1.2718928	7.1506222	7.7439575	0.30916241	0.17278732	1.4144401	1.7960202	1.6049983	6.7301972	0.83313275	0.27216417	-249.01656	R0:S0:1	-101.52	uncorrelated	51514b8	1	sharp_wc_2.0_b_50	 2.47e+02	 7.57e-02	2022-04-11@09:39
2x2_2C_8b_C2v_L	6.1841937	0.1	14	1.77	-24.614651	-13.20807	-14.479663	-13.473293	-12.99314	17.089625	-10.488942	-14.258458	14.48	1.055102	0.41497749	0.8830162	0.060828115	0.60815761	-1.1195548	-0.84894196	-0.10396964	0.7693471	-1.055503	-0.076968654	1.4677701	-1.1122256	0.76234943	0.1699279	-1.8600907	1.13	0.62	0.188	-0.3425059	1.3231582	1.8181748	-0.20352207	-0.030705562	0.01423317	-0.62011752	0.83390733	1.9865468	1.9933205	1.9796299	1.9846922	1.9610723	0.0026276492	1.9534709	1.9984383	1.8331746	-0.64607584	-0.44276615	-0.73327115	-0.59686835	-0.99405451	-0.074741864	1.1759446	0.04785539	-0.012338572	0.0049996314	-0.29118099	-0.26816122	0.40061918	-0.25517537	-0.040495751	0.033531008	0.25463064	0.056058576	0.013403417	0.0068143954	0.020195154	0.015737648	0.038703327	0.0026763183	0.04532515	0.0015865375	0.05674923	7.7238355	7.8109447	6.6452854	6.6109209	6.4787601	1.1268891	7.2329316	7.7788022	0.27369347	0.19089735	1.3529728	1.4154124	1.5410255	6.8764764	0.7516621	0.23205852	-268.94625	R0:S0:1	-101.68	uncorrelated	51514b8	2	sharp_wc_2.0_b_50	 2.36e+02	 5.72e-03	2022-04-11@09:44
2x2_2C_8b_C2v_L	6.2311422	0.1	14	1.77	-29.480152	-13.050392	-14.597148	-14.561355	-12.669911	24.034959	-15.702882	-14.621168	14.5	1.1268067	0.51260722	0.77685523	-0.52204977	0.74345471	-1.5579792	-1.1359365	-0.15813774	1.0283419	-1.0070496	0.89196696	1.2749906	-1.0136765	0.88499257	0.28803953	-1.9290997	1.13	0.62	0.188	-0.33606848	1.323736	1.8306613	-0.19179394	-0.029359717	0.013678942	-0.5871208	0.85175045	1.9892067	1.9892782	1.9644554	1.9994406	1.9523711	0.0016462396	1.9623043	1.9985001	1.8510177	-0.5796773	-0.56730791	-0.96802104	0.052303129	-1.1122212	-0.040760531	1.0699133	0.13044035	-0.0081423802	0.0061447043	-0.36617583	-0.0023208903	0.42091629	-0.18526885	-0.019264753	0.022677868	0.27268771	0.050695001	0.010780386	0.01089752	0.035070338	0.00056637594	0.046949121	0.0016696362	0.036944449	0.0015503548	0.051392879	7.7620329	7.7660724	6.599879	6.9617964	6.4640804	1.0539722	7.3773618	7.8192997	0.23613568	0.23213555	1.4079646	1.0455955	1.5487605	6.9498851	0.61062736	0.1881794	-291.72661	R0:S0:1	-101.84	uncorrelated	51514b8	2	sharp_wc_2.0_b_50	 2.28e+02	 2.14e-03	2022-04-11@09:50
2x2_2C_8b_C2v_L	6.2938356	0.1	14	1.77	-34.78444	-12.889332	-14.83736	-15.80142	-12.306645	32.040496	-21.766404	-14.987044	14.52	1.1467416	0.60687432	0.28098251	-0.98923184	0.88868113	-2.0622558	-1.5001083	-0.2267524	1.3163366	-0.9284099	1.5455117	0.44131937	-0.91258822	0.99139809	0.44252651	-2.0247081	1.13	0.62	0.188	-0.3259647	1.3244997	1.8463783	-0.17630375	-0.027453632	0.012881416	-0.54614442	0.86735158	1.9918555	1.9845312	1.9809829	1.9821547	1.9410905	0.0012916573	1.9653614	1.9980039	1.8666093	-0.50347824	-0.68516658	-0.70066237	0.70570518	-1.2513823	-0.016480496	1.0315085	0.20011528	-0.0076398685	0.0060990494	-0.25313047	0.22554392	0.43371919	-0.14068401	-0.015529968	0.017180086	0.29475208	0.04532074	0.0081534421	0.01563699	0.019436256	0.017808102	0.057508912	0.0013038453	0.034030645	0.0020949928	0.046027923	7.7938842	7.7070247	6.8627591	6.962392	6.4359766	0.9652923	7.4284547	7.8264374	0.20483788	0.28730553	1.1510665	1.0325211	1.5687095	7.0380574	0.56160543	0.1783349	-317.65099	R0:S0:1	-102	uncorrelated	51514b8	2	sharp_wc_2.0_b_50	 2.18e+02	 5.60e-03	2022-04-11@09:56
2x2_2C_8b_C2v_L	6.3438258	0.1	14	1.77	-40.527614	-12.724808	-15.260367	-17.233312	-11.916953	41.110724	-28.686238	-15.371342	14.54	1.1128737	0.69800754	-0.45529003	-0.96563578	0.97688543	-2.5507169	-1.8154109	-0.28858213	1.634131	-0.82450154	1.4468595	-0.79451177	-0.78512698	1.0058581	0.61522836	-2.0830647	1.13	0.62	0.188	-0.31757321	1.3251115	1.8582505	-0.16403283	-0.025833722	0.012194488	-0.51933325	0.87771988	1.9942413	1.979023	1.9995891	1.9678105	1.933465	0.00094941306	1.970362	1.9974046	1.8770091	-0.42188231	-0.79996094	0.0086693876	0.94650816	-1.3407769	0.0063000624	0.95826194	0.25258228	-0.0085285197	0.0059064597	-0.014337863	0.29933581	0.434371	-0.08287749	-0.015787258	0.011864532	0.30962239	0.04186266	0.0057765183	0.021061341	0.00041466632	0.031719447	0.064457863	0.00095322627	0.029211425	0.0027450452	0.042541604	7.8148271	7.6315672	7.2009295	6.8588356	6.4127383	0.91062609	7.5063815	7.8371456	0.18446327	0.35915607	0.80488519	1.1396793	1.5852354	7.0921454	0.48616559	0.16591487	-346.70059	R0:S0:1	-102.16	uncorrelated	51514b8	2	sharp_wc_2.0_b_50	 2.10e+02	 3.49e-03	2022-04-11@10:01
2x2_2C_8b_C2v_L	6.4287361	0.1	14	1.77	-46.708899	-12.552763	-15.90954	-18.918688	-11.488498	51.2429	-36.458646	-15.750623	14.56	1.0572752	0.81033017	-1.1159071	-0.33310664	1.0612573	-3.0697512	-2.1886141	-0.3539687	2.0081239	-0.70980534	0.44399716	-1.8329964	-0.66592426	0.99766038	0.80471679	-2.1602427	1.13	0.62	0.188	-0.30234628	1.3261408	1.8775646	-0.14331704	-0.022958403	0.010956855	-0.47593315	0.88770342	1.9959789	1.9710473	1.9746626	1.9861674	1.9243822	0.00088233925	1.9730978	1.9963934	1.8869759	-0.34899149	-0.94102925	0.85174541	0.60948705	-1.442749	0.020763196	0.91543697	0.31204103	-0.010375409	0.0063014983	0.23042771	0.18846433	0.42239741	-0.047885462	-0.013605805	0.0092226634	0.33092951	0.037553301	0.0040400033	0.028826884	0.025174204	0.014132537	0.072695174	0.00088341758	0.026562713	0.003832307	0.038237429	7.8157398	7.5143086	7.0685808	7.1101661	6.3854719	0.83548305	7.5490036	7.8340219	0.18387449	0.4716294	0.92269988	0.89581528	1.6043923	7.1663998	0.4449841	0.16717205	-379.40639	R0:S0:1	-102.32	uncorrelated	51514b8	2	sharp_wc_2.0_b_50	 1.99e+02	 5.25e-03	2022-04-11@10:07
2x2_2C_8b_C2v_L	6.4963106	0.1	14	1.77	-53.33123	-12.383634	-16.888891	-20.954022	-11.04045	62.440555	-45.088844	-16.137702	14.58	0.91886566	0.89668497	-1.1427024	0.67654576	1.0840559	-3.5125151	-2.506103	-0.40123061	2.3648778	-0.56738224	-0.88649958	-1.8219049	-0.55123568	0.93333083	0.98288327	-2.2078774	1.13	0.62	0.188	-0.29019854	1.3269644	1.892129	-0.12690752	-0.020522541	0.0098894143	-0.44547658	0.89380233	1.9975387	1.9637431	1.9560758	1.9988826	1.9203318	0.00080341293	1.9767727	1.9954944	1.8930826	-0.26667696	-1.0539875	1.1183085	-0.14064299	-1.4905443	0.030350962	0.85252266	0.35545686	-0.012244883	0.0057216291	0.29768061	-0.015498595	0.4048365	-0.013356227	-0.010166613	0.007937759	0.3452603	0.034801918	0.0024750516	0.035797232	0.04305905	0.0011385504	0.076267517	0.00080354066	0.022982429	0.0047924369	0.035468664	7.8141197	7.4051446	6.8629738	7.3519018	6.3856817	0.78655093	7.6056125	7.8350876	0.18576359	0.57680643	1.1297714	0.65030472	1.5987573	7.214787	0.38983859	0.16502967	-415.8799	R0:S0:1	-102.48	uncorrelated	51514b8	2	sharp_wc_2.0_b_50	 1.91e+02	 7.42e-03	2022-04-11@10:14
2x2_2C_8b_C2v_L	6.5294701	0.1	14	1.77	-60.394515	-12.217951	-18.301058	-23.392803	-10.570793	74.703366	-54.575587	-16.522164	14.6	0.69498766	0.95924599	-0.36213106	1.4258349	1.0645053	-3.8868232	-2.8031732	-0.43373395	2.6959011	-0.39872392	-1.8432994	-0.58377251	-0.44821118	0.84122631	1.1423162	-2.2455574	1.13	0.62	0.188	-0.28459399	1.3273751	1.8989897	-0.11886315	-0.019263336	0.0093307021	-0.43526024	0.899033	1.9987445	1.9574947	1.9858756	1.9796547	1.9199523	0.00073977445	1.9800067	1.9949655	1.8983716	-0.1784788	-1.14206	0.62484028	-0.77263718	-1.5000273	0.036357497	0.7922931	0.37882362	-0.013587862	0.004955147	0.17056478	-0.18602464	0.39173051	0.018081824	-0.009095244	0.006571999	0.35269602	0.033343925	0.001262381	0.041647941	0.01447289	0.020234775	0.076512204	0.000740018	0.019815878	0.0053538144	0.033960728	7.809887	7.3104517	7.2250279	7.2262371	6.4036049	0.76362377	7.6555761	7.8397904	0.19016843	0.66843194	0.77840207	0.76791301	1.5776627	7.2373934	0.34102375	0.15979519	-456.33832	R0:S0:1	-102.64	uncorrelated	51514b8	2	sharp_wc_2.0_b_50	 1.87e+02	 3.11e-03	2022-04-11@10:20
2x2_2C_8b_C2v_L	6.5977692	0.1	14	1.77	-67.899058	-12.056289	-20.246781	-26.29775	-10.070858	88.029351	-64.917485	-16.8916	14.62	0.38457896	1.002874	0.89460029	1.4189518	1.0406928	-4.248043	-3.1292745	-0.45509116	2.9938092	-0.20574961	-1.717816	1.4168149	-0.37117277	0.77103501	1.2757369	-2.2934359	1.13	0.62	0.188	-0.27262498	1.32821	1.9129012	-0.10232979	-0.016632542	0.0081489352	-0.41472353	0.90379546	1.9994859	1.9524766	1.9958283	1.9692682	1.9188347	0.00068969753	1.982278	1.9947041	1.9031418	-0.087652346	-1.2084773	-0.34296727	-0.94654007	-1.5181145	0.037296444	0.74687212	0.39044954	-0.014518672	0.0036062391	-0.067726881	-0.22981106	0.37033705	0.030805413	-0.0084708931	0.0054702884	0.3629364	0.031443969	0.00051582343	0.046288691	0.0042917159	0.030414207	0.07747068	0.00069003261	0.017583575	0.0056330443	0.032050574	7.8029381	7.2334075	7.4378193	7.0980169	6.4260857	0.71867656	7.691619	7.8451787	0.1971628	0.74284358	0.56161842	0.89770237	1.5509713	7.2819821	0.30571708	0.1538721	-501.52945	R0:S0:1	-102.8	uncorrelated	51514b8	2	sharp_wc_2.0_b_50	 1.80e+02	 3.03e-03	2022-04-11@10:26
2x2_2C_8b_C2v_L	6.6977013	0.1	14	1.77	-75.845817	-11.901204	-22.862501	-29.825732	-9.534358	102.41555	-76.113459	-17.227197	14.64	-0.014631194	1.0306539	1.8282211	0.35596022	1.0463576	-4.6720002	-3.5505745	-0.46681167	3.2463535	0.0073029005	-0.40097607	2.7253431	-0.33888227	0.79341368	1.3714471	-2.3719877	1.13	0.62	0.188	-0.25543404	1.3294324	1.932416	-0.07819349	-0.012596145	0.0062950602	-0.38075698	0.9063619	1.9997189	1.9488052	1.9602685	1.9924523	1.9111041	0.0006723672	1.9833642	1.9945493	1.9056667	0.0037150825	-1.2544308	-1.0812204	-0.45079334	-1.5941436	0.036192491	0.72418592	0.39684166	-0.015216729	0.0012840347	-0.22872097	-0.1176351	0.35552765	0.023475526	-0.0067636397	0.0056360487	0.37507302	0.029349073	0.00028107382	0.049700263	0.039038812	0.0077195224	0.08443505	0.00067245147	0.016512414	0.0058080362	0.029974494	7.792807	7.1762614	7.0668214	7.3640618	6.3654334	0.68309645	7.7095657	7.8475487	0.20727063	0.7979135	0.92191482	0.63783506	1.6068058	7.3172799	0.28821306	0.15112086	-551.99835	R0:S0:1	-102.96	uncorrelated	51514b8	2	sharp_wc_2.0_b_50	 1.71e+02	 5.30e-03	2022-04-11@10:33
2x2_2C_8b_C2v_L	6.7421737	0.1	14	1.77	-84.236283	-11.760971	-26.261269	-34.063323	-9.0216944	117.86856	-88.165203	-17.541251	14.66	-0.48746922	1.0169424	1.7952841	-1.3610464	0.97737667	-4.9066102	-4.0028321	-0.46195989	3.387577	0.22883408	1.5141239	2.5806577	-0.31847094	0.80858142	1.4180888	-2.4560679	1.13	0.62	0.188	-0.24842184	1.3299829	1.940747	-0.067447416	-0.010706055	0.0054098373	-0.36496743	0.91045422	1.9994807	1.9490774	1.9550899	1.995528	1.9138304	0.00055351156	1.98423	1.9946326	1.909791	0.091164409	-1.2508024	-1.1459337	0.35197559	-1.5747367	0.031769926	0.70554697	0.39376826	-0.014779029	-0.00170855	-0.24794679	0.053932734	0.33602323	0.019010584	-0.0037616313	0.0067315677	0.38228803	0.027866846	0.00052082623	0.049516573	0.044131242	0.0045658339	0.081970836	0.00055353363	0.015657101	0.005731574	0.028459902	7.790221	7.1802742	6.9737807	7.4662213	6.4189977	0.64457274	7.724726	7.8523014	0.20980777	0.79370412	1.0182226	0.53359718	1.5512376	7.3556892	0.27341174	0.14636737	-607.90321	R0:S0:1	-103.12	uncorrelated	51514b8	2	sharp_wc_2.0_b_50	 1.67e+02	 2.29e-03	2022-04-11@10:40
2x2_2C_8b_C2v_L	6.7622071	0.1	14	1.77	-93.072439	-11.645388	-30.588759	-39.099035	-8.5080244	134.38549	-101.07518	-17.849154	14.68	-0.99747061	0.94598366	0.56704298	-2.7940192	0.90236059	-5.0882463	-4.4089218	-0.43501475	3.3487569	0.44600497	3.0304693	0.78191316	-0.33456528	0.91324645	1.4019572	-2.5207735	1.13	0.62	0.188	-0.24563078	1.3302348	1.9444051	-0.062593536	-0.0098251245	0.0049935802	-0.3613415	0.91541379	1.9989037	1.9550374	1.9889653	1.9680338	1.9163867	0.0004456305	1.9853917	1.9953411	1.9148125	0.16907418	-1.1752182	-0.55654666	0.97624802	-1.5533922	0.02634354	0.67957942	0.36673015	-0.012805816	-0.0032072522	-0.13041945	0.19396799	0.32748047	0.007003174	-0.0027641163	0.0061970734	0.3858788	0.026738027	0.0011000749	0.044060036	0.011323133	0.031561069	0.079695496	0.00044558534	0.014509243	0.0049827038	0.027282635	7.8042065	7.2732001	7.3690992	7.1968214	6.4574684	0.62198626	7.7462466	7.8679415	0.19575457	0.70303433	0.63211879	0.79706717	1.5118729	7.3782071	0.25221609	0.13103127	-669.87681	R0:S0:1	-103.28	uncorrelated	51514b8	2	sharp_wc_2.0_b_50	 1.66e+02	 1.91e-03	2022-04-11@10:47
2x2_2C_8b_C2v_L	6.7830677	0.1	14	1.77	-102.35597	-11.564526	-36.004711	-45.052473	-7.9990829	151.96599	-114.84511	-18.161672	14.7	-1.4907707	0.80836455	-1.4562381	-2.8898871	0.82510293	-5.2103908	-4.7071309	-0.38415824	3.0745408	0.64702006	3.0900715	-1.9512607	-0.38883317	1.1389641	1.3106189	-2.5511327	1.13	0.62	0.188	-0.24277951	1.3304967	1.9481886	-0.057536678	-0.0089004811	0.0045541637	-0.35888867	0.92018193	1.9982159	1.9666514	1.9960295	1.9621143	1.9183755	0.00036841587	1.9870315	1.9965453	1.9196422	0.23042439	-1.0124049	0.33334936	1.0600052	-1.5351107	0.019330005	0.64089666	0.31578296	-0.0095774647	-0.0030491984	0.053168985	0.22237007	0.32263071	-0.015438458	-0.0031853448	0.0043900106	0.38774945	0.025664	0.0017882301	0.033112987	0.0040813278	0.037256668	0.078023912	0.00036838407	0.012888601	0.0036951269	0.026159893	7.8383311	7.4555956	7.5044884	7.0909147	6.4862027	0.60071184	7.7768964	7.8932161	0.16155076	0.52574879	0.49567379	0.90429902	1.4826775	7.3994262	0.22187269	0.10621281	-738.45181	R0:S0:1	-103.44	uncorrelated	51514b8	2	sharp_wc_2.0_b_50	 1.64e+02	 2.16e-03	2022-04-11@10:55
2x2_2C_8b_C2v_L	6.8194278	0.1	14	1.77	-112.08751	-11.519908	-42.621578	-52.040453	-7.529601	170.61127	-129.47288	-18.454235	14.72	-1.9563887	0.62048492	-3.4910015	-1.2973829	0.72075629	-5.166037	-4.9760722	-0.31276768	2.5506122	0.83408941	1.3564816	-4.4467689	-0.46843803	1.4421497	1.1387636	-2.5709496	1.13	0.62	0.188	-0.23767766	1.3309487	1.9547721	-0.048728572	-0.0072840604	0.0037794516	-0.34551078	0.92587145	1.9975618	1.9800878	1.9595783	1.9870832	1.9256104	0.00032490831	1.9885377	1.9978652	1.9253721	0.27587462	-0.78227585	1.0947129	0.60516494	-1.4674771	0.0098670252	0.60306073	0.24795513	-0.0058279668	-0.0034467909	0.2074206	0.13929775	0.30142993	-0.044881269	-0.0039519077	0.0025360986	0.39260085	0.023911528	0.0024399689	0.020085341	0.03989162	0.013123893	0.071718252	0.00032506882	0.011398385	0.0022827395	0.024371405	7.8807417	7.6682686	7.096606	7.3306813	6.5981938	0.54589886	7.8060334	7.919864	0.11905518	0.31994332	0.89648666	0.6698917	1.3710115	7.4541918	0.19297084	0.079992862	-814.46263	R0:S0:1	-103.6	uncorrelated	51514b8	1	sharp_wc_2.0_b_50	 1.61e+02	 1.28e-01	2022-04-11@11:00
2x2_2C_8b_C2v_L	6.8132009	0.1	14	1.77	-122.26733	-11.52471	-50.630855	-60.239147	-7.1157377	190.32284	-144.95376	-18.668754	14.74	-2.3237248	0.39455943	-4.0467549	1.4945164	0.58877738	-4.8417401	-5.3907848	-0.23033947	1.752529	0.98246536	-1.5542784	-5.0149258	-0.59051952	1.8695894	0.87657331	-2.6258558	1.13	0.62	0.188	-0.23916095	1.3308779	1.9535891	-0.050205147	-0.0075361542	0.0039012514	-0.3439637	0.93247294	1.9971549	1.9919107	1.9473578	1.9990139	1.937174	0.00036129362	1.9892407	1.998888	1.9320576	0.30056317	-0.49819922	1.2484403	-0.12621893	-1.3455314	-0.001328996	0.58459469	0.17736786	-0.0029596087	-0.0019041311	0.24985721	-0.0038241881	0.2823547	-0.078996723	-0.0036669877	0.0018256176	0.39561411	0.022464131	0.002843163	0.0082773828	0.051231924	0.0010005485	0.061573855	0.00036174657	0.010701591	0.0011905656	0.022854861	7.920528	7.8567161	6.9226436	7.503406	6.7579217	0.49634185	7.8214031	7.938611	0.079214808	0.13845204	1.0709628	0.49780219	1.2155787	7.503729	0.1777479	0.061690425	-898.18432	R0:S0:1	-103.76	uncorrelated	51514b8	1	sharp_wc_2.0_b_50	 1.62e+02	 1.09e-01	2022-04-11@11:06
2x2_2C_8b_C2v_L	6.7994445	0.1	14	1.77	-132.89543	-11.579216	-60.143451	-69.736866	-6.8846707	211.10512	-161.28872	-18.801816	14.76	-2.5852282	0.14231041	-2.6176469	4.6326342	0.39672884	-3.9867032	-5.9032224	-0.1300169	0.67449076	1.0754779	-4.8069963	-3.1496844	-0.72105723	2.1344877	0.51190207	-2.6964637	1.13	0.62	0.188	-0.24190473	1.3307156	1.9510204	-0.053495526	-0.0081134615	0.0041789867	-0.35316706	0.93977549	1.9970325	1.99895	1.9743824	1.976185	1.9599331	0.00038495258	1.9895656	1.9996389	1.9394445	0.30774481	-0.17846554	0.86425647	-0.84208708	-1.0713786	-0.01229199	0.57591446	0.096976499	-0.0010446472	-0.00058777233	0.18642863	-0.1553397	0.23104855	-0.10023793	-0.0026474574	0.0016032718	0.39770527	0.021333046	0.0029632774	0.0010840549	0.025745202	0.023812927	0.040410177	0.00038539005	0.010379279	0.00038673332	0.021660106	7.9463086	7.9696362	7.1986576	7.2899888	7.0743707	0.42152838	7.8299257	7.9516939	0.053422338	0.029983827	0.80045701	0.70767362	0.90965801	7.5785184	0.16932443	0.048932839	-990.59134	R0:S0:1	-103.92	uncorrelated	51514b8	1	sharp_wc_2.0_b_50	 1.64e+02	 4.06e-02	2022-04-11@11:13
2x2_2C_8b_C2v_L	6.8563313	0.1	14	1.77	-143.97265	-11.697905	-71.327553	-80.662223	-7.0047568	232.95895	-178.48562	-18.929187	14.78	-2.6829535	-0.13860812	0.76375236	6.8648618	0.19187282	-2.6837277	-6.2240391	-0.0090867621	-0.67967895	1.0795185	-7.0025011	0.88228016	-0.82408781	1.8999182	0.036859795	-2.7106933	1.13	0.62	0.188	-0.23401148	1.3314185	1.9612716	-0.039706198	-0.0055682789	0.0029492097	-0.34984044	0.94557128	1.9972733	1.9990118	1.9990027	1.9454635	1.9833042	0.00028624274	1.9905092	1.999969	1.9452568	0.29504024	0.1734732	0.1170853	-1.2732391	-0.691976	-0.015281473	0.54949766	0.0022459971	0.00068705656	-0.00063905031	0.043934334	-0.24531666	0.14305282	-0.092386939	-0.0012888567	0.0013957174	0.40350189	0.019968204	0.0027231264	0.0010198626	0.0010162064	0.05300602	0.01730424	0.00028637858	0.0094449263	3.2178484e-05	0.020289794	7.9510165	7.972023	7.4919175	6.9232406	7.4369432	0.32852421	7.8468459	7.9607992	0.048751328	0.02754075	0.50967793	1.0721319	0.55833376	7.6714866	0.15252077	0.039786661	-1093.4	R0:S0:1	-104.08	uncorrelated	51514b8	2	sharp_wc_2.0_b_50	 1.60e+02	 2.11e-03	2022-04-11@11:22
2x2_2C_8b_C2v_L	6.9177633	0.1	14	1.77	-155.49864	-11.889902	-84.523642	-93.334571	-7.475769	255.88378	-196.54297	-19.006186	14.8	-2.5781197	-0.46989067	4.5457268	5.9098405	0.035758162	-0.93594989	-6.4506205	0.12903533	-2.2819749	0.96678955	-6.0801892	5.1646804	-0.90242634	1.1445007	-0.55505691	-2.6939627	1.13	0.62	0.188	-0.22632534	1.3321813	1.9720271	-0.02478759	-0.0027234674	0.00154948	-0.34597768	0.9483859	1.9978168	1.9891911	1.9879367	1.9605947	1.9948674	0.000111064	1.9915785	1.9995654	1.9480942	0.26299894	0.57705225	-0.59533495	-1.0819007	-0.38367551	-0.010471976	0.51776	-0.1099485	0.0031474232	-0.0022642862	-0.094832901	-0.21140146	0.075637912	-0.058505306	-0.0010569426	0.0017592329	0.40901064	0.019265885	0.0021825545	0.011017057	0.012275999	0.038878395	0.005386369	0.00011106628	0.0083857459	0.00046576567	0.01956957	7.9216485	7.8163854	7.4403858	7.0817214	7.6333576	0.28075287	7.8626318	7.9587638	0.078194924	0.17702956	0.55896123	0.91590571	0.3673164	7.7192452	0.13684986	0.041515476	-1206.0748	R0:S0:1	-104.24	uncorrelated	51514b8	2	sharp_wc_2.0_b_50	 1.55e+02	 1.87e-03	2022-04-11@11:32
2x2_2C_8b_C2v_L	6.9568213	0.1	14	1.77	-167.47364	-12.152933	-99.73189	-107.75436	-8.2997728	279.87962	-215.46076	-19.03262	14.82	-2.2623977	-0.90473347	8.7494785	1.8825557	0.0044828088	1.2548213	-6.5832773	0.27843089	-4.1172949	0.75308018	-1.9256363	9.6689961	-0.9156653	-0.12878187	-1.2652129	-2.6472431	1.13	0.62	0.188	-0.20699248	1.3326021	1.9796208	-0.016247137	-0.0014102672	0.00089115199	-0.31644091	0.94595786	1.9984603	1.9622131	1.9482069	1.9918167	1.9973838	9.3121169e-07	1.9926903	1.9982379	1.9455868	0.21429367	1.0773707	-1.2452263	-0.47676718	-0.27611284	-0.00088366178	0.48240362	-0.22699267	0.009221577	-0.0051183594	-0.20159044	-0.1016605	0.049304003	-0.0045407387	2.3295668e-05	0.0025815137	0.42009706	0.01867081	0.0015417691	0.037527888	0.050632011	0.0083604432	0.0027298451	9.3126963e-07	0.007283608	0.0018853324	0.019035953	7.8266342	7.3890712	7.0133994	7.4457051	7.7195489	0.23250018	7.8756216	7.942701	0.17328588	0.59035653	0.98258484	0.55468894	0.28110087	7.7675018	0.12396196	0.056819281	-1331.0861	R0:S0:1	-104.4	uncorrelated	51514b8	1	sharp_wc_2.0_b_50	 1.43e+02	 6.84e-02	2022-04-11@11:38
2x2_2C_8b_C2v_L	6.9664777	0.1	14	1.77	-179.92958	-12.888224	-117.49526	-124.45049	-8.9430671	304.9468	-235.23203	-18.821606	14.84	-1.3067256	-1.0681838	9.1494173	-3.617789	0.2924727	3.1031369	-7.0665554	0.44528782	-4.8921512	0.43246076	3.7315488	9.9981274	-1.0311973	-3.2689709	-2.0821822	-2.6542647	1.13	0.62	0.188	-0.19870494	1.3326916	1.9816056	-0.014372702	-0.0011917253	0.00077483766	-0.29195975	0.94523078	1.9994627	1.9529282	1.9495775	1.9976403	1.9821053	0.00065262473	1.9929412	1.9954028	1.94485	0.11426924	1.2061237	-1.2320761	0.24674695	-0.72231129	0.020034465	0.47378315	-0.36712544	0.0099696684	-0.0065335804	-0.19864679	0.020516938	0.12626775	0.1415108	-2.9970327e-06	0.0054935491	0.42723667	0.017955403	0.00053827278	0.046015751	0.049191262	0.0024094014	0.018508345	0.00065275226	0.0070356923	0.0049197179	0.018313354	7.8056771	7.2415693	7.0364343	7.59409	7.4986733	0.2592592	7.8693094	7.8998125	0.19429956	0.73442231	0.96034031	0.40628115	0.49408921	7.7407291	0.13032868	0.098453077	-1467.5821	R0:S0:1	-104.56	uncorrelated	51514b8	2	sharp_wc_2.0_b_50	 1.38e+02	 6.70e-03	2022-04-11@11:48
2x2_2C_8b_C2v_L	6.9747375	0.1	14	1.77	-192.86262	-14.063134	-137.81861	-143.4283	-11.217558	331.12818	-255.86246	-18.479234	14.86	0.29673895	-1.0391436	5.7161996	-10.537201	0.50382797	3.8750396	-7.5829117	0.61466042	-4.9279108	-0.10340793	10.84448	6.1255089	-1.3489351	-5.1406592	-2.9600332	-2.6506076	1.13	0.62	0.188	-0.19104335	1.3327655	1.9833222	-0.012808774	-0.0010195618	0.00068079058	-0.27103644	0.94694911	1.9998927	1.96219	1.9788573	1.9667693	1.9725037	0.0014950451	1.99312	1.9912338	1.946561	-0.026152106	1.0863462	-0.79120141	1.0016515	-0.89378234	0.027088039	0.46728388	-0.506329	0.0073333212	-0.0038736795	-0.13391725	0.13819538	0.14899384	0.21422952	0.0020491495	0.007930361	0.43191307	0.016873248	0.00010730816	0.037010492	0.02131781	0.033017834	0.028359415	0.0014949893	0.0068596434	0.0093795994	0.017230132	7.8479543	7.3868026	7.357463	7.279013	7.3755909	0.27654661	7.8571587	7.837643	0.15204469	0.59373726	0.64191962	0.71915161	0.61355212	7.7234219	0.14252529	0.15876816	-1621.673	R0:S0:1	-104.72	uncorrelated	51514b8	1	sharp_wc_2.0_b_50	 1.33e+02	 2.39e-01	2022-04-11@11:54
2x2_2C_8b_C2v_L	6.9784644	0.1	14	1.77	-206.26627	-15.62766	-161.26216	-165.2085	-15.166218	358.42898	-277.36841	-18.316516	14.88	2.8140259	-0.98135269	-1.273945	-14.077783	0.51222471	3.4897887	-7.1997416	0.70366419	-4.3591282	-0.95204325	14.491316	-1.3402499	-1.6423712	-5.6794349	-3.6455693	-2.4751967	1.13	0.62	0.188	-0.18762645	1.3327992	1.9840999	-0.012100198	-0.00094167332	0.00063800139	-0.27151895	0.95097841	1.9984543	1.9726013	1.9993344	1.9450338	1.9823792	0.0016259029	1.9946708	1.9889205	1.9506256	-0.21789653	0.92088008	-0.079802212	1.2883413	-0.72140711	0.02959625	0.41108678	-0.57172766	0.0071472256	6.7278359e-05	-0.031764183	0.19180511	0.11439949	0.22452611	0.0050283651	0.005388616	0.43375417	0.016017191	0.0015470352	0.02737213	0.00067265517	0.053433394	0.018145459	0.001625451	0.0053182645	0.01175508	0.016350813	7.8662737	7.5544261	7.6061315	7.0092313	7.535989	0.24136275	7.8724548	7.8087434	0.13365187	0.4320342	0.39437614	0.98808927	0.4581813	7.7585999	0.127321	0.18649973	-1794.344	R0:S0:1	-104.88	uncorrelated	51514b8	1	sharp_wc_2.0_b_50	 1.30e+02	 1.85e-01	2022-04-11@12:01
2x2_2C_8b_C2v_L	6.9824413	0.1	14	1.77	-220.18066	-18.176203	-187.8859	-189.85443	-20.595123	386.84529	-299.73806	-17.952681	14.9	3.9750933	-0.55854775	-11.51223	-13.812234	0.29501593	1.9090624	-7.0630412	0.75479119	-2.4246899	-1.4307621	14.151092	-11.914822	-1.9226452	-5.5744672	-4.1747904	-2.3532377	1.13	0.62	0.188	-0.18362902	1.3328336	1.9849284	-0.011369097	-0.00086611888	0.00059525191	-0.27315911	0.95526222	1.9974124	1.993327	1.9812159	1.9507349	1.9942454	0.0014568256	1.9955809	1.9869176	1.9549345	-0.2869475	0.45487276	0.74453427	1.2109322	-0.41566491	0.030075177	0.37413389	-0.62246445	0.0028511427	0.00031907806	0.087692505	0.19284618	0.063549377	0.21334738	0.0059116007	0.0047652795	0.43348133	0.015045341	0.0025854436	0.0068086124	0.01907761	0.048514631	0.0059174888	0.0014560316	0.0044124775	0.013817054	0.015364966	7.9316288	7.8823828	7.4003683	7.0028917	7.7259591	0.20337474	7.8790854	7.7814726	0.068226796	0.11441716	0.59910986	0.99547161	0.27292071	7.7965873	0.12074386	0.21275025	-1988.3605	R0:S0:1	-105.04	uncorrelated	51514b8	1	sharp_wc_2.0_b_50	 1.27e+02	 9.20e-02	2022-04-11@12:07
2x2_2C_8b_C2v_L	6.9852107	0.1	14	1.77	-234.58832	-21.450606	-218.46262	-218.1561	-26.74778	416.35527	-322.96721	-17.35843	14.92	5.3502935	0.24783298	-18.811783	-7.2637305	-0.16338556	-0.82632744	-7.092374	0.7386871	0.96889655	-1.9169099	7.4701228	-19.311246	-2.6182946	-7.9833393	-4.3672957	-2.2672582	1.13	0.62	0.188	-0.18069593	1.3328572	1.985494	-0.010871279	-0.00081609461	0.00056634526	-0.27398858	0.95806975	1.9959035	1.999018	1.9515062	1.9840273	1.9994701	0.0029370431	1.996163	1.986447	1.9577746	-0.36155046	-0.17392261	1.2078855	0.6806058	-0.12477768	0.044283902	0.34860424	-0.63377594	-0.00061758799	0.00064576233	0.16180607	0.11891597	0.019024205	0.3030346	0.0049477836	0.0062246512	0.43511658	0.014447028	0.0040882515	0.0010117195	0.047683913	0.016240435	0.00054917109	0.0029327034	0.0038322209	0.014303584	0.014741798	7.9301869	7.9676289	7.0882818	7.3941252	7.805822	0.21526247	7.8870237	7.7760779	0.069588548	0.031994989	0.91001217	0.60575605	0.19474088	7.7846619	0.11283841	0.21778207	-2201.1824	R0:S0:1	-105.2	uncorrelated	51514b8	1	sharp_wc_2.0_b_50	 1.25e+02	 9.30e-02	2022-04-11@12:13
2x2_2C_8b_C2v_L	6.9949377	0.1	14	1.77	-249.53295	-25.916466	-253.03605	-250.16252	-33.757478	446.97468	-347.05546	-16.48336	14.94	4.9308428	1.2619625	-22.665185	5.3665878	-1.0981935	-4.5061062	-7.3570357	0.65940647	4.4850724	-1.8235036	-5.5236836	-23.071636	-3.8068077	-12.246568	-4.1775568	-2.2232945	1.13	0.62	0.188	-0.16934851	1.332934	1.987488	-0.0091972015	-0.00065890859	0.00047275444	-0.26381115	0.95513965	1.9968877	1.9827439	1.9369979	1.9988433	1.9979749	0.0064252732	1.9964215	1.9881776	1.9547772	-0.31315706	-0.73145668	1.3783387	-0.13899592	0.24485033	0.065166185	0.33689763	-0.59101597	-0.0049341519	0.002511547	0.18681354	0.0050990163	-0.033332508	0.44767462	0.0047447486	0.0050263419	0.43802767	0.014831748	0.0031111878	0.017423925	0.061017005	0.0011764618	0.0021261552	0.0064054108	0.0035739756	0.012536073	0.015185619	7.8821066	7.7130272	6.9120638	7.6124722	7.7951382	0.27327061	7.897661	7.8041623	0.11775286	0.28078279	1.0859769	0.38779487	0.20457894	7.7265783	0.10221624	0.19022338	-2437.9387	R0:S0:1	-105.36	uncorrelated	51514b8	1	sharp_wc_2.0_b_50	 1.17e+02	 1.63e-01	2022-04-11@12:20
2x2_2C_8b_C2v_L	7.0032443	0.1	14	1.77	-265.02131	-31.63576	-292.14	-286.41042	-43.920998	478.90621	-372.0143	-16.159968	14.96	2.5342624	2.3486188	-19.791949	20.724982	-1.5739825	-6.0316018	-5.9773883	0.43038568	7.5988286	-0.98008226	-21.30512	-19.950243	-3.7476255	-10.636147	-3.2836547	-1.9935391	1.13	0.62	0.188	-0.15883254	1.3329963	1.9891642	-0.0078289952	-0.00053774196	0.00039776759	-0.24693592	0.95186495	1.9991601	1.9597064	1.9562964	1.9700539	1.9954348	0.0044286444	1.9979402	1.9948456	1.9514197	-0.15193573	-1.1197982	1.1398515	-0.9445071	0.37239961	0.050507457	0.25620312	-0.39320419	-0.009288172	0.00089908956	0.1632186	-0.09761656	-0.046942145	0.37210318	0.0025047955	0.0013824863	0.44134924	0.015008694	0.00084182912	0.039570067	0.043389193	0.03015712	0.0046942005	0.0044203601	0.0020582654	0.0054335197	0.015424016	7.8272697	7.3568561	7.0824322	7.2969335	7.787337	0.2303345	7.9467885	7.9113462	0.17270211	0.63184915	0.91660761	0.70235566	0.21162605	7.7695684	0.053141061	0.086035029	-2705.2955	R0:S0:1	-105.52	uncorrelated	51514b8	1	sharp_wc_2.0_b_50	 1.09e+02	 1.29e-01	2022-04-11@12:27
2x2_2C_8b_C2v_L	7.0068488	0.1	14	1.77	-281.07858	-38.771913	-336.52038	-327.64894	-57.010578	512.12848	-397.83535	-13.469836	14.98	-1.5693147	3.1322627	-8.5077737	32.774386	-1.316672	-5.4996613	-7.3570549	0.078444329	9.1963768	0.63617455	-33.69914	-8.5194343	-2.9349777	-6.2775437	-0.6332144	-2.0211616	1.13	0.62	0.188	-0.1539919	1.3330224	1.9898756	-0.0072563547	-0.00048932177	0.00036665173	-0.23474719	0.95257852	1.9995979	1.951868	1.9888063	1.9316435	1.9978364	0.0014411453	1.9972897	1.99981	1.9521275	0.087480868	-1.2229641	0.55649624	-1.4308937	0.25948182	0.026299147	0.29426207	-0.074030444	-0.011170504	-0.0031556006	0.10025544	-0.16856437	-0.030914981	0.21287051	0.0019186924	-0.00013405151	0.44483766	0.014439232	0.00040302129	0.04694773	0.011484712	0.066365172	0.0021859281	0.0014405823	0.0027066522	0.00020550089	0.014852032	7.80377	7.2378984	7.432808	6.8459728	7.8481004	0.15096401	7.9553553	7.9860215	0.19621828	0.75112952	0.5672048	1.1524762	0.15148626	7.8490065	0.044554086	0.013954019	-2999.8567	R0:S0:1	-105.68	uncorrelated	51514b8	2	sharp_wc_2.0_b_50	 1.06e+02	 1.04e-02	2022-04-11@12:38
2x2_2C_8b_C2v_L	7.0076117	0.1	14	1.77	-297.7405	-47.557484	-386.53975	-374.24477	-72.935465	546.64039	-424.58551	-12.477369	15	-6.2040475	3.0125152	10.393334	38.445527	0.11962904	-2.5829514	-6.9668072	-0.32815503	8.0998745	2.6659592	-39.542785	10.346867	-2.5967053	0.93762592	2.9287432	-1.8356306	1.13	0.62	0.188	-0.15279311	1.3330276	1.9900084	-0.0071486252	-0.00048191002	0.00036080424	-0.22875535	0.95564325	1.9965308	1.9698912	1.9977251	1.9179485	1.9997457	1.086072e-05	1.9978681	1.994635	1.95524	0.32747232	-0.9663118	-0.20676189	-1.5637916	-0.089174251	-0.002101583	0.26068119	0.39636854	-0.0073604784	-0.0066417023	0.00828276	-0.20564979	0.010337883	-0.018494987	-0.00065428061	0.0051542034	0.44613761	0.013555847	0.0034726578	0.029991985	0.0023273161	0.078720882	0.00025550129	1.0861697e-05	0.0021300159	0.0057723276	0.013926868	7.826751	7.5118213	7.541331	6.6459003	7.890326	0.10537611	7.9460254	7.9082053	0.17313029	0.4819701	0.45885562	1.3525697	0.10968392	7.8946242	0.053910184	0.088760811	-3332.7556	R0:S0:1	-105.84	uncorrelated	51514b8	1	sharp_wc_2.0_b_50	 1.05e+02	 2.65e-01	2022-04-11@12:46
2x2_2C_8b_C2v_L	7.0095343	0.1	14	1.77	-315.05838	-58.26795	-443.03279	-427.06268	-91.457866	582.43225	-452.2634	-12.79488	15.02	-9.284601	1.4823055	32.000956	32.712106	-0.73055879	2.1879998	-6.2872251	-0.78531824	3.7103301	4.2999938	-33.671695	31.749246	-5.5219952	11.661056	6.9270021	-1.5823023	1.13	0.62	0.188	-0.15008888	1.3330412	1.9903726	-0.0068528553	-0.00045743353	0.00034463717	-0.22431145	0.95584144	1.9931947	1.9949475	1.9709441	1.9458278	1.9999847	0.0032728407	1.9984333	1.9723871	1.9554471	0.46513586	-0.39651023	-0.92616387	-1.2653413	0.019373246	-0.03588497	0.22078153	0.9050072	-0.00014442845	-0.0034127435	-0.089961092	-0.18122093	-0.0018497127	-0.32129383	-0.0052374391	0.016259877	0.44704018	0.013413495	0.0067856764	0.0051455212	0.029370403	0.05349952	1.5459043e-05	0.003267484	0.0015668333	0.02872433	0.013773272	7.871509	7.8924178	7.2762559	6.9347746	7.8883963	0.15046655	7.8705998	7.5652722	0.12822106	0.10662831	0.72338751	1.0644566	0.11170219	7.8494678	0.12936209	0.41980196	-3707.1723	R0:S0:1	-106	uncorrelated	51514b8	1	sharp_wc_2.0_b_50	 1.03e+02	 5.72e-01	2022-04-11@12:53
2x2_2C_8b_C2v_L	7.0217463	0.1	14	1.77	-333.03151	-70.908901	-505.99815	-486.10435	-112.59101	619.50188	-480.86949	-14.415569	15.04	-10.892297	-1.6828969	56.352276	15.611055	-3.6458255	8.9015065	-5.3111207	-1.4682447	-3.8685202	5.3317163	-16.049296	55.647231	-11.530166	25.966505	11.324378	-1.2359196	1.13	0.62	0.188	-0.13173407	1.3331207	1.9926976	-0.0050602346	-0.00031776097	0.00025017419	-0.19957055	0.94008722	1.9915565	1.9959368	1.9162423	1.9844399	1.9962302	0.014531162	1.9988591	1.9273227	1.9393213	0.51794596	0.35528261	-1.5767978	-0.65028817	0.3365019	-0.070286815	0.17526458	1.4730477	0.0066453105	0.0013630381	-0.15884189	-0.11366743	-0.030291981	-0.6747963	-0.015628167	0.023537279	0.44727449	0.016296089	0.0084117373	0.0041440067	0.080803699	0.016065301	0.0039196527	0.014430724	0.0011422416	0.071644182	0.016932361	7.847907	7.9019077	6.6389723	7.3385173	7.8150832	0.3274853	7.7003212	6.8717383	0.15177641	0.097444527	1.3599519	0.66146031	0.18467297	7.6722574	0.29963987	1.0980602	-4139.2413	R0:S0:1	-106.16	uncorrelated	51514b8	1	sharp_wc_2.0_b_50	 8.91e+01	 1.52e-01	2022-04-11@13:01
2x2_2C_8b_C2v_L	7.0243319	0.1	14	1.77	-351.8343	-86.165529	-578.69825	-554.79115	-139.823	658.56347	-510.47065	-19.700507	15.06	-7.128268	-4.5371058	58.614668	-9.0826718	-4.9017774	11.069974	-4.5297193	-2.2094222	-9.7438602	3.7499329	9.3500463	57.868956	-12.609911	26.288507	14.074612	-1.1160604	1.13	0.62	0.188	-0.12775786	1.3331373	1.9931805	-0.0046880361	-0.0002887636	0.00023048635	-0.19651201	0.9383191	1.9966623	1.9790944	1.9221746	1.9990007	1.9947394	0.013392066	1.9991092	1.911007	1.9375188	0.32288828	0.80918734	-1.5302485	0.081643754	0.39960958	-0.067084939	0.14059053	1.6358377	0.0076125242	0.0034545506	-0.16442834	-0.022845802	-0.036018037	-0.64777452	-0.020438598	0.016290745	0.45242336	0.016669153	0.003341757	0.020836302	0.074789875	0.0010072446	0.0054204601	0.013310375	0.00089207866	0.085673824	0.017331344	7.8629763	7.6560801	6.7440262	7.6060088	7.7986612	0.31452247	7.6374762	6.6226958	0.13691899	0.34121494	1.2549519	0.39411337	0.20099233	7.6852554	0.36247874	1.35009	-4610.0486	R0:S0:1	-106.32	uncorrelated	51514b8	1	sharp_wc_2.0_b_50	 8.60e+01	 4.28e-01	2022-04-11@13:09
2x2_2C_8b_C2v_L	7.0233375	0.1	14	1.77	-371.46519	-104.03158	-661.13513	-633.13366	-173.18068	699.60899	-541.04978	-28.435617	15.08	1.7328241	-7.0627503	38.776245	-41.23107	-3.9212263	8.9595666	-4.4851014	-3.087744	-14.005852	-0.96258606	42.561246	38.335676	-7.5687299	13.356521	16.153592	-1.235997	1.13	0.62	0.188	-0.12951888	1.333132	1.9930026	-0.0048139568	-0.0002968652	0.00023662896	-0.19825883	0.94431372	1.9997175	1.9647728	1.9676329	1.974066	1.9973765	0.0032537536	1.9991772	1.9144273	1.9436737	-0.071273618	1.0502238	-0.98915818	0.88629075	0.28676725	-0.032108174	0.1301797	1.6096973	0.0080831717	0.0046519239	-0.11990086	0.080316246	-0.027468686	-0.32050512	-0.020275695	0.014143529	0.45932205	0.015409336	0.00028329907	0.034600001	0.032242176	0.026029753	0.0026416013	0.003249959	0.00082423608	0.08221367	0.0159499	7.856402	7.4430582	7.2995858	7.4160373	7.8726911	0.14115153	7.6513783	6.6749045	0.14359492	0.55333458	0.70004496	0.5836423	0.12713675	7.8587949	0.3485865	1.304928	-5138.0715	R0:S0:1	-106.48	uncorrelated	51514b8	2	sharp_wc_2.0_b_50	 8.73e+01	 4.13e-03	2022-04-11@13:19
2x2_2C_8b_C2v_L	7.0295843	0.1	14	1.77	-391.92674	-124.50654	-753.32347	-721.11872	-212.63432	742.6655	-572.60643	-40.625413	15.1	15.581799	-9.2127837	-3.0839589	-81.077137	-0.95620438	2.4026673	-5.1741709	-4.0039881	-16.652612	-8.9479105	83.327731	-3.0315525	6.9007846	-9.6718987	17.592423	-1.6149471	1.13	0.62	0.188	-0.11901695	1.3331684	1.9941276	-0.0039824658	-0.00023835029	0.0001938603	-0.1752886	0.93815909	1.9876572	1.9587665	1.9985212	1.9075066	1.9995833	0.0012830236	1.9991313	1.9280622	1.9372797	-0.6158871	1.1208122	-0.099818266	1.6616042	0.11467869	0.017230599	0.14019242	1.4822588	0.015994817	0.010556258	-0.050765705	0.16487904	-0.0099833878	0.20178113	-0.016789622	0.016127949	0.45782933	0.016186501	0.012347512	0.041159703	0.0014936529	0.088215658	0.00041827628	0.0012822929	0.00087052194	0.069605234	0.016897205	7.6468033	7.3179285	7.5485982	6.5500245	7.9288047	0.079886907	7.7041864	6.8802936	0.35290606	0.67887381	0.45148255	1.4490688	0.071182913	7.9200909	0.29579019	1.1058895	-5784.2767	R0:S0:1	-106.64	uncorrelated	51514b8	1	sharp_wc_2.0_b_50	 7.91e+01	 4.14e-01	2022-04-11@13:27
2x2_2C_8b_C2v_L	7.0328504	0.1	14	1.77	-414.59474	-151.41686	-862.28902	-826.09468	-258.98456	787.84987	-605.05771	-55.490132	15.12	13.548976	-4.2889382	-47.025172	-89.941293	4.1451387	-7.3965338	-8.9388213	-6.2088447	-7.40438	-8.5414697	92.266391	-46.214686	23.701622	-40.393605	22.423672	-2.962076	1.13	0.62	0.188	-0.11333956	1.3331867	1.9946981	-0.0035626026	-0.00020913249	0.00017227685	-0.16622853	0.93483686	1.991655	1.993661	1.9846485	1.906227	1.9994097	0.020922152	1.9978627	1.9079701	1.9338267	-0.51452159	0.44588232	0.6497026	1.6617162	-0.12942519	0.068252032	0.22972354	1.6624602	-0.00013243334	0.0040275495	0.015036465	0.17802091	0.006728394	0.81011459	-0.026988021	0.01752855	0.45198541	0.016642982	0.0083204943	0.0063968474	0.015851964	0.090038568	0.00060807546	0.020704479	0.002143212	0.088547909	0.01744135	7.8422526	7.866093	7.3749041	6.4730344	7.8568202	0.38565007	7.6086525	6.5934737	0.15749628	0.13340021	0.62504744	1.5262632	0.1432123	7.6140433	0.39130498	1.3948006	-6536.774	R0:S0:1	-106.8	uncorrelated	51514b8	1	sharp_wc_2.0_b_50	 7.46e+01	 1.86e+00	2022-04-11@13:34
2x2_2C_8b_C2v_L	7.0334215	0.1	14	1.77	-439.40337	-184.57102	-989.4636	-949.52726	-316.99724	837.18004	-638.58479	-74.423896	15.14	-3.9085033	10.245308	-82.80049	-60.396883	7.365296	-12.185086	-12.985282	-8.301933	16.444108	2.6353792	61.943722	-81.493076	28.747783	-45.863551	25.919849	-4.7294139	1.13	0.62	0.188	-0.11241535	1.3331903	1.9947987	-0.0034841477	-0.00020306974	0.00016804958	-0.16764014	0.93710106	1.9993377	1.9760749	1.9552392	1.9617291	1.9980314	0.024126671	1.9962782	1.9081832	1.936157	0.13730573	-0.86809246	1.1579156	1.0635422	-0.241575	0.073952278	0.31549822	1.655927	-0.0045379377	-0.0052612555	0.08702191	0.12591876	0.014514309	0.8686808	-0.030320153	0.018691415	0.4562396	0.01628708	0.0006653281	0.023652342	0.044551605	0.038403229	0.0020285921	0.02384372	0.0037334296	0.08878835	0.017045436	7.8948318	7.6185354	7.1417574	7.1636168	7.8261553	0.4417535	7.5869835	6.6013975	0.10515337	0.37994791	0.85791556	0.83611612	0.17382447	7.5579238	0.41296531	1.3897282	-7370.7408	R0:S0:1	-106.96	uncorrelated	51514b8	1	sharp_wc_2.0_b_50	 7.38e+01	 2.49e+00	2022-04-11@13:42
