model	D	U	e	eb1_1	eb2_1	eb3_1	eb4_1	eb5_1	eb6_1	eb7_1	eb8_1	mu	sb1_1	sb2_1	sb3_1	sb4_1	sb5_1	sb6_1	sb7_1	sb8_1	tb1_1	tb2_1	tb3_1	tb4_1	tb5_1	tb6_1	tb7_1	tb8_1	tpd	tpp	tppp	ave_D_1	ave_U_1	ave_eb1_1	ave_eb2_1	ave_eb3_1	ave_eb4_1	ave_eb5_1	ave_eb6_1	ave_eb7_1	ave_eb8_1	ave_mu_1	ave_sb1_1	ave_sb2_1	ave_sb3_1	ave_sb4_1	ave_sb5_1	ave_sb6_1	ave_sb7_1	ave_sb8_1	ave_tb1_1	ave_tb2_1	ave_tb3_1	ave_tb4_1	ave_tb5_1	ave_tb6_1	ave_tb7_1	ave_tb8_1	var_D_1	var_U_1	var_eb1_1	var_eb2_1	var_eb3_1	var_eb4_1	var_eb5_1	var_eb6_1	var_eb7_1	var_eb8_1	var_mu_1	var_sb1_1	var_sb2_1	var_sb3_1	var_sb4_1	var_sb5_1	var_sb6_1	var_sb7_1	var_sb8_1	var_tb1_1	var_tb2_1	var_tb3_1	var_tb4_1	var_tb5_1	var_tb6_1	var_tb7_1	var_tb8_1	E0_1	sector_1	E0_2	sector_2	githash	distance	diff_param	diff_hybrid	time
2x2_2C_8b_C2v_L	0.1	14	1.64	-0.29523099	-9.1937938	-9.8374468	0.46413404	-9.835484	0.4796692	0.68394798	-9.4992958	13.5	-0.035676208	-0.00013214595	0.0022816693	-0.012986529	0.0021585074	-0.013307552	0.0031887004	-0.0008802989	0.00075694774	-0.85200426	1.265421	0.049781925	-1.2653136	-0.050815292	0.0689841	-1.5934821	1.34	0.647	0.133	-0.14588245	0.062273355	1.9998669	1.9776679	1.9498341	0.00090460807	1.9498276	0.00092346537	0.00015121914	1.9044852	1.0617275	0.035526565	7.1519043e-05	-0.1350242	0.10442479	-0.13495852	0.10559782	-0.015952011	0.00034727999	-0.0031712998	0.55033637	-0.86626061	-0.053072733	0.86632539	0.053902269	-0.041036653	1.2567757	0.67987501	0.016213563	0.00013438244	0.022260532	0.049583853	0.00091734293	0.04959032	0.00093612437	0.00015178896	0.092574895	0.0161758	4.6093522	4.7695529	4.6118431	3.7410132	4.6118348	3.7411052	4.1360652	4.5823752	3.3923963	3.4308275	3.7672885	4.2653395	3.7673351	4.2653725	3.8652427	4.0293428	-133.80301	R0:S0:1	-94.88	uncorrelated	51514b8	 8.08e+01	 0.00e+00	 1.00e+06	2022-04-11@05:48
2x2_2C_8b_C2v_L	0.1	14	1.64	-0.29523099	-9.1937938	-9.8374468	0.46413404	-9.835484	0.4796692	0.68394798	-9.4992958	13.52	-0.035676208	-0.00013214595	0.0022816693	-0.012986529	0.0021585074	-0.013307552	0.0031887004	-0.0008802989	0.00075694774	-0.85200426	1.265421	0.049781925	-1.2653136	-0.050815292	0.0689841	-1.5934821	1.34	0.647	0.133	-0.14838273	0.062745136	1.9998623	1.9776075	1.9497022	0.00093826738	1.9496953	0.00095750553	0.00015191773	1.9041198	1.062198	0.035721974	7.5139849e-05	-0.13758685	0.10644502	-0.13752159	0.10762381	-0.016142303	0.00034202469	-0.0032040051	0.55086247	-0.86706972	-0.053710754	0.86713865	0.054542554	-0.040998874	1.2592988	0.67887574	0.016379698	0.00013907668	0.022320906	0.049714038	0.00095154205	0.049720791	0.00097069661	0.00015250474	0.092916217	0.016341713	4.6120955	4.772642	4.6148492	3.7381047	4.6148294	3.7382116	4.136863	4.5843518	3.3897428	3.4284778	3.7650063	4.2684924	3.7650649	4.2685127	3.8644549	4.0294337	-133.88796	R0:S0:1	-95.04	uncorrelated	51514b8	 8.44e+01	 5.01e-04	 1.00e+06	2022-04-11@05:51
2x2_2C_8b_C2v_L	0.1	14	1.64	-0.29533716	-9.1938315	-9.8375876	0.46419277	-9.8356085	0.4797295	0.6839644	-9.4994641	13.54	-0.036098007	-0.00023537494	0.0024934662	-0.013060356	0.0023408121	-0.013333833	0.0028264405	-0.00073219895	0.00058120521	-0.85094972	1.2628444	0.050877918	-1.2630774	-0.051642268	0.070056672	-1.5907023	1.34	0.647	0.133	-0.15151302	0.063124961	1.999853	1.9775784	1.9497666	0.0010069044	1.949709	0.0010193727	0.00015389498	1.9040697	1.0625775	0.036368035	0.00025823719	-0.14055061	0.1101637	-0.1405826	0.11098229	-0.014562928	8.0289367e-05	-0.0024384598	0.551146	-0.86612578	-0.05553278	0.86675731	0.056092149	-0.041614315	1.2596851	0.67775748	0.016541763	0.00014850984	0.022350117	0.049652764	0.0010218435	0.049708527	0.0010339367	0.00015447976	0.092964015	0.016504727	4.6131005	4.7737934	4.6168262	3.7346128	4.6161186	3.7358133	4.1372994	4.5845566	3.3888985	3.4277588	3.7622777	4.2724634	3.7632582	4.271338	3.864053	4.0298633	-133.96605	R0:S0:1	-95.2	uncorrelated	51514b8	 8.85e+01	 1.52e-04	 1.00e+06	2022-04-11@05:55
2x2_2C_8b_C2v_L	0.1	14	1.64	-0.29552747	-9.1938861	-9.8375437	0.46431504	-9.8356193	0.47984113	0.6840012	-9.4994853	13.56	-0.036986444	-0.00015834298	0.0021133668	-0.013387439	0.0021275011	-0.013578536	0.0021921891	-0.00073104864	0.00037469332	-0.84929179	1.2629541	0.051505961	-1.2624452	-0.052304473	0.071038932	-1.5891809	1.34	0.647	0.133	-0.15421218	0.063584709	1.9998392	1.9775943	1.9496096	0.0010911307	1.949654	0.0010956131	0.00015321278	1.9038518	1.0630349	0.037514698	-8.5918301e-06	-0.14324059	0.1148116	-0.14313988	0.11503317	-0.011366051	0.00039440636	-0.0016391054	0.55077425	-0.86722912	-0.057151171	0.86673895	0.057688269	-0.042148035	1.2612862	0.67662631	0.016713419	0.00016263818	0.022334665	0.049807111	0.0011077555	0.049764338	0.0011116834	0.00015375175	0.093167338	0.016676809	4.6153821	4.775829	4.6192358	3.7323385	4.6198372	3.7314747	4.1384868	4.585223	3.3868378	3.425799	3.760599	4.2753378	3.7597983	4.2762263	3.8628812	4.0304971	-134.04837	R0:S0:1	-95.36	uncorrelated	51514b8	 9.29e+01	 1.99e-04	 1.00e+06	2022-04-11@05:58
2x2_2C_8b_C2v_L	0.1	14	1.64	-0.29581662	-9.1939026	-9.8376221	0.46448628	-9.8356663	0.4799981	0.68405886	-9.4993923	13.58	-0.037841329	-1.1485912e-05	0.0022619433	-0.013904048	0.0021590314	-0.014028182	0.0014999013	-0.0001223293	0.00012737455	-0.84831216	1.2608738	0.053012712	-1.2610623	-0.053409206	0.071894237	-1.5886052	1.34	0.647	0.133	-0.15764462	0.064137422	1.9998221	1.9775851	1.9496623	0.0012249107	1.9496047	0.0012174333	0.00015351737	1.9035192	1.0635834	0.038748251	0.00023736427	-0.14649595	0.1215862	-0.14657413	0.12128624	-0.0080139024	-0.00027816307	-0.0004509009	0.55062997	-0.86623098	-0.060003135	0.86686592	0.060118727	-0.042616863	1.2636904	0.67527376	0.016925733	0.0001801037	0.022344279	0.049758019	0.0012446626	0.049813675	0.0012360443	0.00015402849	0.093477592	0.016889731	4.6186897	4.7790247	4.6224342	3.7274589	4.6216805	3.728754	4.140026	4.5864185	3.3838068	3.4229738	3.7567771	4.2811723	3.7578037	4.2798074	3.8613651	4.0312383	-134.1302	R0:S0:1	-95.52	uncorrelated	51514b8	 9.78e+01	 2.23e-04	 1.00e+06	2022-04-11@06:01
2x2_2C_8b_C2v_L	0.1	14	1.64	-0.29640386	-9.1938181	-9.8375461	0.46486313	-9.8356359	0.48032074	0.68417008	-9.4993226	13.6	-0.038551914	9.1373899e-05	0.0018018094	-0.014835549	0.0018389742	-0.014931294	0.00011185157	-0.00023720313	-0.00024276773	-0.84899404	1.2606978	0.053967455	-1.2604564	-0.054565793	0.073150032	-1.5865188	1.34	0.647	0.133	-0.16067278	0.064689507	1.999805	1.9774694	1.9495405	0.0013983288	1.9495565	0.0013883234	0.00015602592	1.9034028	1.0641352	0.039818423	-0.00017943499	-0.14945879	0.13020971	-0.14942249	0.12967274	-0.00054228214	0.00028661865	0.0010636901	0.5519359	-0.86693837	-0.06278812	0.86672614	0.063055587	-0.043357695	1.2644731	0.67390153	0.017128651	0.00019753771	0.022459403	0.049878315	0.0014215573	0.049863009	0.0014103186	0.0001565197	0.093587669	0.017093848	4.620206	4.7812201	4.6251898	3.724309	4.6257004	3.7237814	4.140243	4.5872985	3.3825617	3.4219754	3.7543968	4.2855627	3.7538556	4.286002	3.8611918	4.0314022	-134.21336	R0:S0:1	-95.68	uncorrelated	51514b8	 1.03e+02	 1.29e-04	 1.00e+06	2022-04-11@06:04
2x2_2C_8b_C2v_L	0.1	14	1.64	-0.29715605	-9.1937534	-9.8375194	0.4653495	-9.8356188	0.48074081	0.68432182	-9.4990743	13.62	-0.039663827	0.00024766364	0.0015065074	-0.015910685	0.0014629826	-0.015972838	-0.0012648672	0.00052402378	-0.00063353398	-0.84891987	1.2594284	0.055234005	-1.2594157	-0.055853806	0.073952874	-1.5859306	1.34	0.647	0.133	-0.16415104	0.065342547	1.9997792	1.9774127	1.9495348	0.0016198267	1.9495128	0.0016067876	0.00016350799	1.9030767	1.0647847	0.041444838	-5.3557996e-05	-0.15271362	0.14029253	-0.15274931	0.13964338	0.0067975826	-0.00029721886	0.0029191169	0.55236241	-0.86643553	-0.066296793	0.86665377	0.066555334	-0.043808108	1.2668071	0.67235984	0.017368711	0.00022383202	0.022516227	0.049886174	0.0016477456	0.049907605	0.0016332169	0.00016409727	0.09389215	0.01733471	4.6236982	4.784863	4.6287472	3.7193381	4.6286616	3.7197023	4.1416231	4.5886	3.3794687	3.4191253	3.7505159	4.2921315	3.7507349	4.2916441	3.8598796	4.0320619	-134.29698	R0:S0:1	-95.84	uncorrelated	51514b8	 1.09e+02	 3.62e-04	 1.00e+06	2022-04-11@06:07
2x2_2C_8b_C2v_L	0.1	14	1.64	-0.29852274	-9.1938032	-9.8374874	0.46629301	-9.8356041	0.48155394	0.68459643	-9.4988299	13.64	-0.041277366	0.00023318296	0.0014145618	-0.016777077	0.0012894503	-0.016968323	-0.0026202994	0.00065520077	-0.00073393679	-0.84540802	1.2578107	0.054638439	-1.2580551	-0.055581827	0.073799567	-1.5837829	1.34	0.647	0.133	-0.16774135	0.065925297	1.9997467	1.9775322	1.9495449	0.0017815425	1.9494996	0.0017902523	0.00017352744	1.9028779	1.0653657	0.043607783	-0.00015299324	-0.15614346	0.14758012	-0.15618269	0.14790309	0.01440327	-0.00018648374	0.003335954	0.55064427	-0.86583565	-0.067981532	0.86628135	0.068650005	-0.043655147	1.2684695	0.67080233	0.017599757	0.00025717843	0.022398065	0.049878566	0.0018112337	0.049922578	0.0018190783	0.00017431427	0.094076507	0.017565637	4.6271472	4.7871673	4.6318883	3.7148354	4.6317257	3.7153959	4.1440038	4.5881083	3.3765294	3.4160991	3.7469154	4.2978512	3.7473339	4.2973064	3.8575656	4.0336887	-134.37746	R0:S0:1	-96	uncorrelated	51514b8	 1.15e+02	 4.29e-04	 1.00e+06	2022-04-11@06:10
2x2_2C_8b_C2v_L	0.1	14	1.64	-0.30049177	-9.1935592	-9.837382	0.46753592	-9.835567	0.48263737	0.6849008	-9.4983982	13.66	-0.040112578	0.00024164887	0.0013268544	-0.017695203	0.0011691825	-0.01795874	-0.00349503	0.0010148397	-0.00055368889	-0.84763705	1.2567465	0.054117433	-1.2566434	-0.055309672	0.073658007	-1.5823284	1.34	0.647	0.133	-0.17128012	0.066588455	1.9997485	1.9773408	1.9495045	0.0019554786	1.9495057	0.0019780419	0.00018510754	1.9027014	1.0660328	0.042811277	-0.00021687192	-0.1596124	0.15519703	-0.1595404	0.15602557	0.019478543	-0.0002432625	0.0024679475	0.55282935	-0.86572201	-0.069807899	0.86567341	0.070777809	-0.043592333	1.2696251	0.66920132	0.017847232	0.00025512846	0.022588548	0.049919834	0.0019869704	0.049918838	0.0020091319	0.0001861099	0.094243197	0.017813328	4.6290775	4.7904678	4.6349173	3.7107362	4.6352251	3.7104623	4.1439931	4.5896117	3.3746188	3.4147217	3.7436456	4.303228	3.7433611	4.3036162	3.8576576	4.0336729	-134.46247	R0:S0:1	-96.16	uncorrelated	51514b8	 1.21e+02	 3.93e-04	 1.00e+06	2022-04-11@06:13
2x2_2C_8b_C2v_L	0.1	14	1.64	-0.30321396	-9.1935042	-9.8372414	0.46916585	-9.8354758	0.48407333	0.68518726	-9.4978028	13.68	-0.041372337	-1.8031657e-05	0.0011006346	-0.018271895	0.00095650354	-0.01858018	-0.0032582128	0.0010855285	1.9775799e-05	-0.84447604	1.2554378	0.055005892	-1.2555753	-0.05567714	0.074421745	-1.5807605	1.34	0.647	0.133	-0.17522037	0.067284038	1.9997158	1.9774485	1.9495094	0.002158512	1.9494725	0.0021710499	0.0001867674	1.9024213	1.0667244	0.044737036	3.834396e-05	-0.16334207	0.16289821	-0.16337326	0.16349733	0.018396167	-0.00044813167	-0.00021592002	0.55119074	-0.86504881	-0.07292107	0.86542515	0.073432482	-0.043973143	1.2718702	0.66740058	0.018118661	0.00028861219	0.022482138	0.049917863	0.0021939507	0.04995362	0.0022051721	0.00018777618	0.09450324	0.018085104	4.6333212	4.793636	4.6388817	3.7051532	4.6386265	3.7057631	4.1467898	4.5894011	3.3709041	3.4109922	3.7392366	4.3102929	3.7396811	4.3097248	3.8548933	4.0354672	-134.54602	R0:S0:1	-96.32	uncorrelated	51514b8	 1.29e+02	 3.83e-04	 1.00e+06	2022-04-11@06:16
2x2_2C_8b_C2v_L	0.1	14	1.64	-0.30683613	-9.1931508	-9.8369816	0.47122558	-9.8353259	0.48586537	0.6854182	-9.4969363	13.7	-0.041460329	-0.00027319562	0.0010597188	-0.01858443	0.0010160199	-0.018910411	-0.0018455976	0.00048037633	0.00078049089	-0.84644469	1.2551292	0.057098135	-1.2547498	-0.0574798	0.076024172	-1.5801834	1.34	0.647	0.133	-0.17947051	0.068133164	1.9996942	1.9772817	1.9494191	0.0023925827	1.9494548	0.0023899211	0.00018182733	1.9021034	1.0675707	0.045467001	-4.729018e-05	-0.16767423	0.17096887	-0.16756295	0.17104572	0.010691934	7.7363557e-05	-0.0039570729	0.55294321	-0.86524687	-0.077157977	0.86483985	0.077352743	-0.044924694	1.2740851	0.66536355	0.018433433	0.00031060266	0.022648362	0.050008257	0.0024344191	0.04997395	0.0024295207	0.00018266697	0.094801207	0.018401389	4.6369224	4.7982192	4.6428158	3.6999143	4.6434227	3.6991977	4.1478473	4.5910913	3.3676653	3.4082303	3.7352597	4.3171525	3.7345159	4.3178286	3.8538496	4.0359907	-134.63531	R0:S0:1	-96.48	uncorrelated	51514b8	 1.37e+02	 3.73e-04	 1.00e+06	2022-04-11@06:20
2x2_2C_8b_C2v_L	0.1	14	1.64	-0.31133478	-9.1929721	-9.8367272	0.47378932	-9.8351152	0.4880732	0.68562042	-9.4959651	13.72	-0.04427101	-0.00054833532	0.00065870407	-0.018105542	0.00046465696	-0.018517842	0.00063458661	-0.00022382975	0.0014521841	-0.8433108	1.2542084	0.059281348	-1.2545321	-0.059241695	0.077630889	-1.5790148	1.34	0.647	0.133	-0.18366589	0.068913246	1.9996257	1.9773943	1.949414	0.0025360243	1.9493553	0.0025304048	0.00018335553	1.9017524	1.0683428	0.049259421	0.00031952121	-0.17161278	0.17486992	-0.17166503	0.17515372	-0.0036397474	5.2942241e-05	-0.0071053805	0.55118006	-0.86453428	-0.080689942	0.86515865	0.080515451	-0.045780293	1.2768494	0.6633747	0.018738941	0.00038089453	0.022537237	0.050016833	0.0025835293	0.050073791	0.0025747701	0.00018415493	0.095126916	0.018708145	4.6422719	4.8021307	4.6477123	3.6932357	4.6471013	3.6944496	4.1511243	4.5910077	3.3633836	3.40376	3.730064	4.3248264	3.7309693	4.323549	3.8506186	4.0380128	-134.72262	R0:S0:1	-96.64	uncorrelated	51514b8	 1.48e+02	 3.64e-04	 1.00e+06	2022-04-11@06:23
2x2_2C_8b_C2v_L	0.1	14	1.64	-0.31702701	-9.1925181	-9.836402	0.47695766	-9.8349575	0.4907487	0.68575125	-9.494856	13.74	-0.045125438	-0.00074328655	0.0014903777	-0.017619437	0.0014528039	-0.018057872	0.0037910431	-0.0011672008	0.0016192575	-0.84480669	1.2541437	0.060390348	-1.2534804	-0.061213313	0.078521747	-1.5777485	1.34	0.647	0.133	-0.18879796	0.069874716	1.9995859	1.9772526	1.9493025	0.0026433893	1.9493573	0.0026695993	0.00021930874	1.9014927	1.0693021	0.050985888	0.00044659882	-0.17721785	0.17787394	-0.17704837	0.17905421	-0.022346029	0.0003016276	-0.0078063895	0.55259337	-0.86481133	-0.083387739	0.86428468	0.084050496	-0.04631315	1.2787444	0.66093817	0.019112349	0.000421597	0.022678689	0.050128235	0.0026942164	0.050075077	0.0027193094	0.00022082194	0.095370515	0.019083197	4.6464192	4.8069311	4.65225	3.6872441	4.6523922	3.686836	4.152512	4.592006	3.3599072	3.4006491	3.7254811	4.3315039	3.7250227	4.3321039	3.8494779	4.0390113	-134.81432	R0:S0:1	-96.8	uncorrelated	51514b8	 1.59e+02	 6.44e-04	 1.00e+06	2022-04-11@06:26
2x2_2C_8b_C2v_L	0.1	14	1.64	-0.32469478	-9.1921677	-9.8362363	0.48103589	-9.8348692	0.49419883	0.68563121	-9.4937591	13.76	-0.046312969	0.00024389069	0.0014608206	-0.017727555	0.0013360309	-0.017741919	0.0045967399	-0.0013434373	-0.00031603502	-0.84184771	1.2518423	0.058607394	-1.2521269	-0.059522926	0.076452433	-1.574909	1.34	0.647	0.133	-0.1931269	0.070585247	1.9995509	1.9773435	1.9493946	0.0026795139	1.9493385	0.0026600672	0.00022678286	1.9013557	1.0700158	0.052918229	0.00015424205	-0.18120568	0.17967462	-0.18128596	0.17898414	-0.027708816	0.00013508583	0.001937028	0.55120781	-0.86331776	-0.08337582	0.8639262	0.083735591	-0.04503102	1.2800361	0.65896088	0.019414747	0.00045755948	0.022588944	0.050041686	0.0027270628	0.050096045	0.0027062331	0.00022853522	0.095497553	0.019384748	4.6502456	4.8097987	4.6561454	3.6812775	4.6554695	3.6824614	4.1550142	4.5910445	3.3567209	3.3973908	3.7205464	4.3378282	3.7215021	4.3364673	3.8469936	4.0409874	-134.90313	R0:S0:1	-96.96	uncorrelated	51514b8	 1.72e+02	 9.70e-04	 1.00e+06	2022-04-11@06:29
2x2_2C_8b_C2v_L	0.1	14	1.64	-0.33455011	-9.1914617	-9.8359111	0.48552179	-9.8346732	0.4979269	0.6845852	-9.4921134	13.78	-0.04707796	0.00069967212	-0.00051743629	-0.021053693	-0.00071159697	-0.020710166	0.0019440985	-0.00057558919	-0.0019302433	-0.84396681	1.2514835	0.063241387	-1.2523482	-0.063162706	0.080875592	-1.5754317	1.34	0.647	0.133	-0.198019	0.071993373	1.9994805	1.977191	1.9494259	0.0036716408	1.9493048	0.0035432287	0.00021368291	1.9008389	1.0714142	0.05519518	-7.6004784e-06	-0.18530279	0.20998664	-0.18559804	0.20612389	-0.012153658	-0.00025921502	0.0099439999	0.5524988	-0.86190116	-0.095826768	0.86314362	0.094806436	-0.047647182	1.283835	0.65582169	0.019889624	0.00052899606	0.022741487	0.050015965	0.0037431182	0.050133623	0.0036085243	0.00021493594	0.095979294	0.019862643	4.6574542	4.817518	4.6633544	3.6708675	4.6624386	3.6728937	4.1582622	4.5924147	3.3505156	3.3915729	3.7122758	4.3553236	3.7138847	4.3523023	3.843776	4.0427389	-135.00607	R0:S0:1	-97.12	uncorrelated	51514b8	 1.87e+02	 7.83e-04	 1.00e+06	2022-04-11@06:32
2x2_2C_8b_C2v_L	0.1	14	1.64	-0.34645775	-9.1908892	-9.8357548	0.49108305	-9.8347872	0.50246431	0.68318302	-9.4906837	13.8	-0.049779715	0.0011154143	6.1829576e-05	-0.022718788	0.00014710611	-0.022878879	-0.0021387323	0.00061892673	-0.0021605729	-0.84126217	1.2499752	0.060790494	-1.2497434	-0.062034487	0.079465196	-1.5730195	1.34	0.647	0.133	-0.20405701	0.073240309	1.9993837	1.9772875	1.9494574	0.0040400114	1.9494822	0.0040637454	0.00020978263	1.9006005	1.0726616	0.059508473	-0.00070356498	-0.19157029	0.22130301	-0.19151444	0.22170702	0.013238703	-2.1582631e-05	0.01071974	0.55083314	-0.86071657	-0.098690149	0.86040998	0.099717452	-0.046760899	1.2860497	0.6525737	0.020373079	0.00062827614	0.022646487	0.049988708	0.0041083149	0.049964818	0.0041318883	0.00021103955	0.096200343	0.020345993	4.6643304	4.8229069	4.6684651	3.6633194	4.6690891	3.6625567	4.1625836	4.5907996	3.3451739	3.3859653	3.7058456	4.365673	3.7051337	4.3665255	3.8394249	4.0460116	-135.10437	R0:S0:1	-97.28	uncorrelated	51514b8	 2.05e+02	 9.22e-04	 1.00e+06	2022-04-11@06:35
2x2_2C_8b_C2v_L	0.1	14	1.64	-0.36214685	-9.1899765	-9.8356944	0.49694052	-9.835036	0.50716375	0.67964119	-9.4891255	13.82	-0.049670181	-0.001380296	-0.0003398231	-0.021715531	-0.00034256866	-0.022139387	-0.0040415671	0.0011842491	0.0028440709	-0.84334071	1.2503748	0.065567708	-1.2498547	-0.064615484	0.081179504	-1.5720201	1.34	0.647	0.133	-0.20953166	0.074480743	1.9993426	1.9771223	1.9493683	0.0043476962	1.9494423	0.0042763776	0.0002532404	1.9002843	1.0738974	0.060450387	0.00013996915	-0.1970822	0.22737447	-0.19685361	0.22608054	0.02599934	0.00033675354	-0.014936811	0.55238857	-0.86053689	-0.10570904	0.85971676	0.1045149	-0.047817324	1.288416	0.64954755	0.020841717	0.00066916322	0.022811623	0.050079973	0.0044326283	0.050008622	0.004353379	0.00025539339	0.096496229	0.020817176	4.669933	4.8294262	4.6746182	3.6546581	4.6757307	3.653409	4.164751	4.5916301	3.3401944	3.3814858	3.6994288	4.3762723	3.6980649	4.3770296	3.837571	4.0475373	-135.21777	R0:S0:1	-97.44	uncorrelated	51514b8	 2.25e+02	 7.47e-04	 1.00e+06	2022-04-11@06:38
2x2_2C_8b_C2v_L	0.1	14	1.64	-0.38042229	-9.1891481	-9.836003	0.50377656	-9.8355855	0.51234868	0.67486663	-9.4876084	13.84	-0.053436203	-0.0017884549	0.00079500823	-0.020678677	-5.0414696e-05	-0.021644116	-0.0045208255	0.0014238879	0.0041767035	-0.84092529	1.2481436	0.062902726	-1.2486683	-0.064436469	0.080065114	-1.570511	1.34	0.647	0.133	-0.21565719	0.075655713	1.9991985	1.9772105	1.9494858	0.0041478029	1.9494522	0.004348362	0.00026196386	1.8999341	1.0750707	0.065961585	0.00047617744	-0.20335229	0.22184101	-0.20299188	0.22793385	0.029715033	0.00016762529	-0.021535626	0.55077184	-0.85842796	-0.10416269	0.85880347	0.10648494	-0.047100375	1.2913519	0.64646212	0.021330149	0.00081703448	0.022724965	0.049970172	0.0042200323	0.050003023	0.0044249142	0.00026439482	0.096821105	0.021305691	4.677811	4.8354946	4.6807937	3.6456623	4.680303	3.6462234	4.1690902	4.5907962	3.3345523	3.3753073	3.6918703	4.383968	3.6924593	4.3847562	3.8332759	4.0506381	-135.33102	R0:S0:1	-97.6	uncorrelated	51514b8	 2.54e+02	 1.24e-03	 1.00e+06	2022-04-11@06:41
2x2_2C_8b_C2v_L	0.1	14	1.64	-0.38083151	-9.1891323	-9.8360281	0.50339394	-9.8356785	0.51202122	0.67415767	-9.4876614	13.84	-0.052554417	-0.00043204908	-0.0004827072	-0.022662502	-0.00022576899	-0.022736698	-0.0022517161	0.00071224041	0.00094374706	-0.84171907	1.249169	0.065339634	-1.248932	-0.065468344	0.081422517	-1.5708281	1.34	0.647	0.133	-0.21577393	0.075903333	1.9992448	1.9771734	1.9494479	0.0047571442	1.9494806	0.0046967897	0.00022692431	1.8998901	1.0753157	0.065186367	-6.8324441e-05	-0.20313089	0.23785328	-0.20309941	0.23642637	0.014761423	0.00014279038	-0.0050700023	0.55114708	-0.85863174	-0.11049569	0.85824639	0.11012502	-0.047873535	1.2917196	0.64598208	0.021386368	0.00076928384	0.022762029	0.050007573	0.0048447844	0.04997605	0.0047804587	0.00022850161	0.096862048	0.021362873	4.6782714	4.8366053	4.6817352	3.6443137	4.6824277	3.6435718	4.1697641	4.5906483	3.3335102	3.3745918	3.690856	4.3896065	3.6900886	4.3898811	3.8324303	4.0510209	-135.33479	R0:S0:1	-97.6	uncorrelated	51514b8	 2.53e+02	 0.00e+00	 8.81e-04	2022-04-11@06:44
2x2_2C_8b_C2v_L	0.1	14	1.64	-0.4025918	-9.1881291	-9.8364572	0.51012148	-9.8365495	0.51702752	0.66689709	-9.4861607	13.86	-0.054141098	0.00090878865	-0.0018625096	-0.024938971	-0.00026327643	-0.023942396	0.0010199798	-0.0002410824	-0.0021748986	-0.84165358	1.249445	0.068635879	-1.2485168	-0.067766453	0.083190407	-1.5700027	1.34	0.647	0.133	-0.22251731	0.077746106	1.9991351	1.9771509	1.9494651	0.005825325	1.9495512	0.0054585991	0.00023000353	1.8994528	1.0771509	0.068901652	-0.00044996449	-0.20944785	0.26265721	-0.20986324	0.25347251	-0.0069504851	-2.4262054e-05	0.010930484	0.55065764	-0.85705002	-0.12260052	0.85603944	0.11970426	-0.048910228	1.295367	0.64159213	0.02204576	0.00088030597	0.022785741	0.049996919	0.0059362772	0.049913324	0.005557427	0.00023154353	0.097268205	0.02202484	4.6881344	4.8458638	4.6904071	3.6317741	4.6921643	3.6298545	4.1752913	4.5896331	3.3252681	3.3663874	3.6806806	4.4096368	3.6787526	4.4089643	3.8269919	4.05486	-135.46222	R0:S0:1	-97.76	uncorrelated	51514b8	 2.88e+02	 8.85e-04	 1.00e+06	2022-04-11@06:47
2x2_2C_8b_C2v_L	0.1	14	1.64	-0.42779638	-9.1870754	-9.837617	0.51734017	-9.8379899	0.52190059	0.65693776	-9.4850186	13.88	-0.058041353	0.0027387631	-0.00059983724	-0.025373581	-0.0012862154	-0.024597813	0.006084955	-0.0020493836	-0.0051381891	-0.84097455	1.2457129	0.065009813	-1.2470209	-0.066611217	0.08145391	-1.5676574	1.34	0.647	0.133	-0.22900519	0.07919936	1.9989336	1.9771458	1.9497603	0.0058546571	1.9496178	0.0057899288	0.00033407395	1.8992307	1.0786071	0.075038775	-0.00053797547	-0.21565435	0.26401144	-0.21593626	0.26165041	-0.0421231	-0.00044883502	0.026536323	0.55012964	-0.85308903	-0.12267681	0.85454813	0.12340991	-0.048000153	1.2974388	0.63792906	0.022622903	0.0010859022	0.022791919	0.049714347	0.0059481914	0.04985304	0.0058869103	0.00033832611	0.097474658	0.022602119	4.6967681	4.8530574	4.6979807	3.6202049	4.6968409	3.6220729	4.179227	4.5881811	3.3195331	3.3599678	3.6704486	4.4216731	3.67234	4.4191883	3.8236446	4.0580782	-135.59182	R0:S0:1	-97.92	uncorrelated	51514b8	 3.30e+02	 1.20e-03	 1.00e+06	2022-04-11@06:50
2x2_2C_8b_C2v_L	0.1	14	1.64	-0.42795518	-9.1871067	-9.8376444	0.51680283	-9.8380862	0.52142295	0.65621235	-9.4850787	13.88	-0.057075318	0.00093954505	-0.0012652206	-0.02520581	-0.0011413455	-0.025053985	0.0034077773	-0.0011779533	-0.001866136	-0.84105687	1.2471982	0.067484549	-1.247268	-0.067542283	0.082226108	-1.5679837	1.34	0.647	0.133	-0.22914927	0.079322994	1.9990082	1.9771457	1.9496543	0.0060697218	1.9496381	0.005998657	0.00025934533	1.8991763	1.078728	0.073911018	-0.0001281058	-0.21591039	0.26780204	-0.21606959	0.26606177	-0.023476621	-7.4266149e-05	0.0097188872	0.55007969	-0.85397176	-0.12599549	0.85414996	0.12558594	-0.048353686	1.2978901	0.63764466	0.022654431	0.0010094044	0.022792183	0.049818204	0.0061756069	0.049833816	0.0061015817	0.00026174266	0.097525082	0.022634317	4.6968093	4.8536721	4.6986016	3.6196557	4.6983617	3.6201162	4.1800321	4.5880418	3.3186007	3.3594251	3.6703569	4.4235844	3.6706821	4.4226027	3.8224253	4.058522	-135.59472	R0:S0:1	-97.92	uncorrelated	51514b8	 3.30e+02	 0.00e+00	 7.89e-04	2022-04-11@06:53
2x2_2C_8b_C2v_L	0.1	14	1.64	-0.45675026	-9.1860097	-9.8390668	0.52329068	-9.8400189	0.52545459	0.64277874	-9.4840746	13.9	-0.058884021	0.00023128511	-0.0021031064	-0.026414777	-0.0018440564	-0.027034915	0.0057602181	-0.0020334146	-0.00073806345	-0.84078581	1.2470943	0.070179801	-1.2465261	-0.068974473	0.082789148	-1.5665671	1.34	0.647	0.133	-0.23651118	0.081442164	1.9988935	1.9771441	1.949747	0.0070069772	1.9497728	0.0070445656	0.0003365083	1.898792	1.0808419	0.078187122	0.00049580408	-0.22294848	0.2862736	-0.22310545	0.28770184	-0.040738529	-0.00013628936	0.004385362	0.54920992	-0.85140545	-0.13729376	0.85128132	0.13669055	-0.048739895	1.3013575	0.63261598	0.023415519	0.0011250082	0.022795381	0.049735125	0.0071314616	0.049709156	0.007162435	0.00034105145	0.097881255	0.023397724	4.708171	4.8643406	4.7092331	3.6045009	4.7082211	3.6056569	4.1864285	4.5858438	3.3089787	3.349786	3.6577685	4.4452338	3.658417	4.4444743	3.8165187	4.0632756	-135.73967	R0:S0:1	-98.08	uncorrelated	51514b8	 3.88e+02	 5.20e-04	 1.00e+06	2022-04-11@06:56
2x2_2C_8b_C2v_L	0.1	14	1.64	-0.48885117	-9.1848499	-9.8412821	0.52919989	-9.8426943	0.52841582	0.62539087	-9.4833821	13.92	-0.062262198	-0.0013895624	-0.0016257828	-0.026274282	-0.0019640178	-0.028258204	0.0039218374	-0.0013553715	0.0027799619	-0.84188351	1.2458367	0.06939968	-1.2454878	-0.069329193	0.082316325	-1.5654438	1.34	0.647	0.133	-0.24424086	0.08349302	1.9987159	1.9770666	1.9499126	0.0072755547	1.949904	0.0078280862	0.00028408818	1.8983968	1.0828915	0.084202626	0.0013113585	-0.23068629	0.29064626	-0.23061166	0.30323136	-0.028466772	-0.00022811457	-0.012791001	0.54930079	-0.84817709	-0.14192902	0.84860412	0.14512765	-0.04845415	1.3048223	0.62761997	0.024186765	0.0013053836	0.022874075	0.049580972	0.0073954064	0.049587502	0.0079537459	0.00028739318	0.098248838	0.024170615	4.7194477	4.8749773	4.7197444	3.5895025	4.7167468	3.5925184	4.1925063	4.5843033	3.3004065	3.3408672	3.6450425	4.4621401	3.6473703	4.4631538	3.8101619	4.0678209	-135.89398	R0:S0:1	-98.24	uncorrelated	51514b8	 4.61e+02	 1.01e-03	 1.00e+06	2022-04-11@06:59
2x2_2C_8b_C2v_L	0.1	14	1.64	-0.48855782	-9.1849798	-9.8415135	0.52817742	-9.8429016	0.52742931	0.62408354	-9.4834876	13.92	-0.061927656	-5.7059072e-05	-0.001831929	-0.027224947	-0.0018691584	-0.026993755	0.0011274862	-0.00040361577	0.00019250322	-0.84147686	1.2457563	0.069936633	-1.2458318	-0.069725647	0.082634713	-1.5656127	1.34	0.647	0.133	-0.24434679	0.083516812	1.9987371	1.9770919	1.9498972	0.0076213774	1.9499125	0.0075430899	0.0002399488	1.8983636	1.082914	0.083860869	2.4037961e-05	-0.2307833	0.29812373	-0.23072474	0.29642987	-0.0081633347	0.00013493805	-0.00087165658	0.54896836	-0.84847538	-0.14442744	0.8483055	0.1437987	-0.0486055	1.3051064	0.6275356	0.024196928	0.0012836698	0.022848984	0.049595112	0.0077481145	0.049580429	0.0076685088	0.00024195398	0.098279454	0.024180893	4.7196382	4.8751489	4.7183072	3.5908104	4.7185745	3.5905083	4.1930532	4.5841713	3.2999515	3.3405026	3.6461488	4.4632882	3.6458821	4.4630809	3.8093727	4.0681191	-135.89487	R0:S0:1	-98.24	uncorrelated	51514b8	 4.63e+02	 0.00e+00	 5.08e-04	2022-04-11@07:02
2x2_2C_8b_C2v_L	0.1	14	1.64	-0.52356085	-9.1840238	-9.844601	0.5318973	-9.8464774	0.52797138	0.60110705	-9.4831975	13.94	-0.064335582	5.7728768e-05	-0.0020646504	-0.02894399	-0.0019626828	-0.026236337	-0.0066178009	0.0022376959	0.00022428727	-0.84180128	1.2449255	0.071312281	-1.2455415	-0.071136755	0.082906164	-1.564831	1.34	0.647	0.133	-0.25283813	0.086028504	1.9985773	1.9770828	1.9500248	0.0088225033	1.9501138	0.0080140925	0.00040665006	1.8978876	1.0854206	0.089346107	-0.0017459986	-0.23934245	0.32020069	-0.23883032	0.30282736	0.050990172	0.0014326975	-0.0027780119	0.54795091	-0.84565875	-0.15687528	0.84425751	0.15193616	-0.048953939	1.3093678	0.62164025	0.025111585	0.0014447166	0.022860131	0.049477259	0.0089649411	0.049393895	0.0081505939	0.00041401373	0.098720192	0.02509792	4.734047	4.8886664	4.7275051	3.5763484	4.732639	3.5707825	4.2006106	4.5816096	3.2879216	3.3283422	3.6338702	4.4861165	3.6294876	4.485999	3.8028023	4.073797	-136.06132	R0:S0:1	-98.4	uncorrelated	51514b8	 5.61e+02	 1.77e-03	 1.00e+06	2022-04-11@07:04
2x2_2C_8b_C2v_L	0.1	14	1.64	-0.52273382	-9.1843392	-9.8450836	0.52983301	-9.8470061	0.52591932	0.5986416	-9.4834477	13.94	-0.065214244	-7.2788876e-05	-0.0022488733	-0.028370318	-0.0023411441	-0.028900646	2.8378943e-05	-7.1711814e-05	0.00030308037	-0.8413666	1.2451228	0.070928928	-1.2450141	-0.070353334	0.082794798	-1.5645671	1.34	0.647	0.133	-0.25278752	0.086116827	1.9985313	1.9771074	1.9500981	0.0086344375	1.9501211	0.0087962851	0.00024349865	1.8978993	1.0855092	0.090718692	1.0800738e-07	-0.23892936	0.31574249	-0.23882516	0.31916049	-0.00013803299	0.00012080001	-0.0014685657	0.54764649	-0.84457587	-0.1558662	0.84442056	0.1564554	-0.048748818	1.3094075	0.62142143	0.025126934	0.0014920916	0.022835622	0.049407727	0.0087736795	0.049384853	0.0089363422	0.00024568713	0.098709129	0.025113255	4.7344997	4.888604	4.7309618	3.5726819	4.7304529	3.5731072	4.2016436	4.580974	3.2881439	3.328174	3.6305592	4.4885341	3.6307676	4.4893402	3.8008486	4.0744528	-136.06215	R0:S0:1	-98.4	uncorrelated	51514b8	 5.64e+02	 0.00e+00	 9.22e-04	2022-04-11@07:07
2x2_2C_8b_C2v_L	0.1	14	1.64	-0.55921726	-9.1840854	-9.849905	0.5281127	-9.852418	0.52071653	0.56612615	-9.483995	13.96	-0.069367334	0.00018969028	-0.0028162852	-0.029415	-0.0030113364	-0.03232031	0.0011720239	-0.00054645364	-0.0001725731	-0.84089796	1.2446135	0.071637608	-1.2439541	-0.070410552	0.082888281	-1.5635267	1.34	0.647	0.133	-0.26179206	0.089192074	1.9982486	1.9771655	1.9503942	0.0097809685	1.9503838	0.010789868	0.00025892816	1.8973932	1.0885788	0.099560261	0.00067593774	-0.24735909	0.33352138	-0.24751146	0.35299594	-0.0097484422	-0.00062577795	0.0015177519	0.54557786	-0.83928389	-0.16885035	0.83987005	0.17381487	-0.048885097	1.3142815	0.61436231	0.026193488	0.0017786977	0.02278035	0.04912943	0.0099327244	0.049136328	0.010945804	0.0002617619	0.099176264	0.026182463	4.7526147	4.9045569	4.7474203	3.5501001	4.7430034	3.5547076	4.2121942	4.5764685	3.2741276	3.3131504	3.6106927	4.5192292	3.6138829	4.52183	3.7904317	4.0822313	-136.24136	R0:S0:1	-98.56	uncorrelated	51514b8	 6.86e+02	 9.40e-04	 1.00e+06	2022-04-11@07:10
2x2_2C_8b_C2v_L	0.1	14	1.64	-0.59630903	-9.1844521	-9.8567216	0.51945484	-9.8597386	0.50832925	0.52300652	-9.4855935	13.98	-0.06885884	0.00032871922	-0.0029931176	-0.031103871	-0.0030026436	-0.029307997	0.0026504251	-0.0010148474	-0.0013315668	-0.84145282	1.2438038	0.072422215	-1.2444932	-0.073210361	0.077481116	-1.5605917	1.34	0.647	0.133	-0.27095374	0.092073875	1.9981961	1.9771516	1.9506155	0.011448007	1.9505973	0.011200454	0.00026458231	1.8971983	1.091465	0.10151788	0.00025925803	-0.2563734	0.35976048	-0.25649654	0.3540239	-0.023075571	-0.00042692719	0.0066684316	0.5445462	-0.83529361	-0.18440966	0.83536857	0.18371651	-0.045868194	1.3169387	0.60748624	0.027238262	0.0018282358	0.022796502	0.048920788	0.01162258	0.048939256	0.011392403	0.00026838469	0.099357004	0.027228603	4.7670227	4.9191299	4.7584878	3.5327549	4.7593053	3.5313101	4.2209214	4.5713053	3.2603704	3.3002161	3.5954643	4.5480341	3.5950003	4.5478287	3.7816405	4.0895688	-136.4303	R0:S0:1	-98.72	uncorrelated	51514b8	 7.73e+02	 8.65e-04	 1.00e+06	2022-04-11@07:13
2x2_2C_8b_C2v_L	0.1	14	1.64	-0.63463733	-9.1853183	-9.8650466	0.50589857	-9.8687083	0.49098496	0.470874	-9.4873444	14	-0.073706036	0.0013846451	-0.0033544999	-0.032140661	-0.0022951062	-0.029140889	0.0044506984	-0.0012021217	-0.0015312959	-0.84125967	1.2433006	0.072728578	-1.2437301	-0.071989366	0.081668084	-1.561573	1.34	0.647	0.133	-0.28153712	0.095919531	1.9978123	1.9772513	1.9509428	0.013271544	1.9509752	0.012385368	0.00038457964	1.89639	1.0953001	0.11273197	-0.00028249334	-0.26665584	0.38447726	-0.26696532	0.36840721	-0.042020271	-0.00054488508	0.0076101697	0.54145337	-0.8295682	-0.20220157	0.82889435	0.19700408	-0.048541659	1.3242537	0.59891528	0.028568345	0.0022170822	0.02270065	0.04861198	0.013469676	0.048582031	0.012592171	0.00039455116	0.10010252	0.028562282	4.7918094	4.9409019	4.7748511	3.5090948	4.7781371	3.5051096	4.2347526	4.5663194	3.2410772	3.2794572	3.5742664	4.5842883	3.5716853	4.5825966	3.7686275	4.0993548	-136.63466	R0:S0:1	-98.88	uncorrelated	51514b8	 7.99e+02	 2.13e-03	 1.00e+06	2022-04-11@07:16
2x2_2C_8b_C2v_L	0.1	14	1.64	-0.63277674	-9.1856852	-9.865626	0.50238773	-9.8693732	0.48760499	0.46824566	-9.4873661	14	-0.073730518	-0.00023683271	-0.0033555166	-0.032026837	-0.0038584956	-0.033234654	-0.0015256756	0.000499472	0.00024419885	-0.84236469	1.2434713	0.0728099	-1.2431435	-0.071678615	0.078997918	-1.560407	1.34	0.647	0.133	-0.28112612	0.09620893	1.9977884	1.9771915	1.9510235	0.013382372	1.9510601	0.014140075	0.00026898589	1.896536	1.0955939	0.11331697	0.00020058377	-0.26612408	0.3843536	-0.26588553	0.39630989	0.014225229	-0.00015394868	-0.0011449115	0.54216367	-0.8282929	-0.20381777	0.82819632	0.20727325	-0.046934494	1.3233769	0.59842334	0.02859955	0.002241219	0.022760145	0.048534691	0.0135839	0.048497308	0.014352653	0.00027337209	0.099967513	0.02859334	4.7919382	4.9413849	4.7792918	3.5047007	4.7770978	3.5066907	4.2351875	4.5650569	3.2411488	3.2794965	3.5697854	4.5896641	3.5709999	4.5931653	3.7674904	4.0999444	-136.63379	R0:S0:1	-98.88	uncorrelated	51514b8	 7.98e+02	 0.00e+00	 1.27e-03	2022-04-11@07:19
2x2_2C_8b_C2v_L	0.1	14	1.64	-0.66912492	-9.1877499	-9.8766091	0.47724667	-9.8811804	0.45864405	0.40260607	-9.4899022	14.02	-0.077650485	-0.0022795399	-0.0036890509	-0.032983583	-0.0061835796	-0.040119598	-0.010071397	0.0031797372	0.0029768587	-0.84448383	1.2432919	0.073115139	-1.2415786	-0.070370003	0.075966605	-1.5584283	1.34	0.647	0.133	-0.29108044	0.10142222	1.9972969	1.9772102	1.9516058	0.0160205	1.9516471	0.019694018	0.00099145379	1.8960963	1.1008075	0.12599879	0.00066828117	-0.27537853	0.41274502	-0.27450056	0.46628991	0.10562501	0.00069881917	-0.014458595	0.53956782	-0.81865675	-0.22935288	0.81956359	0.24551899	-0.046121279	1.3286477	0.58782676	0.030167636	0.0027367882	0.022745438	0.047980488	0.016259105	0.047932195	0.019923898	0.0010395761	0.10036849	0.030164809	4.8223559	4.9692184	4.8081601	3.4688821	4.7965161	3.4820451	4.2495638	4.5555652	3.2168483	3.2536551	3.5351899	4.6441584	3.5428679	4.6560782	3.7569567	4.1115524	-136.84883	R0:S0:1	-99.04	uncorrelated	51514b8	 7.27e+02	 3.11e-03	 1.00e+06	2022-04-11@07:23
2x2_2C_8b_C2v_L	0.1	14	1.64	-0.66778629	-9.1881507	-9.8769882	0.4748179	-9.8814381	0.45642182	0.40126434	-9.4895662	14.02	-0.076128174	-0.00031255315	-0.0037243296	-0.033532974	-0.0030942381	-0.031892219	0.00011792923	0.00010775995	0.00063488263	-0.84191522	1.2428875	0.072108593	-1.2434528	-0.072215173	0.075911836	-1.5588546	1.34	0.647	0.133	-0.29195522	0.10061584	1.9974621	1.9773248	1.9514572	0.016119201	1.951457	0.016055142	0.00025495917	1.8960078	1.0999999	0.12232984	0.00010333413	-0.27657918	0.41762046	-0.27668955	0.41476013	-0.0012008236	-9.3719666e-05	-0.0028103606	0.5384897	-0.82115303	-0.22731711	0.82105322	0.22723744	-0.045299136	1.3292245	0.58869223	0.030062643	0.0025694663	0.022631179	0.04812207	0.016354237	0.048122192	0.016326607	0.0002597874	0.10045273	0.030058839	4.8183504	4.9652539	4.7985546	3.4780932	4.7994233	3.476233	4.250846	4.5566794	3.2190572	3.2565481	3.5443938	4.6352503	3.5436812	4.6370835	3.7516867	4.1118809	-136.84493	R0:S0:1	-99.04	uncorrelated	51514b8	 7.28e+02	 2.68e-04	 2.09e-03	2022-04-11@07:26
2x2_2C_8b_C2v_L	0.1	14	1.64	-0.70000762	-9.1919239	-9.8910556	0.43471759	-9.8962642	0.41302945	0.32059937	-9.4919101	14.04	-0.077417597	0.00033605054	-0.0039061566	-0.035176998	-0.00065463981	-0.026555085	0.0066434404	-0.002116157	-0.00015105676	-0.84171022	1.2418967	0.070976982	-1.2446822	-0.071598742	0.070817896	-1.5570451	1.34	0.647	0.133	-0.30330011	0.10544387	1.997152	1.9774802	1.9519117	0.020056863	1.9518526	0.016634691	0.00067268097	1.8955064	1.104831	0.1307315	-0.00043978964	-0.28765788	0.46127886	-0.28864409	0.40906126	-0.080021128	-2.1205364e-05	0.0010800854	0.53424255	-0.81399548	-0.25703987	0.81329923	0.24012973	-0.042887328	1.3350487	0.57831186	0.0316518	0.0028799056	0.022480726	0.047686791	0.020348276	0.047751321	0.016994215	0.00071380195	0.10091174	0.031649752	4.8481827	4.9926875	4.8155917	3.4535829	4.8267864	3.4395125	4.2664317	4.547283	3.1930753	3.230083	3.5197057	4.6866069	3.512421	4.6785537	3.7380758	4.1243737	-137.06384	R0:S0:1	-99.2	uncorrelated	51514b8	 6.25e+02	 2.47e-03	 1.00e+06	2022-04-11@07:29
2x2_2C_8b_C2v_L	0.1	14	1.64	-0.69840871	-9.1919867	-9.8912582	0.43241766	-9.8965567	0.41107129	0.32068577	-9.4913235	14.04	-0.079239865	0.00015924694	-0.0035885536	-0.033978019	-0.0033220899	-0.033957924	-0.00026801908	0.00014477494	0.00011457001	-0.84301659	1.2425149	0.07132168	-1.2421537	-0.069333438	0.071272311	-1.5569081	1.34	0.647	0.133	-0.30271382	0.10599819	1.9969774	1.9774224	1.9520275	0.019636764	1.9520902	0.020162882	0.00025263924	1.8954693	1.1053858	0.13468933	-0.00016859353	-0.2868776	0.45233229	-0.28675384	0.45832198	0.0033128927	9.4162548e-05	-0.00058310559	0.53479024	-0.81186142	-0.25700402	0.8113627	0.25847894	-0.042849208	1.3355897	0.57742757	0.031716052	0.0030577154	0.022538278	0.047577243	0.019935843	0.047514567	0.020482731	0.00025924049	0.10094579	0.031714571	4.8506825	4.9946061	4.8247154	3.4448086	4.8239169	3.445352	4.2692147	4.5460195	3.1927874	3.228677	3.5112692	4.6930534	3.5112283	4.6968831	3.7331378	4.1259346	-137.06117	R0:S0:1	-99.2	uncorrelated	51514b8	 6.19e+02	 0.00e+00	 1.72e-03	2022-04-11@07:32
2x2_2C_8b_C2v_L	0.1	14	1.64	-0.72561711	-9.1971554	-9.9082743	0.37670725	-9.9145119	0.3528823	0.22732668	-9.4927769	14.06	-0.083196199	0.0011569709	-0.0031529495	-0.033623459	-0.0042982654	-0.03860152	-0.0023860147	0.00089927885	-0.00081003263	-0.84393312	1.2425702	0.069725596	-1.2396319	-0.06510459	0.065704562	-1.5547605	1.34	0.647	0.133	-0.31313898	0.1129045	1.9962284	1.9776131	1.952797	0.024474024	1.9529486	0.028077748	0.00034029136	1.8948205	1.1122961	0.15220928	-4.4065186e-06	-0.29657036	0.48933799	-0.29611236	0.53272538	0.034803379	-0.00029288227	0.0036797991	0.52913805	-0.79933334	-0.29630423	0.79895589	0.3095747	-0.039961525	1.3435496	0.56390067	0.033633724	0.0038121165	0.022353793	0.04684	0.024878289	0.046683356	0.028425405	0.00036201867	0.10153587	0.033635119	4.8937623	5.0331133	4.861909	3.4029085	4.852249	3.4157011	4.2928711	4.5312524	3.1583493	3.1911236	3.466073	4.7689179	3.4711377	4.7811594	3.7095332	4.1438042	-137.28443	R0:S0:1	-99.36	uncorrelated	51514b8	 5.12e+02	 2.06e-02	 1.00e+06	2022-04-11@07:36
2x2_2C_8b_C2v_L	0.1	14	1.64	-0.6900131	-9.2031625	-9.9126507	0.33172753	-9.9181331	0.31624406	0.29814248	-9.474238	14.06	-0.081108574	-9.1015467e-05	-0.0026557255	-0.033644442	-0.0024621022	-0.033445919	-0.00017613475	0.00019182674	0.00014776805	-0.84350121	1.2415181	0.066123895	-1.2414695	-0.065147101	0.070348724	-1.5541602	1.34	0.647	0.133	-0.31339075	0.11343	1.9960619	1.9777025	1.9528724	0.027080415	1.9528973	0.027868019	0.0002528098	1.8944698	1.1128219	0.15354216	0.0003434306	-0.29708697	0.51058344	-0.29712518	0.51749655	0.001994815	-0.00047207099	-0.00039399652	0.52761836	-0.79878071	-0.30784707	0.79868396	0.31098111	-0.042011877	1.3461449	0.56296945	0.033749234	0.003981113	0.022265092	0.046761893	0.027572759	0.046735712	0.028418514	0.00025995729	0.10185831	0.033750355	4.9000657	5.037731	4.859634	3.4062452	4.8582598	3.4070979	4.2958158	4.5317295	3.1538017	3.185756	3.4657448	4.7841549	3.4662586	4.7892838	3.706438	4.1446658	-137.20423	R0:S0:1	-99.36	uncorrelated	51514b8	 5.01e+02	 0.00e+00	 1.92e-03	2022-04-11@07:39
2x2_2C_8b_C2v_L	0.1	14	1.64	-0.64227507	-9.2216907	-9.9412195	0.17224077	-9.9462397	0.17149717	0.33336223	-9.4382633	14.08	-0.081690763	-0.0010561415	-0.00085759167	-0.032445081	-0.00059553693	-0.030632954	0.00029441362	0.00015266139	0.00056557461	-0.84394764	1.2398247	0.056756426	-1.2412715	-0.05896577	0.072932669	-1.5505466	1.34	0.647	0.133	-0.31953673	0.12591473	1.993839	1.9783027	1.9542136	0.051842975	1.9541752	0.051760882	0.0002368699	1.8928206	1.1253133	0.19135355	0.0010662831	-0.30306249	0.62908196	-0.30313453	0.62063235	-0.0045326159	-0.0012161867	-0.0019671878	0.51335963	-0.77818389	-0.43893958	0.77830349	0.44087644	-0.042326237	1.3636028	0.54092326	0.036363839	0.0062119846	0.021674956	0.045447517	0.05334541	0.045486498	0.053664702	0.00024248826	0.10334691	0.036369643	4.9902028	5.1159059	4.9152189	3.3776698	4.9173465	3.3708115	4.3403967	4.505258	3.0833551	3.1044271	3.3896008	4.9750444	3.3882817	4.9800859	3.6617176	4.1728683	-137.27623	R0:S0:1	-99.52	uncorrelated	51514b8	 3.88e+02	 2.41e-02	 1.00e+06	2022-04-11@07:43
2x2_2C_8b_C2v_L	0.1	14	1.64	-0.61846615	-9.2238843	-9.9375994	0.25099561	-9.9425324	0.25297275	0.31336465	-9.4328674	14.08	-0.0798863	0.0012045678	-0.0020018957	-0.034988665	-0.0023197524	-0.035661438	-0.0010639215	0.00037383673	-0.0020118675	-0.84392237	1.2406852	0.061494289	-1.2408015	-0.061256208	0.072489134	-1.5504306	1.34	0.647	0.133	-0.32215743	0.1226601	1.9945386	1.978124	1.9538977	0.039002436	1.9539195	0.03932303	0.00026787501	1.8929605	1.1220553	0.17901258	-0.00054756494	-0.30515291	0.58521396	-0.30516089	0.58962477	0.013497523	-0.00015692335	0.0091204895	0.51768846	-0.78293264	-0.38103968	0.78283352	0.38226697	-0.042609865	1.3608733	0.54639202	0.035958029	0.0055206116	0.021851734	0.045766517	0.03973918	0.045744438	0.040006424	0.00027563484	0.10323391	0.035962497	4.9644829	5.0921947	4.9029259	3.3714053	4.9019105	3.3729533	4.3285766	4.5157164	3.1056609	3.1301327	3.4091005	4.9002071	3.4095683	4.9000874	3.6737528	4.1660692	-137.20777	R0:S0:1	-99.52	uncorrelated	51514b8	 4.13e+02	 7.97e-04	 3.55e-03	2022-04-11@07:46
2x2_2C_8b_C2v_L	0.1	14	1.64	-0.4796924	-9.2546261	-9.9659252	0.19255953	-9.9694895	0.22329849	0.36388662	-9.3662196	14.1	-0.073804713	0.0018646467	-0.0011319372	-0.033315269	-0.0014169267	-0.034184075	-8.0401794e-05	-0.00028716026	-0.0027883446	-0.84317676	1.2409883	0.057612714	-1.2418158	-0.05938679	0.077408667	-1.5454913	1.34	0.647	0.133	-0.3309715	0.13113763	1.9922549	1.9786341	1.9546985	0.050386145	1.9547603	0.046607433	0.00025177107	1.8911172	1.1305366	0.20791542	-0.0018747645	-0.31381794	0.63426503	-0.31362175	0.61359978	0.0014858949	0.0013244796	0.013233632	0.50681987	-0.77005513	-0.44702312	0.76901449	0.4332614	-0.044379173	1.3772832	0.53127928	0.038015224	0.0078449499	0.021349105	0.044988492	0.051508215	0.044934101	0.047303304	0.00025726344	0.10491664	0.038022335	5.0318742	5.1446429	4.9391575	3.3464809	4.9442231	3.3414022	4.3588269	4.5045185	3.0630964	3.0751971	3.3608154	4.9993898	3.358128	4.9774303	3.6434764	4.1844971	-137.05702	R0:S0:1	-99.68	uncorrelated	51514b8	 3.55e+02	 1.43e-02	 1.00e+06	2022-04-11@07:50
2x2_2C_8b_C2v_L	0.1	14	1.64	-0.45054309	-9.2565785	-9.9635736	0.23631535	-9.9681119	0.24078277	0.3222074	-9.362949	14.1	-0.073626133	-0.00055371679	-0.0020254078	-0.03559834	-0.0022634963	-0.035978588	-0.00060069515	0.00020551419	0.00094742416	-0.8423505	1.2411853	0.06112485	-1.2415275	-0.061352178	0.073405316	-1.543839	1.34	0.647	0.133	-0.33252667	0.13137482	1.9918442	1.9786745	1.9547826	0.046679113	1.9548105	0.046336245	0.00024879919	1.8912121	1.1307727	0.21237738	-0.00024607817	-0.31507073	0.622854	-0.31470672	0.62155045	0.0088757422	0.00081998766	-0.0056389982	0.50644699	-0.76870391	-0.43498336	0.76849255	0.43333822	-0.042399797	1.3768831	0.5306744	0.038154404	0.0082807746	0.021308997	0.04491306	0.04733596	0.044886243	0.046946583	0.00025525084	0.10483078	0.038162188	5.0344178	5.1433492	4.9440244	3.338815	4.9439423	3.3392024	4.3598577	4.5033085	3.0673972	3.0763515	3.3572321	4.9807635	3.3574859	4.9781152	3.6422943	4.1861261	-136.98783	R0:S0:1	-99.68	uncorrelated	51514b8	 3.53e+02	 9.96e-05	 1.63e-03	2022-04-11@07:53
2x2_2C_8b_C2v_L	0.1	14	1.64	-0.18997996	-9.3007797	-9.9907394	0.28548403	-9.9951454	0.27769825	0.32663161	-9.2653489	14.12	-0.063813555	-0.0031323008	-0.0030864913	-0.040325541	-0.0034494339	-0.040743799	-0.0016417848	0.00051687205	0.0051580981	-0.84030664	1.2421377	0.065035897	-1.2417291	-0.06427468	0.073573612	-1.5354792	1.34	0.647	0.133	-0.34405127	0.14211995	1.9825171	1.9793372	1.9559401	0.051323109	1.9560179	0.051634643	0.00029986714	1.8889197	1.1415169	0.29435714	-0.0012642606	-0.32608449	0.64706657	-0.32414025	0.64933405	0.028210219	0.0044761729	-0.039895352	0.49328313	-0.75005403	-0.48318842	0.74985869	0.48133295	-0.042068058	1.3972284	0.51192701	0.040735748	0.01839339	0.020653026	0.043800658	0.051299294	0.04372306	0.051660682	0.00030967816	0.10692178	0.040749148	5.1570545	5.1997959	5.0003657	3.2942662	4.9971606	3.3000302	4.397005	4.4903539	3.0562214	3.0148448	3.2899979	5.0461782	3.2932564	5.0469133	3.6053278	4.2092077	-136.55981	R0:S0:1	-99.84	uncorrelated	51514b8	 2.92e+02	 3.18e-02	 1.00e+06	2022-04-11@07:57
2x2_2C_8b_C2v_L	0.1	14	1.64	-0.26352528	-9.2976448	-9.9925464	0.20750405	-9.9959322	0.20998947	0.23687245	-9.262143	14.12	-0.064373479	0.00024042842	-0.0020083159	-0.037500576	-0.0017829069	-0.036484679	-0.006339197	0.0019772477	0.00013913069	-0.84074339	1.241687	0.059670349	-1.2421378	-0.060329532	0.067602175	-1.5335973	1.34	0.647	0.133	-0.3393124	0.14270247	1.9858708	1.9793797	1.9558725	0.061518652	1.9559883	0.058862526	0.0010963776	1.8891387	1.1421122	0.2722159	-0.005379656	-0.32203301	0.68458404	-0.32009165	0.66513765	0.1100371	0.0069517577	-0.0091712596	0.49185054	-0.75115506	-0.52234851	0.74977216	0.51167626	-0.040249276	1.395903	0.51192586	0.040495422	0.014489213	0.020611554	0.043851456	0.061812012	0.043742545	0.059270956	0.0012173812	0.1067107	0.040505924	5.1359353	5.2103596	4.9958407	3.3205098	5.0005436	3.3121349	4.3947386	4.4867318	3.0274911	3.0041588	3.2902742	5.0885134	3.2881488	5.0812411	3.6108896	4.2080692	-136.69592	R0:S0:1	-99.84	uncorrelated	51514b8	 3.05e+02	 0.00e+00	 4.19e-03	2022-04-11@08:01
2x2_2C_8b_C2v_L	0.1	14	1.64	-0.056393644	-9.3472325	-10.024471	0.16520602	-10.025896	0.16120796	0.057042697	-9.1302446	14.14	-0.051821744	0.0028076683	-0.0019204753	-0.038973578	-0.00070729326	-0.03511355	-0.01732475	0.005511001	-0.0029531976	-0.83831554	1.2424232	0.056990565	-1.2434402	-0.058197914	0.054793285	-1.5187637	1.34	0.647	0.133	-0.33664185	0.16310294	1.9476571	1.9806358	1.9571265	0.096063003	1.9573087	0.080822666	0.10087078	1.8885318	1.1625394	0.50751682	-0.030214848	-0.32184577	0.77377121	-0.31458224	0.69548076	0.71976942	0.044961655	-0.058254023	0.46442393	-0.73002939	-0.69127209	0.72910998	0.63042352	-0.1869318	1.3983518	0.48460725	0.043734214	0.055901243	0.019359005	0.042599302	0.093993223	0.042440005	0.080213447	0.14585859	0.10711325	0.043753966	5.3903561	5.3402931	5.0600655	3.3743182	5.0639789	3.3277088	4.2958708	4.4669895	3.0366665	2.8538039	3.1969956	5.220468	3.2071539	5.1798851	3.9603517	4.1714523	-136.33367	R0:S0:1	-100	uncorrelated	51514b8	 2.59e+02	 3.19e-02	 1.00e+06	2022-04-11@08:06
2x2_2C_8b_C2v_L	0.1	14	1.64	-0.19294265	-9.342337	-10.019479	0.16045634	-10.021701	0.17815493	0.0063746222	-9.1064696	14.14	-0.060711005	-0.00042805607	-0.0020989707	-0.04124608	-0.0017704077	-0.038512442	-0.041042285	0.0003319577	0.0018957113	-0.84116013	1.24096	0.055102969	-1.2415204	-0.058313721	0.016107919	-1.5102111	1.34	0.647	0.133	-0.34051878	0.17294305	1.9626112	1.9813139	1.9568251	0.093220835	1.9572079	0.082794416	0.23421148	1.8917097	1.1723889	0.47604814	-0.0083213878	-0.32339943	0.79158191	-0.31948523	0.7261201	1.1906957	0.01191359	-0.02572624	0.44734889	-0.73616403	-0.68232658	0.73092574	0.64989657	-0.3329577	1.3643353	0.48714927	0.045516678	0.037194284	0.018692158	0.042891339	0.091045281	0.042534048	0.081399128	0.30137538	0.10402781	0.045544607	5.3860129	5.4424273	5.0328386	3.3857323	5.0526257	3.3486067	4.1601092	4.4812284	2.8980321	2.7497685	3.2251623	5.1859917	3.2133895	5.1670622	4.4505867	4.0759966	-136.54278	R0:S0:1	-100	uncorrelated	51514b8	 2.82e+02	 9.43e-04	 1.23e-02	2022-04-11@08:11
2x2_2C_8b_C2v_L	0.1	14	1.64	-0.2403552	-9.3903201	-10.044044	0.09876815	-10.045265	0.1451587	-0.36703444	-8.8937388	14.16	-0.064582304	-0.0022605593	-0.00085372385	-0.048998926	-0.0035193414	-0.051720125	-0.099132082	-0.0050464634	0.0033208311	-0.84588217	1.237867	0.050037925	-1.2373306	-0.054231747	-0.082174535	-1.4736974	1.34	0.647	0.133	-0.33274789	0.19326264	1.9696815	1.9820843	1.9580916	0.16154531	1.9592438	0.094672604	1.8894647	1.8923749	1.1926761	0.47747516	-0.09210143	-0.32022085	1.0395997	-0.30378141	0.78289524	0.32332179	0.16883677	-0.1589502	0.42777375	-0.71344951	-0.93999826	0.70370566	0.712053	1.2224227	1.3573389	0.46592522	0.04836722	0.03032431	0.017934432	0.041596823	0.15211628	0.040553277	0.091614317	0.11244792	0.1034965	0.048420732	5.4814566	5.550288	5.1035658	3.5264536	5.1281398	3.3565408	4.4486046	4.4718756	2.7269118	2.6307918	3.112628	5.3696018	3.1352162	5.2101766	4.0542592	4.0755179	-137.24804	R0:S0:1	-100.16	uncorrelated	51514b8	 2.69e+02	 6.39e-02	 1.00e+06	2022-04-11@08:15
2x2_2C_8b_C2v_L	0.1	14	1.64	-0.23984037	-9.3843669	-10.031232	0.16491913	-10.03836	0.20917506	-0.080560698	-8.9141693	14.16	-0.066528727	-0.00086740989	-0.0032488027	-0.048614286	-0.0017846527	-0.038810785	-0.034042452	0.005376641	0.0051423809	-0.84566432	1.2402674	0.054680008	-1.2422724	-0.063481586	-0.04175005	-1.4925887	1.34	0.647	0.133	-0.34854472	0.18050734	1.9694026	1.9814343	1.9576445	0.11070816	1.9587463	0.075016377	1.9016558	1.8875525	1.1799416	0.45482867	-0.033825077	-0.33593354	0.89963087	-0.32122572	0.68205794	0.17187619	0.047557284	-0.086587763	0.4433436	-0.72152735	-0.76592469	0.70691893	0.65018524	1.0630358	1.401163	0.47317948	0.047036738	0.030713159	0.018579624	0.042090754	0.10651487	0.041067682	0.073963677	0.10943723	0.10791995	0.047071002	5.4136488	5.4729852	5.0776237	3.3811727	5.1356844	3.2569021	4.2093446	4.4729391	2.8383477	2.722883	3.1626636	5.2713609	3.1342167	5.2131034	4.1999257	4.1364642	-136.64685	R0:S0:1	-100.16	uncorrelated	51514b8	 2.73e+02	 1.29e-03	 3.03e-02	2022-04-11@08:20
2x2_2C_8b_C2v_L	0.1	14	1.64	-0.23985612	-9.3843682	-10.031124	0.16587918	-10.038332	0.20844855	-0.080423015	-8.9139995	14.16	-0.065851954	-0.0012135483	-0.0024053618	-0.044634029	-0.0030775374	-0.041446624	-0.034338284	0.0054140106	0.003224232	-0.84465756	1.2406966	0.056386228	-1.2420285	-0.062180629	-0.040039086	-1.4928411	1.34	0.647	0.133	-0.34999573	0.17930555	1.9707933	1.9814068	1.9578609	0.1037186	1.9585248	0.078496009	1.9078607	1.8872114	1.1787397	0.44274532	-0.026997164	-0.33516936	0.8499236	-0.32463218	0.71597913	0.15890807	0.041121696	-0.067054814	0.44450761	-0.71813571	-0.74858481	0.7103655	0.65934664	1.0261052	1.4047608	0.47391381	0.046956442	0.029362255	0.018606997	0.04189171	0.10060959	0.041278695	0.077119765	0.10375242	0.10824583	0.046989199	5.4049536	5.4642333	5.0922392	3.3530221	5.120985	3.2745744	4.1601322	4.471992	2.8414216	2.732884	3.1534481	5.2710359	3.1453789	5.2132	4.2197445	4.1457875	-136.64249	R0:S0:1	-100.16	uncorrelated	51514b8	 2.73e+02	 2.58e-04	 1.79e-03	2022-04-11@08:24
2x2_2C_8b_C2v_L	0.1	14	1.64	-0.402533	-9.4240229	-10.027784	0.22128783	-10.045912	0.30016557	-0.025663414	-8.6866842	14.18	-0.077695479	-0.0021207805	-0.0041382041	-0.043847755	-0.003986164	-0.037109681	0.0091483096	0.017597658	0.0059502081	-0.84922185	1.2410079	0.060993749	-1.2463715	-0.073390018	-0.097765147	-1.4821066	1.34	0.647	0.133	-0.3877112	0.23605599	1.9629949	1.9850229	1.9584206	0.093476872	1.9592799	0.07778726	1.6741681	1.892545	1.2354348	0.61077666	0.010835034	-0.36829552	0.82074458	-0.36588927	0.70756049	-0.15883431	-0.0309788	-0.01153879	0.36013275	-0.70917201	-0.78191044	0.69385816	0.74366187	2.0973283	1.3240664	0.45013646	0.056632495	0.03635077	0.015018023	0.041396022	0.090041729	0.040590899	0.075729308	0.27062371	0.10277573	0.056721946	5.7833339	5.920567	5.1085258	3.2951835	5.1756951	3.1947934	5.8452249	4.5532705	2.4189907	2.2433343	3.1316936	5.2200922	3.0751446	5.2327887	3.493374	3.815227	-136.69638	R0:S0:1	-100.32	uncorrelated	51514b8	 2.91e+02	 5.17e-02	 1.00e+06	2022-04-11@08:27
2x2_2C_8b_C2v_L	0.1	14	1.64	-0.25632668	-9.4223118	-10.025105	0.1696353	-10.04483	0.16651081	-0.03549792	-8.6782404	14.18	-0.072413064	-0.00030444839	-0.0024724142	-0.049739342	-0.0025681028	-0.049556713	0.0082108172	0.00076101029	0.00047111711	-0.85006764	1.2386344	0.060335972	-1.2396744	-0.059556605	0.047601693	-1.4706075	1.34	0.647	0.133	-0.34758401	0.20515692	1.9573795	1.9826074	1.9597033	0.12429983	1.9597917	0.1212692	1.8585652	1.8853096	1.2045938	0.58043236	-0.0058499776	-0.32801399	0.87726335	-0.32624587	0.86620699	-0.091931881	0.010326599	-0.01412309	0.41451884	-0.68900218	-0.87350973	0.68872612	0.85993799	-1.354641	1.4132984	0.44902427	0.05008374	0.042178038	0.017415463	0.040085289	0.11804359	0.040001449	0.11535332	0.13522014	0.10977448	0.050136815	5.5509118	5.6369275	5.1873278	3.3769101	5.1852304	3.371808	4.5470426	4.4655807	2.7432226	2.5468332	3.0409657	5.3244771	3.0456431	5.316699	4.1282801	4.0895214	-136.30924	R0:S0:1	-100.32	uncorrelated	51514b8	 2.60e+02	 4.45e-03	 4.65e-02	2022-04-11@08:31
2x2_2C_8b_C2v_L	0.1	14	1.64	-0.25346035	-9.4221639	-10.024789	0.1662661	-10.044476	0.16506648	-0.016481933	-8.6780449	14.18	-0.069375505	-7.5651104e-05	-0.0027609934	-0.046724568	-0.0024377894	-0.045700845	0.0014408386	8.444395e-05	0.00045109423	-0.848258	1.2388465	0.057945858	-1.2400646	-0.058217394	0.046825598	-1.4717316	1.34	0.647	0.133	-0.35127575	0.20292825	1.9587498	1.9826287	1.9592442	0.11611669	1.9593885	0.11450078	1.8523868	1.8857837	1.2023731	0.56497843	-0.0016890919	-0.3314251	0.853349	-0.33021711	0.84022169	-0.024740921	0.0021382847	-0.0051316589	0.41480143	-0.69644845	-0.835019	0.69479645	0.83095804	-1.3962202	1.4066025	0.45247975	0.050132478	0.040776154	0.017393656	0.040540147	0.11079089	0.04040088	0.10943139	0.13685821	0.10933077	0.050182162	5.5449497	5.6307114	5.1619733	3.3649941	5.166008	3.3586226	4.6223378	4.4772269	2.7385609	2.5529677	3.0715588	5.2995752	3.0687115	5.3000396	4.1005497	4.0694141	-136.25584	R0:S0:1	-100.32	uncorrelated	51514b8	 2.65e+02	 1.07e-04	 4.01e-03	2022-04-11@08:36
2x2_2C_8b_C2v_L	0.1	14	1.64	-0.23414906	-9.4556627	-10.000386	0.16154504	-10.040123	0.048633701	0.19871691	-8.398078	14.2	-0.072336897	0.0026964435	-0.0031026436	-0.0495049	-0.00095913004	-0.053214545	0.067155317	-0.015872295	-0.006527895	-0.85241089	1.2358342	0.060888154	-1.2346179	-0.04586917	0.27311625	-1.4464144	1.34	0.647	0.133	-0.38541991	0.366938	1.9101526	1.9911345	1.962273	0.17006123	1.9596948	0.2744069	0.96664965	1.9235831	1.3661078	1.1916955	0.028859206	-0.37683943	0.99188766	-0.35196404	1.4038315	-0.92200887	-0.08564792	0.075990301	0.21664909	-0.64586813	-1.2513752	0.68711534	1.387289	-2.8877535	0.97532786	0.3886455	0.064431312	0.08464714	0.0088857312	0.037602555	0.15287283	0.039959695	0.23646804	0.48145891	0.073510293	0.064706184	6.1102819	6.6946706	5.3054937	3.4873061	5.145029	3.8966231	6.9386646	5.0512247	2.0056449	1.3712777	2.8737886	5.2002583	2.9880899	5.1830706	2.9881777	2.9438654	-136.13579	R0:S0:1	-100.48	uncorrelated	51514b8	 3.05e+02	 7.48e-02	 1.00e+06	2022-04-11@08:39
2x2_2C_8b_C2v_L	0.1	14	1.64	-0.15631967	-9.4518271	-9.9983589	0.13896779	-10.037037	0.14115552	0.051553127	-8.4301189	14.2	-0.071692868	0.0027791425	-0.00080871739	-0.055831712	-0.0014171504	-0.061356388	-0.061628892	-0.00099000472	-0.0075600877	-0.85281529	1.2356438	0.063711729	-1.2371122	-0.06040792	-0.0086230507	-1.4471617	1.34	0.647	0.133	-0.32838884	0.23708605	1.9182683	1.9840535	1.9615544	0.17183989	1.9613172	0.18603001	0.23071774	1.884596	1.2365175	0.86032051	0.011688985	-0.30614907	0.9430045	-0.31198773	1.0353656	1.6883242	-0.019677599	0.070466368	0.37955961	-0.65844256	-1.0822691	0.66225383	1.1070584	0.12198694	1.4079878	0.41840573	0.052415637	0.079024991	0.015966234	0.038226049	0.15759103	0.038436854	0.16901903	0.20162253	0.11011059	0.05249665	5.6536722	5.8257875	5.2917182	3.5279933	5.2698488	3.5669573	3.9890689	4.4594988	2.7667079	2.3293864	2.9053534	5.3460534	2.9144966	5.3423967	5.1303141	3.9872079	-135.67773	R0:S0:1	-100.48	uncorrelated	51514b8	 2.42e+02	 9.50e-03	 2.11e-01	2022-04-11@08:44
2x2_2C_8b_C2v_L	0.1	14	1.64	-0.17111852	-9.4504469	-9.9969234	0.13173078	-10.035558	0.12322842	0.02095666	-8.4350638	14.2	-0.063451903	0.00017754193	-0.0017578754	-0.046297074	-0.0015593845	-0.048588469	-0.052999512	-0.00028010141	-0.00099134083	-0.84818655	1.2360564	0.05562041	-1.2379294	-0.053638513	-0.004602909	-1.4500412	1.34	0.647	0.133	-0.34311205	0.22225377	1.9389252	1.9836316	1.960232	0.14231223	1.9600803	0.15315249	0.2061572	1.8839778	1.2217146	0.71363451	0.0050979841	-0.32241621	0.88291543	-0.32430957	0.93982524	1.5925171	-0.0077165333	0.014530887	0.39124668	-0.67901353	-0.95667491	0.68201106	0.98110996	0.084155397	1.4118267	0.43283196	0.051895263	0.059591153	0.016390711	0.039549881	0.13296795	0.039681256	0.1421389	0.18480703	0.11078466	0.051955553	5.6338294	5.7550228	5.2247502	3.4424787	5.207037	3.4850586	4.0246385	4.4829289	2.7140221	2.4115692	2.9904107	5.3287011	3.0000511	5.3329895	4.9716112	4.0039502	-135.66276	R0:S0:1	-100.48	uncorrelated	51514b8	 2.56e+02	 1.00e-03	 1.16e-02	2022-04-11@08:48
2x2_2C_8b_C2v_L	0.1	14	1.64	0.0053158918	-9.4690796	-9.9472501	0.064874059	-10.011133	0.088009044	0.029214862	-8.1860038	14.22	-0.048280195	5.6998657e-05	0.0016952089	-0.0418229	0.0013310122	-0.042535278	-0.18848803	0.0044894165	-0.00015281405	-0.840831	1.2313006	0.048190549	-1.2365146	-0.050344616	-0.18979534	-1.4273688	1.34	0.647	0.133	-0.38401012	0.3478572	1.8805287	1.990098	1.9618163	0.18966231	1.9622385	0.18518293	0.95357242	1.9110284	1.3470704	1.2892863	0.013913143	-0.36628617	1.0438391	-0.36643109	1.0182428	2.1238201	-0.031555323	-0.010916355	0.24309893	-0.64894817	-1.2691276	0.64264632	1.2723625	2.0636662	1.1079164	0.39299998	0.064995276	0.11525748	0.0099165178	0.038006002	0.16992794	0.037598935	0.16606813	0.50458701	0.085132727	0.065215184	5.9378341	6.5314605	5.3117859	3.562301	5.3327396	3.5351621	4.8426386	4.8316568	2.3305841	1.5417632	2.856312	5.2412244	2.8355743	5.245029	5.075164	3.2138561	-135.32267	R0:S0:1	-100.64	uncorrelated	51514b8	 2.80e+02	 7.91e-02	 1.00e+06	2022-04-11@08:53
2x2_2C_8b_C2v_L	0.1	14	1.64	-0.1987806	-9.4630842	-9.9445592	0.14826515	-10.008213	0.13768938	0.035781361	-8.2111492	14.22	-0.072563727	-1.9965808e-05	-0.00098367595	-0.055927168	-0.0008921504	-0.056426393	0.059223474	6.194556e-05	-0.0005299512	-0.8539292	1.2317952	0.061523451	-1.23542	-0.059728713	-0.0010350475	-1.4292067	1.34	0.647	0.133	-0.34106949	0.2469933	1.9296665	1.9845455	1.9617383	0.16941784	1.9617834	0.17583722	0.23915592	1.881268	1.2464361	0.8230799	0.0004262199	-0.32244716	0.96133157	-0.32196252	0.99007166	-1.7483137	-0.00034472528	0.002619336	0.36743892	-0.65227133	-1.0970133	0.65313556	1.1080138	0.014221629	1.4279891	0.41142327	0.054138419	0.06811403	0.015483305	0.038063576	0.15517775	0.03800841	0.1605593	0.20561427	0.11309339	0.054222224	5.717366	5.8985047	5.3200427	3.4847109	5.3081189	3.5132333	3.9388169	4.4776048	2.6373549	2.2577848	2.8720824	5.3539344	2.8796377	5.353154	5.2104065	3.9726081	-135.26865	R0:S0:1	-100.64	uncorrelated	51514b8	 2.48e+02	 7.17e-03	 3.95e-01	2022-04-11@08:56
2x2_2C_8b_C2v_L	0.1	14	1.64	-0.1947137	-9.4617312	-9.9432576	0.12542557	-10.006496	0.12674266	0.022050129	-8.2219098	14.22	-0.067256058	5.1747215e-05	-0.0016636667	-0.048093302	-0.001805308	-0.048558523	0.053918269	-5.6158183e-05	-0.0002115233	-0.84952291	1.2315519	0.055272982	-1.2353843	-0.055434185	0.0013572638	-1.4308273	1.34	0.647	0.133	-0.34687143	0.23833475	1.9368285	1.984339	1.9609877	0.15904025	1.9611988	0.16016547	0.22228771	1.8809438	1.2377983	0.76141164	0.0010846526	-0.32776161	0.92876142	-0.3270717	0.93495344	-1.6776835	-0.0018776553	0.0032560282	0.37381945	-0.66425161	-1.0432833	0.66250462	1.0466765	-0.025652939	1.4310984	0.4176393	0.053735452	0.061425395	0.015689296	0.038807137	0.14664666	0.038596661	0.14757442	0.19399482	0.1134549	0.053806344	5.7022593	5.8554763	5.2796595	3.469614	5.2781607	3.4730917	3.9802996	4.4859965	2.6327979	2.305119	2.9207407	5.3505222	2.9202334	5.3510784	5.0940973	3.9878828	-135.24157	R0:S0:1	-100.64	uncorrelated	51514b8	 2.54e+02	 3.36e-04	 6.93e-03	2022-04-11@09:01
2x2_2C_8b_C2v_L	0.1	14	1.64	-0.32225742	-9.4561201	-9.8640476	0.14560013	-9.9577043	0.17066473	-0.010619831	-8.0380222	14.24	-0.081113987	-0.00074761963	-0.0033572224	-0.051633268	-0.0047552438	-0.051679722	0.30965037	0.00033463086	0.0017219375	-0.85518982	1.2255025	0.057560868	-1.2308536	-0.061316136	0.061048318	-1.4138845	1.34	0.647	0.133	-0.42318928	0.3871511	1.9354651	1.9919434	1.9635724	0.16478868	1.9644702	0.15592263	0.82273968	1.9132551	1.3862505	1.043868	-0.0012780412	-0.40329741	1.0361379	-0.39995968	0.98923631	-3.0534139	0.0034472529	-0.0066592272	0.19855113	-0.61839611	-1.271928	0.6071911	1.25571	-0.60740824	1.0803748	0.37971797	0.068667069	0.062077187	0.0080868627	0.036383436	0.15041821	0.035512896	0.14289553	0.46562671	0.083060935	0.068954498	6.3658394	6.7980657	5.4182953	3.3609422	5.4481769	3.3059585	2.3286125	4.8900427	1.7465807	1.2729222	2.7527266	5.2990451	2.7257883	5.3184488	7.4351798	3.1440724	-135.69808	R0:S0:1	-100.8	uncorrelated	51514b8	 2.93e+02	 7.19e-02	 1.00e+06	2022-04-11@09:04
2x2_2C_8b_C2v_L	0.1	14	1.64	-0.22594209	-9.4518733	-9.8622956	0.16090852	-9.955381	0.16397579	-0.044155217	-8.0761987	14.24	-0.076149255	-0.00029177914	-0.0013516914	-0.059164968	-0.001786177	-0.059004706	-0.0015672574	0.00024310414	0.00061383573	-0.85487391	1.2263627	0.064061206	-1.2323162	-0.064767654	-0.060608867	-1.4163645	1.34	0.647	0.133	-0.34820255	0.26235037	1.9316397	1.9851267	1.962556	0.17527614	1.9629148	0.17272979	1.7539628	1.8786997	1.2617873	0.84381757	-0.0015876365	-0.33098258	0.98250753	-0.32869329	0.9715564	0.0249325	0.0030471428	-0.0063560916	0.35272302	-0.63586016	-1.1541944	0.63270411	1.1481928	1.804511	1.4466043	0.39958483	0.055827437	0.066244807	0.01490956	0.037276887	0.15991182	0.036925277	0.15780806	0.20987838	0.1153731	0.055922614	5.7837319	5.9871415	5.3860277	3.4577858	5.3874156	3.4489895	5.2653723	4.4744677	2.5484211	2.1667267	2.7975631	5.3693241	2.7967492	5.3701738	3.897322	3.9754579	-134.95555	R0:S0:1	-100.8	uncorrelated	51514b8	 2.47e+02	 1.30e-02	 5.97e-01	2022-04-11@09:08
2x2_2C_8b_C2v_L	0.1	14	1.64	-0.21547654	-9.4508941	-9.8618481	0.12238392	-9.954694	0.12558874	-0.024331273	-8.0881862	14.24	-0.070153134	-6.4901363e-05	-0.0016919238	-0.049225652	-0.0019467776	-0.049323452	-0.00022401035	-6.8267432e-06	0.00018929295	-0.85019184	1.2256906	0.055582071	-1.2314233	-0.056191359	-0.056135016	-1.4182708	1.34	0.647	0.133	-0.34948792	0.25518024	1.9351093	1.9850518	1.9617336	0.17224241	1.9621017	0.17074784	1.7527598	1.8791963	1.2546473	0.80712676	-0.00040339231	-0.33167246	0.95483249	-0.32988587	0.94869603	0.0048844435	0.00076587438	-0.0016055444	0.35587882	-0.64902281	-1.1209058	0.64570023	1.1181809	1.7803603	1.4408934	0.40360623	0.055382401	0.062889926	0.014982028	0.038078148	0.1571696	0.037716221	0.15592745	0.21106395	0.11493576	0.05546376	5.771547	5.9611477	5.3408815	3.4868956	5.3422254	3.480505	5.2621412	4.4846234	2.543597	2.1929314	2.8475354	5.3579531	2.8456503	5.3586377	3.9184929	3.9646853	-134.88082	R0:S0:1	-100.8	uncorrelated	51514b8	 2.53e+02	 3.97e-03	 8.24e-03	2022-04-11@09:12
2x2_2C_8b_C2v_L	0.1	14	1.64	-0.20254844	-9.4499088	-9.860633	0.11762793	-9.9534236	0.11866276	-0.023568996	-8.0995647	14.24	-0.069305196	-4.0572593e-05	-0.0012405525	-0.048391701	-0.0014815418	-0.048793837	-0.00027042857	1.2380037e-05	4.5480806e-05	-0.84890263	1.2256318	0.055213028	-1.2308997	-0.055102777	-0.055224522	-1.41898	1.34	0.647	0.133	-0.34743062	0.25467885	1.9322635	1.9850573	1.9617101	0.17470883	1.9620701	0.17423217	1.7530079	1.8793362	1.254149	0.82174628	-0.00018183263	-0.32983433	0.95221581	-0.328193	0.95312194	0.0055984206	0.00055628819	-0.00063481853	0.35612018	-0.64923988	-1.1277435	0.64620157	1.1252861	1.7711102	1.4404292	0.40297419	0.055193222	0.065555984	0.014974969	0.038096557	0.15912554	0.037740902	0.15875167	0.21071105	0.11480643	0.055273537	5.7635074	5.9569177	5.3409633	3.5009746	5.340187	3.5000722	5.2545013	4.4815641	2.5626135	2.1957943	2.846487	5.3558627	2.8459564	5.3550466	3.9329715	3.9662743	-134.8663	R0:S0:1	-100.8	uncorrelated	51514b8	 2.52e+02	 6.37e-05	 1.02e-03	2022-04-11@09:16
2x2_2C_8b_C2v_L	0.1	14	1.64	-0.19526892	-9.4149334	-9.7489643	0.10865736	-9.8761904	0.10038248	-0.11646634	-8.0680777	14.26	-0.069050268	-3.6035239e-05	-0.00038572844	-0.048341083	-5.0503013e-05	-0.048532891	-0.20887577	0.00029197818	5.3298866e-05	-0.84604709	1.2185233	0.055297459	-1.2255809	-0.053828894	-0.17365164	-1.4150481	1.34	0.647	0.133	-0.40292544	0.38278301	1.9232522	1.9914054	1.9637218	0.20609313	1.9637564	0.17992767	1.1218933	1.9109152	1.38199	1.1156181	-0.04092542	-0.38206691	1.0890395	-0.39050344	1.0461044	2.204922	0.1046288	-0.06813583	0.21027631	-0.60988233	-1.4205776	0.61537615	1.3108517	2.0768062	1.1027966	0.37122846	0.067701082	0.073384111	0.0086228721	0.036166065	0.18291232	0.03616409	0.16243872	0.49326716	0.085256618	0.067951627	6.2484534	6.7345979	5.4714355	3.5285207	5.4303789	3.4359957	4.9137885	4.8528756	1.8838542	1.3369963	2.6737345	5.2419437	2.730629	5.2565718	4.9290751	3.1859612	-135.11117	R0:S0:1	-100.96	uncorrelated	51514b8	 2.87e+02	 6.77e-02	 1.00e+06	2022-04-11@09:20
2x2_2C_8b_C2v_L	0.1	14	1.64	-0.19333515	-9.4105709	-9.7474148	0.13107063	-9.8745398	0.1564571	-0.040359652	-8.1084641	14.26	-0.073445828	-0.00039552521	-0.00088934919	-0.058252208	-0.0011401994	-0.057289157	-0.0026065634	-1.3346268e-06	0.0023774581	-0.85091539	1.2180608	0.060263068	-1.2261623	-0.064900464	0.062962385	-1.4179832	1.34	0.647	0.133	-0.34510338	0.27860906	1.920744	1.98586	1.9627737	0.1993966	1.9636932	0.18369732	1.7101041	1.8800782	1.2780605	0.935672	-0.00092142459	-0.33028974	1.0319074	-0.32653006	0.96140935	0.039132001	0.00055182831	-0.012195908	0.33496686	-0.62820675	-1.2440954	0.61720653	1.2209902	-1.9336772	1.4336568	0.38660699	0.056828431	0.076168489	0.01417562	0.037042977	0.17921747	0.036158031	0.1661942	0.23900009	0.1139831	0.056930576	5.8194004	6.0855415	5.4233431	3.5435964	5.4519633	3.4724185	5.5393964	4.4621488	2.5147874	2.0565442	2.7439924	5.3425767	2.7217561	5.3563422	3.825234	3.933435	-134.57642	R0:S0:1	-100.96	uncorrelated	51514b8	 2.46e+02	 1.13e-02	 2.55e-01	2022-04-11@09:24
2x2_2C_8b_C2v_L	0.1	14	1.64	-0.18884024	-9.4096354	-9.7469124	0.10836043	-9.8741667	0.11269136	-0.026600212	-8.1177484	14.26	-0.06843754	-3.4355836e-05	-0.0008890597	-0.04935809	-0.0014032969	-0.04935449	0.0025879081	0.00015683953	0.00020381922	-0.84744036	1.2176354	0.054287072	-1.2255918	-0.055315838	0.059351861	-1.4193598	1.34	0.647	0.133	-0.34666518	0.27186022	1.9256925	1.9857594	1.9622395	0.19160596	1.9627349	0.18805352	1.7129212	1.8803526	1.2713383	0.89296101	-0.0019482925	-0.33107611	0.98433676	-0.32845172	0.97097831	-0.053395445	0.0038773323	-0.0046136701	0.33823945	-0.63660796	-1.2082807	0.63234164	1.2012738	-1.9021203	1.4305124	0.38979273	0.056483226	0.07151057	0.014275125	0.037570439	0.17248954	0.037085179	0.16956576	0.23755031	0.11375435	0.056572546	5.816698	6.0622677	5.3967359	3.5456006	5.3978427	3.5313905	5.5102221	4.4698528	2.4989282	2.0812002	2.7771944	5.3416653	2.776612	5.3437398	3.8545947	3.9293911	-134.52367	R0:S0:1	-100.96	uncorrelated	51514b8	 2.52e+02	 7.76e-04	 7.59e-03	2022-04-11@09:28
2x2_2C_8b_C2v_L	0.1	14	1.64	-0.15043355	-9.340534	-9.6017669	0.096974934	-9.7683769	0.10712239	0.016250645	-8.2800484	14.28	-0.0666568	-2.9179872e-05	-0.00070087615	-0.049600424	-0.0012171831	-0.050062199	0.052478653	-0.0003486466	0.00010982444	-0.84431109	1.2072455	0.053291991	-1.2180444	-0.055312566	0.34311378	-1.4316031	1.34	0.647	0.133	-0.41306022	0.41873905	1.9213987	1.992559	1.9652937	0.19632348	1.9659399	0.19446386	1.1382396	1.9177539	1.4178234	1.1745101	0.0013334571	-0.39952569	1.0805375	-0.39575741	1.0663434	-0.48619188	-0.0030255291	0.0018122057	0.18268034	-0.58138514	-1.4285917	0.57516973	1.4344258	-3.1491912	1.0442876	0.35787286	0.069357399	0.075183518	0.0074641806	0.034675659	0.17708113	0.034034739	0.17504518	0.46863769	0.078873931	0.069669916	6.3484183	6.8921805	5.5790911	3.4285579	5.5856674	3.4161967	7.5846704	4.9067988	1.7684449	1.1659134	2.5621683	5.2463425	2.5541894	5.2538967	2.133349	3.1033518	-134.99531	R0:S0:1	-101.12	uncorrelated	51514b8	 2.86e+02	 9.80e-02	 1.00e+06	2022-04-11@09:32
2x2_2C_8b_C2v_L	0.1	14	1.64	-0.20406999	-9.2917821	-9.5978262	0.14392514	-9.7525575	0.14527215	0.046806237	-8.5978796	14.28	-0.074559095	-9.3664246e-05	-0.00062519578	-0.058510172	-0.00089193363	-0.058803227	0.068709775	4.6784075e-05	5.292482e-05	-0.8467068	1.2086935	0.063421645	-1.2183563	-0.063805328	-0.00043381521	-1.4576616	1.34	0.647	0.133	-0.347794	0.29558059	1.920175	1.9864478	1.963535	0.19916935	1.9640494	0.19923481	0.32550534	1.8869613	1.2950325	0.97484735	-0.00025699999	-0.33474145	1.0033021	-0.33206704	1.004119	-2.0663245	0.00069694952	-0.00093051928	0.31876437	-0.61115475	-1.295242	0.60701067	1.2958523	0.0078263049	1.390034	0.37563906	0.057917477	0.0765312	0.013592473	0.036315864	0.17863597	0.035805484	0.17867746	0.26019696	0.10766819	0.058029178	5.877778	6.1891033	5.5017576	3.5072471	5.4997475	3.5085159	3.7303944	4.4110501	2.423783	1.9472617	2.6613837	5.3358265	2.6613981	5.3359997	5.7888465	3.9279661	-134.83064	R0:S0:1	-101.12	uncorrelated	51514b8	 2.47e+02	 1.29e-02	 7.12e-01	2022-04-11@09:36
2x2_2C_8b_C2v_L	0.1	14	1.64	-0.19173787	-9.2904038	-9.5975335	0.10346534	-9.7518028	0.10571997	0.030649639	-8.6016449	14.28	-0.069562188	-6.6940948e-06	-0.00065668739	-0.049582303	-0.00096835927	-0.050032477	0.063443349	-3.4342141e-05	2.6110493e-05	-0.84268877	1.2078027	0.054539288	-1.2173019	-0.054995669	1.9027933e-05	-1.4584094	1.34	0.647	0.133	-0.34586676	0.288723	1.9216631	1.9863506	1.9627613	0.20381188	1.9633083	0.20378517	0.32397649	1.8871388	1.2882066	0.9519867	-1.0690835e-06	-0.33253573	0.99548431	-0.32990804	0.99655083	-2.0284071	0.00013707873	-8.4380789e-05	0.32190579	-0.62327162	-1.279905	0.61874675	1.2806356	-0.00017024247	1.3877372	0.37728232	0.057361182	0.075066835	0.013687003	0.0370597	0.1819695	0.036518016	0.18193764	0.25908847	0.10751177	0.057458766	5.8661791	6.1660547	5.4600722	3.5707139	5.4587445	3.5706034	3.7808908	4.4160694	2.4264451	1.9700114	2.703821	5.3215043	2.7029886	5.3220334	5.7620133	3.9226451	-134.77304	R0:S0:1	-101.12	uncorrelated	51514b8	 2.52e+02	 2.65e-04	 8.33e-03	2022-04-11@09:40
2x2_2C_8b_C2v_L	0.1	14	1.64	-0.21352182	-9.0925661	-9.4128358	0.10309516	-9.5866807	0.098899149	0.14373511	-9.5479591	14.3	-0.073136398	0.0001404738	-0.00049114289	-0.050186509	-0.00068818242	-0.050690506	0.18917268	0.00015268144	-0.00032846502	-0.83441775	1.1954922	0.055792272	-1.2063472	-0.055269242	-0.23097271	-1.5350884	1.34	0.647	0.133	-0.40597627	0.41758913	1.9228088	1.992115	1.9655712	0.2239983	1.9653571	0.19312116	0.86942939	1.9244862	1.416764	1.1633406	-0.043099515	-0.38675141	1.1076957	-0.40205449	1.0669294	-2.1101147	0.11030239	-0.066397423	0.18990022	-0.56996333	-1.5466626	0.58062264	1.421079	2.3127848	1.0108094	0.35029589	0.068939218	0.07377866	0.007913348	0.034361786	0.19806259	0.034615376	0.17399562	0.48207261	0.072722759	0.069221562	6.3324794	6.8713704	5.6452154	3.523721	5.5794156	3.40894	5.0085647	4.826352	1.771062	1.1914343	2.4759515	5.1950223	2.5603278	5.2360043	4.8097899	3.1862508	-136.27532	R0:S0:1	-101.28	uncorrelated	51514b8	 2.85e+02	 7.41e-02	 1.00e+06	2022-04-11@09:44
2x2_2C_8b_C2v_L	0.1	14	1.64	-0.19311073	-9.0884437	-9.4125211	0.12020191	-9.5862942	0.1472966	0.054198532	-9.5465569	14.3	-0.073984189	-0.00022666405	-0.00028649334	-0.057592101	-0.00058422453	-0.057611684	-0.074028133	-0.00048339701	0.0020317696	-0.83646678	1.1963855	0.060997369	-1.2070726	-0.064502723	-0.0044835814	-1.531383	1.34	0.647	0.133	-0.34574665	0.31119026	1.91512	1.9869219	1.9635966	0.22021924	1.9647829	0.20211191	0.36409852	1.8980886	1.3106502	1.0360048	0.00100717	-0.33601622	1.0455384	-0.33251496	0.97534726	2.1855194	-0.0019852306	-0.0060940321	0.30471462	-0.60404587	-1.3769278	0.59026386	1.349014	0.072575417	1.3189446	0.36522348	0.058338523	0.081042847	0.01312012	0.036243085	0.19543245	0.035096801	0.18066196	0.28267576	0.097465456	0.058455789	5.9115652	6.2825292	5.5454787	3.5795473	5.5787439	3.4926092	3.6595908	4.3319428	2.3684716	1.8467226	2.6043363	5.2955646	2.5769668	5.3189621	6.0380394	3.9412777	-135.70606	R0:S0:1	-101.28	uncorrelated	51514b8	 2.48e+02	 1.25e-02	 2.78e-01	2022-04-11@09:47
2x2_2C_8b_C2v_L	0.1	14	1.64	-0.18523063	-9.0876879	-9.4126336	0.096244922	-9.5864278	0.098612221	0.035304116	-9.5420855	14.3	-0.069382001	-6.6661254e-06	-5.3186161e-06	-0.050038674	-0.00061505579	-0.049914236	-0.068225491	0.00019462768	0.00011788335	-0.83344536	1.1954528	0.053932718	-1.2063356	-0.054807682	0.0022534669	-1.5324446	1.34	0.647	0.133	-0.344184	0.30509736	1.9173221	1.9868409	1.9630981	0.21886901	1.963746	0.21611515	0.3659088	1.8981637	1.3045875	1.0110776	-0.0018061464	-0.33437906	1.0185411	-0.33078322	1.0074376	2.1570799	0.0031981747	-0.0037756889	0.30710219	-0.61175387	-1.352125	0.60644876	1.3488455	-0.048058653	1.316597	0.36599783	0.057883658	0.078905393	0.013199106	0.036725472	0.19397053	0.036087631	0.1916056	0.28251998	0.0973886	0.057987779	5.9073054	6.2660107	5.5203906	3.6096786	5.520121	3.6002961	3.707996	4.339169	2.3599713	1.8630553	2.6318805	5.2882358	2.6318094	5.2918635	6.0392492	3.9296621	-135.64773	R0:S0:1	-101.28	uncorrelated	51514b8	 2.52e+02	 1.36e-03	 8.82e-03	2022-04-11@09:51
2x2_2C_8b_C2v_L	0.1	14	1.64	-0.18064937	-9.0873443	-9.4125346	0.093367846	-9.5862028	0.09638759	0.034346227	-9.5402688	14.3	-0.069645438	-5.0492125e-05	-0.00021327218	-0.049741294	-0.00038334831	-0.050074598	-0.067495024	0.00011594971	0.00012815201	-0.8332488	1.195238	0.053902355	-1.2059509	-0.05445311	9.0502053e-05	-1.5320948	1.34	0.647	0.133	-0.3419608	0.3049984	1.9146693	1.9868281	1.9631076	0.2216049	1.9637574	0.22016385	0.36688781	1.8981839	1.3044903	1.026297	-7.2216585e-05	-0.33172599	1.0191513	-0.32883755	1.0148416	2.1543058	0.00031116857	-0.00076238443	0.30737532	-0.61180096	-1.3582816	0.60627182	1.3569716	-0.0023885284	1.3164283	0.36540631	0.057724684	0.081301189	0.013210642	0.0367109	0.19603644	0.036069571	0.19483978	0.28249573	0.09736326	0.05782862	5.8952926	6.2640406	5.5197835	3.6256184	5.5202832	3.6195943	3.7179362	4.3379386	2.3778921	1.863901	2.6314507	5.2831163	2.6293703	5.2850496	6.0451328	3.9282585	-135.63275	R0:S0:1	-101.28	uncorrelated	51514b8	 2.51e+02	 5.50e-05	 1.09e-03	2022-04-11@09:55
2x2_2C_8b_C2v_L	0.1	14	1.64	-0.15519077	-8.8003459	-9.1917954	0.078387732	-9.3772404	0.084582306	-0.013586974	-10.934489	14.32	-0.067171428	-0.0001996663	0.00058872592	-0.049154753	0.00057116515	-0.049510964	-0.39189156	0.00014974683	0.00045323866	-0.81964442	1.1806128	0.051939858	-1.1920058	-0.053042553	0.058813562	-1.6415352	1.34	0.647	0.133	-0.41143613	0.45443247	1.9267689	1.9932533	1.9671112	0.21242135	1.9678398	0.21012116	0.89620431	1.9357578	1.4534411	1.1745185	0.0011189218	-0.40693163	1.092885	-0.4026267	1.0794656	3.2563236	-0.0023007698	-0.00010369236	0.16252388	-0.53953995	-1.5323136	0.53272603	1.5365404	-0.491122	0.92505119	0.33983909	0.069819696	0.070278917	0.0067702088	0.032909939	0.19374677	0.032184238	0.19116157	0.47237972	0.062154525	0.070173717	6.4778179	7.0296814	5.769221	3.4051513	5.7764658	3.3931208	1.9577376	4.837796	1.6082852	1.0213941	2.3486304	5.1994969	2.3399223	5.2076682	7.7192506	3.1558099	-138.06461	R0:S0:1	-101.44	uncorrelated	51514b8	 2.83e+02	 4.47e-01	 1.00e+06	2022-04-11@09:59
2x2_2C_8b_C2v_L	0.1	14	1.64	-0.19703074	-8.7845786	-9.1975769	0.13125554	-9.3774703	0.13290709	-2.1362565	-10.926276	14.32	-0.073237493	-5.2836053e-05	0.00035873069	-0.057376954	-0.00010571024	-0.057815215	0.0004932649	-0.00037689449	4.0514449e-05	-0.82320648	1.1827837	0.062802523	-1.1941988	-0.063432438	-0.29651526	-1.5325232	1.34	0.647	0.133	-0.32724494	0.28442615	1.9406378	1.9847412	1.9654704	0.18838236	1.9660619	0.18980342	1.9262225	1.9105625	1.2838713	0.8175789	0.00033832572	-0.3206879	0.89808908	-0.31750135	0.9025737	-0.00068927742	-0.00035361443	0.00026994772	0.34867081	-0.5684088	-1.2930368	0.56366135	1.2986535	1.1821486	1.3076558	0.37043218	0.053384368	0.058643948	0.015321958	0.034496224	0.17349999	0.033903956	0.17460049	0.071557678	0.086493613	0.05346464	5.9092403	6.0931623	5.7232077	3.3764806	5.7209444	3.3833634	3.8367806	3.9622811	2.414218	2.0804273	2.4653471	5.4289577	2.4638488	5.4278348	4.5657342	4.5254915	-141.32945	R0:S0:1	-101.44	uncorrelated	51514b8	 2.24e+02	 1.34e-02	 9.54e-01	2022-04-11@10:03
2x2_2C_8b_C2v_L	0.1	14	1.64	-0.19742139	-8.7838664	-9.1981304	0.094458153	-9.3775398	0.097393701	-2.1335463	-10.926958	14.32	-0.065226613	2.4069467e-05	-0.0007831296	-0.045914792	-0.0011583508	-0.046599297	0.00036259316	-0.0002585406	-2.1468697e-05	-0.81802123	1.1820909	0.051327493	-1.1933121	-0.051894437	-0.26874988	-1.5496617	1.34	0.647	0.133	-0.33980561	0.27578371	1.9497537	1.9845771	1.9645496	0.1769712	1.9651707	0.17748683	1.9394014	1.9086584	1.2752681	0.73927953	0.00016577568	-0.33234609	0.87131911	-0.32929315	0.87512603	-0.00022995221	1.1006611e-05	0.00041889426	0.35391879	-0.58247915	-1.2297052	0.57747432	1.2321826	1.0712343	1.3205007	0.37280754	0.053734184	0.049749231	0.015486325	0.035416398	0.16404735	0.03479597	0.16441021	0.059111238	0.088304839	0.053797571	5.9013118	6.0581501	5.6741853	3.3666531	5.6721472	3.3682926	3.7368493	3.9915508	2.3853333	2.1201676	2.5223399	5.4447534	2.5208774	5.4443459	4.6009641	4.5209492	-141.27167	R0:S0:1	-101.44	uncorrelated	51514b8	 2.34e+02	 4.17e-04	 1.07e-02	2022-04-11@10:07
2x2_2C_8b_C2v_L	0.1	14	1.64	-0.24140452	-8.3800107	-8.9544242	0.10673154	-9.1258835	0.10876047	-6.4728194	-12.762038	14.34	-0.06102553	0.00019648505	-0.0012315933	-0.03787861	-0.0020744798	-0.039016432	0.26700686	-0.00096996975	-0.00042496653	-0.79471682	1.1665241	0.048323803	-1.1775363	-0.048630412	-0.80498465	-1.5094228	1.34	0.647	0.133	-0.38823227	0.32251044	1.9605319	1.9864001	1.9635293	0.098055581	1.9696086	0.19685014	1.9222161	1.9387988	1.321785	0.71257836	0.16282689	-0.41632034	0.69832018	-0.3519828	0.89037569	-0.41567003	-0.29256491	0.17412154	0.30976701	-0.59697476	-0.96623932	0.49395802	1.4735087	1.1916266	1.064079	0.34892581	0.063848941	0.039222247	0.013692128	0.036625388	0.093925527	0.030433682	0.17831554	0.075350864	0.059993241	0.063979356	6.1543279	6.2879659	5.6155112	2.9767895	5.9923512	3.2002701	3.9361325	3.8184964	2.0392949	1.8613101	2.6228834	5.486911	2.1389489	5.5070644	4.4627908	4.5169169	-152.16376	R0:S0:1	-101.6	uncorrelated	51514b8	 2.51e+02	 7.18e-02	 1.00e+06	2022-04-11@10:11
2x2_2C_8b_C2v_L	0.1	14	1.64	-0.18051083	-8.3781886	-8.9627277	0.13103438	-9.1238394	0.064223138	-6.431987	-12.75189	14.34	-0.066514175	-0.0014180587	0.0014828948	-0.045705551	0.00023704415	-0.047182713	0.22581335	-0.28956161	-0.0016276366	-0.79799326	1.1655729	0.057525729	-1.1778339	-0.053567452	-0.87936054	-1.352111	1.34	0.647	0.133	-0.32029063	0.29442184	1.9398222	1.9849868	1.9661525	0.14750062	1.9657099	0.24660582	1.9145072	1.9476305	1.2937358	0.83946026	0.020377469	-0.31539507	0.71041265	-0.31703788	0.99923879	-0.099591116	0.049670912	0.034374727	0.33706053	-0.55192285	-1.1957231	0.55885404	1.4553191	1.2846754	1.0064525	0.36058952	0.052076728	0.059112212	0.015084967	0.033907198	0.138047	0.034209067	0.22276313	0.082901634	0.051423132	0.052202443	5.968915	6.1878535	5.8236511	3.1507512	5.7667873	3.643433	3.8604262	3.5752151	2.3191855	1.9840274	2.3976133	5.4936923	2.3921138	5.3319672	4.6272907	4.7265334	-151.88247	R0:S0:1	-101.6	uncorrelated	51514b8	 2.29e+02	 9.79e-03	 9.69e-02	2022-04-11@10:15
2x2_2C_8b_C2v_L	0.1	14	1.64	-0.177328	-8.3773599	-8.9640266	0.087833561	-9.1236248	0.081562484	-6.4306292	-12.752081	14.34	-0.064007248	0.00034724276	0.00025904702	-0.044108093	-0.00020689702	-0.048397433	0.22577032	-0.28568789	-0.0010199644	-0.7983208	1.1660311	0.050948893	-1.1760335	-0.049402036	-0.88109504	-1.3474978	1.34	0.647	0.133	-0.32910352	0.28971999	1.9444035	1.9846695	1.965354	0.17328635	1.9657399	0.20310809	1.9147839	1.9478359	1.2890436	0.79809258	0.01019306	-0.32367781	0.8080276	-0.32508397	0.92057256	-0.085127324	0.0600586	0.020716659	0.34385729	-0.56311755	-1.249687	0.56003112	1.317676	1.2813746	1.0033692	0.3632173	0.052681862	0.054842781	0.015403756	0.034659259	0.161885	0.034233251	0.18883359	0.082668931	0.051218764	0.052802574	5.9617728	6.1556787	5.7776094	3.3177819	5.764645	3.4486857	3.868675	3.5838476	2.3226958	2.0221056	2.4276107	5.4488272	2.4169118	5.3941677	4.6203432	4.7171954	-151.85779	R0:S0:1	-101.6	uncorrelated	51514b8	 2.30e+02	 4.96e-04	 6.42e-03	2022-04-11@10:19
2x2_2C_8b_C2v_L	0.1	14	1.64	-0.12062324	-7.8677343	-8.7101978	0.072902555	-8.8243975	0.049491768	-12.857174	-15.015464	14.36	-0.062361867	0.00088094588	0.00095508428	-0.047632236	0.0020360132	-0.050090556	0.60768256	-0.85635543	-0.0021503323	-0.77497893	1.1486117	0.050522724	-1.1554451	-0.047503727	-1.838253	-0.92629348	1.34	0.647	0.133	-0.33695852	0.3521334	1.9240653	1.9865081	1.9624038	0.11529147	1.9685068	0.41481333	1.8909978	1.9910407	1.3507248	1.0205966	0.19069898	-0.40548628	0.77440214	-0.27033984	1.3234663	-0.68571432	0.050382815	0.25132572	0.29327022	-0.60695125	-1.0345281	0.49948682	1.8150532	1.3582414	0.32715941	0.33881232	0.0640032	0.074762895	0.013574482	0.037724892	0.11134347	0.031284374	0.36127059	0.10439097	0.0089970305	0.064456689	6.1310087	6.4292226	5.6162922	3.10873	6.0117451	4.0186185	4.2636979	3.7039634	2.062239	1.6854565	2.6273186	5.3398382	2.0567376	5.0049552	4.2499822	4.3797853	-167.57438	R0:S0:1	-101.76	uncorrelated	51514b8	 2.42e+02	 4.77e-02	 1.00e+06	2022-04-11@10:24
2x2_2C_8b_C2v_L	0.1	14	1.64	-0.15421611	-7.864832	-8.7152159	0.14111403	-8.8231912	0.036899983	-12.850768	-15.005026	14.36	-0.061816752	0.00051237597	0.0014260896	-0.046360615	0.0020786896	-0.04330713	0.46927815	-1.0035197	-0.0080648072	-0.77314249	1.1489855	0.056597455	-1.1587036	-0.054142485	-1.8347678	-1.0130375	1.34	0.647	0.133	-0.30007231	0.32025591	1.9368762	1.9858318	1.9679249	0.13088843	1.9671744	0.2947582	1.8999542	1.9759613	1.3187384	0.90312543	0.026068245	-0.30108238	0.6210087	-0.29963916	1.0279411	-0.1507973	0.18272126	0.073408479	0.30817752	-0.5166872	-1.1804441	0.52441935	1.6070748	1.4073925	0.64012142	0.34907137	0.049341615	0.061674429	0.014255808	0.032229496	0.12439228	0.032752009	0.26680638	0.096507219	0.023985336	0.049740986	6.1009638	6.3910388	5.9926351	2.95964	5.9316862	3.8017897	3.8518064	3.1620489	2.1373436	1.7726267	2.2461543	5.5581508	2.2088804	5.1960803	4.7274053	5.0014423	-167.60349	R0:S0:1	-101.76	uncorrelated	51514b8	 2.27e+02	 1.56e-02	 9.84e-02	2022-04-11@10:28
2x2_2C_8b_C2v_L	0.1	14	1.64	-0.15449101	-7.8637429	-8.7175645	0.075801776	-8.8237765	0.072142789	-12.848838	-15.004785	14.36	-0.060721947	-0.00030617585	0.00090889231	-0.043615279	0.00051030279	-0.050427206	0.47555362	-1.0062753	0.00048101008	-0.7740796	1.1497772	0.049032759	-1.1560695	-0.046685089	-1.8381979	-1.0109245	1.34	0.647	0.133	-0.3168078	0.31531969	1.9425431	1.9853666	1.9673258	0.17768405	1.9674245	0.21399301	1.900902	1.9747933	1.3137862	0.85404142	0.008652893	-0.31449542	0.77047071	-0.31871713	0.91144211	-0.11111339	0.20081862	0.0075649713	0.31776326	-0.52350631	-1.3047907	0.52372696	1.3600793	1.4012597	0.65816399	0.35149683	0.050649877	0.056518536	0.014726572	0.032759129	0.16964224	0.032615964	0.2066792	0.095708976	0.02512665	0.051054218	6.1015287	6.3483686	5.956584	3.2526096	5.9361824	3.4108221	3.844581	3.1679797	2.1469035	1.8259823	2.2484009	5.4476846	2.2457213	5.3512901	4.7353673	4.9981708	-167.59121	R0:S0:1	-101.76	uncorrelated	51514b8	 2.27e+02	 9.57e-04	 1.18e-02	2022-04-11@10:32
2x2_2C_8b_C2v_L	0.1	14	1.64	-0.12936837	-7.2430201	-8.4588742	0.058856214	-8.4780005	0.069222475	-21.388005	-17.685038	14.38	-0.055954344	-0.0016794633	0.001460847	-0.047808759	0.00075578507	-0.047416075	0.74929137	-2.1626233	0.0031466468	-0.74434541	1.1322845	0.044983294	-1.1344334	-0.047033202	-3.140091	-0.54084911	1.34	0.647	0.133	-0.42859007	0.48439313	1.9353267	1.9902908	1.9593134	0.11566341	1.9699756	0.37882299	1.9139859	1.9653646	1.481513	1.0816626	0.26502552	-0.55479767	0.97232046	-0.32498275	1.3142639	-1.0011064	0.811139	0.27266553	0.19998783	-0.63869187	-1.1081374	0.4614747	2.0289173	0.98197332	-0.42996106	0.31173185	0.083559339	0.065021236	0.0098141354	0.040936409	0.11193044	0.029875924	0.32761406	0.084631244	0.034819491	0.085052032	6.6091166	6.9328188	5.4646949	3.1147382	6.1723832	3.9125696	4.942087	5.0135335	1.4461666	1.1155822	2.7255779	5.2489251	1.860775	4.7719341	3.350643	3.0751947	-188.93008	R0:S0:1	-101.92	uncorrelated	51514b8	 2.93e+02	 1.02e-01	 1.00e+06	2022-04-11@10:36
2x2_2C_8b_C2v_L	0.1	14	1.64	-0.16640505	-7.2413235	-8.4741214	0.16831744	-8.4821009	0.044335492	-21.421302	-17.719829	14.38	-0.069379186	-0.00024287973	0.003118906	-0.051538924	0.0027566546	-0.044345081	0.47334633	-1.8173099	-0.0086491496	-0.74375234	1.1332321	0.064749322	-1.1366509	-0.063948129	-2.9895871	-0.65823005	1.34	0.647	0.133	-0.27029412	0.35173551	1.9297231	1.9868637	1.9704251	0.1249487	1.969866	0.29171467	1.9011822	1.9856096	1.3490211	1.0127628	0.027098599	-0.27868347	0.55856214	-0.27045685	0.90221297	-0.12669754	0.29328335	0.071124561	0.27433549	-0.47015321	-1.2228101	0.472747	1.7161281	1.4290106	0.33618736	0.3442603	0.044877514	0.068191594	0.013241049	0.029819854	0.1197461	0.0301333	0.26663765	0.095267582	0.014473259	0.045640983	6.2258907	6.6207102	6.2017116	2.7749694	6.165336	3.7229459	3.6759677	2.8556505	1.974784	1.5311294	2.0465585	5.6483295	1.9774707	5.1194159	4.8970709	5.2959605	-188.68878	R0:S0:1	-101.92	uncorrelated	51514b8	 2.17e+02	 2.38e-02	 1.53e-01	2022-04-11@10:40
2x2_2C_8b_C2v_L	0.1	14	1.64	-0.16263793	-7.2406799	-8.4782505	0.065500592	-8.483873	0.059480245	-21.422853	-17.722334	14.38	-0.0544766	-0.0073267176	0.001141634	-0.044738837	0.0016110612	-0.050884097	0.47431462	-1.7968535	0.01869712	-0.74285521	1.1336658	0.04415292	-1.1338272	-0.041202808	-2.9755238	-0.65079653	1.34	0.647	0.133	-0.31079108	0.34416033	1.9528444	1.9862458	1.9700356	0.1799106	1.9691249	0.21212471	1.9036363	1.9841663	1.3414958	0.80260241	0.0017936048	-0.31315383	0.7610903	-0.3182701	0.87013367	-0.056705846	0.30724808	-0.10013512	0.28697658	-0.4725706	-1.319921	0.48676883	1.314101	1.4109892	0.38324438	0.34493062	0.047898717	0.046900487	0.013880067	0.030141161	0.1817118	0.031031516	0.22323611	0.093083961	0.015915412	0.04865834	6.3192511	6.5688394	6.1723241	3.1091022	6.1188162	3.2840441	3.6651039	2.8715756	1.8662767	1.6072395	2.0276248	5.4649042	2.0818031	5.3442014	4.9084266	5.2812757	-188.60767	R0:S0:1	-101.92	uncorrelated	51514b8	 2.26e+02	 5.10e-03	 1.94e-02	2022-04-11@10:44
2x2_2C_8b_C2v_L	0.1	14	1.64	-0.16103969	-7.2405747	-8.4787218	0.069698762	-8.4842559	0.070241254	-21.423008	-17.722735	14.38	-0.05928314	-0.00019877152	0.00076922211	-0.04784675	0.00080251139	-0.047070343	0.47371261	-1.7937767	0.00033135811	-0.74398498	1.1336711	0.046247173	-1.1340822	-0.04677999	-2.9734814	-0.6503237	1.34	0.647	0.133	-0.30379752	0.34642872	1.9467047	1.9863659	1.9699103	0.19137465	1.9699012	0.18702147	1.9032432	1.9846401	1.3437737	0.87304902	-0.0012125651	-0.30817312	0.78612003	-0.30733188	0.7708119	-0.0706128	0.3013419	-0.0034578098	0.28419409	-0.4749167	-1.3525274	0.47532056	1.3477479	1.415415	0.37329782	0.3446207	0.047303906	0.052336643	0.013755994	0.030254825	0.1928281	0.030268155	0.18767703	0.093424548	0.01544205	0.048058867	6.294341	6.5825288	6.1634485	3.1748784	6.1627248	3.1575695	3.6581198	2.8572643	1.8966157	1.5886551	2.0359489	5.4207681	2.039562	5.4355583	4.914372	5.2939729	-188.61282	R0:S0:1	-101.92	uncorrelated	51514b8	 2.24e+02	 2.27e-04	 5.55e-03	2022-04-11@10:49
2x2_2C_8b_C2v_L	0.1	14	1.64	-0.1962105	-6.5078296	-8.2474514	0.068650622	-8.1051343	0.074712751	-32.153304	-20.906075	14.4	-0.059122347	0.00061088293	0.00024928173	-0.051612764	0.00043715975	-0.049234555	0.22095324	-2.6470069	-0.0006382586	-0.7100181	1.1183994	0.043802448	-1.1092865	-0.043785327	-4.2860869	-0.26479072	1.34	0.647	0.133	-0.29495834	0.3780829	1.9549511	1.9870309	1.9739292	0.22752528	1.9698203	0.13562255	1.9103066	1.9822793	1.3741725	0.84508429	-0.064055108	-0.27986629	0.80615213	-0.32618963	0.66735481	0.11582839	0.39955849	-0.060781685	0.25486476	-0.40384254	-1.458395	0.46652691	1.1672875	1.3807355	0.26397907	0.34390683	0.044777182	0.044294507	0.013132992	0.026263817	0.24193247	0.030539409	0.1443874	0.086863629	0.017889375	0.045927942	6.5089424	6.8016762	6.4503744	3.1115569	6.2535696	2.8084892	3.4836801	2.7446825	1.6210556	1.3680616	1.7169789	5.3894922	2.0078153	5.5819364	5.0487208	5.4687421	-214.90631	R0:S0:1	-102.08	uncorrelated	51514b8	 2.22e+02	 4.09e-02	 1.00e+06	2022-04-11@10:54
2x2_2C_8b_C2v_L	0.1	14	1.64	-0.13495443	-6.516302	-8.2548284	0.04134583	-8.1260168	0.0929272	-32.165698	-20.926508	14.4	-0.048473062	-0.0069819536	0.0022146443	-0.047312133	0.00031904088	-0.05094193	0.22516857	-2.5038135	0.022700212	-0.70322236	1.1194271	0.042000237	-1.1091293	-0.045071255	-4.1755718	-0.24041791	1.34	0.647	0.133	-0.29259526	0.37084005	1.9565584	1.9870011	1.9721187	0.25569512	1.9711848	0.13894841	1.9133959	1.985909	1.3672218	0.79271378	-0.013406788	-0.2991273	0.8930104	-0.30290672	0.63897165	0.012817032	0.35987227	-0.12723314	0.25883852	-0.4319795	-1.4013407	0.44716316	1.213738	1.3617498	0.15411077	0.3441546	0.043642938	0.043788716	0.013156035	0.028074427	0.28163257	0.02913934	0.14494	0.083902923	0.014198114	0.044671199	6.5039634	6.7702125	6.3461293	3.2936061	6.3183846	2.7728565	3.4379441	2.6844065	1.6454297	1.4036554	1.8335562	5.2629661	1.927036	5.6307535	5.0820227	5.5076826	-214.70487	R0:S0:1	-102.08	uncorrelated	51514b8	 2.22e+02	 9.54e-03	 1.74e-02	2022-04-11@10:58
2x2_2C_8b_C2v_L	0.1	14	1.64	-0.13151884	-6.5171081	-8.2569672	0.059879013	-8.1294447	0.064235383	-32.165941	-20.927441	14.4	-0.052517649	0.0019914605	0.0013858504	-0.049794204	0.0013292227	-0.046495266	0.22294774	-2.4993905	-0.0056830645	-0.70628032	1.1187847	0.042215163	-1.1101716	-0.043642061	-4.1713308	-0.24205949	1.34	0.647	0.133	-0.29155321	0.37100314	1.9531709	1.98688	1.9718473	0.19763288	1.9717839	0.17382044	1.9130421	1.9865792	1.3673952	0.84873604	-0.0023001101	-0.30049006	0.77132479	-0.29937937	0.70110002	-0.028152916	0.35232052	0.027892119	0.2600771	-0.43808402	-1.3209048	0.43636427	1.3044763	1.366287	0.11702361	0.34413255	0.043532132	0.046183132	0.013277301	0.028405458	0.21569069	0.028492864	0.18522368	0.08421002	0.013520677	0.044556283	6.4763899	6.7702519	6.331164	3.0630341	6.3515842	2.9415093	3.4289417	2.6661144	1.6665322	1.4036826	1.8790713	5.420314	1.8666883	5.5143959	5.0898927	5.5233338	-214.70673	R0:S0:1	-102.08	uncorrelated	51514b8	 2.21e+02	 6.51e-04	 8.14e-03	2022-04-11@11:03
2x2_2C_8b_C2v_L	0.1	14	1.64	-0.065867341	-5.6935057	-8.0526036	0.049369439	-7.7597955	0.052416414	-45.077584	-24.618932	14.42	-0.040609201	0.0064578296	0.0030933313	-0.047201412	0.0020621081	-0.049852835	-0.27738617	-3.1234105	-0.016719844	-0.6599129	1.1045453	0.03692957	-1.0835812	-0.036974607	-5.4316224	0.21324698	1.34	0.647	0.133	-0.2861922	0.39975177	1.9603127	1.9875228	1.9764242	0.21613969	1.971983	0.15850345	1.9224926	1.9848348	1.3954625	0.76261483	-0.063645849	-0.26630133	0.71382433	-0.33427014	0.69616573	0.15350425	0.37275545	0.042809735	0.23405407	-0.36263794	-1.3194876	0.42592314	1.1395511	1.3044357	0.045625614	0.34705813	0.040943482	0.04270237	0.012682652	0.023871238	0.2577264	0.028454487	0.18976659	0.075303966	0.015334126	0.042119616	6.7110404	6.955783	6.6290748	2.8664938	6.4203905	2.7781596	3.2234337	2.5717218	1.390704	1.2199661	1.5611523	5.492685	1.8306606	5.5333014	5.2323504	5.6665758	-245.87986	R0:S0:1	-102.24	uncorrelated	51514b8	 2.19e+02	 2.02e-02	 1.00e+06	2022-04-11@11:08
