model	E_kin	D	U	e	eb1_1	eb2_1	eb3_1	eb4_1	eb5_1	eb6_1	eb7_1	eb8_1	mu	sb1_1	sb2_1	sb3_1	sb4_1	sb5_1	sb6_1	sb7_1	sb8_1	tb1_1	tb2_1	tb3_1	tb4_1	tb5_1	tb6_1	tb7_1	tb8_1	tpd	tpp	tppp	ave_D	ave_e	ave_mu	ave_tpd	ave_tpp	ave_tppp	ave_U_1	ave_eb1_1	ave_eb2_1	ave_eb3_1	ave_eb4_1	ave_eb5_1	ave_eb6_1	ave_eb7_1	ave_eb8_1	ave_mu_1	ave_sb1_1	ave_sb2_1	ave_sb3_1	ave_sb4_1	ave_sb5_1	ave_sb6_1	ave_sb7_1	ave_sb8_1	ave_tb1_1	ave_tb2_1	ave_tb3_1	ave_tb4_1	ave_tb5_1	ave_tb6_1	ave_tb7_1	ave_tb8_1	var_U_1	var_eb1_1	var_eb2_1	var_eb3_1	var_eb4_1	var_eb5_1	var_eb6_1	var_eb7_1	var_eb8_1	var_mu_1	var_sb1_1	var_sb2_1	var_sb3_1	var_sb4_1	var_sb5_1	var_sb6_1	var_sb7_1	var_sb8_1	var_tb1_1	var_tb2_1	var_tb3_1	var_tb4_1	var_tb5_1	var_tb6_1	var_tb7_1	var_tb8_1	E0_1	sector_1	E0_2	sector_2	githash	iterations	dist_function	distance	diff_hybrid	time
2x2_2C_8b_C2v_L	7.9548872	0	14	3.1695	0.0018966178	-3.1022638	-3.6869349	-0.10868969	-3.686944	-0.10869079	0.14780046	-3.2464716	9.8	-3.6500554e-05	-6.7538764e-06	0.0094399223	-0.17253352	0.0094394611	-0.17253362	3.636482e-06	8.7254376e-06	-0.1122816	-1.0480638	1.635789	0.042537516	-1.6357909	-0.04253608	0.24121687	-2.1549857	1.9492	1	0.2373	0.013237844	1.2557043	1.6180274	-0.59066599	-0.19598988	0.080026616	0.13396957	0.26527077	1.939942	1.8043204	1.5585986	1.8043206	1.5586046	0.018908099	1.5490036	1.1083674	0.00036189824	1.9737224e-05	0.10474189	1.1605814	0.10474469	1.1605835	-2.8421842e-05	-1.9074363e-05	1.1621379	0.73820986	-1.5518738	-0.55982036	1.5518723	0.55981661	-0.30335527	2.5243198	0.028977622	0.23770042	0.058424882	0.17898816	0.36581447	0.17898807	0.36581035	0.019049089	0.34936546	0.036155089	4.1301943	5.3685751	5.1519625	5.0536036	5.151964	5.0535964	4.2913274	6.1950073	5.2796115	2.7529111	3.3540319	5.1581494	3.3540299	5.1581423	3.7650163	3.1859676	-72.573495	R0:S0:1	-53.044	uncorrelated	51514b8	0	sharp_wc_2.0_b_50	 1.28e+02	 1.00e+06	2022-04-18@10:00
2x2_2C_8b_C2v_L	7.955098	0	14	3.200831	0.0065746313	-3.0798919	-3.6631782	-0.11559746	-3.6631886	-0.11559798	0.15512023	-3.2248309	9.8	1.9513757e-05	2.3309284e-06	0.0087775034	-0.18036966	0.0087778803	-0.18036901	-1.5909291e-06	1.7981327e-06	-0.11454461	-1.0492954	1.6389588	0.037436813	-1.6389607	-0.037440495	0.25097855	-2.1609156	1.9568793	1	0.23466552	0.012844318	1.2530117	1.6145185	-0.60098505	-0.20229455	0.082545055	0.13482562	0.2786119	1.9380797	1.7975072	1.5418143	1.7975062	1.5418184	0.020165634	1.5352524	1.1077325	-0.00017890341	-3.1230097e-06	0.1099728	1.2001697	0.10997288	1.2001495	5.6310112e-06	-2.5260247e-06	1.1917941	0.74575037	-1.5756049	-0.55079095	1.5756116	0.55081269	-0.31262426	2.5580279	0.029131226	0.24768797	0.060150421	0.18447133	0.37808093	0.18447219	0.37807841	0.020356	0.35579906	0.036760801	4.192572	5.3690429	5.1638193	5.0346115	5.1638203	5.0346228	4.2975214	6.249864	5.2777592	2.7443938	3.3414199	5.2100104	3.3414288	5.2099909	3.7625019	3.1460955	-72.475724	R0:S0:1	-52.793352	uncorrelated	51514b8	2	sharp_wc_2.0_b_50	 1.35e+02	 1.42e-02	2022-04-18@10:12
2x2_2C_8b_C2v_L	7.9589668	0	14	3.2321621	0.0061796178	-3.0269745	-3.6355128	-0.12379119	-3.6355108	-0.12379134	0.16393698	-3.2025646	9.8	2.1949571e-05	3.5680115e-07	0.0089195621	-0.18515528	0.0089235077	-0.18515856	-1.5793123e-06	-2.1486126e-06	-0.11593765	-1.0468056	1.6430857	0.036333525	-1.6430892	-0.03633841	0.25707123	-2.1688394	1.9645586	1	0.23203103	0.0125524	1.2503836	1.6115737	-0.61056039	-0.20870302	0.085037248	0.13582952	0.29146686	1.9358431	1.7897955	1.5381602	1.7897956	1.5381476	0.020765633	1.5203332	1.1071976	-0.00020793682	2.4204703e-06	0.11681436	1.2235408	0.11680488	1.2235665	7.9882712e-06	3.3776581e-06	1.2234904	0.75325549	-1.6022374	-0.55748621	1.6022347	0.55749851	-0.31627882	2.5952276	0.029310998	0.25871302	0.062221403	0.19068331	0.37992997	0.19068301	0.37993463	0.021005489	0.36244953	0.037403661	4.2436031	5.3737637	5.1820692	5.0212466	5.182066	5.0212514	4.3042492	6.3091984	5.265167	2.7327633	3.3316083	5.2349513	3.331593	5.2349857	3.7582927	3.1009248	-72.310722	R0:S0:1	-52.542703	uncorrelated	51514b8	4	sharp_wc_2.0_b_50	 1.42e+02	 3.92e-03	2022-04-18@10:31
2x2_2C_8b_C2v_L	7.9707119	0	14	3.2634931	0.0091561777	-2.9889896	-3.6124431	-0.13205646	-3.6124714	-0.13206018	0.17190064	-3.1806496	9.8	1.9637059e-05	7.9189596e-06	0.0080850116	-0.19191267	0.0080826306	-0.19191275	3.3644568e-06	6.1276249e-06	-0.11765036	-1.045929	1.6469239	0.031340625	-1.6469303	-0.03134356	0.26523281	-2.1752382	1.9722379	1	0.22939655	0.011664072	1.2480121	1.6086201	-0.61953239	-0.21411727	0.087217822	0.13676883	0.29289166	1.9344684	1.7828934	1.5445724	1.7828919	1.5445909	0.02123938	1.5091469	1.1069273	-0.00017683213	-1.4661068e-05	0.12116857	1.2376323	0.12117801	1.2375972	-2.6491672e-05	-1.2148732e-05	1.2404389	0.75580249	-1.6266939	-0.539028	1.6267046	0.53905062	-0.32125903	2.6233588	0.029480047	0.26146321	0.063522507	0.19632407	0.37953121	0.19632547	0.37952022	0.021538348	0.36730601	0.037937178	4.2369984	5.3888644	5.2082241	4.9860421	5.208229	4.9860485	4.3106374	6.3528672	5.2512578	2.7208008	3.3341266	5.2334812	3.334144	5.2334291	3.7558331	3.0646357	-72.190595	R0:S0:1	-52.292055	uncorrelated	51514b8	3	sharp_wc_2.0_b_50	 1.47e+02	 4.47e-03	2022-04-18@10:47
2x2_2C_8b_C2v_L	7.9682313	0	14	3.2948241	0.0099565606	-2.9518585	-3.5864767	-0.13834052	-3.586474	-0.13834023	0.17733988	-3.1542454	9.8	-2.3033305e-05	1.5320113e-06	0.0073242457	-0.19751011	0.0073231221	-0.19751018	1.8193221e-06	-7.421227e-06	-0.11942221	-1.0451436	1.6504584	0.027138655	-1.6504588	-0.027132059	0.27182803	-2.180638	1.9799172	1	0.22676207	0.010483488	1.2452516	1.6052078	-0.62964801	-0.22051897	0.089794751	0.13760648	0.31309071	1.9318317	1.7752144	1.5289236	1.7752152	1.5289217	0.022462985	1.4940227	1.106196	0.00021171363	-1.1462462e-05	0.12645585	1.2697682	0.12645816	1.2697743	4.48279e-07	1.4961108e-05	1.2725014	0.7666465	-1.6524994	-0.53192211	1.6524972	0.53189022	-0.32754679	2.658854	0.029628471	0.27778281	0.065945321	0.20233636	0.38943426	0.20233576	0.3894382	0.022841995	0.37349967	0.038559977	4.3211537	5.3850186	5.2229325	4.9748789	5.2229308	4.9748639	4.314527	6.4125063	5.2438541	2.7138735	3.3185542	5.2871846	3.3185559	5.2871941	3.7545591	3.0173726	-72.044994	R0:S0:1	-52.041407	uncorrelated	51514b8	4	sharp_wc_2.0_b_50	 1.54e+02	 1.33e-03	2022-04-18@11:06
2x2_2C_8b_C2v_L	7.9784246	0	14	3.3261552	0.010743179	-2.9080686	-3.5601371	-0.14553084	-3.5601402	-0.14553168	0.18445879	-3.1314886	9.8	1.29281e-05	-1.0325352e-05	0.0062974883	-0.20281947	0.0062966116	-0.20281878	-3.9695979e-06	-8.0865978e-06	-0.12099164	-1.0434173	1.654152	0.022170417	-1.654152	-0.022174021	0.27838441	-2.1875557	1.9875966	1	0.22412759	0.0088692	1.2428318	1.6024	-0.63842309	-0.22607381	0.092021961	0.1385444	0.31682817	1.9300955	1.7673436	1.5357717	1.767343	1.5357657	0.022863803	1.4819196	1.1058423	-0.00011748439	2.380699e-05	0.12961244	1.2791719	0.12960561	1.2791673	2.3626432e-05	9.6674191e-06	1.2904722	0.77038585	-1.6796489	-0.51070708	1.6796521	0.51072646	-0.33090838	2.6884036	0.029796155	0.28330545	0.067577005	0.20864284	0.38827479	0.20864323	0.38827742	0.023316232	0.37828974	0.0391154	4.3191703	5.3993594	5.253144	4.9454426	5.2531434	4.9454555	4.3197311	6.458676	5.2249029	2.7023934	3.3199974	5.2896949	3.3199972	5.2897051	3.752584	2.9757461	-71.897167	R0:S0:1	-51.790759	uncorrelated	51514b8	3	sharp_wc_2.0_b_50	 1.59e+02	 6.03e-03	2022-04-18@11:21
