model	E_kin	D	U	e	eb1_1	eb2_1	eb3_1	eb4_1	eb5_1	eb6_1	eb7_1	eb8_1	mu	sb1_1	sb2_1	sb3_1	sb4_1	sb5_1	sb6_1	sb7_1	sb8_1	tb1_1	tb2_1	tb3_1	tb4_1	tb5_1	tb6_1	tb7_1	tb8_1	tpd	tpp	tppp	ave_D	ave_e	ave_mu	ave_tpd	ave_tpp	ave_tppp	ave_U_1	ave_eb1_1	ave_eb2_1	ave_eb3_1	ave_eb4_1	ave_eb5_1	ave_eb6_1	ave_eb7_1	ave_eb8_1	ave_mu_1	ave_sb1_1	ave_sb2_1	ave_sb3_1	ave_sb4_1	ave_sb5_1	ave_sb6_1	ave_sb7_1	ave_sb8_1	ave_tb1_1	ave_tb2_1	ave_tb3_1	ave_tb4_1	ave_tb5_1	ave_tb6_1	ave_tb7_1	ave_tb8_1	var_U_1	var_eb1_1	var_eb2_1	var_eb3_1	var_eb4_1	var_eb5_1	var_eb6_1	var_eb7_1	var_eb8_1	var_mu_1	var_sb1_1	var_sb2_1	var_sb3_1	var_sb4_1	var_sb5_1	var_sb6_1	var_sb7_1	var_sb8_1	var_tb1_1	var_tb2_1	var_tb3_1	var_tb4_1	var_tb5_1	var_tb6_1	var_tb7_1	var_tb8_1	E0_1	sector_1	E0_2	sector_2	githash	time
2x2_2C_8b_C2v_L	7.9548872	0	14	3.1695	0.0018966178	-3.1022638	-3.6869349	-0.10868969	-3.686944	-0.10869079	0.14780046	-3.2464716	9.8	-3.6500554e-05	-6.7538764e-06	0.0094399223	-0.17253352	0.0094394611	-0.17253362	3.636482e-06	8.7254376e-06	-0.1122816	-1.0480638	1.635789	0.042537516	-1.6357909	-0.04253608	0.24121687	-2.1549857	1.9492	1	0.2373	0.013237844	1.2557043	1.6180274	-0.59066599	-0.19598988	0.080026616	0.13396957	0.26527077	1.939942	1.8043204	1.5585986	1.8043206	1.5586046	0.018908099	1.5490036	1.1083674	0.00036189824	1.9737224e-05	0.10474189	1.1605814	0.10474469	1.1605835	-2.8421842e-05	-1.9074363e-05	1.1621379	0.73820986	-1.5518738	-0.55982036	1.5518723	0.55981661	-0.30335527	2.5243198	0.028977622	0.23770042	0.058424882	0.17898816	0.36581447	0.17898807	0.36581035	0.019049089	0.34936546	0.036155089	4.1301943	5.3685751	5.1519625	5.0536036	5.151964	5.0535964	4.2913274	6.1950073	5.2796115	2.7529111	3.3540319	5.1581494	3.3540299	5.1581423	3.7650163	3.1859676	-72.573495	R0:S0:1	-53.044	uncorrelated	51514b8	2022-04-18@10:04
2x2_2C_8b_C2v_L	7.9710839	0	14	3.174131	0.0022994374	-3.1022808	-3.686931	-0.10832818	-3.6869398	-0.10833027	0.14728054	-3.2467099	9.8	-3.5483895e-05	-2.168487e-06	0.0093230448	-0.17254688	0.0093238271	-0.17254751	-3.6467751e-06	-5.3322223e-06	-0.11228239	-1.0479804	1.6356997	0.042019792	-1.6357014	-0.042022999	0.24113301	-2.1549613	1.9491207	1	0.23918621	0.013196745	1.2556565	1.6179298	-0.5908626	-0.19607043	0.080032786	0.13396187	0.26464941	1.9399957	1.8043869	1.5581372	1.8043864	1.5581406	0.018910835	1.5492155	1.1083829	0.00034962773	-3.88379e-07	0.10448417	1.1608727	0.10448167	1.1608518	2.7226157e-05	1.1207522e-05	1.1610273	0.73791544	-1.5516516	-0.55740506	1.5516581	0.55741972	-0.30332692	2.523843	0.02897626	0.23710667	0.058375326	0.17893432	0.36645373	0.17893476	0.36645235	0.019051706	0.34926444	0.03614651	4.1276107	5.3688931	5.1519404	5.0525862	5.1519393	5.0525907	4.2912955	6.1941676	5.2804079	2.7528227	3.3542736	5.158807	3.3542868	5.1587923	3.7650339	3.1865134	-72.571716	R0:S0:1	-53.006952	uncorrelated	51514b8	2022-04-18@10:08
2x2_2C_8b_C2v_L	7.9854057	0	14	3.1787621	0.0023892936	-3.1021899	-3.6867145	-0.10851453	-3.6867227	-0.10851363	0.14766204	-3.2464348	9.8	-3.6347901e-05	-3.1074606e-07	0.0093102608	-0.1726758	0.0093096135	-0.17267562	1.497146e-06	-2.3061753e-07	-0.11234295	-1.0483076	1.6360666	0.041952206	-1.6360688	-0.041948001	0.24127222	-2.155415	1.9490414	1	0.24107241	0.013194863	1.2555525	1.6178291	-0.59120386	-0.19633018	0.080100698	0.13400052	0.26501566	1.9399225	1.8041325	1.5576821	1.8041328	1.5576813	0.018918337	1.5486957	1.1083665	0.00035719387	-1.0906212e-06	0.10471831	1.1619659	0.10472001	1.1619716	-5.7986654e-06	1.0051291e-06	1.1621924	0.73823572	-1.552558	-0.55768161	1.5525576	0.55766301	-0.30337325	2.5251731	0.028983206	0.23736162	0.058443129	0.17913954	0.36673452	0.17913927	0.36673646	0.019060037	0.34951124	0.036170138	4.1295361	5.3690192	5.1523807	5.0524103	5.1523791	5.0523999	4.2915066	6.1962757	5.2801815	2.7523968	3.3537478	5.1603665	3.3537483	5.1603743	3.764853	3.1850017	-72.573737	R0:S0:1	-52.969903	uncorrelated	51514b8	2022-04-18@10:12
2x2_2C_8b_C2v_L	7.9993898	0	14	3.1833931	0.0024710804	-3.1017897	-3.6858701	-0.10895236	-3.685877	-0.10895413	0.14771328	-3.2453522	9.8	-3.2717719e-05	-7.6298426e-07	0.0093759612	-0.17301955	0.0093753622	-0.17302031	-1.7869275e-06	6.0492183e-08	-0.11244811	-1.0485321	1.6362154	0.041964332	-1.6362169	-0.041965119	0.24138537	-2.1554541	1.9489621	1	0.24295862	0.013195472	1.2554415	1.6177048	-0.59158658	-0.19659945	0.080173238	0.13403188	0.26556064	1.9398421	1.803872	1.5573978	1.803872	1.5574022	0.018925214	1.5481571	1.108339	0.00032132347	-5.3391746e-07	0.10490283	1.1632683	0.10490417	1.1632593	1.2301897e-05	1.8812925e-06	1.1636728	0.73860387	-1.5534718	-0.55819621	1.553474	0.55819892	-0.3034189	2.5264577	0.028988885	0.23780734	0.058517834	0.1793515	0.36688905	0.17935156	0.36688643	0.019068213	0.34976744	0.03619388	4.1321469	5.3690091	5.1529089	5.051825	5.1529087	5.0518226	4.2916456	6.1984561	5.2796069	2.7521291	3.3533461	5.1616159	3.3533527	5.1616056	3.7647681	3.1835614	-72.571265	R0:S0:1	-52.932855	uncorrelated	51514b8	2022-04-18@10:16
2x2_2C_8b_C2v_L	8.0133533	0	14	3.1880241	0.0025946016	-3.1013846	-3.6851763	-0.10926757	-3.6851831	-0.10926694	0.14808108	-3.244476	9.8	-3.2575938e-05	-5.9563152e-07	0.0093653723	-0.17331414	0.0093654163	-0.17331373	1.7092409e-06	3.0056381e-06	-0.11254998	-1.0488258	1.6363838	0.041875139	-1.6363853	-0.041875397	0.24166821	-2.1555798	1.9488828	1	0.24484483	0.01319157	1.2553295	1.6175776	-0.59197035	-0.19687034	0.080247	0.13406114	0.26633054	1.9397377	1.8036287	1.556723	1.8036281	1.5567287	0.01896318	1.5476187	1.1083095	0.00031898871	1.5822407e-06	0.10516441	1.1648199	0.10516596	1.1648044	-9.9495402e-06	-4.6996375e-06	1.1652187	0.73914641	-1.5543064	-0.55837605	1.5543116	0.55837986	-0.30370867	2.5277201	0.028994128	0.23839517	0.05861455	0.17954672	0.36729177	0.17954733	0.36728949	0.019107533	0.35002309	0.036217244	4.1359747	5.368714	5.1532066	5.0515634	5.1532079	5.0515614	4.2917834	6.2006389	5.2793415	2.7519956	3.352705	5.1637666	3.3527141	5.1637485	3.7647389	3.1821106	-72.569408	R0:S0:1	-52.895807	uncorrelated	51514b8	2022-04-18@10:20
2x2_2C_8b_C2v_L	8.0242995	0	14	3.1926552	0.0029678088	-3.0964549	-3.678563	-0.10966163	-3.6785663	-0.1096583	0.14849224	-3.2410613	9.8	-3.8354059e-05	-7.5787728e-08	0.0092545679	-0.17381275	0.0092546603	-0.17381148	3.2554949e-06	7.5864597e-07	-0.11274508	-1.0487189	1.6356288	0.04137987	-1.6356297	-0.04137431	0.24206092	-2.155278	1.9488034	1	0.24673103	0.013164312	1.2551406	1.6173415	-0.59265468	-0.19733344	0.080395987	0.13411491	0.2682192	1.9394826	1.8029545	1.5544703	1.8029546	1.5544682	0.019066029	1.5463086	1.1082339	0.00037336684	-9.6022444e-07	0.10575968	1.1687214	0.10576083	1.1687261	-1.562701e-05	-7.5924058e-07	1.1686359	0.7404074	-1.5564299	-0.55774896	1.5564302	0.55772587	-0.30424289	2.5306985	0.029003792	0.23977405	0.058849939	0.18008496	0.36875961	0.18008488	0.36876347	0.019214135	0.35063714	0.036266859	4.1456438	5.3676334	5.1539308	5.0511016	5.1539298	5.0510902	4.2920546	6.2059311	5.2791502	2.7517835	3.350917	5.1702414	3.350918	5.1702493	3.7646727	3.1787792	-72.529605	R0:S0:1	-52.858759	uncorrelated	51514b8	2022-04-18@10:28
2x2_2C_8b_C2v_L	8.040863	0	14	3.1972862	0.0030529733	-3.0964002	-3.6785207	-0.10973451	-3.6785243	-0.10973421	0.14864716	-3.2411165	9.8	-3.8058025e-05	-2.2202661e-06	0.0091907576	-0.17394131	0.0091917033	-0.17393988	-5.8711411e-06	-1.6434602e-06	-0.11276612	-1.0486268	1.6355515	0.041093931	-1.6355511	-0.041099898	0.24222396	-2.1551749	1.9487241	1	0.24861724	0.013132791	1.2551019	1.6172673	-0.59280964	-0.19739681	0.080393066	0.13411082	0.26769686	1.9395297	1.8030335	1.5555415	1.8030313	1.5555505	0.019062599	1.546586	1.1082565	0.00037044061	2.9187033e-07	0.10567058	1.167947	0.10566875	1.1678929	3.9138661e-05	7.8765348e-06	1.1677589	0.74010442	-1.5561809	-0.55585462	1.5561976	0.55588823	-0.30434989	2.530068	0.02900313	0.23947883	0.05880811	0.18003087	0.36836045	0.18003281	0.36835762	0.019211296	0.35050965	0.036258163	4.1423511	5.3682862	5.1545257	5.0491692	5.1545281	5.0491824	4.2921193	6.2048365	5.278988	2.7517976	3.3518568	5.1675468	3.3518867	5.1675007	3.7647418	3.1795318	-72.529142	R0:S0:1	-52.82171	uncorrelated	51514b8	2022-04-18@10:32
2x2_2C_8b_C2v_L	8.0513421	0	14	3.2019172	0.0031169735	-3.0916962	-3.6742083	-0.11004083	-3.6742169	-0.11004091	0.14910114	-3.2389027	9.8	-1.7729039e-05	9.1685323e-06	0.0092258402	-0.17422901	0.0092251446	-0.17422861	-5.7755416e-06	-3.0283485e-08	-0.11292808	-1.048597	1.6353793	0.041079808	-1.6353782	-0.041081516	0.24246762	-2.1554206	1.9486448	1	0.25050345	0.013142778	1.2548945	1.617052	-0.59350667	-0.19793573	0.080564406	0.13417131	0.27040772	1.9392192	1.8023473	1.5520758	1.8023478	1.5520815	0.019172708	1.5450254	1.1081585	0.00017364463	-2.4693783e-05	0.10623775	1.1725856	0.10624076	1.1725673	3.8476115e-05	9.9805261e-06	1.1722802	0.74170869	-1.5583723	-0.55798119	1.5583736	0.55798687	-0.30478842	2.5337063	0.029013829	0.24140601	0.059092128	0.18056471	0.37014699	0.18056439	0.37014383	0.019324171	0.35123542	0.036317247	4.1564704	5.3663728	5.154291	5.0515424	5.1542893	5.0515457	4.2923929	6.2110986	5.2790596	2.7515215	3.3488448	5.1772369	3.3488571	5.1772179	3.7644972	3.175346	-72.502961	R0:S0:1	-52.784662	uncorrelated	51514b8	2022-04-18@10:40
2x2_2C_8b_C2v_L	8.0681864	0	14	3.2065483	0.0034308988	-3.091636	-3.6741802	-0.11014986	-3.6741884	-0.11014988	0.14911009	-3.2389548	9.8	-1.7364506e-05	-2.9774671e-06	0.0091227208	-0.17447989	0.0091217962	-0.17447949	1.8862918e-06	-9.0863687e-07	-0.11295062	-1.048544	1.6352514	0.040643939	-1.6352531	-0.040642335	0.24272114	-2.1552376	1.9485655	1	0.25238966	0.013100421	1.2548655	1.6169729	-0.59364778	-0.19795945	0.080548989	0.13416662	0.26928053	1.9392983	1.8024553	1.5536049	1.8024552	1.5536068	0.019164482	1.5454608	1.1081936	0.00016750473	5.4246656e-06	0.10610308	1.1714908	0.10610423	1.1714863	-9.5807696e-06	-4.9217075e-07	1.1706819	0.74119918	-1.5580623	-0.55516044	1.5580643	0.55515568	-0.30495956	2.5327175	0.029013137	0.24063309	0.059021999	0.18049294	0.36966254	0.18049308	0.36966239	0.019316703	0.35103716	0.036304572	4.1502689	5.3675805	5.1552279	5.0484201	5.1552277	5.0484162	4.2924943	6.2093674	5.278879	2.7514564	3.3503773	5.173116	3.3503812	5.1731124	3.764612	3.1765126	-72.502406	R0:S0:1	-52.747614	uncorrelated	51514b8	2022-04-18@10:44
2x2_2C_8b_C2v_L	8.0799242	0	14	3.2111793	0.0033706253	-3.0884673	-3.6713182	-0.11094145	-3.6713266	-0.11094158	0.14954299	-3.2362536	9.8	-1.4368143e-05	6.5760788e-08	0.0092067231	-0.174915	0.00920647	-0.17491496	1.5739243e-06	2.8250059e-06	-0.11309184	-1.0487979	1.6354565	0.040783877	-1.6354584	-0.040783264	0.24281208	-2.1553879	1.9484862	1	0.25427586	0.01311465	1.2546914	1.6168148	-0.59422199	-0.19841437	0.080687224	0.13424027	0.27079024	1.9390713	1.8018219	1.552918	1.8018218	1.5529221	0.019174001	1.5441266	1.108133	0.00013900199	5.1878026e-07	0.10674109	1.173957	0.10674305	1.1739509	-1.0084627e-05	-4.7859238e-06	1.174197	0.74222782	-1.560213	-0.55702964	1.5602149	0.55702839	-0.3049053	2.5358864	0.029026397	0.24185273	0.059231897	0.18100389	0.36987236	0.18100407	0.36987038	0.019328805	0.35166095	0.036358954	4.1574474	5.3672795	5.156299	5.0482744	5.1562994	5.048271	4.2927811	6.2147761	5.2776436	2.7508339	3.3491146	5.1762485	3.3491187	5.1762392	3.7643765	3.1729569	-72.486802	R0:S0:1	-52.710566	uncorrelated	51514b8	2022-04-18@10:51
2x2_2C_8b_C2v_L	8.0935865	0	14	3.2158103	0.0035897049	-3.0831166	-3.6673523	-0.11104631	-3.667362	-0.11104706	0.14976987	-3.2352574	9.8	-9.8686501e-06	1.7359391e-08	0.0091182862	-0.17510797	0.0091177351	-0.17510789	1.0004383e-06	4.3010918e-07	-0.1131526	-1.0482803	1.6348951	0.040433986	-1.6348972	-0.040432255	0.24306318	-2.1554339	1.9484069	1	0.25616207	0.013088344	1.2545753	1.6166593	-0.59464791	-0.19868599	0.080761295	0.13426842	0.27138985	1.9389485	1.8015017	1.552129	1.8015018	1.5521316	0.019232258	1.5436145	1.1081091	9.5290548e-05	-7.6008199e-07	0.10698985	1.1754561	0.10699176	1.1754542	-5.3089352e-06	-8.7146543e-07	1.1753258	0.74269644	-1.5611956	-0.55604689	1.5611962	0.55604069	-0.30521973	2.5371567	0.029031454	0.2422796	0.059345655	0.18126196	0.37049758	0.18126188	0.37049658	0.019389222	0.35189809	0.036379786	4.1602841	5.3671428	5.1569031	5.047492	5.1569024	5.0474874	4.2931127	6.2168216	5.277663	2.7505461	3.3485531	5.1784828	3.3485557	5.17848	3.7642198	3.1715348	-72.459074	R0:S0:1	-52.673517	uncorrelated	51514b8	2022-04-18@10:59
2x2_2C_8b_C2v_L	8.1094833	0	14	3.2204414	0.0036938147	-3.0830288	-3.667326	-0.11108219	-3.6673354	-0.11108292	0.14991192	-3.235298	9.8	-9.805291e-06	-5.419866e-07	0.0090824081	-0.17525726	0.0090827514	-0.17525758	-6.5933164e-07	4.6658282e-07	-0.11320536	-1.048198	1.6348147	0.040230064	-1.6348166	-0.040231098	0.24326494	-2.1553084	1.9483276	1	0.25804828	0.013066414	1.2545182	1.6165631	-0.59486267	-0.19879793	0.080776012	0.13426171	0.27138412	1.938958	1.8015491	1.5522412	1.801549	1.5522439	0.019254759	1.5437462	1.108112	9.4471936e-05	5.8149318e-07	0.10691057	1.1755539	0.10691038	1.1755463	4.3522156e-06	4.4199603e-08	1.1751317	0.74265544	-1.561033	-0.55491365	1.5610352	0.55491869	-0.3054592	2.536823	0.029030265	0.24231077	0.059337519	0.18122644	0.37057368	0.18122652	0.37057223	0.019412297	0.35183834	0.036375799	4.1599721	5.3671708	5.1570118	5.0466137	5.1570112	5.0466141	4.2931385	6.2162897	5.277715	2.7506873	3.3488302	5.1781124	3.3488351	5.178105	3.7643006	3.1719089	-72.458578	R0:S0:1	-52.636469	uncorrelated	51514b8	2022-04-18@11:03
2x2_2C_8b_C2v_L	8.1207552	0	14	3.2250724	0.0038184168	-3.0797928	-3.6647842	-0.11163246	-3.6647888	-0.11163245	0.15023374	-3.2324491	9.8	-6.2702167e-06	-1.3852413e-07	0.0091337245	-0.17569001	0.0091335201	-0.1756901	1.799099e-08	-3.886178e-08	-0.11336067	-1.0483984	1.6350129	0.040219355	-1.6350138	-0.040218459	0.24344402	-2.1553342	1.9482483	1	0.25993448	0.01307107	1.2543325	1.6163738	-0.59548722	-0.1992727	0.080923346	0.13432516	0.27325591	1.9387094	1.8009349	1.5502169	1.8009351	1.5502168	0.019307861	1.5423607	1.1080363	6.0379546e-05	-2.5048094e-07	0.10743731	1.1790931	0.1074377	1.1790947	6.3240568e-07	4.4703076e-07	1.1787877	0.74387876	-1.5630957	-0.55646728	1.5630953	0.55646296	-0.30565574	2.540019	0.029041622	0.24367424	0.059565933	0.1817123	0.37161594	0.18171214	0.37161628	0.019467975	0.35248098	0.036429809	4.1695888	5.3662027	5.1574155	5.0472942	5.1574146	5.0472916	4.293315	6.2218837	5.2772146	2.7502541	3.3468895	5.1842809	3.3468897	5.1842834	3.7641656	3.1682481	-72.442473	R0:S0:1	-52.599421	uncorrelated	51514b8	2022-04-18@11:11
2x2_2C_8b_C2v_L	8.1348195	0	14	3.2297034	0.0039948078	-3.0742282	-3.6607719	-0.11190214	-3.6607757	-0.11190287	0.15054174	-3.2311665	9.8	-4.338349e-06	4.3432867e-07	0.0090562859	-0.17592679	0.0090562451	-0.17592691	3.4944869e-06	6.9087557e-06	-0.11341068	-1.0478478	1.6344872	0.039879976	-1.634488	-0.039879526	0.2436561	-2.1553198	1.948169	1	0.26182069	0.013041121	1.2542276	1.6162365	-0.5958747	-0.1995158	0.080986227	0.13435961	0.27336388	1.9386163	1.8006073	1.5505056	1.8006073	1.5505119	0.019329678	1.5419219	1.1080274	4.0921023e-05	2.9671639e-06	0.10770233	1.1797438	0.10770559	1.1797431	-2.5737009e-05	-1.333019e-05	1.1794869	0.74410291	-1.564142	-0.55517177	1.5641409	0.55517115	-0.30579379	2.5411498	0.029047899	0.24381432	0.059653549	0.18198439	0.37166312	0.1819844	0.37165874	0.019492057	0.35268478	0.036449228	4.1695357	5.3667419	5.1586342	5.0454082	5.158636	5.0454043	4.2936897	6.223646	5.2767317	2.7497922	3.3470285	5.1839765	3.3470276	5.183965	3.7639913	3.1670272	-72.41427	R0:S0:1	-52.562372	uncorrelated	51514b8	2022-04-18@11:19
2x2_2C_8b_C2v_L	8.1506222	0	14	3.2343345	0.0041115211	-3.0741491	-3.6607699	-0.11191903	-3.6607736	-0.11192042	0.1506065	-3.2312863	9.8	-3.7410342e-06	-1.5402247e-06	0.0090146301	-0.17605917	0.0090153135	-0.17605943	-2.1317352e-06	5.943895e-08	-0.11346547	-1.0478007	1.6343947	0.039706874	-1.6343951	-0.039710526	0.2438382	-2.1552284	1.9480897	1	0.2637069	0.013023261	1.2541677	1.6161378	-0.59609666	-0.19963517	0.081003101	0.13435245	0.27342607	1.9386162	1.8006573	1.5504649	1.8006567	1.5504693	0.019354956	1.5420336	1.1080277	3.5997712e-05	2.8520071e-06	0.10766033	1.1799436	0.10765914	1.1799265	1.2226974e-05	6.4748507e-07	1.17942	0.74412755	-1.5639603	-0.55425513	1.5639648	0.554273	-0.3060329	2.540865	0.029046608	0.24387073	0.059654105	0.18194546	0.37180056	0.18194596	0.37179769	0.019517843	0.35263442	0.036445764	4.1697277	5.3666589	5.1586262	5.0448011	5.1586271	5.0448079	4.2937105	6.2231962	5.2768135	2.7499533	3.3471825	5.1839557	3.3471909	5.1839383	3.7640649	3.1673411	-72.414009	R0:S0:1	-52.525324	uncorrelated	51514b8	2022-04-18@11:23
2x2_2C_8b_C2v_L	8.1647912	0	14	3.2389655	0.0041535366	-3.0738923	-3.6605525	-0.11221215	-3.6605556	-0.11221177	0.15094434	-3.2309865	9.8	-3.6449301e-06	-5.0515888e-08	0.0090349133	-0.17625692	0.0090339823	-0.17625709	9.8839077e-07	-6.8542741e-07	-0.11352678	-1.0481031	1.6347428	0.03969774	-1.6347438	-0.039693863	0.24399508	-2.1556495	1.9480103	1	0.2655931	0.013021144	1.2540599	1.6160312	-0.59644982	-0.1999014	0.081071268	0.13439052	0.27388983	1.9385343	1.8004005	1.5501485	1.8004013	1.5501444	0.019364284	1.5415112	1.1080084	3.4787824e-05	-4.5006298e-07	0.10788309	1.181007	0.10788424	1.1810247	-4.7244332e-06	7.4868817e-07	1.1806732	0.74448361	-1.5648737	-0.55471572	1.5648688	0.55469633	-0.3060986	2.5421946	0.029053441	0.24423311	0.059729923	0.18215261	0.37196515	0.18215188	0.37196775	0.019528225	0.35287774	0.03646999	4.1719061	5.3667662	5.1591259	5.0445143	5.1591238	5.0445056	4.2939276	6.2253094	5.2764577	2.7495605	3.3467077	5.1852496	3.3467002	5.1852692	3.7638962	3.1657925	-72.416107	R0:S0:1	-52.488276	uncorrelated	51514b8	2022-04-18@11:27
2x2_2C_8b_C2v_L	8.1777898	0	14	3.2435966	0.0042345882	-3.0715182	-3.6588081	-0.11242423	-3.6588099	-0.11242411	0.15105304	-3.2289027	9.8	1.6977119e-07	-1.0219275e-07	0.0090430821	-0.17649872	0.0090439038	-0.17649931	-1.1562634e-06	1.6437402e-07	-0.11361151	-1.0480818	1.6346858	0.039620187	-1.6346855	-0.039623103	0.24410232	-2.1554025	1.947931	1	0.26747931	0.013014216	1.2539228	1.6158667	-0.5969221	-0.20023716	0.081167137	0.13441404	0.27537525	1.9383698	1.8000858	1.5483659	1.800086	1.5483656	0.019421484	1.5407149	1.1079552	-1.6871922e-06	6.23984e-07	0.10814168	1.1835116	0.10813948	1.1835106	6.5993525e-06	5.4531386e-07	1.1829126	0.74536435	-1.5658828	-0.55538721	1.5658818	0.55539746	-0.30633964	2.5439239	0.029057584	0.24530194	0.05988037	0.18239572	0.3729131	0.18239549	0.37291232	0.019587007	0.35324338	0.036497829	4.179539	5.3656343	5.1589254	5.0454206	5.1589246	5.0454256	4.2939004	6.2285289	5.2765562	2.7495791	3.3452346	5.190307	3.3452342	5.1903059	3.7639419	3.163796	-72.40244	R0:S0:1	-52.451228	uncorrelated	51514b8	2022-04-18@11:31
2x2_2C_8b_C2v_L	8.1894785	0	14	3.2482276	0.0044743573	-3.0647648	-3.6537119	-0.11307011	-3.653714	-0.11307029	0.15143029	-3.2263076	9.8	2.0660503e-06	-6.5118375e-08	0.0089991115	-0.17703845	0.008999735	-0.17703911	-4.4768928e-06	-9.1847797e-06	-0.11379641	-1.0477056	1.6343061	0.039317695	-1.634307	-0.03931943	0.24442721	-2.1553713	1.9478517	1	0.26936552	0.012993626	1.2537527	1.615673	-0.59752531	-0.20065532	0.081295445	0.13447999	0.27655536	1.9381415	1.7994437	1.5476653	1.7994437	1.547659	0.019472967	1.5395766	1.1079032	-1.8643598e-05	-5.2921215e-06	0.10872997	1.1860567	0.10872524	1.1860547	3.3503475e-05	1.8039954e-05	1.185773	0.74627112	-1.5679831	-0.55506277	1.5679856	0.55506786	-0.30660746	2.5466602	0.029069516	0.24623435	0.060092257	0.18291686	0.37344849	0.18291684	0.37345274	0.019642428	0.35376826	0.036545823	4.1849461	5.3655984	5.1603926	5.0437578	5.1603898	5.043763	4.2943717	6.2331076	5.2755411	2.7489574	3.3444004	5.1929791	3.3444035	5.1929902	3.7637082	3.160706	-72.368659	R0:S0:1	-52.414179	uncorrelated	51514b8	2022-04-18@11:38
2x2_2C_8b_C2v_L	8.2057161	0	14	3.2528586	0.004676696	-3.0646998	-3.6537071	-0.11309518	-3.6537096	-0.11309444	0.15152283	-3.2264115	9.8	1.2469428e-06	1.438166e-06	0.0089324594	-0.17720228	0.0089319686	-0.17720226	2.4575916e-06	-5.2309485e-07	-0.1138288	-1.0476258	1.6341765	0.039032933	-1.6341776	-0.039028927	0.2446533	-2.1552467	1.9477724	1	0.27125172	0.012963618	1.253706	1.6155805	-0.5977131	-0.20073249	0.081297439	0.13447247	0.27609099	1.9381808	1.7995287	1.548229	1.7995293	1.5482251	0.019485224	1.5398381	1.1079189	-1.2009656e-05	-3.0761435e-06	0.10861553	1.1856885	0.10861668	1.1857059	-1.3602515e-05	-4.6708745e-08	1.1849863	0.74604134	-1.5677134	-0.55334235	1.567709	0.55332301	-0.30683213	2.5460466	0.029068214	0.24591872	0.060057385	0.18285523	0.37336074	0.18285461	0.37336333	0.019655218	0.35365106	0.036537558	4.182357	5.3660479	5.1607236	5.042208	5.1607218	5.0421996	4.2944216	6.2320575	5.275602	2.7490284	3.3451276	5.191368	3.3451198	5.1913862	3.763801	3.1614167	-72.368104	R0:S0:1	-52.377131	uncorrelated	51514b8	2022-04-18@11:42
2x2_2C_8b_C2v_L	8.2202016	0	14	3.2574897	0.0046429146	-3.0643465	-3.6533991	-0.11349811	-3.6534017	-0.11349899	0.15197982	-3.2260951	9.8	2.4795127e-06	1.9135766e-07	0.008962132	-0.17740659	0.008962944	-0.17740689	-3.8976344e-07	-1.7869883e-07	-0.11388525	-1.0478998	1.6345457	0.039036237	-1.634546	-0.039039852	0.24480171	-2.155704	1.9476931	1	0.27313793	0.012959483	1.2536065	1.6154908	-0.59803323	-0.20097957	0.081357308	0.13451569	0.27626469	1.9381186	1.7992678	1.5487125	1.7992673	1.5487164	0.019471657	1.5393692	1.1079106	-2.3476284e-05	-2.6890685e-07	0.10885387	1.1861115	0.10885268	1.1860979	1.8806999e-06	2.7828839e-07	1.1859994	0.74623103	-1.5686562	-0.55359343	1.5686597	0.55361042	-0.3067906	2.5472935	0.029076017	0.24613771	0.060115898	0.1830712	0.3730771	0.18307162	0.37307435	0.0196428	0.35386927	0.036560922	4.1826806	5.3666113	5.1616659	5.0412207	5.1616669	5.0412278	4.2946974	6.2339592	5.274849	2.7485159	3.3451169	5.1908398	3.3451228	5.1908241	3.7635957	3.159981	-72.370199	R0:S0:1	-52.340083	uncorrelated	51514b8	2022-04-18@11:46
2x2_2C_8b_C2v_L	8.2331612	0	14	3.2621207	0.0047038877	-3.062534	-3.6520027	-0.11369514	-3.6520044	-0.11369504	0.15202551	-3.2246936	9.8	-9.6233723e-07	9.6100162e-09	0.0089648675	-0.17762481	0.0089643224	-0.17762476	3.5121872e-06	5.7031311e-06	-0.11397296	-1.0480071	1.6345779	0.039043013	-1.6345794	-0.039041275	0.24488867	-2.155686	1.9476138	1	0.27502414	0.012963635	1.2534671	1.6153326	-0.59850231	-0.20132481	0.081455528	0.13454161	0.27783372	1.9379462	1.7989519	1.5467476	1.7989515	1.5467512	0.01953054	1.5385681	1.1078553	8.4125303e-06	3.5036593e-06	0.10919071	1.1887165	0.10919401	1.1887177	-2.5008305e-05	-1.1704259e-05	1.1884054	0.74717033	-1.5696687	-0.55474974	1.5696696	0.55474417	-0.30701889	2.5490899	0.029080568	0.24723983	0.060273283	0.18331327	0.37407646	0.18331361	0.37407463	0.019703139	0.35423472	0.036590443	4.1908495	5.3653989	5.1613346	5.0425048	5.1613366	5.0424989	4.2947207	6.2371937	5.2749663	2.7485046	3.3434771	5.1962209	3.3434761	5.1962153	3.7635683	3.1578731	-72.360884	R0:S0:1	-52.303034	uncorrelated	51514b8	2022-04-18@11:50
2x2_2C_8b_C2v_L	8.2449035	0	14	3.2667517	0.0049950506	-3.05688	-3.647419	-0.11441492	-3.6474244	-0.11441183	0.15247774	-3.2218746	9.8	-1.5363448e-05	1.5768627e-06	0.0089611468	-0.17823813	0.0089610367	-0.17823698	2.0930563e-06	4.2863977e-07	-0.11414578	-1.0478083	1.6342824	0.038753288	-1.6342832	-0.038750867	0.24525313	-2.1555799	1.9475345	1	0.27691034	0.012937112	1.2532989	1.6151363	-0.59910292	-0.20173169	0.081578933	0.1346069	0.27882251	1.937734	1.7983299	1.546229	1.7983298	1.5462287	0.01957125	1.5374631	1.1078059	0.00014551066	-4.4876885e-06	0.10966935	1.1911492	0.10967019	1.1911451	-9.3666108e-06	5.4281972e-07	1.1910156	0.74801235	-1.5717318	-0.55435612	1.5717338	0.55434654	-0.30728699	2.5517133	0.029092398	0.24803164	0.060470622	0.18381897	0.37452668	0.18381909	0.3745289	0.019747581	0.35474258	0.036637441	4.1953535	5.3655228	5.1628765	5.0405544	5.1628759	5.0405501	4.2951299	6.2416409	5.2739166	2.7478942	3.3428216	5.1984763	3.342826	5.1984747	3.7634022	3.1548822	-72.331347	R0:S0:1	-52.265986	uncorrelated	51514b8	2022-04-18@11:58
2x2_2C_8b_C2v_L	8.2610469	0	14	3.2713828	0.005110771	-3.0567812	-3.6473805	-0.11440626	-3.6473858	-0.11440593	0.15257087	-3.2219323	9.8	-1.4137521e-05	-1.7885734e-06	0.0088784182	-0.17834842	0.0088790334	-0.17834729	-2.9648237e-06	7.2026092e-07	-0.11419534	-1.0476933	1.6341601	0.038469879	-1.6341604	-0.03847394	0.24545237	-2.1554543	1.9474552	1	0.27879655	0.012907137	1.2532491	1.6150436	-0.59929495	-0.20182057	0.081584002	0.13459809	0.27864411	1.9377597	1.7984139	1.5466463	1.7984123	1.5466543	0.01959213	1.5376811	1.1078176	0.00013409358	2.206949e-06	0.10960837	1.1908883	0.10960782	1.1908492	1.8558545e-05	1.3058171e-06	1.1905365	0.74787527	-1.5714413	-0.55271373	1.5714534	0.55273834	-0.30751774	2.5511867	0.029090833	0.24794972	0.060447899	0.18375647	0.3744768	0.18375793	0.37447395	0.019769214	0.35464487	0.036629765	4.1940659	5.3657148	5.1630863	5.0393535	5.1630891	5.0393634	4.2951594	6.2407709	5.2739648	2.7480426	3.343349	5.1973495	3.34337	5.1973125	3.7634988	3.1554997	-72.330348	R0:S0:1	-52.228938	uncorrelated	51514b8	2022-04-18@12:02
2x2_2C_8b_C2v_L	8.271323	0	14	3.2760138	0.0052566687	-3.0467513	-3.6408518	-0.11465966	-3.6408526	-0.11466005	0.15303384	-3.2201448	9.8	2.5140139e-06	1.2862758e-07	0.0088697117	-0.17860102	0.0088698925	-0.17860073	1.3572697e-06	-2.7825454e-06	-0.11431001	-1.0468668	1.6335019	0.038326901	-1.6335022	-0.038329914	0.24570745	-2.1558469	1.9473759	1	0.28068276	0.012901133	1.2530394	1.6148135	-0.60001688	-0.20235448	0.081750735	0.13466591	0.28095004	1.9374199	1.79765	1.5435681	1.797649	1.5435727	0.019700749	1.5361728	1.1077311	-2.3529495e-05	-1.2957709e-06	0.11021312	1.1951144	0.11021251	1.1950948	-6.4271301e-06	3.1144991e-06	1.194526	0.74936442	-1.5738181	-0.55407756	1.5738244	0.55409436	-0.30790946	2.5548558	0.029102872	0.24952762	0.060759036	0.18435448	0.37613968	0.18435536	0.37613749	0.019881422	0.35532598	0.036688392	4.2058522	5.3643502	5.1634209	5.0407083	5.163423	5.040716	4.2957378	6.2467921	5.2739745	2.7474057	3.3406964	5.2058005	3.3407055	5.2057795	3.7630359	3.1512279	-72.284391	R0:S0:1	-52.19189	uncorrelated	51514b8	2022-04-18@12:10
2x2_2C_8b_C2v_L	8.2878619	0	14	3.2806448	0.005514616	-3.0467096	-3.6408683	-0.11471915	-3.6408691	-0.11471921	0.15310423	-3.2201328	9.8	1.9380112e-06	5.3221234e-07	0.0087778497	-0.17879921	0.0087772815	-0.17879917	1.0323945e-06	-7.949475e-08	-0.11435197	-1.0467956	1.6333834	0.037951038	-1.6333839	-0.037948721	0.24595096	-2.1556459	1.9472966	1	0.28256897	0.012861713	1.2530014	1.6147277	-0.60017858	-0.20240445	0.081743169	0.1346589	0.28014177	1.9374822	1.7977507	1.5446578	1.7977511	1.5446562	0.019703446	1.5365327	1.1077571	-1.8270604e-05	-1.0717183e-06	0.11008019	1.1943138	0.11008139	1.194323	-6.1110038e-06	-5.0441729e-07	1.1933579	0.74898534	-1.5735172	-0.55172869	1.5735147	0.55171801	-0.30811663	2.5540127	0.029101722	0.24898763	0.060703965	0.18428526	0.37584469	0.18428495	0.37584571	0.019884912	0.35516652	0.036677357	4.2014042	5.3651778	5.164079	5.0383824	5.1640782	5.0383776	4.2957967	6.2453487	5.2738623	2.7474371	3.3418679	5.2028613	3.3418637	5.2028706	3.7631632	3.1522286	-72.283722	R0:S0:1	-52.154841	uncorrelated	51514b8	2022-04-18@12:13
2x2_2C_8b_C2v_L	8.3027138	0	14	3.2852759	0.0054707281	-3.0461711	-3.6405009	-0.11528487	-3.6405025	-0.11528473	0.15341874	-3.2191998	9.8	8.0310606e-07	-1.596332e-07	0.0088285077	-0.1790403	0.0088284459	-0.17904059	-2.3350601e-06	-4.6063177e-06	-0.11440466	-1.0470907	1.6337719	0.037987515	-1.6337724	-0.037987961	0.24598551	-2.1559116	1.9472172	1	0.28445517	0.012854202	1.2529121	1.6146539	-0.60046281	-0.20262504	0.081791063	0.1347062	0.27977758	1.9374452	1.7974843	1.5462411	1.7974845	1.5462372	0.019648284	1.5361286	1.1077625	-6.9436069e-06	-2.3963143e-06	0.11031761	1.1938119	0.11031548	1.1938136	1.730727e-05	9.0990809e-06	1.193986	0.74897146	-1.574518	-0.55179134	1.5745183	0.55179149	-0.30784668	2.5550938	0.029110352	0.24887017	0.060740538	0.18451375	0.37496787	0.1845136	0.37497041	0.019830875	0.35535458	0.036698753	4.1988312	5.3663787	5.1656295	5.0364322	5.1656277	5.036434	4.2960425	6.2470001	5.2724866	2.7467987	3.3425744	5.1997501	3.3425747	5.1997589	3.7629946	3.1510219	-72.284483	R0:S0:1	-52.117793	uncorrelated	51514b8	2022-04-18@12:17
2x2_2C_8b_C2v_L	8.3146329	0	14	3.2899069	0.0054082001	-3.0440028	-3.6389627	-0.11539294	-3.6389654	-0.11539204	0.15340561	-3.2164719	9.8	-5.2085603e-06	4.2402444e-07	0.008861347	-0.17920974	0.0088612843	-0.17920966	2.2587922e-06	5.4562946e-06	-0.11451467	-1.047071	1.6337768	0.03804974	-1.6337774	-0.038048016	0.24596896	-2.1555065	1.9471379	1	0.28634138	0.012859297	1.2527442	1.614459	-0.60102373	-0.20304742	0.081916355	0.1347236	0.28250649	1.9372022	1.7971226	1.5428373	1.7971229	1.5428385	0.019739405	1.5350015	1.1076748	4.8429718e-05	1.9321232e-06	0.110667	1.1977089	0.11066903	1.1977153	-1.647825e-05	-9.6002878e-06	1.197557	0.75039159	-1.5756279	-0.55373866	1.5756257	0.55373064	-0.30812455	2.5574591	0.029113258	0.25079389	0.060960424	0.18477968	0.3766212	0.18477946	0.37662046	0.019923664	0.35585993	0.036734116	4.2129687	5.3638903	5.1644818	5.0393804	5.164482	5.0393747	4.2958158	6.2515634	5.2730071	2.7471068	3.3397856	5.2089729	3.3397825	5.2089745	3.7631063	3.1482371	-72.270474	R0:S0:1	-52.080745	uncorrelated	51514b8	2022-04-18@12:21
2x2_2C_8b_C2v_L	8.3272504	0	14	3.2945379	0.0058472858	-3.0388449	-3.6347401	-0.11600368	-3.6347381	-0.11600259	0.15387963	-3.2142311	9.8	-1.6080487e-05	-3.7654853e-06	0.0087049013	-0.17980797	0.008701825	-0.17980884	1.8153373e-06	-5.6769161e-06	-0.11468066	-1.0469634	1.633521	0.037438915	-1.6335219	-0.037428784	0.24641172	-2.1555622	1.9470586	1	0.28822759	0.012805023	1.2526007	1.6142822	-0.60154851	-0.20337897	0.082014092	0.13478889	0.28282346	1.9370358	1.7965722	1.5431524	1.7965746	1.5431374	0.019774406	1.5341688	1.1076524	0.00015022602	4.7643934e-06	0.11118577	1.1992584	0.11118697	1.1993115	-4.6777953e-06	7.6239483e-06	1.1991344	0.7509474	-1.5774723	-0.55146438	1.5774578	0.55141012	-0.3084272	2.559513	0.029125124	0.25111427	0.061116996	0.18523525	0.37683899	0.18523313	0.37684804	0.019962866	0.35624154	0.036772931	4.2138175	5.3647211	5.1665153	5.0359687	5.166509	5.0359442	4.296297	6.254933	5.2720352	2.7464194	3.3399579	5.2089582	3.339935	5.209021	3.7629581	3.1458931	-72.243993	R0:S0:1	-52.043697	uncorrelated	51514b8	2022-04-18@12:29
2x2_2C_8b_C2v_L	8.3426972	0	14	3.299169	0.0058613156	-3.0388362	-3.6347489	-0.11599266	-3.6347469	-0.11599116	0.1538718	-3.2142706	9.8	-1.6003343e-05	-2.0927539e-06	0.0087429895	-0.17988437	0.0087398553	-0.17988599	1.1274006e-06	-2.9758951e-07	-0.11470875	-1.0469187	1.6334349	0.037397035	-1.6334356	-0.037391888	0.24651207	-2.1554584	1.9469793	1	0.29011379	0.012790853	1.2525305	1.6141765	-0.60179458	-0.20352977	0.0820396	0.13477955	0.28327502	1.9370133	1.7966115	1.5425865	1.7966133	1.5425772	0.019808812	1.5341819	1.1076421	0.00014908563	3.8920374e-06	0.11103277	1.1998285	0.11103475	1.1998685	-4.4864322e-06	1.044188e-07	1.1994089	0.75113344	-1.5773093	-0.55131705	1.5772977	0.55128338	-0.30864332	2.5594266	0.029123387	0.25144566	0.061137144	0.1851993	0.37714975	0.18519769	0.37715448	0.019997645	0.35623498	0.036771587	4.2160128	5.3642007	5.1661458	5.0363089	5.1661419	5.0362914	4.2962529	6.2548801	5.272312	2.7466657	3.3396252	5.2103855	3.3396075	5.2104277	3.763037	3.1459679	-72.243656	R0:S0:1	-52.006648	uncorrelated	51514b8	2022-04-18@12:33
2x2_2C_8b_C2v_L	8.3546378	0	14	3.3038	0.0059741893	-3.0349701	-3.6316399	-0.11670339	-3.6316446	-0.11670262	0.1543633	-3.2119768	9.8	-2.1690645e-05	-3.4421431e-07	0.0087198389	-0.18037702	0.0087209376	-0.18037535	-5.0389346e-07	-6.2161053e-06	-0.11487494	-1.0469859	1.6335406	0.037255772	-1.6335413	-0.037255832	0.24679029	-2.1556731	1.9469	1	0.292	0.012778157	1.2523642	1.6140102	-0.60235619	-0.20394554	0.08216222	0.13485188	0.2843763	1.9368051	1.7959968	1.5422005	1.7959953	1.5422061	0.019832806	1.533022	1.1075944	0.00020440208	-5.578881e-06	0.1116722	1.202004	0.11167107	1.2019677	1.125927e-05	1.2616603e-05	1.2022547	0.75197332	-1.5793774	-0.55165159	1.5793899	0.55165963	-0.30876497	2.5622275	0.029136434	0.25234221	0.06133013	0.18569694	0.3773981	0.18569831	0.37739862	0.020025077	0.35676075	0.036821278	4.2209435	5.3643201	5.1676081	5.0349479	5.16761	5.0349519	4.296649	6.2595515	5.2710752	2.7459699	3.338838	5.2124519	3.3388599	5.2124217	3.7628029	3.1427063	-72.225894	R0:S0:1	-51.9696	uncorrelated	51514b8	2022-04-18@12:40
