model	E_kin	D	U	e	eb1_1	eb2_1	eb3_1	eb4_1	eb5_1	eb6_1	eb7_1	eb8_1	mu	sb1_1	sb2_1	sb3_1	sb4_1	sb5_1	sb6_1	sb7_1	sb8_1	tb1_1	tb2_1	tb3_1	tb4_1	tb5_1	tb6_1	tb7_1	tb8_1	tpd	tpp	tppp	ave_D	ave_e	ave_mu	ave_tpd	ave_tpp	ave_tppp	ave_D_1	ave_U_1	ave_eb1_1	ave_eb2_1	ave_eb3_1	ave_eb4_1	ave_eb5_1	ave_eb6_1	ave_eb7_1	ave_eb8_1	ave_mu_1	ave_sb1_1	ave_sb2_1	ave_sb3_1	ave_sb4_1	ave_sb5_1	ave_sb6_1	ave_sb7_1	ave_sb8_1	ave_tb1_1	ave_tb2_1	ave_tb3_1	ave_tb4_1	ave_tb5_1	ave_tb6_1	ave_tb7_1	ave_tb8_1	var_D_1	var_U_1	var_eb1_1	var_eb2_1	var_eb3_1	var_eb4_1	var_eb5_1	var_eb6_1	var_eb7_1	var_eb8_1	var_mu_1	var_sb1_1	var_sb2_1	var_sb3_1	var_sb4_1	var_sb5_1	var_sb6_1	var_sb7_1	var_sb8_1	var_tb1_1	var_tb2_1	var_tb3_1	var_tb4_1	var_tb5_1	var_tb6_1	var_tb7_1	var_tb8_1	E0_1	sector_1	E0_2	sector_2	githash	time
2x2_2C_8b_C2v_L	3.8785236	0.1	14	1.27	0.079555389	-6.0159128	-6.8662433	0.042763269	-6.8662326	0.042819844	0.055169093	-6.2900312	9.5	-0.00091123057	1.0781173e-05	0.0017888253	0.00035703394	0.0017919774	-8.9890768e-05	0.0067957526	1.9065696e-05	0.0006841877	-0.81609589	1.2484598	-0.0015734057	-1.248454	0.0015667249	-0.00058624379	-1.557213	1.29	0.638	0.14	-0.021046488	1.3183165	1.6665112	-0.27912066	-0.033501654	0.015168852	-0.046732716	0.046237463	1.7947734e-07	1.9815998	1.9577041	3.168303e-07	1.9577045	2.8065203e-07	7.7338499e-06	1.9204741	1.0457628	0.0011996354	-6.5544043e-06	-0.04328504	-0.00068370728	-0.043286548	-5.5903582e-06	-0.011262384	-9.9262401e-06	-0.0010372723	0.50648306	-0.80473017	0.0019439804	0.80472538	-0.0018954247	0.00055097234	1.1450304	0.70896354	0.011116859	1.7947764e-07	0.01834449	0.041861639	3.1684257e-07	0.041861232	2.8065422e-07	7.7344941e-06	0.077537221	0.011103052	3.4858142	4.6484939	4.4870116	3.8298094	4.4870156	3.8298024	4.1223669	4.4785999	4.5141872	3.5123831	3.8396938	4.1701931	3.8396874	4.1701998	3.8776839	4.0427655	-92.259454	R0:S0:1	-65.84	uncorrelated	51514b8	2022-04-08@19:27
2x2_2C_8b_C2v_L	3.8785327	0.1	14	1.27	0.080438418	-6.3814135	-7.2456119	0.043002528	-7.2456145	0.043050951	0.063287043	-6.892539	10	-0.00067793813	-7.8557381e-05	0.0018469095	-0.00012817352	0.0018397149	2.4423442e-05	-0.005563937	-2.0110577e-05	-0.00026632742	-0.81250433	1.2395571	0.00079721432	-1.2395544	-0.00075667908	0.00021723062	-1.5688698	1.29	0.638	0.14	-0.021804743	1.3183205	1.666573	-0.2790667	-0.033494457	0.015165857	-0.04848388	0.046434292	7.8754836e-08	1.9813391	1.9574582	6.523505e-08	1.9574581	5.3433426e-08	6.3510819e-06	1.9207499	1.0459711	0.00098408289	5.2243357e-05	-0.043672059	0.00029279927	-0.043669976	3.2149692e-05	0.010228236	-8.4722652e-07	0.000365388	0.50996341	-0.80689339	-0.00090154911	0.8068961	0.00084155726	-0.00019053574	1.1432708	0.70856051	0.011176202	7.8754846e-08	0.018603605	0.04210194	6.5236073e-08	0.042102038	5.3433561e-08	6.3512425e-06	0.077273325	0.011153759	3.4844267	4.6517181	4.4904027	3.8281116	4.4903879	3.8281281	4.1237913	4.4754069	4.515574	3.5114284	3.8381773	4.1718889	3.8381916	4.1718723	3.8762502	4.0442646	-97.715068	R0:S0:1	-69.84	uncorrelated	51514b8	2022-04-08@19:36
2x2_2C_8b_C2v_L	3.8785248	0.1	14	1.27	0.081321844	-6.7478515	-7.6256826	0.04324705	-7.625698	0.043286769	0.072103389	-7.4935925	10.5	-0.00015718223	-6.3939039e-05	0.0019590095	-0.00038777776	0.0019639429	6.3316828e-05	-0.011377038	-3.720419e-05	-0.00058014968	-0.80922689	1.2317626	0.0022103857	-1.231764	-0.0021554206	0.00062164178	-1.5787621	1.29	0.638	0.14	-0.022996813	1.3183259	1.6666485	-0.27898641	-0.033483751	0.015160479	-0.051208989	0.04666372	4.3264493e-08	1.9810485	1.9571442	4.5939081e-07	1.9571445	3.7649861e-07	3.3483331e-05	1.9211778	1.0462104	0.00025453366	3.3371867e-05	-0.045243939	0.00097319521	-0.045248029	0.00011495806	0.023476354	1.4894665e-05	0.00072983135	0.51389785	-0.8096445	-0.0023287632	0.80964111	0.0022229009	-0.00051273099	1.1403076	0.70797498	0.011249015	4.3264528e-08	0.018892499	0.042409239	4.5950132e-07	0.042409038	3.7650868e-07	3.3487022e-05	0.076866702	0.011219992	3.4840619	4.6541615	4.4945661	3.8260024	4.4945765	3.8259915	4.1245511	4.4717265	4.5159385	3.5114871	3.8363097	4.1740011	3.8362987	4.1740114	3.8756665	4.0455458	-103.17281	R0:S0:1	-73.84	uncorrelated	51514b8	2022-04-08@19:43
2x2_2C_8b_C2v_L	3.8784804	0.1	14	1.27	0.082205841	-7.1170866	-8.0081811	0.043505807	-8.0082092	0.043535751	0.082033198	-8.0887674	11	-0.00014848244	3.4295064e-05	0.0021326526	-9.9926052e-05	0.0021029224	-4.1494528e-05	-0.015622798	0.00012182344	-1.5140509e-05	-0.80650876	1.2248371	0.0010317731	-1.2248324	-0.0010190266	0.0008939803	-1.5866151	1.29	0.638	0.14	-0.02474618	1.3183332	1.6667405	-0.27887611	-0.033468531	0.015152182	-0.055186846	0.046937065	5.3308039e-09	1.9807215	1.9567906	8.5272177e-08	1.9567903	7.8638989e-08	8.1828611e-05	1.9217246	1.0464935	0.00027178204	-7.1524251e-06	-0.048154776	0.00034798112	-0.04814195	0.00022060097	0.036720908	-6.4395942e-05	1.76774e-05	0.51836255	-0.81269962	-0.0010110653	0.81270777	0.00099122292	-0.0006970518	1.136365	0.7071827	0.011341564	5.330804e-09	0.019217434	0.042755591	8.5276735e-08	0.04275589	7.8641273e-08	8.1843554e-05	0.076348437	0.011307499	3.4846807	4.6559106	4.4993779	3.8233734	4.4993342	3.8234222	4.1245503	4.4678949	4.5153193	3.5125305	3.8340021	4.1766273	3.8340444	4.1765784	3.8759796	4.046483	-108.63405	R0:S0:1	-77.84	uncorrelated	51514b8	2022-04-08@19:51
2x2_2C_8b_C2v_L	3.8783692	0.1	14	1.27	0.08309041	-7.4891191	-8.3931074	0.043778799	-8.3931482	0.043797896	0.09307647	-8.6780638	11.5	-0.00065183875	0.00021614493	0.0023678386	0.0007353816	0.0022566532	-0.00029001063	-0.01830122	0.00045697231	0.0014287001	-0.80434992	1.2187807	-0.0027386235	-1.2187594	0.0026525028	0.0010342462	-1.5924286	1.29	0.638	0.14	-0.027281418	1.318343	1.6668611	-0.2787267	-0.033448248	0.015140414	-0.060933487	0.047285729	3.4202113e-07	1.9803565	1.9563997	8.4577473e-07	1.9563977	4.7123238e-07	0.00015157557	1.9223868	1.0468522	0.0013733294	-5.873339e-05	-0.052808974	-0.0022845363	-0.052762923	0.00029921454	0.049952936	-0.00023752377	-0.001554499	0.5233643	-0.81600483	0.0026150103	0.81604527	-0.0023712527	-0.00076427754	1.1314667	0.7060826	0.011468046	3.4203823e-07	0.019579955	0.043138676	8.470494e-07	0.043140502	4.7123375e-07	0.00015160614	0.075721522	0.01143033	3.4862256	4.6570421	4.5049966	3.8199706	4.5048124	3.8201925	4.123823	4.4639206	4.5137771	3.5145067	3.8310514	4.1800358	3.8312335	4.1798112	3.8771549	4.0471062	-114.09891	R0:S0:1	-81.84	uncorrelated	51514b8	2022-04-08@19:55
2x2_2C_8b_C2v_L	3.8781411	0.1	14	1.27	0.083981858	-7.8646273	-8.7811515	0.044268247	-8.781198	0.044244165	0.10636475	-9.258477	12	-0.00040197652	0.00011732842	0.0026682835	0.00050100719	0.0027091652	0.00020000803	-0.018698324	6.723613e-05	0.002133609	-0.80283518	1.2137774	-0.0034507076	-1.2137815	0.0036345233	0.0012068128	-1.5978212	1.29	0.638	0.14	-0.031039319	1.3183563	1.6670566	-0.27851783	-0.033423951	0.015125393	-0.069451096	0.047823607	5.1165053e-07	1.979964	1.9559652	1.0609878e-06	1.9559668	9.34145e-07	0.00022464247	1.922962	1.0473988	0.00099605691	-7.4399098e-05	-0.060082125	-0.0022480671	-0.060096917	-0.001387154	0.060794008	-8.287591e-07	-0.00218416	0.52864973	-0.81958372	0.0030957616	0.81955993	-0.0031903589	-0.00085556361	1.1271836	0.70446204	0.011669533	5.1168684e-07	0.019969954	0.043564734	1.0635274e-06	0.043563224	9.3542024e-07	0.00022468606	0.075177403	0.01162893	3.4872789	4.65888	4.5116002	3.8155381	4.5116697	3.8154589	4.1230901	4.4606325	4.5127251	3.5160833	3.8272632	4.1844699	3.8271894	4.1845482	3.8783521	4.0476806	-119.56802	R0:S0:1	-85.84	uncorrelated	51514b8	2022-04-08@20:03
2x2_2C_8b_C2v_L	3.8775722	0.1	14	1.27	0.084880729	-8.2438319	-9.1724519	0.044974038	-9.1725032	0.04487747	0.12220889	-9.8286753	12.5	0.00035171096	-3.6829443e-06	0.0031547184	-0.00058129184	0.003154019	0.0012351464	-0.022096414	0.00020106816	0.002071109	-0.80058655	1.2092119	-0.0013242114	-1.2092198	0.0023154416	0.0020471782	-1.6011697	1.29	0.638	0.14	-0.036884247	1.3183735	1.6673606	-0.27823905	-0.033398874	0.015107041	-0.082693578	0.048677409	5.6734226e-07	1.9796113	1.9555516	3.0667385e-07	1.9555504	2.2488108e-06	0.00047841658	1.9235739	1.048261	-0.0010647423	6.6836027e-06	-0.071694006	0.0017410553	-0.071695432	-0.0053373656	0.088747719	-8.7335385e-05	-0.0020307453	0.53330427	-0.8226743	0.00091966701	0.82269114	-0.002327236	-0.0013981094	1.1226573	0.70185665	0.012011095	5.6739644e-07	0.020320447	0.043971448	3.0687357e-07	0.04397262	2.2546072e-06	0.0004785943	0.074598405	0.011968248	3.4875493	4.6612594	4.5198314	3.8086249	4.5197906	3.8086367	4.1224598	4.4568662	4.5124555	3.5169361	3.8214249	4.1913776	3.8214684	4.1913807	3.8805874	4.0486292	-125.03695	R0:S0:1	-89.84	uncorrelated	51514b8	2022-04-08@20:12
2x2_2C_8b_C2v_L	3.8765029	0.1	14	1.27	0.085787044	-8.6267538	-9.5670207	0.045896404	-9.5670749	0.045698008	0.14064131	-10.388528	13	0.0016262515	-0.00022427485	0.0038177423	-0.0025230133	0.0036649712	0.0028233653	-0.028421123	0.00045151675	0.0012156468	-0.79768064	1.2052621	0.0036718447	-1.2052692	-0.0013350765	0.0035780733	-1.6030815	1.29	0.638	0.14	-0.046858491	1.3184004	1.6679833	-0.27777842	-0.033373661	0.015081993	-0.10529991	0.05043347	3.1256392e-06	1.9793209	1.9551913	1.5131403e-05	1.9551897	1.1769936e-05	0.0013515193	1.9241492	1.0500235	-0.0062605036	0.00011408749	-0.091748864	0.014376617	-0.091716955	-0.013148962	0.14914658	-0.00020954521	-0.0011988754	0.53680381	-0.8246106	-0.0044312722	0.82463558	-0.00042071536	-0.0024075557	1.1185717	0.69677969	0.012733204	3.1261838e-06	0.020609639	0.044328578	1.5238824e-05	0.044330154	1.1791401e-05	0.0013525307	0.074053544	0.012688727	3.4838421	4.6672377	4.5317851	3.7956368	4.5317051	3.7960071	4.1224281	4.452166	4.5161863	3.5141281	3.8108124	4.2044829	3.8108983	4.2040873	3.886065	4.0507057	-130.50805	R0:S0:1	-93.84	uncorrelated	51514b8	2022-04-08@20:17
2x2_2C_8b_C2v_L	3.8751186	0.1	14	1.27	0.11976436	-9.0101818	-9.9494509	0.13712707	-9.9495035	0.13455345	0.35384797	-10.851022	13.5	-0.00015059618	-0.00049238016	0.0037969646	-0.0074229281	0.0036810711	-0.0079021589	-0.00023029029	6.0361576e-05	-0.0211317	-0.79805109	1.2021982	0.025821746	-1.2021914	-0.025938121	0.056539515	-1.6072307	1.29	0.638	0.14	-0.067422967	1.3184634	1.6698092	-0.27661332	-0.033343465	0.015030933	-0.15218228	0.055131945	6.9088624e-05	1.9789221	1.9549874	0.00055573169	1.9549753	0.00060072238	0.00010989119	1.923084	1.054694	0.00076135958	0.00037113984	-0.1335084	0.07921869	-0.13350535	0.082820098	0.001434321	-0.00026121514	0.020837854	0.54082363	-0.82244292	-0.032487953	0.82263013	0.033166248	-0.034874422	1.1280004	0.68228131	0.01476204	7.0307092e-05	0.021008276	0.044542726	0.00057925717	0.044554313	0.00062739551	0.00011087054	0.075071595	0.014723865	3.4700519	4.6844672	4.5600173	3.7557231	4.5594212	3.7561866	4.1366201	4.451608	4.531	3.5024915	3.7803707	4.248376	3.780959	4.2482435	3.8644113	4.0614351	-135.75533	R0:S0:1	-97.84	uncorrelated	51514b8	2022-04-08@20:27
2x2_2C_8b_C2v_L	3.8817314	0.1	14	1.27	0.20626799	-9.3936812	-10.319536	0.3166495	-10.319503	0.30934856	0.76332399	-11.213155	14	0.00059750244	-0.00038448784	-0.0024985782	-0.029757965	-0.002599127	-0.030517887	0.014233128	-0.0058102714	-0.048768116	-0.80125954	1.2027896	0.058367944	-1.2032538	-0.05831635	0.10071713	-1.6118863	1.29	0.638	0.14	-0.13220985	1.3187934	1.6847475	-0.27008498	-0.033573919	0.01495465	-0.30220667	0.095926562	0.0041561519	1.979665	1.9580682	0.019671795	1.9578766	0.021012421	0.0010767631	1.91831	1.0953964	-0.010288034	0.0048757503	-0.26564585	0.44554422	-0.26749605	0.46218417	-0.10786355	-0.0041875518	0.12280567	0.51491667	-0.76199442	-0.2464694	0.76449833	0.25353638	-0.058113809	1.1818902	0.58270418	0.029469507	0.0043270376	0.020294512	0.041624001	0.020051638	0.041808416	0.021428207	0.0011011511	0.07957404	0.029464076	3.2865192	4.8878035	4.769396	3.4694191	4.7627068	3.476001	4.2774676	4.3723791	4.7752328	3.310204	3.5261377	4.6707793	3.5319437	4.6731094	3.7308148	4.1759805	-140.8167	R0:S0:1	-101.84	uncorrelated	51514b8	2022-04-08@20:37
2x2_2C_8b_C2v_L	4.1453404	0.1	14	1.27	0.19039052	-9.7264507	-10.552518	0.085983173	-10.576627	0.089571464	0.036230229	-11.471561	14.5	-0.00029248662	-0.00013704079	-0.0018517139	-0.054293925	-0.0020840762	-0.054835639	0.082048224	-0.00011046998	-0.067800773	-0.8177075	1.1910818	0.049946213	-1.1923259	-0.050135966	0.0004216878	-1.5763329	1.29	0.638	0.14	-0.23089826	1.3225322	1.8216025	-0.19902537	-0.031378475	0.014402018	-0.36905777	0.49741317	0.073354854	1.9946496	1.9798226	0.22534759	1.9799108	0.22266832	0.76405439	1.9315172	1.497093	0.00052133374	0.0003782464	-0.31846705	0.97583235	-0.31837633	0.96874746	-3.0985203	0.00013964699	1.2118998	0.1342543	-0.37102977	-1.6243638	0.36993036	1.6218645	-0.013761365	1.0191585	0.32131425	0.06105101	0.070100165	0.005375288	0.020239528	0.22180953	0.020152857	0.21889195	0.40622931	0.066003589	0.061183536	1.4741625	7.168122	6.2637601	3.2144477	6.2665256	3.200404	2.6621071	4.4249983	6.535894	0.87849443	1.8055196	5.1473067	1.8030577	5.1578859	8.3638877	3.5175683	-145.6372	R0:S0:1	-105.84	uncorrelated	51514b8	2022-04-08@20:51
