Number of OpenMP threads = 4
!!!!!!!!!!!!!!!!!!!!!!!!!!!!! - Fading to Bi2Sr2CuO6 - !!!!!!!!!!!!!!!!!!!!!!!!!!!!!
reading data file /home/theod/code_pyqcm/simulations/winning_fade/Sr_starting_state.tsv, line 1
101 columns read
----->  D  =  0.0
----->  U  =  14.0
----->  e  =  3.1695
----->  eb1_1  =  0.0018966178
----->  eb2_1  =  -3.1022638
----->  eb3_1  =  -3.6869349
----->  eb4_1  =  -0.10868969
----->  eb5_1  =  -3.686944
----->  eb6_1  =  -0.10869079
----->  eb7_1  =  0.14780046
----->  eb8_1  =  -3.2464716
----->  mu  =  9.8
----->  sb1_1  =  -3.6500554e-05
----->  sb2_1  =  -6.7538764e-06
----->  sb3_1  =  0.0094399223
----->  sb4_1  =  -0.17253352
----->  sb5_1  =  0.0094394611
----->  sb6_1  =  -0.17253362
----->  sb7_1  =  3.636482e-06
----->  sb8_1  =  8.7254376e-06
----->  tb1_1  =  -0.1122816
----->  tb2_1  =  -1.0480638
----->  tb3_1  =  1.635789
----->  tb4_1  =  0.042537516
----->  tb5_1  =  -1.6357909
----->  tb6_1  =  -0.04253608
----->  tb7_1  =  0.24121687
----->  tb8_1  =  -2.1549857
----->  tpd  =  1.9492
----->  tpp  =  1.0
----->  tppp  =  0.2373

******************************* CDMFT procedure *******************************

minimization method =  CG
mixing state =  1
frequency grid type =  sharp
fictitious inverse temperature =  50
frequency cutoff =  2.0
--------------------------------------------------------------------------------

CDMFT iteration 1, distance =  1.28e+02, diff param =  2.36e-04
7 minimization steps, time(MIN)/time(ED)=0.00059
====================== CDMFT converged on the parameters ======================
sb1_1     = -0.0000	sb2_1     = -0.0000	sb3_1     =  0.0093	sb4_1     = -0.1725	sb5_1     =  0.0093	
sb6_1     = -0.1725	sb7_1     = -0.0000	sb8_1     = -0.0000	eb1_1     =  0.0023	eb2_1     = -3.1023	
eb3_1     = -3.6869	eb4_1     = -0.1083	eb5_1     = -3.6869	eb6_1     = -0.1083	eb7_1     =  0.1473	
eb8_1     = -3.2467	tb1_1     = -0.1123	tb2_1     = -1.0480	tb3_1     =  1.6357	tb4_1     =  0.0420	
tb5_1     = -1.6357	tb6_1     = -0.0420	tb7_1     =  0.2411	tb8_1     = -2.1550	
   <D> = 0.013238
   <e> = 1.255704
   <mu> = 1.618027
   <tpd> = -0.590666
   <tpp> = -0.195990
   <tppp> = 0.080027
************************* CDMFT completed successfully *************************

******************************* CDMFT procedure *******************************

minimization method =  CG
mixing state =  1
frequency grid type =  sharp
fictitious inverse temperature =  50
frequency cutoff =  2.0
--------------------------------------------------------------------------------

CDMFT iteration 1, distance =  1.29e+02, diff param =  9.43e-04
15 minimization steps, time(MIN)/time(ED)=0.00040
====================== CDMFT converged on the parameters ======================
sb1_1     = -0.0000	sb2_1     =  0.0000	sb3_1     =  0.0093	sb4_1     = -0.1727	sb5_1     =  0.0093	
sb6_1     = -0.1727	sb7_1     =  0.0000	sb8_1     =  0.0000	eb1_1     =  0.0025	eb2_1     = -3.1022	
eb3_1     = -3.6870	eb4_1     = -0.1087	eb5_1     = -3.6870	eb6_1     = -0.1086	eb7_1     =  0.1478	
eb8_1     = -3.2502	tb1_1     = -0.1124	tb2_1     = -1.0487	tb3_1     =  1.6368	tb4_1     =  0.0419	
tb5_1     = -1.6368	tb6_1     = -0.0419	tb7_1     =  0.2414	tb8_1     = -2.1573	
   <D> = 0.013194
   <e> = 1.255648
   <mu> = 1.617834
   <tpd> = -0.591092
   <tpp> = -0.196046
   <tppp> = 0.080071
************************* CDMFT completed successfully *************************

******************************* CDMFT procedure *******************************

minimization method =  CG
mixing state =  1
frequency grid type =  sharp
fictitious inverse temperature =  50
frequency cutoff =  2.0
--------------------------------------------------------------------------------

CDMFT iteration 1, distance =  1.30e+02, diff param =  8.31e-04
14 minimization steps, time(MIN)/time(ED)=0.00037
====================== CDMFT converged on the parameters ======================
sb1_1     = -0.0000	sb2_1     = -0.0000	sb3_1     =  0.0094	sb4_1     = -0.1731	sb5_1     =  0.0094	
sb6_1     = -0.1731	sb7_1     = -0.0000	sb8_1     =  0.0000	eb1_1     =  0.0025	eb2_1     = -3.1021	
eb3_1     = -3.6874	eb4_1     = -0.1091	eb5_1     = -3.6874	eb6_1     = -0.1091	eb7_1     =  0.1484	
eb8_1     = -3.2532	tb1_1     = -0.1126	tb2_1     = -1.0492	tb3_1     =  1.6378	tb4_1     =  0.0419	
tb5_1     = -1.6378	tb6_1     = -0.0419	tb7_1     =  0.2419	tb8_1     = -2.1592	
   <D> = 0.013205
   <e> = 1.255513
   <mu> = 1.617679
   <tpd> = -0.591697
   <tpp> = -0.196364
   <tppp> = 0.080205
************************* CDMFT completed successfully *************************

******************************* CDMFT procedure *******************************

minimization method =  CG
mixing state =  1
frequency grid type =  sharp
fictitious inverse temperature =  50
frequency cutoff =  2.0
--------------------------------------------------------------------------------

CDMFT iteration 1, distance =  1.30e+02, diff param =  1.08e-03
19 minimization steps, time(MIN)/time(ED)=0.00051
sb1_1     = -0.0000	sb2_1     =  0.0000	sb3_1     =  0.0093	sb4_1     = -0.1734	sb5_1     =  0.0093	
sb6_1     = -0.1734	sb7_1     =  0.0000	sb8_1     =  0.0000	eb1_1     =  0.0027	eb2_1     = -3.1018	
eb3_1     = -3.6886	eb4_1     = -0.1093	eb5_1     = -3.6886	eb6_1     = -0.1093	eb7_1     =  0.1490	
eb8_1     = -3.2572	tb1_1     = -0.1127	tb2_1     = -1.0498	tb3_1     =  1.6390	tb4_1     =  0.0418	
tb5_1     = -1.6390	tb6_1     = -0.0418	tb7_1     =  0.2425	tb8_1     = -2.1615	

CDMFT iteration 2, distance =  1.31e+02, diff param =  1.51e-04, diff hybrid =  2.38e-03
6 minimization steps, time(MIN)/time(ED)=0.00034
====================== CDMFT converged on the parameters ======================
sb1_1     = -0.0000	sb2_1     = -0.0000	sb3_1     =  0.0092	sb4_1     = -0.1737	sb5_1     =  0.0093	
sb6_1     = -0.1737	sb7_1     = -0.0000	sb8_1     =  0.0000	eb1_1     =  0.0029	eb2_1     = -3.1018	
eb3_1     = -3.6887	eb4_1     = -0.1095	eb5_1     = -3.6887	eb6_1     = -0.1095	eb7_1     =  0.1493	
eb8_1     = -3.2571	tb1_1     = -0.1127	tb2_1     = -1.0498	tb3_1     =  1.6389	tb4_1     =  0.0415	
tb5_1     = -1.6389	tb6_1     = -0.0415	tb7_1     =  0.2429	tb8_1     = -2.1613	
   <D> = 0.013244
   <e> = 1.255263
   <mu> = 1.617444
   <tpd> = -0.592660
   <tpp> = -0.196990
   <tppp> = 0.080458
************************* CDMFT completed successfully *************************

******************************* CDMFT procedure *******************************

minimization method =  CG
mixing state =  1
frequency grid type =  sharp
fictitious inverse temperature =  50
frequency cutoff =  2.0
--------------------------------------------------------------------------------

CDMFT iteration 1, distance =  1.31e+02, diff param =  7.85e-04
15 minimization steps, time(MIN)/time(ED)=0.00038
====================== CDMFT converged on the parameters ======================
sb1_1     = -0.0000	sb2_1     = -0.0000	sb3_1     =  0.0093	sb4_1     = -0.1738	sb5_1     =  0.0093	
sb6_1     = -0.1738	sb7_1     =  0.0000	sb8_1     = -0.0000	eb1_1     =  0.0029	eb2_1     = -3.1016	
eb3_1     = -3.6895	eb4_1     = -0.1099	eb5_1     = -3.6895	eb6_1     = -0.1099	eb7_1     =  0.1496	
eb8_1     = -3.2594	tb1_1     = -0.1128	tb2_1     = -1.0504	tb3_1     =  1.6402	tb4_1     =  0.0417	
tb5_1     = -1.6402	tb6_1     = -0.0416	tb7_1     =  0.2430	tb8_1     = -2.1632	
   <D> = 0.013216
   <e> = 1.255212
   <mu> = 1.617267
   <tpd> = -0.593061
   <tpp> = -0.197036
   <tppp> = 0.080498
************************* CDMFT completed successfully *************************

******************************* CDMFT procedure *******************************

minimization method =  CG
mixing state =  1
frequency grid type =  sharp
fictitious inverse temperature =  50
frequency cutoff =  2.0
--------------------------------------------------------------------------------

CDMFT iteration 1, distance =  1.32e+02, diff param =  1.57e-03
32 minimization steps, time(MIN)/time(ED)=0.00080
sb1_1     = -0.0000	sb2_1     = -0.0000	sb3_1     =  0.0094	sb4_1     = -0.1743	sb5_1     =  0.0094	
sb6_1     = -0.1743	sb7_1     =  0.0000	sb8_1     =  0.0000	eb1_1     =  0.0030	eb2_1     = -3.1008	
eb3_1     = -3.6932	eb4_1     = -0.1105	eb5_1     = -3.6932	eb6_1     = -0.1105	eb7_1     =  0.1502	
eb8_1     = -3.2637	tb1_1     = -0.1130	tb2_1     = -1.0510	tb3_1     =  1.6418	tb4_1     =  0.0417	
tb5_1     = -1.6418	tb6_1     = -0.0417	tb7_1     =  0.2436	tb8_1     = -2.1656	

CDMFT iteration 2, distance =  1.32e+02, diff param =  1.27e-04, diff hybrid =  2.51e-03
5 minimization steps, time(MIN)/time(ED)=0.00048
====================== CDMFT converged on the parameters ======================
sb1_1     = -0.0000	sb2_1     = -0.0000	sb3_1     =  0.0093	sb4_1     = -0.1745	sb5_1     =  0.0093	
sb6_1     = -0.1745	sb7_1     =  0.0000	sb8_1     =  0.0000	eb1_1     =  0.0030	eb2_1     = -3.1008	
eb3_1     = -3.6933	eb4_1     = -0.1106	eb5_1     = -3.6933	eb6_1     = -0.1106	eb7_1     =  0.1506	
eb8_1     = -3.2636	tb1_1     = -0.1130	tb2_1     = -1.0509	tb3_1     =  1.6418	tb4_1     =  0.0417	
tb5_1     = -1.6418	tb6_1     = -0.0417	tb7_1     =  0.2439	tb8_1     = -2.1655	
   <D> = 0.013272
   <e> = 1.254996
   <mu> = 1.617109
   <tpd> = -0.593880
   <tpp> = -0.197592
   <tppp> = 0.080721
************************* CDMFT completed successfully *************************

******************************* CDMFT procedure *******************************

minimization method =  CG
mixing state =  1
frequency grid type =  sharp
fictitious inverse temperature =  50
frequency cutoff =  2.0
--------------------------------------------------------------------------------

CDMFT iteration 1, distance =  1.33e+02, diff param =  8.89e-04
18 minimization steps, time(MIN)/time(ED)=0.00049
====================== CDMFT converged on the parameters ======================
sb1_1     = -0.0000	sb2_1     = -0.0000	sb3_1     =  0.0094	sb4_1     = -0.1746	sb5_1     =  0.0094	
sb6_1     = -0.1746	sb7_1     =  0.0000	sb8_1     =  0.0000	eb1_1     =  0.0031	eb2_1     = -3.1004	
eb3_1     = -3.6946	eb4_1     = -0.1107	eb5_1     = -3.6946	eb6_1     = -0.1107	eb7_1     =  0.1509	
eb8_1     = -3.2663	tb1_1     = -0.1131	tb2_1     = -1.0515	tb3_1     =  1.6431	tb4_1     =  0.0417	
tb5_1     = -1.6431	tb6_1     = -0.0417	tb7_1     =  0.2441	tb8_1     = -2.1675	
   <D> = 0.013262
   <e> = 1.254927
   <mu> = 1.616919
   <tpd> = -0.594330
   <tpp> = -0.197693
   <tppp> = 0.080778
************************* CDMFT completed successfully *************************

******************************* CDMFT procedure *******************************

minimization method =  CG
mixing state =  1
frequency grid type =  sharp
fictitious inverse temperature =  50
frequency cutoff =  2.0
--------------------------------------------------------------------------------

CDMFT iteration 1, distance =  1.33e+02, diff param =  2.00e-03
38 minimization steps, time(MIN)/time(ED)=0.00096
sb1_1     = -0.0000	sb2_1     = -0.0000	sb3_1     =  0.0094	sb4_1     = -0.1753	sb5_1     =  0.0094	
sb6_1     = -0.1753	sb7_1     = -0.0000	sb8_1     = -0.0000	eb1_1     =  0.0033	eb2_1     = -3.0991	
eb3_1     = -3.7003	eb4_1     = -0.1118	eb5_1     = -3.7003	eb6_1     = -0.1118	eb7_1     =  0.1514	
eb8_1     = -3.2697	tb1_1     = -0.1133	tb2_1     = -1.0519	tb3_1     =  1.6452	tb4_1     =  0.0416	
tb5_1     = -1.6452	tb6_1     = -0.0416	tb7_1     =  0.2446	tb8_1     = -2.1696	

CDMFT iteration 2, distance =  1.34e+02, diff param =  1.29e-04, diff hybrid =  2.53e-03
7 minimization steps, time(MIN)/time(ED)=0.00058
====================== CDMFT converged on the parameters ======================
sb1_1     = -0.0000	sb2_1     =  0.0000	sb3_1     =  0.0095	sb4_1     = -0.1753	sb5_1     =  0.0095	
sb6_1     = -0.1753	sb7_1     =  0.0000	sb8_1     = -0.0000	eb1_1     =  0.0032	eb2_1     = -3.0990	
eb3_1     = -3.7003	eb4_1     = -0.1119	eb5_1     = -3.7003	eb6_1     = -0.1119	eb7_1     =  0.1517	
eb8_1     = -3.2697	tb1_1     = -0.1133	tb2_1     = -1.0519	tb3_1     =  1.6452	tb4_1     =  0.0419	
tb5_1     = -1.6452	tb6_1     = -0.0419	tb7_1     =  0.2447	tb8_1     = -2.1695	
   <D> = 0.013298
   <e> = 1.254744
   <mu> = 1.616791
   <tpd> = -0.595053
   <tpp> = -0.198147
   <tppp> = 0.080967
************************* CDMFT completed successfully *************************

******************************* CDMFT procedure *******************************

minimization method =  CG
mixing state =  1
frequency grid type =  sharp
fictitious inverse temperature =  50
frequency cutoff =  2.0
--------------------------------------------------------------------------------

CDMFT iteration 1, distance =  1.34e+02, diff param =  6.30e-04
15 minimization steps, time(MIN)/time(ED)=0.00040
====================== CDMFT converged on the parameters ======================
sb1_1     = -0.0000	sb2_1     = -0.0000	sb3_1     =  0.0095	sb4_1     = -0.1756	sb5_1     =  0.0095	
sb6_1     = -0.1756	sb7_1     = -0.0000	sb8_1     =  0.0000	eb1_1     =  0.0033	eb2_1     = -3.0987	
eb3_1     = -3.7006	eb4_1     = -0.1121	eb5_1     = -3.7006	eb6_1     = -0.1121	eb7_1     =  0.1518	
eb8_1     = -3.2715	tb1_1     = -0.1134	tb2_1     = -1.0526	tb3_1     =  1.6462	tb4_1     =  0.0419	
tb5_1     = -1.6462	tb6_1     = -0.0419	tb7_1     =  0.2449	tb8_1     = -2.1712	
   <D> = 0.013317
   <e> = 1.254658
   <mu> = 1.616603
   <tpd> = -0.595536
   <tpp> = -0.198311
   <tppp> = 0.081044
************************* CDMFT completed successfully *************************

******************************* CDMFT procedure *******************************

minimization method =  CG
mixing state =  1
frequency grid type =  sharp
fictitious inverse temperature =  50
frequency cutoff =  2.0
--------------------------------------------------------------------------------

CDMFT iteration 1, distance =  1.35e+02, diff param =  1.15e-03
19 minimization steps, time(MIN)/time(ED)=0.00047
sb1_1     = -0.0000	sb2_1     = -0.0000	sb3_1     =  0.0095	sb4_1     = -0.1760	sb5_1     =  0.0095	
sb6_1     = -0.1760	sb7_1     = -0.0000	sb8_1     = -0.0000	eb1_1     =  0.0035	eb2_1     = -3.0983	
eb3_1     = -3.7017	eb4_1     = -0.1126	eb5_1     = -3.7017	eb6_1     = -0.1126	eb7_1     =  0.1525	
eb8_1     = -3.2759	tb1_1     = -0.1136	tb2_1     = -1.0531	tb3_1     =  1.6474	tb4_1     =  0.0416	
tb5_1     = -1.6474	tb6_1     = -0.0416	tb7_1     =  0.2456	tb8_1     = -2.1735	

CDMFT iteration 2, distance =  1.35e+02, diff param =  1.38e-04, diff hybrid =  2.43e-03
5 minimization steps, time(MIN)/time(ED)=0.00031
====================== CDMFT converged on the parameters ======================
sb1_1     = -0.0000	sb2_1     =  0.0000	sb3_1     =  0.0094	sb4_1     = -0.1762	sb5_1     =  0.0094	
sb6_1     = -0.1762	sb7_1     =  0.0000	sb8_1     = -0.0000	eb1_1     =  0.0036	eb2_1     = -3.0982	
eb3_1     = -3.7018	eb4_1     = -0.1128	eb5_1     = -3.7018	eb6_1     = -0.1128	eb7_1     =  0.1529	
eb8_1     = -3.2758	tb1_1     = -0.1136	tb2_1     = -1.0531	tb3_1     =  1.6473	tb4_1     =  0.0416	
tb5_1     = -1.6473	tb6_1     = -0.0416	tb7_1     =  0.2459	tb8_1     = -2.1734	
   <D> = 0.013343
   <e> = 1.254423
   <mu> = 1.616385
   <tpd> = -0.596454
   <tpp> = -0.198894
   <tppp> = 0.081282
************************* CDMFT completed successfully *************************

******************************* CDMFT procedure *******************************

minimization method =  CG
mixing state =  1
frequency grid type =  sharp
fictitious inverse temperature =  50
frequency cutoff =  2.0
--------------------------------------------------------------------------------

CDMFT iteration 1, distance =  1.36e+02, diff param =  7.09e-04
15 minimization steps, time(MIN)/time(ED)=0.00038
====================== CDMFT converged on the parameters ======================
sb1_1     = -0.0000	sb2_1     = -0.0000	sb3_1     =  0.0095	sb4_1     = -0.1763	sb5_1     =  0.0095	
sb6_1     = -0.1763	sb7_1     = -0.0000	sb8_1     =  0.0000	eb1_1     =  0.0037	eb2_1     = -3.0979	
eb3_1     = -3.7025	eb4_1     = -0.1131	eb5_1     = -3.7025	eb6_1     = -0.1131	eb7_1     =  0.1530	
eb8_1     = -3.2778	tb1_1     = -0.1137	tb2_1     = -1.0537	tb3_1     =  1.6485	tb4_1     =  0.0416	
tb5_1     = -1.6485	tb6_1     = -0.0417	tb7_1     =  0.2459	tb8_1     = -2.1752	
   <D> = 0.013329
   <e> = 1.254367
   <mu> = 1.616211
   <tpd> = -0.596861
   <tpp> = -0.198960
   <tppp> = 0.081327
************************* CDMFT completed successfully *************************

******************************* CDMFT procedure *******************************

minimization method =  CG
mixing state =  1
frequency grid type =  sharp
fictitious inverse temperature =  50
frequency cutoff =  2.0
--------------------------------------------------------------------------------

CDMFT iteration 1, distance =  1.37e+02, diff param =  1.77e-03
30 minimization steps, time(MIN)/time(ED)=0.00077
sb1_1     = -0.0000	sb2_1     = -0.0000	sb3_1     =  0.0095	sb4_1     = -0.1769	sb5_1     =  0.0095	
sb6_1     = -0.1769	sb7_1     =  0.0000	sb8_1     = -0.0000	eb1_1     =  0.0038	eb2_1     = -3.0966	
eb3_1     = -3.7065	eb4_1     = -0.1137	eb5_1     = -3.7065	eb6_1     = -0.1137	eb7_1     =  0.1538	
eb8_1     = -3.2829	tb1_1     = -0.1139	tb2_1     = -1.0541	tb3_1     =  1.6503	tb4_1     =  0.0416	
tb5_1     = -1.6503	tb6_1     = -0.0416	tb7_1     =  0.2466	tb8_1     = -2.1778	

CDMFT iteration 2, distance =  1.37e+02, diff param =  8.70e-05, diff hybrid =  2.51e-03
4 minimization steps, time(MIN)/time(ED)=0.00045
====================== CDMFT converged on the parameters ======================
sb1_1     = -0.0000	sb2_1     = -0.0000	sb3_1     =  0.0095	sb4_1     = -0.1769	sb5_1     =  0.0095	
sb6_1     = -0.1769	sb7_1     =  0.0000	sb8_1     =  0.0000	eb1_1     =  0.0037	eb2_1     = -3.0966	
eb3_1     = -3.7066	eb4_1     = -0.1138	eb5_1     = -3.7066	eb6_1     = -0.1138	eb7_1     =  0.1540	
eb8_1     = -3.2828	tb1_1     = -0.1139	tb2_1     = -1.0541	tb3_1     =  1.6502	tb4_1     =  0.0418	
tb5_1     = -1.6502	tb6_1     = -0.0418	tb7_1     =  0.2468	tb8_1     = -2.1777	
   <D> = 0.013378
   <e> = 1.254162
   <mu> = 1.616059
   <tpd> = -0.597654
   <tpp> = -0.199479
   <tppp> = 0.081538
************************* CDMFT completed successfully *************************

******************************* CDMFT procedure *******************************

minimization method =  CG
mixing state =  1
frequency grid type =  sharp
fictitious inverse temperature =  50
frequency cutoff =  2.0
--------------------------------------------------------------------------------

CDMFT iteration 1, distance =  1.37e+02, diff param =  9.40e-04
19 minimization steps, time(MIN)/time(ED)=0.00047
====================== CDMFT converged on the parameters ======================
sb1_1     = -0.0000	sb2_1     = -0.0000	sb3_1     =  0.0095	sb4_1     = -0.1771	sb5_1     =  0.0095	
sb6_1     = -0.1771	sb7_1     =  0.0000	sb8_1     =  0.0000	eb1_1     =  0.0039	eb2_1     = -3.0960	
eb3_1     = -3.7081	eb4_1     = -0.1140	eb5_1     = -3.7081	eb6_1     = -0.1140	eb7_1     =  0.1544	
eb8_1     = -3.2856	tb1_1     = -0.1140	tb2_1     = -1.0546	tb3_1     =  1.6516	tb4_1     =  0.0417	
tb5_1     = -1.6516	tb6_1     = -0.0417	tb7_1     =  0.2471	tb8_1     = -2.1797	
   <D> = 0.013380
   <e> = 1.254082
   <mu> = 1.615865
   <tpd> = -0.598128
   <tpp> = -0.199617
   <tppp> = 0.081609
************************* CDMFT completed successfully *************************

******************************* CDMFT procedure *******************************

minimization method =  CG
mixing state =  1
frequency grid type =  sharp
fictitious inverse temperature =  50
frequency cutoff =  2.0
--------------------------------------------------------------------------------

CDMFT iteration 1, distance =  1.38e+02, diff param =  1.04e-03
26 minimization steps, time(MIN)/time(ED)=0.00066
sb1_1     = -0.0000	sb2_1     =  0.0000	sb3_1     =  0.0095	sb4_1     = -0.1776	sb5_1     =  0.0095	
sb6_1     = -0.1776	sb7_1     = -0.0000	sb8_1     = -0.0000	eb1_1     =  0.0041	eb2_1     = -3.0953	
eb3_1     = -3.7100	eb4_1     = -0.1144	eb5_1     = -3.7100	eb6_1     = -0.1144	eb7_1     =  0.1549	
eb8_1     = -3.2885	tb1_1     = -0.1142	tb2_1     = -1.0552	tb3_1     =  1.6529	tb4_1     =  0.0416	
tb5_1     = -1.6529	tb6_1     = -0.0416	tb7_1     =  0.2476	tb8_1     = -2.1816	

CDMFT iteration 2, distance =  1.38e+02, diff param =  1.75e-04, diff hybrid =  2.42e-03
5 minimization steps, time(MIN)/time(ED)=0.00040
====================== CDMFT converged on the parameters ======================
sb1_1     = -0.0000	sb2_1     =  0.0000	sb3_1     =  0.0095	sb4_1     = -0.1778	sb5_1     =  0.0095	
sb6_1     = -0.1778	sb7_1     =  0.0000	sb8_1     =  0.0000	eb1_1     =  0.0041	eb2_1     = -3.0952	
eb3_1     = -3.7102	eb4_1     = -0.1148	eb5_1     = -3.7102	eb6_1     = -0.1148	eb7_1     =  0.1553	
eb8_1     = -3.2884	tb1_1     = -0.1142	tb2_1     = -1.0551	tb3_1     =  1.6529	tb4_1     =  0.0415	
tb5_1     = -1.6529	tb6_1     = -0.0415	tb7_1     =  0.2479	tb8_1     = -2.1815	
   <D> = 0.013411
   <e> = 1.253854
   <mu> = 1.615664
   <tpd> = -0.599012
   <tpp> = -0.200187
   <tppp> = 0.081841
************************* CDMFT completed successfully *************************

******************************* CDMFT procedure *******************************

minimization method =  CG
mixing state =  1
frequency grid type =  sharp
fictitious inverse temperature =  50
frequency cutoff =  2.0
--------------------------------------------------------------------------------

CDMFT iteration 1, distance =  1.39e+02, diff param =  9.86e-04
17 minimization steps, time(MIN)/time(ED)=0.00043
====================== CDMFT converged on the parameters ======================
sb1_1     =  0.0000	sb2_1     = -0.0000	sb3_1     =  0.0095	sb4_1     = -0.1780	sb5_1     =  0.0095	
sb6_1     = -0.1780	sb7_1     = -0.0000	sb8_1     =  0.0000	eb1_1     =  0.0041	eb2_1     = -3.0946	
eb3_1     = -3.7115	eb4_1     = -0.1152	eb5_1     = -3.7115	eb6_1     = -0.1152	eb7_1     =  0.1556	
eb8_1     = -3.2916	tb1_1     = -0.1143	tb2_1     = -1.0557	tb3_1     =  1.6542	tb4_1     =  0.0416	
tb5_1     = -1.6542	tb6_1     = -0.0416	tb7_1     =  0.2481	tb8_1     = -2.1837	
   <D> = 0.013391
   <e> = 1.253804
   <mu> = 1.615494
   <tpd> = -0.599405
   <tpp> = -0.200233
   <tppp> = 0.081879
************************* CDMFT completed successfully *************************

******************************* CDMFT procedure *******************************

minimization method =  CG
mixing state =  1
frequency grid type =  sharp
fictitious inverse temperature =  50
frequency cutoff =  2.0
--------------------------------------------------------------------------------

CDMFT iteration 1, distance =  1.40e+02, diff param =  1.06e-03
17 minimization steps, time(MIN)/time(ED)=0.00048
sb1_1     =  0.0000	sb2_1     =  0.0000	sb3_1     =  0.0096	sb4_1     = -0.1783	sb5_1     =  0.0096	
sb6_1     = -0.1783	sb7_1     = -0.0000	sb8_1     = -0.0000	eb1_1     =  0.0042	eb2_1     = -3.0939	
eb3_1     = -3.7134	eb4_1     = -0.1154	eb5_1     = -3.7134	eb6_1     = -0.1154	eb7_1     =  0.1560	
eb8_1     = -3.2949	tb1_1     = -0.1145	tb2_1     = -1.0562	tb3_1     =  1.6555	tb4_1     =  0.0416	
tb5_1     = -1.6555	tb6_1     = -0.0416	tb7_1     =  0.2485	tb8_1     = -2.1857	

CDMFT iteration 2, distance =  1.40e+02, diff param =  1.85e-04, diff hybrid =  2.45e-03
9 minimization steps, time(MIN)/time(ED)=0.00036
====================== CDMFT converged on the parameters ======================
sb1_1     =  0.0000	sb2_1     =  0.0000	sb3_1     =  0.0096	sb4_1     = -0.1786	sb5_1     =  0.0096	
sb6_1     = -0.1786	sb7_1     = -0.0000	sb8_1     = -0.0000	eb1_1     =  0.0044	eb2_1     = -3.0938	
eb3_1     = -3.7136	eb4_1     = -0.1158	eb5_1     = -3.7136	eb6_1     = -0.1158	eb7_1     =  0.1563	
eb8_1     = -3.2947	tb1_1     = -0.1145	tb2_1     = -1.0561	tb3_1     =  1.6554	tb4_1     =  0.0415	
tb5_1     = -1.6554	tb6_1     = -0.0415	tb7_1     =  0.2489	tb8_1     = -2.1855	
   <D> = 0.013447
   <e> = 1.253563
   <mu> = 1.615301
   <tpd> = -0.600307
   <tpp> = -0.200853
   <tppp> = 0.082128
************************* CDMFT completed successfully *************************

******************************* CDMFT procedure *******************************

minimization method =  CG
mixing state =  1
frequency grid type =  sharp
fictitious inverse temperature =  50
frequency cutoff =  2.0
--------------------------------------------------------------------------------

CDMFT iteration 1, distance =  1.41e+02, diff param =  1.14e-03
19 minimization steps, time(MIN)/time(ED)=0.00052
sb1_1     = -0.0000	sb2_1     =  0.0000	sb3_1     =  0.0096	sb4_1     = -0.1788	sb5_1     =  0.0096	
sb6_1     = -0.1788	sb7_1     = -0.0000	sb8_1     = -0.0000	eb1_1     =  0.0045	eb2_1     = -3.0930	
eb3_1     = -3.7155	eb4_1     = -0.1162	eb5_1     = -3.7155	eb6_1     = -0.1162	eb7_1     =  0.1568	
eb8_1     = -3.2983	tb1_1     = -0.1146	tb2_1     = -1.0567	tb3_1     =  1.6569	tb4_1     =  0.0415	
tb5_1     = -1.6569	tb6_1     = -0.0415	tb7_1     =  0.2491	tb8_1     = -2.1878	

CDMFT iteration 2, distance =  1.41e+02, diff param =  1.14e-04, diff hybrid =  2.94e-03
5 minimization steps, time(MIN)/time(ED)=0.00034
====================== CDMFT converged on the parameters ======================
sb1_1     = -0.0000	sb2_1     =  0.0000	sb3_1     =  0.0096	sb4_1     = -0.1789	sb5_1     =  0.0096	
sb6_1     = -0.1789	sb7_1     =  0.0000	sb8_1     =  0.0000	eb1_1     =  0.0043	eb2_1     = -3.0930	
eb3_1     = -3.7157	eb4_1     = -0.1163	eb5_1     = -3.7157	eb6_1     = -0.1163	eb7_1     =  0.1569	
eb8_1     = -3.2981	tb1_1     = -0.1146	tb2_1     = -1.0567	tb3_1     =  1.6568	tb4_1     =  0.0417	
tb5_1     = -1.6568	tb6_1     = -0.0417	tb7_1     =  0.2493	tb8_1     = -2.1877	
   <D> = 0.013450
   <e> = 1.253457
   <mu> = 1.615163
   <tpd> = -0.600833
   <tpp> = -0.201076
   <tppp> = 0.082230
************************* CDMFT completed successfully *************************

******************************* CDMFT procedure *******************************

minimization method =  CG
mixing state =  1
frequency grid type =  sharp
fictitious inverse temperature =  50
frequency cutoff =  2.0
--------------------------------------------------------------------------------

CDMFT iteration 1, distance =  1.41e+02, diff param =  2.09e-03
29 minimization steps, time(MIN)/time(ED)=0.00071
sb1_1     =  0.0000	sb2_1     =  0.0000	sb3_1     =  0.0096	sb4_1     = -0.1794	sb5_1     =  0.0096	
sb6_1     = -0.1794	sb7_1     = -0.0000	sb8_1     = -0.0000	eb1_1     =  0.0046	eb2_1     = -3.0911	
eb3_1     = -3.7215	eb4_1     = -0.1168	eb5_1     = -3.7215	eb6_1     = -0.1168	eb7_1     =  0.1574	
eb8_1     = -3.3023	tb1_1     = -0.1147	tb2_1     = -1.0571	tb3_1     =  1.6591	tb4_1     =  0.0416	
tb5_1     = -1.6591	tb6_1     = -0.0416	tb7_1     =  0.2497	tb8_1     = -2.1901	

CDMFT iteration 2, distance =  1.42e+02, diff param =  1.75e-04, diff hybrid =  2.77e-03
7 minimization steps, time(MIN)/time(ED)=0.00046
====================== CDMFT converged on the parameters ======================
sb1_1     =  0.0000	sb2_1     =  0.0000	sb3_1     =  0.0097	sb4_1     = -0.1795	sb5_1     =  0.0097	
sb6_1     = -0.1795	sb7_1     =  0.0000	sb8_1     =  0.0000	eb1_1     =  0.0045	eb2_1     = -3.0910	
eb3_1     = -3.7215	eb4_1     = -0.1171	eb5_1     = -3.7215	eb6_1     = -0.1171	eb7_1     =  0.1577	
eb8_1     = -3.3018	tb1_1     = -0.1148	tb2_1     = -1.0571	tb3_1     =  1.6590	tb4_1     =  0.0419	
tb5_1     = -1.6590	tb6_1     = -0.0419	tb7_1     =  0.2498	tb8_1     = -2.1899	
   <D> = 0.013478
   <e> = 1.253332
   <mu> = 1.615013
   <tpd> = -0.601401
   <tpp> = -0.201349
   <tppp> = 0.082352
************************* CDMFT completed successfully *************************

******************************* CDMFT procedure *******************************

minimization method =  CG
mixing state =  1
frequency grid type =  sharp
fictitious inverse temperature =  50
frequency cutoff =  2.0
--------------------------------------------------------------------------------

CDMFT iteration 1, distance =  1.42e+02, diff param =  6.14e-04
15 minimization steps, time(MIN)/time(ED)=0.00040
====================== CDMFT converged on the parameters ======================
sb1_1     =  0.0000	sb2_1     = -0.0000	sb3_1     =  0.0097	sb4_1     = -0.1797	sb5_1     =  0.0097	
sb6_1     = -0.1797	sb7_1     = -0.0000	sb8_1     = -0.0000	eb1_1     =  0.0046	eb2_1     = -3.0906	
eb3_1     = -3.7219	eb4_1     = -0.1174	eb5_1     = -3.7219	eb6_1     = -0.1174	eb7_1     =  0.1577	
eb8_1     = -3.3035	tb1_1     = -0.1149	tb2_1     = -1.0576	tb3_1     =  1.6601	tb4_1     =  0.0419	
tb5_1     = -1.6601	tb6_1     = -0.0419	tb7_1     =  0.2499	tb8_1     = -2.1916	
   <D> = 0.013489
   <e> = 1.253255
   <mu> = 1.614827
   <tpd> = -0.601866
   <tpp> = -0.201481
   <tppp> = 0.082420
************************* CDMFT completed successfully *************************

******************************* CDMFT procedure *******************************

minimization method =  CG
mixing state =  1
frequency grid type =  sharp
fictitious inverse temperature =  50
frequency cutoff =  2.0
--------------------------------------------------------------------------------

CDMFT iteration 1, distance =  1.43e+02, diff param =  9.15e-04
25 minimization steps, time(MIN)/time(ED)=0.00063
====================== CDMFT converged on the parameters ======================
sb1_1     =  0.0000	sb2_1     =  0.0000	sb3_1     =  0.0097	sb4_1     = -0.1800	sb5_1     =  0.0097	
sb6_1     = -0.1800	sb7_1     =  0.0000	sb8_1     =  0.0000	eb1_1     =  0.0047	eb2_1     = -3.0900	
eb3_1     = -3.7231	eb4_1     = -0.1177	eb5_1     = -3.7231	eb6_1     = -0.1177	eb7_1     =  0.1583	
eb8_1     = -3.3065	tb1_1     = -0.1151	tb2_1     = -1.0581	tb3_1     =  1.6613	tb4_1     =  0.0418	
tb5_1     = -1.6613	tb6_1     = -0.0418	tb7_1     =  0.2504	tb8_1     = -2.1935	
   <D> = 0.013508
   <e> = 1.253097
   <mu> = 1.614632
   <tpd> = -0.602554
   <tpp> = -0.201850
   <tppp> = 0.082576
************************* CDMFT completed successfully *************************

******************************* CDMFT procedure *******************************

minimization method =  CG
mixing state =  1
frequency grid type =  sharp
fictitious inverse temperature =  50
frequency cutoff =  2.0
--------------------------------------------------------------------------------

CDMFT iteration 1, distance =  1.44e+02, diff param =  1.18e-03
18 minimization steps, time(MIN)/time(ED)=0.00048
sb1_1     =  0.0000	sb2_1     = -0.0000	sb3_1     =  0.0097	sb4_1     = -0.1805	sb5_1     =  0.0097	
sb6_1     = -0.1805	sb7_1     = -0.0000	sb8_1     = -0.0000	eb1_1     =  0.0050	eb2_1     = -3.0894	
eb3_1     = -3.7248	eb4_1     = -0.1181	eb5_1     = -3.7248	eb6_1     = -0.1181	eb7_1     =  0.1590	
eb8_1     = -3.3106	tb1_1     = -0.1152	tb2_1     = -1.0586	tb3_1     =  1.6626	tb4_1     =  0.0415	
tb5_1     = -1.6626	tb6_1     = -0.0415	tb7_1     =  0.2511	tb8_1     = -2.1958	

CDMFT iteration 2, distance =  1.44e+02, diff param =  1.56e-04, diff hybrid =  2.42e-03
6 minimization steps, time(MIN)/time(ED)=0.00033
====================== CDMFT converged on the parameters ======================
sb1_1     =  0.0000	sb2_1     = -0.0000	sb3_1     =  0.0097	sb4_1     = -0.1807	sb5_1     =  0.0097	
sb6_1     = -0.1807	sb7_1     =  0.0000	sb8_1     = -0.0000	eb1_1     =  0.0050	eb2_1     = -3.0893	
eb3_1     = -3.7250	eb4_1     = -0.1185	eb5_1     = -3.7250	eb6_1     = -0.1184	eb7_1     =  0.1593	
eb8_1     = -3.3104	tb1_1     = -0.1152	tb2_1     = -1.0586	tb3_1     =  1.6626	tb4_1     =  0.0416	
tb5_1     = -1.6626	tb6_1     = -0.0415	tb7_1     =  0.2513	tb8_1     = -2.1956	
   <D> = 0.013518
   <e> = 1.252881
   <mu> = 1.614424
   <tpd> = -0.603419
   <tpp> = -0.202375
   <tppp> = 0.082796
************************* CDMFT completed successfully *************************

******************************* CDMFT procedure *******************************

minimization method =  CG
mixing state =  1
frequency grid type =  sharp
fictitious inverse temperature =  50
frequency cutoff =  2.0
--------------------------------------------------------------------------------

CDMFT iteration 1, distance =  1.45e+02, diff param =  1.12e-03
28 minimization steps, time(MIN)/time(ED)=0.00073
sb1_1     =  0.0000	sb2_1     =  0.0000	sb3_1     =  0.0097	sb4_1     = -0.1809	sb5_1     =  0.0097	
sb6_1     = -0.1809	sb7_1     = -0.0000	sb8_1     = -0.0000	eb1_1     =  0.0050	eb2_1     = -3.0883	
eb3_1     = -3.7272	eb4_1     = -0.1188	eb5_1     = -3.7272	eb6_1     = -0.1188	eb7_1     =  0.1595	
eb8_1     = -3.3135	tb1_1     = -0.1153	tb2_1     = -1.0591	tb3_1     =  1.6641	tb4_1     =  0.0416	
tb5_1     = -1.6641	tb6_1     = -0.0416	tb7_1     =  0.2514	tb8_1     = -2.1978	

CDMFT iteration 2, distance =  1.45e+02, diff param =  1.24e-04, diff hybrid =  2.83e-03
6 minimization steps, time(MIN)/time(ED)=0.00046
====================== CDMFT converged on the parameters ======================
sb1_1     =  0.0000	sb2_1     =  0.0000	sb3_1     =  0.0097	sb4_1     = -0.1811	sb5_1     =  0.0097	
sb6_1     = -0.1811	sb7_1     =  0.0000	sb8_1     = -0.0000	eb1_1     =  0.0050	eb2_1     = -3.0882	
eb3_1     = -3.7274	eb4_1     = -0.1189	eb5_1     = -3.7273	eb6_1     = -0.1189	eb7_1     =  0.1598	
eb8_1     = -3.3133	tb1_1     = -0.1154	tb2_1     = -1.0591	tb3_1     =  1.6640	tb4_1     =  0.0417	
tb5_1     = -1.6640	tb6_1     = -0.0416	tb7_1     =  0.2517	tb8_1     = -2.1976	
   <D> = 0.013541
   <e> = 1.252751
   <mu> = 1.614272
   <tpd> = -0.604005
   <tpp> = -0.202672
   <tppp> = 0.082924
************************* CDMFT completed successfully *************************

******************************* CDMFT procedure *******************************

minimization method =  CG
mixing state =  1
frequency grid type =  sharp
fictitious inverse temperature =  50
frequency cutoff =  2.0
--------------------------------------------------------------------------------

CDMFT iteration 1, distance =  1.45e+02, diff param =  9.77e-04
16 minimization steps, time(MIN)/time(ED)=0.00042
====================== CDMFT converged on the parameters ======================
sb1_1     =  0.0000	sb2_1     =  0.0000	sb3_1     =  0.0098	sb4_1     = -0.1814	sb5_1     =  0.0098	
sb6_1     = -0.1814	sb7_1     = -0.0000	sb8_1     =  0.0000	eb1_1     =  0.0052	eb2_1     = -3.0877	
eb3_1     = -3.7286	eb4_1     = -0.1195	eb5_1     = -3.7286	eb6_1     = -0.1195	eb7_1     =  0.1601	
eb8_1     = -3.3165	tb1_1     = -0.1155	tb2_1     = -1.0597	tb3_1     =  1.6653	tb4_1     =  0.0416	
tb5_1     = -1.6653	tb6_1     = -0.0416	tb7_1     =  0.2520	tb8_1     = -2.1997	
   <D> = 0.013533
   <e> = 1.252671
   <mu> = 1.614064
   <tpd> = -0.604494
   <tpp> = -0.202796
   <tppp> = 0.082992
************************* CDMFT completed successfully *************************

******************************* CDMFT procedure *******************************

minimization method =  CG
mixing state =  1
frequency grid type =  sharp
fictitious inverse temperature =  50
frequency cutoff =  2.0
--------------------------------------------------------------------------------

CDMFT iteration 1, distance =  1.46e+02, diff param =  1.04e-03
19 minimization steps, time(MIN)/time(ED)=0.00046
sb1_1     =  0.0000	sb2_1     = -0.0000	sb3_1     =  0.0098	sb4_1     = -0.1816	sb5_1     =  0.0098	
sb6_1     = -0.1816	sb7_1     =  0.0000	sb8_1     =  0.0000	eb1_1     =  0.0052	eb2_1     = -3.0869	
eb3_1     = -3.7305	eb4_1     = -0.1197	eb5_1     = -3.7305	eb6_1     = -0.1197	eb7_1     =  0.1607	
eb8_1     = -3.3197	tb1_1     = -0.1156	tb2_1     = -1.0601	tb3_1     =  1.6666	tb4_1     =  0.0417	
tb5_1     = -1.6666	tb6_1     = -0.0417	tb7_1     =  0.2524	tb8_1     = -2.2018	

CDMFT iteration 2, distance =  1.47e+02, diff param =  1.44e-04, diff hybrid =  2.52e-03
8 minimization steps, time(MIN)/time(ED)=0.00035
====================== CDMFT converged on the parameters ======================
sb1_1     =  0.0000	sb2_1     = -0.0000	sb3_1     =  0.0098	sb4_1     = -0.1819	sb5_1     =  0.0098	
sb6_1     = -0.1819	sb7_1     = -0.0000	sb8_1     =  0.0000	eb1_1     =  0.0053	eb2_1     = -3.0868	
eb3_1     = -3.7307	eb4_1     = -0.1198	eb5_1     = -3.7307	eb6_1     = -0.1198	eb7_1     =  0.1608	
eb8_1     = -3.3196	tb1_1     = -0.1157	tb2_1     = -1.0601	tb3_1     =  1.6665	tb4_1     =  0.0415	
tb5_1     = -1.6665	tb6_1     = -0.0415	tb7_1     =  0.2527	tb8_1     = -2.2016	
   <D> = 0.013575
   <e> = 1.252451
   <mu> = 1.613889
   <tpd> = -0.605335
   <tpp> = -0.203352
   <tppp> = 0.083218
************************* CDMFT completed successfully *************************

******************************* CDMFT procedure *******************************

minimization method =  CG
mixing state =  1
frequency grid type =  sharp
fictitious inverse temperature =  50
frequency cutoff =  2.0
--------------------------------------------------------------------------------

CDMFT iteration 1, distance =  1.47e+02, diff param =  1.79e-03
36 minimization steps, time(MIN)/time(ED)=0.00097
sb1_1     = -0.0000	sb2_1     = -0.0000	sb3_1     =  0.0098	sb4_1     = -0.1822	sb5_1     =  0.0098	
sb6_1     = -0.1822	sb7_1     =  0.0000	sb8_1     = -0.0000	eb1_1     =  0.0054	eb2_1     = -3.0850	
eb3_1     = -3.7358	eb4_1     = -0.1206	eb5_1     = -3.7358	eb6_1     = -0.1206	eb7_1     =  0.1611	
eb8_1     = -3.3222	tb1_1     = -0.1157	tb2_1     = -1.0605	tb3_1     =  1.6687	tb4_1     =  0.0415	
tb5_1     = -1.6687	tb6_1     = -0.0415	tb7_1     =  0.2529	tb8_1     = -2.2036	

CDMFT iteration 2, distance =  1.47e+02, diff param =  1.19e-04, diff hybrid =  2.86e-03
4 minimization steps, time(MIN)/time(ED)=0.00055
====================== CDMFT converged on the parameters ======================
sb1_1     = -0.0000	sb2_1     =  0.0000	sb3_1     =  0.0099	sb4_1     = -0.1822	sb5_1     =  0.0099	
sb6_1     = -0.1822	sb7_1     = -0.0000	sb8_1     = -0.0000	eb1_1     =  0.0052	eb2_1     = -3.0849	
eb3_1     = -3.7358	eb4_1     = -0.1206	eb5_1     = -3.7358	eb6_1     = -0.1206	eb7_1     =  0.1613	
eb8_1     = -3.3222	tb1_1     = -0.1158	tb2_1     = -1.0605	tb3_1     =  1.6686	tb4_1     =  0.0418	
tb5_1     = -1.6686	tb6_1     = -0.0418	tb7_1     =  0.2530	tb8_1     = -2.2035	
   <D> = 0.013569
   <e> = 1.252363
   <mu> = 1.613771
   <tpd> = -0.605797
   <tpp> = -0.203520
   <tppp> = 0.083302
************************* CDMFT completed successfully *************************

******************************* CDMFT procedure *******************************

minimization method =  CG
mixing state =  1
frequency grid type =  sharp
fictitious inverse temperature =  50
frequency cutoff =  2.0
--------------------------------------------------------------------------------

CDMFT iteration 1, distance =  1.48e+02, diff param =  8.82e-04
17 minimization steps, time(MIN)/time(ED)=0.00047
====================== CDMFT converged on the parameters ======================
sb1_1     = -0.0000	sb2_1     = -0.0000	sb3_1     =  0.0098	sb4_1     = -0.1825	sb5_1     =  0.0098	
sb6_1     = -0.1825	sb7_1     =  0.0000	sb8_1     = -0.0000	eb1_1     =  0.0055	eb2_1     = -3.0844	
eb3_1     = -3.7365	eb4_1     = -0.1209	eb5_1     = -3.7365	eb6_1     = -0.1209	eb7_1     =  0.1617	
eb8_1     = -3.3253	tb1_1     = -0.1159	tb2_1     = -1.0611	tb3_1     =  1.6698	tb4_1     =  0.0417	
tb5_1     = -1.6698	tb6_1     = -0.0417	tb7_1     =  0.2533	tb8_1     = -2.2056	
   <D> = 0.013590
   <e> = 1.252262
   <mu> = 1.613558
   <tpd> = -0.606333
   <tpp> = -0.203718
   <tppp> = 0.083395
************************* CDMFT completed successfully *************************

******************************* CDMFT procedure *******************************

minimization method =  CG
mixing state =  1
frequency grid type =  sharp
fictitious inverse temperature =  50
frequency cutoff =  2.0
--------------------------------------------------------------------------------

CDMFT iteration 1, distance =  1.49e+02, diff param =  8.90e-04
23 minimization steps, time(MIN)/time(ED)=0.00061
====================== CDMFT converged on the parameters ======================
sb1_1     = -0.0000	sb2_1     = -0.0000	sb3_1     =  0.0098	sb4_1     = -0.1828	sb5_1     =  0.0098	
sb6_1     = -0.1828	sb7_1     = -0.0000	sb8_1     = -0.0000	eb1_1     =  0.0056	eb2_1     = -3.0839	
eb3_1     = -3.7377	eb4_1     = -0.1212	eb5_1     = -3.7377	eb6_1     = -0.1212	eb7_1     =  0.1622	
eb8_1     = -3.3282	tb1_1     = -0.1161	tb2_1     = -1.0616	tb3_1     =  1.6709	tb4_1     =  0.0416	
tb5_1     = -1.6709	tb6_1     = -0.0416	tb7_1     =  0.2538	tb8_1     = -2.2075	
   <D> = 0.013598
   <e> = 1.252122
   <mu> = 1.613377
   <tpd> = -0.606971
   <tpp> = -0.204033
   <tppp> = 0.083533
************************* CDMFT completed successfully *************************

******************************* CDMFT procedure *******************************

minimization method =  CG
mixing state =  1
frequency grid type =  sharp
fictitious inverse temperature =  50
frequency cutoff =  2.0
--------------------------------------------------------------------------------

CDMFT iteration 1, distance =  1.49e+02, diff param =  1.16e-03
22 minimization steps, time(MIN)/time(ED)=0.00059
sb1_1     = -0.0000	sb2_1     =  0.0000	sb3_1     =  0.0098	sb4_1     = -0.1833	sb5_1     =  0.0098	
sb6_1     = -0.1833	sb7_1     =  0.0000	sb8_1     =  0.0000	eb1_1     =  0.0058	eb2_1     = -3.0832	
eb3_1     = -3.7394	eb4_1     = -0.1218	eb5_1     = -3.7394	eb6_1     = -0.1218	eb7_1     =  0.1629	
eb8_1     = -3.3321	tb1_1     = -0.1162	tb2_1     = -1.0621	tb3_1     =  1.6722	tb4_1     =  0.0415	
tb5_1     = -1.6722	tb6_1     = -0.0415	tb7_1     =  0.2544	tb8_1     = -2.2098	

CDMFT iteration 2, distance =  1.50e+02, diff param =  7.73e-05, diff hybrid =  2.42e-03
4 minimization steps, time(MIN)/time(ED)=0.00036
====================== CDMFT converged on the parameters ======================
sb1_1     = -0.0000	sb2_1     = -0.0000	sb3_1     =  0.0099	sb4_1     = -0.1834	sb5_1     =  0.0099	
sb6_1     = -0.1834	sb7_1     = -0.0000	sb8_1     = -0.0000	eb1_1     =  0.0057	eb2_1     = -3.0832	
eb3_1     = -3.7395	eb4_1     = -0.1219	eb5_1     = -3.7395	eb6_1     = -0.1219	eb7_1     =  0.1630	
eb8_1     = -3.3321	tb1_1     = -0.1162	tb2_1     = -1.0621	tb3_1     =  1.6722	tb4_1     =  0.0415	
tb5_1     = -1.6722	tb6_1     = -0.0415	tb7_1     =  0.2545	tb8_1     = -2.2096	
   <D> = 0.013616
   <e> = 1.251914
   <mu> = 1.613190
   <tpd> = -0.607798
   <tpp> = -0.204538
   <tppp> = 0.083746
************************* CDMFT completed successfully *************************

******************************* CDMFT procedure *******************************

minimization method =  CG
mixing state =  1
frequency grid type =  sharp
fictitious inverse temperature =  50
frequency cutoff =  2.0
--------------------------------------------------------------------------------

CDMFT iteration 1, distance =  1.50e+02, diff param =  1.01e-03
19 minimization steps, time(MIN)/time(ED)=0.00053
sb1_1     = -0.0000	sb2_1     =  0.0000	sb3_1     =  0.0099	sb4_1     = -0.1837	sb5_1     =  0.0099	
sb6_1     = -0.1837	sb7_1     =  0.0000	sb8_1     =  0.0000	eb1_1     =  0.0059	eb2_1     = -3.0825	
eb3_1     = -3.7411	eb4_1     = -0.1223	eb5_1     = -3.7411	eb6_1     = -0.1223	eb7_1     =  0.1634	
eb8_1     = -3.3351	tb1_1     = -0.1163	tb2_1     = -1.0626	tb3_1     =  1.6735	tb4_1     =  0.0414	
tb5_1     = -1.6735	tb6_1     = -0.0414	tb7_1     =  0.2548	tb8_1     = -2.2118	

CDMFT iteration 2, distance =  1.51e+02, diff param =  1.15e-04, diff hybrid =  2.75e-03
5 minimization steps, time(MIN)/time(ED)=0.00035
====================== CDMFT converged on the parameters ======================
sb1_1     = -0.0000	sb2_1     = -0.0000	sb3_1     =  0.0099	sb4_1     = -0.1838	sb5_1     =  0.0099	
sb6_1     = -0.1838	sb7_1     = -0.0000	sb8_1     =  0.0000	eb1_1     =  0.0058	eb2_1     = -3.0824	
eb3_1     = -3.7413	eb4_1     = -0.1224	eb5_1     = -3.7413	eb6_1     = -0.1224	eb7_1     =  0.1637	
eb8_1     = -3.3350	tb1_1     = -0.1164	tb2_1     = -1.0626	tb3_1     =  1.6735	tb4_1     =  0.0416	
tb5_1     = -1.6735	tb6_1     = -0.0416	tb7_1     =  0.2550	tb8_1     = -2.2116	
   <D> = 0.013622
   <e> = 1.251778
   <mu> = 1.613019
   <tpd> = -0.608412
   <tpp> = -0.204841
   <tppp> = 0.083878
************************* CDMFT completed successfully *************************

******************************* CDMFT procedure *******************************

minimization method =  CG
mixing state =  1
frequency grid type =  sharp
fictitious inverse temperature =  50
frequency cutoff =  2.0
--------------------------------------------------------------------------------

CDMFT iteration 1, distance =  1.51e+02, diff param =  1.02e-03
18 minimization steps, time(MIN)/time(ED)=0.00052
sb1_1     = -0.0000	sb2_1     =  0.0000	sb3_1     =  0.0099	sb4_1     = -0.1840	sb5_1     =  0.0099	
sb6_1     = -0.1840	sb7_1     =  0.0000	sb8_1     = -0.0000	eb1_1     =  0.0060	eb2_1     = -3.0817	
eb3_1     = -3.7430	eb4_1     = -0.1227	eb5_1     = -3.7430	eb6_1     = -0.1227	eb7_1     =  0.1640	
eb8_1     = -3.3381	tb1_1     = -0.1165	tb2_1     = -1.0631	tb3_1     =  1.6749	tb4_1     =  0.0415	
tb5_1     = -1.6749	tb6_1     = -0.0415	tb7_1     =  0.2553	tb8_1     = -2.2137	

CDMFT iteration 2, distance =  1.51e+02, diff param =  1.23e-04, diff hybrid =  2.71e-03
6 minimization steps, time(MIN)/time(ED)=0.00036
====================== CDMFT converged on the parameters ======================
sb1_1     = -0.0000	sb2_1     = -0.0000	sb3_1     =  0.0099	sb4_1     = -0.1842	sb5_1     =  0.0099	
sb6_1     = -0.1842	sb7_1     = -0.0000	sb8_1     =  0.0000	eb1_1     =  0.0060	eb2_1     = -3.0816	
eb3_1     = -3.7431	eb4_1     = -0.1229	eb5_1     = -3.7432	eb6_1     = -0.1229	eb7_1     =  0.1642	
eb8_1     = -3.3380	tb1_1     = -0.1165	tb2_1     = -1.0631	tb3_1     =  1.6748	tb4_1     =  0.0415	
tb5_1     = -1.6748	tb6_1     = -0.0415	tb7_1     =  0.2555	tb8_1     = -2.2136	
   <D> = 0.013643
   <e> = 1.251632
   <mu> = 1.612831
   <tpd> = -0.609066
   <tpp> = -0.205172
   <tppp> = 0.084022
************************* CDMFT completed successfully *************************
