model	E_kin	D	U	e	eb1_1	eb2_1	eb3_1	eb4_1	eb5_1	eb6_1	eb7_1	eb8_1	mu	sb1_1	sb2_1	sb3_1	sb4_1	sb5_1	sb6_1	sb7_1	sb8_1	tb1_1	tb2_1	tb3_1	tb4_1	tb5_1	tb6_1	tb7_1	tb8_1	tpd	tpp	tppp	ave_D	ave_e	ave_mu	ave_tpd	ave_tpp	ave_tppp	ave_D_1	ave_U_1	ave_eb1_1	ave_eb2_1	ave_eb3_1	ave_eb4_1	ave_eb5_1	ave_eb6_1	ave_eb7_1	ave_eb8_1	ave_mu_1	ave_sb1_1	ave_sb2_1	ave_sb3_1	ave_sb4_1	ave_sb5_1	ave_sb6_1	ave_sb7_1	ave_sb8_1	ave_tb1_1	ave_tb2_1	ave_tb3_1	ave_tb4_1	ave_tb5_1	ave_tb6_1	ave_tb7_1	ave_tb8_1	var_D_1	var_U_1	var_eb1_1	var_eb2_1	var_eb3_1	var_eb4_1	var_eb5_1	var_eb6_1	var_eb7_1	var_eb8_1	var_mu_1	var_sb1_1	var_sb2_1	var_sb3_1	var_sb4_1	var_sb5_1	var_sb6_1	var_sb7_1	var_sb8_1	var_tb1_1	var_tb2_1	var_tb3_1	var_tb4_1	var_tb5_1	var_tb6_1	var_tb7_1	var_tb8_1	E0_1	sector_1	E0_2	sector_2	githash	iterations	dist_function	distance	diff_hybrid	time
2x2_2C_8b_C2v_L	6.4499546	0.1	14	1.87	0.058037004	-5.624126	-6.4739989	-0.052957247	-6.4740087	-0.052974377	0.060486961	-5.8494543	9.5	0.00017081235	-2.8537629e-07	0.0014759362	-0.0022718986	0.0014768988	-0.0022662352	0.002447323	4.3461354e-05	1.3218718e-07	-0.73028053	1.1213554	-0.0039544358	-1.1213572	0.0039425056	-1.963574e-05	-1.3886043	1.15	0.59	0.14	-0.021057853	1.3201401	1.6665624	-0.26186902	-0.029285387	0.013260117	-0.046826208	0.040504112	3.9214589e-09	1.9834723	1.9628029	1.9999968	1.9628021	1.9999968	1.0221763e-06	1.9309686	1.0401445	-0.00023610944	8.9295243e-06	-0.040195162	0.0030019371	-0.040194732	0.0029941364	-0.0040866539	-3.1887479e-05	-1.8266659e-07	0.48516967	-0.75669402	0.0063131408	0.75670762	-0.0062943103	1.8341647e-05	1.0634863	0.7132553	0.0098069283	3.9214589e-09	0.016479115	0.036859701	3.2045242e-06	0.036860528	3.1861545e-06	1.0221812e-06	0.06757487	0.0098102622	3.5610036	4.5613312	4.4305046	4.1500631	4.4304633	4.1500134	4.0967131	4.4278945	4.4389965	3.5814232	3.8574388	3.8499613	3.8574825	3.8500108	3.9032938	4.0382286	-88.880973	R0:S0:1	-61.04	uncorrelated	51514b8	2	sharp_wc_2.0_b_50	 5.72e-01	 2.05e-02	2022-04-08@19:26
2x2_2C_8b_C2v_L	6.4496134	0.1	14	1.87	0.058037279	-5.8494192	-6.7013771	-0.053591022	-6.7013823	-0.053601565	0.061821101	-6.4294373	10	-6.7845307e-05	-2.3003884e-07	0.0016644165	0.00012497319	0.0016640544	0.00012284691	-0.00052170597	-5.3434204e-05	-6.1541774e-08	-0.71895811	1.100678	-0.000685294	-1.1006787	0.00067165602	-3.8919207e-05	-1.3977804	1.15	0.59	0.14	-0.021937529	1.3201387	1.6665815	-0.26188678	-0.029290589	0.013262994	-0.048845191	0.04084839	7.5586438e-10	1.9831496	1.9623778	1.9999999	1.9623788	1.9999999	5.7482772e-08	1.9310801	1.0404983	0.00010370607	-9.9584358e-06	-0.041055131	-6.8089274e-05	-0.041055815	-6.712461e-05	0.00096965684	3.6987889e-05	8.3141535e-08	0.48972423	-0.76077485	0.001165051	0.76076004	-0.0011417958	3.4180902e-05	1.0628538	0.71266321	0.0099020221	7.5586438e-10	0.016800087	0.037276793	8.9455609e-08	0.037275905	8.5925308e-08	5.7482795e-08	0.067465882	0.0098974599	3.558597	4.5660398	4.4358245	4.1523843	4.4358711	4.1524399	4.0982527	4.4257287	4.4414031	3.5795269	3.8553287	3.8476164	3.8552797	3.8475608	3.9017477	4.0395766	-93.39625	R0:S0:1	-65.04	uncorrelated	51514b8	1	sharp_wc_2.0_b_50	 7.89e-01	 4.48e-02	2022-04-08@19:32
2x2_2C_8b_C2v_L	6.449389	0.1	14	1.87	0.058037556	-6.089153	-6.9450409	-0.054287282	-6.9450421	-0.054291349	0.063823682	-6.9964235	10.5	-6.9355808e-05	-2.0533824e-08	0.0015698772	-7.8419375e-05	0.001569858	-7.8114709e-05	-0.0061080047	-4.9651804e-05	-2.9731588e-08	-0.70936393	1.0835021	0.00074301594	-1.0835013	-0.00074741241	-9.573957e-05	-1.4040981	1.15	0.59	0.14	-0.02324044	1.3201409	1.6666422	-0.26184368	-0.029287142	0.01326098	-0.051787415	0.041272725	9.9005464e-10	1.9827591	1.961819	1.9999999	1.9618199	1.9999999	9.9911093e-06	1.9313183	1.040932	0.00011867674	-9.0873124e-06	-0.042795195	-3.1663866e-06	-0.042795623	-3.9518105e-06	0.012795014	3.3204502e-05	3.7491155e-08	0.49529678	-0.76609061	-0.0014278232	0.76607552	0.001436315	7.9257233e-05	1.0610841	0.71182155	0.010021745	9.9005465e-10	0.017188345	0.037825301	1.33334e-07	0.037824359	1.3491956e-07	9.9913471e-06	0.067237226	0.010011119	3.5575287	4.5699298	4.4427825	4.1555201	4.4428263	4.1555733	4.098644	4.4237208	4.4424713	3.5789837	3.852515	3.8444809	3.8524683	3.8444278	3.901423	4.0402285	-97.982754	R0:S0:1	-69.04	uncorrelated	51514b8	1	sharp_wc_2.0_b_50	 1.22e+00	 1.72e-03	2022-04-08@19:39
2x2_2C_8b_C2v_L	6.4492364	0.1	14	1.87	0.058037856	-6.3447424	-7.2070982	-0.055054137	-7.2070957	-0.055051652	0.067096383	-7.5488266	11	-4.1283357e-05	2.5061341e-06	0.0016826721	-0.00038143732	0.0016827059	-0.00038087031	-0.0079845325	6.1069222e-06	-2.1358359e-08	-0.70174664	1.0694331	-6.8802955e-05	-1.0694324	6.6572509e-05	-0.00010829412	-1.4083159	1.15	0.59	0.14	-0.025132744	1.3201469	1.6667536	-0.26173839	-0.029275399	0.013254304	-0.056063273	0.041803394	4.5290233e-10	1.9822931	1.9611571	2	1.961157	2	2.2378204e-05	1.9315903	1.0414716	8.0265557e-05	-4.8655898e-08	-0.04598778	0.00036900722	-0.045987652	0.0003681751	0.019148627	-3.9427868e-06	2.2343649e-08	0.50192961	-0.77230469	0.00020232774	0.77230611	-0.0001973201	8.5166414e-05	1.0589197	0.71070025	0.010176473	4.5290233e-10	0.017651554	0.03847491	1.2124616e-08	0.038474987	1.1961274e-08	2.2379002e-05	0.066977383	0.010161278	3.5572455	4.573604	4.4511067	4.1594434	4.4511014	4.1594373	4.0980725	4.4223847	4.4427545	3.5792771	3.849015	3.8405566	3.8490204	3.8405628	3.9020771	4.0402075	-102.64896	R0:S0:1	-73.04	uncorrelated	51514b8	1	sharp_wc_2.0_b_50	 1.97e+00	 8.15e-04	2022-04-08@19:45
2x2_2C_8b_C2v_L	6.4491194	0.1	14	1.87	0.058038179	-6.6162633	-7.4876099	-0.055891587	-7.487604	-0.055882477	0.071639202	-8.0866269	11.5	1.9625633e-05	7.5926055e-06	0.0018258076	-0.0007857098	0.0018259434	-0.00078702382	-0.006155512	0.00019975244	-3.4846501e-08	-0.69600416	1.0583672	-0.0031051618	-1.058368	0.0030983339	-7.7088614e-05	-1.4102657	1.15	0.59	0.14	-0.027855686	1.3201574	1.6669254	-0.26156175	-0.029254545	0.013242265	-0.062199882	0.042464736	1.3733801e-10	1.9817502	1.9604003	1.9999956	1.9603961	1.9999956	1.8172362e-05	1.9319119	1.0421424	-4.4202419e-05	3.6476282e-05	-0.050955479	0.0012197397	-0.05095568	0.0012196514	0.017252327	-0.00013204724	4.1005196e-08	0.50961381	-0.7792781	0.0081330466	0.77934147	-0.0081167599	5.8512279e-05	1.0562411	0.70919038	0.010379367	1.3733801e-10	0.018191058	0.039217668	4.375107e-06	0.039221676	4.3574588e-06	1.8172699e-05	0.066671175	0.010360826	3.557866	4.5769627	4.4609763	4.1645099	4.4607952	4.164289	4.0965638	4.4216245	4.442134	3.5805221	3.8445628	3.835524	3.8447559	3.8357448	3.9035574	4.0395627	-107.39498	R0:S0:1	-77.04	uncorrelated	51514b8	0	sharp_wc_2.0_b_50	 3.26e+00	 1.00e+06	2022-04-08@19:49
2x2_2C_8b_C2v_L	6.4488296	0.1	14	1.87	0.058038525	-6.9048451	-7.7884426	-0.056849059	-7.7884339	-0.056832872	0.077453032	-8.6077944	12	7.5234146e-06	-4.1169174e-09	0.0021075402	-0.00033803206	0.0021074581	-0.00033926542	-0.0019170614	-3.5487465e-05	1.0795958e-07	-0.69123125	1.0493	0.00094379074	-1.049299	-0.00093612734	2.3709429e-05	-1.4121976	1.15	0.59	0.14	-0.03189231	1.320171	1.6671835	-0.26132721	-0.029231114	0.013227818	-0.071305753	0.043334992	0	1.9811967	1.9596268	1.9999995	1.9596276	1.9999995	2.548187e-06	1.9320267	1.0430201	-2.0119948e-05	-8.2334823e-06	-0.058643201	7.3365558e-05	-0.05864282	7.6159053e-05	0.0064601227	2.462086e-05	-1.0596951e-07	0.51724776	-0.78622958	-0.0028405782	0.7862171	0.0028165461	-1.6993503e-05	1.0552002	0.70714807	0.010665556	0	0.01874103	0.039976976	5.3601943e-07	0.039976179	5.2712738e-07	2.5481909e-06	0.066562856	0.010644156	3.5573466	4.581541	4.4715989	4.1704995	4.4716341	4.1705425	4.0953687	4.4221477	4.4426534	3.5807312	3.8393109	3.8295047	3.8392734	3.8294617	3.9046483	4.0389739	-112.22723	R0:S0:1	-81.04	uncorrelated	51514b8	1	sharp_wc_2.0_b_50	 5.53e+00	 6.38e-04	2022-04-08@19:57
2x2_2C_8b_C2v_L	6.448294	0.1	14	1.87	0.058038893	-7.2113927	-8.1112268	-0.058075694	-8.1112152	-0.058050038	0.084557873	-9.1101919	12.5	-9.2373565e-07	-4.0676817e-07	0.0024189932	0.00050462682	0.0024189302	0.00050502869	0.012689379	-2.3047892e-05	1.0377971e-07	-0.68787243	1.042518	-0.0018964368	-1.0425188	0.0018833197	0.00056035427	-1.4112498	1.15	0.59	0.14	-0.038205403	1.3201911	1.6675868	-0.2609796	-0.029199758	0.013206694	-0.085540216	0.044585054	0	1.9806026	1.958861	1.9999966	1.9588606	1.9999967	0.00017538334	1.9321915	1.0442782	3.0412023e-06	3.1213088e-06	-0.070854958	0.00022765232	-0.070854811	0.00022257896	-0.053578605	6.1731983e-06	-9.8160305e-08	0.52529702	-0.79273077	0.0071467688	0.79273599	-0.0070962072	-0.00038714416	1.0537106	0.70397103	0.011115039	0	0.019331406	0.040729583	3.3908371e-06	0.040729965	3.3438321e-06	0.00017540244	0.066407616	0.011091668	3.5565255	4.5867708	4.4842022	4.1793623	4.4841922	4.1793486	4.0935549	4.4228228	4.4434745	3.5807644	3.8317128	3.8206645	3.8317245	3.8206779	3.9076009	4.0381818	-117.14896	R0:S0:1	-85.04	uncorrelated	51514b8	1	sharp_wc_2.0_b_50	 9.83e+00	 1.14e-03	2022-04-08@20:06
2x2_2C_8b_C2v_L	6.4472431	0.1	14	1.87	0.058039284	-7.5365962	-8.4571472	-0.059656902	-8.4571301	-0.059616581	0.09693488	-9.5911071	13	-6.7567994e-08	-1.8794584e-06	0.0030393507	-0.00052469315	0.0030392199	-0.00050757119	0.01622492	-0.00013581766	-4.738609e-08	-0.68543258	1.0380698	9.1030837e-05	-1.0380729	-5.6020453e-05	0.0012033833	-1.4090928	1.15	0.59	0.14	-0.049142496	1.3202232	1.6683581	-0.26040124	-0.029161503	0.013175395	-0.11026605	0.046779216	0	1.9800213	1.9581622	2	1.9581624	2	0.00051087203	1.932182	1.0464792	2.8891018e-07	-5.6358425e-06	-0.092350643	0.00037973082	-0.092348398	0.00038609313	-0.091429637	6.2917184e-05	4.4103773e-08	0.53282084	-0.79779743	-0.00015861733	0.79779374	-1.0572064e-05	-0.00081438255	1.0537759	0.69791988	0.011983444	0	0.019909456	0.041418907	1.7211796e-08	0.041418754	1.4647427e-08	0.00051100031	0.066419837	0.011958643	3.5526477	4.5950669	4.501124	4.1949576	4.5011429	4.1949786	4.0931321	4.423652	4.4473523	3.5780887	3.8185501	3.8050425	3.8185321	3.8050215	3.9101968	4.0387979	-122.16364	R0:S0:1	-89.04	uncorrelated	51514b8	1	sharp_wc_2.0_b_50	 1.91e+01	 4.60e-03	2022-04-08@20:15
2x2_2C_8b_C2v_L	6.4454283	0.1	14	1.87	0.058039697	-7.8812655	-8.8274364	-0.064256867	-8.8274343	-0.064204813	0.13597906	-10.035239	13.5	-1.1022024e-05	1.5902685e-06	0.0031840023	-0.014782477	0.003176093	-0.014779784	0.00038859749	-3.7457842e-05	-9.390899e-05	-0.68344245	1.0359583	-0.0057336643	-1.0359508	0.0057930361	0.030414118	-1.4082843	1.15	0.59	0.14	-0.071976839	1.3202924	1.6704826	-0.25906954	-0.02911759	0.013116877	-0.16209466	0.052341244	2.2103743e-09	1.9795466	1.9578082	1.9996362	1.9578069	1.9996322	4.4822219e-05	1.9314061	1.0520361	6.8049247e-05	3.2975122e-05	-0.13721205	0.022414496	-0.13721291	0.022484618	-0.0032648624	-2.9662913e-05	9.3220121e-05	0.5379172	-0.79669391	0.064183836	0.79671636	-0.064635321	-0.01978836	1.0611902	0.681133	0.014372589	2.2103775e-09	0.020383454	0.041780772	0.00038535246	0.041781951	0.00038967467	4.582224e-05	0.067167728	0.014348728	3.5371518	4.6145705	4.5351067	4.243645	4.5350169	4.2436005	4.1044504	4.4217741	4.4628482	3.5650569	3.7832104	3.7590495	3.7832973	3.7591248	3.8959223	4.0492249	-127.26452	R0:S0:1	-93.04	uncorrelated	51514b8	1	sharp_wc_2.0_b_50	 4.59e+01	 3.37e-03	2022-04-08@20:25
2x2_2C_8b_C2v_L	6.4510659	0.1	14	1.87	0.20144155	-8.2441042	-9.220569	-0.20870127	-9.2219113	-0.21179024	0.29465597	-10.407537	14	-0.00091720022	-8.7389144e-05	-0.0017592766	-0.042084668	-0.0013518766	-0.043029474	0.061165129	0.0056561644	-0.044608313	-0.68700886	1.0374354	-0.029153916	-1.0377408	0.026770443	-0.017888031	-1.3908997	1.15	0.59	0.14	-0.14606096	1.3206559	1.6902845	-0.25142528	-0.029419814	0.013083423	-0.33128411	0.1112237	0.0062132864	1.9809054	1.9614029	1.9740366	1.9616375	1.9768754	0.040720861	1.9296156	1.1108756	0.020533027	-0.0097272187	-0.28396605	0.29715311	-0.28065487	0.28303086	-0.8082039	0.010239073	0.16182054	0.49382936	-0.72494541	0.50525068	0.72150887	-0.47000218	0.02952802	1.0914513	0.55915662	0.034111258	0.0063722271	0.019065773	0.038355679	0.026286985	0.038130656	0.0234815	0.040193217	0.068807016	0.034111248	3.2305352	4.9465972	4.7924841	4.7579748	4.8047648	4.7536112	4.1653998	4.3140758	4.8474709	3.2443035	3.4710743	3.4242254	3.4614472	3.4094431	4.0749564	4.1457903	-132.98552	R0:S0:1	-97.04	uncorrelated	51514b8	2	sharp_wc_2.0_b_50	 3.75e+02	 1.19e-03	2022-04-08@20:38
2x2_2C_8b_C2v_L	6.7545428	0.1	14	1.87	0.3342513	-8.6161796	-9.6198906	-0.071324453	-9.6382425	-0.070383545	0.032672605	-10.661326	14.5	0.00026507832	0.00014963694	-0.0016756897	-0.039581588	-0.0015931187	-0.039587854	-0.074882584	-0.00015817657	-0.072913621	-0.7048686	1.0364354	-0.047706128	-1.0375228	0.047660068	0.00075985688	-1.3850604	1.15	0.59	0.14	-0.25134006	1.3250211	1.8487457	-0.16359485	-0.024801646	0.011613134	-0.40111062	0.57378178	0.057068746	1.9964341	1.984758	1.8150067	1.9847293	1.8138809	0.94474974	1.9446525	1.5735708	8.1421179e-05	-0.00061549131	-0.32994137	1.5074381	-0.33024912	1.5078575	3.3287793	0.0015546575	1.1341228	0.092478871	-0.29315174	0.86293636	0.29390607	-0.86755155	-0.034500383	0.86715193	0.32159675	0.061180821	0.055037412	0.0035836521	0.015357371	0.20057972	0.015385546	0.20197542	0.42165666	0.053589573	0.061291993	1.131177	7.405127	6.5421004	5.3397661	6.5375351	5.3321805	2.2395163	4.7025177	6.8428632	0.62501065	1.5111315	2.8172636	1.5157419	2.8265669	8.7974955	3.1866061	-138.06741	R0:S0:1	-101.04	uncorrelated	51514b8	4	sharp_wc_2.0_b_50	 1.80e+02	 2.03e-03	2022-04-08@20:56
2x2_2C_8b_C2v_L	7.3640844	0.1	14	1.87	0.52385064	-8.9768122	-10.013464	0.29922384	-10.064177	0.30257127	-0.3489809	-10.813687	15	0.017510475	0.0096375902	0.0085688009	-0.071753089	0.0089849848	-0.072163395	0.00016077895	3.7857025e-05	-0.063427446	-0.70396197	1.0277387	-0.018597242	-1.0301593	0.01881981	-0.097243555	-1.3510983	1.15	0.59	0.14	-0.19865608	1.3326676	1.9815298	-0.014703516	-0.0012419608	0.00081257212	-0.30410976	0.97016381	0.018033499	1.9996102	1.9979157	0.00059678563	1.9979122	0.00061566734	1.999996	1.9999863	1.9701599	-0.0048915281	-0.014347186	-0.24689046	-0.018672995	-0.24709036	-0.018996629	-0.0055782627	-0.0010636643	0.74207366	0.010363327	-0.041110969	0.12045324	0.041193985	-0.12247164	0.00011510582	0.00025429189	0.43857606	0.012905544	0.017919378	0.0003898961	0.0021629734	0.00070936422	0.0021661592	0.000730844	4.2914886e-06	1.3949897e-05	0.012911207	0.27984238	7.9282572	7.7592118	0.1903148	7.7587107	0.19075659	7.9988705	7.9988876	7.698044	0.07176209	0.24126195	7.8078537	0.24176335	7.8073687	0.0012335257	0.0013229763	-144.52676	R0:S0:1	-105.04	uncorrelated	51514b8	2	sharp_wc_2.0_b_50	 1.45e+02	 7.89e-03	2022-04-08@21:04
2x2_2C_8b_C2v_L	7.4324637	0.1	14	1.87	0.77258559	-9.3253373	-10.400825	0.90755785	-10.499064	0.91250327	-0.92710447	-10.86077	15.5	0.046798691	0.011778866	0.0089289392	-0.070365246	0.010448338	-0.069707478	-0.0020074722	-0.0010867386	-0.030754363	-0.68365499	1.0279615	-0.027394198	-1.0336011	0.032140345	0.094477638	-1.3256139	1.15	0.59	0.14	-0.1138403	1.3331873	1.994694	-0.0035582416	-0.00020431927	0.00017325379	-0.17171527	0.99127544	0.001786038	1.9999587	1.9993805	0.00088917368	1.9993554	0.001334497	1.9999893	1.9999989	1.9912746	-0.00072679056	-0.017565236	-0.13453082	-0.014135041	-0.1358953	-0.017171288	0.017687981	0.001523361	0.23482448	0.00094342996	-0.012730643	0.16339812	0.013141389	-0.20016582	-9.0115727e-06	2.0630528e-05	0.48021471	0.0039892922	0.0018093288	4.1517998e-05	0.00064145507	0.00091009023	0.00066675845	0.0013649264	1.1136427e-05	1.131916e-06	0.0039906211	0.027912169	7.9927643	7.9229709	0.071083933	7.9211472	0.076810951	7.9997637	7.9999123	7.9696692	0.0072335944	0.076966153	7.927395	0.078782219	7.9209923	0.00022345326	0.00011216489	-152.07164	R0:S0:1	-109.04	uncorrelated	51514b8	2	sharp_wc_2.0_b_50	 7.93e+01	 1.03e-03	2022-04-08@21:10
