model	E_kin	D	U	e	eb1_1	eb2_1	eb3_1	eb4_1	eb5_1	eb6_1	eb7_1	eb8_1	mu	sb1_1	sb2_1	sb3_1	sb4_1	sb5_1	sb6_1	sb7_1	sb8_1	tb1_1	tb2_1	tb3_1	tb4_1	tb5_1	tb6_1	tb7_1	tb8_1	tpd	tpp	tppp	ave_D	ave_e	ave_mu	ave_tpd	ave_tpp	ave_tppp	ave_D_1	ave_U_1	ave_eb1_1	ave_eb2_1	ave_eb3_1	ave_eb4_1	ave_eb5_1	ave_eb6_1	ave_eb7_1	ave_eb8_1	ave_mu_1	ave_sb1_1	ave_sb2_1	ave_sb3_1	ave_sb4_1	ave_sb5_1	ave_sb6_1	ave_sb7_1	ave_sb8_1	ave_tb1_1	ave_tb2_1	ave_tb3_1	ave_tb4_1	ave_tb5_1	ave_tb6_1	ave_tb7_1	ave_tb8_1	var_D_1	var_U_1	var_eb1_1	var_eb2_1	var_eb3_1	var_eb4_1	var_eb5_1	var_eb6_1	var_eb7_1	var_eb8_1	var_mu_1	var_sb1_1	var_sb2_1	var_sb3_1	var_sb4_1	var_sb5_1	var_sb6_1	var_sb7_1	var_sb8_1	var_tb1_1	var_tb2_1	var_tb3_1	var_tb4_1	var_tb5_1	var_tb6_1	var_tb7_1	var_tb8_1	E0_1	sector_1	E0_2	sector_2	githash	time
2x2_2C_8b_C2v_L	6.4498314	0.1	14	1.94	0.14933039	-8.866035	-9.5472233	-0.2099981	-9.5594103	-0.2207611	0.34863987	-9.3776175	13.5	-0.00029247031	-0.00024975735	0.003511101	-0.03394912	0.0035743241	-0.034557083	0.00019378159	2.6620283e-05	-0.023580333	-0.81579472	1.2143492	-0.0094874425	-1.2150647	0.0095736759	0.051183937	-1.54407	1.29	0.656	0.167	-0.065830188	1.3167416	1.6697822	-0.29160346	-0.037467212	0.016737194	-0.14858836	0.060938445	7.9352394e-05	1.9778797	1.9509467	1.9992599	1.9510003	1.999258	8.8601992e-05	1.9079512	1.0604617	0.0014179304	0.00018027346	-0.13628688	0.040863951	-0.13623483	0.041300272	-0.0012595173	-0.0001193959	0.02418232	0.54955997	-0.85698034	0.092871249	0.85651389	-0.093091998	-0.031684419	1.2326283	0.68003512	0.015980842	8.0490501e-05	0.022048408	0.048496531	0.00076385181	0.048444155	0.00076430707	8.9187488e-05	0.089341685	0.015940676	3.414321	4.7462616	4.6009043	4.2627623	4.6005375	4.2626424	4.1276242	4.5658372	4.5868287	3.4515834	3.7695984	3.7426236	3.7695933	3.7427482	3.8731709	4.0297783	-131.91822	R0:S0:1	-92.48	uncorrelated	51514b8	2022-04-11@05:45
2x2_2C_8b_C2v_L	6.4499219	0.1	14	1.94	0.14954478	-8.8660124	-9.5471357	-0.21046652	-9.5593016	-0.22118999	0.3491507	-9.3772629	13.52	-0.00027177991	0.00010015107	0.0037964928	-0.034257283	0.0036132595	-0.035040165	0.00014037906	1.1449567e-05	-0.024972579	-0.81550806	1.2140819	-0.0095961895	-1.2151291	0.0097513588	0.051646918	-1.5441205	1.29	0.656	0.167	-0.067054904	1.3167478	1.6699683	-0.29149479	-0.037465761	0.016734088	-0.15137313	0.061451682	9.3936398e-05	1.977834	1.950835	1.9992053	1.9508605	1.9991944	9.0803822e-05	1.9075717	1.0609721	0.0013464942	-4.3869139e-05	-0.13918715	0.042007994	-0.13908029	0.042664734	-0.00089444487	1.1532526e-05	0.025827777	0.54988852	-0.85757495	0.096076922	0.85738843	-0.096894075	-0.031947347	1.2353234	0.67890744	0.016164362	9.5475819e-05	0.022094211	0.04860698	0.00082050578	0.048582026	0.00083045545	9.1430521e-05	0.089697142	0.016124291	3.4114179	4.7495189	4.6041335	4.2666319	4.6036852	4.2663138	4.1287	4.5676916	4.5899582	3.4489608	3.7669184	3.7391631	3.7671642	3.7395486	3.8721184	4.0300938	-132.00366	R0:S0:1	-92.64	uncorrelated	51514b8	2022-04-11@05:49
2x2_2C_8b_C2v_L	6.4498141	0.1	14	1.94	0.14973641	-8.8660198	-9.5471891	-0.21078597	-9.5593772	-0.22149176	0.34950646	-9.3772749	13.54	-0.00016400968	-0.00011874959	0.0035493532	-0.034901873	0.0036001301	-0.035790164	9.3523683e-05	-6.582047e-05	-0.025576182	-0.8147897	1.2120784	-0.0095526434	-1.2127863	0.0097553723	0.052442446	-1.5410999	1.29	0.656	0.167	-0.068323593	1.3167513	1.6700789	-0.29142943	-0.037465252	0.016730795	-0.15430849	0.06181547	0.00010404492	1.9777829	1.9508426	1.9991511	1.9509036	1.9991337	9.4494181e-05	1.9075624	1.061337	0.00082891293	3.5598606e-05	-0.1418484	0.043363509	-0.14176049	0.044169869	-0.00060096946	4.6147714e-05	0.026656675	0.5504754	-0.85722863	0.099011444	0.85667065	-0.1001917	-0.032433416	1.2354008	0.67782941	0.016319977	0.00010587443	0.022145038	0.048600842	0.00087750148	0.048541376	0.00089410702	9.5190477e-05	0.089707068	0.016280654	3.4109053	4.7504763	4.6057128	4.269689	4.6055321	4.2699687	4.1288294	4.5678514	4.5906382	3.4485966	3.7649412	3.7364978	3.7647188	3.736333	3.8720276	4.0303742	-132.08229	R0:S0:1	-92.8	uncorrelated	51514b8	2022-04-11@05:53
2x2_2C_8b_C2v_L	6.44974	0.1	14	1.94	0.15014328	-8.8660505	-9.5471133	-0.21144375	-9.5592495	-0.22212452	0.35023454	-9.3769105	13.56	-9.5740423e-05	-3.4478508e-06	0.0042744472	-0.03580313	0.0037571849	-0.036440261	0.00012044046	0.00026233989	-0.026866892	-0.81293636	1.2109993	-0.010041507	-1.2125302	0.010188903	0.053025406	-1.539915	1.29	0.656	0.167	-0.069744128	1.3167557	1.6702584	-0.29134246	-0.037470096	0.01672969	-0.15768223	0.062365657	0.0001234969	1.9778162	1.9508156	1.9990281	1.9507729	1.9990188	9.7696996e-05	1.9072953	1.0618841	0.00041438687	0.00025412107	-0.14534295	0.04577601	-0.14527075	0.046294053	-0.00091216909	-0.00045312595	0.028329252	0.54983424	-0.85690734	0.10572184	0.85749151	-0.10647142	-0.032769854	1.2374242	0.67643813	0.0165297	0.00012591415	0.02211244	0.048629127	0.0010059558	0.048670198	0.0010134953	9.8455634e-05	0.089956949	0.016490722	3.4081518	4.7530662	4.609621	4.2757657	4.6081752	4.2738664	4.1304651	4.5684787	4.5936929	3.4459948	3.7609543	3.7313331	3.7625146	3.7332808	3.8704252	4.0313367	-132.16548	R0:S0:1	-92.96	uncorrelated	51514b8	2022-04-11@05:57
2x2_2C_8b_C2v_L	6.449693	0.1	14	1.94	0.150751	-8.8660204	-9.5469766	-0.21238714	-9.5591735	-0.22301616	0.35124545	-9.3764466	13.58	4.7744895e-06	7.5923009e-05	0.0033439568	-0.03661502	0.0034618792	-0.037552852	-0.00014377502	-0.0006265431	-0.027958601	-0.81201631	1.2100234	-0.010286225	-1.2106147	0.010569919	0.053913317	-1.5378098	1.29	0.656	0.167	-0.071068557	1.3167602	1.6704132	-0.29125785	-0.037471033	0.016726847	-0.16059078	0.062825602	0.00014328784	1.9777869	1.9507269	1.9989176	1.9508275	1.9988916	0.00010210829	1.907157	1.0623433	0.00011148328	-0.00046238351	-0.14793753	0.047864897	-0.14774964	0.048791871	0.0011844777	0.00086509771	0.029796042	0.55006041	-0.8575032	0.11126068	0.85644961	-0.11280215	-0.033303311	1.2384548	0.67523317	0.016710469	0.0001463463	0.022141791	0.048716844	0.0011215506	0.048619217	0.0011467396	0.00010294983	0.09008693	0.016672094	3.4065571	4.754962	4.610951	4.2784145	4.6117643	4.2800568	4.1312284	4.5689704	4.5955956	3.4445523	3.7597722	3.7294892	3.7584222	3.7280281	3.8697067	4.0318549	-132.24721	R0:S0:1	-93.12	uncorrelated	51514b8	2022-04-11@06:01
2x2_2C_8b_C2v_L	6.449906	0.1	14	1.94	0.15215608	-8.8658155	-9.546652	-0.21441461	-9.5588198	-0.22495303	0.35331836	-9.3752568	13.6	0.00013169337	4.038172e-05	0.003763218	-0.037461151	0.0033326785	-0.038123318	1.4005518e-05	0.00042846144	-0.02800716	-0.81352147	1.2089791	-0.011235545	-1.2102271	0.011440586	0.054513087	-1.5371824	1.29	0.656	0.167	-0.072545013	1.3167694	1.6706469	-0.29110542	-0.037463047	0.016720017	-0.16406009	0.063488104	0.00015553275	1.9776374	1.9507174	1.9987177	1.9507043	1.9987013	0.00010600642	1.9068618	1.0630052	-0.00079010254	0.000279323	-0.15136329	0.051047875	-0.15127775	0.051653721	-0.00024095249	-0.00059390328	0.030259991	0.55169558	-0.85692373	0.12120744	0.85720516	-0.12227109	-0.033684693	1.2404975	0.67368985	0.016951059	0.00015883819	0.022290736	0.048728467	0.001329466	0.048740715	0.0013437227	0.00010691488	0.090364493	0.016913258	3.4039914	4.7586535	4.6155412	4.2860488	4.6142587	4.2845706	4.131759	4.5708106	4.5983525	3.4424216	3.7549683	3.7233353	3.7561925	3.7249139	3.8692182	4.0319921	-132.33532	R0:S0:1	-93.28	uncorrelated	51514b8	2022-04-11@06:05
2x2_2C_8b_C2v_L	6.4496991	0.1	14	1.94	0.15437681	-8.8657344	-9.5461457	-0.21765595	-9.558394	-0.22801915	0.35651695	-9.3735269	13.62	0.00021061164	7.8725841e-06	0.0025975168	-0.037694492	0.0031681338	-0.038789957	-0.00012309031	8.4139956e-05	-0.029057339	-0.81066774	1.2077543	-0.011792513	-1.2079361	0.012230819	0.055146149	-1.5354551	1.29	0.656	0.167	-0.074022799	1.3167719	1.6708204	-0.29104275	-0.037473768	0.016721194	-0.16732344	0.064030522	0.00017959239	1.9777248	1.9506677	1.9985633	1.9507786	1.9985075	0.00010946373	1.9066119	1.0635452	-0.0011288055	-2.6937918e-05	-0.15416012	0.053245665	-0.15413653	0.054527944	0.00087178231	-1.8451484e-05	0.0318152	0.55036399	-0.85704789	0.12840813	0.85598288	-0.1312059	-0.034027132	1.2424716	0.67228359	0.017164687	0.00018365083	0.022204353	0.048778764	0.0014883578	0.048670518	0.0015443136	0.00011043276	0.090597536	0.017126924	3.4009938	4.7611334	4.6175711	4.2900826	4.6176581	4.2913238	4.1338665	4.5709058	4.6017242	3.4394762	3.7528504	3.720463	3.7520423	3.71962	3.8671473	4.0333171	-132.42105	R0:S0:1	-93.44	uncorrelated	51514b8	2022-04-11@06:09
2x2_2C_8b_C2v_L	6.4497928	0.1	14	1.94	0.15729632	-8.8655016	-9.5454709	-0.22183189	-9.5576535	-0.23200093	0.36061551	-9.371304	13.64	0.00023858708	4.32982e-05	0.0038429234	-0.038315534	0.0030193034	-0.038861576	-0.0002606441	-0.00023981608	-0.029408238	-0.80988453	1.2065987	-0.01309217	-1.2081984	0.013310338	0.055998272	-1.5334008	1.29	0.656	0.167	-0.075703216	1.31678	1.6710683	-0.29090036	-0.037472725	0.01671634	-0.17134246	0.064773368	0.00019874596	1.9776951	1.9506543	1.9982817	1.9506327	1.9982685	0.00011486225	1.9064207	1.0642873	-0.0012423121	-0.0001024052	-0.1584831	0.057077129	-0.15824518	0.057564585	0.0018924768	0.00022295481	0.032719446	0.55050588	-0.85644936	0.14090815	0.85674692	-0.14175132	-0.034548352	1.243957	0.67038726	0.017442628	0.00020323492	0.022234303	0.048793894	0.0017789026	0.048814947	0.0017889964	0.00011592394	0.090777048	0.017405499	3.3983269	4.7641325	4.6223577	4.2987598	4.621632	4.297716	4.1353286	4.5712556	4.6046854	3.437054	3.7476539	3.7138974	3.7484591	3.7150123	3.8657411	4.034359	-132.51183	R0:S0:1	-93.6	uncorrelated	51514b8	2022-04-11@06:12
2x2_2C_8b_C2v_L	6.4498595	0.1	14	1.94	0.16139926	-8.8651121	-9.5445284	-0.22763994	-9.5568332	-0.23750916	0.36621396	-9.3681529	13.66	0.00013613064	9.3284784e-05	0.0023331204	-0.038954866	0.0029117269	-0.040016862	-0.00013931325	0.00014387901	-0.029592681	-0.8104103	1.2055166	-0.013414719	-1.205658	0.013886379	0.056737042	-1.5324208	1.29	0.656	0.167	-0.077272725	1.3167872	1.6713004	-0.29077241	-0.037471338	0.016712099	-0.17481193	0.065428814	0.00021359884	1.9775996	1.9506065	1.9981245	1.9507221	1.9980573	0.00011878776	1.9061079	1.0649419	-0.00074814909	-6.8431906e-05	-0.16135046	0.059579861	-0.16130612	0.060888887	0.0010220566	-3.2144071e-05	0.033381401	0.55143164	-0.85648384	0.14720218	0.85537679	-0.15016558	-0.034977998	1.2461888	0.66882605	0.017691237	0.00021836562	0.022329698	0.04884285	0.0019403187	0.048730037	0.0020078058	0.00011990627	0.091070398	0.017654516	3.3953236	4.7679076	4.6248857	4.3034007	4.6249725	4.3047509	4.136391	4.5727645	4.6079373	3.434409	3.745012	3.7104125	3.74417	3.7095454	3.8647241	4.0348527	-132.60537	R0:S0:1	-93.76	uncorrelated	51514b8	2022-04-11@06:16
2x2_2C_8b_C2v_L	6.4499826	0.1	14	1.94	0.16646754	-8.8646857	-9.5433594	-0.23479856	-9.5556203	-0.24432977	0.37307611	-9.3643646	13.68	-4.2510597e-06	5.5093023e-05	0.0034521576	-0.040226012	0.0027114159	-0.040658021	-0.00017575046	-0.00019537963	-0.030430428	-0.80983616	1.2044249	-0.014327612	-1.205932	0.014528379	0.057861841	-1.5304485	1.29	0.656	0.167	-0.079107497	1.3167962	1.6715868	-0.29061159	-0.03747078	0.01670696	-0.17916942	0.066265175	0.00024173899	1.9775616	1.9505902	1.9978347	1.9505817	1.9978297	0.00012505615	1.9058717	1.0657765	8.3718033e-05	-0.00012733102	-0.16597627	0.06388225	-0.16573862	0.064211983	0.0013465631	0.00024325517	0.034912971	0.5516274	-0.85585225	0.15826546	0.85600718	-0.15876694	-0.035651041	1.2480072	0.66670765	0.018005819	0.00024723165	0.022368006	0.0488612	0.0022396062	0.048869502	0.0022405504	0.0001262738	0.091291931	0.017970015	3.3921523	4.7715247	4.6300071	4.3125911	4.6294301	4.3117052	4.1381235	4.5732378	4.6115521	3.4314938	3.7394359	3.7033691	3.7400323	3.7042657	3.8630589	4.0360502	-132.70292	R0:S0:1	-93.92	uncorrelated	51514b8	2022-04-11@06:20
2x2_2C_8b_C2v_L	6.4498627	0.1	14	1.94	0.17306314	-8.8641902	-9.5418395	-0.24407944	-9.5542381	-0.2531299	0.38181872	-9.3594672	13.7	-0.00017145316	-0.00011957167	0.002080569	-0.042027051	0.0027975316	-0.043036995	2.8703871e-05	2.6286995e-05	-0.032965972	-0.80778561	1.2037579	-0.013942614	-1.20378	0.014361143	0.059112772	-1.5291841	1.29	0.656	0.167	-0.080953355	1.3168012	1.6718521	-0.29050142	-0.037481737	0.016707125	-0.18329949	0.067026277	0.0003013375	1.9776152	1.9505173	1.9977111	1.9506447	1.9976475	0.00013043335	1.9054964	1.066532	0.00095423017	2.0574048e-05	-0.16961692	0.066951657	-0.16958275	0.068160714	-0.00017514785	2.0071617e-05	0.038438154	0.55060153	-0.85598369	0.16175033	0.85476021	-0.16432776	-0.036336609	1.2508814	0.6647928	0.018304618	0.0003090471	0.022315346	0.048935231	0.0023685969	0.04881086	0.0024324834	0.00013173038	0.091642137	0.018269694	3.3879907	4.7755952	4.6334065	4.3179857	4.633556	4.3194461	4.1407909	4.5738197	4.6166599	3.4273595	3.7360531	3.6988362	3.735082	3.6978329	3.860452	4.0376445	-132.80334	R0:S0:1	-94.08	uncorrelated	51514b8	2022-04-11@06:24
2x2_2C_8b_C2v_L	6.450042	0.1	14	1.94	0.180995	-8.8635095	-9.5400572	-0.25509502	-9.5524032	-0.26361629	0.39212107	-9.3537222	13.72	-0.00039182505	-0.00019534295	0.0036000381	-0.04448613	0.0026323822	-0.044673288	0.00017711228	-4.4148925e-05	-0.034884203	-0.80753131	1.202909	-0.014159462	-1.2047021	0.014140557	0.060592454	-1.5275938	1.29	0.656	0.167	-0.083037455	1.3168119	1.672203	-0.29030871	-0.037482007	0.01670159	-0.1882875	0.068013041	0.00035865542	1.9775673	1.9504937	1.9974568	1.9504498	1.9974989	0.00013787961	1.9051659	1.0675143	0.0021861413	0.00020265299	-0.17501831	0.071808007	-0.17481852	0.071578079	-0.0013600502	-0.00011948102	0.041416404	0.55083447	-0.85525142	0.16987964	0.85579979	-0.1687284	-0.037197854	1.2533883	0.66231438	0.018679289	0.00036839633	0.022363678	0.048961325	0.002634146	0.049004067	0.0025857485	0.00013929268	0.091951675	0.018645874	3.3839703	4.7802944	4.639626	4.3283084	4.6385736	4.3262689	4.1430187	4.5745917	4.6215981	3.4235357	3.7293848	3.690335	3.7306517	3.69203	3.8583066	4.0391016	-132.91088	R0:S0:1	-94.24	uncorrelated	51514b8	2022-04-11@06:28
2x2_2C_8b_C2v_L	6.4501705	0.1	14	1.94	0.19052287	-8.8626708	-9.5379472	-0.26818848	-9.5504665	-0.27602623	0.404204	-9.3469915	13.74	-0.0005736954	-0.00020910584	0.0021389792	-0.046342086	0.0029478009	-0.047369813	0.00038267294	-2.3624438e-05	-0.036309257	-0.80811592	1.2024632	-0.013311798	-1.2024808	0.013608246	0.062123369	-1.5259126	1.29	0.656	0.167	-0.085018016	1.3168213	1.6725196	-0.29013586	-0.037481323	0.016696014	-0.19274629	0.068855578	0.00040522593	1.9774676	1.9503981	1.9974305	1.9505259	1.9973796	0.00014511114	1.9048498	1.0683538	0.0032256364	8.4459884e-05	-0.17903753	0.074163801	-0.1790147	0.075262627	-0.0028290749	1.6628723e-05	0.043725245	0.55174644	-0.8555684	0.16996067	0.85434505	-0.17190465	-0.038068194	1.2556929	0.66019968	0.019012798	0.00041651819	0.022463271	0.049057865	0.0026609767	0.048932934	0.0027125737	0.00014663763	0.092248205	0.018980807	3.3805197	4.7847795	4.6430983	4.3329211	4.6432441	4.3343037	4.1445508	4.5758515	4.6258423	3.4203271	3.7259929	3.6858165	3.7250302	3.684796	3.8568565	4.0400367	-133.02083	R0:S0:1	-94.4	uncorrelated	51514b8	2022-04-11@06:32
2x2_2C_8b_C2v_L	6.4503392	0.1	14	1.94	0.20468392	-8.8616308	-9.5353398	-0.28617676	-9.547884	-0.29312921	0.41982887	-9.3381994	13.76	0.00017198687	6.4748574e-05	0.0017911594	-0.047211709	0.0017506901	-0.047736866	-5.8211244e-05	1.4041553e-05	-0.037453139	-0.80704112	1.2007825	-0.01721431	-1.2016771	0.01745007	0.063544115	-1.5240988	1.29	0.656	0.167	-0.087245171	1.3168322	1.6729551	-0.28993159	-0.037489204	0.016693207	-0.19788578	0.07021115	0.0004655928	1.977478	1.9504859	1.9964956	1.9505297	1.9964681	0.00015409851	1.9044465	1.0697064	-0.00098643571	-1.7153227e-05	-0.18380959	0.084002826	-0.18370764	0.084552728	0.00042405073	-2.5548728e-05	0.046333007	0.55108845	-0.85364003	0.2008772	0.85328188	-0.2018926	-0.038891757	1.2589199	0.65701637	0.019483475	0.00047767632	0.022453858	0.048976049	0.0036125481	0.048933086	0.0036379326	0.00015567247	0.092624284	0.019452334	3.374477	4.7911574	4.6502262	4.350026	4.649791	4.3499264	4.1484075	4.5757472	4.6327522	3.4144316	3.7173525	3.6756742	3.7174608	3.6759449	3.8530984	4.0425643	-133.14386	R0:S0:1	-94.56	uncorrelated	51514b8	2022-04-11@06:39
2x2_2C_8b_C2v_L	6.4504974	0.1	14	1.94	0.22435531	-8.8602342	-9.5320713	-0.31002181	-9.5447065	-0.31580493	0.43944997	-9.3270003	13.78	0.00015075348	5.3604202e-05	0.0018520585	-0.049041658	0.0018168749	-0.049423279	-0.00025541918	0.00011971463	-0.039956403	-0.80671462	1.1998856	-0.017249565	-1.2006698	0.017538861	0.065090213	-1.5220967	1.29	0.656	0.167	-0.089580954	1.3168433	1.6733646	-0.28972367	-0.037493249	0.016688469	-0.20334079	0.071336515	0.00053601263	1.9774376	1.950453	1.9963632	1.9505091	1.9963229	0.00016075307	1.9040433	1.0708274	-0.00085120525	-6.0869126e-06	-0.18924114	0.087648647	-0.18911433	0.088202318	0.00192094	-7.9498044e-05	0.050041693	0.55114044	-0.85303485	0.20498837	0.85255665	-0.20637919	-0.039719925	1.2619821	0.65420892	0.019920388	0.00055002394	0.022494891	0.049012068	0.0037405445	0.048957108	0.0037795167	0.00016237113	0.093001384	0.019890793	3.3696488	4.7968348	4.6559104	4.3584325	4.6555122	4.3585789	4.1512215	4.576613	4.6387655	3.4096686	3.7111788	3.6681583	3.7111714	3.668286	3.850365	4.044386	-133.28189	R0:S0:1	-94.72	uncorrelated	51514b8	2022-04-11@06:46
2x2_2C_8b_C2v_L	6.4507113	0.1	14	1.94	0.25120296	-8.8584738	-9.5281358	-0.34076078	-9.5408511	-0.34505868	0.46356444	-9.3128817	13.8	-3.4557271e-07	2.3903896e-05	0.0012709406	-0.051883629	0.0013232294	-0.052206614	-0.00012558813	-6.7483259e-05	-0.042009887	-0.80619257	1.1990125	-0.018567929	-1.1999182	0.018670785	0.067083644	-1.5200729	1.29	0.656	0.167	-0.09206233	1.3168556	1.6738456	-0.28949046	-0.037500234	0.016684386	-0.20907435	0.072703465	0.00060056994	1.977416	1.9504483	1.9958905	1.9504984	1.9958859	0.00016985742	1.9035644	1.0721882	6.3749021e-05	-0.00010755071	-0.19472677	0.094841066	-0.19462388	0.095082519	0.0010140193	0.00016934922	0.053379585	0.55084733	-0.85199082	0.21860807	0.85154797	-0.21880986	-0.040802689	1.2656666	0.65092351	0.02042585	0.00061514672	0.022517325	0.049021166	0.0042166158	0.04897227	0.0042198469	0.00017151232	0.093448583	0.020398178	3.3635078	4.8037255	4.6627294	4.3709693	4.6625355	4.3710335	4.1549176	4.5772934	4.6459521	3.4036186	3.7035153	3.658946	3.7033887	3.6588931	3.8467754	4.04674	-133.43857	R0:S0:1	-94.88	uncorrelated	51514b8	2022-04-11@06:53
2x2_2C_8b_C2v_L	6.4509898	0.1	14	1.94	0.28522686	-8.8563494	-9.5235332	-0.3783937	-9.5363179	-0.38089048	0.49217228	-9.2958435	13.82	-0.00028131029	-2.4352344e-05	4.780566e-05	-0.055737622	0.00026975366	-0.05608687	0.0003312819	-0.00054755212	-0.04361359	-0.80547496	1.1981632	-0.021169399	-1.1994224	0.020845843	0.06952441	-1.5180272	1.29	0.656	0.167	-0.094714899	1.3168693	1.6744098	-0.28922778	-0.03751054	0.016681041	-0.21516223	0.074352578	0.00065639057	1.9774149	1.9504774	1.9950364	1.9505037	1.9951245	0.00018225807	1.9030051	1.0738292	0.0017356049	-0.00033676567	-0.20034274	0.10572593	-0.20030832	0.10533656	-0.0022504318	0.00074174156	0.056326814	0.550175	-0.85043034	0.24122383	0.85016549	-0.23879984	-0.042132929	1.27002	0.64707646	0.021011725	0.00067027452	0.022519693	0.048998159	0.005080336	0.048972609	0.0049907243	0.00018397154	0.093969938	0.020986425	3.3558124	4.8120174	4.670853	4.3880645	4.6710677	4.3877267	4.1596242	4.5777223	4.6545016	3.396099	3.6941214	3.6478564	3.6938419	3.6475253	3.8422066	4.0497206	-133.61401	R0:S0:1	-95.04	uncorrelated	51514b8	2022-04-11@06:56
2x2_2C_8b_C2v_L	6.451494	0.1	14	1.94	0.32723316	-8.8536838	-9.5183566	-0.42376767	-9.5312519	-0.4241421	0.52545918	-9.275617	13.84	-0.0002395339	-0.00036089569	0.00062876377	-0.057047294	0.00037644054	-0.057364348	0.00093694176	-4.7618318e-05	-0.049300135	-0.80756741	1.1975709	-0.023025604	-1.1979199	0.022353532	0.071516852	-1.5151358	1.29	0.656	0.167	-0.097552663	1.3168873	1.6750062	-0.28890441	-0.037508466	0.01667161	-0.2219309	0.075990553	0.00081419485	1.9772433	1.9504396	1.9946904	1.9505696	1.9948405	0.00019350855	1.9025335	1.0754626	0.0011838203	0.00027009641	-0.20737134	0.11114102	-0.206994	0.11039757	-0.0070775685	-0.00023283554	0.064020229	0.55169375	-0.84951148	0.25141379	0.84822176	-0.24720983	-0.043190081	1.2735556	0.64312582	0.021623892	0.00083185871	0.022691295	0.049039917	0.0054100626	0.048913852	0.0052591311	0.00019528372	0.094411734	0.021601459	3.3502972	4.8200903	4.6786621	4.4002706	4.6793724	4.4007235	4.162786	4.5790091	4.6625481	3.39028	3.685397	3.6379755	3.6841154	3.6364643	3.8391652	4.0518765	-133.81038	R0:S0:1	-95.2	uncorrelated	51514b8	2022-04-11@07:00
2x2_2C_8b_C2v_L	6.451767	0.1	14	1.94	0.37680637	-8.8508064	-9.5126532	-0.47600678	-9.5255139	-0.47393731	0.56312706	-9.2523691	13.86	-0.00044339571	3.1408094e-05	-0.0018226149	-0.060968374	-0.0011677508	-0.060813117	0.0014189129	-6.2389255e-06	-0.053573296	-0.80667868	1.1955025	-0.02466545	-1.1972392	0.024498183	0.074101124	-1.5124088	1.29	0.656	0.167	-0.10038416	1.3169012	1.6756207	-0.28862769	-0.03752261	0.016669018	-0.22813265	0.077664145	0.00093627504	1.9772519	1.9506244	1.9942192	1.9505377	1.994236	0.00020775031	1.9019139	1.0771267	0.0019169759	0.00054033322	-0.21220995	0.11923679	-0.21276998	0.11896808	-0.010701037	-0.00069735188	0.069953761	0.55084962	-0.84636512	0.26269311	0.84739395	-0.26245025	-0.04449555	1.2783276	0.6392274	0.022238476	0.00095512874	0.022684093	0.048867306	0.0058766257	0.048950421	0.0058602646	0.00020960906	0.094988813	0.022218962	3.3425929	4.8288956	4.6879415	4.4162011	4.6860808	4.4137207	4.1677838	4.5796668	4.6721727	3.3822127	3.6743328	3.6251804	3.6764378	3.6274907	3.8343064	4.054996	-134.02279	R0:S0:1	-95.36	uncorrelated	51514b8	2022-04-11@07:03
2x2_2C_8b_C2v_L	6.4523761	0.1	14	1.94	0.43405713	-8.8475157	-9.5062054	-0.53527265	-9.5192146	-0.53043305	0.60514187	-9.2260561	13.88	-0.00015636201	-0.00019915065	-0.0011291782	-0.064737704	-0.0015344796	-0.064995572	0.0015671761	-0.00059065693	-0.05644083	-0.80708861	1.196383	-0.027606436	-1.196374	0.027053101	0.076731082	-1.5098018	1.29	0.656	0.167	-0.10371101	1.3169221	1.6764145	-0.28823885	-0.037530783	0.016662354	-0.23618797	0.079909648	0.0010104203	1.9772011	1.95048	1.9934736	1.9506672	1.9935504	0.00022021551	1.9012045	1.0793625	0.00080101623	-0.00010057513	-0.22112054	0.12969995	-0.22043157	0.1294577	-0.011221011	0.00036437258	0.074246994	0.55056342	-0.84607113	0.28046736	0.84418951	-0.27817419	-0.045833707	1.2838212	0.63396361	0.023048423	0.001027996	0.022736245	0.049014162	0.0066165055	0.048832561	0.0065422521	0.0002220569	0.095650216	0.023032424	3.3326881	4.8400839	4.6977691	4.4334834	4.6990353	4.4355195	4.1737417	4.5804003	4.6832212	3.3725734	3.6636641	3.6126754	3.6615453	3.6102187	3.8284911	4.0588962	-134.25816	R0:S0:1	-95.52	uncorrelated	51514b8	2022-04-11@07:06
2x2_2C_8b_C2v_L	6.4528561	0.1	14	1.94	0.49890246	-8.8438914	-9.4993623	-0.60159662	-9.5123187	-0.59368283	0.65153483	-9.1967311	13.9	5.1016001e-05	-8.7320023e-05	-0.0034604216	-0.069118889	-0.0032173253	-0.06881795	0.0017203209	-0.00066052652	-0.059668089	-0.80699614	1.1945142	-0.02889728	-1.1958932	0.029150347	0.079422212	-1.5068054	1.29	0.656	0.167	-0.1068003	1.3169399	1.6771418	-0.28789591	-0.037541666	0.016657316	-0.24299552	0.081783928	0.0010749153	1.9771694	1.9506675	1.9932324	1.9506265	1.9930841	0.00023124864	1.9004892	1.0812275	-0.0006116842	0.00044273674	-0.22657413	0.13662154	-0.22687218	0.13737578	-0.012345667	-0.00024175088	0.078379331	0.55011979	-0.84272355	0.28573133	0.84332776	-0.28918536	-0.047119716	1.289226	0.62962333	0.023748065	0.0010912188	0.02276939	0.04884017	0.0068487642	0.048878827	0.0070001968	0.00023304783	0.096316307	0.023735299	3.3236464	4.8502128	4.7082133	4.4490152	4.706297	4.4480748	4.1789403	4.5817164	4.6932681	3.3637042	3.6514678	3.5984154	3.6532589	3.6004062	3.823409	4.0620907	-134.50872	R0:S0:1	-95.68	uncorrelated	51514b8	2022-04-11@07:09
2x2_2C_8b_C2v_L	6.4535064	0.1	14	1.94	0.57135662	-8.83993	-9.4918579	-0.67487386	-9.5049019	-0.66357145	0.70219659	-9.1644201	13.92	0.0003495581	0.00012538068	-0.0034256466	-0.073156795	-0.0037372075	-0.072960623	0.0017904023	-0.00024029249	-0.062848909	-0.80664632	1.1946962	-0.030989502	-1.1950145	0.031348813	0.082184156	-1.503047	1.29	0.656	0.167	-0.11036125	1.3169619	1.6780165	-0.28747818	-0.037553497	0.016651039	-0.25144435	0.084120532	0.0011381567	1.9771605	1.9506287	1.9928684	1.9507212	1.9926481	0.00024195761	1.8997674	1.0835544	-0.0021234102	0.00049365095	-0.23533091	0.14468568	-0.23506529	0.14610239	-0.012701928	-0.0007593394	0.08258679	0.54926087	-0.84125774	0.29394796	0.84052834	-0.29862258	-0.04842224	1.2948635	0.62407756	0.02461906	0.001153072	0.022780111	0.048886207	0.0072026042	0.048795341	0.0074271001	0.00024368854	0.096988555	0.024610156	3.3129433	4.8618759	4.719382	4.465565	4.7182824	4.4668228	4.1854525	4.5821938	4.7049193	3.3533517	3.639101	3.583755	3.6393692	3.5841417	3.8170179	4.0664542	-134.77926	R0:S0:1	-95.84	uncorrelated	51514b8	2022-04-11@07:12
2x2_2C_8b_C2v_L	6.4541844	0.1	14	1.94	0.65138912	-8.835628	-9.4839016	-0.75508563	-9.4969341	-0.74008359	0.75710472	-9.1290018	13.94	0.0007136025	0.00039939575	-0.0043029967	-0.077322354	-0.0046842727	-0.076730964	0.0012176235	-0.0010035594	-0.066100461	-0.80626451	1.1938339	-0.032147433	-1.1943666	0.033095229	0.084382572	-1.5003415	1.29	0.656	0.167	-0.11396271	1.3169843	1.6789418	-0.2870492	-0.037568436	0.016646231	-0.25973764	0.086445589	0.0011923742	1.9771686	1.9506908	1.9927948	1.9507748	1.9924484	0.00024084472	1.8988294	1.0858688	-0.0031553101	-0.00041665402	-0.24338306	0.15070918	-0.24296509	0.15271853	-0.0079957043	0.00074046288	0.086609622	0.54807491	-0.83889652	0.29554936	0.83824399	-0.30307873	-0.049279798	1.3019629	0.61868402	0.025500751	0.0012058897	0.022774168	0.048835013	0.0072657447	0.048752276	0.0076154431	0.00024229844	0.097860465	0.025495195	3.3007017	4.8748619	4.7303374	4.4804064	4.7292764	4.4824255	4.1924615	4.5837597	4.7179571	3.3416019	3.6266098	3.5687848	3.6268617	3.5692972	3.8100323	4.0707509	-135.06839	R0:S0:1	-96	uncorrelated	51514b8	2022-04-11@07:15
2x2_2C_8b_C2v_L	6.4549852	0.1	14	1.94	0.73897629	-8.8309854	-9.47543	-0.84218371	-9.4884621	-0.82316995	0.81619501	-9.0907696	13.96	0.0011400918	0.00069631606	-0.0047900826	-0.0813526	-0.0053007629	-0.08040576	0.0010086658	0.00025286051	-0.069521946	-0.80601023	1.1931564	-0.033130025	-1.1935454	0.034606693	0.087122145	-1.4952191	1.29	0.656	0.167	-0.11770116	1.317009	1.6799105	-0.28658307	-0.037579286	0.016638392	-0.26842003	0.088838071	0.0012450184	1.9771494	1.9507665	1.9928518	1.9508206	1.9923641	0.00024805765	1.8981418	1.0882536	-0.0055275705	0.00059128811	-0.25175788	0.15566122	-0.25164284	0.15860982	-0.0071571251	-0.0014049544	0.090622378	0.54731402	-0.83622063	0.2942704	0.83600861	-0.30506099	-0.050464619	1.3073564	0.61294085	0.026423679	0.0012572615	0.022795229	0.048771296	0.0071983895	0.04871691	0.0076887479	0.00024940182	0.098500651	0.026422245	3.2896397	4.8868938	4.7426296	4.4959621	4.7400807	4.4973236	4.198962	4.5841527	4.7297447	3.3310795	3.6127573	3.5521547	3.614304	3.554234	3.803616	4.0752603	-135.37356	R0:S0:1	-96.16	uncorrelated	51514b8	2022-04-11@07:17
2x2_2C_8b_C2v_L	6.4561459	0.1	14	1.94	0.83329461	-8.825944	-9.4669203	-0.93491655	-9.4798846	-0.91157044	0.87816455	-9.0497999	13.98	0.0014727221	2.9932522e-05	-0.0041586017	-0.0833382	-0.0044715783	-0.082271506	-0.00031026053	-0.00014002186	-0.076891923	-0.80902739	1.1920744	-0.034512989	-1.1920726	0.035421825	0.088089955	-1.4916533	1.29	0.656	0.167	-0.12181905	1.3170402	1.6810759	-0.28600656	-0.0375852	0.016627821	-0.27835178	0.091668146	0.0014423333	1.9769748	1.9508474	1.9929857	1.9509591	1.9926315	0.00024276586	1.8971922	1.0910763	-0.0062395263	0.00041106203	-0.26203927	0.15907716	-0.26177359	0.16121341	0.0016292412	-0.00058133826	0.099886607	0.5481877	-0.8333813	0.29179302	0.83251626	-0.29962513	-0.050583789	1.314513	0.60631752	0.027511389	0.0014560354	0.022971469	0.048702575	0.0070518111	0.048592484	0.0074078251	0.00024387392	0.099384461	0.027514218	3.2771933	4.9026396	4.755052	4.5118753	4.7535892	4.5137082	4.2060516	4.5860649	4.7451326	3.3184943	3.5981615	3.5346921	3.5985069	3.5353708	3.7964906	4.0799545	-135.69772	R0:S0:1	-96.32	uncorrelated	51514b8	2022-04-11@07:20
2x2_2C_8b_C2v_L	6.4573034	0.1	14	1.94	0.93328764	-8.8213167	-9.4590357	-1.0308776	-9.4718055	-1.0028371	0.94056783	-9.0074113	14	0.00023078999	9.248348e-05	-0.0073407353	-0.089328974	-0.0070545477	-0.088714763	-0.00070871274	0.00023836425	-0.079350043	-0.80753589	1.191313	-0.039576561	-1.1917665	0.039438418	0.091417653	-1.4874338	1.29	0.656	0.167	-0.12607086	1.3170709	1.6824295	-0.28541007	-0.037611776	0.016624822	-0.28795728	0.09509314	0.0014763907	1.977082	1.9510877	1.9919986	1.9511609	1.9917737	0.00025476882	1.8961623	1.0944873	-0.00093390189	3.3332676e-05	-0.2704394	0.17408067	-0.27033233	0.1755116	0.0042775012	-0.00019605149	0.10338994	0.5453173	-0.82860449	0.3116031	0.82801286	-0.31597149	-0.051977419	1.3227679	0.59870326	0.028728863	0.0014881516	0.022867851	0.048481712	0.0080336339	0.048409236	0.0082614731	0.00025583673	0.10033822	0.028736939	3.2589023	4.9207862	4.7709438	4.5396491	4.7702299	4.5411921	4.2170704	4.5852415	4.7637057	3.3012359	3.5789982	3.5127143	3.5790157	3.5128135	3.7855873	4.0872203	-136.03377	R0:S0:1	-96.48	uncorrelated	51514b8	2022-04-11@07:25
2x2_2C_8b_C2v_L	6.4587348	0.1	14	1.94	1.0380874	-8.8168641	-9.4524352	-1.1295305	-9.4649064	-1.0964036	1.0024802	-8.9641505	14.02	-0.0010735137	-0.00057950613	-0.0087278242	-0.091038331	-0.0082168239	-0.09022446	-0.00055411083	0.00015678815	-0.084637234	-0.80816947	1.188935	-0.044962617	-1.1900527	0.043318944	0.092522088	-1.4829015	1.29	0.656	0.167	-0.13043539	1.3171062	1.6838662	-0.28474508	-0.037629476	0.016617863	-0.29812021	0.098595106	0.001607233	1.9770725	1.9514338	1.9913977	1.9514565	1.9914494	0.00025307788	1.8951703	1.0979839	0.0040244484	9.7900947e-05	-0.27967524	0.18358372	-0.27971815	0.18291893	0.0034213092	0.00020628019	0.11027227	0.54385726	-0.82288857	0.32387092	0.82266422	-0.32239258	-0.052115655	1.3306804	0.59086655	0.030002726	0.001618852	0.022880378	0.048156434	0.0086220378	0.048133791	0.0085734238	0.00025400246	0.1012575	0.030014467	3.2416664	4.9395713	4.7864057	4.5649989	4.7865809	4.565377	4.2274332	4.5848427	4.782688	3.284469	3.5594335	3.4906592	3.5591704	3.4901111	3.7752047	4.0942655	-136.38138	R0:S0:1	-96.64	uncorrelated	51514b8	2022-04-11@07:30
2x2_2C_8b_C2v_L	6.460488	0.1	14	1.94	1.1469878	-8.8129334	-9.4473932	-1.2292696	-9.4594318	-1.1905972	1.062282	-8.9206	14.04	-0.0020541227	-0.00099940631	-0.010601904	-0.093916618	-0.0099706554	-0.093546884	0.00015037722	-0.00010368532	-0.090263882	-0.808923	1.1871693	-0.050673402	-1.1886126	0.048158449	0.094920975	-1.478618	1.29	0.656	0.167	-0.13517278	1.3171469	1.6855706	-0.28397312	-0.037653389	0.016612234	-0.3092129	0.10275851	0.0017720591	1.9770886	1.9518385	1.9906298	1.9518331	1.9907499	0.00025833262	1.8940644	1.1021376	0.0072225193	0.00018204011	-0.28968011	0.19589342	-0.28975624	0.19502873	-0.00063316726	0.00048259033	0.11816189	0.54175599	-0.81611438	0.33790707	0.81611584	-0.33492537	-0.052946945	1.3396689	0.58174653	0.031477205	0.0017837395	0.02286813	0.04777621	0.0093787988	0.047781313	0.0092630914	0.00025918157	0.10228064	0.031494223	3.220835	4.9620692	4.8053501	4.5956975	4.8058574	4.5959093	4.2402536	4.583445	4.8056855	3.264107	3.5358591	3.4641208	3.5355503	3.4633157	3.7624376	4.1030088	-136.74096	R0:S0:1	-96.8	uncorrelated	51514b8	2022-04-11@07:35
2x2_2C_8b_C2v_L	6.4626379	0.1	14	1.94	1.259989	-8.8095248	-9.4439095	-1.3300949	-9.4553814	-1.2854177	1.1199734	-8.8767599	14.06	-0.0027110369	-0.0011672171	-0.012962973	-0.097963835	-0.012316042	-0.098682036	0.0014047514	-0.00054305616	-0.096229988	-0.8097965	1.1860159	-0.056708914	-1.187446	0.053956936	0.098614314	-1.4745832	1.29	0.656	0.167	-0.14029805	1.3171939	1.6875922	-0.28307476	-0.037684413	0.016608437	-0.32131065	0.10770199	0.0019721215	1.9771366	1.9523182	1.9896918	1.9523055	1.98967	0.00027472935	1.892831	1.107067	0.0088590195	0.00032673252	-0.3005017	0.21115871	-0.30051464	0.21201152	-0.0076984439	0.00058019755	0.12716962	0.53887394	-0.8080492	0.35343083	0.80815024	-0.35282925	-0.054439636	1.3498863	0.57116681	0.033180664	0.0019840069	0.022824899	0.047325558	0.01030562	0.047337477	0.010332863	0.00027560862	0.10341975	0.033204747	3.1956904	4.9889963	4.8283924	4.6323522	4.8286372	4.6332315	4.2559726	4.5808273	4.8334224	3.2394419	3.5075563	3.4324308	3.5074688	3.4318745	3.746869	4.1137602	-137.11268	R0:S0:1	-96.96	uncorrelated	51514b8	2022-04-11@07:38
2x2_2C_8b_C2v_L	6.4651195	0.1	14	1.94	1.3756653	-8.8072122	-9.4430211	-1.4297422	-9.4539366	-1.3785478	1.1729216	-8.8344381	14.08	-0.0010190704	-0.0016262737	-0.014771741	-0.10460544	-0.013594811	-0.1043579	0.0023512103	-0.00071780689	-0.099398165	-0.81129961	1.1868736	-0.059514644	-1.186874	0.057347319	0.097226884	-1.469518	1.29	0.656	0.167	-0.14551893	1.3172463	1.6897825	-0.28209287	-0.03771184	0.016603186	-0.3340111	0.11293464	0.0020564961	1.9771651	1.9527054	1.9891679	1.9527498	1.9889875	0.00026772998	1.8917519	1.1122915	0.0022222984	0.0021875314	-0.31215717	0.22524476	-0.31281013	0.22691746	-0.013740018	-0.0016043155	0.13262114	0.5361052	-0.80051821	0.35980948	0.80019317	-0.36231276	-0.053148352	1.3592556	0.55993197	0.034990707	0.0020672489	0.022801508	0.046967424	0.01082382	0.046921887	0.011007554	0.00026853798	0.1044161	0.035021209	3.1681374	5.0175663	4.8537226	4.6686713	4.852732	4.6698748	4.2722254	4.5768202	4.8618699	3.2136157	3.4777779	3.3980766	3.4779421	3.3981283	3.7305088	4.1255396	-137.49397	R0:S0:1	-97.12	uncorrelated	51514b8	2022-04-11@07:40
2x2_2C_8b_C2v_L	6.4678384	0.1	14	1.94	1.4939512	-8.8059976	-9.4450168	-1.5283403	-9.455156	-1.4700699	1.2210088	-8.7932246	14.1	0.00016174063	0.00019992989	-0.014046031	-0.10763051	-0.013772144	-0.10590498	0.0027607174	-0.00085814809	-0.10540784	-0.81083899	1.1864451	-0.059961084	-1.1865748	0.058966199	0.099590074	-1.4655632	1.29	0.656	0.167	-0.1510714	1.3173022	1.6922458	-0.28102308	-0.037753002	0.016603523	-0.34768142	0.11860152	0.0022733896	1.9773521	1.953156	1.9893685	1.953224	1.9890589	0.00027402787	1.890424	1.117949	-0.00077363068	0.00027921484	-0.32608074	0.23216981	-0.32597881	0.23404172	-0.015289984	-0.00027553686	0.14226408	0.53103725	-0.79218423	0.35400725	0.79163221	-0.35908292	-0.053764389	1.3707011	0.54792351	0.03697608	0.0022843267	0.02262098	0.046546646	0.01061893	0.046478646	0.010928969	0.0002748218	0.1056384	0.037012685	3.1367832	5.050017	4.8799939	4.7031496	4.8793327	4.7051323	4.2920342	4.5719566	4.895988	3.1827598	3.4462787	3.3610522	3.4461766	3.3612946	3.7107516	4.1393353	-137.88372	R0:S0:1	-97.28	uncorrelated	51514b8	2022-04-11@07:45
2x2_2C_8b_C2v_L	6.4712833	0.1	14	1.94	1.6140914	-8.8061055	-9.4502395	-1.6242419	-9.4595197	-1.5582154	1.2627162	-8.75446	14.12	0.0020180373	0.0012463665	-0.014563116	-0.11303979	-0.014820354	-0.11062935	0.0021749593	-0.00060194178	-0.11077672	-0.81158827	1.1871017	-0.060851341	-1.187146	0.061478065	0.099413994	-1.4612468	1.29	0.656	0.167	-0.15687005	1.3173686	1.6951583	-0.27976088	-0.037797581	0.016605354	-0.36215457	0.12541877	0.0025027349	1.977526	1.953748	1.9891623	1.9537971	1.9885263	0.00025999334	1.8891099	1.1247558	-0.0059934118	9.9849196e-05	-0.34000059	0.2446794	-0.34001274	0.24896492	-0.012156091	-0.00076686658	0.15216372	0.52559676	-0.7816163	0.3537778	0.78139157	-0.36470647	-0.053014833	1.3826208	0.53400488	0.039241401	0.002513561	0.022454472	0.045991678	0.010820765	0.045941632	0.011453776	0.00026063365	0.10684596	0.039285957	3.0993868	5.0887432	4.9131489	4.7480678	4.9109922	4.7501518	4.3153568	4.5644656	4.9361366	3.1463188	3.40708	3.3159382	3.4080955	3.3179764	3.6873053	4.1560352	-138.28422	R0:S0:1	-97.44	uncorrelated	51514b8	2022-04-11@07:50
2x2_2C_8b_C2v_L	6.4754971	0.1	14	1.94	1.7350025	-8.8079626	-9.4596724	-1.7156669	-9.4680647	-1.6411065	1.295783	-8.7190672	14.14	0.0034172605	0.0019203742	-0.015715743	-0.11810518	-0.016244968	-0.1149534	0.00058482708	-0.00016364568	-0.11641698	-0.81281774	1.1878753	-0.063924356	-1.1872525	0.065246461	0.1024	-1.4582069	1.29	0.656	0.167	-0.16289123	1.3174457	1.6985703	-0.27829552	-0.037849723	0.016611491	-0.37738705	0.13350984	0.0027828189	1.9777484	1.954511	1.988495	1.9546149	1.987704	0.00025956863	1.887569	1.1328338	-0.0091865719	-0.00032635097	-0.35436016	0.26202786	-0.35409592	0.2674079	-0.0035557075	-0.00086485785	0.16366727	0.518891	-0.76869992	0.36077526	0.76798012	-0.37396613	-0.053903682	1.3966801	0.51823002	0.041794798	0.0027935752	0.022240881	0.045271728	0.011479205	0.045167568	0.012264723	0.00026011639	0.10825879	0.041848755	3.0544469	5.1351661	4.9517789	4.8020806	4.9495764	4.8049353	4.3435025	4.5551464	4.9843326	3.1023436	3.3609187	3.2642831	3.3615313	3.2664332	3.659193	4.1758194	-138.69493	R0:S0:1	-97.6	uncorrelated	51514b8	2022-04-11@07:55
2x2_2C_8b_C2v_L	6.4804972	0.1	14	1.94	1.8559691	-8.8118916	-9.4739747	-1.8013671	-9.4813848	-1.7173672	1.3189484	-8.6884371	14.16	0.0037043198	0.0019359098	-0.018286804	-0.12228416	-0.018591736	-0.11867501	-0.0015104288	0.00052950249	-0.12232463	-0.81441305	1.187676	-0.070431359	-1.1869884	0.071374979	0.10043579	-1.4541187	1.29	0.656	0.167	-0.16882505	1.317533	1.7023898	-0.27664877	-0.03790297	0.016620245	-0.39247758	0.14267579	0.0031056178	1.9780093	1.9555716	1.9872502	1.955656	1.9864148	0.000245674	1.8861902	1.1419935	-0.0093598294	-0.00030203304	-0.36721109	0.28490792	-0.36720455	0.29054251	0.0077609573	-0.0010967282	0.1765879	0.51123124	-0.7523558	0.3761348	0.75181873	-0.3892646	-0.05218617	1.4103431	0.50119474	0.044514869	0.0031162439	0.021989767	0.044261052	0.012707756	0.044175587	0.013535896	0.00024615006	0.10951896	0.044577563	3.0040263	5.1872783	4.9962596	4.8652194	4.9938723	4.8678699	4.3752293	4.5419661	5.0383458	3.0527582	3.3071204	3.2066568	3.3078718	3.2091631	3.6273154	4.1987776	-139.11221	R0:S0:1	-97.76	uncorrelated	51514b8	2022-04-11@07:59
2x2_2C_8b_C2v_L	6.4864242	0.1	14	1.94	1.9761957	-8.8182611	-9.4939139	-1.8799009	-9.5002769	-1.785424	1.3302308	-8.662938	14.18	0.002338486	0.0013337713	-0.021868409	-0.12437262	-0.021673453	-0.12102447	-0.0038473548	0.0012886289	-0.12844597	-0.81578869	1.1861272	-0.080706888	-1.1856746	0.079701428	0.10374156	-1.4520552	1.29	0.656	0.167	-0.17481024	1.3176321	1.7067779	-0.27477259	-0.037965614	0.016636367	-0.40777546	0.15339041	0.0034842745	1.978383	1.9569635	1.9854624	1.9570187	1.9847552	0.00027681275	1.8844815	1.1526995	-0.0053337258	-0.00061776512	-0.37912841	0.31285319	-0.37910247	0.31762157	0.020960191	-0.00054787638	0.19143659	0.50133395	-0.73204861	0.39800373	0.73169723	-0.40790558	-0.053167868	1.4270114	0.48250697	0.047480437	0.0034946298	0.021627422	0.042925446	0.014468712	0.042868763	0.015169287	0.00027753044	0.11107631	0.047552831	2.9436002	5.2491723	5.0481661	4.9383074	5.0466249	4.9408098	4.4132259	4.5265811	5.1027679	2.9929323	3.2436923	3.141714	3.244091	3.14364	3.589553	4.2254013	-139.53833	R0:S0:1	-97.92	uncorrelated	51514b8	2022-04-11@08:04
2x2_2C_8b_C2v_L	6.4933474	0.1	14	1.94	2.0951066	-8.827297	-9.5200229	-1.9501411	-9.5252262	-1.8440272	1.3285635	-8.6438641	14.2	-0.00046560279	-0.00017361144	-0.026537193	-0.125301	-0.025156803	-0.12238977	-0.0056456981	0.0016833069	-0.13470725	-0.81756737	1.1831326	-0.094008063	-1.1841414	0.089867229	0.10195988	-1.4493627	1.29	0.656	0.167	-0.18051341	1.3177434	1.7115943	-0.27268188	-0.038023638	0.016654875	-0.4223054	0.16529733	0.0039154639	1.9788088	1.9586879	1.983189	1.958571	1.9827487	0.00029505678	1.8829184	1.1646053	0.0013479374	-0.0004100974	-0.38854039	0.34540427	-0.38952026	0.34821745	0.031898395	0.0004651731	0.20776551	0.4902248	-0.70784761	0.42367636	0.70909435	-0.42882165	-0.051565456	1.4434662	0.46306082	0.050507527	0.0039252697	0.021213967	0.041260802	0.016704252	0.041373753	0.017140842	0.00029604433	0.11249537	0.050588534	2.8765805	5.3178375	5.1078826	5.0195162	5.10604	5.0200326	4.4551964	4.5071767	5.1740265	2.9262014	3.1708557	3.0708143	3.1727715	3.0731767	3.5476343	4.2553202	-139.97043	R0:S0:1	-98.08	uncorrelated	51514b8	2022-04-11@08:09
2x2_2C_8b_C2v_L	6.5013306	0.1	14	1.94	2.2121441	-8.8392439	-9.5527965	-2.0110475	-9.5568122	-1.8919249	1.3123276	-8.6314199	14.22	-0.0041511405	-0.0026144908	-0.031157932	-0.12506795	-0.028750521	-0.12334829	-0.0069918826	0.0021529741	-0.14099272	-0.81986295	1.1798697	-0.10798974	-1.1822784	0.09978745	0.10328227	-1.4479173	1.29	0.656	0.167	-0.18601515	1.3178678	1.7169138	-0.27035397	-0.038079883	0.016678155	-0.4362462	0.17864787	0.0044119122	1.9793044	1.9605967	1.9808341	1.9603396	1.9806833	0.00033115765	1.8812101	1.1779543	0.0086196316	0.0010588512	-0.39659677	0.37933262	-0.39859914	0.38072088	0.040715652	0.00046799191	0.22578889	0.47745036	-0.68100398	0.44677527	0.68347116	-0.44713296	-0.051506374	1.4616454	0.44283664	0.053597393	0.0044207444	0.020731777	0.03941138	0.019015719	0.039663938	0.019166569	0.00033257437	0.11404218	0.053688042	2.8004242	5.3957844	5.1759737	5.1066309	5.1745658	5.1064552	4.5024723	4.485112	5.2546929	2.8499621	3.0890114	2.9936638	3.0915263	2.9950366	3.5005884	4.2885562	-140.41003	R0:S0:1	-98.24	uncorrelated	51514b8	2022-04-11@08:14
2x2_2C_8b_C2v_L	6.5105798	0.1	14	1.94	2.3240279	-8.8556774	-9.5951317	-2.0558263	-9.5982211	-1.9210581	1.2723813	-8.6294754	14.24	-0.0052988944	-0.0031946327	-0.032824214	-0.13032206	-0.030301898	-0.12744246	-0.0069504809	0.0021923665	-0.14776418	-0.82247078	1.1831362	-0.11005693	-1.1850791	0.10214473	0.10067657	-1.4466948	1.29	0.656	0.167	-0.19165553	1.318009	1.7230444	-0.26770831	-0.038150209	0.016715736	-0.45067107	0.19453715	0.0050603736	1.9799601	1.9622764	1.9796327	1.9620253	1.9792281	0.00031907751	1.8794761	1.1938383	0.010112882	0.0015842104	-0.40826989	0.41045599	-0.41041541	0.41350934	0.042500143	0.00055583292	0.24818491	0.46120613	-0.65418383	0.44935493	0.65670732	-0.4526322	-0.049337769	1.4816739	0.42048845	0.056909689	0.0050676413	0.020091747	0.037792896	0.020190928	0.038039274	0.02059015	0.00032054975	0.11560556	0.057013969	2.7071704	5.4913408	5.2603584	5.2042576	5.2578408	5.2038641	4.5600714	4.4558232	5.3534684	2.7555279	2.9931556	2.8980243	2.9964457	2.9010281	3.4428484	4.3294846	-140.85321	R0:S0:1	-98.4	uncorrelated	51514b8	2022-04-11@08:19
2x2_2C_8b_C2v_L	6.521439	0.1	14	1.94	2.43016	-8.8768506	-9.6476274	-2.0830053	-9.6500979	-1.9296976	1.2066123	-8.6380813	14.26	-0.0035425996	-0.0019019212	-0.031618022	-0.13983846	-0.030399607	-0.13392142	-0.006276824	0.0020668174	-0.15514576	-0.82566326	1.1923886	-0.10265652	-1.1915078	0.099088188	0.10182331	-1.447865	1.29	0.656	0.167	-0.19737006	1.3181713	1.7301509	-0.26466715	-0.038235177	0.016770516	-0.46442422	0.21384402	0.005910181	1.9808213	1.9638671	1.9790378	1.9638263	1.9778906	0.00030774299	1.8773276	1.2131304	0.0063934889	0.00075608483	-0.42261461	0.44267961	-0.42312558	0.45072645	0.04131752	0.00084715471	0.27640546	0.44040101	-0.62566935	0.43895498	0.62646247	-0.45109088	-0.048843031	1.5063765	0.39629364	0.06029853	0.0059145925	0.019248703	0.036268068	0.020768901	0.036304131	0.021895334	0.00030930008	0.11753656	0.060422092	2.59088	5.6105796	5.3651297	5.3189861	5.3611947	5.3186614	4.6310466	4.4200401	5.4761652	2.6362971	2.8784268	2.7805784	2.8814409	2.7874101	3.371811	4.378782	-141.30061	R0:S0:1	-98.56	uncorrelated	51514b8	2022-04-11@08:23
2x2_2C_8b_C2v_L	6.5403102	0.1	14	1.94	2.0836129	-9.0658724	-10.128813	-0.12721957	-10.110424	-0.12642973	0.03342977	-8.4913598	14.28	-0.0062604591	-0.0040956608	-0.0028997992	-0.057249353	-0.0027822348	-0.057285051	-0.061099097	7.8433738e-05	-0.15460313	-0.84150854	1.2086896	-0.052052297	-1.207822	0.051752767	0.00035438636	-1.4139853	1.29	0.656	0.167	-0.1986904	1.3184432	1.7493204	-0.25984149	-0.038884358	0.017342543	-0.37186449	0.29844211	0.013248989	1.9864805	1.9671275	1.8128912	1.9670571	1.8130907	0.29131175	1.88876	1.297899	0.0087257987	0.0032856429	-0.33910879	1.2743357	-0.33924268	1.2741314	2.0340609	0.00067202913	0.45858367	0.31282011	-0.57850459	0.99730432	0.57916923	-0.99458578	-0.0075585817	1.3868875	0.37415717	0.059398427	0.01315019	0.013595041	0.032789245	0.16924071	0.032859468	0.1690595	0.24137965	0.10616571	0.059519312	1.9231885	6.2649996	5.5062247	5.364049	5.5062127	5.3644898	3.7119342	4.3843167	6.1336056	1.9001812	2.6477793	3.44096	2.6484603	3.441137	5.6121458	3.9953035	-135.91996	R0:S0:1	-98.72	uncorrelated	51514b8	2022-04-11@08:42
2x2_2C_8b_C2v_L	6.5659047	0.1	14	1.94	0.1992665	-9.4814696	-10.975564	3.8448457	-11.019492	3.3306305	-1.97156	-8.5290507	14.3	9.0978836e-05	-5.0047145e-05	-0.098488114	-0.22818399	-0.093512374	-0.22387084	-0.0028876176	0.001177002	-0.06955484	-0.82638715	1.260684	0.23552773	-1.2478755	-0.20124858	-0.17223766	-1.3868446	1.29	0.656	0.167	-0.20308947	1.3187766	1.7513572	-0.25377541	-0.038004846	0.016878624	-0.46490154	0.26956337	0.04943009	1.9853034	1.9749849	0.027062177	1.9754948	0.029420092	1.97046	1.8805	1.2688336	-0.0023979655	0.0013058991	-0.34583683	0.45998528	-0.34555255	0.48530178	0.0013495663	-0.00038361178	0.70965949	0.35776672	-0.48591095	-0.57375981	0.48116968	0.58296941	0.74842856	1.5106735	0.35360198	0.065119596	0.05131511	0.014762955	0.025241682	0.026729264	0.024715871	0.029043403	0.029186758	0.11444436	0.065297313	2.585621	5.921528	5.6758218	2.5045143	5.6713938	2.516452	3.4759479	4.2601229	5.9430321	2.2706738	2.5222203	5.6062918	2.5191997	5.607594	4.69801	4.4791185	-143.83039	R0:S0:1	-98.88	uncorrelated	51514b8	2022-04-11@08:52
2x2_2C_8b_C2v_L	6.5775917	0.1	14	1.94	-3.2170759	-10.113604	-12.203834	9.8366705	-12.390998	8.4409088	-4.7824567	-8.7535033	14.32	0.20790576	0.055712129	-0.29843635	-0.60799377	-0.28966898	-0.59021822	0.0027309989	-0.0015744518	0.083689011	-0.89173288	1.32548	0.55687811	-1.2872447	-0.4617837	-0.4786691	-1.2935079	1.29	0.656	0.167	-0.21567966	1.3189484	1.7609764	-0.24993453	-0.038237636	0.01699424	-0.49161228	0.29932084	1.9888831	1.9863625	1.9844702	0.030533799	1.9858677	0.032678785	1.9548851	1.8981288	1.2978944	-0.41346848	-0.042946027	-0.21356456	0.47043128	-0.20502152	0.49329785	-0.0031579804	-0.0026110983	-0.088558945	0.32542516	-0.3590103	-0.68360591	0.34143478	0.68800359	0.93833843	1.4109802	0.32354905	0.068440189	0.011092805	0.013741983	0.015758026	0.030136076	0.014320916	0.032255874	0.044366612	0.098206081	0.06895976	6.0262946	6.1422245	5.8441892	2.3846692	5.8537233	2.3816241	3.5132304	4.0250724	2.0730229	2.068231	2.3192276	5.7215634	2.2927741	5.7374081	4.7693245	4.6224359	-163.20705	R0:S0:1	-99.04	uncorrelated	51514b8	2022-04-11@08:59
2x2_2C_8b_C2v_L	6.624399	0.1	14	1.94	-8.173491	-10.974178	-13.818758	17.839838	-14.222348	15.187695	-8.1923767	-8.9601271	14.34	0.45145745	0.14822035	-0.61560564	-1.1890162	-0.64932312	-1.1706004	-0.22279456	0.26564764	0.2429244	-0.98313812	1.3994562	0.96056809	-1.343304	-0.8211603	-1.076899	-0.9936139	1.29	0.656	0.167	-0.22300842	1.3195468	1.7830557	-0.23827234	-0.038048798	0.017032692	-0.46752481	0.36449421	1.9873948	1.9886777	1.9917976	0.032251952	1.9927747	0.03634893	1.9149858	1.9390142	1.3618855	-0.50632525	-0.12793543	0.057007779	0.42048375	0.092784935	0.45517956	0.056769481	-0.069553227	-0.083330587	0.25112633	-0.17433212	-0.7768133	0.1483806	0.80440773	1.3182972	1.1151065	0.30466669	0.06351335	0.012561315	0.011456799	0.0083741577	0.031889671	0.007360874	0.035944567	0.082514731	0.059736833	0.064609429	6.4431534	6.5780996	6.2829215	2.040486	6.2738469	2.0734529	3.6603561	3.4318711	1.637592	1.6159061	1.8705527	6.0637805	1.860876	6.0515367	4.88208	4.958771	-189.81354	R0:S0:1	-99.2	uncorrelated	51514b8	2022-04-11@09:03
2x2_2C_8b_C2v_L	6.7109642	0.1	14	1.94	-14.667976	-12.061101	-15.824876	27.855624	-16.528687	23.5798	-12.23141	-9.1587383	14.36	0.77267209	0.24964087	-1.0262474	-1.9611637	-1.0832472	-1.8998357	-0.31170999	0.66104366	0.43572156	-1.1100722	1.4960262	1.4025044	-1.3867764	-1.150253	-1.7469072	-0.61922077	1.29	0.656	0.167	-0.21812462	1.320608	1.8106723	-0.21854235	-0.036607099	0.016496094	-0.39778604	0.42250785	1.9856649	1.9904665	1.9878104	0.029958734	1.9877275	0.031766663	1.8931893	1.9738651	1.418467	-0.59181843	-0.22235701	0.39960387	0.34405005	0.44572672	0.36136042	0.055336318	-0.15029422	-0.059521078	0.17527785	-0.04500211	-0.79058318	0.01345825	0.79537125	1.5163981	0.71778654	0.3193742	0.049191964	0.014271085	0.0096964352	0.012534711	0.029767118	0.012554827	0.031637643	0.10282219	0.026132038	0.050827363	6.8535112	7.0031015	6.6198476	1.7173128	6.6132896	1.7185982	3.6478648	2.8284153	1.2063691	1.1598046	1.5590961	6.3928108	1.5358655	6.4084326	5.0430392	5.358463	-223.37784	R0:S0:1	-99.36	uncorrelated	51514b8	2022-04-11@09:09
2x2_2C_8b_C2v_L	6.8202056	0.1	14	1.94	-22.702055	-13.378029	-18.244255	39.893016	-19.319659	33.620225	-16.904729	-9.381955	14.38	1.12994	0.34999088	-1.4420922	-2.8294653	-1.5489306	-2.7376895	-0.20698545	0.96250382	0.65445463	-1.2486309	1.5589724	1.7581812	-1.4023079	-1.3983542	-2.3489588	-0.2803571	1.29	0.656	0.167	-0.20197283	1.3219344	1.8364676	-0.19482535	-0.033838621	0.01538512	-0.33126041	0.45032337	1.9856047	1.9909861	1.9775702	0.024277209	1.9762128	0.025015969	1.89513	1.9908503	1.4450182	-0.61997486	-0.30090135	0.67334661	0.27926649	0.7287713	0.29060665	0.023183884	-0.19457402	-0.043993621	0.12821276	0.010363538	-0.71843345	-0.044594209	0.70887269	1.5302747	0.3326917	0.33835448	0.037075522	0.014329521	0.0092000503	0.022901728	0.024251221	0.024104956	0.025080545	0.10093039	0.009260999	0.039038461	7.0995986	7.2413713	6.705473	1.5137725	6.6887526	1.498684	3.4807024	2.4696047	0.94310887	0.89277395	1.4931083	6.5980686	1.474652	6.6303235	5.2058178	5.6397364	-263.64481	R0:S0:1	-99.52	uncorrelated	51514b8	2022-04-11@09:16
2x2_2C_8b_C2v_L	6.9323749	0.1	14	1.94	-32.275873	-14.925126	-21.076493	53.952217	-22.594512	45.308684	-22.213053	-9.6326057	14.4	1.5205125	0.45318896	-1.8751224	-3.7864626	-2.0579993	-3.6820873	0.058894526	1.1581476	0.8957251	-1.3981168	1.5884937	2.0274291	-1.3878893	-1.5715845	-2.8704359	0.061201982	1.29	0.656	0.167	-0.18318837	1.3233037	1.8587719	-0.17092987	-0.030386041	0.013976003	-0.2821453	0.46220635	1.9861066	1.990853	1.9671163	0.019191384	1.9637119	0.0193317	1.9070471	1.9943326	1.4557482	-0.62296105	-0.3590061	0.8677079	0.23985761	0.94339164	0.2442726	-0.032976318	-0.21460546	-0.03753814	0.099768151	0.035707188	-0.62839419	-0.069180056	0.60777739	1.456729	-0.047360492	0.34994304	0.029553661	0.013831769	0.0093536665	0.033220551	0.019240745	0.036337417	0.019469676	0.089830251	0.0057256202	0.031771277	7.2405112	7.3658455	6.6628399	1.4098323	6.6476605	1.3636626	3.26138	2.3199992	0.7918513	0.74785927	1.5457305	6.7003296	1.525357	6.7635669	5.3523745	5.796399	-310.55765	R0:S0:1	-99.68	uncorrelated	51514b8	2022-04-11@09:22
2x2_2C_8b_C2v_L	7.0268492	0.1	14	1.94	-43.389622	-16.702823	-24.32078	70.032979	-26.352605	58.645134	-28.160959	-9.9171706	14.42	1.9394397	0.55770405	-2.3342654	-4.8330389	-2.6191041	-4.730919	0.45277576	1.2338256	1.1576259	-1.5563682	1.5845256	2.2156812	-1.346381	-1.6697783	-3.2445821	0.42464293	1.29	0.656	0.167	-0.16800923	1.3244701	1.8756859	-0.15094232	-0.027098249	0.012598865	-0.25045684	0.46825299	1.9872217	1.9894934	1.9561559	0.014360613	1.9544806	0.016400436	1.9261097	1.9801394	1.4608353	-0.60498548	-0.43115056	1.0446221	0.19228905	1.0667561	0.2424758	0.01497095	-0.25052943	-0.020366795	0.09340208	0.0465835	-0.53520337	-0.094612916	0.52647013	1.302509	-0.5520866	0.3554584	0.025812158	0.012729453	0.010742357	0.043779339	0.014441022	0.045193408	0.016544668	0.07201366	0.020250332	0.028264309	7.3270952	7.4179804	6.6594356	1.2310607	6.4852469	1.4199054	3.0215254	2.4301165	0.698778	0.68386779	1.5362696	6.863558	1.7102224	6.7169882	5.4760712	5.7779926	-364.10397	R0:S0:1	-99.84	uncorrelated	51514b8	2022-04-11@09:31
2x2_2C_8b_C2v_L	7.0248602	0.1	14	1.94	-56.043981	-18.713407	-27.970635	88.12512	-30.619444	73.635432	-34.771723	-10.275682	14.44	2.3370253	0.65284121	-2.9381946	-6.1316521	-3.2059224	-5.8495174	1.6198379	0.60100659	1.4189234	-1.7016232	1.5912243	2.4154234	-1.2320422	-1.636059	-1.9375803	1.561305	1.29	0.656	0.167	-0.17021066	1.3244587	1.8759895	-0.15123441	-0.027174043	0.012633193	-0.25523094	0.48036548	1.9885874	1.9886539	1.944843	0.012413853	1.9472472	0.013775499	1.9822774	1.8640224	1.4728777	-0.57376545	-0.46469096	1.1925553	0.18317909	1.1588742	0.23630473	-0.11975698	-0.24843379	-0.015901935	0.093346587	0.078721298	-0.48533129	-0.13662285	0.45566044	0.58107146	-1.7165174	0.35375529	0.029869568	0.011375009	0.011583356	0.054578401	0.012498136	0.052008987	0.013908114	0.017691844	0.12951972	0.032566367	7.3536483	7.418461	6.5566071	1.1938748	6.3741272	1.4349625	2.6054561	3.7991831	0.66915335	0.67952993	1.6360647	6.8920655	1.8236695	6.6944775	5.5369247	5.0358716	-424.25669	R0:S0:1	-100	uncorrelated	51514b8	2022-04-11@09:46
2x2_2C_8b_C2v_L	7.0765095	0.1	14	1.94	-70.238082	-20.951237	-32.059632	108.23846	-35.391791	90.277171	-42.12678	-11.342466	14.46	2.7557382	0.74769992	-3.5567965	-7.4941774	-3.8501725	-7.0703042	2.0448307	-0.26126177	1.6847468	-1.8576291	1.5725242	2.532819	-1.0598854	-1.4827451	0.90160421	1.9074922	1.29	0.656	0.167	-0.16319621	1.3251063	1.8849461	-0.14027718	-0.025251737	0.011812034	-0.24124788	0.48744135	1.9889942	1.9906624	1.94129	0.012516239	1.9347107	0.0088113876	1.995358	1.8403624	1.4794406	-0.56620238	-0.42429774	1.2123531	0.22382379	1.3266218	0.1674536	-0.15754602	0.25214633	-0.039617261	0.061009536	0.12531737	-0.45179553	-0.11521316	0.34054955	-0.17875864	-1.8646176	0.35580029	0.030144476	0.010966184	0.0095425704	0.057947708	0.012592322	0.063609156	0.0089187777	0.0046497061	0.1500942	0.033054284	7.397124	7.4755033	6.3067237	1.4678158	6.4589991	1.1078181	2.5309781	4.0751466	0.62234109	0.60865991	1.9360692	6.6385183	1.7027544	6.986639	5.5294039	4.8886299	-493.04738	R0:S0:1	-100.16	uncorrelated	51514b8	2022-04-11@09:54
2x2_2C_8b_C2v_L	6.81334	0.1	14	1.94	-85.953529	-23.333111	-36.539954	130.3547	-40.601849	108.53957	-50.26886	-13.228502	14.48	3.8507652	0.97735508	-4.3986014	-9.2679868	-4.9322901	-8.9498057	1.8589906	-1.5977909	2.1565552	-2.3112164	1.5826856	2.7102062	-0.87510567	-1.3162093	4.2784788	1.3186111	1.29	0.656	0.167	-0.27710386	1.3220683	1.8622731	-0.18985551	-0.03641827	0.016857445	-0.46006485	0.85416148	1.9845664	1.9879159	1.921824	0.012250757	1.9100139	0.0089407723	1.9902559	1.8875082	1.8514048	-0.69625414	-0.60312691	1.4717627	0.19527063	1.587376	0.16507155	-0.48777237	1.7819776	-0.013962114	0.0010445543	0.38572832	-0.55831141	-0.39228448	0.45775945	-0.040008677	-0.13723073	0.3245863	0.042476316	0.015345971	0.012451958	0.076447186	0.01233602	0.086545183	0.0090629957	0.0098966843	0.10872526	0.044881971	7.6988097	7.744638	6.4259961	1.0626232	6.3188246	0.9723543	7.4368213	6.2740484	0.29955069	0.25213611	1.5658213	6.9403757	1.6730006	7.0305858	0.56295659	1.699086	-572.9333	R0:S0:1	-100.32	uncorrelated	51514b8	2022-04-11@10:04
2x2_2C_8b_C2v_L	6.9306069	0.1	14	1.94	-103.25644	-26.136024	-41.578339	154.52124	-46.490707	128.51308	-59.387187	-16.555953	14.5	3.9918253	0.95596783	-4.9258814	-10.521886	-5.4504875	-10.012217	0.5695998	-2.4797945	2.2193153	-2.3510253	1.4985613	2.6341172	-0.60719434	-0.93883401	5.9695187	0.38438859	1.29	0.656	0.167	-0.25950694	1.3235164	1.8824323	-0.16492361	-0.032391735	0.015159373	-0.41705143	0.86118783	1.9884802	1.9903468	1.9175042	0.0087589317	1.9110192	0.0057895432	1.9959226	1.844277	1.8584283	-0.60294779	-0.5422802	1.528652	0.15136058	1.5902658	0.12797629	-0.11660146	2.1091187	-0.0066327416	0.0033313645	0.3466421	-0.46997523	-0.36458852	0.35829357	-0.092363948	-0.050772919	0.34726795	0.039139505	0.011471723	0.0098993822	0.080054773	0.008829573	0.085321799	0.0058651533	0.0040838353	0.14258112	0.041492904	7.7734084	7.797974	6.4613555	0.88978556	6.3745547	0.84836725	7.373995	5.6967587	0.22547167	0.1991914	1.5291045	7.1117413	1.6169188	7.1534104	0.62572476	2.2762712	-661.3325	R0:S0:1	-100.48	uncorrelated	51514b8	2022-04-11@10:14
2x2_2C_8b_C2v_L	7.0596874	0.1	14	1.94	-122.10003	-29.130604	-46.977051	180.6832	-52.831008	150.11054	-69.445095	-21.315259	14.52	5.1880584	1.0196745	-5.8919287	-12.573307	-6.631406	-12.098387	-2.1486379	-2.8888361	2.3529344	-2.8613884	1.4761786	2.6789534	-0.26823893	-0.43646847	6.4007845	-1.4637366	1.29	0.656	0.167	-0.24069852	1.3251193	1.9033473	-0.13760213	-0.02761224	0.013101615	-0.37256592	0.86994724	1.9860776	1.9911454	1.9027662	0.0073917822	1.8935452	0.0042534106	1.9903138	1.8716349	1.8671441	-0.66285884	-0.51804453	1.664289	0.13509163	1.7422104	0.11012661	0.46753662	1.9195884	-0.0072381701	0.0034120962	0.33581211	-0.42082772	-0.35740568	0.27612985	-0.077665241	0.02053726	0.36255354	0.03561658	0.013842488	0.0091350989	0.09338131	0.0074580132	0.10089246	0.0043054827	0.0098459251	0.12150223	0.037968557	7.7408704	7.804068	6.3248421	0.83634937	6.1990982	0.79987066	7.3822153	6.0752084	0.25792878	0.19343203	1.6649636	7.164531	1.7921148	7.2012996	0.61735312	1.9006407	-762.05872	R0:S0:1	-100.64	uncorrelated	51514b8	2022-04-11@10:22
2x2_2C_8b_C2v_L	7.0052277	0.1	14	1.94	-142.53265	-32.544619	-52.932968	208.89409	-59.884015	173.42505	-80.55337	-27.812484	14.54	6.0318717	0.93648532	-6.6883215	-14.326658	-7.4420349	-13.603044	-5.2289398	-2.3146439	2.1864397	-3.2200848	1.4015696	2.6048376	0.12099675	0.17008365	4.720576	-3.6866348	1.29	0.656	0.167	-0.24954742	1.3244648	1.8944855	-0.14911173	-0.029584936	0.013956437	-0.38733549	0.87950879	1.9861534	1.9939438	1.9000306	0.0066323443	1.8929685	0.0032983275	1.9683377	1.9496426	1.8770122	-0.66169078	-0.42835385	1.6842328	0.1337963	1.7445208	0.10059431	0.97875373	1.2006164	-0.0056571768	0.0031020784	0.35881207	-0.39215559	-0.37734121	0.2239438	-0.034834804	0.026968664	0.35501653	0.034387119	0.013760881	0.0062607391	0.095757299	0.0066905055	0.10130828	0.0033328952	0.031524804	0.0520844	0.036557402	7.7533976	7.8484521	6.2691347	0.86615113	6.1713564	0.81393837	7.3208557	7.1329934	0.24556615	0.15016802	1.7223231	7.1348627	1.8215952	7.1873794	0.67665833	0.85628307	-873.44365	R0:S0:1	-100.8	uncorrelated	51514b8	2022-04-11@10:31
2x2_2C_8b_C2v_L	6.9397206	0.1	14	1.94	-164.55319	-36.3663	-59.446316	239.15497	-67.643742	198.45553	-92.777597	-36.253537	14.56	6.6066161	0.72813442	-7.3219397	-15.77375	-7.9207908	-14.559109	-7.6621427	-0.50044049	1.7303867	-3.470387	1.2777783	2.4154697	0.56898743	0.88357581	0.93038339	-5.5951761	1.29	0.656	0.167	-0.26011329	1.3236805	1.8834576	-0.16300341	-0.031872764	0.014935521	-0.40873971	0.88534857	1.9875043	1.9969729	1.903729	0.0056955494	1.9020449	0.0023268248	1.9495005	1.9983006	1.8831176	-0.62936438	-0.30271821	1.6519264	0.12787881	1.6692983	0.08544962	1.2495563	0.19232229	-0.0024774063	0.0030088883	0.37324166	-0.36013646	-0.38740875	0.17378415	-0.009529348	0.017584348	0.3472569	0.034158708	0.012421489	0.0031266972	0.092277298	0.0057430798	0.093105947	0.0023466222	0.049203187	0.0018096966	0.036161515	7.7863994	7.900531	6.2904662	0.87676114	6.2552023	0.81079428	7.2039248	7.77705	0.21278782	0.099144809	1.7028988	7.1244634	1.7395125	7.1906726	0.79140868	0.22390709	-996.4615	R0:S0:1	-100.96	uncorrelated	51514b8	2022-04-11@10:39
2x2_2C_8b_C2v_L	7.0536326	0.1	14	1.94	-188.14879	-40.51418	-66.446988	271.4437	-76.010292	225.16495	-106.15159	-46.704316	14.58	7.5442634	0.43440634	-8.0639558	-17.421651	-8.5757352	-15.783864	-9.2270431	2.7493356	1.0360662	-3.8770827	1.1400742	2.1839398	1.1460027	1.8193704	-4.6175294	-6.8182081	1.29	0.656	0.167	-0.2432784	1.3250901	1.9018986	-0.13890016	-0.027661262	0.013119352	-0.37450777	0.88908344	1.987515	1.9990847	1.9030453	0.0043717716	1.9055201	0.0013876089	1.9452655	1.9729731	1.8868256	-0.62948633	-0.16501742	1.6676903	0.1070577	1.6495171	0.060610534	1.2903181	-0.87266543	-0.00024602601	0.0025063692	0.34129964	-0.3081916	-0.35145939	0.092366401	0.010718797	0.03964902	0.36440898	0.032098987	0.012407204	0.00094624688	0.092691251	0.0044073903	0.089895585	0.0013932433	0.05357955	0.028604421	0.034089219	7.7956228	7.9342756	6.3240779	0.78489267	6.3383316	0.71389286	7.05958	7.3878094	0.20362012	0.065817077	1.6690657	7.2159108	1.6560249	7.2870228	0.9368114	0.6089866	-1134.1617	R0:S0:1	-101.12	uncorrelated	51514b8	2022-04-11@10:47
2x2_2C_8b_C2v_L	7.1442954	0.1	14	1.94	-213.31877	-44.992223	-73.933351	305.75943	-84.971773	253.54972	-121.02016	-59.819353	14.6	8.8046246	0.045541109	-8.914362	-19.280344	-9.4544127	-17.363526	-7.2898826	5.7687869	0.10954101	-4.4152335	0.99149378	1.9151078	1.8581823	3.0015668	-9.1096492	-5.6906582	1.29	0.656	0.167	-0.23049876	1.3262208	1.9159003	-0.11976764	-0.024110619	0.011557619	-0.34579943	0.89219632	1.986757	1.9999625	1.9017197	0.003476939	1.9053934	0.0010318077	1.9730175	1.9310387	1.8899588	-0.64834626	-0.018965666	1.6855733	0.092838275	1.6563854	0.043193945	0.89335434	-1.4221653	0.0014229407	0.0020801921	0.31799328	-0.26578775	-0.32722896	0.016525008	0.032679151	0.037868361	0.37706682	0.030415438	0.013154012	3.8162763e-05	0.093749081	0.0035039001	0.089996341	0.0010319612	0.027143939	0.068657903	0.032351281	7.787476	7.9454494	6.3361645	0.72372127	6.3657174	0.65410422	7.3290974	6.8639195	0.21179611	0.054780686	1.6570205	7.2768229	1.6287158	7.3465246	0.66964593	1.1286441	-1284.7393	R0:S0:1	-101.28	uncorrelated	51514b8	2022-04-11@10:56
