Number of OpenMP threads = 4
!!!!!!!!!!!!!!!!!!!!!!!!!!!!! - Fading to YBa2Cu3O7 - !!!!!!!!!!!!!!!!!!!!!!!!!!!!!
reading data file /home/theod/code_pyqcm/simulations/winning_fade/Sr_starting_state.tsv, line 1
101 columns read
----->  D  =  0.0
----->  U  =  14.0
----->  e  =  3.1695
----->  eb1_1  =  0.0018966178
----->  eb2_1  =  -3.1022638
----->  eb3_1  =  -3.6869349
----->  eb4_1  =  -0.10868969
----->  eb5_1  =  -3.686944
----->  eb6_1  =  -0.10869079
----->  eb7_1  =  0.14780046
----->  eb8_1  =  -3.2464716
----->  mu  =  9.8
----->  sb1_1  =  -3.6500554e-05
----->  sb2_1  =  -6.7538764e-06
----->  sb3_1  =  0.0094399223
----->  sb4_1  =  -0.17253352
----->  sb5_1  =  0.0094394611
----->  sb6_1  =  -0.17253362
----->  sb7_1  =  3.636482e-06
----->  sb8_1  =  8.7254376e-06
----->  tb1_1  =  -0.1122816
----->  tb2_1  =  -1.0480638
----->  tb3_1  =  1.635789
----->  tb4_1  =  0.042537516
----->  tb5_1  =  -1.6357909
----->  tb6_1  =  -0.04253608
----->  tb7_1  =  0.24121687
----->  tb8_1  =  -2.1549857
----->  tpd  =  1.9492
----->  tpp  =  1.0
----->  tppp  =  0.2373

******************************* CDMFT procedure *******************************

minimization method =  CG
mixing state =  1
frequency grid type =  sharp
fictitious inverse temperature =  50
frequency cutoff =  2.0
--------------------------------------------------------------------------------

CDMFT iteration 1, distance =  1.28e+02, diff param =  2.36e-04
7 minimization steps, time(MIN)/time(ED)=0.00085
====================== CDMFT converged on the parameters ======================
sb1_1     = -0.0000	sb2_1     = -0.0000	sb3_1     =  0.0093	sb4_1     = -0.1725	sb5_1     =  0.0093	
sb6_1     = -0.1725	sb7_1     = -0.0000	sb8_1     = -0.0000	eb1_1     =  0.0023	eb2_1     = -3.1023	
eb3_1     = -3.6869	eb4_1     = -0.1083	eb5_1     = -3.6869	eb6_1     = -0.1083	eb7_1     =  0.1473	
eb8_1     = -3.2467	tb1_1     = -0.1123	tb2_1     = -1.0480	tb3_1     =  1.6357	tb4_1     =  0.0420	
tb5_1     = -1.6357	tb6_1     = -0.0420	tb7_1     =  0.2411	tb8_1     = -2.1550	
   <D> = 0.013238
   <e> = 1.255704
   <mu> = 1.618027
   <tpd> = -0.590666
   <tpp> = -0.195990
   <tppp> = 0.080027
************************* CDMFT completed successfully *************************

******************************* CDMFT procedure *******************************

minimization method =  CG
mixing state =  1
frequency grid type =  sharp
fictitious inverse temperature =  50
frequency cutoff =  2.0
--------------------------------------------------------------------------------

CDMFT iteration 1, distance =  1.28e+02, diff param =  8.55e-04
14 minimization steps, time(MIN)/time(ED)=0.00039
====================== CDMFT converged on the parameters ======================
sb1_1     = -0.0000	sb2_1     =  0.0000	sb3_1     =  0.0092	sb4_1     = -0.1718	sb5_1     =  0.0092	
sb6_1     = -0.1718	sb7_1     = -0.0000	sb8_1     = -0.0000	eb1_1     =  0.0021	eb2_1     = -3.1026	
eb3_1     = -3.6874	eb4_1     = -0.1075	eb5_1     = -3.6874	eb6_1     = -0.1075	eb7_1     =  0.1467	
eb8_1     = -3.2486	tb1_1     = -0.1120	tb2_1     = -1.0469	tb3_1     =  1.6341	tb4_1     =  0.0419	
tb5_1     = -1.6341	tb6_1     = -0.0419	tb7_1     =  0.2404	tb8_1     = -2.1531	
   <D> = 0.013218
   <e> = 1.255932
   <mu> = 1.618353
   <tpd> = -0.589753
   <tpp> = -0.195469
   <tppp> = 0.079835
************************* CDMFT completed successfully *************************

******************************* CDMFT procedure *******************************

minimization method =  CG
mixing state =  1
frequency grid type =  sharp
fictitious inverse temperature =  50
frequency cutoff =  2.0
--------------------------------------------------------------------------------

CDMFT iteration 1, distance =  1.27e+02, diff param =  1.07e-03
19 minimization steps, time(MIN)/time(ED)=0.00046
sb1_1     = -0.0000	sb2_1     =  0.0000	sb3_1     =  0.0093	sb4_1     = -0.1705	sb5_1     =  0.0093	
sb6_1     = -0.1705	sb7_1     = -0.0000	sb8_1     = -0.0000	eb1_1     =  0.0013	eb2_1     = -3.1036	
eb3_1     = -3.6884	eb4_1     = -0.1062	eb5_1     = -3.6884	eb6_1     = -0.1062	eb7_1     =  0.1455	
eb8_1     = -3.2513	tb1_1     = -0.1116	tb2_1     = -1.0462	tb3_1     =  1.6328	tb4_1     =  0.0425	
tb5_1     = -1.6328	tb6_1     = -0.0425	tb7_1     =  0.2390	tb8_1     = -2.1519	

CDMFT iteration 2, distance =  1.26e+02, diff param =  4.09e-04, diff hybrid =  4.56e-03
8 minimization steps, time(MIN)/time(ED)=0.00036
====================== CDMFT converged on the parameters ======================
sb1_1     = -0.0000	sb2_1     =  0.0000	sb3_1     =  0.0094	sb4_1     = -0.1699	sb5_1     =  0.0094	
sb6_1     = -0.1699	sb7_1     = -0.0000	sb8_1     = -0.0000	eb1_1     =  0.0011	eb2_1     = -3.1038	
eb3_1     = -3.6885	eb4_1     = -0.1055	eb5_1     = -3.6885	eb6_1     = -0.1055	eb7_1     =  0.1447	
eb8_1     = -3.2513	tb1_1     = -0.1115	tb2_1     = -1.0463	tb3_1     =  1.6331	tb4_1     =  0.0430	
tb5_1     = -1.6331	tb6_1     = -0.0430	tb7_1     =  0.2382	tb8_1     = -2.1523	
   <D> = 0.013171
   <e> = 1.256617
   <mu> = 1.619077
   <tpd> = -0.587277
   <tpp> = -0.193739
   <tppp> = 0.079180
************************* CDMFT completed successfully *************************

******************************* CDMFT procedure *******************************

minimization method =  CG
mixing state =  1
frequency grid type =  sharp
fictitious inverse temperature =  50
frequency cutoff =  2.0
--------------------------------------------------------------------------------

CDMFT iteration 1, distance =  1.26e+02, diff param =  9.20e-04
14 minimization steps, time(MIN)/time(ED)=0.00036
====================== CDMFT converged on the parameters ======================
sb1_1     = -0.0000	sb2_1     =  0.0000	sb3_1     =  0.0092	sb4_1     = -0.1695	sb5_1     =  0.0092	
sb6_1     = -0.1695	sb7_1     = -0.0000	sb8_1     = -0.0000	eb1_1     =  0.0012	eb2_1     = -3.1048	
eb3_1     = -3.6895	eb4_1     = -0.1045	eb5_1     = -3.6895	eb6_1     = -0.1045	eb7_1     =  0.1439	
eb8_1     = -3.2527	tb1_1     = -0.1113	tb2_1     = -1.0452	tb3_1     =  1.6313	tb4_1     =  0.0427	
tb5_1     = -1.6313	tb6_1     = -0.0427	tb7_1     =  0.2378	tb8_1     = -2.1500	
   <D> = 0.013249
   <e> = 1.256745
   <mu> = 1.619371
   <tpd> = -0.586601
   <tpp> = -0.193548
   <tppp> = 0.079099
************************* CDMFT completed successfully *************************

******************************* CDMFT procedure *******************************

minimization method =  CG
mixing state =  1
frequency grid type =  sharp
fictitious inverse temperature =  50
frequency cutoff =  2.0
--------------------------------------------------------------------------------

CDMFT iteration 1, distance =  1.25e+02, diff param =  3.48e-03
39 minimization steps, time(MIN)/time(ED)=0.00088
sb1_1     = -0.0000	sb2_1     =  0.0000	sb3_1     =  0.0093	sb4_1     = -0.1685	sb5_1     =  0.0093	
sb6_1     = -0.1685	sb7_1     =  0.0000	sb8_1     =  0.0000	eb1_1     =  0.0006	eb2_1     = -3.1167	
eb3_1     = -3.6973	eb4_1     = -0.1040	eb5_1     = -3.6973	eb6_1     = -0.1040	eb7_1     =  0.1430	
eb8_1     = -3.2570	tb1_1     = -0.1110	tb2_1     = -1.0461	tb3_1     =  1.6315	tb4_1     =  0.0431	
tb5_1     = -1.6315	tb6_1     = -0.0431	tb7_1     =  0.2366	tb8_1     = -2.1493	

CDMFT iteration 2, distance =  1.23e+02, diff param =  6.22e-04, diff hybrid =  4.61e-03
12 minimization steps, time(MIN)/time(ED)=0.00060
====================== CDMFT converged on the parameters ======================
sb1_1     = -0.0000	sb2_1     = -0.0000	sb3_1     =  0.0094	sb4_1     = -0.1676	sb5_1     =  0.0094	
sb6_1     = -0.1676	sb7_1     = -0.0000	sb8_1     = -0.0000	eb1_1     = -0.0003	eb2_1     = -3.1170	
eb3_1     = -3.6973	eb4_1     = -0.1032	eb5_1     = -3.6973	eb6_1     = -0.1032	eb7_1     =  0.1421	
eb8_1     = -3.2562	tb1_1     = -0.1109	tb2_1     = -1.0463	tb3_1     =  1.6319	tb4_1     =  0.0442	
tb5_1     = -1.6319	tb6_1     = -0.0442	tb7_1     =  0.2354	tb8_1     = -2.1496	
   <D> = 0.013148
   <e> = 1.257508
   <mu> = 1.620154
   <tpd> = -0.583886
   <tpp> = -0.191557
   <tppp> = 0.078355
************************* CDMFT completed successfully *************************

******************************* CDMFT procedure *******************************

minimization method =  CG
mixing state =  1
frequency grid type =  sharp
fictitious inverse temperature =  50
frequency cutoff =  2.0
--------------------------------------------------------------------------------

CDMFT iteration 1, distance =  1.23e+02, diff param =  9.43e-04
10 minimization steps, time(MIN)/time(ED)=0.00030
====================== CDMFT converged on the parameters ======================
sb1_1     = -0.0000	sb2_1     =  0.0000	sb3_1     =  0.0093	sb4_1     = -0.1672	sb5_1     =  0.0093	
sb6_1     = -0.1672	sb7_1     =  0.0000	sb8_1     =  0.0000	eb1_1     =  0.0001	eb2_1     = -3.1175	
eb3_1     = -3.6978	eb4_1     = -0.1021	eb5_1     = -3.6978	eb6_1     = -0.1021	eb7_1     =  0.1407	
eb8_1     = -3.2571	tb1_1     = -0.1107	tb2_1     = -1.0453	tb3_1     =  1.6301	tb4_1     =  0.0438	
tb5_1     = -1.6301	tb6_1     = -0.0438	tb7_1     =  0.2350	tb8_1     = -2.1471	
   <D> = 0.013264
   <e> = 1.257601
   <mu> = 1.620453
   <tpd> = -0.583271
   <tpp> = -0.191497
   <tppp> = 0.078316
************************* CDMFT completed successfully *************************

******************************* CDMFT procedure *******************************

minimization method =  CG
mixing state =  1
frequency grid type =  sharp
fictitious inverse temperature =  50
frequency cutoff =  2.0
--------------------------------------------------------------------------------

CDMFT iteration 1, distance =  1.22e+02, diff param =  3.14e-03
48 minimization steps, time(MIN)/time(ED)=0.00108
sb1_1     = -0.0000	sb2_1     = -0.0000	sb3_1     =  0.0093	sb4_1     = -0.1662	sb5_1     =  0.0093	
sb6_1     = -0.1662	sb7_1     = -0.0000	sb8_1     =  0.0000	eb1_1     = -0.0005	eb2_1     = -3.1305	
eb3_1     = -3.7030	eb4_1     = -0.1013	eb5_1     = -3.7030	eb6_1     = -0.1014	eb7_1     =  0.1399	
eb8_1     = -3.2590	tb1_1     = -0.1104	tb2_1     = -1.0461	tb3_1     =  1.6296	tb4_1     =  0.0440	
tb5_1     = -1.6296	tb6_1     = -0.0440	tb7_1     =  0.2337	tb8_1     = -2.1456	

CDMFT iteration 2, distance =  1.21e+02, diff param =  5.43e-04, diff hybrid =  4.68e-03
9 minimization steps, time(MIN)/time(ED)=0.00068
====================== CDMFT converged on the parameters ======================
sb1_1     = -0.0000	sb2_1     =  0.0000	sb3_1     =  0.0094	sb4_1     = -0.1653	sb5_1     =  0.0094	
sb6_1     = -0.1653	sb7_1     =  0.0000	sb8_1     = -0.0000	eb1_1     = -0.0012	eb2_1     = -3.1307	
eb3_1     = -3.7029	eb4_1     = -0.1006	eb5_1     = -3.7029	eb6_1     = -0.1006	eb7_1     =  0.1389	
eb8_1     = -3.2589	tb1_1     = -0.1103	tb2_1     = -1.0464	tb3_1     =  1.6300	tb4_1     =  0.0448	
tb5_1     = -1.6300	tb6_1     = -0.0448	tb7_1     =  0.2326	tb8_1     = -2.1461	
   <D> = 0.013146
   <e> = 1.258319
   <mu> = 1.621144
   <tpd> = -0.580738
   <tpp> = -0.189607
   <tppp> = 0.077614
************************* CDMFT completed successfully *************************

******************************* CDMFT procedure *******************************

minimization method =  CG
mixing state =  1
frequency grid type =  sharp
fictitious inverse temperature =  50
frequency cutoff =  2.0
--------------------------------------------------------------------------------

CDMFT iteration 1, distance =  1.21e+02, diff param =  9.42e-04
15 minimization steps, time(MIN)/time(ED)=0.00038
====================== CDMFT converged on the parameters ======================
sb1_1     = -0.0000	sb2_1     = -0.0000	sb3_1     =  0.0093	sb4_1     = -0.1649	sb5_1     =  0.0093	
sb6_1     = -0.1649	sb7_1     = -0.0000	sb8_1     =  0.0000	eb1_1     = -0.0011	eb2_1     = -3.1314	
eb3_1     = -3.7035	eb4_1     = -0.0994	eb5_1     = -3.7035	eb6_1     = -0.0994	eb7_1     =  0.1377	
eb8_1     = -3.2600	tb1_1     = -0.1101	tb2_1     = -1.0453	tb3_1     =  1.6282	tb4_1     =  0.0445	
tb5_1     = -1.6282	tb6_1     = -0.0445	tb7_1     =  0.2321	tb8_1     = -2.1438	
   <D> = 0.013230
   <e> = 1.258441
   <mu> = 1.621462
   <tpd> = -0.580042
   <tpp> = -0.189455
   <tppp> = 0.077542
************************* CDMFT completed successfully *************************

******************************* CDMFT procedure *******************************

minimization method =  CG
mixing state =  1
frequency grid type =  sharp
fictitious inverse temperature =  50
frequency cutoff =  2.0
--------------------------------------------------------------------------------

CDMFT iteration 1, distance =  1.20e+02, diff param =  1.60e-03
36 minimization steps, time(MIN)/time(ED)=0.00083
sb1_1     = -0.0000	sb2_1     =  0.0000	sb3_1     =  0.0092	sb4_1     = -0.1638	sb5_1     =  0.0092	
sb6_1     = -0.1638	sb7_1     =  0.0000	sb8_1     =  0.0000	eb1_1     = -0.0015	eb2_1     = -3.1367	
eb3_1     = -3.7062	eb4_1     = -0.0986	eb5_1     = -3.7062	eb6_1     = -0.0986	eb7_1     =  0.1368	
eb8_1     = -3.2630	tb1_1     = -0.1097	tb2_1     = -1.0451	tb3_1     =  1.6273	tb4_1     =  0.0446	
tb5_1     = -1.6273	tb6_1     = -0.0446	tb7_1     =  0.2309	tb8_1     = -2.1425	

CDMFT iteration 2, distance =  1.19e+02, diff param =  6.44e-04, diff hybrid =  4.60e-03
15 minimization steps, time(MIN)/time(ED)=0.00060
====================== CDMFT converged on the parameters ======================
sb1_1     = -0.0000	sb2_1     =  0.0000	sb3_1     =  0.0094	sb4_1     = -0.1628	sb5_1     =  0.0094	
sb6_1     = -0.1628	sb7_1     = -0.0000	sb8_1     = -0.0000	eb1_1     = -0.0023	eb2_1     = -3.1378	
eb3_1     = -3.7066	eb4_1     = -0.0978	eb5_1     = -3.7066	eb6_1     = -0.0979	eb7_1     =  0.1361	
eb8_1     = -3.2626	tb1_1     = -0.1096	tb2_1     = -1.0455	tb3_1     =  1.6276	tb4_1     =  0.0456	
tb5_1     = -1.6276	tb6_1     = -0.0456	tb7_1     =  0.2298	tb8_1     = -2.1430	
   <D> = 0.013106
   <e> = 1.259150
   <mu> = 1.622140
   <tpd> = -0.577547
   <tpp> = -0.187581
   <tppp> = 0.076845
************************* CDMFT completed successfully *************************

******************************* CDMFT procedure *******************************

minimization method =  CG
mixing state =  1
frequency grid type =  sharp
fictitious inverse temperature =  50
frequency cutoff =  2.0
--------------------------------------------------------------------------------

CDMFT iteration 1, distance =  1.19e+02, diff param =  1.96e-03
42 minimization steps, time(MIN)/time(ED)=0.00099
sb1_1     = -0.0000	sb2_1     =  0.0000	sb3_1     =  0.0092	sb4_1     = -0.1625	sb5_1     =  0.0092	
sb6_1     = -0.1625	sb7_1     = -0.0000	sb8_1     = -0.0000	eb1_1     = -0.0021	eb2_1     = -3.1454	
eb3_1     = -3.7095	eb4_1     = -0.0967	eb5_1     = -3.7095	eb6_1     = -0.0967	eb7_1     =  0.1346	
eb8_1     = -3.2639	tb1_1     = -0.1095	tb2_1     = -1.0454	tb3_1     =  1.6263	tb4_1     =  0.0452	
tb5_1     = -1.6263	tb6_1     = -0.0451	tb7_1     =  0.2293	tb8_1     = -2.1406	

CDMFT iteration 2, distance =  1.18e+02, diff param =  9.35e-04, diff hybrid =  5.92e-03
21 minimization steps, time(MIN)/time(ED)=0.00075
====================== CDMFT converged on the parameters ======================
sb1_1     = -0.0000	sb2_1     =  0.0000	sb3_1     =  0.0092	sb4_1     = -0.1620	sb5_1     =  0.0092	
sb6_1     = -0.1620	sb7_1     = -0.0000	sb8_1     =  0.0000	eb1_1     = -0.0024	eb2_1     = -3.1492	
eb3_1     = -3.7108	eb4_1     = -0.0966	eb5_1     = -3.7108	eb6_1     = -0.0966	eb7_1     =  0.1345	
eb8_1     = -3.2647	tb1_1     = -0.1093	tb2_1     = -1.0461	tb3_1     =  1.6269	tb4_1     =  0.0452	
tb5_1     = -1.6269	tb6_1     = -0.0452	tb7_1     =  0.2287	tb8_1     = -2.1413	
   <D> = 0.013124
   <e> = 1.259468
   <mu> = 1.622530
   <tpd> = -0.576243
   <tpp> = -0.186847
   <tppp> = 0.076563
************************* CDMFT completed successfully *************************

******************************* CDMFT procedure *******************************

minimization method =  CG
mixing state =  1
frequency grid type =  sharp
fictitious inverse temperature =  50
frequency cutoff =  2.0
--------------------------------------------------------------------------------

CDMFT iteration 1, distance =  1.18e+02, diff param =  9.95e-04
24 minimization steps, time(MIN)/time(ED)=0.00054
====================== CDMFT converged on the parameters ======================
sb1_1     = -0.0000	sb2_1     = -0.0000	sb3_1     =  0.0092	sb4_1     = -0.1613	sb5_1     =  0.0092	
sb6_1     = -0.1613	sb7_1     = -0.0000	sb8_1     = -0.0000	eb1_1     = -0.0029	eb2_1     = -3.1514	
eb3_1     = -3.7119	eb4_1     = -0.0956	eb5_1     = -3.7119	eb6_1     = -0.0956	eb7_1     =  0.1333	
eb8_1     = -3.2660	tb1_1     = -0.1091	tb2_1     = -1.0453	tb3_1     =  1.6254	tb4_1     =  0.0455	
tb5_1     = -1.6254	tb6_1     = -0.0455	tb7_1     =  0.2277	tb8_1     = -2.1392	
   <D> = 0.013126
   <e> = 1.259717
   <mu> = 1.622961
   <tpd> = -0.575165
   <tpp> = -0.186306
   <tppp> = 0.076353
************************* CDMFT completed successfully *************************

******************************* CDMFT procedure *******************************

minimization method =  CG
mixing state =  1
frequency grid type =  sharp
fictitious inverse temperature =  50
frequency cutoff =  2.0
--------------------------------------------------------------------------------

CDMFT iteration 1, distance =  1.17e+02, diff param =  2.53e-03
31 minimization steps, time(MIN)/time(ED)=0.00072
sb1_1     =  0.0000	sb2_1     = -0.0000	sb3_1     =  0.0092	sb4_1     = -0.1601	sb5_1     =  0.0092	
sb6_1     = -0.1601	sb7_1     = -0.0000	sb8_1     = -0.0000	eb1_1     = -0.0035	eb2_1     = -3.1606	
eb3_1     = -3.7166	eb4_1     = -0.0946	eb5_1     = -3.7166	eb6_1     = -0.0946	eb7_1     =  0.1321	
eb8_1     = -3.2696	tb1_1     = -0.1088	tb2_1     = -1.0456	tb3_1     =  1.6249	tb4_1     =  0.0458	
tb5_1     = -1.6249	tb6_1     = -0.0458	tb7_1     =  0.2264	tb8_1     = -2.1382	

CDMFT iteration 2, distance =  1.16e+02, diff param =  5.66e-04, diff hybrid =  4.66e-03
14 minimization steps, time(MIN)/time(ED)=0.00053
====================== CDMFT converged on the parameters ======================
sb1_1     =  0.0000	sb2_1     =  0.0000	sb3_1     =  0.0093	sb4_1     = -0.1593	sb5_1     =  0.0093	
sb6_1     = -0.1593	sb7_1     = -0.0000	sb8_1     =  0.0000	eb1_1     = -0.0041	eb2_1     = -3.1611	
eb3_1     = -3.7167	eb4_1     = -0.0938	eb5_1     = -3.7167	eb6_1     = -0.0938	eb7_1     =  0.1312	
eb8_1     = -3.2686	tb1_1     = -0.1087	tb2_1     = -1.0459	tb3_1     =  1.6252	tb4_1     =  0.0465	
tb5_1     = -1.6252	tb6_1     = -0.0465	tb7_1     =  0.2254	tb8_1     = -2.1384	
   <D> = 0.013037
   <e> = 1.260399
   <mu> = 1.623682
   <tpd> = -0.572663
   <tpp> = -0.184547
   <tppp> = 0.075692
************************* CDMFT completed successfully *************************

******************************* CDMFT procedure *******************************

minimization method =  CG
mixing state =  1
frequency grid type =  sharp
fictitious inverse temperature =  50
frequency cutoff =  2.0
--------------------------------------------------------------------------------

CDMFT iteration 1, distance =  1.15e+02, diff param =  1.11e-03
22 minimization steps, time(MIN)/time(ED)=0.00054
sb1_1     =  0.0000	sb2_1     =  0.0000	sb3_1     =  0.0091	sb4_1     = -0.1589	sb5_1     =  0.0091	
sb6_1     = -0.1589	sb7_1     =  0.0000	sb8_1     = -0.0000	eb1_1     = -0.0040	eb2_1     = -3.1640	
eb3_1     = -3.7179	eb4_1     = -0.0927	eb5_1     = -3.7179	eb6_1     = -0.0927	eb7_1     =  0.1297	
eb8_1     = -3.2691	tb1_1     = -0.1085	tb2_1     = -1.0450	tb3_1     =  1.6235	tb4_1     =  0.0460	
tb5_1     = -1.6235	tb6_1     = -0.0460	tb7_1     =  0.2248	tb8_1     = -2.1358	

CDMFT iteration 2, distance =  1.15e+02, diff param =  9.41e-04, diff hybrid =  5.83e-03
19 minimization steps, time(MIN)/time(ED)=0.00049
====================== CDMFT converged on the parameters ======================
sb1_1     =  0.0000	sb2_1     = -0.0000	sb3_1     =  0.0091	sb4_1     = -0.1584	sb5_1     =  0.0091	
sb6_1     = -0.1584	sb7_1     = -0.0000	sb8_1     =  0.0000	eb1_1     = -0.0042	eb2_1     = -3.1678	
eb3_1     = -3.7192	eb4_1     = -0.0924	eb5_1     = -3.7192	eb6_1     = -0.0924	eb7_1     =  0.1295	
eb8_1     = -3.2699	tb1_1     = -0.1083	tb2_1     = -1.0458	tb3_1     =  1.6241	tb4_1     =  0.0461	
tb5_1     = -1.6241	tb6_1     = -0.0461	tb7_1     =  0.2241	tb8_1     = -2.1365	
   <D> = 0.013025
   <e> = 1.260721
   <mu> = 1.624049
   <tpd> = -0.571378
   <tpp> = -0.183778
   <tppp> = 0.075399
************************* CDMFT completed successfully *************************

******************************* CDMFT procedure *******************************

minimization method =  CG
mixing state =  1
frequency grid type =  sharp
fictitious inverse temperature =  50
frequency cutoff =  2.0
--------------------------------------------------------------------------------

CDMFT iteration 1, distance =  1.14e+02, diff param =  1.99e-03
43 minimization steps, time(MIN)/time(ED)=0.00099
sb1_1     = -0.0000	sb2_1     =  0.0000	sb3_1     =  0.0091	sb4_1     = -0.1576	sb5_1     =  0.0091	
sb6_1     = -0.1576	sb7_1     = -0.0000	sb8_1     = -0.0000	eb1_1     = -0.0047	eb2_1     = -3.1759	
eb3_1     = -3.7220	eb4_1     = -0.0916	eb5_1     = -3.7220	eb6_1     = -0.0916	eb7_1     =  0.1284	
eb8_1     = -3.2712	tb1_1     = -0.1082	tb2_1     = -1.0458	tb3_1     =  1.6229	tb4_1     =  0.0464	
tb5_1     = -1.6229	tb6_1     = -0.0464	tb7_1     =  0.2232	tb8_1     = -2.1344	

CDMFT iteration 2, distance =  1.13e+02, diff param =  3.93e-04, diff hybrid =  5.08e-03
12 minimization steps, time(MIN)/time(ED)=0.00063
====================== CDMFT converged on the parameters ======================
sb1_1     =  0.0000	sb2_1     =  0.0000	sb3_1     =  0.0091	sb4_1     = -0.1570	sb5_1     =  0.0091	
sb6_1     = -0.1570	sb7_1     =  0.0000	sb8_1     =  0.0000	eb1_1     = -0.0051	eb2_1     = -3.1762	
eb3_1     = -3.7221	eb4_1     = -0.0910	eb5_1     = -3.7221	eb6_1     = -0.0910	eb7_1     =  0.1276	
eb8_1     = -3.2711	tb1_1     = -0.1080	tb2_1     = -1.0461	tb3_1     =  1.6232	tb4_1     =  0.0467	
tb5_1     = -1.6232	tb6_1     = -0.0467	tb7_1     =  0.2223	tb8_1     = -2.1348	
   <D> = 0.012969
   <e> = 1.261191
   <mu> = 1.624637
   <tpd> = -0.569555
   <tpp> = -0.182619
   <tppp> = 0.074960
************************* CDMFT completed successfully *************************

******************************* CDMFT procedure *******************************

minimization method =  CG
mixing state =  1
frequency grid type =  sharp
fictitious inverse temperature =  50
frequency cutoff =  2.0
--------------------------------------------------------------------------------

CDMFT iteration 1, distance =  1.13e+02, diff param =  1.50e-03
24 minimization steps, time(MIN)/time(ED)=0.00054
sb1_1     = -0.0000	sb2_1     = -0.0000	sb3_1     =  0.0090	sb4_1     = -0.1565	sb5_1     =  0.0090	
sb6_1     = -0.1565	sb7_1     = -0.0000	sb8_1     =  0.0000	eb1_1     = -0.0052	eb2_1     = -3.1814	
eb3_1     = -3.7243	eb4_1     = -0.0900	eb5_1     = -3.7243	eb6_1     = -0.0900	eb7_1     =  0.1265	
eb8_1     = -3.2734	tb1_1     = -0.1079	tb2_1     = -1.0456	tb3_1     =  1.6218	tb4_1     =  0.0465	
tb5_1     = -1.6218	tb6_1     = -0.0465	tb7_1     =  0.2217	tb8_1     = -2.1329	

CDMFT iteration 2, distance =  1.12e+02, diff param =  3.49e-04, diff hybrid =  5.44e-03
9 minimization steps, time(MIN)/time(ED)=0.00041
====================== CDMFT converged on the parameters ======================
sb1_1     = -0.0000	sb2_1     =  0.0000	sb3_1     =  0.0090	sb4_1     = -0.1558	sb5_1     =  0.0090	
sb6_1     = -0.1558	sb7_1     =  0.0000	sb8_1     =  0.0000	eb1_1     = -0.0056	eb2_1     = -3.1818	
eb3_1     = -3.7244	eb4_1     = -0.0897	eb5_1     = -3.7244	eb6_1     = -0.0897	eb7_1     =  0.1260	
eb8_1     = -3.2732	tb1_1     = -0.1077	tb2_1     = -1.0459	tb3_1     =  1.6221	tb4_1     =  0.0468	
tb5_1     = -1.6221	tb6_1     = -0.0468	tb7_1     =  0.2209	tb8_1     = -2.1333	
   <D> = 0.012932
   <e> = 1.261587
   <mu> = 1.625106
   <tpd> = -0.568011
   <tpp> = -0.181645
   <tppp> = 0.074593
************************* CDMFT completed successfully *************************

******************************* CDMFT procedure *******************************

minimization method =  CG
mixing state =  1
frequency grid type =  sharp
fictitious inverse temperature =  50
frequency cutoff =  2.0
--------------------------------------------------------------------------------

CDMFT iteration 1, distance =  1.12e+02, diff param =  9.01e-04
12 minimization steps, time(MIN)/time(ED)=0.00030
====================== CDMFT converged on the parameters ======================
sb1_1     = -0.0000	sb2_1     =  0.0000	sb3_1     =  0.0090	sb4_1     = -0.1551	sb5_1     =  0.0090	
sb6_1     = -0.1551	sb7_1     = -0.0000	sb8_1     = -0.0000	eb1_1     = -0.0059	eb2_1     = -3.1825	
eb3_1     = -3.7251	eb4_1     = -0.0886	eb5_1     = -3.7251	eb6_1     = -0.0886	eb7_1     =  0.1248	
eb8_1     = -3.2743	tb1_1     = -0.1075	tb2_1     = -1.0448	tb3_1     =  1.6205	tb4_1     =  0.0469	
tb5_1     = -1.6205	tb6_1     = -0.0469	tb7_1     =  0.2200	tb8_1     = -2.1310	
   <D> = 0.012943
   <e> = 1.261802
   <mu> = 1.625496
   <tpd> = -0.567037
   <tpp> = -0.181195
   <tppp> = 0.074417
************************* CDMFT completed successfully *************************

******************************* CDMFT procedure *******************************

minimization method =  CG
mixing state =  1
frequency grid type =  sharp
fictitious inverse temperature =  50
frequency cutoff =  2.0
--------------------------------------------------------------------------------

CDMFT iteration 1, distance =  1.11e+02, diff param =  3.70e-03
41 minimization steps, time(MIN)/time(ED)=0.00095
sb1_1     =  0.0000	sb2_1     = -0.0000	sb3_1     =  0.0090	sb4_1     = -0.1541	sb5_1     =  0.0090	
sb6_1     = -0.1541	sb7_1     =  0.0000	sb8_1     =  0.0000	eb1_1     = -0.0067	eb2_1     = -3.1969	
eb3_1     = -3.7323	eb4_1     = -0.0878	eb5_1     = -3.7323	eb6_1     = -0.0878	eb7_1     =  0.1235	
eb8_1     = -3.2767	tb1_1     = -0.1072	tb2_1     = -1.0459	tb3_1     =  1.6204	tb4_1     =  0.0472	
tb5_1     = -1.6204	tb6_1     = -0.0472	tb7_1     =  0.2186	tb8_1     = -2.1296	

CDMFT iteration 2, distance =  1.10e+02, diff param =  7.12e-04, diff hybrid =  4.69e-03
21 minimization steps, time(MIN)/time(ED)=0.00072
====================== CDMFT converged on the parameters ======================
sb1_1     = -0.0000	sb2_1     = -0.0000	sb3_1     =  0.0090	sb4_1     = -0.1531	sb5_1     =  0.0090	
sb6_1     = -0.1531	sb7_1     = -0.0000	sb8_1     = -0.0000	eb1_1     = -0.0075	eb2_1     = -3.1987	
eb3_1     = -3.7323	eb4_1     = -0.0870	eb5_1     = -3.7323	eb6_1     = -0.0870	eb7_1     =  0.1223	
eb8_1     = -3.2758	tb1_1     = -0.1071	tb2_1     = -1.0464	tb3_1     =  1.6208	tb4_1     =  0.0479	
tb5_1     = -1.6208	tb6_1     = -0.0479	tb7_1     =  0.2173	tb8_1     = -2.1299	
   <D> = 0.012817
   <e> = 1.262500
   <mu> = 1.626221
   <tpd> = -0.564483
   <tpp> = -0.179368
   <tppp> = 0.073733
************************* CDMFT completed successfully *************************

******************************* CDMFT procedure *******************************

minimization method =  CG
mixing state =  1
frequency grid type =  sharp
fictitious inverse temperature =  50
frequency cutoff =  2.0
--------------------------------------------------------------------------------

CDMFT iteration 1, distance =  1.10e+02, diff param =  9.73e-04
14 minimization steps, time(MIN)/time(ED)=0.00031
====================== CDMFT converged on the parameters ======================
sb1_1     =  0.0000	sb2_1     =  0.0000	sb3_1     =  0.0089	sb4_1     = -0.1527	sb5_1     =  0.0089	
sb6_1     = -0.1527	sb7_1     =  0.0000	sb8_1     = -0.0000	eb1_1     = -0.0072	eb2_1     = -3.1995	
eb3_1     = -3.7329	eb4_1     = -0.0857	eb5_1     = -3.7329	eb6_1     = -0.0857	eb7_1     =  0.1210	
eb8_1     = -3.2770	tb1_1     = -0.1069	tb2_1     = -1.0453	tb3_1     =  1.6190	tb4_1     =  0.0474	
tb5_1     = -1.6190	tb6_1     = -0.0474	tb7_1     =  0.2168	tb8_1     = -2.1276	
   <D> = 0.012873
   <e> = 1.262623
   <mu> = 1.626529
   <tpd> = -0.563769
   <tpp> = -0.179204
   <tppp> = 0.073658
************************* CDMFT completed successfully *************************

******************************* CDMFT procedure *******************************

minimization method =  CG
mixing state =  1
frequency grid type =  sharp
fictitious inverse temperature =  50
frequency cutoff =  2.0
--------------------------------------------------------------------------------

CDMFT iteration 1, distance =  1.09e+02, diff param =  3.24e-03
36 minimization steps, time(MIN)/time(ED)=0.00082
sb1_1     = -0.0000	sb2_1     =  0.0000	sb3_1     =  0.0088	sb4_1     = -0.1517	sb5_1     =  0.0088	
sb6_1     = -0.1517	sb7_1     = -0.0000	sb8_1     = -0.0000	eb1_1     = -0.0079	eb2_1     = -3.2126	
eb3_1     = -3.7386	eb4_1     = -0.0851	eb5_1     = -3.7386	eb6_1     = -0.0851	eb7_1     =  0.1199	
eb8_1     = -3.2800	tb1_1     = -0.1066	tb2_1     = -1.0461	tb3_1     =  1.6186	tb4_1     =  0.0475	
tb5_1     = -1.6186	tb6_1     = -0.0475	tb7_1     =  0.2154	tb8_1     = -2.1263	

CDMFT iteration 2, distance =  1.07e+02, diff param =  6.71e-04, diff hybrid =  4.71e-03
10 minimization steps, time(MIN)/time(ED)=0.00055
====================== CDMFT converged on the parameters ======================
sb1_1     = -0.0000	sb2_1     =  0.0000	sb3_1     =  0.0089	sb4_1     = -0.1506	sb5_1     =  0.0089	
sb6_1     = -0.1506	sb7_1     =  0.0000	sb8_1     =  0.0000	eb1_1     = -0.0090	eb2_1     = -3.2128	
eb3_1     = -3.7386	eb4_1     = -0.0845	eb5_1     = -3.7386	eb6_1     = -0.0845	eb7_1     =  0.1188	
eb8_1     = -3.2798	tb1_1     = -0.1064	tb2_1     = -1.0464	tb3_1     =  1.6191	tb4_1     =  0.0485	
tb5_1     = -1.6191	tb6_1     = -0.0485	tb7_1     =  0.2140	tb8_1     = -2.1269	
   <D> = 0.012694
   <e> = 1.263361
   <mu> = 1.627250
   <tpd> = -0.561138
   <tpp> = -0.177215
   <tppp> = 0.072922
************************* CDMFT completed successfully *************************

******************************* CDMFT procedure *******************************

minimization method =  CG
mixing state =  1
frequency grid type =  sharp
fictitious inverse temperature =  50
frequency cutoff =  2.0
--------------------------------------------------------------------------------

CDMFT iteration 1, distance =  1.07e+02, diff param =  1.00e-03
14 minimization steps, time(MIN)/time(ED)=0.00033
sb1_1     = -0.0000	sb2_1     = -0.0000	sb3_1     =  0.0088	sb4_1     = -0.1501	sb5_1     =  0.0088	
sb6_1     = -0.1501	sb7_1     = -0.0000	sb8_1     =  0.0000	eb1_1     = -0.0088	eb2_1     = -3.2136	
eb3_1     = -3.7391	eb4_1     = -0.0830	eb5_1     = -3.7391	eb6_1     = -0.0830	eb7_1     =  0.1171	
eb8_1     = -3.2807	tb1_1     = -0.1063	tb2_1     = -1.0453	tb3_1     =  1.6172	tb4_1     =  0.0481	
tb5_1     = -1.6172	tb6_1     = -0.0481	tb7_1     =  0.2133	tb8_1     = -2.1244	

CDMFT iteration 2, distance =  1.07e+02, diff param =  2.37e-04, diff hybrid =  5.79e-03
6 minimization steps, time(MIN)/time(ED)=0.00025
====================== CDMFT converged on the parameters ======================
sb1_1     = -0.0000	sb2_1     =  0.0000	sb3_1     =  0.0087	sb4_1     = -0.1497	sb5_1     =  0.0087	
sb6_1     = -0.1497	sb7_1     =  0.0000	sb8_1     = -0.0000	eb1_1     = -0.0088	eb2_1     = -3.2138	
eb3_1     = -3.7392	eb4_1     = -0.0828	eb5_1     = -3.7392	eb6_1     = -0.0828	eb7_1     =  0.1167	
eb8_1     = -3.2807	tb1_1     = -0.1061	tb2_1     = -1.0455	tb3_1     =  1.6175	tb4_1     =  0.0480	
tb5_1     = -1.6175	tb6_1     = -0.0479	tb7_1     =  0.2127	tb8_1     = -2.1247	
   <D> = 0.012695
   <e> = 1.263649
   <mu> = 1.627615
   <tpd> = -0.559909
   <tpp> = -0.176560
   <tppp> = 0.072666
************************* CDMFT completed successfully *************************

******************************* CDMFT procedure *******************************

minimization method =  CG
mixing state =  1
frequency grid type =  sharp
fictitious inverse temperature =  50
frequency cutoff =  2.0
--------------------------------------------------------------------------------

CDMFT iteration 1, distance =  1.06e+02, diff param =  2.28e-03
47 minimization steps, time(MIN)/time(ED)=0.00097
sb1_1     = -0.0000	sb2_1     =  0.0000	sb3_1     =  0.0087	sb4_1     = -0.1489	sb5_1     =  0.0087	
sb6_1     = -0.1489	sb7_1     = -0.0000	sb8_1     =  0.0000	eb1_1     = -0.0095	eb2_1     = -3.2231	
eb3_1     = -3.7427	eb4_1     = -0.0821	eb5_1     = -3.7427	eb6_1     = -0.0821	eb7_1     =  0.1159	
eb8_1     = -3.2828	tb1_1     = -0.1060	tb2_1     = -1.0457	tb3_1     =  1.6165	tb4_1     =  0.0483	
tb5_1     = -1.6165	tb6_1     = -0.0483	tb7_1     =  0.2118	tb8_1     = -2.1230	

CDMFT iteration 2, distance =  1.05e+02, diff param =  4.63e-04, diff hybrid =  5.00e-03
11 minimization steps, time(MIN)/time(ED)=0.00062
====================== CDMFT converged on the parameters ======================
sb1_1     = -0.0000	sb2_1     =  0.0000	sb3_1     =  0.0087	sb4_1     = -0.1482	sb5_1     =  0.0087	
sb6_1     = -0.1482	sb7_1     =  0.0000	sb8_1     = -0.0000	eb1_1     = -0.0101	eb2_1     = -3.2234	
eb3_1     = -3.7428	eb4_1     = -0.0815	eb5_1     = -3.7428	eb6_1     = -0.0815	eb7_1     =  0.1149	
eb8_1     = -3.2827	tb1_1     = -0.1058	tb2_1     = -1.0459	tb3_1     =  1.6168	tb4_1     =  0.0487	
tb5_1     = -1.6168	tb6_1     = -0.0487	tb7_1     =  0.2108	tb8_1     = -2.1233	
   <D> = 0.012606
   <e> = 1.264146
   <mu> = 1.628217
   <tpd> = -0.558008
   <tpp> = -0.175293
   <tppp> = 0.072192
************************* CDMFT completed successfully *************************

******************************* CDMFT procedure *******************************

minimization method =  CG
mixing state =  1
frequency grid type =  sharp
fictitious inverse temperature =  50
frequency cutoff =  2.0
--------------------------------------------------------------------------------

CDMFT iteration 1, distance =  1.05e+02, diff param =  1.39e-03
24 minimization steps, time(MIN)/time(ED)=0.00052
sb1_1     = -0.0000	sb2_1     =  0.0000	sb3_1     =  0.0087	sb4_1     = -0.1477	sb5_1     =  0.0087	
sb6_1     = -0.1477	sb7_1     =  0.0000	sb8_1     =  0.0000	eb1_1     = -0.0102	eb2_1     = -3.2281	
eb3_1     = -3.7448	eb4_1     = -0.0805	eb5_1     = -3.7448	eb6_1     = -0.0805	eb7_1     =  0.1135	
eb8_1     = -3.2841	tb1_1     = -0.1057	tb2_1     = -1.0453	tb3_1     =  1.6153	tb4_1     =  0.0485	
tb5_1     = -1.6153	tb6_1     = -0.0485	tb7_1     =  0.2100	tb8_1     = -2.1212	

CDMFT iteration 2, distance =  1.04e+02, diff param =  3.11e-03, diff hybrid =  5.45e-03
25 minimization steps, time(MIN)/time(ED)=0.00054
sb1_1     = -0.0000	sb2_1     =  0.0000	sb3_1     =  0.0087	sb4_1     = -0.1471	sb5_1     =  0.0087	
sb6_1     = -0.1471	sb7_1     = -0.0000	sb8_1     =  0.0000	eb1_1     = -0.0107	eb2_1     = -3.2415	
eb3_1     = -3.7495	eb4_1     = -0.0803	eb5_1     = -3.7495	eb6_1     = -0.0803	eb7_1     =  0.1130	
eb8_1     = -3.2842	tb1_1     = -0.1056	tb2_1     = -1.0474	tb3_1     =  1.6166	tb4_1     =  0.0487	
tb5_1     = -1.6166	tb6_1     = -0.0487	tb7_1     =  0.2092	tb8_1     = -2.1216	

CDMFT iteration 3, distance =  1.04e+02, diff param =  1.89e-04, diff hybrid =  1.97e-03
9 minimization steps, time(MIN)/time(ED)=0.00043
====================== CDMFT converged on the parameters ======================
sb1_1     = -0.0000	sb2_1     =  0.0000	sb3_1     =  0.0087	sb4_1     = -0.1469	sb5_1     =  0.0087	
sb6_1     = -0.1469	sb7_1     =  0.0000	sb8_1     = -0.0000	eb1_1     = -0.0108	eb2_1     = -3.2416	
eb3_1     = -3.7494	eb4_1     = -0.0799	eb5_1     = -3.7494	eb6_1     = -0.0799	eb7_1     =  0.1125	
eb8_1     = -3.2840	tb1_1     = -0.1057	tb2_1     = -1.0474	tb3_1     =  1.6166	tb4_1     =  0.0488	
tb5_1     = -1.6166	tb6_1     = -0.0488	tb7_1     =  0.2090	tb8_1     = -2.1216	
   <D> = 0.012538
   <e> = 1.264569
   <mu> = 1.628781
   <tpd> = -0.556271
   <tpp> = -0.174275
   <tppp> = 0.071802
************************* CDMFT completed successfully *************************

******************************* CDMFT procedure *******************************

minimization method =  CG
mixing state =  1
frequency grid type =  sharp
fictitious inverse temperature =  50
frequency cutoff =  2.0
--------------------------------------------------------------------------------

CDMFT iteration 1, distance =  1.04e+02, diff param =  8.67e-04
11 minimization steps, time(MIN)/time(ED)=0.00027
====================== CDMFT converged on the parameters ======================
sb1_1     = -0.0000	sb2_1     =  0.0000	sb3_1     =  0.0085	sb4_1     = -0.1466	sb5_1     =  0.0085	
sb6_1     = -0.1466	sb7_1     =  0.0000	sb8_1     = -0.0000	eb1_1     = -0.0106	eb2_1     = -3.2421	
eb3_1     = -3.7498	eb4_1     = -0.0791	eb5_1     = -3.7498	eb6_1     = -0.0791	eb7_1     =  0.1116	
eb8_1     = -3.2851	tb1_1     = -0.1054	tb2_1     = -1.0464	tb3_1     =  1.6148	tb4_1     =  0.0484	
tb5_1     = -1.6148	tb6_1     = -0.0484	tb7_1     =  0.2084	tb8_1     = -2.1193	
   <D> = 0.012568
   <e> = 1.264705
   <mu> = 1.629034
   <tpd> = -0.555588
   <tpp> = -0.174013
   <tppp> = 0.071699
************************* CDMFT completed successfully *************************

******************************* CDMFT procedure *******************************

minimization method =  CG
mixing state =  1
frequency grid type =  sharp
fictitious inverse temperature =  50
frequency cutoff =  2.0
--------------------------------------------------------------------------------

CDMFT iteration 1, distance =  1.03e+02, diff param =  1.09e-03
19 minimization steps, time(MIN)/time(ED)=0.00042
sb1_1     =  0.0000	sb2_1     = -0.0000	sb3_1     =  0.0085	sb4_1     = -0.1451	sb5_1     =  0.0085	
sb6_1     = -0.1451	sb7_1     =  0.0000	sb8_1     =  0.0000	eb1_1     = -0.0118	eb2_1     = -3.2437	
eb3_1     = -3.7509	eb4_1     = -0.0783	eb5_1     = -3.7509	eb6_1     = -0.0783	eb7_1     =  0.1105	
eb8_1     = -3.2877	tb1_1     = -0.1050	tb2_1     = -1.0456	tb3_1     =  1.6136	tb4_1     =  0.0489	
tb5_1     = -1.6136	tb6_1     = -0.0489	tb7_1     =  0.2067	tb8_1     = -2.1180	

CDMFT iteration 2, distance =  1.02e+02, diff param =  7.09e-04, diff hybrid =  4.74e-03
10 minimization steps, time(MIN)/time(ED)=0.00033
====================== CDMFT converged on the parameters ======================
sb1_1     = -0.0000	sb2_1     = -0.0000	sb3_1     =  0.0086	sb4_1     = -0.1440	sb5_1     =  0.0086	
sb6_1     = -0.1440	sb7_1     = -0.0000	sb8_1     = -0.0000	eb1_1     = -0.0129	eb2_1     = -3.2441	
eb3_1     = -3.7510	eb4_1     = -0.0774	eb5_1     = -3.7510	eb6_1     = -0.0774	eb7_1     =  0.1088	
eb8_1     = -3.2875	tb1_1     = -0.1049	tb2_1     = -1.0458	tb3_1     =  1.6140	tb4_1     =  0.0498	
tb5_1     = -1.6140	tb6_1     = -0.0498	tb7_1     =  0.2052	tb8_1     = -2.1185	
   <D> = 0.012382
   <e> = 1.265470
   <mu> = 1.629816
   <tpd> = -0.552846
   <tpp> = -0.171961
   <tppp> = 0.070937
************************* CDMFT completed successfully *************************

******************************* CDMFT procedure *******************************

minimization method =  CG
mixing state =  1
frequency grid type =  sharp
fictitious inverse temperature =  50
frequency cutoff =  2.0
--------------------------------------------------------------------------------

CDMFT iteration 1, distance =  1.01e+02, diff param =  1.44e-03
31 minimization steps, time(MIN)/time(ED)=0.00063
sb1_1     =  0.0000	sb2_1     =  0.0000	sb3_1     =  0.0084	sb4_1     = -0.1438	sb5_1     =  0.0084	
sb6_1     = -0.1438	sb7_1     =  0.0000	sb8_1     =  0.0000	eb1_1     = -0.0124	eb2_1     = -3.2486	
eb3_1     = -3.7532	eb4_1     = -0.0760	eb5_1     = -3.7532	eb6_1     = -0.0760	eb7_1     =  0.1072	
eb8_1     = -3.2881	tb1_1     = -0.1048	tb2_1     = -1.0452	tb3_1     =  1.6125	tb4_1     =  0.0492	
tb5_1     = -1.6125	tb6_1     = -0.0492	tb7_1     =  0.2047	tb8_1     = -2.1159	

CDMFT iteration 2, distance =  1.01e+02, diff param =  2.36e-03, diff hybrid =  6.03e-03
32 minimization steps, time(MIN)/time(ED)=0.00068
sb1_1     =  0.0000	sb2_1     = -0.0000	sb3_1     =  0.0084	sb4_1     = -0.1433	sb5_1     =  0.0084	
sb6_1     = -0.1433	sb7_1     =  0.0000	sb8_1     =  0.0000	eb1_1     = -0.0127	eb2_1     = -3.2587	
eb3_1     = -3.7569	eb4_1     = -0.0760	eb5_1     = -3.7569	eb6_1     = -0.0760	eb7_1     =  0.1070	
eb8_1     = -3.2880	tb1_1     = -0.1046	tb2_1     = -1.0468	tb3_1     =  1.6135	tb4_1     =  0.0492	
tb5_1     = -1.6135	tb6_1     = -0.0492	tb7_1     =  0.2040	tb8_1     = -2.1162	

CDMFT iteration 3, distance =  1.00e+02, diff param =  2.18e-04, diff hybrid =  1.75e-03
5 minimization steps, time(MIN)/time(ED)=0.00050
====================== CDMFT converged on the parameters ======================
sb1_1     =  0.0000	sb2_1     = -0.0000	sb3_1     =  0.0085	sb4_1     = -0.1430	sb5_1     =  0.0085	
sb6_1     = -0.1430	sb7_1     =  0.0000	sb8_1     =  0.0000	eb1_1     = -0.0132	eb2_1     = -3.2588	
eb3_1     = -3.7569	eb4_1     = -0.0759	eb5_1     = -3.7569	eb6_1     = -0.0759	eb7_1     =  0.1066	
eb8_1     = -3.2881	tb1_1     = -0.1047	tb2_1     = -1.0468	tb3_1     =  1.6136	tb4_1     =  0.0496	
tb5_1     = -1.6136	tb6_1     = -0.0496	tb7_1     =  0.2036	tb8_1     = -2.1164	
   <D> = 0.012321
   <e> = 1.265835
   <mu> = 1.630290
   <tpd> = -0.551314
   <tpp> = -0.171087
   <tppp> = 0.070603
************************* CDMFT completed successfully *************************

******************************* CDMFT procedure *******************************

minimization method =  CG
mixing state =  1
frequency grid type =  sharp
fictitious inverse temperature =  50
frequency cutoff =  2.0
--------------------------------------------------------------------------------

CDMFT iteration 1, distance =  1.00e+02, diff param =  8.99e-04
13 minimization steps, time(MIN)/time(ED)=0.00027
====================== CDMFT converged on the parameters ======================
sb1_1     =  0.0000	sb2_1     = -0.0000	sb3_1     =  0.0083	sb4_1     = -0.1426	sb5_1     =  0.0083	
sb6_1     = -0.1426	sb7_1     = -0.0000	sb8_1     = -0.0000	eb1_1     = -0.0131	eb2_1     = -3.2595	
eb3_1     = -3.7575	eb4_1     = -0.0749	eb5_1     = -3.7575	eb6_1     = -0.0749	eb7_1     =  0.1055	
eb8_1     = -3.2894	tb1_1     = -0.1045	tb2_1     = -1.0458	tb3_1     =  1.6118	tb4_1     =  0.0492	
tb5_1     = -1.6118	tb6_1     = -0.0492	tb7_1     =  0.2030	tb8_1     = -2.1141	
   <D> = 0.012353
   <e> = 1.265986
   <mu> = 1.630581
   <tpd> = -0.550560
   <tpp> = -0.170798
   <tppp> = 0.070489
************************* CDMFT completed successfully *************************

******************************* CDMFT procedure *******************************

minimization method =  CG
mixing state =  1
frequency grid type =  sharp
fictitious inverse temperature =  50
frequency cutoff =  2.0
--------------------------------------------------------------------------------

CDMFT iteration 1, distance =  9.92e+01, diff param =  3.77e-03
35 minimization steps, time(MIN)/time(ED)=0.00068
sb1_1     = -0.0000	sb2_1     =  0.0000	sb3_1     =  0.0083	sb4_1     = -0.1413	sb5_1     =  0.0083	
sb6_1     = -0.1413	sb7_1     =  0.0000	sb8_1     =  0.0000	eb1_1     = -0.0142	eb2_1     = -3.2741	
eb3_1     = -3.7649	eb4_1     = -0.0743	eb5_1     = -3.7649	eb6_1     = -0.0743	eb7_1     =  0.1042	
eb8_1     = -3.2917	tb1_1     = -0.1042	tb2_1     = -1.0468	tb3_1     =  1.6119	tb4_1     =  0.0497	
tb5_1     = -1.6119	tb6_1     = -0.0496	tb7_1     =  0.2012	tb8_1     = -2.1127	

CDMFT iteration 2, distance =  9.79e+01, diff param =  7.54e-04, diff hybrid =  4.80e-03
12 minimization steps, time(MIN)/time(ED)=0.00048
====================== CDMFT converged on the parameters ======================
sb1_1     = -0.0000	sb2_1     =  0.0000	sb3_1     =  0.0084	sb4_1     = -0.1402	sb5_1     =  0.0084	
sb6_1     = -0.1402	sb7_1     =  0.0000	sb8_1     = -0.0000	eb1_1     = -0.0155	eb2_1     = -3.2745	
eb3_1     = -3.7649	eb4_1     = -0.0735	eb5_1     = -3.7649	eb6_1     = -0.0735	eb7_1     =  0.1026	
eb8_1     = -3.2917	tb1_1     = -0.1041	tb2_1     = -1.0470	tb3_1     =  1.6123	tb4_1     =  0.0505	
tb5_1     = -1.6123	tb6_1     = -0.0505	tb7_1     =  0.1996	tb8_1     = -2.1133	
   <D> = 0.012157
   <e> = 1.266757
   <mu> = 1.631388
   <tpd> = -0.547747
   <tpp> = -0.168717
   <tppp> = 0.069719
************************* CDMFT completed successfully *************************

******************************* CDMFT procedure *******************************

minimization method =  CG
mixing state =  1
frequency grid type =  sharp
fictitious inverse temperature =  50
frequency cutoff =  2.0
--------------------------------------------------------------------------------

CDMFT iteration 1, distance =  9.78e+01, diff param =  2.59e-03
24 minimization steps, time(MIN)/time(ED)=0.00051
sb1_1     =  0.0000	sb2_1     =  0.0000	sb3_1     =  0.0082	sb4_1     = -0.1398	sb5_1     =  0.0082	
sb6_1     = -0.1398	sb7_1     =  0.0000	sb8_1     = -0.0000	eb1_1     = -0.0152	eb2_1     = -3.2861	
eb3_1     = -3.7666	eb4_1     = -0.0720	eb5_1     = -3.7665	eb6_1     = -0.0720	eb7_1     =  0.1007	
eb8_1     = -3.2925	tb1_1     = -0.1040	tb2_1     = -1.0475	tb3_1     =  1.6106	tb4_1     =  0.0500	
tb5_1     = -1.6106	tb6_1     = -0.0500	tb7_1     =  0.1990	tb8_1     = -2.1108	

CDMFT iteration 2, distance =  9.72e+01, diff param =  2.44e-04, diff hybrid =  5.98e-03
7 minimization steps, time(MIN)/time(ED)=0.00034
====================== CDMFT converged on the parameters ======================
sb1_1     =  0.0000	sb2_1     = -0.0000	sb3_1     =  0.0081	sb4_1     = -0.1394	sb5_1     =  0.0081	
sb6_1     = -0.1394	sb7_1     = -0.0000	sb8_1     =  0.0000	eb1_1     = -0.0152	eb2_1     = -3.2862	
eb3_1     = -3.7666	eb4_1     = -0.0719	eb5_1     = -3.7665	eb6_1     = -0.0719	eb7_1     =  0.1004	
eb8_1     = -3.2927	tb1_1     = -0.1037	tb2_1     = -1.0476	tb3_1     =  1.6109	tb4_1     =  0.0497	
tb5_1     = -1.6109	tb6_1     = -0.0497	tb7_1     =  0.1984	tb8_1     = -2.1111	
   <D> = 0.012128
   <e> = 1.267031
   <mu> = 1.631725
   <tpd> = -0.546544
   <tpp> = -0.168085
   <tppp> = 0.069473
************************* CDMFT completed successfully *************************

******************************* CDMFT procedure *******************************

minimization method =  CG
mixing state =  1
frequency grid type =  sharp
fictitious inverse temperature =  50
frequency cutoff =  2.0
--------------------------------------------------------------------------------

CDMFT iteration 1, distance =  9.67e+01, diff param =  8.96e-04
10 minimization steps, time(MIN)/time(ED)=0.00024
====================== CDMFT converged on the parameters ======================
sb1_1     =  0.0000	sb2_1     = -0.0000	sb3_1     =  0.0081	sb4_1     = -0.1385	sb5_1     =  0.0081	
sb6_1     = -0.1385	sb7_1     =  0.0000	sb8_1     =  0.0000	eb1_1     = -0.0160	eb2_1     = -3.2867	
eb3_1     = -3.7671	eb4_1     = -0.0712	eb5_1     = -3.7671	eb6_1     = -0.0712	eb7_1     =  0.0993	
eb8_1     = -3.2940	tb1_1     = -0.1036	tb2_1     = -1.0465	tb3_1     =  1.6093	tb4_1     =  0.0501	
tb5_1     = -1.6093	tb6_1     = -0.0501	tb7_1     =  0.1972	tb8_1     = -2.1091	
   <D> = 0.012090
   <e> = 1.267305
   <mu> = 1.632144
   <tpd> = -0.545405
   <tpp> = -0.167422
   <tppp> = 0.069226
************************* CDMFT completed successfully *************************

******************************* CDMFT procedure *******************************

minimization method =  CG
mixing state =  1
frequency grid type =  sharp
fictitious inverse temperature =  50
frequency cutoff =  2.0
--------------------------------------------------------------------------------

CDMFT iteration 1, distance =  9.55e+01, diff param =  3.81e-03
45 minimization steps, time(MIN)/time(ED)=0.00090
sb1_1     = -0.0000	sb2_1     =  0.0000	sb3_1     =  0.0081	sb4_1     = -0.1372	sb5_1     =  0.0081	
sb6_1     = -0.1372	sb7_1     = -0.0000	sb8_1     = -0.0000	eb1_1     = -0.0172	eb2_1     = -3.3007	
eb3_1     = -3.7751	eb4_1     = -0.0702	eb5_1     = -3.7751	eb6_1     = -0.0702	eb7_1     =  0.0974	
eb8_1     = -3.2966	tb1_1     = -0.1034	tb2_1     = -1.0474	tb3_1     =  1.6094	tb4_1     =  0.0506	
tb5_1     = -1.6094	tb6_1     = -0.0506	tb7_1     =  0.1953	tb8_1     = -2.1077	

CDMFT iteration 2, distance =  9.44e+01, diff param =  6.50e-04, diff hybrid =  4.91e-03
10 minimization steps, time(MIN)/time(ED)=0.00058
====================== CDMFT converged on the parameters ======================
sb1_1     =  0.0000	sb2_1     =  0.0000	sb3_1     =  0.0080	sb4_1     = -0.1363	sb5_1     =  0.0080	
sb6_1     = -0.1363	sb7_1     =  0.0000	sb8_1     =  0.0000	eb1_1     = -0.0181	eb2_1     = -3.3010	
eb3_1     = -3.7750	eb4_1     = -0.0693	eb5_1     = -3.7750	eb6_1     = -0.0693	eb7_1     =  0.0958	
eb8_1     = -3.2965	tb1_1     = -0.1033	tb2_1     = -1.0476	tb3_1     =  1.6097	tb4_1     =  0.0511	
tb5_1     = -1.6097	tb6_1     = -0.0511	tb7_1     =  0.1939	tb8_1     = -2.1081	
   <D> = 0.011927
   <e> = 1.268010
   <mu> = 1.632941
   <tpd> = -0.542721
   <tpp> = -0.165575
   <tppp> = 0.068539
************************* CDMFT completed successfully *************************
