model	E_kin	D	U	e	eb1_1	eb2_1	eb3_1	eb4_1	eb5_1	eb6_1	eb7_1	eb8_1	mu	sb1_1	sb2_1	sb3_1	sb4_1	sb5_1	sb6_1	sb7_1	sb8_1	tb1_1	tb2_1	tb3_1	tb4_1	tb5_1	tb6_1	tb7_1	tb8_1	tpd	tpp	tppp	ave_D	ave_e	ave_mu	ave_tpd	ave_tpp	ave_tppp	ave_U_1	ave_eb1_1	ave_eb2_1	ave_eb3_1	ave_eb4_1	ave_eb5_1	ave_eb6_1	ave_eb7_1	ave_eb8_1	ave_mu_1	ave_sb1_1	ave_sb2_1	ave_sb3_1	ave_sb4_1	ave_sb5_1	ave_sb6_1	ave_sb7_1	ave_sb8_1	ave_tb1_1	ave_tb2_1	ave_tb3_1	ave_tb4_1	ave_tb5_1	ave_tb6_1	ave_tb7_1	ave_tb8_1	var_U_1	var_eb1_1	var_eb2_1	var_eb3_1	var_eb4_1	var_eb5_1	var_eb6_1	var_eb7_1	var_eb8_1	var_mu_1	var_sb1_1	var_sb2_1	var_sb3_1	var_sb4_1	var_sb5_1	var_sb6_1	var_sb7_1	var_sb8_1	var_tb1_1	var_tb2_1	var_tb3_1	var_tb4_1	var_tb5_1	var_tb6_1	var_tb7_1	var_tb8_1	E0_1	sector_1	E0_2	sector_2	githash	time
2x2_2C_8b_C2v_L	4.2059024	0	14	2.3	0.0092506745	-3.1617906	-3.935182	-0.13176378	-3.9351695	-0.13176517	0.17225399	-3.5986099	9.45	1.7295017e-05	5.3646028e-07	0.0074528752	-0.19115075	0.0074530685	-0.19115058	-1.7046477e-06	5.1170083e-07	-0.11851163	-1.0886458	1.7347953	0.028113541	-1.7347926	-0.028117825	0.26141505	-2.2996663	2.1	1	0.2	0.01103365	1.2519733	1.6075128	-0.61492857	-0.20307969	0.084292615	0.12950364	0.29337558	1.9359066	1.7870226	1.5390974	1.7870214	1.5391009	0.022615344	1.5301661	1.0951386	-0.00015590896	1.1010803e-06	0.11833246	1.2622059	0.11833204	1.2621928	5.8758574e-06	-1.9446028e-06	1.2463845	0.74781383	-1.6226269	-0.53159653	1.6226311	0.53161935	-0.32039098	2.6031404	0.028145634	0.2628581	0.062168362	0.19276068	0.38441356	0.19276163	0.38441025	0.022982484	0.356269	0.037723632	4.2554658	5.3731174	5.1617833	4.9578135	5.1617874	4.9578254	4.3911201	6.2457806	5.2383523	2.7345401	3.3630188	5.2918083	3.3630217	5.2917911	3.6809741	3.1105737	-73.407363	R0:S0:1	-57.2	uncorrelated	51514b8	2022-04-13@21:14
2x2_2C_8b_C2v_L	4.3236836	0	14	2.2963866	0.0053312513	-3.2150135	-3.9772404	-0.1198351	-3.977249	-0.11983769	0.16088071	-3.6345761	9.4920168	3.2421368e-05	1.4498335e-05	0.0092709188	-0.18180417	0.0092716338	-0.18180613	-1.3543233e-05	1.426228e-05	-0.11640496	-1.0912151	1.7328953	0.037910391	-1.7328959	-0.037914545	0.2505034	-2.293689	2.0920168	0.99655462	0.1994958	0.013058618	1.2549638	1.611996	-0.60294894	-0.19621066	0.081504795	0.12947943	0.28626127	1.9377341	1.795974	1.5278604	1.7959752	1.5278624	0.021490158	1.5442898	1.0973316	-0.00030736255	-2.7468606e-05	0.11333702	1.2421939	0.1133415	1.2422002	7.0606912e-05	-7.7155197e-06	1.2226884	0.74375399	-1.5902604	-0.57291696	1.5902547	0.57292878	-0.31299453	2.5667508	0.028142314	0.25369951	0.060436913	0.18544262	0.38552278	0.18544165	0.38551758	0.02173773	0.35003067	0.037086432	4.2422943	5.3614003	5.1317283	5.0147268	5.1317256	5.014732	4.3760793	6.1909923	5.2590584	2.7423573	3.3539325	5.2841823	3.3539295	5.2841831	3.6887041	3.1539001	-73.826829	R0:S0:1	-57.565042	uncorrelated	51514b8	2022-04-13@21:29
2x2_2C_8b_C2v_L	4.465252	0	14	2.2927731	0.0024798057	-3.2713205	-4.0237851	-0.11022512	-4.0237887	-0.11022711	0.15129646	-3.676221	9.5340336	-3.0577333e-05	-8.0521921e-07	0.0099477555	-0.1730873	0.0099492269	-0.17308725	-1.5731177e-06	6.6809559e-06	-0.11399898	-1.0940053	1.7315867	0.044202415	-1.7315862	-0.044207796	0.24022001	-2.2889481	2.0840336	0.99310924	0.1989916	0.013909068	1.2586033	1.6172653	-0.58859693	-0.18743164	0.078000871	0.12956182	0.25422085	1.9410985	1.8058446	1.557651	1.8058438	1.5576635	0.019304827	1.5649806	1.1003575	0.00029727168	3.5665267e-06	0.10540364	1.1821388	0.10540441	1.1821065	5.8945474e-06	-8.5687756e-06	1.1689341	0.72853761	-1.5558754	-0.5777139	1.555882	0.57774079	-0.30180954	2.515289	0.028160963	0.22849515	0.057343083	0.17762269	0.36745533	0.17762352	0.36744723	0.019461741	0.34037528	0.036250167	4.0872368	5.3787628	5.1259254	5.0276901	5.1259284	5.0276981	4.3619062	6.1080519	5.2644439	2.7450539	3.3753633	5.1824258	3.3753779	5.1823848	3.6980141	3.2123536	-74.290218	R0:S0:1	-57.930084	uncorrelated	51514b8	2022-04-13@21:48
2x2_2C_8b_C2v_L	4.5990656	0	14	2.2891597	-0.0030317831	-3.3361586	-4.0683602	-0.098595584	-4.0683763	-0.098600276	0.1376721	-3.7122776	9.5760504	-2.0964393e-05	-7.9669525e-07	0.010255968	-0.16280046	0.010257563	-0.16280237	-1.939295e-06	-1.2128051e-06	-0.11159509	-1.097809	1.7300649	0.049964462	-1.7300684	-0.049968643	0.22741231	-2.282717	2.0760504	0.98966387	0.19848739	0.014156696	1.2620172	1.6222178	-0.57488963	-0.1791184	0.074714053	0.12951551	0.23615931	1.9435641	1.8151209	1.5735637	1.8151212	1.5735656	0.017638328	1.5832556	1.1029983	0.00022835992	2.2343464e-06	0.097185724	1.1289383	0.097183192	1.1289369	9.1303228e-06	7.7328002e-07	1.1243313	0.71945111	-1.5225888	-0.5830127	1.5225881	0.58302925	-0.29012329	2.4681961	0.028154709	0.21391005	0.055051367	0.17008396	0.35549329	0.17008364	0.35548999	0.017736056	0.33128465	0.035459379	3.9975108	5.3821675	5.1148067	5.0574909	5.1148049	5.0574973	4.3451349	6.0355384	5.2741447	2.7524509	3.3854429	5.1175571	3.3854421	5.1175552	3.7086532	3.2614123	-74.743545	R0:S0:1	-58.295126	uncorrelated	51514b8	2022-04-13@22:08
2x2_2C_8b_C2v_L	4.7430803	0	14	2.2855462	-0.011512463	-3.411002	-4.1116572	-0.088664593	-4.1116464	-0.088653869	0.12327838	-3.7459565	9.6180672	1.1418952e-05	-4.886574e-07	0.01029843	-0.15103756	0.010296888	-0.15103747	8.308346e-06	-1.2329009e-06	-0.10902109	-1.1030531	1.7290149	0.055338312	-1.7290142	-0.05532555	0.2119668	-2.2763585	2.0680672	0.98621849	0.19798319	0.013840944	1.2656907	1.6275699	-0.56004252	-0.16999046	0.071144517	0.12950986	0.21490204	1.9461817	1.8245882	1.608695	1.8245895	1.6086835	0.015466117	1.6031256	1.1059132	-0.00016510954	-1.073893e-06	0.089020872	1.0526612	0.089022229	1.0527099	-4.0370136e-05	1.9163735e-06	1.0736148	0.70870118	-1.4885748	-0.57601782	1.4885653	0.5759581	-0.27344207	2.4172945	0.028156421	0.19804963	0.052624199	0.16241918	0.33140249	0.162418	0.33141331	0.01553019	0.32082913	0.034600214	3.8812838	5.3921209	5.1145465	5.067841	5.1145458	5.0678171	4.3278026	5.9577301	5.2763567	2.759239	3.4055307	5.0075879	3.4055132	5.0076305	3.7198371	3.3122623	-75.214861	R0:S0:1	-58.660168	uncorrelated	51514b8	2022-04-13@22:34
