Number of OpenMP threads = 4
!!!!!!!!!!!!!!!!!!!!!!!!!!!!! - Fading to Sr2CuO2Cl2 - !!!!!!!!!!!!!!!!!!!!!!!!!!!!!
reading data file /home/theod/code_pyqcm/simulations/cdmft_max_supra_sid.tsv, line 1
111 columns read
----->  D  =  0.0
----->  U  =  14.0
----->  e  =  2.3
----->  eb1_1  =  -0.006655534
----->  eb2_1  =  -3.3502828
----->  eb3_1  =  -4.1133163
----->  eb4_1  =  -0.10235806
----->  eb5_1  =  -4.113222
----->  eb6_1  =  -0.1023468
----->  eb7_1  =  0.14108001
----->  eb8_1  =  -3.7537133
----->  mu  =  9.68
----->  sb1_1  =  -0.0001012231
----->  sb2_1  =  7.5002141e-06
----->  sb3_1  =  0.011771903
----->  sb4_1  =  -0.16264369
----->  sb5_1  =  0.011773954
----->  sb6_1  =  -0.16264057
----->  sb7_1  =  1.0013529e-05
----->  sb8_1  =  -2.0059213e-06
----->  tb1_1  =  -0.11240159
----->  tb2_1  =  -1.1061747
----->  tb3_1  =  1.7476608
----->  tb4_1  =  0.057892245
----->  tb5_1  =  -1.7476438
----->  tb6_1  =  -0.057886658
----->  tb7_1  =  0.22749261
----->  tb8_1  =  -2.3061557
----->  tpd  =  2.1
----->  tpp  =  1.0
----->  tppp  =  0.2

******************************* CDMFT procedure *******************************

minimization method =  CG
mixing state =  1
frequency grid type =  sharp
fictitious inverse temperature =  50
frequency cutoff =  2.0
--------------------------------------------------------------------------------

CDMFT iteration 1, distance =  1.66e+02, diff param =  6.21e-02
102 minimization steps, time(MIN)/time(ED)=0.00309
sb1_1     =  0.0000	sb2_1     = -0.0000	sb3_1     =  0.0101	sb4_1     = -0.1828	sb5_1     =  0.0101	
sb6_1     = -0.1828	sb7_1     =  0.0000	sb8_1     =  0.0000	eb1_1     =  0.0073	eb2_1     = -3.2418	
eb3_1     = -3.9554	eb4_1     = -0.1166	eb5_1     = -3.9554	eb6_1     = -0.1166	eb7_1     =  0.1565	
eb8_1     = -3.5858	tb1_1     = -0.1179	tb2_1     = -1.1039	tb3_1     =  1.7426	tb4_1     =  0.0430	
tb5_1     = -1.7426	tb6_1     = -0.0430	tb7_1     =  0.2521	tb8_1     = -2.3027	

CDMFT iteration 2, distance =  1.92e+02, diff param =  1.13e-02, diff hybrid =  9.64e-02
62 minimization steps, time(MIN)/time(ED)=0.00247
sb1_1     =  0.0000	sb2_1     = -0.0000	sb3_1     =  0.0064	sb4_1     = -0.1958	sb5_1     =  0.0064	
sb6_1     = -0.1958	sb7_1     = -0.0000	sb8_1     = -0.0000	eb1_1     =  0.0128	eb2_1     = -3.2219	
eb3_1     = -3.9494	eb4_1     = -0.1355	eb5_1     = -3.9494	eb6_1     = -0.1355	eb7_1     =  0.1719	
eb8_1     = -3.5949	tb1_1     = -0.1194	tb2_1     = -1.0958	tb3_1     =  1.7352	tb4_1     =  0.0235	
tb5_1     = -1.7352	tb6_1     = -0.0235	tb7_1     =  0.2659	tb8_1     = -2.2953	

CDMFT iteration 3, distance =  1.79e+02, diff param =  1.49e-02, diff hybrid =  4.46e-02
76 minimization steps, time(MIN)/time(ED)=0.00230
sb1_1     =  0.0000	sb2_1     =  0.0000	sb3_1     =  0.0079	sb4_1     = -0.1889	sb5_1     =  0.0079	
sb6_1     = -0.1889	sb7_1     = -0.0000	sb8_1     =  0.0000	eb1_1     =  0.0052	eb2_1     = -3.1563	
eb3_1     = -3.9329	eb4_1     = -0.1316	eb5_1     = -3.9329	eb6_1     = -0.1316	eb7_1     =  0.1733	
eb8_1     = -3.6017	tb1_1     = -0.1181	tb2_1     = -1.0887	tb3_1     =  1.7363	tb4_1     =  0.0302	
tb5_1     = -1.7363	tb6_1     = -0.0302	tb7_1     =  0.2588	tb8_1     = -2.3029	

CDMFT iteration 4, distance =  1.82e+02, diff param =  1.80e-03, diff hybrid =  2.63e-02
21 minimization steps, time(MIN)/time(ED)=0.00191
sb1_1     =  0.0000	sb2_1     =  0.0000	sb3_1     =  0.0079	sb4_1     = -0.1902	sb5_1     =  0.0079	
sb6_1     = -0.1902	sb7_1     =  0.0000	sb8_1     =  0.0000	eb1_1     =  0.0075	eb2_1     = -3.1573	
eb3_1     = -3.9328	eb4_1     = -0.1298	eb5_1     = -3.9328	eb6_1     = -0.1298	eb7_1     =  0.1703	
eb8_1     = -3.5961	tb1_1     = -0.1186	tb2_1     = -1.0881	tb3_1     =  1.7346	tb4_1     =  0.0299	
tb5_1     = -1.7346	tb6_1     = -0.0299	tb7_1     =  0.2603	tb8_1     = -2.2994	

CDMFT iteration 5, distance =  1.84e+02, diff param =  1.62e-03, diff hybrid =  8.47e-03
27 minimization steps, time(MIN)/time(ED)=0.00169
sb1_1     =  0.0000	sb2_1     =  0.0000	sb3_1     =  0.0075	sb4_1     = -0.1912	sb5_1     =  0.0075	
sb6_1     = -0.1912	sb7_1     = -0.0000	sb8_1     =  0.0000	eb1_1     =  0.0093	eb2_1     = -3.1618	
eb3_1     = -3.9352	eb4_1     = -0.1318	eb5_1     = -3.9352	eb6_1     = -0.1318	eb7_1     =  0.1723	
eb8_1     = -3.5986	tb1_1     = -0.1185	tb2_1     = -1.0886	tb3_1     =  1.7348	tb4_1     =  0.0281	
tb5_1     = -1.7348	tb6_1     = -0.0281	tb7_1     =  0.2614	tb8_1     = -2.2997	

CDMFT iteration 6, distance =  1.82e+02, diff param =  8.27e-04, diff hybrid =  4.02e-03
12 minimization steps, time(MIN)/time(ED)=0.00148
====================== CDMFT converged on the parameters ======================
sb1_1     =  0.0000	sb2_1     =  0.0000	sb3_1     =  0.0079	sb4_1     = -0.1902	sb5_1     =  0.0079	
sb6_1     = -0.1902	sb7_1     =  0.0000	sb8_1     = -0.0000	eb1_1     =  0.0074	eb2_1     = -3.1617	
eb3_1     = -3.9351	eb4_1     = -0.1314	eb5_1     = -3.9351	eb6_1     = -0.1314	eb7_1     =  0.1722	
eb8_1     = -3.5985	tb1_1     = -0.1185	tb2_1     = -1.0889	tb3_1     =  1.7355	tb4_1     =  0.0300	
tb5_1     = -1.7355	tb6_1     = -0.0300	tb7_1     =  0.2603	tb8_1     = -2.3005	
   <D> = 0.011034
   <e> = 1.251973
   <mu> = 1.607513
   <tpd> = -0.614929
   <tpp> = -0.203080
   <tppp> = 0.084293
************************* CDMFT completed successfully *************************

******************************* CDMFT procedure *******************************

minimization method =  CG
mixing state =  1
frequency grid type =  sharp
fictitious inverse temperature =  50
frequency cutoff =  2.0
--------------------------------------------------------------------------------

CDMFT iteration 1, distance =  1.78e+02, diff param =  1.28e-02
71 minimization steps, time(MIN)/time(ED)=0.00184
sb1_1     =  0.0000	sb2_1     = -0.0000	sb3_1     =  0.0083	sb4_1     = -0.1843	sb5_1     =  0.0083	
sb6_1     = -0.1843	sb7_1     = -0.0000	sb8_1     =  0.0000	eb1_1     =  0.0050	eb2_1     = -3.1854	
eb3_1     = -3.9622	eb4_1     = -0.1237	eb5_1     = -3.9622	eb6_1     = -0.1237	eb7_1     =  0.1650	
eb8_1     = -3.6359	tb1_1     = -0.1167	tb2_1     = -1.0858	tb3_1     =  1.7287	tb4_1     =  0.0327	
tb5_1     = -1.7287	tb6_1     = -0.0327	tb7_1     =  0.2534	tb8_1     = -2.2918	

CDMFT iteration 2, distance =  1.70e+02, diff param =  4.93e-03, diff hybrid =  3.90e-02
44 minimization steps, time(MIN)/time(ED)=0.00147
sb1_1     = -0.0000	sb2_1     =  0.0000	sb3_1     =  0.0093	sb4_1     = -0.1804	sb5_1     =  0.0093	
sb6_1     = -0.1804	sb7_1     =  0.0000	sb8_1     = -0.0000	eb1_1     =  0.0032	eb2_1     = -3.1987	
eb3_1     = -3.9720	eb4_1     = -0.1201	eb5_1     = -3.9720	eb6_1     = -0.1201	eb7_1     =  0.1619	
eb8_1     = -3.6376	tb1_1     = -0.1159	tb2_1     = -1.0893	tb3_1     =  1.7329	tb4_1     =  0.0382	
tb5_1     = -1.7329	tb6_1     = -0.0382	tb7_1     =  0.2491	tb8_1     = -2.2957	

CDMFT iteration 3, distance =  1.72e+02, diff param =  3.82e-03, diff hybrid =  1.38e-02
27 minimization steps, time(MIN)/time(ED)=0.00125
sb1_1     =  0.0000	sb2_1     =  0.0000	sb3_1     =  0.0093	sb4_1     = -0.1818	sb5_1     =  0.0093	
sb6_1     = -0.1818	sb7_1     = -0.0000	sb8_1     =  0.0000	eb1_1     =  0.0053	eb2_1     = -3.2150	
eb3_1     = -3.9772	eb4_1     = -0.1198	eb5_1     = -3.9772	eb6_1     = -0.1198	eb7_1     =  0.1609	
eb8_1     = -3.6346	tb1_1     = -0.1164	tb2_1     = -1.0912	tb3_1     =  1.7329	tb4_1     =  0.0379	
tb5_1     = -1.7329	tb6_1     = -0.0379	tb7_1     =  0.2505	tb8_1     = -2.2937	

CDMFT iteration 4, distance =  1.73e+02, diff param =  8.30e-04, diff hybrid =  6.00e-03
21 minimization steps, time(MIN)/time(ED)=0.00107
====================== CDMFT converged on the parameters ======================
sb1_1     =  0.0000	sb2_1     =  0.0000	sb3_1     =  0.0091	sb4_1     = -0.1822	sb5_1     =  0.0091	
sb6_1     = -0.1822	sb7_1     =  0.0000	sb8_1     = -0.0000	eb1_1     =  0.0061	eb2_1     = -3.2164	
eb3_1     = -3.9780	eb4_1     = -0.1210	eb5_1     = -3.9780	eb6_1     = -0.1210	eb7_1     =  0.1623	
eb8_1     = -3.6371	tb1_1     = -0.1163	tb2_1     = -1.0914	tb3_1     =  1.7330	tb4_1     =  0.0374	
tb5_1     = -1.7330	tb6_1     = -0.0373	tb7_1     =  0.2511	tb8_1     = -2.2944	
   <D> = 0.013059
   <e> = 1.254964
   <mu> = 1.611996
   <tpd> = -0.602949
   <tpp> = -0.196211
   <tppp> = 0.081505
************************* CDMFT completed successfully *************************

******************************* CDMFT procedure *******************************

minimization method =  CG
mixing state =  1
frequency grid type =  sharp
fictitious inverse temperature =  50
frequency cutoff =  2.0
--------------------------------------------------------------------------------

CDMFT iteration 1, distance =  1.68e+02, diff param =  1.34e-02
68 minimization steps, time(MIN)/time(ED)=0.00165
sb1_1     =  0.0000	sb2_1     = -0.0000	sb3_1     =  0.0096	sb4_1     = -0.1755	sb5_1     =  0.0097	
sb6_1     = -0.1755	sb7_1     = -0.0000	sb8_1     = -0.0000	eb1_1     =  0.0018	eb2_1     = -3.2388	
eb3_1     = -4.0068	eb4_1     = -0.1145	eb5_1     = -4.0068	eb6_1     = -0.1145	eb7_1     =  0.1565	
eb8_1     = -3.6781	tb1_1     = -0.1144	tb2_1     = -1.0883	tb3_1     =  1.7272	tb4_1     =  0.0413	
tb5_1     = -1.7271	tb6_1     = -0.0413	tb7_1     =  0.2433	tb8_1     = -2.2875	

CDMFT iteration 2, distance =  1.59e+02, diff param =  7.09e-03, diff hybrid =  3.73e-02
49 minimization steps, time(MIN)/time(ED)=0.00147
sb1_1     = -0.0001	sb2_1     = -0.0000	sb3_1     =  0.0107	sb4_1     = -0.1707	sb5_1     =  0.0107	
sb6_1     = -0.1707	sb7_1     = -0.0000	sb8_1     = -0.0000	eb1_1     = -0.0017	eb2_1     = -3.2597	
eb3_1     = -4.0219	eb4_1     = -0.1107	eb5_1     = -4.0219	eb6_1     = -0.1107	eb7_1     =  0.1519	
eb8_1     = -3.6768	tb1_1     = -0.1135	tb2_1     = -1.0928	tb3_1     =  1.7324	tb4_1     =  0.0476	
tb5_1     = -1.7324	tb6_1     = -0.0476	tb7_1     =  0.2376	tb8_1     = -2.2906	

CDMFT iteration 3, distance =  1.61e+02, diff param =  1.74e-03, diff hybrid =  1.61e-02
23 minimization steps, time(MIN)/time(ED)=0.00119
sb1_1     = -0.0001	sb2_1     =  0.0000	sb3_1     =  0.0103	sb4_1     = -0.1721	sb5_1     =  0.0103	
sb6_1     = -0.1721	sb7_1     =  0.0000	sb8_1     = -0.0000	eb1_1     =  0.0010	eb2_1     = -3.2636	
eb3_1     = -4.0220	eb4_1     = -0.1087	eb5_1     = -4.0220	eb6_1     = -0.1087	eb7_1     =  0.1495	
eb8_1     = -3.6726	tb1_1     = -0.1141	tb2_1     = -1.0929	tb3_1     =  1.7313	tb4_1     =  0.0461	
tb5_1     = -1.7313	tb6_1     = -0.0461	tb7_1     =  0.2390	tb8_1     = -2.2882	

CDMFT iteration 4, distance =  1.62e+02, diff param =  2.06e-03, diff hybrid =  7.60e-03
36 minimization steps, time(MIN)/time(ED)=0.00111
sb1_1     = -0.0000	sb2_1     = -0.0000	sb3_1     =  0.0099	sb4_1     = -0.1731	sb5_1     =  0.0099	
sb6_1     = -0.1731	sb7_1     = -0.0000	sb8_1     =  0.0000	eb1_1     =  0.0025	eb2_1     = -3.2713	
eb3_1     = -4.0238	eb4_1     = -0.1102	eb5_1     = -4.0238	eb6_1     = -0.1102	eb7_1     =  0.1513	
eb8_1     = -3.6762	tb1_1     = -0.1140	tb2_1     = -1.0940	tb3_1     =  1.7316	tb4_1     =  0.0442	
tb5_1     = -1.7316	tb6_1     = -0.0442	tb7_1     =  0.2402	tb8_1     = -2.2889	

CDMFT iteration 5, distance =  1.61e+02, diff param =  6.42e-04, diff hybrid =  3.71e-03
9 minimization steps, time(MIN)/time(ED)=0.00094
====================== CDMFT converged on the parameters ======================
sb1_1     = -0.0000	sb2_1     = -0.0000	sb3_1     =  0.0103	sb4_1     = -0.1723	sb5_1     =  0.0103	
sb6_1     = -0.1723	sb7_1     =  0.0000	sb8_1     =  0.0000	eb1_1     =  0.0011	eb2_1     = -3.2714	
eb3_1     = -4.0237	eb4_1     = -0.1106	eb5_1     = -4.0237	eb6_1     = -0.1106	eb7_1     =  0.1519	
eb8_1     = -3.6761	tb1_1     = -0.1139	tb2_1     = -1.0943	tb3_1     =  1.7320	tb4_1     =  0.0457	
tb5_1     = -1.7320	tb6_1     = -0.0457	tb7_1     =  0.2393	tb8_1     = -2.2895	
   <D> = 0.013909
   <e> = 1.258603
   <mu> = 1.617265
   <tpd> = -0.588597
   <tpp> = -0.187432
   <tppp> = 0.078001
************************* CDMFT completed successfully *************************

******************************* CDMFT procedure *******************************

minimization method =  CG
mixing state =  1
frequency grid type =  sharp
fictitious inverse temperature =  50
frequency cutoff =  2.0
--------------------------------------------------------------------------------

CDMFT iteration 1, distance =  1.57e+02, diff param =  1.47e-02
68 minimization steps, time(MIN)/time(ED)=0.00165
sb1_1     = -0.0000	sb2_1     =  0.0000	sb3_1     =  0.0105	sb4_1     = -0.1660	sb5_1     =  0.0105	
sb6_1     = -0.1660	sb7_1     = -0.0000	sb8_1     = -0.0000	eb1_1     = -0.0029	eb2_1     = -3.3018	
eb3_1     = -4.0583	eb4_1     = -0.1047	eb5_1     = -4.0583	eb6_1     = -0.1047	eb7_1     =  0.1450	
eb8_1     = -3.7140	tb1_1     = -0.1120	tb2_1     = -1.0919	tb3_1     =  1.7268	tb4_1     =  0.0488	
tb5_1     = -1.7268	tb6_1     = -0.0488	tb7_1     =  0.2316	tb8_1     = -2.2811	

CDMFT iteration 2, distance =  1.48e+02, diff param =  6.39e-03, diff hybrid =  3.78e-02
46 minimization steps, time(MIN)/time(ED)=0.00137
sb1_1     =  0.0000	sb2_1     = -0.0000	sb3_1     =  0.0112	sb4_1     = -0.1605	sb5_1     =  0.0112	
sb6_1     = -0.1605	sb7_1     = -0.0000	sb8_1     = -0.0000	eb1_1     = -0.0079	eb2_1     = -3.3207	
eb3_1     = -4.0706	eb4_1     = -0.1013	eb5_1     = -4.0706	eb6_1     = -0.1013	eb7_1     =  0.1401	
eb8_1     = -3.7137	tb1_1     = -0.1111	tb2_1     = -1.0961	tb3_1     =  1.7316	tb4_1     =  0.0545	
tb5_1     = -1.7316	tb6_1     = -0.0545	tb7_1     =  0.2249	tb8_1     = -2.2847	

CDMFT iteration 3, distance =  1.49e+02, diff param =  2.45e-03, diff hybrid =  1.76e-02
34 minimization steps, time(MIN)/time(ED)=0.00120
sb1_1     =  0.0000	sb2_1     =  0.0000	sb3_1     =  0.0108	sb4_1     = -0.1613	sb5_1     =  0.0108	
sb6_1     = -0.1613	sb7_1     =  0.0000	sb8_1     =  0.0000	eb1_1     = -0.0055	eb2_1     = -3.3262	
eb3_1     = -4.0689	eb4_1     = -0.0979	eb5_1     = -4.0689	eb6_1     = -0.0979	eb7_1     =  0.1361	
eb8_1     = -3.7069	tb1_1     = -0.1117	tb2_1     = -1.0965	tb3_1     =  1.7305	tb4_1     =  0.0532	
tb5_1     = -1.7305	tb6_1     = -0.0532	tb7_1     =  0.2254	tb8_1     = -2.2818	

CDMFT iteration 4, distance =  1.51e+02, diff param =  2.66e-03, diff hybrid =  7.39e-03
44 minimization steps, time(MIN)/time(ED)=0.00116
sb1_1     = -0.0000	sb2_1     = -0.0000	sb3_1     =  0.0103	sb4_1     = -0.1628	sb5_1     =  0.0103	
sb6_1     = -0.1628	sb7_1     = -0.0000	sb8_1     = -0.0000	eb1_1     = -0.0030	eb2_1     = -3.3362	
eb3_1     = -4.0684	eb4_1     = -0.0986	eb5_1     = -4.0684	eb6_1     = -0.0986	eb7_1     =  0.1377	
eb8_1     = -3.7123	tb1_1     = -0.1116	tb2_1     = -1.0978	tb3_1     =  1.7301	tb4_1     =  0.0500	
tb5_1     = -1.7301	tb6_1     = -0.0500	tb7_1     =  0.2274	tb8_1     = -2.2827	

CDMFT iteration 5, distance =  1.50e+02, diff param =  6.80e-04, diff hybrid =  6.01e-03
10 minimization steps, time(MIN)/time(ED)=0.00098
====================== CDMFT converged on the parameters ======================
sb1_1     = -0.0000	sb2_1     =  0.0000	sb3_1     =  0.0105	sb4_1     = -0.1621	sb5_1     =  0.0105	
sb6_1     = -0.1621	sb7_1     =  0.0000	sb8_1     = -0.0000	eb1_1     = -0.0043	eb2_1     = -3.3362	
eb3_1     = -4.0682	eb4_1     = -0.0997	eb5_1     = -4.0683	eb6_1     = -0.0997	eb7_1     =  0.1390	
eb8_1     = -3.7122	tb1_1     = -0.1114	tb2_1     = -1.0982	tb3_1     =  1.7306	tb4_1     =  0.0511	
tb5_1     = -1.7306	tb6_1     = -0.0511	tb7_1     =  0.2266	tb8_1     = -2.2833	
   <D> = 0.014157
   <e> = 1.262017
   <mu> = 1.622218
   <tpd> = -0.574890
   <tpp> = -0.179118
   <tppp> = 0.074714
************************* CDMFT completed successfully *************************

******************************* CDMFT procedure *******************************

minimization method =  CG
mixing state =  1
frequency grid type =  sharp
fictitious inverse temperature =  50
frequency cutoff =  2.0
--------------------------------------------------------------------------------

CDMFT iteration 1, distance =  1.45e+02, diff param =  1.62e-02
66 minimization steps, time(MIN)/time(ED)=0.00153
sb1_1     = -0.0000	sb2_1     = -0.0000	sb3_1     =  0.0108	sb4_1     = -0.1556	sb5_1     =  0.0108	
sb6_1     = -0.1556	sb7_1     =  0.0000	sb8_1     =  0.0000	eb1_1     = -0.0099	eb2_1     = -3.3702	
eb3_1     = -4.1082	eb4_1     = -0.0950	eb5_1     = -4.1082	eb6_1     = -0.0950	eb7_1     =  0.1321	
eb8_1     = -3.7517	tb1_1     = -0.1097	tb2_1     = -1.0960	tb3_1     =  1.7264	tb4_1     =  0.0548	
tb5_1     = -1.7264	tb6_1     = -0.0548	tb7_1     =  0.2182	tb8_1     = -2.2754	

CDMFT iteration 2, distance =  1.36e+02, diff param =  7.25e-03, diff hybrid =  3.75e-02
58 minimization steps, time(MIN)/time(ED)=0.00147
sb1_1     = -0.0000	sb2_1     =  0.0000	sb3_1     =  0.0113	sb4_1     = -0.1489	sb5_1     =  0.0113	
sb6_1     = -0.1489	sb7_1     = -0.0000	sb8_1     =  0.0000	eb1_1     = -0.0176	eb2_1     = -3.3936	
eb3_1     = -4.1197	eb4_1     = -0.0919	eb5_1     = -4.1197	eb6_1     = -0.0919	eb7_1     =  0.1252	
eb8_1     = -3.7480	tb1_1     = -0.1092	tb2_1     = -1.1005	tb3_1     =  1.7311	tb4_1     =  0.0610	
tb5_1     = -1.7311	tb6_1     = -0.0610	tb7_1     =  0.2097	tb8_1     = -2.2781	

CDMFT iteration 3, distance =  1.36e+02, diff param =  3.49e-03, diff hybrid =  2.01e-02
28 minimization steps, time(MIN)/time(ED)=0.00118
sb1_1     =  0.0000	sb2_1     =  0.0000	sb3_1     =  0.0108	sb4_1     = -0.1495	sb5_1     =  0.0108	
sb6_1     = -0.1495	sb7_1     =  0.0000	sb8_1     =  0.0000	eb1_1     = -0.0142	eb2_1     = -3.3982	
eb3_1     = -4.1168	eb4_1     = -0.0863	eb5_1     = -4.1167	eb6_1     = -0.0863	eb7_1     =  0.1183	
eb8_1     = -3.7379	tb1_1     = -0.1097	tb2_1     = -1.1010	tb3_1     =  1.7297	tb4_1     =  0.0588	
tb5_1     = -1.7297	tb6_1     = -0.0588	tb7_1     =  0.2094	tb8_1     = -2.2742	

CDMFT iteration 4, distance =  1.38e+02, diff param =  3.78e-03, diff hybrid =  1.01e-02
44 minimization steps, time(MIN)/time(ED)=0.00114
sb1_1     = -0.0000	sb2_1     =  0.0000	sb3_1     =  0.0100	sb4_1     = -0.1517	sb5_1     =  0.0100	
sb6_1     = -0.1517	sb7_1     = -0.0000	sb8_1     =  0.0000	eb1_1     = -0.0099	eb2_1     = -3.4106	
eb3_1     = -4.1115	eb4_1     = -0.0864	eb5_1     = -4.1115	eb6_1     = -0.0864	eb7_1     =  0.1206	
eb8_1     = -3.7442	tb1_1     = -0.1093	tb2_1     = -1.1027	tb3_1     =  1.7284	tb4_1     =  0.0541	
tb5_1     = -1.7284	tb6_1     = -0.0542	tb7_1     =  0.2125	tb8_1     = -2.2751	

CDMFT iteration 5, distance =  1.38e+02, diff param =  1.12e-03, diff hybrid =  8.84e-03
21 minimization steps, time(MIN)/time(ED)=0.00100
sb1_1     =  0.0000	sb2_1     = -0.0000	sb3_1     =  0.0103	sb4_1     = -0.1510	sb5_1     =  0.0103	
sb6_1     = -0.1510	sb7_1     =  0.0000	sb8_1     = -0.0000	eb1_1     = -0.0115	eb2_1     = -3.4110	
eb3_1     = -4.1117	eb4_1     = -0.0887	eb5_1     = -4.1116	eb6_1     = -0.0887	eb7_1     =  0.1233	
eb8_1     = -3.7460	tb1_1     = -0.1090	tb2_1     = -1.1031	tb3_1     =  1.7290	tb4_1     =  0.0553	
tb5_1     = -1.7290	tb6_1     = -0.0553	tb7_1     =  0.2120	tb8_1     = -2.2764	

CDMFT iteration 6, distance =  1.37e+02, diff param =  8.80e-04, diff hybrid =  5.33e-03
9 minimization steps, time(MIN)/time(ED)=0.00087
====================== CDMFT converged on the parameters ======================
sb1_1     = -0.0000	sb2_1     = -0.0000	sb3_1     =  0.0106	sb4_1     = -0.1500	sb5_1     =  0.0106	
sb6_1     = -0.1500	sb7_1     = -0.0000	sb8_1     =  0.0000	eb1_1     = -0.0136	eb2_1     = -3.4110	
eb3_1     = -4.1117	eb4_1     = -0.0884	eb5_1     = -4.1117	eb6_1     = -0.0884	eb7_1     =  0.1224	
eb8_1     = -3.7458	tb1_1     = -0.1093	tb2_1     = -1.1031	tb3_1     =  1.7291	tb4_1     =  0.0574	
tb5_1     = -1.7291	tb6_1     = -0.0575	tb7_1     =  0.2108	tb8_1     = -2.2767	
   <D> = 0.013841
   <e> = 1.265691
   <mu> = 1.627570
   <tpd> = -0.560043
   <tpp> = -0.169990
   <tppp> = 0.071145
************************* CDMFT completed successfully *************************

******************************* CDMFT procedure *******************************

minimization method =  CG
mixing state =  1
frequency grid type =  sharp
fictitious inverse temperature =  50
frequency cutoff =  2.0
--------------------------------------------------------------------------------

CDMFT iteration 1, distance =  1.33e+02, diff param =  1.67e-02
83 minimization steps, time(MIN)/time(ED)=0.00193
sb1_1     =  0.0000	sb2_1     = -0.0000	sb3_1     =  0.0104	sb4_1     = -0.1444	sb5_1     =  0.0104	
sb6_1     = -0.1444	sb7_1     =  0.0000	sb8_1     =  0.0000	eb1_1     = -0.0180	eb2_1     = -3.4484	
eb3_1     = -4.1535	eb4_1     = -0.0839	eb5_1     = -4.1535	eb6_1     = -0.0839	eb7_1     =  0.1144	
eb8_1     = -3.7836	tb1_1     = -0.1078	tb2_1     = -1.1010	tb3_1     =  1.7248	tb4_1     =  0.0592	
tb5_1     = -1.7248	tb6_1     = -0.0591	tb7_1     =  0.2028	tb8_1     = -2.2675	

CDMFT iteration 2, distance =  1.24e+02, diff param =  1.19e-02, diff hybrid =  3.81e-02
55 minimization steps, time(MIN)/time(ED)=0.00158
sb1_1     = -0.0000	sb2_1     = -0.0000	sb3_1     =  0.0109	sb4_1     = -0.1371	sb5_1     =  0.0109	
sb6_1     = -0.1371	sb7_1     = -0.0000	sb8_1     =  0.0000	eb1_1     = -0.0299	eb2_1     = -3.4940	
eb3_1     = -4.1723	eb4_1     = -0.0826	eb5_1     = -4.1725	eb6_1     = -0.0827	eb7_1     =  0.1069	
eb8_1     = -3.7823	tb1_1     = -0.1084	tb2_1     = -1.1080	tb3_1     =  1.7311	tb4_1     =  0.0652	
tb5_1     = -1.7312	tb6_1     = -0.0652	tb7_1     =  0.1928	tb8_1     = -2.2708	

CDMFT iteration 3, distance =  9.58e+01, diff param =  1.24e-01, diff hybrid =  2.27e-02
189 minimization steps, time(MIN)/time(ED)=0.00242
sb1_1     =  0.0000	sb2_1     =  0.0000	sb3_1     =  0.0184	sb4_1     = -0.1055	sb5_1     =  0.0184	
sb6_1     = -0.1055	sb7_1     =  0.0001	sb8_1     = -0.0000	eb1_1     = -0.1626	eb2_1     = -4.0348	
eb3_1     = -4.3126	eb4_1     = -0.1225	eb5_1     = -4.3122	eb6_1     = -0.1224	eb7_1     =  0.1213	
eb8_1     = -3.7544	tb1_1     = -0.1711	tb2_1     = -1.1578	tb3_1     =  1.7522	tb4_1     =  0.1222	
tb5_1     = -1.7521	tb6_1     = -0.1222	tb7_1     =  0.1667	tb8_1     = -2.2723	

CDMFT iteration 4, distance =  1.05e+02, diff param =  9.23e-02, diff hybrid =  1.00e-01
93 minimization steps, time(MIN)/time(ED)=0.00248
sb1_1     = -0.0001	sb2_1     =  0.0000	sb3_1     =  0.0151	sb4_1     = -0.1141	sb5_1     =  0.0151	
sb6_1     = -0.1141	sb7_1     = -0.0000	sb8_1     =  0.0000	eb1_1     = -0.0424	eb2_1     = -3.6214	
eb3_1     = -4.3272	eb4_1     = -0.0908	eb5_1     = -4.3274	eb6_1     = -0.0908	eb7_1     =  0.0221	
eb8_1     = -3.7113	tb1_1     = -0.1256	tb2_1     = -1.1231	tb3_1     =  1.7547	tb4_1     =  0.1155	
tb5_1     = -1.7547	tb6_1     = -0.1155	tb7_1     =  0.1344	tb8_1     = -2.2477	

CDMFT iteration 5, distance =  1.24e+02, diff param =  4.92e-02, diff hybrid =  8.94e-02
76 minimization steps, time(MIN)/time(ED)=0.00229
sb1_1     = -0.0000	sb2_1     =  0.0000	sb3_1     =  0.0103	sb4_1     = -0.1340	sb5_1     =  0.0103	
sb6_1     = -0.1340	sb7_1     =  0.0001	sb8_1     = -0.0000	eb1_1     = -0.0102	eb2_1     = -3.5617	
eb3_1     = -4.1897	eb4_1     = -0.0681	eb5_1     = -4.1886	eb6_1     = -0.0680	eb7_1     =  0.0870	
eb8_1     = -3.7508	tb1_1     = -0.1125	tb2_1     = -1.1185	tb3_1     =  1.7310	tb4_1     =  0.0716	
tb5_1     = -1.7308	tb6_1     = -0.0714	tb7_1     =  0.1833	tb8_1     = -2.2604	

CDMFT iteration 6, distance =  1.31e+02, diff param =  1.29e-02, diff hybrid =  9.92e-02
65 minimization steps, time(MIN)/time(ED)=0.00215
sb1_1     = -0.0004	sb2_1     =  0.0000	sb3_1     =  0.0092	sb4_1     = -0.1440	sb5_1     =  0.0092	
sb6_1     = -0.1440	sb7_1     = -0.0001	sb8_1     =  0.0000	eb1_1     = -0.0130	eb2_1     = -3.5380	
eb3_1     = -4.1710	eb4_1     = -0.0762	eb5_1     = -4.1710	eb6_1     = -0.0764	eb7_1     =  0.1056	
eb8_1     = -3.7843	tb1_1     = -0.1083	tb2_1     = -1.1143	tb3_1     =  1.7287	tb4_1     =  0.0551	
tb5_1     = -1.7287	tb6_1     = -0.0553	tb7_1     =  0.2007	tb8_1     = -2.2682	

CDMFT iteration 7, distance =  1.25e+02, diff param =  5.57e-03, diff hybrid =  3.17e-02
44 minimization steps, time(MIN)/time(ED)=0.00198
sb1_1     =  0.0004	sb2_1     = -0.0000	sb3_1     =  0.0102	sb4_1     = -0.1392	sb5_1     =  0.0101	
sb6_1     = -0.1392	sb7_1     =  0.0002	sb8_1     = -0.0000	eb1_1     = -0.0234	eb2_1     = -3.5177	
eb3_1     = -4.1686	eb4_1     = -0.0816	eb5_1     = -4.1677	eb6_1     = -0.0813	eb7_1     =  0.1087	
eb8_1     = -3.7837	tb1_1     = -0.1071	tb2_1     = -1.1121	tb3_1     =  1.7306	tb4_1     =  0.0604	
tb5_1     = -1.7304	tb6_1     = -0.0602	tb7_1     =  0.1955	tb8_1     = -2.2708	

CDMFT iteration 8, distance =  1.22e+02, diff param =  4.10e-03, diff hybrid =  2.10e-02
34 minimization steps, time(MIN)/time(ED)=0.00182
sb1_1     = -0.0003	sb2_1     = -0.0000	sb3_1     =  0.0106	sb4_1     = -0.1359	sb5_1     =  0.0106	
sb6_1     = -0.1358	sb7_1     = -0.0011	sb8_1     =  0.0001	eb1_1     = -0.0306	eb2_1     = -3.5162	
eb3_1     = -4.1648	eb4_1     = -0.0773	eb5_1     = -4.1680	eb6_1     = -0.0790	eb7_1     =  0.1003	
eb8_1     = -3.7723	tb1_1     = -0.1094	tb2_1     = -1.1111	tb3_1     =  1.7299	tb4_1     =  0.0644	
tb5_1     = -1.7303	tb6_1     = -0.0657	tb7_1     =  0.1904	tb8_1     = -2.2681	

CDMFT iteration 9, distance =  9.77e+01, diff param =  1.13e-01, diff hybrid =  1.13e-02
166 minimization steps, time(MIN)/time(ED)=0.00200
sb1_1     =  0.0011	sb2_1     = -0.0004	sb3_1     =  0.0180	sb4_1     = -0.1087	sb5_1     =  0.0179	
sb6_1     = -0.1086	sb7_1     =  0.0018	sb8_1     = -0.0003	eb1_1     = -0.1530	eb2_1     = -4.0077	
eb3_1     = -4.2957	eb4_1     = -0.1160	eb5_1     = -4.2911	eb6_1     = -0.1149	eb7_1     =  0.1187	
eb8_1     = -3.7569	tb1_1     = -0.1669	tb2_1     = -1.1552	tb3_1     =  1.7502	tb4_1     =  0.1167	
tb5_1     = -1.7496	tb6_1     = -0.1152	tb7_1     =  0.1686	tb8_1     = -2.2724	

CDMFT iteration 10, distance =  1.05e+02, diff param =  8.77e-02, diff hybrid =  9.34e-02
174 minimization steps, time(MIN)/time(ED)=0.00221
sb1_1     = -0.0008	sb2_1     =  0.0001	sb3_1     =  0.0153	sb4_1     = -0.1133	sb5_1     =  0.0154	
sb6_1     = -0.1139	sb7_1     = -0.0019	sb8_1     =  0.0001	eb1_1     = -0.0457	eb2_1     = -3.6144	
eb3_1     = -4.3203	eb4_1     = -0.0930	eb5_1     = -4.3241	eb6_1     = -0.0938	eb7_1     =  0.0254	
eb8_1     = -3.7086	tb1_1     = -0.1261	tb2_1     = -1.1216	tb3_1     =  1.7535	tb4_1     =  0.1155	
tb5_1     = -1.7541	tb6_1     = -0.1160	tb7_1     =  0.1341	tb8_1     = -2.2478	

CDMFT iteration 11, distance =  1.18e+02, diff param =  3.60e-02, diff hybrid =  8.08e-02
95 minimization steps, time(MIN)/time(ED)=0.00218
sb1_1     =  0.0010	sb2_1     = -0.0001	sb3_1     =  0.0127	sb4_1     = -0.1278	sb5_1     =  0.0126	
sb6_1     = -0.1275	sb7_1     =  0.0005	sb8_1     = -0.0001	eb1_1     = -0.0188	eb2_1     = -3.5472	
eb3_1     = -4.2367	eb4_1     = -0.0787	eb5_1     = -4.2335	eb6_1     = -0.0778	eb7_1     =  0.0888	
eb8_1     = -3.7497	tb1_1     = -0.1142	tb2_1     = -1.1164	tb3_1     =  1.7400	tb4_1     =  0.0880	
tb5_1     = -1.7394	tb6_1     = -0.0877	tb7_1     =  0.1747	tb8_1     = -2.2631	

CDMFT iteration 12, distance =  1.31e+02, diff param =  2.19e-02, diff hybrid =  7.59e-02
101 minimization steps, time(MIN)/time(ED)=0.00219
sb1_1     = -0.0010	sb2_1     =  0.0000	sb3_1     =  0.0096	sb4_1     = -0.1429	sb5_1     =  0.0098	
sb6_1     = -0.1431	sb7_1     = -0.0006	sb8_1     =  0.0001	eb1_1     = -0.0155	eb2_1     = -3.5257	
eb3_1     = -4.1718	eb4_1     = -0.0738	eb5_1     = -4.1767	eb6_1     = -0.0750	eb7_1     =  0.0989	
eb8_1     = -3.7750	tb1_1     = -0.1095	tb2_1     = -1.1123	tb3_1     =  1.7281	tb4_1     =  0.0599	
tb5_1     = -1.7290	tb6_1     = -0.0609	tb7_1     =  0.1979	tb8_1     = -2.2651	

CDMFT iteration 13, distance =  1.28e+02, diff param =  4.40e-03, diff hybrid =  4.98e-02
59 minimization steps, time(MIN)/time(ED)=0.00211
sb1_1     =  0.0017	sb2_1     = -0.0001	sb3_1     =  0.0095	sb4_1     = -0.1421	sb5_1     =  0.0093	
sb6_1     = -0.1420	sb7_1     =  0.0007	sb8_1     = -0.0001	eb1_1     = -0.0168	eb2_1     = -3.5181	
eb3_1     = -4.1700	eb4_1     = -0.0798	eb5_1     = -4.1687	eb6_1     = -0.0785	eb7_1     =  0.1078	
eb8_1     = -3.7862	tb1_1     = -0.1065	tb2_1     = -1.1121	tb3_1     =  1.7297	tb4_1     =  0.0571	
tb5_1     = -1.7295	tb6_1     = -0.0557	tb7_1     =  0.1987	tb8_1     = -2.2700	

CDMFT iteration 14, distance =  1.23e+02, diff param =  4.56e-03, diff hybrid =  1.45e-02
32 minimization steps, time(MIN)/time(ED)=0.00201
sb1_1     = -0.0011	sb2_1     =  0.0001	sb3_1     =  0.0106	sb4_1     = -0.1365	sb5_1     =  0.0108	
sb6_1     = -0.1366	sb7_1     = -0.0012	sb8_1     =  0.0001	eb1_1     = -0.0300	eb2_1     = -3.5162	
eb3_1     = -4.1676	eb4_1     = -0.0802	eb5_1     = -4.1692	eb6_1     = -0.0823	eb7_1     =  0.1058	
eb8_1     = -3.7803	tb1_1     = -0.1088	tb2_1     = -1.1113	tb3_1     =  1.7308	tb4_1     =  0.0635	
tb5_1     = -1.7309	tb6_1     = -0.0653	tb7_1     =  0.1922	tb8_1     = -2.2707	

CDMFT iteration 15, distance =  9.62e+01, diff param =  1.23e-01, diff hybrid =  2.03e-02
147 minimization steps, time(MIN)/time(ED)=0.00209
sb1_1     =  0.0008	sb2_1     = -0.0002	sb3_1     =  0.0182	sb4_1     = -0.1061	sb5_1     =  0.0182	
sb6_1     = -0.1053	sb7_1     =  0.0065	sb8_1     = -0.0012	eb1_1     = -0.1641	eb2_1     = -4.0569	
eb3_1     = -4.3090	eb4_1     = -0.1221	eb5_1     = -4.2888	eb6_1     = -0.1180	eb7_1     =  0.1200	
eb8_1     = -3.7549	tb1_1     = -0.1719	tb2_1     = -1.1601	tb3_1     =  1.7517	tb4_1     =  0.1215	
tb5_1     = -1.7483	tb6_1     = -0.1197	tb7_1     =  0.1668	tb8_1     = -2.2723	

CDMFT iteration 16, distance =  1.05e+02, diff param =  1.01e-01, diff hybrid =  9.89e-02
152 minimization steps, time(MIN)/time(ED)=0.00219
sb1_1     = -0.0031	sb2_1     =  0.0005	sb3_1     =  0.0149	sb4_1     = -0.1137	sb5_1     =  0.0152	
sb6_1     = -0.1147	sb7_1     = -0.0017	sb8_1     =  0.0001	eb1_1     = -0.0418	eb2_1     = -3.5990	
eb3_1     = -4.3195	eb4_1     = -0.0898	eb5_1     = -4.3199	eb6_1     = -0.0911	eb7_1     =  0.0234	
eb8_1     = -3.7100	tb1_1     = -0.1250	tb2_1     = -1.1201	tb3_1     =  1.7534	tb4_1     =  0.1141	
tb5_1     = -1.7534	tb6_1     = -0.1155	tb7_1     =  0.1347	tb8_1     = -2.2475	

CDMFT iteration 17, distance =  1.23e+02, diff param =  4.54e-02, diff hybrid =  8.81e-02
105 minimization steps, time(MIN)/time(ED)=0.00219
sb1_1     =  0.0003	sb2_1     =  0.0002	sb3_1     =  0.0110	sb4_1     = -0.1330	sb5_1     =  0.0106	
sb6_1     = -0.1325	sb7_1     =  0.0046	sb8_1     = -0.0005	eb1_1     = -0.0117	eb2_1     = -3.5442	
eb3_1     = -4.2167	eb4_1     = -0.0735	eb5_1     = -4.1755	eb6_1     = -0.0668	eb7_1     =  0.0880	
eb8_1     = -3.7504	tb1_1     = -0.1126	tb2_1     = -1.1161	tb3_1     =  1.7360	tb4_1     =  0.0770	
tb5_1     = -1.7287	tb6_1     = -0.0726	tb7_1     =  0.1818	tb8_1     = -2.2610	

CDMFT iteration 18, distance =  1.31e+02, diff param =  1.55e-02, diff hybrid =  9.30e-02
80 minimization steps, time(MIN)/time(ED)=0.00217
sb1_1     = -0.0126	sb2_1     =  0.0006	sb3_1     =  0.0088	sb4_1     = -0.1432	sb5_1     =  0.0099	
sb6_1     = -0.1441	sb7_1     = -0.0027	sb8_1     =  0.0003	eb1_1     = -0.0141	eb2_1     = -3.5284	
eb3_1     = -4.1684	eb4_1     = -0.0734	eb5_1     = -4.1740	eb6_1     = -0.0789	eb7_1     =  0.1046	
eb8_1     = -3.7832	tb1_1     = -0.1078	tb2_1     = -1.1129	tb3_1     =  1.7281	tb4_1     =  0.0534	
tb5_1     = -1.7291	tb6_1     = -0.0599	tb7_1     =  0.2002	tb8_1     = -2.2679	

CDMFT iteration 19, distance =  1.26e+02, diff param =  8.89e-03, diff hybrid =  3.57e-02
52 minimization steps, time(MIN)/time(ED)=0.00211
sb1_1     =  0.0054	sb2_1     = -0.0002	sb3_1     =  0.0106	sb4_1     = -0.1398	sb5_1     =  0.0096	
sb6_1     = -0.1389	sb7_1     =  0.0048	sb8_1     = -0.0006	eb1_1     = -0.0225	eb2_1     = -3.5137	
eb3_1     = -4.1861	eb4_1     = -0.0855	eb5_1     = -4.1513	eb6_1     = -0.0768	eb7_1     =  0.1088	
eb8_1     = -3.7852	tb1_1     = -0.1069	tb2_1     = -1.1115	tb3_1     =  1.7333	tb4_1     =  0.0641	
tb5_1     = -1.7274	tb6_1     = -0.0563	tb7_1     =  0.1958	tb8_1     = -2.2710	

CDMFT iteration 20, distance =  1.21e+02, diff param =  1.83e-02, diff hybrid =  2.31e-02
62 minimization steps, time(MIN)/time(ED)=0.00207
sb1_1     = -0.0073	sb2_1     =  0.0005	sb3_1     =  0.0100	sb4_1     = -0.1332	sb5_1     =  0.0119	
sb6_1     = -0.1347	sb7_1     = -0.0099	sb8_1     =  0.0011	eb1_1     = -0.0340	eb2_1     = -3.5139	
eb3_1     = -4.1278	eb4_1     = -0.0701	eb5_1     = -4.2054	eb6_1     = -0.0889	eb7_1     =  0.1022	
eb8_1     = -3.7738	tb1_1     = -0.1104	tb2_1     = -1.1104	tb3_1     =  1.7235	tb4_1     =  0.0599	
tb5_1     = -1.7368	tb6_1     = -0.0751	tb7_1     =  0.1888	tb8_1     = -2.2692	

CDMFT iteration 21, distance =  1.01e+02, diff param =  1.03e-01, diff hybrid =  2.74e-02
227 minimization steps, time(MIN)/time(ED)=0.00221
sb1_1     =  0.0104	sb2_1     = -0.0032	sb3_1     =  0.0178	sb4_1     = -0.1124	sb5_1     =  0.0163	
sb6_1     = -0.1091	sb7_1     =  0.0255	sb8_1     = -0.0045	eb1_1     = -0.1398	eb2_1     = -3.9481	
eb3_1     = -4.3246	eb4_1     = -0.1195	eb5_1     = -4.2248	eb6_1     = -0.0964	eb7_1     =  0.1165	
eb8_1     = -3.7613	tb1_1     = -0.1614	tb2_1     = -1.1496	tb3_1     =  1.7548	tb4_1     =  0.1197	
tb5_1     = -1.7393	tb6_1     = -0.1022	tb7_1     =  0.1687	tb8_1     = -2.2722	

CDMFT iteration 22, distance =  1.06e+02, diff param =  7.97e-02, diff hybrid =  8.83e-02
152 minimization steps, time(MIN)/time(ED)=0.00227
sb1_1     = -0.0142	sb2_1     =  0.0023	sb3_1     =  0.0146	sb4_1     = -0.1122	sb5_1     =  0.0160	
sb6_1     = -0.1182	sb7_1     = -0.0165	sb8_1     =  0.0014	eb1_1     = -0.0437	eb2_1     = -3.6091	
eb3_1     = -4.2885	eb4_1     = -0.0869	eb5_1     = -4.3250	eb6_1     = -0.0980	eb7_1     =  0.0374	
eb8_1     = -3.7098	tb1_1     = -0.1236	tb2_1     = -1.1214	tb3_1     =  1.7487	tb4_1     =  0.1075	
tb5_1     = -1.7542	tb6_1     = -0.1166	tb7_1     =  0.1379	tb8_1     = -2.2495	

CDMFT iteration 23, distance =  1.23e+02, diff param =  4.77e-02, diff hybrid =  7.79e-02
134 minimization steps, time(MIN)/time(ED)=0.00230
sb1_1     =  0.0208	sb2_1     = -0.0007	sb3_1     =  0.0140	sb4_1     = -0.1346	sb5_1     =  0.0110	
sb6_1     = -0.1267	sb7_1     =  0.0224	sb8_1     = -0.0028	eb1_1     = -0.0216	eb2_1     = -3.5356	
eb3_1     = -4.3235	eb4_1     = -0.1006	eb5_1     = -4.1520	eb6_1     = -0.0612	eb7_1     =  0.1005	
eb8_1     = -3.7686	tb1_1     = -0.1122	tb2_1     = -1.1144	tb3_1     =  1.7549	tb4_1     =  0.0969	
tb5_1     = -1.7250	tb6_1     = -0.0743	tb7_1     =  0.1812	tb8_1     = -2.2679	

CDMFT iteration 24, distance =  1.30e+02, diff param =  5.13e-02, diff hybrid =  8.11e-02
73 minimization steps, time(MIN)/time(ED)=0.00227
sb1_1     = -0.0411	sb2_1     =  0.0024	sb3_1     =  0.0072	sb4_1     = -0.1393	sb5_1     =  0.0126	
sb6_1     = -0.1451	sb7_1     = -0.0202	sb8_1     =  0.0022	eb1_1     = -0.0238	eb2_1     = -3.5289	
eb3_1     = -4.1242	eb4_1     = -0.0576	eb5_1     = -4.2465	eb6_1     = -0.0977	eb7_1     =  0.1029	
eb8_1     = -3.7832	tb1_1     = -0.1034	tb2_1     = -1.1128	tb3_1     =  1.7200	tb4_1     =  0.0417	
tb5_1     = -1.7413	tb6_1     = -0.0803	tb7_1     =  0.1969	tb8_1     = -2.2680	

CDMFT iteration 25, distance =  1.24e+02, diff param =  4.80e-02, diff hybrid =  7.57e-02
105 minimization steps, time(MIN)/time(ED)=0.00227
sb1_1     =  0.0330	sb2_1     = -0.0029	sb3_1     =  0.0138	sb4_1     = -0.1389	sb5_1     =  0.0074	
sb6_1     = -0.1336	sb7_1     =  0.0251	sb8_1     = -0.0031	eb1_1     = -0.0329	eb2_1     = -3.5199	
eb3_1     = -4.2622	eb4_1     = -0.1072	eb5_1     = -4.1065	eb6_1     = -0.0603	eb7_1     =  0.1138	
eb8_1     = -3.7930	tb1_1     = -0.1062	tb2_1     = -1.1118	tb3_1     =  1.7457	tb4_1     =  0.0870	
tb5_1     = -1.7199	tb6_1     = -0.0421	tb7_1     =  0.1928	tb8_1     = -2.2740	

CDMFT iteration 26, distance =  1.14e+02, diff param =  8.93e-02, diff hybrid =  7.94e-02
175 minimization steps, time(MIN)/time(ED)=0.00234
sb1_1     = -0.0267	sb2_1     =  0.0073	sb3_1     =  0.0099	sb4_1     = -0.1183	sb5_1     =  0.0168	
sb6_1     = -0.1258	sb7_1     = -0.0367	sb8_1     =  0.0055	eb1_1     = -0.1130	eb2_1     = -3.8192	
eb3_1     = -4.1052	eb4_1     = -0.0599	eb5_1     = -4.3231	eb6_1     = -0.1187	eb7_1     =  0.1143	
eb8_1     = -3.7809	tb1_1     = -0.1458	tb2_1     = -1.1385	tb3_1     =  1.7208	tb4_1     =  0.0623	
tb5_1     = -1.7554	tb6_1     = -0.1111	tb7_1     =  0.1783	tb8_1     = -2.2741	

CDMFT iteration 27, distance =  1.06e+02, diff param =  6.91e-02, diff hybrid =  9.92e-02
164 minimization steps, time(MIN)/time(ED)=0.00239
sb1_1     =  0.0286	sb2_1     = -0.0062	sb3_1     =  0.0174	sb4_1     = -0.1204	sb5_1     =  0.0135	
sb6_1     = -0.1093	sb7_1     =  0.0445	sb8_1     = -0.0077	eb1_1     = -0.0679	eb2_1     = -3.6885	
eb3_1     = -4.3501	eb4_1     = -0.1135	eb5_1     = -4.2040	eb6_1     = -0.0764	eb7_1     =  0.1125	
eb8_1     = -3.7733	tb1_1     = -0.1295	tb2_1     = -1.1288	tb3_1     =  1.7584	tb4_1     =  0.1220	
tb5_1     = -1.7363	tb6_1     = -0.0903	tb7_1     =  0.1680	tb8_1     = -2.2731	

CDMFT iteration 28, distance =  1.19e+02, diff param =  6.38e-02, diff hybrid =  9.39e-02
82 minimization steps, time(MIN)/time(ED)=0.00238
sb1_1     = -0.0301	sb2_1     =  0.0027	sb3_1     =  0.0111	sb4_1     = -0.1189	sb5_1     =  0.0155	
sb6_1     = -0.1321	sb7_1     = -0.0320	sb8_1     =  0.0047	eb1_1     = -0.0310	eb2_1     = -3.5585	
eb3_1     = -4.1525	eb4_1     = -0.0595	eb5_1     = -4.3524	eb6_1     = -0.1080	eb7_1     =  0.1032	
eb8_1     = -3.7695	tb1_1     = -0.1137	tb2_1     = -1.1168	tb3_1     =  1.7255	tb4_1     =  0.0789	
tb5_1     = -1.7596	tb6_1     = -0.1070	tb7_1     =  0.1761	tb8_1     = -2.2694	

CDMFT iteration 29, distance =  1.28e+02, diff param =  6.71e-02, diff hybrid =  9.00e-02
109 minimization steps, time(MIN)/time(ED)=0.00238
sb1_1     =  0.0444	sb2_1     = -0.0028	sb3_1     =  0.0137	sb4_1     = -0.1428	sb5_1     =  0.0073	
sb6_1     = -0.1346	sb7_1     =  0.0293	sb8_1     = -0.0032	eb1_1     = -0.0279	eb2_1     = -3.5353	
eb3_1     = -4.3029	eb4_1     = -0.1073	eb5_1     = -4.1034	eb6_1     = -0.0504	eb7_1     =  0.1048	
eb8_1     = -3.7850	tb1_1     = -0.1046	tb2_1     = -1.1138	tb3_1     =  1.7510	tb4_1     =  0.0916	
tb5_1     = -1.7165	tb6_1     = -0.0431	tb7_1     =  0.1921	tb8_1     = -2.2697	

CDMFT iteration 30, distance =  1.25e+02, diff param =  6.51e-02, diff hybrid =  9.45e-02
84 minimization steps, time(MIN)/time(ED)=0.00236
sb1_1     = -0.0431	sb2_1     =  0.0042	sb3_1     =  0.0065	sb4_1     = -0.1332	sb5_1     =  0.0146	
sb6_1     = -0.1399	sb7_1     = -0.0313	sb8_1     =  0.0038	eb1_1     = -0.0372	eb2_1     = -3.5338	
eb3_1     = -4.0980	eb4_1     = -0.0548	eb5_1     = -4.2858	eb6_1     = -0.1127	eb7_1     =  0.1139	
eb8_1     = -3.7951	tb1_1     = -0.1057	tb2_1     = -1.1135	tb3_1     =  1.7178	tb4_1     =  0.0360	
tb5_1     = -1.7490	tb6_1     = -0.0940	tb7_1     =  0.1925	tb8_1     = -2.2741	

CDMFT iteration 31, distance =  1.18e+02, diff param =  7.64e-02, diff hybrid =  9.88e-02
139 minimization steps, time(MIN)/time(ED)=0.00238
sb1_1     =  0.0339	sb2_1     = -0.0075	sb3_1     =  0.0169	sb4_1     = -0.1296	sb5_1     =  0.0085	
sb6_1     = -0.1216	sb7_1     =  0.0394	sb8_1     = -0.0058	eb1_1     = -0.0816	eb2_1     = -3.6696	
eb3_1     = -4.3329	eb4_1     = -0.1198	eb5_1     = -4.0986	eb6_1     = -0.0565	eb7_1     =  0.1173	
eb8_1     = -3.7904	tb1_1     = -0.1296	tb2_1     = -1.1247	tb3_1     =  1.7570	tb4_1     =  0.1106	
tb5_1     = -1.7198	tb6_1     = -0.0525	tb7_1     =  0.1820	tb8_1     = -2.2759	

CDMFT iteration 32, distance =  1.09e+02, diff param =  7.07e-02, diff hybrid =  1.09e-01
105 minimization steps, time(MIN)/time(ED)=0.00239
sb1_1     = -0.0316	sb2_1     =  0.0070	sb3_1     =  0.0122	sb4_1     = -0.1103	sb5_1     =  0.0174	
sb6_1     = -0.1228	sb7_1     = -0.0491	sb8_1     =  0.0083	eb1_1     = -0.0746	eb2_1     = -3.6831	
eb3_1     = -4.1641	eb4_1     = -0.0680	eb5_1     = -4.3512	eb6_1     = -0.1173	eb7_1     =  0.1178	
eb8_1     = -3.7830	tb1_1     = -0.1310	tb2_1     = -1.1272	tb3_1     =  1.7300	tb4_1     =  0.0808	
tb5_1     = -1.7586	tb6_1     = -0.1211	tb7_1     =  0.1715	tb8_1     = -2.2750	

CDMFT iteration 33, distance =  1.18e+02, diff param =  6.83e-02, diff hybrid =  1.05e-01
141 minimization steps, time(MIN)/time(ED)=0.00241
sb1_1     =  0.0326	sb2_1     = -0.0035	sb3_1     =  0.0158	sb4_1     = -0.1308	sb5_1     =  0.0110	
sb6_1     = -0.1168	sb7_1     =  0.0358	sb8_1     = -0.0054	eb1_1     = -0.0356	eb2_1     = -3.5682	
eb3_1     = -4.3520	eb4_1     = -0.1103	eb5_1     = -4.1530	eb6_1     = -0.0588	eb7_1     =  0.1066	
eb8_1     = -3.7730	tb1_1     = -0.1144	tb2_1     = -1.1178	tb3_1     =  1.7593	tb4_1     =  0.1099	
tb5_1     = -1.7261	tb6_1     = -0.0781	tb7_1     =  0.1756	tb8_1     = -2.2708	

CDMFT iteration 34, distance =  1.26e+02, diff param =  6.97e-02, diff hybrid =  9.69e-02
87 minimization steps, time(MIN)/time(ED)=0.00239
sb1_1     = -0.0434	sb2_1     =  0.0031	sb3_1     =  0.0077	sb4_1     = -0.1316	sb5_1     =  0.0143	
sb6_1     = -0.1408	sb7_1     = -0.0317	sb8_1     =  0.0037	eb1_1     = -0.0297	eb2_1     = -3.5418	
eb3_1     = -4.0992	eb4_1     = -0.0493	eb5_1     = -4.3175	eb6_1     = -0.1100	eb7_1     =  0.1059	
eb8_1     = -3.7847	tb1_1     = -0.1062	tb2_1     = -1.1148	tb3_1     =  1.7161	tb4_1     =  0.0472	
tb5_1     = -1.7536	tb6_1     = -0.0961	tb7_1     =  0.1893	tb8_1     = -2.2705	

CDMFT iteration 35, distance =  1.25e+02, diff param =  6.87e-02, diff hybrid =  9.76e-02
91 minimization steps, time(MIN)/time(ED)=0.00238
sb1_1     =  0.0444	sb2_1     = -0.0043	sb3_1     =  0.0148	sb4_1     = -0.1400	sb5_1     =  0.0066	
sb6_1     = -0.1328	sb7_1     =  0.0326	sb8_1     = -0.0040	eb1_1     = -0.0376	eb2_1     = -3.5383	
eb3_1     = -4.2959	eb4_1     = -0.1135	eb5_1     = -4.1023	eb6_1     = -0.0531	eb7_1     =  0.1133	
eb8_1     = -3.7961	tb1_1     = -0.1060	tb2_1     = -1.1140	tb3_1     =  1.7504	tb4_1     =  0.0960	
tb5_1     = -1.7184	tb6_1     = -0.0366	tb7_1     =  0.1920	tb8_1     = -2.2743	

CDMFT iteration 36, distance =  1.19e+02, diff param =  7.25e-02, diff hybrid =  1.02e-01
143 minimization steps, time(MIN)/time(ED)=0.00241
sb1_1     = -0.0359	sb2_1     =  0.0069	sb3_1     =  0.0081	sb4_1     = -0.1234	sb5_1     =  0.0166	
sb6_1     = -0.1312	sb7_1     = -0.0389	sb8_1     =  0.0056	eb1_1     = -0.0682	eb2_1     = -3.6265	
eb3_1     = -4.1008	eb4_1     = -0.0556	eb5_1     = -4.3244	eb6_1     = -0.1190	eb7_1     =  0.1174	
eb8_1     = -3.7928	tb1_1     = -0.1228	tb2_1     = -1.1214	tb3_1     =  1.7201	tb4_1     =  0.0495	
tb5_1     = -1.7554	tb6_1     = -0.1088	tb7_1     =  0.1836	tb8_1     = -2.2761	

CDMFT iteration 37, distance =  1.11e+02, diff param =  7.25e-02, diff hybrid =  1.10e-01
122 minimization steps, time(MIN)/time(ED)=0.00242
sb1_1     =  0.0324	sb2_1     = -0.0070	sb3_1     =  0.0173	sb4_1     = -0.1243	sb5_1     =  0.0113	
sb6_1     = -0.1119	sb7_1     =  0.0480	sb8_1     = -0.0079	eb1_1     = -0.0744	eb2_1     = -3.6679	
eb3_1     = -4.3522	eb4_1     = -0.1186	eb5_1     = -4.1438	eb6_1     = -0.0635	eb7_1     =  0.1183	
eb8_1     = -3.7849	tb1_1     = -0.1300	tb2_1     = -1.1254	tb3_1     =  1.7590	tb4_1     =  0.1197	
tb5_1     = -1.7267	tb6_1     = -0.0750	tb7_1     =  0.1735	tb8_1     = -2.2753	

CDMFT iteration 38, distance =  1.16e+02, diff param =  7.13e-02, diff hybrid =  1.07e-01
142 minimization steps, time(MIN)/time(ED)=0.00244
sb1_1     = -0.0332	sb2_1     =  0.0039	sb3_1     =  0.0109	sb4_1     = -0.1160	sb5_1     =  0.0162	
sb6_1     = -0.1300	sb7_1     = -0.0379	sb8_1     =  0.0058	eb1_1     = -0.0388	eb2_1     = -3.5632	
eb3_1     = -4.1501	eb4_1     = -0.0589	eb5_1     = -4.3554	eb6_1     = -0.1117	eb7_1     =  0.1086	
eb8_1     = -3.7753	tb1_1     = -0.1152	tb2_1     = -1.1167	tb3_1     =  1.7260	tb4_1     =  0.0771	
tb5_1     = -1.7599	tb6_1     = -0.1117	tb7_1     =  0.1754	tb8_1     = -2.2717	

CDMFT iteration 39, distance =  1.25e+02, diff param =  7.17e-02, diff hybrid =  9.84e-02
99 minimization steps, time(MIN)/time(ED)=0.00245
sb1_1     =  0.0418	sb2_1     = -0.0031	sb3_1     =  0.0147	sb4_1     = -0.1393	sb5_1     =  0.0081	
sb6_1     = -0.1293	sb7_1     =  0.0328	sb8_1     = -0.0040	eb1_1     = -0.0311	eb2_1     = -3.5366	
eb3_1     = -4.3298	eb4_1     = -0.1114	eb5_1     = -4.1006	eb6_1     = -0.0494	eb7_1     =  0.1068	
eb8_1     = -3.7838	tb1_1     = -0.1074	tb2_1     = -1.1140	tb3_1     =  1.7558	tb4_1     =  0.0992	
tb5_1     = -1.7165	tb6_1     = -0.0511	tb7_1     =  0.1873	tb8_1     = -2.2709	

CDMFT iteration 40, distance =  1.25e+02, diff param =  7.07e-02, diff hybrid =  9.82e-02
96 minimization steps, time(MIN)/time(ED)=0.00244
sb1_1     = -0.0443	sb2_1     =  0.0043	sb3_1     =  0.0068	sb4_1     = -0.1323	sb5_1     =  0.0148	
sb6_1     = -0.1397	sb7_1     = -0.0332	sb8_1     =  0.0040	eb1_1     = -0.0373	eb2_1     = -3.5375	
eb3_1     = -4.1028	eb4_1     = -0.0522	eb5_1     = -4.3008	eb6_1     = -0.1134	eb7_1     =  0.1123	
eb8_1     = -3.7932	tb1_1     = -0.1064	tb2_1     = -1.1138	tb3_1     =  1.7183	tb4_1     =  0.0383	
tb5_1     = -1.7511	tb6_1     = -0.0971	tb7_1     =  0.1912	tb8_1     = -2.2735	

CDMFT iteration 41, distance =  1.20e+02, diff param =  7.05e-02, diff hybrid =  1.02e-01
80 minimization steps, time(MIN)/time(ED)=0.00242
sb1_1     =  0.0370	sb2_1     = -0.0060	sb3_1     =  0.0163	sb4_1     = -0.1324	sb5_1     =  0.0078	
sb6_1     = -0.1246	sb7_1     =  0.0382	sb8_1     = -0.0054	eb1_1     = -0.0577	eb2_1     = -3.5764	
eb3_1     = -4.3166	eb4_1     = -0.1178	eb5_1     = -4.0956	eb6_1     = -0.0547	eb7_1     =  0.1168	
eb8_1     = -3.7932	tb1_1     = -0.1175	tb2_1     = -1.1164	tb3_1     =  1.7539	tb4_1     =  0.1071	
tb5_1     = -1.7188	tb6_1     = -0.0476	tb7_1     =  0.1847	tb8_1     = -2.2759	

CDMFT iteration 42, distance =  1.13e+02, diff param =  7.38e-02, diff hybrid =  1.08e-01
122 minimization steps, time(MIN)/time(ED)=0.00243
sb1_1     = -0.0333	sb2_1     =  0.0067	sb3_1     =  0.0105	sb4_1     = -0.1143	sb5_1     =  0.0171	
sb6_1     = -0.1259	sb7_1     = -0.0460	sb8_1     =  0.0074	eb1_1     = -0.0700	eb2_1     = -3.6353	
eb3_1     = -4.1286	eb4_1     = -0.0598	eb5_1     = -4.3454	eb6_1     = -0.1185	eb7_1     =  0.1177	
eb8_1     = -3.7863	tb1_1     = -0.1270	tb2_1     = -1.1219	tb3_1     =  1.7242	tb4_1     =  0.0691	
tb5_1     = -1.7580	tb6_1     = -0.1175	tb7_1     =  0.1758	tb8_1     = -2.2754	

CDMFT iteration 43, distance =  1.16e+02, diff param =  7.03e-02, diff hybrid =  1.07e-01
110 minimization steps, time(MIN)/time(ED)=0.00244
sb1_1     =  0.0338	sb2_1     = -0.0044	sb3_1     =  0.0163	sb4_1     = -0.1294	sb5_1     =  0.0108	
sb6_1     = -0.1159	sb7_1     =  0.0397	sb8_1     = -0.0061	eb1_1     = -0.0425	eb2_1     = -3.5776	
eb3_1     = -4.3501	eb4_1     = -0.1129	eb5_1     = -4.1446	eb6_1     = -0.0584	eb7_1     =  0.1110	
eb8_1     = -3.7785	tb1_1     = -0.1161	tb2_1     = -1.1183	tb3_1     =  1.7589	tb4_1     =  0.1127	
tb5_1     = -1.7254	tb6_1     = -0.0748	tb7_1     =  0.1760	tb8_1     = -2.2726	

CDMFT iteration 44, distance =  1.24e+02, diff param =  6.97e-02, diff hybrid =  9.96e-02
75 minimization steps, time(MIN)/time(ED)=0.00243
sb1_1     = -0.0399	sb2_1     =  0.0034	sb3_1     =  0.0085	sb4_1     = -0.1268	sb5_1     =  0.0150	
sb6_1     = -0.1373	sb7_1     = -0.0341	sb8_1     =  0.0043	eb1_1     = -0.0332	eb2_1     = -3.5483	
eb3_1     = -4.1108	eb4_1     = -0.0501	eb5_1     = -4.3270	eb6_1     = -0.1120	eb7_1     =  0.1079	
eb8_1     = -3.7837	tb1_1     = -0.1092	tb2_1     = -1.1154	tb3_1     =  1.7188	tb4_1     =  0.0550	
tb5_1     = -1.7552	tb6_1     = -0.1018	tb7_1     =  0.1852	tb8_1     = -2.2716	

CDMFT iteration 45, distance =  1.25e+02, diff param =  7.02e-02, diff hybrid =  9.82e-02
62 minimization steps, time(MIN)/time(ED)=0.00240
sb1_1     =  0.0436	sb2_1     = -0.0041	sb3_1     =  0.0148	sb4_1     = -0.1390	sb5_1     =  0.0070	
sb6_1     = -0.1311	sb7_1     =  0.0338	sb8_1     = -0.0041	eb1_1     = -0.0371	eb2_1     = -3.5421	
eb3_1     = -4.3026	eb4_1     = -0.1133	eb5_1     = -4.0956	eb6_1     = -0.0510	eb7_1     =  0.1112	
eb8_1     = -3.7899	tb1_1     = -0.1072	tb2_1     = -1.1144	tb3_1     =  1.7513	tb4_1     =  0.0982	
tb5_1     = -1.7168	tb6_1     = -0.0409	tb7_1     =  0.1899	tb8_1     = -2.2727	

CDMFT iteration 46, distance =  1.21e+02, diff param =  7.03e-02, diff hybrid =  1.02e-01
99 minimization steps, time(MIN)/time(ED)=0.00240
sb1_1     = -0.0386	sb2_1     =  0.0056	sb3_1     =  0.0076	sb4_1     = -0.1259	sb5_1     =  0.0160	
sb6_1     = -0.1337	sb7_1     = -0.0375	sb8_1     =  0.0052	eb1_1     = -0.0517	eb2_1     = -3.5654	
eb3_1     = -4.1009	eb4_1     = -0.0537	eb5_1     = -4.3141	eb6_1     = -0.1169	eb7_1     =  0.1158	
eb8_1     = -3.7930	tb1_1     = -0.1145	tb2_1     = -1.1158	tb3_1     =  1.7194	tb4_1     =  0.0460	
tb5_1     = -1.7534	tb6_1     = -0.1056	tb7_1     =  0.1857	tb8_1     = -2.2754	

CDMFT iteration 47, distance =  1.15e+02, diff param =  7.40e-02, diff hybrid =  1.07e-01
115 minimization steps, time(MIN)/time(ED)=0.00240
sb1_1     =  0.0343	sb2_1     = -0.0065	sb3_1     =  0.0170	sb4_1     = -0.1277	sb5_1     =  0.0097	
sb6_1     = -0.1169	sb7_1     =  0.0440	sb8_1     = -0.0068	eb1_1     = -0.0660	eb2_1     = -3.6228	
eb3_1     = -4.3443	eb4_1     = -0.1186	eb5_1     = -4.1170	eb6_1     = -0.0570	eb7_1     =  0.1174	
eb8_1     = -3.7884	tb1_1     = -0.1244	tb2_1     = -1.1210	tb3_1     =  1.7580	tb4_1     =  0.1153	
tb5_1     = -1.7223	tb6_1     = -0.0633	tb7_1     =  0.1781	tb8_1     = -2.2756	

CDMFT iteration 48, distance =  1.15e+02, diff param =  7.06e-02, diff hybrid =  1.08e-01
76 minimization steps, time(MIN)/time(ED)=0.00239
sb1_1     = -0.0342	sb2_1     =  0.0049	sb3_1     =  0.0106	sb4_1     = -0.1159	sb5_1     =  0.0164	
sb6_1     = -0.1288	sb7_1     = -0.0415	sb8_1     =  0.0064	eb1_1     = -0.0471	eb2_1     = -3.5918	
eb3_1     = -4.1417	eb4_1     = -0.0582	eb5_1     = -4.3424	eb6_1     = -0.1140	eb7_1     =  0.1127	
eb8_1     = -3.7810	tb1_1     = -0.1175	tb2_1     = -1.1196	tb3_1     =  1.7254	tb4_1     =  0.0724	
tb5_1     = -1.7575	tb6_1     = -0.1135	tb7_1     =  0.1763	tb8_1     = -2.2734	

CDMFT iteration 49, distance =  1.22e+02, diff param =  7.08e-02, diff hybrid =  1.01e-01
80 minimization steps, time(MIN)/time(ED)=0.00238
sb1_1     =  0.0385	sb2_1     = -0.0036	sb3_1     =  0.0154	sb4_1     = -0.1353	sb5_1     =  0.0089	
sb6_1     = -0.1241	sb7_1     =  0.0354	sb8_1     = -0.0047	eb1_1     = -0.0353	eb2_1     = -3.5512	
eb3_1     = -4.3394	eb4_1     = -0.1128	eb5_1     = -4.1101	eb6_1     = -0.0510	eb7_1     =  0.1091	
eb8_1     = -3.7828	tb1_1     = -0.1107	tb2_1     = -1.1157	tb3_1     =  1.7573	tb4_1     =  0.1048	
tb5_1     = -1.7189	tb6_1     = -0.0592	tb7_1     =  0.1831	tb8_1     = -2.2721	

CDMFT iteration 50, distance =  1.25e+02, diff param =  7.35e-02, diff hybrid =  9.86e-02
116 minimization steps, time(MIN)/time(ED)=0.00239
sb1_1     = -0.0430	sb2_1     =  0.0041	sb3_1     =  0.0073	sb4_1     = -0.1300	sb5_1     =  0.0151	
sb6_1     = -0.1386	sb7_1     = -0.0343	sb8_1     =  0.0043	eb1_1     = -0.0369	eb2_1     = -3.5410	
eb3_1     = -4.0997	eb4_1     = -0.0505	eb5_1     = -4.3195	eb6_1     = -0.1136	eb7_1     =  0.1107	
eb8_1     = -3.7900	tb1_1     = -0.1078	tb2_1     = -1.1142	tb3_1     =  1.7175	tb4_1     =  0.0438	
tb5_1     = -1.7542	tb6_1     = -0.1001	tb7_1     =  0.1888	tb8_1     = -2.2730	

CDMFT iteration 51, distance =  1.22e+02, diff param =  7.08e-02, diff hybrid =  1.02e-01
114 minimization steps, time(MIN)/time(ED)=0.00239
sb1_1     =  0.0398	sb2_1     = -0.0053	sb3_1     =  0.0157	sb4_1     = -0.1347	sb5_1     =  0.0075	
sb6_1     = -0.1268	sb7_1     =  0.0369	sb8_1     = -0.0050	eb1_1     = -0.0478	eb2_1     = -3.5572	
eb3_1     = -4.3094	eb4_1     = -0.1161	eb5_1     = -4.1042	eb6_1     = -0.0531	eb7_1     =  0.1152	
eb8_1     = -3.7931	tb1_1     = -0.1126	tb2_1     = -1.1153	tb3_1     =  1.7525	tb4_1     =  0.1044	
tb5_1     = -1.7198	tb6_1     = -0.0451	tb7_1     =  0.1865	tb8_1     = -2.2752	

CDMFT iteration 52, distance =  1.17e+02, diff param =  7.13e-02, diff hybrid =  1.06e-01
91 minimization steps, time(MIN)/time(ED)=0.00238
sb1_1     = -0.0352	sb2_1     =  0.0062	sb3_1     =  0.0092	sb4_1     = -0.1190	sb5_1     =  0.0166	
sb6_1     = -0.1290	sb7_1     = -0.0424	sb8_1     =  0.0064	eb1_1     = -0.0614	eb2_1     = -3.5970	
eb3_1     = -4.1110	eb4_1     = -0.0556	eb5_1     = -4.3308	eb6_1     = -0.1180	eb7_1     =  0.1169	
eb8_1     = -3.7893	tb1_1     = -0.1214	tb2_1     = -1.1183	tb3_1     =  1.7212	tb4_1     =  0.0594	
tb5_1     = -1.7558	tb6_1     = -0.1128	tb7_1     =  0.1799	tb8_1     = -2.2756	

CDMFT iteration 53, distance =  1.16e+02, diff param =  7.07e-02, diff hybrid =  1.08e-01
98 minimization steps, time(MIN)/time(ED)=0.00238
sb1_1     =  0.0344	sb2_1     = -0.0051	sb3_1     =  0.0165	sb4_1     = -0.1287	sb5_1     =  0.0103	
sb6_1     = -0.1162	sb7_1     =  0.0420	sb8_1     = -0.0065	eb1_1     = -0.0498	eb2_1     = -3.5868	
eb3_1     = -4.3429	eb4_1     = -0.1152	eb5_1     = -4.1336	eb6_1     = -0.0574	eb7_1     =  0.1139	
eb8_1     = -3.7824	tb1_1     = -0.1182	tb2_1     = -1.1186	tb3_1     =  1.7576	tb4_1     =  0.1138	
tb5_1     = -1.7242	tb6_1     = -0.0699	tb7_1     =  0.1770	tb8_1     = -2.2738	

CDMFT iteration 54, distance =  1.21e+02, diff param =  7.12e-02, diff hybrid =  1.02e-01
113 minimization steps, time(MIN)/time(ED)=0.00239
sb1_1     = -0.0374	sb2_1     =  0.0038	sb3_1     =  0.0092	sb4_1     = -0.1224	sb5_1     =  0.0156	
sb6_1     = -0.1340	sb7_1     = -0.0366	sb8_1     =  0.0050	eb1_1     = -0.0375	eb2_1     = -3.5524	
eb3_1     = -4.1162	eb4_1     = -0.0520	eb5_1     = -4.3409	eb6_1     = -0.1133	eb7_1     =  0.1100	
eb8_1     = -3.7826	tb1_1     = -0.1119	tb2_1     = -1.1155	tb3_1     =  1.7203	tb4_1     =  0.0616	
tb5_1     = -1.7576	tb6_1     = -0.1069	tb7_1     =  0.1818	tb8_1     = -2.2724	

CDMFT iteration 55, distance =  1.24e+02, diff param =  7.21e-02, diff hybrid =  9.91e-02
72 minimization steps, time(MIN)/time(ED)=0.00237
sb1_1     =  0.0422	sb2_1     = -0.0041	sb3_1     =  0.0150	sb4_1     = -0.1376	sb5_1     =  0.0077	
sb6_1     = -0.1287	sb7_1     =  0.0349	sb8_1     = -0.0044	eb1_1     = -0.0370	eb2_1     = -3.5436	
eb3_1     = -4.3159	eb4_1     = -0.1132	eb5_1     = -4.1016	eb6_1     = -0.0503	eb7_1     =  0.1106	
eb8_1     = -3.7895	tb1_1     = -0.1085	tb2_1     = -1.1146	tb3_1     =  1.7534	tb4_1     =  0.1012	
tb5_1     = -1.7178	tb6_1     = -0.0468	tb7_1     =  0.1875	tb8_1     = -2.2731	

CDMFT iteration 56, distance =  1.22e+02, diff param =  7.05e-02, diff hybrid =  1.01e-01
75 minimization steps, time(MIN)/time(ED)=0.00236
sb1_1     = -0.0403	sb2_1     =  0.0049	sb3_1     =  0.0075	sb4_1     = -0.1274	sb5_1     =  0.0156	
sb6_1     = -0.1354	sb7_1     = -0.0365	sb8_1     =  0.0049	eb1_1     = -0.0447	eb2_1     = -3.5515	
eb3_1     = -4.1008	eb4_1     = -0.0524	eb5_1     = -4.3108	eb6_1     = -0.1154	eb7_1     =  0.1143	
eb8_1     = -3.7929	tb1_1     = -0.1113	tb2_1     = -1.1149	tb3_1     =  1.7188	tb4_1     =  0.0450	
tb5_1     = -1.7527	tb6_1     = -0.1035	tb7_1     =  0.1870	tb8_1     = -2.2748	

CDMFT iteration 57, distance =  1.18e+02, diff param =  7.31e-02, diff hybrid =  1.05e-01
95 minimization steps, time(MIN)/time(ED)=0.00236
sb1_1     =  0.0362	sb2_1     = -0.0059	sb3_1     =  0.0166	sb4_1     = -0.1306	sb5_1     =  0.0087	
sb6_1     = -0.1210	sb7_1     =  0.0409	sb8_1     = -0.0060	eb1_1     = -0.0575	eb2_1     = -3.5890	
eb3_1     = -4.3356	eb4_1     = -0.1179	eb5_1     = -4.1065	eb6_1     = -0.0544	eb7_1     =  0.1162	
eb8_1     = -3.7896	tb1_1     = -0.1191	tb2_1     = -1.1180	tb3_1     =  1.7568	tb4_1     =  0.1112	
tb5_1     = -1.7204	tb6_1     = -0.0556	tb7_1     =  0.1815	tb8_1     = -2.2753	

CDMFT iteration 58, distance =  1.16e+02, diff param =  7.22e-02, diff hybrid =  1.07e-01
106 minimization steps, time(MIN)/time(ED)=0.00236
sb1_1     = -0.0349	sb2_1     =  0.0054	sb3_1     =  0.0100	sb4_1     = -0.1169	sb5_1     =  0.0166	
sb6_1     = -0.1288	sb7_1     = -0.0425	sb8_1     =  0.0065	eb1_1     = -0.0526	eb2_1     = -3.5905	
eb3_1     = -4.1292	eb4_1     = -0.0568	eb5_1     = -4.3400	eb6_1     = -0.1160	eb7_1     =  0.1150	
eb8_1     = -3.7849	tb1_1     = -0.1189	tb2_1     = -1.1187	tb3_1     =  1.7238	tb4_1     =  0.0670	
tb5_1     = -1.7572	tb6_1     = -0.1138	tb7_1     =  0.1778	tb8_1     = -2.2745	

CDMFT iteration 59, distance =  1.20e+02, diff param =  7.16e-02, diff hybrid =  1.04e-01
95 minimization steps, time(MIN)/time(ED)=0.00236
sb1_1     =  0.0366	sb2_1     = -0.0041	sb3_1     =  0.0159	sb4_1     = -0.1327	sb5_1     =  0.0095	
sb6_1     = -0.1208	sb7_1     =  0.0378	sb8_1     = -0.0053	eb1_1     = -0.0400	eb2_1     = -3.5582	
eb3_1     = -4.3450	eb4_1     = -0.1141	eb5_1     = -4.1188	eb6_1     = -0.0532	eb7_1     =  0.1112	
eb8_1     = -3.7828	tb1_1     = -0.1132	tb2_1     = -1.1161	tb3_1     =  1.7582	tb4_1     =  0.1088	
tb5_1     = -1.7209	tb6_1     = -0.0638	tb7_1     =  0.1807	tb8_1     = -2.2729	

CDMFT iteration 60, distance =  1.23e+02, diff param =  7.35e-02, diff hybrid =  9.98e-02
88 minimization steps, time(MIN)/time(ED)=0.00236
sb1_1     = -0.0410	sb2_1     =  0.0040	sb3_1     =  0.0080	sb4_1     = -0.1272	sb5_1     =  0.0153	
sb6_1     = -0.1368	sb7_1     = -0.0354	sb8_1     =  0.0045	eb1_1     = -0.0373	eb2_1     = -3.5448	
eb3_1     = -4.1035	eb4_1     = -0.0503	eb5_1     = -4.3276	eb6_1     = -0.1137	eb7_1     =  0.1102	
eb8_1     = -3.7863	tb1_1     = -0.1095	tb2_1     = -1.1147	tb3_1     =  1.7181	tb4_1     =  0.0502	
tb5_1     = -1.7554	tb6_1     = -0.1030	tb7_1     =  0.1860	tb8_1     = -2.2725	

CDMFT iteration 61, distance =  1.23e+02, diff param =  7.14e-02, diff hybrid =  1.01e-01
95 minimization steps, time(MIN)/time(ED)=0.00236
sb1_1     =  0.0410	sb2_1     = -0.0048	sb3_1     =  0.0155	sb4_1     = -0.1359	sb5_1     =  0.0075	
sb6_1     = -0.1277	sb7_1     =  0.0363	sb8_1     = -0.0048	eb1_1     = -0.0428	eb2_1     = -3.5490	
eb3_1     = -4.3114	eb4_1     = -0.1150	eb5_1     = -4.1040	eb6_1     = -0.0519	eb7_1     =  0.1135	
eb8_1     = -3.7919	tb1_1     = -0.1105	tb2_1     = -1.1148	tb3_1     =  1.7527	tb4_1     =  0.1032	
tb5_1     = -1.7192	tb6_1     = -0.0455	tb7_1     =  0.1871	tb8_1     = -2.2744	

CDMFT iteration 62, distance =  1.19e+02, diff param =  7.08e-02, diff hybrid =  1.04e-01
84 minimization steps, time(MIN)/time(ED)=0.00235
sb1_1     = -0.0371	sb2_1     =  0.0057	sb3_1     =  0.0085	sb4_1     = -0.1227	sb5_1     =  0.0162	
sb6_1     = -0.1317	sb7_1     = -0.0397	sb8_1     =  0.0057	eb1_1     = -0.0536	eb2_1     = -3.5741	
eb3_1     = -4.1066	eb4_1     = -0.0538	eb5_1     = -4.3238	eb6_1     = -0.1170	eb7_1     =  0.1159	
eb8_1     = -3.7908	tb1_1     = -0.1168	tb2_1     = -1.1166	tb3_1     =  1.7203	tb4_1     =  0.0530	
tb5_1     = -1.7547	tb6_1     = -0.1091	tb7_1     =  0.1829	tb8_1     = -2.2753	

CDMFT iteration 63, distance =  1.16e+02, diff param =  7.06e-02, diff hybrid =  1.07e-01
106 minimization steps, time(MIN)/time(ED)=0.00235
sb1_1     =  0.0351	sb2_1     = -0.0055	sb3_1     =  0.0165	sb4_1     = -0.1291	sb5_1     =  0.0097	
sb6_1     = -0.1179	sb7_1     =  0.0421	sb8_1     = -0.0064	eb1_1     = -0.0537	eb2_1     = -3.5870	
eb3_1     = -4.3331	eb4_1     = -0.1163	eb5_1     = -4.1235	eb6_1     = -0.0559	eb7_1     =  0.1154	
eb8_1     = -3.7861	tb1_1     = -0.1189	tb2_1     = -1.1181	tb3_1     =  1.7560	tb4_1     =  0.1130	
tb5_1     = -1.7229	tb6_1     = -0.0642	tb7_1     =  0.1787	tb8_1     = -2.2747	

CDMFT iteration 64, distance =  1.19e+02, diff param =  7.13e-02, diff hybrid =  1.04e-01
86 minimization steps, time(MIN)/time(ED)=0.00235
sb1_1     = -0.0361	sb2_1     =  0.0044	sb3_1     =  0.0095	sb4_1     = -0.1198	sb5_1     =  0.0161	
sb6_1     = -0.1318	sb7_1     = -0.0388	sb8_1     =  0.0056	eb1_1     = -0.0424	eb2_1     = -3.5647	
eb3_1     = -4.1179	eb4_1     = -0.0537	eb5_1     = -4.3439	eb6_1     = -0.1145	eb7_1     =  0.1119	
eb8_1     = -3.7827	tb1_1     = -0.1143	tb2_1     = -1.1166	tb3_1     =  1.7209	tb4_1     =  0.0645	
tb5_1     = -1.7580	tb6_1     = -0.1100	tb7_1     =  0.1799	tb8_1     = -2.2731	

CDMFT iteration 65, distance =  1.23e+02, diff param =  7.27e-02, diff hybrid =  1.00e-01
88 minimization steps, time(MIN)/time(ED)=0.00234
sb1_1     =  0.0401	sb2_1     = -0.0040	sb3_1     =  0.0154	sb4_1     = -0.1358	sb5_1     =  0.0083	
sb6_1     = -0.1258	sb7_1     =  0.0360	sb8_1     = -0.0047	eb1_1     = -0.0380	eb2_1     = -3.5492	
eb3_1     = -4.3262	eb4_1     = -0.1136	eb5_1     = -4.1072	eb6_1     = -0.0506	eb7_1     =  0.1105	
eb8_1     = -3.7862	tb1_1     = -0.1103	tb2_1     = -1.1152	tb3_1     =  1.7550	tb4_1     =  0.1042	
tb5_1     = -1.7189	tb6_1     = -0.0530	tb7_1     =  0.1849	tb8_1     = -2.2728	

CDMFT iteration 66, distance =  1.23e+02, diff param =  7.14e-02, diff hybrid =  1.01e-01
81 minimization steps, time(MIN)/time(ED)=0.00233
sb1_1     = -0.0411	sb2_1     =  0.0046	sb3_1     =  0.0076	sb4_1     = -0.1276	sb5_1     =  0.0154	
sb6_1     = -0.1362	sb7_1     = -0.0361	sb8_1     =  0.0047	eb1_1     = -0.0415	eb2_1     = -3.5483	
eb3_1     = -4.0999	eb4_1     = -0.0513	eb5_1     = -4.3134	eb6_1     = -0.1146	eb7_1     =  0.1129	
eb8_1     = -3.7913	tb1_1     = -0.1102	tb2_1     = -1.1148	tb3_1     =  1.7182	tb4_1     =  0.0463	
tb5_1     = -1.7530	tb6_1     = -0.1030	tb7_1     =  0.1870	tb8_1     = -2.2741	

CDMFT iteration 67, distance =  1.20e+02, diff param =  7.22e-02, diff hybrid =  1.04e-01
88 minimization steps, time(MIN)/time(ED)=0.00233
sb1_1     =  0.0381	sb2_1     = -0.0054	sb3_1     =  0.0161	sb4_1     = -0.1329	sb5_1     =  0.0082	
sb6_1     = -0.1239	sb7_1     =  0.0388	sb8_1     = -0.0055	eb1_1     = -0.0506	eb2_1     = -3.5680	
eb3_1     = -4.3259	eb4_1     = -0.1168	eb5_1     = -4.1033	eb6_1     = -0.0530	eb7_1     =  0.1152	
eb8_1     = -3.7909	tb1_1     = -0.1151	tb2_1     = -1.1163	tb3_1     =  1.7552	tb4_1     =  0.1078	
tb5_1     = -1.7195	tb6_1     = -0.0509	tb7_1     =  0.1839	tb8_1     = -2.2750	

CDMFT iteration 68, distance =  1.17e+02, diff param =  7.17e-02, diff hybrid =  1.06e-01
93 minimization steps, time(MIN)/time(ED)=0.00233
sb1_1     = -0.0357	sb2_1     =  0.0056	sb3_1     =  0.0094	sb4_1     = -0.1190	sb5_1     =  0.0164	
sb6_1     = -0.1296	sb7_1     = -0.0418	sb8_1     =  0.0062	eb1_1     = -0.0542	eb2_1     = -3.5844	
eb3_1     = -4.1182	eb4_1     = -0.0550	eb5_1     = -4.3298	eb6_1     = -0.1165	eb7_1     =  0.1156	
eb8_1     = -3.7876	tb1_1     = -0.1185	tb2_1     = -1.1177	tb3_1     =  1.7221	tb4_1     =  0.0612	
tb5_1     = -1.7555	tb6_1     = -0.1122	tb7_1     =  0.1798	tb8_1     = -2.2749	

CDMFT iteration 69, distance =  1.18e+02, diff param =  7.00e-02, diff hybrid =  1.05e-01
92 minimization steps, time(MIN)/time(ED)=0.00233
sb1_1     =  0.0359	sb2_1     = -0.0047	sb3_1     =  0.0161	sb4_1     = -0.1310	sb5_1     =  0.0096	
sb6_1     = -0.1193	sb7_1     =  0.0397	sb8_1     = -0.0058	eb1_1     = -0.0448	eb2_1     = -3.5703	
eb3_1     = -4.3368	eb4_1     = -0.1146	eb5_1     = -4.1229	eb6_1     = -0.0544	eb7_1     =  0.1128	
eb8_1     = -3.7838	tb1_1     = -0.1152	tb2_1     = -1.1171	tb3_1     =  1.7567	tb4_1     =  0.1106	
tb5_1     = -1.7222	tb6_1     = -0.0645	tb7_1     =  0.1796	tb8_1     = -2.2736	

CDMFT iteration 70, distance =  1.22e+02, diff param =  7.08e-02, diff hybrid =  1.01e-01
85 minimization steps, time(MIN)/time(ED)=0.00232
sb1_1     = -0.0389	sb2_1     =  0.0041	sb3_1     =  0.0086	sb4_1     = -0.1244	sb5_1     =  0.0154	
sb6_1     = -0.1348	sb7_1     = -0.0366	sb8_1     =  0.0049	eb1_1     = -0.0388	eb2_1     = -3.5528	
eb3_1     = -4.1103	eb4_1     = -0.0511	eb5_1     = -4.3278	eb6_1     = -0.1137	eb7_1     =  0.1108	
eb8_1     = -3.7855	tb1_1     = -0.1113	tb2_1     = -1.1156	tb3_1     =  1.7195	tb4_1     =  0.0559	
tb5_1     = -1.7553	tb6_1     = -0.1054	tb7_1     =  0.1836	tb8_1     = -2.2729	

CDMFT iteration 71, distance =  1.23e+02, diff param =  7.14e-02, diff hybrid =  1.00e-01
75 minimization steps, time(MIN)/time(ED)=0.00231
sb1_1     =  0.0409	sb2_1     = -0.0044	sb3_1     =  0.0155	sb4_1     = -0.1363	sb5_1     =  0.0078	
sb6_1     = -0.1273	sb7_1     =  0.0360	sb8_1     = -0.0047	eb1_1     = -0.0404	eb2_1     = -3.5482	
eb3_1     = -4.3198	eb4_1     = -0.1148	eb5_1     = -4.1038	eb6_1     = -0.0510	eb7_1     =  0.1120	
eb8_1     = -3.7882	tb1_1     = -0.1101	tb2_1     = -1.1149	tb3_1     =  1.7541	tb4_1     =  0.1034	
tb5_1     = -1.7187	tb6_1     = -0.0477	tb7_1     =  0.1864	tb8_1     = -2.2732	

CDMFT iteration 72, distance =  1.21e+02, diff param =  7.19e-02, diff hybrid =  1.03e-01
77 minimization steps, time(MIN)/time(ED)=0.00230
sb1_1     = -0.0389	sb2_1     =  0.0052	sb3_1     =  0.0080	sb4_1     = -0.1249	sb5_1     =  0.0160	
sb6_1     = -0.1337	sb7_1     = -0.0381	sb8_1     =  0.0052	eb1_1     = -0.0479	eb2_1     = -3.5596	
eb3_1     = -4.1030	eb4_1     = -0.0525	eb5_1     = -4.3217	eb6_1     = -0.1163	eb7_1     =  0.1145	
eb8_1     = -3.7899	tb1_1     = -0.1136	tb2_1     = -1.1155	tb3_1     =  1.7193	tb4_1     =  0.0494	
tb5_1     = -1.7545	tb6_1     = -0.1066	tb7_1     =  0.1847	tb8_1     = -2.2745	

CDMFT iteration 73, distance =  1.18e+02, diff param =  7.24e-02, diff hybrid =  1.06e-01
107 minimization steps, time(MIN)/time(ED)=0.00231
sb1_1     =  0.0364	sb2_1     = -0.0056	sb3_1     =  0.0164	sb4_1     = -0.1305	sb5_1     =  0.0090	
sb6_1     = -0.1203	sb7_1     =  0.0411	sb8_1     = -0.0061	eb1_1     = -0.0536	eb2_1     = -3.5805	
eb3_1     = -4.3317	eb4_1     = -0.1168	eb5_1     = -4.1122	eb6_1     = -0.0543	eb7_1     =  0.1156	
eb8_1     = -3.7885	tb1_1     = -0.1178	tb2_1     = -1.1174	tb3_1     =  1.7559	tb4_1     =  0.1113	
tb5_1     = -1.7211	tb6_1     = -0.0583	tb7_1     =  0.1809	tb8_1     = -2.2750	

CDMFT iteration 74, distance =  1.18e+02, diff param =  7.04e-02, diff hybrid =  1.06e-01
82 minimization steps, time(MIN)/time(ED)=0.00230
sb1_1     = -0.0359	sb2_1     =  0.0049	sb3_1     =  0.0096	sb4_1     = -0.1191	sb5_1     =  0.0161	
sb6_1     = -0.1305	sb7_1     = -0.0403	sb8_1     =  0.0059	eb1_1     = -0.0471	eb2_1     = -3.5741	
eb3_1     = -4.1238	eb4_1     = -0.0546	eb5_1     = -4.3319	eb6_1     = -0.1150	eb7_1     =  0.1136	
eb8_1     = -3.7847	tb1_1     = -0.1160	tb2_1     = -1.1173	tb3_1     =  1.7226	tb4_1     =  0.0638	
tb5_1     = -1.7558	tb6_1     = -0.1110	tb7_1     =  0.1796	tb8_1     = -2.2739	

CDMFT iteration 75, distance =  1.21e+02, diff param =  7.15e-02, diff hybrid =  1.03e-01
91 minimization steps, time(MIN)/time(ED)=0.00230
sb1_1     =  0.0380	sb2_1     = -0.0042	sb3_1     =  0.0157	sb4_1     = -0.1338	sb5_1     =  0.0088	
sb6_1     = -0.1229	sb7_1     =  0.0373	sb8_1     = -0.0051	eb1_1     = -0.0401	eb2_1     = -3.5542	
eb3_1     = -4.3387	eb4_1     = -0.1142	eb5_1     = -4.1103	eb6_1     = -0.0517	eb7_1     =  0.1112	
eb8_1     = -3.7850	tb1_1     = -0.1122	tb2_1     = -1.1156	tb3_1     =  1.7572	tb4_1     =  0.1070	
tb5_1     = -1.7196	tb6_1     = -0.0582	tb7_1     =  0.1825	tb8_1     = -2.2731	

CDMFT iteration 76, distance =  1.23e+02, diff param =  7.41e-02, diff hybrid =  1.01e-01
82 minimization steps, time(MIN)/time(ED)=0.00230
sb1_1     = -0.0406	sb2_1     =  0.0044	sb3_1     =  0.0079	sb4_1     = -0.1266	sb5_1     =  0.0155	
sb6_1     = -0.1359	sb7_1     = -0.0363	sb8_1     =  0.0048	eb1_1     = -0.0402	eb2_1     = -3.5485	
eb3_1     = -4.1020	eb4_1     = -0.0509	eb5_1     = -4.3278	eb6_1     = -0.1146	eb7_1     =  0.1118	
eb8_1     = -3.7897	tb1_1     = -0.1104	tb2_1     = -1.1149	tb3_1     =  1.7183	tb4_1     =  0.0495	
tb5_1     = -1.7555	tb6_1     = -0.1041	tb7_1     =  0.1859	tb8_1     = -2.2738	

CDMFT iteration 77, distance =  1.21e+02, diff param =  7.28e-02, diff hybrid =  1.02e-01
143 minimization steps, time(MIN)/time(ED)=0.00231
sb1_1     =  0.0394	sb2_1     = -0.0050	sb3_1     =  0.0158	sb4_1     = -0.1343	sb5_1     =  0.0080	
sb6_1     = -0.1255	sb7_1     =  0.0377	sb8_1     = -0.0051	eb1_1     = -0.0461	eb2_1     = -3.5583	
eb3_1     = -4.3217	eb4_1     = -0.1159	eb5_1     = -4.1050	eb6_1     = -0.0524	eb7_1     =  0.1142	
eb8_1     = -3.7909	tb1_1     = -0.1128	tb2_1     = -1.1156	tb3_1     =  1.7545	tb4_1     =  0.1059	
tb5_1     = -1.7196	tb6_1     = -0.0491	tb7_1     =  0.1852	tb8_1     = -2.2746	

CDMFT iteration 78, distance =  1.19e+02, diff param =  7.23e-02, diff hybrid =  1.05e-01
92 minimization steps, time(MIN)/time(ED)=0.00231
sb1_1     = -0.0367	sb2_1     =  0.0055	sb3_1     =  0.0088	sb4_1     = -0.1212	sb5_1     =  0.0163	
sb6_1     = -0.1311	sb7_1     = -0.0404	sb8_1     =  0.0059	eb1_1     = -0.0525	eb2_1     = -3.5769	
eb3_1     = -4.1100	eb4_1     = -0.0539	eb5_1     = -4.3310	eb6_1     = -0.1168	eb7_1     =  0.1156	
eb8_1     = -3.7894	tb1_1     = -0.1170	tb2_1     = -1.1171	tb3_1     =  1.7207	tb4_1     =  0.0566	
tb5_1     = -1.7559	tb6_1     = -0.1104	tb7_1     =  0.1817	tb8_1     = -2.2751	

CDMFT iteration 79, distance =  1.18e+02, diff param =  7.26e-02, diff hybrid =  1.06e-01
100 minimization steps, time(MIN)/time(ED)=0.00231
sb1_1     =  0.0359	sb2_1     = -0.0051	sb3_1     =  0.0163	sb4_1     = -0.1306	sb5_1     =  0.0095	
sb6_1     = -0.1192	sb7_1     =  0.0406	sb8_1     = -0.0060	eb1_1     = -0.0487	eb2_1     = -3.5754	
eb3_1     = -4.3415	eb4_1     = -0.1158	eb5_1     = -4.1186	eb6_1     = -0.0546	eb7_1     =  0.1140	
eb8_1     = -3.7856	tb1_1     = -0.1165	tb2_1     = -1.1173	tb3_1     =  1.7576	tb4_1     =  0.1116	
tb5_1     = -1.7217	tb6_1     = -0.0629	tb7_1     =  0.1797	tb8_1     = -2.2742	

CDMFT iteration 80, distance =  1.20e+02, diff param =  7.33e-02, diff hybrid =  1.03e-01
73 minimization steps, time(MIN)/time(ED)=0.00230
sb1_1     = -0.0376	sb2_1     =  0.0044	sb3_1     =  0.0090	sb4_1     = -0.1220	sb5_1     =  0.0159	
sb6_1     = -0.1333	sb7_1     = -0.0379	sb8_1     =  0.0053	eb1_1     = -0.0415	eb2_1     = -3.5576	
eb3_1     = -4.1157	eb4_1     = -0.0524	eb5_1     = -4.3431	eb6_1     = -0.1149	eb7_1     =  0.1119	
eb8_1     = -3.7846	tb1_1     = -0.1130	tb2_1     = -1.1159	tb3_1     =  1.7207	tb4_1     =  0.0597	
tb5_1     = -1.7580	tb6_1     = -0.1084	tb7_1     =  0.1818	tb8_1     = -2.2733	

CDMFT iteration 81, distance =  1.22e+02, diff param =  7.22e-02, diff hybrid =  1.01e-01
116 minimization steps, time(MIN)/time(ED)=0.00230
sb1_1     =  0.0400	sb2_1     = -0.0043	sb3_1     =  0.0155	sb4_1     = -0.1354	sb5_1     =  0.0082	
sb6_1     = -0.1258	sb7_1     =  0.0366	sb8_1     = -0.0048	eb1_1     = -0.0402	eb2_1     = -3.5499	
eb3_1     = -4.3223	eb4_1     = -0.1143	eb5_1     = -4.1094	eb6_1     = -0.0511	eb7_1     =  0.1117	
eb8_1     = -3.7880	tb1_1     = -0.1109	tb2_1     = -1.1151	tb3_1     =  1.7544	tb4_1     =  0.1046	
tb5_1     = -1.7197	tb6_1     = -0.0516	tb7_1     =  0.1851	tb8_1     = -2.2734	

CDMFT iteration 82, distance =  1.22e+02, diff param =  7.17e-02, diff hybrid =  1.02e-01
111 minimization steps, time(MIN)/time(ED)=0.00230
sb1_1     = -0.0395	sb2_1     =  0.0048	sb3_1     =  0.0080	sb4_1     = -0.1257	sb5_1     =  0.0158	
sb6_1     = -0.1347	sb7_1     = -0.0373	sb8_1     =  0.0050	eb1_1     = -0.0443	eb2_1     = -3.5547	
eb3_1     = -4.1028	eb4_1     = -0.0519	eb5_1     = -4.3250	eb6_1     = -0.1157	eb7_1     =  0.1136	
eb8_1     = -3.7903	tb1_1     = -0.1121	tb2_1     = -1.1153	tb3_1     =  1.7189	tb4_1     =  0.0493	
tb5_1     = -1.7551	tb6_1     = -0.1055	tb7_1     =  0.1853	tb8_1     = -2.2744	

CDMFT iteration 83, distance =  1.19e+02, diff param =  7.40e-02, diff hybrid =  1.04e-01
101 minimization steps, time(MIN)/time(ED)=0.00230
sb1_1     =  0.0375	sb2_1     = -0.0054	sb3_1     =  0.0163	sb4_1     = -0.1321	sb5_1     =  0.0086	
sb6_1     = -0.1223	sb7_1     =  0.0396	sb8_1     = -0.0057	eb1_1     = -0.0508	eb2_1     = -3.5728	
eb3_1     = -4.3346	eb4_1     = -0.1170	eb5_1     = -4.1059	eb6_1     = -0.0533	eb7_1     =  0.1150	
eb8_1     = -3.7895	tb1_1     = -0.1159	tb2_1     = -1.1168	tb3_1     =  1.7567	tb4_1     =  0.1095	
tb5_1     = -1.7199	tb6_1     = -0.0545	tb7_1     =  0.1825	tb8_1     = -2.2749	

CDMFT iteration 84, distance =  1.18e+02, diff param =  7.35e-02, diff hybrid =  1.06e-01
89 minimization steps, time(MIN)/time(ED)=0.00230
sb1_1     = -0.0363	sb2_1     =  0.0053	sb3_1     =  0.0093	sb4_1     = -0.1197	sb5_1     =  0.0163	
sb6_1     = -0.1307	sb7_1     = -0.0408	sb8_1     =  0.0060	eb1_1     = -0.0501	eb2_1     = -3.5768	
eb3_1     = -4.1155	eb4_1     = -0.0543	eb5_1     = -4.3365	eb6_1     = -0.1161	eb7_1     =  0.1145	
eb8_1     = -3.7863	tb1_1     = -0.1168	tb2_1     = -1.1173	tb3_1     =  1.7213	tb4_1     =  0.0611	
tb5_1     = -1.7567	tb6_1     = -0.1114	tb7_1     =  0.1802	tb8_1     = -2.2744	

CDMFT iteration 85, distance =  1.20e+02, diff param =  7.16e-02, diff hybrid =  1.04e-01
96 minimization steps, time(MIN)/time(ED)=0.00230
sb1_1     =  0.0371	sb2_1     = -0.0045	sb3_1     =  0.0159	sb4_1     = -0.1324	sb5_1     =  0.0092	
sb6_1     = -0.1212	sb7_1     =  0.0387	sb8_1     = -0.0055	eb1_1     = -0.0431	eb2_1     = -3.5628	
eb3_1     = -4.3341	eb4_1     = -0.1146	eb5_1     = -4.1182	eb6_1     = -0.0530	eb7_1     =  0.1126	
eb8_1     = -3.7852	tb1_1     = -0.1138	tb2_1     = -1.1163	tb3_1     =  1.7563	tb4_1     =  0.1089	
tb5_1     = -1.7213	tb6_1     = -0.0607	tb7_1     =  0.1813	tb8_1     = -2.2736	

CDMFT iteration 86, distance =  1.22e+02, diff param =  7.28e-02, diff hybrid =  1.02e-01
84 minimization steps, time(MIN)/time(ED)=0.00230
sb1_1     = -0.0393	sb2_1     =  0.0043	sb3_1     =  0.0084	sb4_1     = -0.1249	sb5_1     =  0.0156	
sb6_1     = -0.1350	sb7_1     = -0.0367	sb8_1     =  0.0049	eb1_1     = -0.0402	eb2_1     = -3.5506	
eb3_1     = -4.1043	eb4_1     = -0.0511	eb5_1     = -4.3343	eb6_1     = -0.1147	eb7_1     =  0.1114	
eb8_1     = -3.7856	tb1_1     = -0.1113	tb2_1     = -1.1151	tb3_1     =  1.7186	tb4_1     =  0.0536	
tb5_1     = -1.7566	tb6_1     = -0.1056	tb7_1     =  0.1842	tb8_1     = -2.2729	

CDMFT iteration 87, distance =  1.22e+02, diff param =  7.36e-02, diff hybrid =  1.02e-01
102 minimization steps, time(MIN)/time(ED)=0.00230
sb1_1     =  0.0401	sb2_1     = -0.0047	sb3_1     =  0.0157	sb4_1     = -0.1350	sb5_1     =  0.0079	
sb6_1     = -0.1259	sb7_1     =  0.0371	sb8_1     = -0.0050	eb1_1     = -0.0432	eb2_1     = -3.5528	
eb3_1     = -4.3235	eb4_1     = -0.1153	eb5_1     = -4.1041	eb6_1     = -0.0515	eb7_1     =  0.1131	
eb8_1     = -3.7898	tb1_1     = -0.1116	tb2_1     = -1.1152	tb3_1     =  1.7548	tb4_1     =  0.1052	
tb5_1     = -1.7190	tb6_1     = -0.0493	tb7_1     =  0.1854	tb8_1     = -2.2741	

CDMFT iteration 88, distance =  1.20e+02, diff param =  7.34e-02, diff hybrid =  1.04e-01
60 minimization steps, time(MIN)/time(ED)=0.00229
sb1_1     = -0.0381	sb2_1     =  0.0053	sb3_1     =  0.0083	sb4_1     = -0.1233	sb5_1     =  0.0161	
sb6_1     = -0.1329	sb7_1     = -0.0391	sb8_1     =  0.0055	eb1_1     = -0.0492	eb2_1     = -3.5657	
eb3_1     = -4.1028	eb4_1     = -0.0528	eb5_1     = -4.3298	eb6_1     = -0.1166	eb7_1     =  0.1150	
eb8_1     = -3.7916	tb1_1     = -0.1148	tb2_1     = -1.1161	tb3_1     =  1.7192	tb4_1     =  0.0528	
tb5_1     = -1.7559	tb6_1     = -0.1083	tb7_1     =  0.1835	tb8_1     = -2.2753	

CDMFT iteration 89, distance =  1.18e+02, diff param =  7.44e-02, diff hybrid =  1.06e-01
88 minimization steps, time(MIN)/time(ED)=0.00229
sb1_1     =  0.0364	sb2_1     = -0.0053	sb3_1     =  0.0164	sb4_1     = -0.1309	sb5_1     =  0.0091	
sb6_1     = -0.1202	sb7_1     =  0.0407	sb8_1     = -0.0060	eb1_1     = -0.0507	eb2_1     = -3.5761	
eb3_1     = -4.3375	eb4_1     = -0.1166	eb5_1     = -4.1096	eb6_1     = -0.0541	eb7_1     =  0.1149	
eb8_1     = -3.7874	tb1_1     = -0.1168	tb2_1     = -1.1172	tb3_1     =  1.7570	tb4_1     =  0.1112	
tb5_1     = -1.7203	tb6_1     = -0.0595	tb7_1     =  0.1807	tb8_1     = -2.2746	

CDMFT iteration 90, distance =  1.19e+02, diff param =  7.21e-02, diff hybrid =  1.05e-01
109 minimization steps, time(MIN)/time(ED)=0.00229
sb1_1     = -0.0369	sb2_1     =  0.0047	sb3_1     =  0.0093	sb4_1     = -0.1207	sb5_1     =  0.0160	
sb6_1     = -0.1318	sb7_1     = -0.0393	sb8_1     =  0.0057	eb1_1     = -0.0449	eb2_1     = -3.5666	
eb3_1     = -4.1203	eb4_1     = -0.0536	eb5_1     = -4.3326	eb6_1     = -0.1149	eb7_1     =  0.1131	
eb8_1     = -3.7855	tb1_1     = -0.1146	tb2_1     = -1.1167	tb3_1     =  1.7218	tb4_1     =  0.0613	
tb5_1     = -1.7560	tb6_1     = -0.1097	tb7_1     =  0.1808	tb8_1     = -2.2739	

CDMFT iteration 91, distance =  1.21e+02, diff param =  7.19e-02, diff hybrid =  1.02e-01
102 minimization steps, time(MIN)/time(ED)=0.00229
sb1_1     =  0.0386	sb2_1     = -0.0043	sb3_1     =  0.0157	sb4_1     = -0.1344	sb5_1     =  0.0086	
sb6_1     = -0.1240	sb7_1     =  0.0372	sb8_1     = -0.0050	eb1_1     = -0.0406	eb2_1     = -3.5529	
eb3_1     = -4.3340	eb4_1     = -0.1146	eb5_1     = -4.1075	eb6_1     = -0.0515	eb7_1     =  0.1118	
eb8_1     = -3.7864	tb1_1     = -0.1119	tb2_1     = -1.1154	tb3_1     =  1.7565	tb4_1     =  0.1063	
tb5_1     = -1.7192	tb6_1     = -0.0555	tb7_1     =  0.1835	tb8_1     = -2.2734	

CDMFT iteration 92, distance =  1.22e+02, diff param =  7.41e-02, diff hybrid =  1.01e-01
62 minimization steps, time(MIN)/time(ED)=0.00228
sb1_1     = -0.0399	sb2_1     =  0.0046	sb3_1     =  0.0080	sb4_1     = -0.1258	sb5_1     =  0.0156	
sb6_1     = -0.1351	sb7_1     = -0.0370	sb8_1     =  0.0049	eb1_1     = -0.0422	eb2_1     = -3.5517	
eb3_1     = -4.0979	eb4_1     = -0.0512	eb5_1     = -4.3254	eb6_1     = -0.1150	eb7_1     =  0.1128	
eb8_1     = -3.7908	tb1_1     = -0.1113	tb2_1     = -1.1151	tb3_1     =  1.7177	tb4_1     =  0.0500	
tb5_1     = -1.7551	tb6_1     = -0.1051	tb7_1     =  0.1854	tb8_1     = -2.2744	

CDMFT iteration 93, distance =  1.21e+02, diff param =  7.30e-02, diff hybrid =  1.03e-01
91 minimization steps, time(MIN)/time(ED)=0.00228
sb1_1     =  0.0387	sb2_1     = -0.0051	sb3_1     =  0.0159	sb4_1     = -0.1333	sb5_1     =  0.0082	
sb6_1     = -0.1242	sb7_1     =  0.0385	sb8_1     = -0.0054	eb1_1     = -0.0475	eb2_1     = -3.5617	
eb3_1     = -4.3223	eb4_1     = -0.1159	eb5_1     = -4.1057	eb6_1     = -0.0527	eb7_1     =  0.1144	
eb8_1     = -3.7901	tb1_1     = -0.1138	tb2_1     = -1.1158	tb3_1     =  1.7545	tb4_1     =  0.1073	
tb5_1     = -1.7197	tb6_1     = -0.0515	tb7_1     =  0.1840	tb8_1     = -2.2747	

CDMFT iteration 94, distance =  1.19e+02, diff param =  7.13e-02, diff hybrid =  1.05e-01
72 minimization steps, time(MIN)/time(ED)=0.00227
sb1_1     = -0.0367	sb2_1     =  0.0053	sb3_1     =  0.0090	sb4_1     = -0.1210	sb5_1     =  0.0162	
sb6_1     = -0.1313	sb7_1     = -0.0403	sb8_1     =  0.0059	eb1_1     = -0.0502	eb2_1     = -3.5719	
eb3_1     = -4.1118	eb4_1     = -0.0538	eb5_1     = -4.3273	eb6_1     = -0.1161	eb7_1     =  0.1150	
eb8_1     = -3.7887	tb1_1     = -0.1162	tb2_1     = -1.1167	tb3_1     =  1.7208	tb4_1     =  0.0579	
tb5_1     = -1.7552	tb6_1     = -0.1100	tb7_1     =  0.1815	tb8_1     = -2.2749	

CDMFT iteration 95, distance =  1.19e+02, diff param =  7.25e-02, diff hybrid =  1.05e-01
91 minimization steps, time(MIN)/time(ED)=0.00227
sb1_1     =  0.0365	sb2_1     = -0.0048	sb3_1     =  0.0162	sb4_1     = -0.1317	sb5_1     =  0.0092	
sb6_1     = -0.1204	sb7_1     =  0.0395	sb8_1     = -0.0057	eb1_1     = -0.0460	eb2_1     = -3.5673	
eb3_1     = -4.3397	eb4_1     = -0.1156	eb5_1     = -4.1116	eb6_1     = -0.0534	eb7_1     =  0.1134	
eb8_1     = -3.7854	tb1_1     = -0.1151	tb2_1     = -1.1166	tb3_1     =  1.7574	tb4_1     =  0.1101	
tb5_1     = -1.7202	tb6_1     = -0.0609	tb7_1     =  0.1807	tb8_1     = -2.2739	

CDMFT iteration 96, distance =  1.21e+02, diff param =  7.29e-02, diff hybrid =  1.02e-01
92 minimization steps, time(MIN)/time(ED)=0.00227
sb1_1     = -0.0383	sb2_1     =  0.0045	sb3_1     =  0.0087	sb4_1     = -0.1232	sb5_1     =  0.0158	
sb6_1     = -0.1336	sb7_1     = -0.0377	sb8_1     =  0.0052	eb1_1     = -0.0418	eb2_1     = -3.5566	
eb3_1     = -4.1116	eb4_1     = -0.0518	eb5_1     = -4.3304	eb6_1     = -0.1146	eb7_1     =  0.1120	
eb8_1     = -3.7861	tb1_1     = -0.1126	tb2_1     = -1.1157	tb3_1     =  1.7201	tb4_1     =  0.0568	
tb5_1     = -1.7557	tb6_1     = -0.1073	tb7_1     =  0.1828	tb8_1     = -2.2735	

CDMFT iteration 97, distance =  1.22e+02, diff param =  7.19e-02, diff hybrid =  1.02e-01
96 minimization steps, time(MIN)/time(ED)=0.00227
sb1_1     =  0.0397	sb2_1     = -0.0045	sb3_1     =  0.0156	sb4_1     = -0.1349	sb5_1     =  0.0082	
sb6_1     = -0.1254	sb7_1     =  0.0371	sb8_1     = -0.0050	eb1_1     = -0.0418	eb2_1     = -3.5523	
eb3_1     = -4.3254	eb4_1     = -0.1148	eb5_1     = -4.1067	eb6_1     = -0.0514	eb7_1     =  0.1124	
eb8_1     = -3.7886	tb1_1     = -0.1115	tb2_1     = -1.1152	tb3_1     =  1.7550	tb4_1     =  0.1053	
tb5_1     = -1.7193	tb6_1     = -0.0513	tb7_1     =  0.1849	tb8_1     = -2.2738	

CDMFT iteration 98, distance =  1.21e+02, diff param =  7.24e-02, diff hybrid =  1.03e-01
83 minimization steps, time(MIN)/time(ED)=0.00226
sb1_1     = -0.0389	sb2_1     =  0.0050	sb3_1     =  0.0082	sb4_1     = -0.1246	sb5_1     =  0.0159	
sb6_1     = -0.1339	sb7_1     = -0.0381	sb8_1     =  0.0052	eb1_1     = -0.0458	eb2_1     = -3.5588	
eb3_1     = -4.1050	eb4_1     = -0.0521	eb5_1     = -4.3262	eb6_1     = -0.1159	eb7_1     =  0.1141	
eb8_1     = -3.7911	tb1_1     = -0.1131	tb2_1     = -1.1157	tb3_1     =  1.7194	tb4_1     =  0.0511	
tb5_1     = -1.7552	tb6_1     = -0.1067	tb7_1     =  0.1845	tb8_1     = -2.2748	

CDMFT iteration 99, distance =  1.19e+02, diff param =  7.40e-02, diff hybrid =  1.05e-01
120 minimization steps, time(MIN)/time(ED)=0.00227
sb1_1     =  0.0372	sb2_1     = -0.0053	sb3_1     =  0.0163	sb4_1     = -0.1319	sb5_1     =  0.0087	
sb6_1     = -0.1217	sb7_1     =  0.0398	sb8_1     = -0.0057	eb1_1     = -0.0501	eb2_1     = -3.5727	
eb3_1     = -4.3375	eb4_1     = -0.1166	eb5_1     = -4.1069	eb6_1     = -0.0532	eb7_1     =  0.1146	
eb8_1     = -3.7886	tb1_1     = -0.1159	tb2_1     = -1.1168	tb3_1     =  1.7572	tb4_1     =  0.1098	
tb5_1     = -1.7199	tb6_1     = -0.0561	tb7_1     =  0.1820	tb8_1     = -2.2747	

CDMFT iteration 100, distance =  1.19e+02, diff param =  7.55e-02, diff hybrid =  1.05e-01
94 minimization steps, time(MIN)/time(ED)=0.00227
sb1_1     = -0.0367	sb2_1     =  0.0050	sb3_1     =  0.0091	sb4_1     = -0.1203	sb5_1     =  0.0163	
sb6_1     = -0.1314	sb7_1     = -0.0400	sb8_1     =  0.0058	eb1_1     = -0.0477	eb2_1     = -3.5715	
eb3_1     = -4.1083	eb4_1     = -0.0536	eb5_1     = -4.3424	eb6_1     = -0.1161	eb7_1     =  0.1141	
eb8_1     = -3.7865	tb1_1     = -0.1156	tb2_1     = -1.1170	tb3_1     =  1.7198	tb4_1     =  0.0603	
tb5_1     = -1.7578	tb6_1     = -0.1108	tb7_1     =  0.1807	tb8_1     = -2.2743	

CDMFT iteration 101, distance =  1.20e+02, diff param =  7.37e-02, diff hybrid =  1.04e-01
97 minimization steps, time(MIN)/time(ED)=0.00226
sb1_1     =  0.0380	sb2_1     = -0.0046	sb3_1     =  0.0159	sb4_1     = -0.1331	sb5_1     =  0.0089	
sb6_1     = -0.1223	sb7_1     =  0.0383	sb8_1     = -0.0054	eb1_1     = -0.0429	eb2_1     = -3.5602	
eb3_1     = -4.3327	eb4_1     = -0.1147	eb5_1     = -4.1141	eb6_1     = -0.0525	eb7_1     =  0.1125	
eb8_1     = -3.7861	tb1_1     = -0.1132	tb2_1     = -1.1161	tb3_1     =  1.7561	tb4_1     =  0.1081	
tb5_1     = -1.7206	tb6_1     = -0.0583	tb7_1     =  0.1822	tb8_1     = -2.2737	
Traceback (most recent call last):
  File "/home/theod/code_pyqcm/simulations/cdmft_fade_with_mu.py", line 131, in <module>
    fade(fade_func, initial_P, material_P, 20+20*int(sys.argv[1]))
  File "/home/theod/.local/lib/python3.8/site-packages/pyqcm/loop.py", line 390, in fade
    F()
  File "/home/theod/code_pyqcm/simulations/cdmft_fade_with_mu.py", line 119, in fade_func
    cdmft(
  File "/home/theod/.local/lib/python3.8/site-packages/pyqcm/cdmft.py", line 514, in cdmft
    raise pyqcm.TooManyIterationsError(maxiter)
pyqcm.TooManyIterationsError: 100
