model	E_kin	D	U	e	eb1_1	eb2_1	eb3_1	eb4_1	eb5_1	eb6_1	eb7_1	eb8_1	mu	sb1_1	sb2_1	sb3_1	sb4_1	sb5_1	sb6_1	sb7_1	sb8_1	tb1_1	tb2_1	tb3_1	tb4_1	tb5_1	tb6_1	tb7_1	tb8_1	tpd	tpp	tppp	ave_D	ave_e	ave_mu	ave_tpd	ave_tpp	ave_tppp	ave_D_1	ave_U_1	ave_eb1_1	ave_eb2_1	ave_eb3_1	ave_eb4_1	ave_eb5_1	ave_eb6_1	ave_eb7_1	ave_eb8_1	ave_mu_1	ave_sb1_1	ave_sb2_1	ave_sb3_1	ave_sb4_1	ave_sb5_1	ave_sb6_1	ave_sb7_1	ave_sb8_1	ave_tb1_1	ave_tb2_1	ave_tb3_1	ave_tb4_1	ave_tb5_1	ave_tb6_1	ave_tb7_1	ave_tb8_1	var_D_1	var_U_1	var_eb1_1	var_eb2_1	var_eb3_1	var_eb4_1	var_eb5_1	var_eb6_1	var_eb7_1	var_eb8_1	var_mu_1	var_sb1_1	var_sb2_1	var_sb3_1	var_sb4_1	var_sb5_1	var_sb6_1	var_sb7_1	var_sb8_1	var_tb1_1	var_tb2_1	var_tb3_1	var_tb4_1	var_tb5_1	var_tb6_1	var_tb7_1	var_tb8_1	E0_1	sector_1	E0_2	sector_2	githash	time
2x2_2C_8b_C2v_L	6.4867356	0.1	14	1.93	0.12271629	-8.238242	-9.1996294	-0.20790101	-9.2006445	-0.20912282	0.40704901	-9.4044082	13.5	-0.002327976	0.0002184822	0.0033574496	0.03094233	0.0034188708	0.031084417	-0.0022458078	-0.00052264575	0.020879568	-0.76224112	1.1551721	0.0089982124	-1.1552924	-0.0085886909	-0.051530516	-1.4978381	1.25	0.649	0.161	-0.067522242	1.3177082	1.6700761	-0.28307804	-0.035235898	0.015753403	-0.15225404	0.059296849	7.8335186e-05	1.9776439	1.9522342	1.9993335	1.9522232	1.9993622	0.00010369332	1.9135048	1.0588662	0.012283188	3.3741179e-05	-0.1376316	-0.038115145	-0.13769388	-0.037839184	0.014149454	-3.2140019e-05	-0.021315556	0.55487211	-0.84589464	-0.089416476	0.84603818	0.086969094	0.032041056	1.1936431	0.67975969	0.015698778	7.9794334e-05	0.022280453	0.047238395	0.00068492781	0.047249031	0.00065542213	0.00010449116	0.084135364	0.015664349	3.4439119	4.71908	4.5894016	4.2600351	4.5891002	4.2593429	4.1191586	4.5351427	4.5572139	3.4798519	3.7710411	3.7448021	3.7713933	3.7452813	3.8817609	4.0330435	-129.13441	R0:S0:1	-92.56	uncorrelated	51514b8	2022-04-11@05:44
2x2_2C_8b_C2v_L	6.4868239	0.1	14	1.93	0.12290458	-8.2382605	-9.1996337	-0.20815823	-9.2006488	-0.20937506	0.40727283	-9.4041666	13.52	-0.0015527739	0.00060785962	0.0034924527	0.030606954	0.0035901116	0.030746909	-0.0019360112	-0.00040895891	0.020595351	-0.7621722	1.1549774	0.0088397614	-1.1550814	-0.0085950858	-0.05262191	-1.4979276	1.25	0.649	0.161	-0.068770978	1.3177146	1.6702626	-0.28296571	-0.035232608	0.01574952	-0.15506627	0.059796868	7.2667402e-05	1.977578	1.952107	1.9993239	1.9521092	1.9993417	0.00010464607	1.9131518	1.0593647	0.0083016114	-0.00029486503	-0.14049797	-0.03828272	-0.14052098	-0.038143762	0.012297735	0.00018091978	-0.021176124	0.55546919	-0.84669985	-0.090099493	0.8466676	0.088584443	0.032688783	1.1962066	0.67863783	0.015881908	7.3951415e-05	0.022346328	0.047364002	0.00069450734	0.047361821	0.00067615653	0.00010543698	0.084467879	0.015847352	3.4411827	4.7222574	4.5923158	4.2629893	4.5924115	4.2629156	4.1200839	4.5369781	4.5599148	3.4774838	3.7687589	3.7419285	3.7686692	3.7418718	3.88086	4.0333323	-129.21949	R0:S0:1	-92.72	uncorrelated	51514b8	2022-04-11@05:48
2x2_2C_8b_C2v_L	6.486678	0.1	14	1.93	0.12305635	-8.2383251	-9.1997513	-0.20836135	-9.2007662	-0.2095769	0.40751112	-9.4041621	13.54	-0.0012278506	8.734162e-05	0.0035018585	0.031149023	0.0034660292	0.03126242	-0.0016126901	-0.00044144372	0.020932866	-0.76100145	1.1529144	0.0087820102	-1.1530056	-0.0085931519	-0.053425723	-1.49544	1.25	0.649	0.161	-0.070114166	1.3177178	1.6703869	-0.28290105	-0.03523414	0.015747195	-0.15818215	0.060195909	7.7078653e-05	1.9775552	1.9521307	1.9992807	1.9521281	1.999295	0.00010567138	1.9130822	1.059764	0.0066956606	3.558789e-05	-0.14334404	-0.039494806	-0.1433476	-0.03938511	0.010458402	3.7660621e-05	-0.021711494	0.55565889	-0.84614082	-0.092676768	0.84618696	0.091506597	0.033174508	1.1967676	0.67747972	0.016052006	7.849102e-05	0.022369195	0.047342285	0.00073953761	0.047344709	0.00072475053	0.00010645849	0.084534081	0.016017908	3.4400652	4.7235891	4.5943678	4.2665817	4.5941927	4.2662237	4.120678	4.5371525	4.5611286	3.4765429	3.7662368	3.7386511	3.7664191	3.7389033	3.8802908	4.0338643	-129.29856	R0:S0:1	-92.88	uncorrelated	51514b8	2022-04-11@05:52
2x2_2C_8b_C2v_L	6.4866481	0.1	14	1.93	0.12327067	-8.2383952	-9.199785	-0.20864941	-9.2007975	-0.20986203	0.40784421	-9.4040557	13.56	-0.00073244327	3.9893293e-05	0.0036198316	0.031660328	0.0037254923	0.031760445	-0.0012954261	-0.00013389354	0.021446011	-0.75981311	1.1521425	0.0089407742	-1.1522446	-0.0088827974	-0.054212063	-1.4933564	1.25	0.649	0.161	-0.071524723	1.317723	1.6705561	-0.28280399	-0.03523378	0.015743671	-0.16144198	0.06069395	8.3703104e-05	1.9775387	1.9520655	1.9992131	1.9520504	1.9992169	0.00010724084	1.9129593	1.0602615	0.0041151458	0.0001852407	-0.14653467	-0.041036828	-0.14661918	-0.041048848	0.0085913528	-0.00024890444	-0.022476509	0.55572717	-0.8462825	-0.09671895	0.84648941	0.096407061	0.033650642	1.1977408	0.67613531	0.01624927	8.5307992e-05	0.022385883	0.047407544	0.00080965831	0.047421997	0.00080571494	0.00010803472	0.084650324	0.016215618	3.4384189	4.7254026	4.5976419	4.2711282	4.5971242	4.2704356	4.1215852	4.5374335	4.5629059	3.4751003	3.7631006	3.7346031	3.7636511	3.7352673	3.8794124	4.0345591	-129.38029	R0:S0:1	-93.04	uncorrelated	51514b8	2022-04-11@05:56
2x2_2C_8b_C2v_L	6.4865889	0.1	14	1.93	0.12357537	-8.2384646	-9.199831	-0.2090525	-9.2008425	-0.2102615	0.40831767	-9.4037022	13.58	-0.00011721658	7.9399574e-05	0.003590598	0.03240237	0.0036549387	0.032480992	-0.00075427109	-0.00034259355	0.022104994	-0.75875213	1.1510729	0.0091727991	-1.1511597	-0.0092265328	-0.054591701	-1.4931659	1.25	0.649	0.161	-0.072999392	1.3177279	1.6707562	-0.2827074	-0.035237176	0.015742179	-0.16482974	0.061273741	9.4287394e-05	1.9775345	1.9520122	1.9991215	1.9520169	1.9991172	0.00010647691	1.9126065	1.0608385	0.00066712821	-0.0001043064	-0.14980016	-0.043040597	-0.14980072	-0.043140483	0.0049833047	0.00023351643	-0.023466904	0.55550628	-0.84636621	-0.10189626	0.84631133	0.10219104	0.033855653	1.2004072	0.67473071	0.016471342	9.6208619e-05	0.022390637	0.047461317	0.00090498635	0.04745667	0.0009092649	0.00010722948	0.084982017	0.016437703	3.4350741	4.7288012	4.6003946	4.2754964	4.6004709	4.2756343	4.1232747	4.5386208	4.5664398	3.4720478	3.7603471	3.7309116	3.7602464	3.730807	3.8777328	4.03547	-129.46386	R0:S0:1	-93.2	uncorrelated	51514b8	2022-04-11@06:00
2x2_2C_8b_C2v_L	6.4865764	0.1	14	1.93	0.12402892	-8.2385271	-9.1998686	-0.20964474	-9.2008804	-0.21084867	0.4089936	-9.4033576	13.6	0.00061593124	0.00013363509	0.0034804606	0.03337439	0.0034236995	0.033425965	-0.00020288353	4.5158116e-05	0.022930122	-0.75800713	1.149992	0.0095763163	-1.1500339	-0.009737919	-0.055563716	-1.4908635	1.25	0.649	0.161	-0.074514782	1.3177338	1.6709455	-0.28259856	-0.035236121	0.015737966	-0.16828614	0.061830191	0.00011109602	1.977491	1.9519732	1.9989925	1.9519844	1.9989783	0.00011027971	1.9125062	1.0613945	-0.0034795089	-0.00010019932	-0.15306586	-0.045637873	-0.15300854	-0.045830134	0.0013131424	6.4738668e-05	-0.024680152	0.55590308	-0.84625399	-0.10874198	0.84613834	0.10971796	0.034458559	1.2012143	0.67322931	0.016691454	0.00011354608	0.022434124	0.047501122	0.0010393023	0.047490255	0.0010536717	0.00011107627	0.08507711	0.016658523	3.4334133	4.7308577	4.6035671	4.2808202	4.6036363	4.2810873	4.1241363	4.5388138	4.5683681	3.4706077	3.7570479	3.7265319	3.7569136	3.7263728	3.8769196	4.0361894	-129.54586	R0:S0:1	-93.36	uncorrelated	51514b8	2022-04-11@06:04
2x2_2C_8b_C2v_L	6.4866126	0.1	14	1.93	0.12468763	-8.2385773	-9.1998847	-0.21049334	-9.2008942	-0.21169046	0.40994424	-9.4026772	13.62	0.0013411413	1.1286948e-05	0.0033133015	0.034447212	0.0031851267	0.034469751	0.00057691205	5.1038275e-05	0.023860959	-0.75774727	1.1490977	0.010186694	-1.1491225	-0.010463868	-0.056068965	-1.4904162	1.25	0.649	0.161	-0.076119012	1.3177406	1.6711856	-0.28247059	-0.035236305	0.015734499	-0.17195509	0.062516807	0.00013590666	1.9774385	1.9519224	1.9988139	1.9519474	1.9987882	0.00011512385	1.9121825	1.0620788	-0.0077842881	-0.00022659043	-0.1565624	-0.048871607	-0.15642854	-0.049159218	-0.0041512229	0.00033598056	-0.026131865	0.55627283	-0.84621064	-0.11758105	0.84592101	0.11923585	0.034769468	1.2036533	0.67156934	0.016949372	0.00013916879	0.022486815	0.047552773	0.0012252007	0.047528623	0.0012513245	0.00011601277	0.08538182	0.016916794	3.4300699	4.734651	4.6070219	4.286889	4.6074411	4.2877166	4.125672	4.5399705	4.5720818	3.4675932	3.7535078	3.7217772	3.7529765	3.7211444	3.875433	4.0370661	-129.63106	R0:S0:1	-93.52	uncorrelated	51514b8	2022-04-11@06:08
2x2_2C_8b_C2v_L	6.4867027	0.1	14	1.93	0.12560466	-8.2386296	-9.1998869	-0.2116644	-9.2008901	-0.212852	0.41120084	-9.4019201	13.64	0.0019084164	-0.00032774079	0.0031551455	0.035451307	0.0030488206	0.035455742	0.0013436769	0.00043499363	0.024828932	-0.75770667	1.1483052	0.010983918	-1.1483218	-0.011361571	-0.056978749	-1.4881202	1.25	0.649	0.161	-0.077788964	1.3177487	1.6714258	-0.28232656	-0.035232535	0.01572852	-0.17578387	0.063211771	0.00016667273	1.9773555	1.9518816	1.9985885	1.9518967	1.9985481	0.00012607454	1.9120774	1.0627736	-0.011233157	6.6746533e-05	-0.16018918	-0.052533524	-0.16009942	-0.052935061	-0.0095482732	-2.9777793e-06	-0.027695841	0.55712338	-0.84597755	-0.12791594	0.8458273	0.13031875	0.035357143	1.2044988	0.6697542	0.01721514	0.00017098852	0.022569553	0.047594824	0.0014594874	0.04758019	0.0015008211	0.00012720742	0.085481689	0.017183464	3.4280896	4.7373612	4.6111642	4.2942234	4.6112085	4.2947312	4.1265781	4.5401936	4.5745085	3.4658792	3.7491817	3.7161014	3.7490315	3.7158935	3.874622	4.0378566	-129.71556	R0:S0:1	-93.68	uncorrelated	51514b8	2022-04-11@06:11
2x2_2C_8b_C2v_L	6.4867554	0.1	14	1.93	0.12686301	-8.2387074	-9.1998886	-0.2132474	-9.2008835	-0.21442323	0.41284107	-9.4007426	13.66	0.0021384763	-0.00075859295	0.0029824041	0.036171264	0.0029258903	0.036169107	0.0022078923	0.00046458611	0.025752922	-0.75740223	1.1473642	0.011858792	-1.1473903	-0.012265343	-0.057197963	-1.487919	1.25	0.649	0.161	-0.079567455	1.3177564	1.671711	-0.28218093	-0.035234102	0.015725192	-0.17988316	0.064030259	0.00019925051	1.9773127	1.9518538	1.9983319	1.9518657	1.998284	0.00013947013	1.9117036	1.0635896	-0.012822425	0.00023140617	-0.16406811	-0.056305922	-0.16400675	-0.05674863	-0.015866211	2.3658294e-05	-0.029348369	0.55730132	-0.8455978	-0.13887918	0.84548353	0.14151487	0.03549337	1.2073548	0.6677887	0.017520434	0.0002047056	0.022612753	0.047624397	0.0017253869	0.047612774	0.0017743063	0.00014096995	0.085833131	0.01748898	3.4239257	4.7419397	4.6153826	4.3020365	4.6153732	4.302528	4.1286354	4.5412617	4.5791639	3.4620675	3.7446566	3.7102002	3.7445649	3.7100564	3.8726625	4.0390883	-129.80313	R0:S0:1	-93.84	uncorrelated	51514b8	2022-04-11@06:15
2x2_2C_8b_C2v_L	6.4867062	0.1	14	1.93	0.13199304	-8.2389859	-9.19987	-0.2189785	-9.2008248	-0.22011806	0.41760884	-9.3975627	13.68	-0.002008257	0.00070030603	0.0030229011	0.036240453	0.0031692791	0.036442664	-0.00027593072	-1.6756855e-05	0.025436294	-0.7555595	1.1463258	0.012153715	-1.1465161	-0.011783901	-0.058069298	-1.4856763	1.25	0.649	0.161	-0.081389928	1.3177628	1.671958	-0.28205603	-0.035237475	0.015722019	-0.18407124	0.064722854	0.0001998439	1.9773442	1.9518264	1.9982285	1.9518168	1.9982739	0.00012766621	1.9115166	1.0642816	0.012047023	-0.000321201	-0.16807878	-0.058047322	-0.16816211	-0.057775111	0.0021196653	-3.1411297e-05	-0.029353065	0.55667482	-0.8452631	-0.14399008	0.8453405	0.14153673	0.035978317	1.2089111	0.66589836	0.01780354	0.00020498623	0.022581956	0.047653598	0.0018298501	0.047662974	0.0017830025	0.00012875583	0.086009164	0.017772328	3.4210452	4.7446825	4.6191987	4.3080194	4.6193295	4.3076488	4.1305875	4.5411939	4.5821119	3.4594215	3.7405312	3.7049986	3.740495	3.7050203	3.8706669	4.0405476	-129.90009	R0:S0:1	-94	uncorrelated	51514b8	2022-04-11@06:23
2x2_2C_8b_C2v_L	6.4867678	0.1	14	1.93	0.14004605	-8.2392689	-9.1998351	-0.22781353	-9.2007741	-0.22888972	0.42462461	-9.3927469	13.7	0.0020861706	-0.00050543083	0.0029973377	0.037395658	0.0028684079	0.037275655	-0.00013570134	-9.5828808e-05	0.027444503	-0.75533265	1.145293	0.012443243	-1.1452786	-0.013040558	-0.058999985	-1.4840205	1.25	0.649	0.161	-0.083354376	1.3177714	1.6722672	-0.28189457	-0.035238445	0.015717494	-0.18861276	0.065610343	0.00024668585	1.977289	1.9518108	1.998033	1.951824	1.9979546	0.00013294643	1.9112433	1.0651671	-0.012624433	0.00017403076	-0.1724596	-0.061631025	-0.17235188	-0.062223444	0.00079609942	0.00018359855	-0.032273459	0.55703798	-0.84468557	-0.15105704	0.84458548	0.15489814	0.036529684	1.2110551	0.66365257	0.018144027	0.00025344448	0.022637413	0.047671539	0.0020301501	0.047658646	0.0021099574	0.00013410569	0.086266621	0.018113659	3.4174243	4.7489355	4.6238956	4.3158834	4.6236705	4.3164051	4.1325549	4.5417357	4.5864799	3.4560612	3.7353841	3.6985638	3.7354648	3.6986428	3.868763	4.0419205	-130.00797	R0:S0:1	-94.16	uncorrelated	51514b8	2022-04-11@06:31
2x2_2C_8b_C2v_L	6.4868413	0.1	14	1.93	0.15404852	-8.239731	-9.1997991	-0.24233879	-9.2007084	-0.24330645	0.43565358	-9.385055	13.72	-0.00072622648	0.00012214011	0.0026789119	0.039085091	0.0027500264	0.039324766	0.00072114457	0.00017449589	0.028957973	-0.75492043	1.1444225	0.013621826	-1.1445235	-0.013092046	-0.060174184	-1.4824301	1.25	0.649	0.161	-0.085433299	1.3177805	1.6726111	-0.28172081	-0.035241004	0.015713299	-0.19341443	0.066586378	0.00027323992	1.9772513	1.951793	1.9976844	1.951801	1.9977692	0.00014048355	1.9109004	1.0661399	0.0043245826	-0.00012885537	-0.17696051	-0.066929323	-0.17697931	-0.066377497	-0.0052729087	-1.8625786e-06	-0.034627443	0.55712581	-0.84410785	-0.16466394	0.84398101	0.16101118	0.03719723	1.2137362	0.66121217	0.0185167	0.00028039354	0.022675582	0.047691935	0.0023868787	0.047684376	0.0023000634	0.00014176867	0.086589098	0.018487336	3.4130949	4.7537754	4.6286135	4.3251735	4.6290617	4.3249484	4.1349798	4.5423927	4.5913205	3.4520271	3.7300799	3.6918284	3.7296842	3.6914015	3.8664189	4.0435446	-130.13397	R0:S0:1	-94.32	uncorrelated	51514b8	2022-04-11@06:38
2x2_2C_8b_C2v_L	6.4869693	0.1	14	1.93	0.17559995	-8.2404344	-9.1998501	-0.2640363	-9.2007491	-0.26484466	0.45157234	-9.3737994	13.74	0.00051541563	-8.15851e-05	0.0025021998	0.041315295	0.002315176	0.041219663	0.00042923188	7.9524341e-05	0.031866018	-0.75476819	1.143831	0.014079905	-1.1437662	-0.014706273	-0.061636334	-1.4803985	1.25	0.649	0.161	-0.087644069	1.3177908	1.6729977	-0.28152392	-0.035243302	0.015708417	-0.19851289	0.067687023	0.00033739607	1.977201	1.9517724	1.9974389	1.9517901	1.9973325	0.00014696902	1.9105406	1.0672365	-0.0031630158	-2.8203561e-05	-0.18187311	-0.071856951	-0.18174473	-0.072672734	-0.0032615726	8.7924005e-05	-0.038677191	0.55733225	-0.84338326	-0.1729553	0.84323792	0.17714628	0.038032708	1.2165502	0.6584911	0.018930748	0.00034616659	0.022726284	0.047715621	0.0026349886	0.047698354	0.0027431951	0.00014828455	0.086927557	0.018902823	3.4085768	4.7591028	4.6346369	4.3348396	4.6344278	4.3355988	4.137589	4.5430654	4.5968691	3.4476497	3.7235766	3.6838966	3.7236	3.6839401	3.8638917	4.0453084	-130.28272	R0:S0:1	-94.48	uncorrelated	51514b8	2022-04-11@06:45
2x2_2C_8b_C2v_L	6.4870728	0.1	14	1.93	0.20570069	-8.2414939	-9.2000916	-0.29349206	-9.2009928	-0.29410302	0.47270992	-9.3586141	13.76	0.00047236086	1.3359605e-06	0.0021241395	0.043742424	0.0019750697	0.043644223	-0.00045625605	-0.00012807377	0.033186897	-0.75403259	1.1431591	0.015413715	-1.14304	-0.015730164	-0.063313579	-1.4781968	1.25	0.649	0.161	-0.089971783	1.3178011	1.6734129	-0.28132293	-0.035248385	0.015704429	-0.20390747	0.068876922	0.00036277479	1.9771928	1.9517653	1.9970583	1.9517929	1.9970088	0.00015499509	1.9101152	1.068422	-0.0028099982	-5.5934311e-05	-0.18697567	-0.0781103	-0.18683651	-0.07843047	0.0032974068	0.00014427374	-0.040694562	0.55696199	-0.84252054	-0.18643669	0.84225456	0.18831201	0.038962246	1.2198865	0.65556401	0.019379744	0.0003708033	0.022735379	0.04772636	0.0030180219	0.047699499	0.0030678963	0.00015635701	0.08732718	0.019353136	3.4032142	4.7648906	4.6405656	4.3456008	4.6405926	4.3461867	4.1407452	4.5437632	4.6026532	3.4425259	3.7169094	3.6758361	3.7166998	3.67564	3.860831	4.047398	-130.45593	R0:S0:1	-94.64	uncorrelated	51514b8	2022-04-11@06:52
2x2_2C_8b_C2v_L	6.4873166	0.1	14	1.93	0.24441374	-8.2428438	-9.2005995	-0.33094625	-9.201496	-0.33130579	0.49918454	-9.3393246	13.78	-0.00044813848	6.5654619e-05	0.0015793953	0.046276289	0.0016955649	0.046502069	-0.0012701559	-0.00021933894	0.038037571	-0.75479908	1.1425382	0.017027719	-1.1427469	-0.016614266	-0.064993032	-1.4757432	1.25	0.649	0.161	-0.09246453	1.3178141	1.6738918	-0.28107688	-0.035249878	0.015698188	-0.20966362	0.070212638	0.00046657725	1.9770987	1.9517862	1.9966416	1.951763	1.9967119	0.00016765483	1.9096536	1.069752	0.0028333775	0.00023343178	-0.19229916	-0.084743256	-0.19244114	-0.084343277	0.0095347932	-0.00030792463	-0.046993741	0.55760822	-0.84125326	-0.20032128	0.84150886	0.19786686	0.03987955	1.2234227	0.65233488	0.01987858	0.00047687077	0.022829753	0.04771032	0.003433588	0.047732805	0.0033627685	0.00016916616	0.087761237	0.01985419	3.3979774	4.7716172	4.6474439	4.3577392	4.6471579	4.3567646	4.1436773	4.5449673	4.6095543	3.4372376	3.709085	3.6666441	3.709509	3.6670833	3.858021	4.0493213	-130.65603	R0:S0:1	-94.8	uncorrelated	51514b8	2022-04-11@06:59
2x2_2C_8b_C2v_L	6.4875332	0.1	14	1.93	0.29223334	-8.2446681	-9.2014515	-0.37640633	-9.2023698	-0.37647759	0.53094492	-9.315819	13.8	-0.00081354138	0.00057517825	0.00092784949	0.049473298	0.0012508661	0.049778648	-0.0015322833	-0.00044324346	0.040877662	-0.75464045	1.1420956	0.018720022	-1.1425179	-0.017855341	-0.067215884	-1.4731138	1.25	0.649	0.161	-0.095083647	1.317827	1.6744072	-0.28082612	-0.035255222	0.015693219	-0.21571419	0.071655903	0.00051949197	1.977069	1.9517929	1.9962097	1.9517631	1.996374	0.00017968182	1.9091126	1.0711887	0.0047290642	-0.00027495529	-0.1979857	-0.091989595	-0.19817181	-0.090937282	0.011229658	0.00015495317	-0.050686548	0.55738824	-0.84009789	-0.21396815	0.84033726	0.20856455	0.041075492	1.2276027	0.64885951	0.020418309	0.00052934134	0.022860351	0.047708413	0.0038637245	0.047737639	0.0036979637	0.00018126204	0.088269252	0.020396041	3.3915871	4.7788466	4.6543333	4.369974	4.6547364	4.3689405	4.147384	4.5461139	4.6167875	3.4309846	3.7012218	3.6573539	3.7011347	3.6571683	3.8544438	4.0517045	-130.88199	R0:S0:1	-94.96	uncorrelated	51514b8	2022-04-11@07:06
2x2_2C_8b_C2v_L	6.4877268	0.1	14	1.93	0.34915947	-8.2469668	-9.2026478	-0.42987233	-9.2036144	-0.42961844	0.56799106	-9.2880973	13.82	-0.00062384782	0.0015299069	0.00016950221	0.053333452	0.00064097339	0.05347396	-0.0012426382	-0.00079978733	0.041707173	-0.75355668	1.1418312	0.020490626	-1.1423529	-0.019453389	-0.069982136	-1.4703085	1.25	0.649	0.161	-0.097833208	1.31784	1.6749616	-0.28056936	-0.035264317	0.015689465	-0.22207591	0.073212002	0.000512988	1.9771039	1.9517855	1.9957644	1.9517951	1.9959957	0.00018811536	1.90849	1.0727375	0.0030446969	-0.0016849439	-0.20407661	-0.099834075	-0.20401899	-0.098175538	0.0083909609	0.0016763149	-0.051731929	0.55630055	-0.83904953	-0.2272788	0.83871794	0.22010341	0.042537801	1.2324401	0.64511684	0.021001695	0.00052045517	0.022826942	0.047720586	0.0043067318	0.047712127	0.0040730338	0.00018962582	0.08885307	0.02098143	3.3838612	4.7866047	4.6612374	4.3823251	4.6633593	4.3827443	4.1518853	4.5472093	4.6244098	3.4237412	3.6932995	3.6479084	3.6915388	3.6458524	3.8500616	4.0545556	-131.13382	R0:S0:1	-95.12	uncorrelated	51514b8	2022-04-11@07:09
2x2_2C_8b_C2v_L	6.4879642	0.1	14	1.93	0.41508061	-8.2497307	-9.2043872	-0.49126715	-9.2055168	-0.49064308	0.61023589	-9.2561191	13.84	-0.00094363304	-0.0019704415	1.1428996e-05	0.056606101	-0.00042323414	0.056610559	-4.3481524e-05	-0.00020221304	0.044836022	-0.75363639	1.1417163	0.021770081	-1.1406365	-0.021214596	-0.071764195	-1.4668035	1.25	0.649	0.161	-0.10074084	1.3178542	1.6755477	-0.28029107	-0.03527139	0.015684325	-0.22887424	0.074829096	0.0005593694	1.9770704	1.9518134	1.9955568	1.9519204	1.9956564	0.00018973162	1.9078786	1.0743484	0.0053481572	0.0017440091	-0.21041288	-0.10542217	-0.21024222	-0.10479146	0.00093821856	-0.0012760607	-0.055448742	0.55605121	-0.83744377	-0.23351884	0.83645351	0.23051808	0.043387802	1.237138	0.64118196	0.021623264	0.00056631918	0.022861503	0.047699223	0.0045057983	0.047595098	0.004405347	0.00019105878	0.089426919	0.02160532	3.3765407	4.7947866	4.6699355	4.3948274	4.6697538	4.3946273	4.1560054	4.5486215	4.6324532	3.4167053	3.683628	3.6366179	3.6831769	3.6360784	3.8459923	4.0572374	-131.41105	R0:S0:1	-95.28	uncorrelated	51514b8	2022-04-11@07:12
2x2_2C_8b_C2v_L	6.4884889	0.1	14	1.93	0.48970907	-8.2529863	-9.2068656	-0.56019483	-9.2079884	-0.5591458	0.65730733	-9.2199109	13.86	0.002236754	0.0022580402	-0.00058125352	0.05955871	-0.00085182944	0.059105452	0.0013952384	0.0011788954	0.052647488	-0.75565584	1.1411277	0.022527262	-1.1412362	-0.024039212	-0.073332766	-1.4629599	1.25	0.649	0.161	-0.10381653	1.3178731	1.6762382	-0.27993303	-0.035271558	0.015675162	-0.2359159	0.076628377	0.00073205321	1.9769254	1.9518642	1.9954975	1.9519252	1.9952308	0.00020113993	1.9072359	1.0761403	-0.011971294	-0.0023316336	-0.21737208	-0.10991463	-0.21669854	-0.11153975	-0.010579721	0.0015153838	-0.064811599	0.55712014	-0.83566444	-0.23535695	0.83495322	0.2429786	0.044103303	1.2419704	0.63690642	0.022301876	0.00074130377	0.023006895	0.047655732	0.0045546926	0.047596682	0.0048223376	0.000202502	0.090030478	0.022287384	3.3698163	4.8040614	4.6779739	4.4058802	4.6791713	4.4093226	4.1597433	4.5506314	4.6418262	3.4095739	3.6742249	3.6255857	3.6727599	3.6241986	3.8423513	4.0596649	-131.71642	R0:S0:1	-95.44	uncorrelated	51514b8	2022-04-11@07:15
2x2_2C_8b_C2v_L	6.4888936	0.1	14	1.93	0.57304799	-8.2571246	-9.2102118	-0.63601993	-9.2114406	-0.6345272	0.70861785	-9.1796077	13.88	0.0010204377	-0.00051270356	-0.0014582445	0.06361088	-0.0017925691	0.063191052	0.0023975722	0.00074379979	0.055436398	-0.75567237	1.1411241	0.02480232	-1.1409645	-0.026108214	-0.076064511	-1.4591215	1.25	0.649	0.161	-0.10704613	1.3178907	1.6769732	-0.27958844	-0.035280745	0.015669611	-0.24338599	0.078597239	0.00075221974	1.9769188	1.9519586	1.9951258	1.9519797	1.9948701	0.00022043445	1.9064661	1.0781006	-0.0050299622	0.00017484012	-0.22404082	-0.1175525	-0.22385008	-0.11918758	-0.016250987	-0.00010181677	-0.067877054	0.55636183	-0.83317302	-0.24548118	0.83306911	0.25261553	0.045413544	1.2478794	0.63223623	0.02304524	0.00076007122	0.023015113	0.047570948	0.0049212595	0.047550014	0.0051776044	0.00022192611	0.090751643	0.023033704	3.3602523	4.8141958	4.68834	4.4220713	4.6874967	4.4231646	4.1650666	4.5522446	4.6516908	3.400566	3.6623187	3.6116598	3.6627973	3.6123901	3.8372007	4.0630509	-132.0457	R0:S0:1	-95.6	uncorrelated	51514b8	2022-04-11@07:21
2x2_2C_8b_C2v_L	6.4894149	0.1	14	1.93	0.66453046	-8.2621035	-9.2148079	-0.71816646	-9.2161129	-0.71618787	0.76366301	-9.1354662	13.9	0.00012372492	-0.00017577855	-0.002290384	0.066519123	-0.002244709	0.066482943	0.0017181446	0.00052385364	0.060072429	-0.75656872	1.1406595	0.027348064	-1.1408656	-0.027499761	-0.077531324	-1.4546173	1.25	0.649	0.161	-0.11041934	1.3179106	1.6777637	-0.27920598	-0.035287043	0.015662176	-0.25119735	0.080637559	0.00082273306	1.9768635	1.9520759	1.9948287	1.9520628	1.9947821	0.0002142663	1.9057009	1.0801342	-0.00064839672	5.2031957e-05	-0.23119809	-0.123892	-0.23126245	-0.12423426	-0.01127109	-0.00012551103	-0.07300688	0.55618442	-0.83058122	-0.25377719	0.83073499	0.25502227	0.045943011	1.253716	0.62735353	0.023829428	0.00083032289	0.023071798	0.047463675	0.0052104769	0.047476217	0.005257514	0.00021545982	0.091468768	0.023820915	3.3509769	4.8247497	4.6975345	4.436726	4.6972539	4.4367189	4.1701923	4.5540788	4.6620013	3.391611	3.6511547	3.5986766	3.6514428	3.5989934	3.8320567	4.066394	-132.39875	R0:S0:1	-95.76	uncorrelated	51514b8	2022-04-11@07:26
2x2_2C_8b_C2v_L	6.4900166	0.1	14	1.93	0.76374597	-8.2682253	-9.2209515	-0.80567478	-9.2223642	-0.80317027	0.82149908	-9.0876361	13.92	-0.0010463643	0.0003478599	-0.0034646577	0.070455144	-0.0029908417	0.070848918	-0.00039436456	-0.00021386254	0.063844198	-0.75706942	1.1406812	0.030511484	-1.1410832	-0.029064425	-0.080483271	-1.4502692	1.25	0.649	0.161	-0.11402365	1.3179322	1.6786657	-0.27878434	-0.035297348	0.015655651	-0.25953843	0.082967163	0.00087484756	1.9768526	1.9521993	1.9943668	1.9521806	1.9946023	0.00021715145	1.9048044	1.0824543	0.0044538487	-0.00023646497	-0.23881889	-0.13245691	-0.23905111	-0.13094092	0.0025470081	9.3490946e-05	-0.07714549	0.55530082	-0.82775435	-0.26546882	0.82783241	0.25914826	0.047312026	1.2605862	0.62186998	0.024710879	0.0008817562	0.023084538	0.047351234	0.0056671427	0.047369721	0.0054321698	0.0002181818	0.092307548	0.024705973	3.3395504	4.8369576	4.7077984	4.4539934	4.7086536	4.4531958	4.176578	4.5558772	4.6741082	3.3807839	3.6386913	3.5840932	3.6381637	3.5832384	3.8257403	4.0704763	-132.77563	R0:S0:1	-95.92	uncorrelated	51514b8	2022-04-11@07:31
2x2_2C_8b_C2v_L	6.4907189	0.1	14	1.93	0.87069451	-8.27549	-9.2286427	-0.89854491	-9.2301944	-0.89547439	0.88212606	-9.0361177	13.94	-0.0024898298	0.0010582118	-0.0049810656	0.075418941	-0.0040309674	0.076288978	-0.0039399552	-0.0014693487	0.066751706	-0.75717448	1.1411893	0.034292579	-1.1416175	-0.030802206	-0.084920352	-1.4460769	1.25	0.649	0.161	-0.11788244	1.3179559	1.679699	-0.2783166	-0.035312117	0.015650194	-0.26847517	0.085636891	0.00091042148	1.9768894	1.9523346	1.9937436	1.9523384	1.9943339	0.00027190708	1.9037701	1.0851116	0.01007429	-0.00067635402	-0.24697321	-0.14322881	-0.24727177	-0.13933444	0.024426579	0.00051674041	-0.080345813	0.55364602	-0.82461101	-0.28005256	0.82428595	0.26484723	0.049508121	1.2685428	0.61570536	0.025705374	0.00091641325	0.02305038	0.047228301	0.0062863083	0.047225661	0.0056973143	0.00027351979	0.093273861	0.025704745	3.3255909	4.8511703	4.7193111	4.4740083	4.721882	4.4727618	4.1842769	4.5575915	4.6884261	3.3677316	3.6247004	3.5677024	3.6227337	3.5649188	3.8184593	4.0753443	-133.17647	R0:S0:1	-96.08	uncorrelated	51514b8	2022-04-11@07:34
2x2_2C_8b_C2v_L	6.4914845	0.1	14	1.93	0.98441873	-8.2842246	-9.2386768	-0.99536685	-9.2403468	-0.9916547	0.94434806	-8.9819182	13.96	-0.0024819488	0.0016033833	-0.0054651368	0.078226071	-0.0046990295	0.078902594	-0.0069673194	-0.0017204383	0.071088014	-0.75742815	1.141092	0.036309421	-1.1415056	-0.033162236	-0.08272054	-1.4396803	1.25	0.649	0.161	-0.12178482	1.3179809	1.6807468	-0.27783182	-0.035324043	0.015643109	-0.27756644	0.088231665	0.00096932846	1.9769172	1.9525391	1.9936936	1.9525322	1.9941928	0.00032473559	1.9029518	1.0877034	0.0098031054	-0.00041798589	-0.25537616	-0.14818792	-0.25570254	-0.14475904	0.042103433	-0.00015172179	-0.084974649	0.55218723	-0.82076673	-0.28110202	0.82061445	0.26836294	0.047834355	1.2750087	0.60954955	0.026708003	0.00097494114	0.023024995	0.047037896	0.0063292415	0.047045438	0.0058315605	0.00032688735	0.094038228	0.026709869	3.3127695	4.8645901	4.7313759	4.4910365	4.7332902	4.4897727	4.1912502	4.5582395	4.7020009	3.3555535	3.6100234	3.5504595	3.6086234	3.5483777	3.8117195	4.0803155	-133.59549	R0:S0:1	-96.24	uncorrelated	51514b8	2022-04-11@07:36
2x2_2C_8b_C2v_L	6.4924933	0.1	14	1.93	1.1054363	-8.294196	-9.2506679	-1.096829	-9.2523494	-1.0924121	1.0086182	-8.924367	13.98	-0.0028251592	0.00043371339	-0.0065211821	0.081888719	-0.005110359	0.081769783	-0.0098106282	-0.0029401425	0.07499641	-0.75909032	1.1402592	0.037999539	-1.1424131	-0.036515767	-0.082691801	-1.4335839	1.25	0.649	0.161	-0.12590972	1.3180102	1.681946	-0.27727185	-0.03533376	0.015634351	-0.28726723	0.091189533	0.0010210205	1.97688	1.9529415	1.9936722	1.9526193	1.9938638	0.00041516608	1.9020161	1.0906568	0.011319723	0.0018113143	-0.26336299	-0.1537833	-0.26551922	-0.15214569	0.058040226	-0.0015715271	-0.08917515	0.55134866	-0.81459317	-0.28070913	0.81795771	0.2764042	0.047513498	1.2823023	0.60267589	0.027829453	0.0010261575	0.023064528	0.046656468	0.0063455226	0.046969136	0.006154628	0.00041807639	0.0949121	0.027834692	3.29807	4.8802672	4.7472211	4.5131775	4.7438603	4.5070813	4.1987719	4.559411	4.7172887	3.3418993	3.5906898	3.5279514	3.5953072	3.5325837	3.8047158	4.085571	-134.0384	R0:S0:1	-96.4	uncorrelated	51514b8	2022-04-11@07:39
2x2_2C_8b_C2v_L	6.4937013	0.1	14	1.93	1.2328878	-8.3058618	-9.2650969	-1.201544	-9.2670175	-1.1963618	1.0734713	-8.8641752	14	-0.0014361867	0.00048622783	-0.0072854712	0.086642717	-0.0072010961	0.086417693	-0.0097026049	-0.0028914169	0.081328038	-0.7602193	1.1419143	0.040815153	-1.1420081	-0.040699199	-0.087025677	-1.4286822	1.25	0.649	0.161	-0.13053516	1.3180432	1.6834218	-0.27661877	-0.035355356	0.015628999	-0.29807398	0.094832495	0.0011406403	1.9769226	1.9531075	1.9933143	1.9530798	1.9932932	0.00041195796	1.9007591	1.0942856	0.0056364808	0.0009550236	-0.27395689	-0.16337869	-0.27436204	-0.16346534	0.055433225	-0.00063728348	-0.096630306	0.54913564	-0.81052729	-0.28779863	0.81091428	0.2883527	0.049429691	1.2921703	0.59444857	0.029170097	0.001145963	0.023025461	0.046506206	0.0066994054	0.046532631	0.0067206731	0.00041463135	0.09608315	0.029181047	3.2791999	4.9001982	4.7627056	4.5366946	4.7614741	4.5356258	4.2100349	4.5601958	4.7377837	3.3236536	3.5721157	3.5059958	3.5732204	3.5072113	3.7935048	4.092964	-134.50586	R0:S0:1	-96.56	uncorrelated	51514b8	2022-04-11@07:43
2x2_2C_8b_C2v_L	6.4951389	0.1	14	1.93	1.3661126	-8.3195638	-9.2827975	-1.3082794	-9.2849334	-1.3022723	1.1378498	-8.8027593	14.02	0.00046315794	-0.00044944546	-0.0081579344	0.090796347	-0.0088225506	0.090120279	-0.0046171291	-0.0013331947	0.086869033	-0.76166219	1.1426334	0.043783792	-1.1421012	-0.045562978	-0.086529513	-1.4224652	1.25	0.649	0.161	-0.13528422	1.3180801	1.6850244	-0.27590138	-0.035374933	0.015622187	-0.30932717	0.098734974	0.0012443021	1.9769616	1.9534605	1.9930036	1.9535137	1.9926959	0.000256388	1.8996088	1.0981808	-0.00095469336	0.0010115206	-0.28431421	-0.1725485	-0.28408619	-0.17471529	0.025704515	-0.00052895659	-0.10313199	0.54691415	-0.80438355	-0.29345867	0.80406495	0.3005747	0.048562696	1.3014613	0.58557174	0.030604383	0.0012495683	0.022990231	0.046174378	0.0070055167	0.046121724	0.0073120154	0.00025731983	0.09715432	0.030619906	3.2594556	4.9209199	4.7807282	4.5637465	4.7791146	4.5643707	4.2221647	4.5597981	4.7588516	3.3048144	3.5499496	3.4802261	3.5508372	3.4816448	3.7803832	4.1013707	-134.99378	R0:S0:1	-96.72	uncorrelated	51514b8	2022-04-11@07:48
2x2_2C_8b_C2v_L	6.4967968	0.1	14	1.93	1.5046283	-8.3356311	-9.304181	-1.416222	-9.3065829	-1.4093349	1.2007516	-8.7405503	14.04	0.0027257509	-0.0013960946	-0.0094313086	0.094559944	-0.010448722	0.093556552	0.0050209364	0.001315962	0.091631523	-0.76259425	1.1432008	0.047495632	-1.1423452	-0.050561075	-0.086200174	-1.4161742	1.25	0.649	0.161	-0.14024338	1.3181205	1.6868302	-0.27511142	-0.03539975	0.015617166	-0.32110784	0.10310082	0.0013393428	1.97707	1.9539113	1.9925998	1.954022	1.992119	0.00025289975	1.8983884	1.1025401	-0.0082409712	0.00042973148	-0.29490885	-0.18271597	-0.29408128	-0.1861018	-0.027129902	0.00012837837	-0.1089622	0.54358097	-0.79707664	-0.30086933	0.79621791	0.31155238	0.047857917	1.311464	0.5758909	0.032183938	0.0013443721	0.022886367	0.045748007	0.0074042603	0.045639122	0.0078824022	0.00025373448	0.098288339	0.032203872	3.2362002	4.9445294	4.8003976	4.5938749	4.7989608	4.5957391	4.23588	4.5584541	4.7832141	3.2827298	3.5253301	3.4519189	3.5257809	3.4532147	3.7666076	4.1109657	-135.50426	R0:S0:1	-96.88	uncorrelated	51514b8	2022-04-11@07:53
2x2_2C_8b_C2v_L	6.4987265	0.1	14	1.93	1.6484349	-8.3540635	-9.3292473	-1.5253718	-9.3319661	-1.5175493	1.2621768	-8.6775481	14.06	0.0053515921	-0.0023537195	-0.011105594	0.097933508	-0.012079609	0.096726513	0.019211591	0.0050560531	0.095615506	-0.76301549	1.1436166	0.051950674	-1.1427402	-0.05569349	-0.08603766	-1.4098092	1.25	0.649	0.161	-0.14544101	1.3181653	1.6889014	-0.27423306	-0.035432189	0.015615365	-0.33351552	0.10812482	0.0014305599	1.9772641	1.9544732	1.9921098	1.954609	1.9915597	0.00081717138	1.8971022	1.1075576	-0.015942508	-0.00064053998	-0.30578301	-0.19398548	-0.30445017	-0.19777833	-0.10148885	0.0011459622	-0.11434265	0.53878516	-0.78839381	-0.30962919	0.78728097	0.32140174	0.047554506	1.3221635	0.56525827	0.033957359	0.0014352132	0.022697977	0.045214143	0.0078883654	0.045080631	0.0084349481	0.00082213111	0.09947932	0.033981553	3.2075334	4.9727976	4.8224018	4.6277533	4.8213847	4.6301703	4.2505976	4.5558084	4.8128156	3.2555531	3.4975265	3.4203235	3.4976462	3.421499	3.7553119	4.1215564	-136.03803	R0:S0:1	-97.04	uncorrelated	51514b8	2022-04-11@07:55
2x2_2C_8b_C2v_L	6.5016313	0.1	14	1.93	1.7931498	-8.3768555	-9.3622772	-1.6277945	-9.3652553	-1.6190291	1.3147575	-8.6219361	14.08	0.00032212342	-0.00024051844	-0.014123448	0.10501681	-0.013257608	0.10561061	-0.00069511062	-0.00022961416	0.10825566	-0.7685655	1.1455259	0.05932498	-1.1463969	-0.056544868	-0.089407017	-1.4050968	1.25	0.649	0.161	-0.15147612	1.3182255	1.6915934	-0.27305136	-0.035464091	0.01561002	-0.34824082	0.11453737	0.0017893416	1.9772149	1.9552194	1.9907566	1.9551682	1.9910842	0.00021231749	1.8955838	1.1139472	-0.0009111839	-1.8242257e-05	-0.31787567	-0.21640588	-0.31830365	-0.21407287	0.003547322	0.00017482165	-0.13104808	0.53641389	-0.77686782	-0.33319501	0.77721066	0.32638231	0.048492269	1.3351254	0.55148042	0.036145593	0.0017954054	0.022752873	0.044504166	0.0092328577	0.04455459	0.0089082744	0.00021271194	0.10088875	0.036181824	3.1766326	5.0079384	4.8520876	4.6761517	4.8532775	4.6754717	4.2727938	4.551656	4.8485636	3.2245117	3.460272	3.3790755	3.4596797	3.3777301	3.7294513	4.1370642	-136.60833	R0:S0:1	-97.2	uncorrelated	51514b8	2022-04-11@08:00
2x2_2C_8b_C2v_L	6.5044529	0.1	14	1.93	1.9342962	-8.4081759	-9.4094243	-1.7133168	-9.4126224	-1.703317	1.3492525	-8.5848156	14.1	-0.0015434352	0.00073909506	-0.015301779	0.10773349	-0.015721238	0.1069957	-0.0069860311	-0.0018035135	0.11139673	-0.76922452	1.1471719	0.063033028	-1.1469467	-0.064446779	-0.090090614	-1.4012204	1.25	0.649	0.161	-0.15714636	1.3182836	1.6943061	-0.27191354	-0.035505868	0.015611729	-0.36215308	0.12099011	0.0018759019	1.9775249	1.956069	1.9902468	1.9560994	1.989968	0.00028764566	1.8943106	1.1203958	0.0044371924	0.00073177627	-0.32929668	-0.2293284	-0.32939406	-0.23140206	0.036325396	-0.00089836497	-0.13657306	0.52954294	-0.76431059	-0.33988239	0.76415501	0.34526205	0.048368818	1.3468383	0.53812791	0.038316547	0.001881383	0.022450353	0.043690833	0.0097358352	0.04366038	0.010012364	0.00028858687	0.10206359	0.038357232	3.139704	5.0438183	4.8831786	4.7210837	4.8818262	4.7215415	4.295628	4.5437363	4.8863131	3.1894394	3.4216938	3.3362331	3.4223617	3.3374811	3.7070727	4.1536518	-137.21293	R0:S0:1	-97.36	uncorrelated	51514b8	2022-04-11@08:06
2x2_2C_8b_C2v_L	6.5080118	0.1	14	1.93	2.0709991	-8.4480301	-9.4710581	-1.7800589	-9.4745784	-1.7686548	1.3640552	-8.5675478	14.12	-0.00046220765	0.00013619268	-0.017509544	0.1138779	-0.020717832	0.10852499	4.2566345e-05	-7.1820597e-05	0.11320626	-0.76991373	1.1512154	0.067061414	-1.1465901	-0.078118098	-0.089598484	-1.3986883	1.25	0.649	0.161	-0.163051	1.318352	1.6975166	-0.27057318	-0.035554515	0.015616549	-0.37662061	0.12872894	0.0019448536	1.9779253	1.95703	1.9891482	1.9574615	1.9876402	0.00020357376	1.8931572	1.1281291	0.0014833293	0.00071859285	-0.34105821	-0.25090093	-0.33851788	-0.26024106	-2.0916521e-05	-0.00059936634	-0.14155903	0.52100351	-0.74970435	-0.35466634	0.7462059	0.38208081	0.04752499	1.3586517	0.52271653	0.040762314	0.0019496321	0.022058406	0.042770839	0.010825257	0.042344395	0.012315777	0.00020390152	0.10312414	0.040808608	3.0955285	5.0861769	4.9218297	4.777474	4.9171194	4.7816152	4.3242531	4.530793	4.930998	3.1475656	3.3745946	3.2850062	3.3754129	3.2902216	3.6779135	4.1748516	-137.85893	R0:S0:1	-97.52	uncorrelated	51514b8	2022-04-11@08:11
2x2_2C_8b_C2v_L	6.512505	0.1	14	1.93	2.1993074	-8.4984649	-9.5516131	-1.8198347	-9.5550895	-1.8070355	1.3503628	-8.577321	14.14	0.0013954643	-0.000733864	-0.020583952	0.11551386	-0.020558423	0.11532433	0.0073205948	0.0020701408	0.12057179	-0.77378629	1.1537216	0.075272877	-1.1537839	-0.075313344	-0.089989019	-1.3988527	1.25	0.649	0.161	-0.1694906	1.3184344	1.701401	-0.26895875	-0.035611364	0.015626015	-0.39301457	0.13801018	0.0022609734	1.9782794	1.9584028	1.9873773	1.9584243	1.987252	0.00029161118	1.8921102	1.1373983	-0.0033983505	-0.00019819064	-0.35334557	-0.27758807	-0.35308163	-0.27853934	-0.03919521	0.0002655136	-0.15526388	0.51212255	-0.73051551	-0.37945561	0.73038196	0.38140173	0.047248735	1.3707187	0.50478796	0.043613895	0.0022660926	0.021714195	0.041446134	0.012576019	0.041424533	0.012700451	0.00029262238	0.10408379	0.043669627	3.0433997	5.139251	4.9651482	4.8437589	4.9646976	4.8439428	4.358685	4.5125753	4.9868739	3.0962767	3.3191499	3.2275485	3.3194747	3.2281451	3.6440319	4.2011078	-138.55208	R0:S0:1	-97.68	uncorrelated	51514b8	2022-04-11@08:15
2x2_2C_8b_C2v_L	6.5180016	0.1	14	1.93	2.3162405	-8.5616549	-9.6543815	-1.8242077	-9.6579005	-1.8098786	1.2992428	-8.6197932	14.16	0.001900373	-0.00069804659	-0.02340168	0.11818822	-0.023984391	0.11778216	0.010425147	0.0027754258	0.12672512	-0.77750983	1.1583222	0.081629178	-1.1580672	-0.082464915	-0.09192766	-1.40216	1.25	0.649	0.161	-0.17593535	1.3185298	1.7059174	-0.26709263	-0.035676989	0.015642484	-0.4092606	0.14904847	0.002600736	1.978788	1.9599798	1.9852575	1.9600465	1.984997	0.00041379574	1.8912034	1.1484262	-0.0050092031	-0.0015552133	-0.36504877	-0.31013241	-0.36381389	-0.31183278	-0.0594023	0.0019600208	-0.16954451	0.50047932	-0.70794475	-0.40451005	0.70749475	0.40831776	0.047901984	1.3831121	0.48484719	0.046715431	0.0026059322	0.021217014	0.0399209	0.014669377	0.039854699	0.014927033	0.00041596161	0.10490847	0.046780557	2.9804369	5.2022859	5.0206485	4.9231066	5.0197287	4.9230682	4.4008333	4.4872377	5.0535905	3.0341394	3.2506623	3.1583248	3.2515237	3.160055	3.6026809	4.2334287	-139.28437	R0:S0:1	-97.84	uncorrelated	51514b8	2022-04-11@08:20
2x2_2C_8b_C2v_L	6.5245401	0.1	14	1.93	2.4209943	-8.6378165	-9.7802255	-1.7912261	-9.7839234	-1.7754259	1.2084245	-8.6962086	14.18	0.00066506727	-0.00032454998	-0.025247219	0.11862372	-0.027276283	0.11330199	0.0082007339	0.0024480971	0.13544631	-0.78374945	1.1642874	0.085075767	-1.1597195	-0.093174034	-0.091406965	-1.4077387	1.25	0.649	0.161	-0.18203207	1.3186378	1.7108526	-0.26500148	-0.035732322	0.01565899	-0.4245275	0.16105898	0.0031086078	1.9792651	1.961687	1.9833125	1.9620572	1.9821741	0.00035501951	1.8906869	1.1604353	-0.0018045428	-0.00061258674	-0.37496356	-0.34139277	-0.3723081	-0.34721254	-0.05048125	0.00092554132	-0.18884567	0.48873886	-0.68336146	-0.42312636	0.68030561	0.44026058	0.047188984	1.3937126	0.46444352	0.049816647	0.0031141799	0.020751695	0.038263932	0.016585359	0.03789537	0.017704014	0.00035695298	0.10537118	0.049889589	2.9136221	5.2711241	5.0839418	5.0071698	5.0804096	5.0082805	4.4475997	4.4558009	5.1260223	2.9667587	3.1745709	3.0830628	3.1752074	3.0887623	3.5555844	4.2700058	-140.05207	R0:S0:1	-98	uncorrelated	51514b8	2022-04-11@08:24
2x2_2C_8b_C2v_L	6.5327265	0.1	14	1.93	2.5122404	-8.7279614	-9.9305262	-1.7155524	-9.9341539	-1.698477	1.0711964	-8.807693	14.2	-0.0014520534	0.00079922495	-0.027934323	0.11954964	-0.030388199	0.11427039	0.00025823109	0.00018833174	0.1438571	-0.79054303	1.1718078	0.088691872	-1.1665467	-0.097854375	-0.095041919	-1.4175149	1.25	0.649	0.161	-0.18835007	1.3187676	1.7168782	-0.26248002	-0.035804129	0.015689505	-0.43992885	0.17626469	0.0037639519	1.9799439	1.9637537	1.9801762	1.964153	1.9786123	0.0002295136	1.8900785	1.1756298	0.0032997245	0.00063136325	-0.38375308	-0.38678163	-0.38142961	-0.39591025	-0.0013889257	-0.00089831448	-0.21222208	0.47277045	-0.65318069	-0.45052273	0.64978056	0.47154121	0.048534224	1.4069973	0.4408762	0.053259716	0.0037694547	0.020087129	0.036252213	0.01966872	0.035853362	0.021201657	0.00023014037	0.10591225	0.053345173	2.8266129	5.3601495	5.1655678	5.1117273	5.1617312	5.1133996	4.5083165	4.4144137	5.2197073	2.8783253	3.0780692	2.9925733	3.077993	2.9995355	3.494254	4.3168036	-140.85236	R0:S0:1	-98.16	uncorrelated	51514b8	2022-04-11@08:29
2x2_2C_8b_C2v_L	6.5427515	0.1	14	1.93	2.3521585	-8.9540782	-10.321067	-0.16448455	-10.321384	-0.1631497	-0.03954803	-8.7681592	14.22	0.0015844693	-0.0010114202	-0.0044853369	0.05737489	-0.0045599987	0.056998505	-0.00019097412	-6.087336e-05	0.15231947	-0.80822564	1.1852351	0.048957227	-1.1851501	-0.049387754	0.052895915	-1.3944212	1.25	0.649	0.161	-0.19301582	1.3189272	1.7345024	-0.2593161	-0.036641141	0.016239049	-0.38769126	0.2529782	0.0086454921	1.98475	1.9676099	1.8641674	1.9675791	1.8629301	1.8032208	1.8965642	1.2524607	-0.0019788579	0.0013348128	-0.33960746	-1.0345478	-0.33987945	-1.0372267	0.0030182651	-0.00043401451	-0.35398364	0.36195437	-0.59243531	-0.90831575	0.59298954	0.91587029	-1.7171803	1.3466317	0.4023396	0.057326391	0.0086107261	0.015311921	0.032322991	0.12708576	0.032351872	0.12815832	0.17564432	0.099333987	0.057419785	2.2230508	5.9468879	5.363281	5.4019562	5.3604835	5.4005796	4.9855492	4.3412199	5.8288373	2.2391958	2.8123468	3.2750364	2.8143217	3.2814468	3.9349911	4.1197938	-136.83189	R0:S0:1	-98.32	uncorrelated	51514b8	2022-04-11@08:39
2x2_2C_8b_C2v_L	6.5515971	0.1	14	1.93	1.8849226	-9.332526	-10.934873	2.8550447	-10.944723	2.7939615	-2.0967269	-8.6306173	14.24	0.00047713439	-2.3276944e-05	-0.066266169	0.16579924	-0.069838524	0.17612387	0.0025759951	0.00096842753	0.13489773	-0.8186837	1.2217621	-0.17669838	-1.2136526	0.16926088	0.16432823	-1.3554888	1.25	0.649	0.161	-0.19992886	1.319056	1.7301998	-0.25690634	-0.035942024	0.015775634	-0.46756098	0.21210916	0.0068057781	1.9825834	1.9710444	0.024410037	1.9715795	0.025980754	1.9768833	1.8925952	1.2114376	-0.00096794876	5.884139e-05	-0.36521446	-0.48390272	-0.36039018	-0.50220271	-0.0014757162	0.00017735156	-0.28530816	0.4214675	-0.56203701	0.48085548	0.55696666	-0.489542	-0.65013838	1.4049617	0.39732659	0.060528733	0.0068154028	0.017470672	0.029067545	0.024145045	0.028530205	0.025685441	0.022909112	0.10348419	0.060659814	2.6194021	5.5778755	5.3354563	2.8153792	5.3325398	2.8232735	3.595807	4.3117323	5.461168	2.6458918	2.8659903	5.298208	2.8648967	5.2990362	4.547304	4.3838687	-143.31512	R0:S0:1	-98.48	uncorrelated	51514b8	2022-04-11@08:43
2x2_2C_8b_C2v_L	6.576637	0.1	14	1.93	1.0743631	-9.8644169	-11.780403	7.3518187	-11.811409	7.1808162	-5.0953281	-8.3723832	14.26	0.00042205322	-0.00085363844	-0.18970333	0.40479559	-0.20244508	0.43194213	0.015564055	0.0057084649	0.11330057	-0.83656984	1.2742323	-0.40618317	-1.2543537	0.38877395	0.30238133	-1.3143785	1.25	0.649	0.161	-0.20827454	1.3193995	1.7444326	-0.25011846	-0.03591517	0.015874656	-0.48581205	0.24556498	0.014776027	1.985007	1.9788777	0.02521318	1.9800318	0.026911822	1.9846067	1.8889789	1.2444698	-0.00048741389	0.0014174045	-0.29021916	-0.4636115	-0.27562802	-0.48308562	-0.0052796445	-0.0023592326	-0.41226825	0.37362659	-0.45662627	0.57079811	0.44330872	-0.58059948	-0.53981422	1.4506006	0.35873184	0.065075107	0.01480779	0.015058917	0.021319438	0.024927092	0.020153148	0.026596571	0.015309352	0.10678642	0.065411326	2.4738953	5.7818306	5.5409115	2.6272407	5.5404134	2.6346883	3.3916464	4.2338076	5.6960655	2.4245718	2.6337368	5.4703703	2.6266413	5.4721001	4.7081325	4.4937342	-153.55032	R0:S0:1	-98.64	uncorrelated	51514b8	2022-04-11@08:50
2x2_2C_8b_C2v_L	6.6142853	0.1	14	1.93	-0.17551692	-10.541188	-12.855072	13.320648	-12.919207	12.991677	-9.0332525	-7.9672237	14.28	-0.068566292	9.4981825e-05	-0.39128718	0.78311407	-0.42259418	0.8341223	0.054231123	0.017328206	-0.00014928465	-0.84606315	1.3363454	-0.71857495	-1.300334	0.68716614	0.45586631	-1.2674793	1.25	0.649	0.161	-0.21186393	1.3198909	1.7633629	-0.24066449	-0.035716233	0.015958137	-0.46902624	0.29835361	1.9328976	1.9883651	1.9869527	0.028147333	1.9882452	0.029791382	1.9879892	1.8814913	1.2966581	0.8798209	0.00045815899	-0.12268767	-0.43821683	-0.091303497	-0.45616356	-0.014520564	-0.0057685385	0.0019616391	0.30446378	-0.31453694	0.6730814	0.29255947	-0.68197947	-0.48620881	1.528263	0.32789111	0.065164199	0.068984934	0.011690498	0.013229743	0.027819171	0.011911944	0.029444493	0.011960828	0.11354991	0.065808337	6.0693139	6.0840837	5.8923482	2.3461017	5.8927425	2.3552625	3.1763605	4.1477779	2.5475129	2.0747002	2.2685129	5.7523487	2.2582343	5.7530039	4.9011047	4.6141693	-167.12679	R0:S0:1	-98.8	uncorrelated	51514b8	2022-04-11@09:01
2x2_2C_8b_C2v_L	6.6341432	0.1	14	1.93	-1.8595047	-11.360714	-14.165934	20.764257	-14.274138	20.228882	-13.910338	-7.3881334	14.3	0.16440582	0.00012075792	-0.6443146	1.2819984	-0.70007799	1.3595577	0.13530035	0.035434972	3.3291614e-05	-0.92395296	1.3948776	-1.0521145	-1.3443085	1.0035997	0.59426951	-1.2178212	1.25	0.649	0.161	-0.22374395	1.320172	1.7758321	-0.23482978	-0.035776207	0.016021375	-0.48661066	0.33678712	1.9808228	1.9898536	1.9916855	0.029155943	1.9923478	0.030672514	1.9909461	1.8691259	1.3343671	-0.56337043	0.00053542971	0.044678503	-0.42185463	0.093775573	-0.43793936	-0.028861476	-0.011096609	-0.00082732241	0.26231171	-0.18731423	0.728077	0.15823318	-0.73673791	-0.42619944	1.6260746	0.30451846	0.066392135	0.019054108	0.01023058	0.0084651564	0.028842463	0.0077860907	0.030353706	0.0090265849	0.12474468	0.067412823	6.2486557	6.3785684	6.114737	2.1641545	6.1105554	2.1773703	3.0247958	4.1667998	1.8934115	1.790855	2.0306921	5.9294114	2.02553	5.9255388	5.0342949	4.6744158	-186.66411	R0:S0:1	-98.96	uncorrelated	51514b8	2022-04-11@09:07
2x2_2C_8b_C2v_L	6.6758974	0.1	14	1.93	-4.0193206	-12.325599	-15.714281	29.682455	-15.877022	28.892289	-19.726447	-6.6885679	14.32	0.29525984	0.03562251	-0.94580528	1.8948481	-1.0288642	1.9992275	0.15507295	0.038412972	0.042551359	-1.0180634	1.4590499	-1.3988931	-1.3981615	1.3310135	0.81074125	-1.136888	1.25	0.649	0.161	-0.22670462	1.3207058	1.7930471	-0.22451861	-0.035286428	0.015879486	-0.45912841	0.38357979	1.9812952	1.9916037	1.9909276	0.027580965	1.9901438	0.028740712	1.9913219	1.8567708	1.3804429	-0.61985059	-0.02747366	0.27382783	-0.37275297	0.33851269	-0.38477833	-0.025397935	-0.01593391	-0.027058774	0.21338885	-0.073973505	0.74109347	0.041231062	-0.74791988	-0.42311911	1.7237092	0.30196149	0.060891832	0.018549082	0.0084898178	0.0092952391	0.027360301	0.010090891	0.028533918	0.0086523959	0.13572688	0.06226931	6.5310246	6.6973396	6.3811189	1.9174564	6.3739286	1.9237157	2.8855957	4.1753156	1.566117	1.4574788	1.7729283	6.1740531	1.7710725	6.1754532	5.1701488	4.7271746	-210.21173	R0:S0:1	-99.12	uncorrelated	51514b8	2022-04-11@09:14
2x2_2C_8b_C2v_L	6.7253375	0.1	14	1.93	-6.6501852	-13.436356	-17.506645	40.077475	-17.738953	38.986097	-26.480322	-5.9048429	14.34	0.4272855	0.1027826	-1.2696525	2.5959717	-1.3609837	2.7052374	0.085097185	0.023704005	0.13242114	-1.0943645	1.5149026	-1.7187531	-1.4321112	1.6046062	1.2099501	-1.0039064	1.25	0.649	0.161	-0.22402367	1.3213216	1.8090286	-0.21293653	-0.034358296	0.015528151	-0.42199024	0.41751201	1.9824229	1.9931909	1.9854859	0.02445576	1.9834146	0.024637422	1.9890416	1.8533537	1.4137694	-0.63626767	-0.082781152	0.49255524	-0.32420476	0.56028072	-0.32897076	-0.010230783	-0.013218354	-0.040772353	0.1695562	0.0017991989	0.71347791	-0.032062304	-0.70723421	-0.48191354	1.7623327	0.31062792	0.053619753	0.0174407	0.0068971731	0.014876333	0.024340459	0.016947509	0.024555067	0.010915915	0.13863497	0.055248804	6.7686248	6.9410332	6.5345889	1.7222807	6.5192229	1.7164398	2.8006099	4.1255244	1.3018149	1.1911365	1.6324163	6.3675422	1.638	6.3790552	5.2686249	4.7861416	-237.7199	R0:S0:1	-99.28	uncorrelated	51514b8	2022-04-11@09:18
2x2_2C_8b_C2v_L	6.7863107	0.1	14	1.93	-9.7494242	-14.690005	-19.545246	51.950037	-19.860508	50.510388	-34.174082	-4.996565	14.36	0.59822412	0.21336165	-1.6119954	3.3734172	-1.6988893	3.4719915	-0.081454278	-0.026212538	0.28395549	-1.188155	1.5584473	-2.0006273	-1.4473056	1.820277	1.694151	-0.8442476	1.25	0.649	0.161	-0.21652772	1.3220721	1.8252371	-0.19912577	-0.032882506	0.014938797	-0.38216539	0.44119257	1.9816652	1.9936005	1.9773351	0.020812712	1.9750601	0.020392836	1.9868692	1.8525926	1.4368457	-0.67074396	-0.17162529	0.69071705	-0.27849602	0.74110037	-0.2846271	0.0058794013	0.020482723	-0.045952954	0.13925192	0.049515674	0.66414192	-0.072286758	-0.64321158	-0.53155047	1.7795752	0.32241211	0.046573784	0.018207652	0.0064910594	0.02309888	0.020780303	0.025306966	0.020391776	0.013069284	0.13918222	0.048411639	6.9347846	7.1109712	6.6142499	1.5520954	6.5594757	1.5768206	2.7455804	4.0751053	1.1280782	1.0042575	1.5621475	6.5343213	1.6102773	6.5171731	5.3367862	4.833465	-269.14079	R0:S0:1	-99.44	uncorrelated	51514b8	2022-04-11@09:23
2x2_2C_8b_C2v_L	6.8605084	0.1	14	1.93	-13.317155	-16.086722	-21.829871	65.300215	-22.241444	63.465289	-42.807686	-3.9624262	14.38	0.80792901	0.37072463	-1.9762168	4.2253718	-2.0499271	4.2944951	-0.34162108	-0.11521515	0.49339298	-1.2953483	1.5905781	-2.2437738	-1.4404797	1.9797701	2.2652219	-0.67010388	1.25	0.649	0.161	-0.20526912	1.322982	1.8425786	-0.18261233	-0.030812064	0.014100316	-0.34161902	0.45997359	1.9805023	1.9925899	1.967596	0.01719277	1.9668119	0.016761459	1.9849059	1.8483621	1.4549614	-0.70718053	-0.2907524	0.87240404	-0.23428292	0.88347633	-0.25279051	0.014979053	0.10480129	-0.041493069	0.11762041	0.076411047	0.60524182	-0.094220726	-0.57324758	-0.57097762	1.8098817	0.33454794	0.040396281	0.019386816	0.0075218686	0.032745648	0.017214834	0.033403228	0.016801443	0.015014711	0.14284896	0.042436275	7.0620284	7.2309875	6.6581067	1.3815221	6.5341245	1.4962201	2.7148893	4.0725264	0.99701226	0.87029535	1.5207336	6.6986509	1.6479834	6.5981009	5.3796105	4.8443265	-304.52196	R0:S0:1	-99.6	uncorrelated	51514b8	2022-04-11@09:28
2x2_2C_8b_C2v_L	6.9271682	0.1	14	1.93	-17.36029	-17.633207	-24.366047	80.128825	-24.871985	77.84608	-52.390797	-2.8596331	14.4	0.95176093	0.51786664	-2.3507385	5.1294367	-2.469202	5.2461761	0.042795285	0.010730733	0.72260339	-1.3453822	1.6082728	-2.4416491	-1.4410531	2.1370214	2.680846	-0.5166631	1.25	0.649	0.161	-0.19546855	1.3238063	1.8568612	-0.16785607	-0.028747601	0.013255131	-0.31397202	0.47331805	1.9825058	1.9919017	1.9600637	0.014716399	1.9567024	0.01391534	1.9858091	1.8287542	1.4677513	-0.67695864	-0.36462223	0.98584481	-0.21798634	1.0373707	-0.21979698	-0.0053176224	0.00042496588	-0.049992362	0.093526872	0.091152841	0.54855108	-0.11497149	-0.51752937	-0.55543939	1.9264863	0.3419859	0.037168669	0.01743401	0.0082109954	0.040064743	0.014757419	0.043204709	0.013976678	0.014117455	0.15949734	0.039387928	7.172364	7.3052122	6.5885	1.3574251	6.5344678	1.3630371	2.703131	4.2569965	0.87912896	0.77925536	1.6016895	6.7235715	1.6466886	6.7226078	5.3815004	4.7447277	-343.89699	R0:S0:1	-99.76	uncorrelated	51514b8	2022-04-11@09:36
2x2_2C_8b_C2v_L	6.8499582	0.1	14	1.93	-21.866695	-19.31562	-27.130217	96.424926	-27.741833	93.645039	-62.904361	-0.063167324	14.42	1.2011411	0.76481798	-2.8616405	6.282918	-3.0329383	6.4610904	-0.0010190951	-0.00050347516	1.0521297	-1.4607902	1.6649027	-2.7199884	-1.4688151	2.3513877	3.6548087	-0.10319477	1.25	0.649	0.161	-0.24813166	1.3229804	1.8554076	-0.18137919	-0.032185093	0.014860381	-0.42709315	0.62132161	1.9802455	1.9887419	1.9514116	0.015010054	1.9450845	0.014053495	1.9875744	1.0957639	1.6164197	-0.75334785	-0.53760896	1.135401	-0.21774383	1.2100942	-0.21617698	0.00066459419	0.014982883	-0.028586946	0.043777447	0.24160744	0.598468	-0.26709409	-0.56782684	-0.42920036	3.5614666	0.32696391	0.05538418	0.019700965	0.011402967	0.048554851	0.015050402	0.054480168	0.014118303	0.012341281	0.4380905	0.058096088	7.4253914	7.5337024	6.6311809	1.189845	6.5499385	1.1991934	4.3268675	9.1136565	0.58891254	0.49209685	1.434604	6.8416535	1.514487	6.8343206	3.6561649	1.695193	-384.76124	R0:S0:1	-99.92	uncorrelated	51514b8	2022-04-11@09:48
2x2_2C_8b_C2v_L	7.0738638	0.1	14	1.93	-26.861377	-21.163302	-30.226411	114.21395	-30.971356	110.89523	-74.42521	4.8351183	14.44	1.2886941	0.90005691	-3.1988187	7.1686071	-3.3354059	7.2721506	-0.33898576	-0.83901232	1.3041848	-1.4718336	1.6652308	-2.8193493	-1.4206912	2.3422923	2.4694679	0.069533487	1.25	0.649	0.161	-0.17019273	1.3256162	1.8842112	-0.13596954	-0.023546781	0.011045511	-0.25859553	0.48421575	1.9856764	1.9866527	1.9433518	0.010378245	1.9438995	0.010607443	1.9940387	0.16817176	1.4773335	-0.61946896	-0.56266264	1.2103392	-0.17024502	1.1938909	-0.20177298	-0.0025839042	1.9163494	-0.037296928	0.077864754	0.08556523	0.44329584	-0.13024986	-0.41778691	-0.36017737	-0.14878856	0.35277338	0.031237531	0.014337334	0.0134669	0.055983184	0.010433995	0.055341462	0.0106698	0.0059490549	0.15730295	0.033825061	7.317322	7.3469997	6.526663	1.1889687	6.3725247	1.3793597	2.583911	4.8102084	0.72614836	0.72009225	1.6699368	6.8830203	1.8404488	6.7094151	5.4532777	4.2044482	-434.29509	R0:S0:1	-100.08	uncorrelated	51514b8	2022-04-11@09:59
2x2_2C_8b_C2v_L	6.6384684	0.1	14	1.93	-32.318231	-23.142183	-33.565948	133.47026	-34.437507	129.5601	-86.934205	10.609239	14.46	1.6343547	1.2185758	-3.7010055	8.3501933	-3.9139651	8.5564464	-3.0396214	-1.8703365	1.7233033	-1.6561613	1.7263395	-3.0832276	-1.4432248	2.5206364	-0.15113549	-0.028293259	1.25	0.649	0.161	-0.31535943	1.3205139	1.8246853	-0.22515568	-0.03961396	0.018143152	-0.57678258	0.84568851	1.9813103	1.9801601	1.9450286	0.013985335	1.9369569	0.012652456	1.9906412	0.00050029981	1.8434367	-0.75835197	-0.77643736	1.2148701	-0.23760021	1.3006995	-0.22905174	0.54468623	0.0066432616	-0.01168008	0.010612056	0.39859491	0.59871073	-0.42853842	-0.56247008	-0.002343043	0.05307472	0.26615062	0.05006391	0.018702064	0.020006218	0.054779133	0.014017475	0.062261528	0.012708848	0.0093136496	0.00054070938	0.052172565	7.613104	7.6012455	6.4947926	1.2889099	6.4020464	1.2934222	7.8333895	0.061539927	0.38400023	0.39494293	1.5027639	6.7165905	1.5955094	6.7123573	0.16580118	7.947045	-490.26918	R0:S0:1	-100.24	uncorrelated	51514b8	2022-04-11@10:22
2x2_2C_8b_C2v_L	6.8021147	0.1	14	1.93	-38.273683	-25.309658	-37.180867	154.20126	-38.204588	149.65687	-100.58415	18.027392	14.48	1.7982516	1.3740502	-4.2600108	9.654361	-4.5405064	9.9526346	-5.1072395	-2.8266291	2.0011694	-1.7325821	1.845622	-3.412379	-1.5109241	2.7301752	-3.0043941	-0.97411612	1.25	0.649	0.161	-0.2900018	1.3225068	1.8577554	-0.18891414	-0.034693231	0.016100832	-0.49580689	0.86504258	1.9835185	1.9789327	1.9329156	0.011911709	1.9224531	0.010320968	1.9809563	0.025771964	1.862745	-0.71379888	-0.80330233	1.362188	-0.194751	1.4664825	-0.18195605	0.77018315	0.042329197	-0.013061097	0.0058104425	0.37372502	0.55781123	-0.39276999	-0.51077938	-0.0052313652	0.85169767	0.30983973	0.042245949	0.016505671	0.021200928	0.066220567	0.011958889	0.075729831	0.010386382	0.018924979	0.027581509	0.044371734	7.6498511	7.5974862	6.5307905	1.0713096	6.4221077	1.0496569	7.6004947	0.46731879	0.34694866	0.39683221	1.46213	6.9313888	1.5702728	6.9529463	0.3981805	7.5276792	-551.82771	R0:S0:1	-100.4	uncorrelated	51514b8	2022-04-11@10:29
