model	E_kin	D	U	e	eb1_1	eb2_1	eb3_1	eb4_1	eb5_1	eb6_1	eb7_1	eb8_1	mu	sb1_1	sb2_1	sb3_1	sb4_1	sb5_1	sb6_1	sb7_1	sb8_1	tb1_1	tb2_1	tb3_1	tb4_1	tb5_1	tb6_1	tb7_1	tb8_1	tpd	tpp	tppp	ave_D	ave_e	ave_mu	ave_tpd	ave_tpp	ave_tppp	ave_U_1	ave_eb1_1	ave_eb2_1	ave_eb3_1	ave_eb4_1	ave_eb5_1	ave_eb6_1	ave_eb7_1	ave_eb8_1	ave_mu_1	ave_sb1_1	ave_sb2_1	ave_sb3_1	ave_sb4_1	ave_sb5_1	ave_sb6_1	ave_sb7_1	ave_sb8_1	ave_tb1_1	ave_tb2_1	ave_tb3_1	ave_tb4_1	ave_tb5_1	ave_tb6_1	ave_tb7_1	ave_tb8_1	var_U_1	var_eb1_1	var_eb2_1	var_eb3_1	var_eb4_1	var_eb5_1	var_eb6_1	var_eb7_1	var_eb8_1	var_mu_1	var_sb1_1	var_sb2_1	var_sb3_1	var_sb4_1	var_sb5_1	var_sb6_1	var_sb7_1	var_sb8_1	var_tb1_1	var_tb2_1	var_tb3_1	var_tb4_1	var_tb5_1	var_tb6_1	var_tb7_1	var_tb8_1	E0_1	sector_1	E0_2	sector_2	githash	time
2x2_2C_8b_C2v_L	7.9548872	0	14	3.1695	0.0018966178	-3.1022638	-3.6869349	-0.10868969	-3.686944	-0.10869079	0.14780046	-3.2464716	9.8	-3.6500554e-05	-6.7538764e-06	0.0094399223	-0.17253352	0.0094394611	-0.17253362	3.636482e-06	8.7254376e-06	-0.1122816	-1.0480638	1.635789	0.042537516	-1.6357909	-0.04253608	0.24121687	-2.1549857	1.9492	1	0.2373	0.013237844	1.2557043	1.6180274	-0.59066599	-0.19598988	0.080026616	0.13396957	0.26527077	1.939942	1.8043204	1.5585986	1.8043206	1.5586046	0.018908099	1.5490036	1.1083674	0.00036189824	1.9737224e-05	0.10474189	1.1605814	0.10474469	1.1605835	-2.8421842e-05	-1.9074363e-05	1.1621379	0.73820986	-1.5518738	-0.55982036	1.5518723	0.55981661	-0.30335527	2.5243198	0.028977622	0.23770042	0.058424882	0.17898816	0.36581447	0.17898807	0.36581035	0.019049089	0.34936546	0.036155089	4.1301943	5.3685751	5.1519625	5.0536036	5.151964	5.0535964	4.2913274	6.1950073	5.2796115	2.7529111	3.3540319	5.1581494	3.3540299	5.1581423	3.7650163	3.1859676	-72.573495	R0:S0:1	-53.044	uncorrelated	51514b8	2022-04-18@10:05
2x2_2C_8b_C2v_L	7.8764851	0	14	3.1476138	0.002314122	-3.1060138	-3.6961032	-0.10788023	-3.6961078	-0.10787713	0.1474798	-3.2636318	9.8	-3.7344851e-05	-4.4947236e-06	0.0092507871	-0.17209732	0.0092504331	-0.17209609	9.2897422e-07	-3.3356794e-06	-0.11221975	-1.048927	1.6380229	0.041857078	-1.6380238	-0.041853377	0.2408357	-2.1597008	1.9534034	1	0.2362069	0.013200929	1.2560694	1.6183771	-0.5897258	-0.19497744	0.079691351	0.13401414	0.25933858	1.9403599	1.8049627	1.5642735	1.8049626	1.5642683	0.018694482	1.5516078	1.1085925	0.00036529075	7.2419456e-06	0.10381287	1.1538734	0.10381138	1.1538753	-5.8255253e-07	4.5401533e-06	1.1547259	0.73542891	-1.5500832	-0.55356758	1.5500851	0.55355324	-0.30224931	2.5199512	0.028985998	0.23316512	0.058046391	0.17851556	0.36350015	0.17851562	0.36350586	0.018832552	0.34813596	0.036104835	4.0991063	5.3750052	5.154874	5.0462308	5.154872	5.0462251	4.2930729	6.1844851	5.2793853	2.7507008	3.3590312	5.1411108	3.3590336	5.1411231	3.7633822	3.1908382	-72.655358	R0:S0:1	-53.21909	uncorrelated	51514b8	2022-04-18@10:13
2x2_2C_8b_C2v_L	7.7921279	0	14	3.1257276	0.0017636911	-3.1105047	-3.7063306	-0.10704589	-3.7063369	-0.1070469	0.146657	-3.277763	9.8	-4.2077658e-05	-4.6076493e-07	0.0093905719	-0.17137699	0.0093894924	-0.17137639	3.4683352e-07	-1.5511038e-07	-0.11218981	-1.0501218	1.6406771	0.042755977	-1.6406773	-0.04275501	0.2399929	-2.1637597	1.9576069	1	0.23511379	0.01331433	1.2562605	1.6185992	-0.5892699	-0.19449465	0.079541133	0.13404286	0.25940921	1.9403679	1.8052207	1.5621641	1.8052207	1.5621698	0.018651028	1.5523192	1.1086193	0.00041670938	-1.1300138e-06	0.10365713	1.1540979	0.10365987	1.1540865	-1.0396562e-07	8.0600804e-07	1.1548832	0.73546733	-1.5493805	-0.55826473	1.5493823	0.55826289	-0.30150867	2.519347	0.028990902	0.23296453	0.058035491	0.17828497	0.36425411	0.17828505	0.3642513	0.01878523	0.34778839	0.036107622	4.1000818	5.374952	5.1530737	5.0514804	5.1530739	5.0514774	4.2939135	6.1814426	5.2804249	2.7498607	3.3572187	5.144699	3.357226	5.1446853	3.7620536	3.1911569	-72.738837	R0:S0:1	-53.394179	uncorrelated	51514b8	2022-04-18@10:21
2x2_2C_8b_C2v_L	7.7117699	0	14	3.1038414	0.0015386278	-3.1184104	-3.7212911	-0.10685112	-3.7212947	-0.1068516	0.14646756	-3.2930193	9.8	-4.5097389e-05	-5.6910577e-07	0.0094800275	-0.1709932	0.0094796831	-0.17099313	1.8899512e-06	6.1649171e-06	-0.1121312	-1.0518737	1.644361	0.043369743	-1.6443623	-0.043371164	0.23942816	-2.168154	1.9618103	1	0.23402069	0.013385002	1.2565609	1.618955	-0.58844994	-0.19370107	0.079277257	0.13409676	0.25557136	1.9406457	1.8057655	1.5662597	1.8057646	1.5662687	0.018431594	1.5540623	1.1087695	0.00044694151	3.4822182e-06	0.10328473	1.1491231	0.1032878	1.1491046	-1.4059331e-05	-1.0271482e-05	1.1507149	0.73371417	-1.5480733	-0.55901222	1.548079	0.5590213	-0.30028541	2.5166247	0.029000786	0.23002565	0.057783106	0.17787079	0.36191181	0.17787165	0.36190666	0.01856176	0.3469609	0.036085196	4.0799006	5.3794334	5.1543555	5.0490029	5.1543585	5.0490013	4.2950923	6.1743522	5.2795908	2.7480326	3.3601188	5.1325866	3.3601281	5.1325608	3.7606954	3.1940439	-72.854655	R0:S0:1	-53.569269	uncorrelated	51514b8	2022-04-18@10:30
2x2_2C_8b_C2v_L	7.6286201	0	14	3.0819552	0.0010905159	-3.1261904	-3.7338044	-0.10629675	-3.7338072	-0.10629542	0.14585141	-3.307893	9.8	-4.03822e-05	-2.000203e-06	0.0096453121	-0.17039523	0.0096460134	-0.1703943	-7.1512985e-06	-4.6228204e-06	-0.11209519	-1.0535904	1.6475118	0.044328645	-1.6475119	-0.044329254	0.23865949	-2.1724576	1.9660138	1	0.23292759	0.013492356	1.2567836	1.6192246	-0.58787504	-0.19312984	0.079092861	0.13413561	0.25426986	1.9407585	1.8061181	1.5662152	1.8061174	1.5662109	0.018316069	1.5550928	1.1088348	0.00040432499	-6.3817003e-07	0.10306693	1.1475766	0.10306351	1.1475611	4.766163e-05	1.2768756e-05	1.1494942	0.73312625	-1.547192	-0.56313799	1.547199	0.56314285	-0.29932025	2.5153681	0.029007655	0.22884116	0.057677744	0.17757897	0.36156155	0.17757954	0.36156639	0.01844216	0.346463	0.036081194	4.0736785	5.3809283	5.1535171	5.0520208	5.1535147	5.0520244	4.2960186	6.1700342	5.2799045	2.7468429	3.3598259	5.1309331	3.3598378	5.1309346	3.7593426	3.195134	-72.957689	R0:S0:1	-53.744359	uncorrelated	51514b8	2022-04-18@10:38
2x2_2C_8b_C2v_L	7.5472868	0	14	3.060069	0.00068536919	-3.1360976	-3.74853	-0.10600881	-3.7485332	-0.10601064	0.14540588	-3.3228291	9.8	-3.8319454e-05	-2.0367744e-05	0.0097432796	-0.16996429	0.009743908	-0.16996494	-1.1775695e-05	1.4439842e-05	-0.11205947	-1.055612	1.6511294	0.044997048	-1.6511297	-0.044999753	0.23795076	-2.1767497	1.9702172	1	0.23183448	0.013563729	1.2570557	1.6195494	-0.5871335	-0.19241628	0.078857956	0.1341793	0.25171569	1.9409757	1.8066273	1.5688405	1.8066273	1.568836	0.01813823	1.5565697	1.1089527	0.00038571452	5.2266006e-05	0.10274235	1.1438606	0.10273861	1.1438661	5.4271342e-05	-2.4577968e-05	1.1465582	0.73189114	-1.5459182	-0.56466354	1.5459171	0.56467736	-0.2981581	2.5131109	0.029015536	0.22687649	0.057479074	0.17718079	0.35990746	0.17718073	0.35990856	0.018260702	0.34575346	0.036063773	4.0599697	5.38404	5.1539458	5.0514846	5.1539453	5.0514873	4.2969656	6.1640141	5.2796039	2.7454568	3.3615375	5.1227892	3.3615336	5.1228038	3.7580963	3.1974603	-73.075528	R0:S0:1	-53.919448	uncorrelated	51514b8	2022-04-18@10:47
2x2_2C_8b_C2v_L	7.4653414	0	14	3.0381828	0.00021619194	-3.1438138	-3.7622857	-0.10584606	-3.7622803	-0.10584645	0.14494107	-3.3381348	9.8	-2.9466514e-05	-3.5345363e-05	0.0098865565	-0.16954913	0.0098863911	-0.16954882	-4.4244263e-06	-5.5642124e-06	-0.1120096	-1.0573147	1.6545811	0.045864262	-1.6545806	-0.045868919	0.23727066	-2.1812008	1.9744207	1	0.23074138	0.01365194	1.2573114	1.6198606	-0.58644569	-0.1917491	0.078637878	0.13423096	0.24923675	1.9411694	1.8070537	1.5714186	1.8070525	1.5714057	0.017966518	1.5579279	1.1090627	0.00029931409	7.9405842e-05	0.10254662	1.1402923	0.10253439	1.1402923	2.066759e-05	-7.1820232e-06	1.1439349	0.73068082	-1.5448992	-0.56722014	1.5449038	0.56724698	-0.29700864	2.5112103	0.029024846	0.22495742	0.057302107	0.17684934	0.35816727	0.17685019	0.35817545	0.018085749	0.34509793	0.036052293	4.0465359	5.387229	5.1544701	5.0512385	5.1544696	5.0512527	4.2980984	6.158413	5.2791565	2.7438732	3.3630921	5.1147623	3.3630887	5.1147871	3.7566892	3.199386	-73.186486	R0:S0:1	-54.094538	uncorrelated	51514b8	2022-04-18@10:55
2x2_2C_8b_C2v_L	7.3808778	0	14	3.0162966	-0.000544213	-3.1531562	-3.775511	-0.10516138	-3.7755126	-0.10516148	0.14429239	-3.3511017	9.8	-3.2335075e-05	-8.2292039e-06	0.010085036	-0.16865264	0.01008572	-0.16865556	1.279794e-06	2.1018341e-06	-0.1118977	-1.059414	1.6580452	0.047162167	-1.6580455	-0.047162246	0.23618926	-2.185174	1.9786241	1	0.22964828	0.013775727	1.257493	1.6201163	-0.58595901	-0.19131364	0.078498202	0.13427039	0.2491742	1.9411949	1.8072842	1.5698042	1.8072866	1.5697932	0.017863538	1.5584015	1.1090887	0.00033515818	2.2625627e-05	0.10253162	1.1397452	0.10252685	1.1397938	-1.2619218e-05	-9.0661278e-06	1.1441659	0.73074376	-1.5444073	-0.57385098	1.5443908	0.57384047	-0.29587848	2.510982	0.02903168	0.22469092	0.057275018	0.17664042	0.35838091	0.17663826	0.35838433	0.01797857	0.34486105	0.036060898	4.0470453	5.3873234	5.1526452	5.0575561	5.1526417	5.0575529	4.2985851	6.1563371	5.279831	2.7429918	3.3612529	5.1175966	3.3612253	5.1176412	3.7555505	3.1992865	-73.291851	R0:S0:1	-54.269628	uncorrelated	51514b8	2022-04-18@11:08
2x2_2C_8b_C2v_L	7.3005648	0	14	2.9944103	-0.00040453451	-3.159793	-3.7863404	-0.10471279	-3.7863449	-0.10471227	0.14418094	-3.3677219	9.8	-3.5710049e-05	2.4064221e-07	0.010029376	-0.16839289	0.010029659	-0.16839304	1.8725893e-06	5.1565092e-06	-0.11190724	-1.0607757	1.6606251	0.047037012	-1.6606257	-0.047037174	0.23601772	-2.1896947	1.9828276	1	0.22855517	0.013774979	1.2578005	1.6204217	-0.58515606	-0.19046305	0.078219104	0.1343084	0.24518089	1.9414962	1.8078683	1.5739254	1.8078687	1.5739264	0.017719264	1.560491	1.1092588	0.00036705946	3.2691237e-06	0.10187084	1.1347906	0.10187154	1.1347967	-1.5263971e-05	-9.3830036e-06	1.1389956	0.72883484	-1.5427689	-0.57068998	1.5427659	0.57068988	-0.29519599	2.5074778	0.029038637	0.22159585	0.057001493	0.17619842	0.35643559	0.17619809	0.35643409	0.017832177	0.34384606	0.036024429	4.0254941	5.3919281	5.1544325	5.052876	5.1544327	5.0528755	4.3000478	6.1477949	5.279687	2.7413848	3.3646998	5.1050218	3.3646952	5.1050226	3.7541702	3.2030926	-73.387902	R0:S0:1	-54.444717	uncorrelated	51514b8	2022-04-18@11:16
2x2_2C_8b_C2v_L	7.2166199	0	14	2.9725241	-0.00099967584	-3.1675123	-3.7991328	-0.10419504	-3.7991358	-0.10419427	0.14353879	-3.3819971	9.8	-4.6006372e-05	3.2201341e-05	0.010180372	-0.16779777	0.010180149	-0.16779784	3.4600469e-06	5.6212569e-06	-0.11189449	-1.0624628	1.6638478	0.047986393	-1.6638487	-0.047984826	0.23522013	-2.1938434	1.987031	1	0.22746207	0.013869259	1.2580002	1.6206663	-0.58463989	-0.18995299	0.078055403	0.13434403	0.24459119	1.9415676	1.8081893	1.5734562	1.8081894	1.5734692	0.017626191	1.5613264	1.1093082	0.0004790816	-7.0952657e-05	0.10170503	1.1336613	0.10171576	1.1336491	-1.6980165e-05	5.4373479e-06	1.138456	0.72851492	-1.5419602	-0.57495178	1.5419612	0.5749406	-0.29428832	2.5065351	0.029044828	0.22101748	0.056933712	0.17592787	0.35626651	0.17592792	0.35625843	0.01773599	0.34343236	0.036023765	4.0224536	5.3928216	5.1533637	5.056556	5.1533658	5.0565488	4.3008487	6.14423	5.280128	2.7404015	3.3639899	5.1048151	3.363998	5.1047827	3.7529261	3.2038409	-73.490982	R0:S0:1	-54.619807	uncorrelated	51514b8	2022-04-18@11:25
2x2_2C_8b_C2v_L	7.1342863	0	14	2.9506379	-0.0013645289	-3.1744413	-3.8107001	-0.10382891	-3.8106934	-0.1038252	0.14316451	-3.3968456	9.8	-2.9172503e-05	9.6277156e-06	0.010241165	-0.16728413	0.010240381	-0.16728366	5.8992929e-06	9.4135431e-06	-0.11183506	-1.0640471	1.6668217	0.048567304	-1.666821	-0.048560035	0.23455834	-2.1981305	1.9912345	1	0.22636897	0.013924485	1.2582466	1.6209502	-0.5839862	-0.18930215	0.077841449	0.13439081	0.24223333	1.9417463	1.8085729	1.5757529	1.808574	1.5757508	0.017478102	1.562651	1.1094204	0.00030663771	-1.5012693e-05	0.10146497	1.1301455	0.10147104	1.1301772	-3.9881285e-05	-1.3729116e-05	1.135659	0.72739943	-1.5409903	-0.57625931	1.5409804	0.57622545	-0.29323483	2.5046161	0.029053218	0.21915511	0.056770363	0.17562986	0.35480944	0.17562892	0.35481048	0.01758538	0.34278115	0.036009354	4.0096373	5.3957926	5.1539873	5.0561194	5.1539886	5.0561056	4.3019443	6.1387491	5.2800356	2.7389537	3.3654553	5.09749	3.3654387	5.0975076	3.7515935	3.2058349	-73.588674	R0:S0:1	-54.794897	uncorrelated	51514b8	2022-04-18@11:33
2x2_2C_8b_C2v_L	7.0517585	0	14	2.9287517	-0.0017984688	-3.1825178	-3.8250138	-0.10346104	-3.8250097	-0.10345849	0.14269632	-3.4117739	9.8	-8.4606466e-06	2.9631981e-06	0.010352636	-0.16681253	0.010351678	-0.16681211	1.0776493e-05	4.6446372e-06	-0.1118003	-1.0657749	1.6703386	0.049273277	-1.6703384	-0.049267652	0.23390167	-2.2024252	1.9954379	1	0.22527586	0.013988336	1.2584853	1.6212338	-0.58334029	-0.18867494	0.077636259	0.13443183	0.24037323	1.9419066	1.8090164	1.5773033	1.8090171	1.5773035	0.017345182	1.5638947	1.1095169	9.0445022e-05	-1.1925882e-06	0.10114358	1.1272983	0.10114776	1.127324	-6.6947039e-05	-1.3299932e-05	1.1333597	0.72646894	-1.5398662	-0.57834499	1.5398579	0.5783203	-0.29226552	2.5028025	0.029060478	0.21766225	0.05662301	0.17527587	0.35369052	0.17527518	0.35368998	0.01744971	0.34216711	0.035996834	3.999444	5.3981913	5.1539591	5.0568086	5.1539612	5.0567984	4.3028851	6.1335725	5.2802008	2.7376666	3.3663894	5.0921362	3.3663741	5.0921466	3.7503558	3.2076375	-73.700777	R0:S0:1	-54.969986	uncorrelated	51514b8	2022-04-18@11:42
2x2_2C_8b_C2v_L	6.9692265	0	14	2.9068655	-0.0022564371	-3.1918667	-3.8394484	-0.10322994	-3.8394402	-0.10322882	0.142189	-3.4256725	9.8	1.8192567e-05	4.1086103e-07	0.010454395	-0.16635601	0.010453169	-0.16635555	1.7902918e-06	-1.3692732e-06	-0.11175861	-1.0677508	1.6739133	0.050028521	-1.6739127	-0.050022482	0.23314795	-2.2064472	1.9996414	1	0.22418276	0.014053006	1.2587234	1.6215203	-0.58269056	-0.18805059	0.077431011	0.13447441	0.23840724	1.9420736	1.8094454	1.5793588	1.8094456	1.5793562	0.0171881	1.5650846	1.1096161	-0.00019495424	-2.7131118e-06	0.10093644	1.1240787	0.10093916	1.1240921	-7.799838e-06	2.0662121e-06	1.1310477	0.72552932	-1.538807	-0.58051198	1.538805	0.5804867	-0.29113623	2.5010251	0.029068068	0.21611451	0.056469773	0.17493682	0.3522366	0.17493667	0.35223955	0.017290008	0.34157873	0.035984684	3.9886828	5.400733	5.1541642	5.05709	5.1541647	5.0570784	4.3036858	6.1286605	5.2800773	2.7364161	3.3675731	5.0856947	3.3675689	5.0857076	3.7492323	3.2094515	-73.814353	R0:S0:1	-55.145076	uncorrelated	51514b8	2022-04-18@11:50
2x2_2C_8b_C2v_L	6.8859595	0	14	2.8849793	-0.0026661686	-3.1994589	-3.8508716	-0.1027417	-3.8508733	-0.10274206	0.14182514	-3.4411997	9.8	1.4055335e-05	-1.8412544e-07	0.010536199	-0.16577956	0.010535717	-0.1657793	-9.0793093e-07	-2.9489472e-06	-0.11173889	-1.0694602	1.6768434	0.050718553	-1.6768438	-0.050718115	0.23254102	-2.2109519	2.0038448	1	0.22308966	0.014115729	1.2589425	1.6217789	-0.58211022	-0.18747695	0.077244084	0.13451757	0.23685222	1.942198	1.8097847	1.5803091	1.8097844	1.5803103	0.017082299	1.5662085	1.1097018	-0.00015244161	-2.6297381e-06	0.10072209	1.1216364	0.1007225	1.121628	8.8940886e-06	5.825364e-06	1.1292544	0.72480639	-1.5379143	-0.58289588	1.5379178	0.58289512	-0.29028367	2.4995344	0.029075668	0.21480623	0.056355047	0.17466373	0.35144476	0.17466406	0.35144494	0.017181866	0.34101742	0.035976369	3.9803273	5.4027743	5.1540958	5.0584924	5.1540954	5.0584908	4.3047714	6.1239132	5.280308	2.7351726	3.3680153	5.0817276	3.3680216	5.081723	3.7478703	3.2108896	-73.914148	R0:S0:1	-55.320166	uncorrelated	51514b8	2022-04-18@11:59
2x2_2C_8b_C2v_L	6.8038961	0	14	2.8630931	-0.0030860213	-3.2083841	-3.8659192	-0.10260614	-3.8659211	-0.10260722	0.14164158	-3.4566941	9.8	6.9554622e-06	3.027613e-06	0.010683839	-0.16540345	0.010681181	-0.16540506	-4.4675578e-06	-7.4879051e-06	-0.11170143	-1.0713377	1.6805277	0.051430882	-1.6805294	-0.051426198	0.23202912	-2.2154487	2.0080483	1	0.22199655	0.014166432	1.2591929	1.6220818	-0.58141377	-0.18681367	0.077025551	0.13456621	0.23445561	1.9423944	1.8102588	1.58307	1.8102598	1.5830634	0.016930438	1.5675896	1.1098197	-7.7194746e-05	-1.3483555e-05	0.10033196	1.1178146	0.10033401	1.1178356	3.3461877e-05	1.6430966e-05	1.1263001	0.72361173	-1.5367304	-0.58436929	1.5367264	0.58434338	-0.28931515	2.4974507	0.029084322	0.21294471	0.056175624	0.17429352	0.34964187	0.17429268	0.34964672	0.017027822	0.34033043	0.035960918	3.9668876	5.4059642	5.1547187	5.0576467	5.1547152	5.0576347	4.3058446	6.1181872	5.2801784	2.7337011	3.3697902	5.0734299	3.3697854	5.0734572	3.7465986	3.2130469	-74.033603	R0:S0:1	-55.495255	uncorrelated	51514b8	2022-04-18@12:07
2x2_2C_8b_C2v_L	6.7199416	0	14	2.8412069	-0.0036280112	-3.2166998	-3.8777825	-0.10217432	-3.8777829	-0.10217713	0.14088607	-3.470059	9.8	-3.5172708e-06	-4.2569302e-06	0.010762499	-0.16481774	0.010762725	-0.16481605	1.645061e-06	8.1327673e-06	-0.11167405	-1.0731225	1.6835567	0.052221619	-1.6835574	-0.052222862	0.23114288	-2.2193006	2.0122517	1	0.22090345	0.014236481	1.2593926	1.6223191	-0.58089	-0.18629579	0.076858177	0.13460166	0.23348157	1.9424918	1.8105634	1.5835027	1.8105615	1.5835142	0.016814191	1.5684585	1.1098836	3.9722249e-05	1.4118774e-05	0.10025381	1.1158886	0.10025718	1.1158581	-1.7676137e-05	-1.6562944e-05	1.1252055	0.72312712	-1.5359559	-0.58752683	1.5359658	0.58754297	-0.28824676	2.4963194	0.029090531	0.2121125	0.05608481	0.17404344	0.34904244	0.17404511	0.34903548	0.016909284	0.33989196	0.035956043	3.961591	5.4073201	5.1542529	5.0600001	5.1542578	5.0600027	4.3065583	6.1145026	5.2804164	2.7327121	3.3697446	5.0710944	3.3697575	5.0710594	3.7454712	3.2141106	-74.131969	R0:S0:1	-55.670345	uncorrelated	51514b8	2022-04-18@12:16
2x2_2C_8b_C2v_L	6.6369683	0	14	2.8193207	-0.003938051	-3.223839	-3.8891408	-0.1017485	-3.8891368	-0.10174966	0.14051171	-3.4848638	9.8	-2.4836037e-05	-6.3223669e-07	0.0108324	-0.16428978	0.010831804	-0.16429059	-1.3170503e-06	-1.0840469e-07	-0.11162262	-1.0747859	1.6864544	0.052736323	-1.6864546	-0.052739528	0.23052873	-2.2235668	2.0164552	1	0.21981034	0.014273388	1.2596207	1.6225774	-0.58028268	-0.18568845	0.076659231	0.13464473	0.23147515	1.9426411	1.8109309	1.5852734	1.8109306	1.5852716	0.016692349	1.5696793	1.1099878	0.00027760554	3.6648367e-06	0.099920297	1.112747	0.09991932	1.1127481	3.6469912e-06	-1.8183672e-06	1.122637	0.72222072	-1.5349886	-0.58864913	1.534989	0.58866199	-0.28732931	2.4945302	0.02909815	0.21047481	0.055948131	0.17375374	0.34787987	0.17375398	0.34787985	0.016785459	0.33927715	0.035942225	3.9506297	5.4098783	5.15467	5.0600072	5.1546709	5.0600147	4.3075851	6.1093974	5.2806231	2.7314194	3.370866	5.0651903	3.3708626	5.0651918	3.7442218	3.2159561	-74.22885	R0:S0:1	-55.845434	uncorrelated	51514b8	2022-04-18@12:24
2x2_2C_8b_C2v_L	6.5544616	0	14	2.7974345	-0.0044310968	-3.2328718	-3.9045966	-0.10149221	-3.90459	-0.1014914	0.14021431	-3.500876	9.8	2.8009276e-08	-4.8283563e-06	0.010920085	-0.16387095	0.010920267	-0.16387112	1.0497103e-06	2.3860815e-06	-0.11163007	-1.0766182	1.6902173	0.05339569	-1.6902158	-0.053396517	0.23000352	-2.228194	2.0206586	1	0.21871724	0.01432313	1.2598577	1.6228662	-0.5796172	-0.18506205	0.076453148	0.13468897	0.22964114	1.9428106	1.8114036	1.5873225	1.8114038	1.5873205	0.016566929	1.5709787	1.1100937	8.2764581e-07	1.3342828e-05	0.099622087	1.109485	0.099620645	1.1094928	-9.4701541e-06	-7.0344181e-06	1.1202675	0.72121596	-1.5337665	-0.59015047	1.5337635	0.59015322	-0.28644868	2.4926035	0.029105913	0.20904124	0.055792411	0.17337898	0.34647211	0.17337878	0.3464727	0.01665815	0.33862237	0.035928111	3.9400065	5.4124877	5.1549081	5.0599736	5.1549091	5.0599759	4.3086425	6.1039574	5.2807582	2.7300843	3.3721376	5.0586817	3.3721312	5.0586869	3.7429344	3.2179163	-74.350916	R0:S0:1	-56.020524	uncorrelated	51514b8	2022-04-18@12:33
2x2_2C_8b_C2v_L	6.4699515	0	14	2.7755483	-0.0049761913	-3.2378622	-3.912845	-0.10092055	-3.9128459	-0.1009203	0.13967802	-3.5149883	9.8	-9.5066427e-07	-7.2755996e-06	0.010984468	-0.16316386	0.010984392	-0.16316366	2.3199664e-06	-4.2069349e-07	-0.11156051	-1.0779313	1.692519	0.054079403	-1.6925197	-0.054080314	0.22922259	-2.2323094	2.0248621	1	0.21762414	0.014378056	1.260044	1.6230816	-0.57914427	-0.18457938	0.076298265	0.13472986	0.22874755	1.9428769	1.8116038	1.587545	1.8116034	1.5875439	0.016482344	1.5717978	1.1101585	1.2211978e-05	1.7601791e-05	0.099524096	1.1075759	0.099522198	1.1075747	-1.5740971e-05	-5.1029134e-06	1.1191592	0.72079779	-1.5332293	-0.59300104	1.5332309	0.59300745	-0.28554408	2.4916855	0.029113055	0.20825724	0.055730438	0.17321331	0.34603352	0.17321365	0.34603428	0.016571861	0.3382019	0.035925171	3.9349497	5.4138461	5.154685	5.0624385	5.1546856	5.0624415	4.3096289	6.1003994	5.2812023	2.728981	3.3719055	5.0568185	3.3719045	5.0568195	3.741621	3.218767	-74.428197	R0:S0:1	-56.195614	uncorrelated	51514b8	2022-04-18@12:41
2x2_2C_8b_C2v_L	6.3871402	0	14	2.7536621	-0.0052871293	-3.2462125	-3.9268319	-0.10060201	-3.9268349	-0.10060087	0.13925835	-3.5295188	9.8	-2.6700081e-08	1.9339096e-06	0.01100881	-0.16277588	0.011010606	-0.16277621	-9.494437e-07	-1.4403146e-06	-0.11153295	-1.0797584	1.6959551	0.054519494	-1.6959562	-0.05451995	0.22865616	-2.2364416	2.0290655	1	0.21653103	0.014410888	1.2602748	1.6233441	-0.57851371	-0.18395904	0.07609521	0.13476948	0.22680197	1.9430365	1.8120425	1.5895534	1.8120425	1.5895504	0.01636011	1.5730575	1.1102653	-1.3950274e-07	-5.0560464e-06	0.099232119	1.1044414	0.099229373	1.1044428	7.6990765e-06	4.4107835e-06	1.1164528	0.71986843	-1.5320865	-0.59352952	1.5320874	0.59353004	-0.28467348	2.4896992	0.029120034	0.20670725	0.055584487	0.17286706	0.3447676	0.17286702	0.34477005	0.01644788	0.33756302	0.03590902	3.9239385	5.4164334	5.1550767	5.0618203	5.1550751	5.0618212	4.3105156	6.0951553	5.2814889	2.7277805	3.373274	5.0504312	3.3732744	5.0504373	3.7405295	3.2208361	-74.53863	R0:S0:1	-56.370703	uncorrelated	51514b8	2022-04-18@12:50
2x2_2C_8b_C2v_L	6.303667	0	14	2.7317759	-0.0058430839	-3.2549907	-3.9411408	-0.10047568	-3.9411376	-0.10047622	0.13861679	-3.5422035	9.8	6.1963405e-06	1.7136115e-06	0.011114984	-0.16237636	0.011114011	-0.16237642	6.0971821e-06	-1.6481822e-06	-0.11153027	-1.0815589	1.6995325	0.055187163	-1.6995318	-0.055184017	0.227841	-2.240115	2.033269	1	0.21543793	0.014456672	1.2604865	1.6235969	-0.57793577	-0.18340005	0.07591313	0.13481011	0.2253804	1.9431752	1.8124152	1.5914274	1.8124157	1.5914306	0.016216101	1.5740329	1.1103522	-7.2354803e-05	-4.5100059e-06	0.099024377	1.1015381	0.099027353	1.1015473	-3.3577307e-05	-2.8841841e-07	1.1147119	0.71907803	-1.531185	-0.59529484	1.5311808	0.5952808	-0.28352405	2.4882566	0.029127206	0.20562319	0.055456714	0.1725719	0.34340556	0.17257145	0.3434033	0.016302311	0.33706624	0.035899747	3.9155441	5.4185685	5.1553194	5.0619869	5.1553208	5.0619801	4.3111904	6.0910963	5.2814248	2.7266508	3.3742887	5.0448225	3.3742838	5.0448215	3.7395205	3.2223464	-74.648283	R0:S0:1	-56.545793	uncorrelated	51514b8	2022-04-18@12:58
2x2_2C_8b_C2v_L	6.22053	0	14	2.7098897	-0.0063267494	-3.2637603	-3.9541835	-0.10023292	-3.9541761	-0.10023239	0.13849134	-3.5584032	9.8	1.2268358e-05	-4.4576811e-07	0.011207305	-0.16189481	0.011206509	-0.16189521	6.9516627e-06	8.9863928e-06	-0.11150822	-1.0834146	1.702776	0.055895801	-1.7027759	-0.055894531	0.22736102	-2.2448285	2.0374724	1	0.21434483	0.01450397	1.2607071	1.6238629	-0.57732373	-0.18281612	0.075720575	0.13485656	0.22361535	1.9433254	1.812808	1.5933714	1.8128078	1.5933786	0.016101075	1.5752398	1.110454	-0.00014377117	6.0836206e-06	0.09880082	1.098254	0.098805282	1.0982568	-4.4894918e-05	-1.6893586e-05	1.1124618	0.7181724	-1.5301455	-0.59711108	1.5301441	0.59710476	-0.28269495	2.486541	0.029135334	0.20421415	0.055318926	0.17226124	0.34201253	0.17226147	0.34200713	0.016185802	0.33644919	0.035887884	3.9053759	5.4211095	5.1556849	5.0621683	5.1556894	5.0621604	4.3123371	6.0859873	5.2815794	2.7253201	3.3754101	5.0385556	3.3754067	5.0385422	3.7381746	3.2241009	-74.760041	R0:S0:1	-56.720883	uncorrelated	51514b8	2022-04-18@13:06
2x2_2C_8b_C2v_L	6.1368919	0	14	2.6880034	-0.0067733319	-3.271217	-3.9662822	-0.099894157	-3.9662849	-0.099893262	0.13804067	-3.5734939	9.8	1.9787799e-05	-8.6019758e-07	0.011291422	-0.16132331	0.011290994	-0.16132222	2.2990761e-06	2.8035843e-06	-0.11147884	-1.0851072	1.7058537	0.056626523	-1.7058553	-0.056626774	0.22671848	-2.2491995	2.0416759	1	0.21325172	0.014552864	1.2609143	1.6241121	-0.57675654	-0.18227078	0.075541521	0.13490081	0.22202011	1.9434506	1.8131424	1.5948163	1.8131408	1.5948257	0.015988063	1.576299	1.1105445	-0.00024010393	2.6209251e-07	0.098629006	1.095302	0.098631722	1.0952714	-9.572563e-06	-2.6091903e-06	1.1105199	0.71740895	-1.5292732	-0.59938258	1.5292849	0.59938728	-0.28177419	2.4850761	0.029143086	0.2028902	0.055203649	0.17199455	0.34088587	0.17199606	0.34088164	0.016071286	0.33590409	0.035878592	3.8964566	5.4233243	5.1558719	5.0630772	5.1558741	5.0630712	4.3133555	6.0814663	5.2817441	2.7240485	3.3761491	5.0335431	3.3761676	5.0335141	3.7368987	3.2255858	-74.862114	R0:S0:1	-56.895972	uncorrelated	51514b8	2022-04-18@13:15
2x2_2C_8b_C2v_L	6.0527703	0	14	2.6661172	-0.0072680331	-3.2786115	-3.9782274	-0.099557542	-3.9782275	-0.099558366	0.13742291	-3.5868046	9.8	4.1656086e-06	-1.3917252e-06	0.011350443	-0.16087042	0.01134926	-0.16087018	4.284753e-07	1.1454937e-06	-0.11146696	-1.0867339	1.7089229	0.057133387	-1.7089235	-0.057132702	0.22597608	-2.2530107	2.0458793	1	0.21215862	0.014587708	1.2611094	1.6243347	-0.57623882	-0.18175179	0.075374346	0.13493841	0.22093697	1.9435539	1.8134504	1.5958767	1.8134498	1.5958803	0.01588336	1.5772172	1.1106216	-5.1336523e-05	2.6684939e-06	0.098407225	1.0930358	0.098409555	1.0930276	-2.5094726e-06	-2.2100296e-06	1.1089963	0.71682257	-1.5284891	-0.60079606	1.5284926	0.60079504	-0.28083145	2.4837717	0.029149652	0.20203278	0.055108235	0.17174724	0.34007071	0.17174776	0.34006879	0.015965247	0.33542927	0.035870667	3.8899124	5.4250312	5.1559401	5.0638245	5.1559413	5.0638209	4.3141265	6.0775714	5.2820788	2.723024	3.3766645	5.0298435	3.3766696	5.0298348	3.7358312	3.2269174	-74.959239	R0:S0:1	-57.071062	uncorrelated	51514b8	2022-04-18@13:23
2x2_2C_8b_C2v_L	5.969653	0	14	2.644231	-0.0076724085	-3.2880945	-3.9929474	-0.09941897	-3.9929584	-0.099419869	0.13692274	-3.6007199	9.8	-2.7047994e-06	1.0709559e-07	0.011456151	-0.16048664	0.011458312	-0.16048721	-1.5368505e-06	-1.9198224e-06	-0.11145665	-1.0887458	1.7125192	0.057709586	-1.7125188	-0.057712094	0.22528046	-2.2570153	2.0500828	1	0.21106552	0.01461538	1.2613302	1.6245942	-0.5756213	-0.18116066	0.075179658	0.13497944	0.21911281	1.9437085	1.8138808	1.5981837	1.8138822	1.5981809	0.015740551	1.5783665	1.1107264	3.3505068e-05	-5.8456196e-07	0.098057737	1.0896063	0.09805377	1.0896144	9.2039123e-06	3.4249871e-06	1.1066003	0.7159375	-1.5273799	-0.60173224	1.5273731	0.60173951	-0.27977016	2.4819605	0.029156845	0.2005905	0.054966636	0.17140793	0.33852102	0.17140671	0.33852145	0.015821025	0.33483719	0.035855904	3.8794615	5.4275704	5.1564228	5.0631825	5.1564196	5.0631895	4.3149052	6.0727943	5.2821195	2.7218436	3.3781074	5.0229883	3.3781017	5.0229962	3.7347944	3.2288488	-75.074698	R0:S0:1	-57.246152	uncorrelated	51514b8	2022-04-18@13:31
2x2_2C_8b_C2v_L	5.8865081	0	14	2.6223448	-0.0082911579	-3.298817	-4.0103389	-0.099289645	-4.0103324	-0.099289932	0.13644595	-3.6154135	9.8	-8.8407404e-06	1.8265974e-06	0.011556133	-0.1600927	0.011555701	-0.16009302	1.9644322e-06	3.4743739e-06	-0.11146823	-1.0908583	1.7166772	0.058436512	-1.7166765	-0.058436362	0.22462384	-2.2612781	2.0542862	1	0.20997241	0.01465833	1.2615467	1.6248678	-0.57499159	-0.18059013	0.074992317	0.13501844	0.21780339	1.9438506	1.8143517	1.5999958	1.8143519	1.5999952	0.015614691	1.579456	1.1108183	0.00011477167	4.5305299e-07	0.097810083	1.0865589	0.09781144	1.0865698	-1.734582e-05	-7.7577744e-06	1.1047616	0.71516939	-1.5261679	-0.60353862	1.5261639	0.60353787	-0.27879814	2.4802881	0.029163576	0.19959273	0.054835621	0.17103026	0.33715707	0.17103004	0.33715634	0.015693804	0.33427399	0.03584381	3.8714139	5.4296636	5.1564063	5.0635953	5.1564083	5.0635976	4.3156558	6.0682175	5.2823341	2.7207427	3.379122	5.0174292	3.3791132	5.0174326	3.733745	3.2305556	-75.206148	R0:S0:1	-57.421241	uncorrelated	51514b8	2022-04-18@13:40
2x2_2C_8b_C2v_L	5.8006978	0	14	2.6004586	-0.0092184199	-3.3047481	-4.0184409	-0.098797211	-4.0184381	-0.098796136	0.13591911	-3.6289653	9.8	-1.2890407e-05	2.095745e-06	0.011648495	-0.15914993	0.011647772	-0.15915089	-2.7979745e-06	-4.930119e-06	-0.11137129	-1.0924247	1.7190998	0.059500713	-1.7191002	-0.05949911	0.2236547	-2.2654396	2.0584897	1	0.20887931	0.01473008	1.2616929	1.6250694	-0.57460514	-0.18023622	0.074879003	0.13506615	0.21783249	1.9438491	1.8144279	1.5994991	1.8144287	1.5994881	0.015538799	1.579861	1.1108544	0.00016936302	-4.7137358e-06	0.098023303	1.0849072	0.098021285	1.0849326	1.5268612e-05	7.2401044e-06	1.105069	0.71519671	-1.526013	-0.60878958	1.5260075	0.60878052	-0.27777107	2.4802369	0.029171832	0.19957358	0.05483518	0.17095782	0.33685956	0.17095711	0.33686668	0.015616778	0.33405653	0.035853047	3.8711141	5.4301874	5.1557509	5.0683551	5.1557486	5.0683577	4.3165134	6.0662839	5.2826519	2.7197719	3.3779398	5.0177098	3.377927	5.0177409	3.7324436	3.2304415	-75.284809	R0:S0:1	-57.596331	uncorrelated	51514b8	2022-04-18@13:52
2x2_2C_8b_C2v_L	5.7190146	0	14	2.5785724	-0.0089844635	-3.3121524	-4.0306415	-0.098677979	-4.0306322	-0.098677087	0.13586075	-3.6461805	9.8	-1.9934774e-06	9.1657103e-07	0.011602926	-0.1591747	0.01160254	-0.15917527	3.6408011e-06	9.3658312e-06	-0.11138763	-1.0939679	1.7220359	0.059286841	-1.7220347	-0.059286061	0.22361737	-2.2701379	2.0626931	1	0.20778621	0.014707349	1.2619589	1.6253319	-0.57388208	-0.17947884	0.074630182	0.13511308	0.21419864	1.9441257	1.814959	1.603903	1.8149596	1.6039041	0.01541093	1.5817231	1.1110273	3.0535633e-05	5.1708259e-06	0.097406529	1.0802793	0.097409174	1.0802957	-2.9181514e-05	-1.6591665e-05	1.0998027	0.71337737	-1.5245436	-0.60459083	1.5245369	0.60458565	-0.27719064	2.4770417	0.029180186	0.19667472	0.054583884	0.17055843	0.33461916	0.17055797	0.33461681	0.0154882	0.33309149	0.035819449	3.8504233	5.4348914	5.1579257	5.0621386	5.1579291	5.0621371	4.3179857	6.0585712	5.2830105	2.7180537	3.3815789	5.0049242	3.3815666	5.0049259	3.7311229	3.2340436	-75.391767	R0:S0:1	-57.771421	uncorrelated	51514b8	2022-04-18@14:01
2x2_2C_8b_C2v_L	5.6326384	0	14	2.5566862	-0.0098087304	-3.3171379	-4.0393819	-0.098089761	-4.0393772	-0.098088411	0.13506986	-3.6587563	9.8	2.2486113e-06	1.6654691e-07	0.011669472	-0.15837354	0.011670451	-0.15837376	4.1105441e-06	6.0765838e-06	-0.11140979	-1.0952547	1.7244697	0.060175315	-1.7244672	-0.060171915	0.22265903	-2.2738174	2.0668966	1	0.2066931	0.014773878	1.2620918	1.6254973	-0.57355594	-0.1791502	0.074528098	0.13514465	0.21474793	1.9440994	1.8150671	1.602556	1.8150688	1.6025548	0.015356678	1.5820631	1.111042	-2.6303879e-05	3.9550122e-06	0.097525205	1.0796011	0.09752625	1.0796283	-2.8030748e-05	-1.1137692e-05	1.1008154	0.71359989	-1.5242651	-0.60935693	1.5242528	0.60934027	-0.27629389	2.4769858	0.02918552	0.19705794	0.054605474	0.1704547	0.33493331	0.17045326	0.33493261	0.015432735	0.33290519	0.035827611	3.8530867	5.4346707	5.1567902	5.0673699	5.1567912	5.0673653	4.3186603	6.0568729	5.2833752	2.7173884	3.3800036	5.0073731	3.3799875	5.0073851	3.7299826	3.2339032	-75.467934	R0:S0:1	-57.94651	uncorrelated	51514b8	2022-04-18@14:09
2x2_2C_8b_C2v_L	5.550091	0	14	2.5348	-0.010040702	-3.3256143	-4.0546843	-0.098004715	-4.0546914	-0.098002137	0.1348596	-3.6739012	9.8	1.4156733e-05	4.7473814e-07	0.011729109	-0.15812179	0.011727872	-0.15812091	4.2667934e-07	5.304464e-06	-0.11137144	-1.0970631	1.7281874	0.060475486	-1.728191	-0.060472911	0.22224052	-2.2781485	2.0711	1	0.2056	0.014776564	1.2623279	1.6257659	-0.5728814	-0.17850266	0.074313659	0.13519217	0.21220488	1.944303	1.815551	1.6058649	1.8155493	1.6058722	0.015219645	1.5834557	1.1111788	-0.00019429249	-2.880156e-06	0.097056487	1.0755055	0.097060721	1.0754819	2.4779357e-06	-2.9088738e-06	1.0971053	0.71231148	-1.5229963	-0.60826862	1.5230088	0.60826012	-0.27541954	2.4746807	0.029193871	0.19504716	0.054419843	0.17008037	0.33296132	0.17008188	0.33295892	0.015294785	0.33217865	0.035805714	3.8382822	5.4381874	5.157979	5.0644072	5.1579797	5.0643924	4.3196832	6.051087	5.2836849	2.715914	3.3823751	4.9978705	3.3823938	4.9978525	3.7288691	3.2364498	-75.586745	R0:S0:1	-58.1216	uncorrelated	51514b8	2022-04-18@14:17
