model	D	U	e	eb1_1	eb2_1	eb3_1	eb4_1	eb5_1	eb6_1	eb7_1	eb8_1	mu	sb1_1	sb2_1	sb3_1	sb4_1	sb5_1	sb6_1	sb7_1	sb8_1	tb1_1	tb2_1	tb3_1	tb4_1	tb5_1	tb6_1	tb7_1	tb8_1	tpd	tpp	tppp	ave_U_1	ave_eb1_1	ave_eb2_1	ave_eb3_1	ave_eb4_1	ave_eb5_1	ave_eb6_1	ave_eb7_1	ave_eb8_1	ave_mu_1	ave_sb1_1	ave_sb2_1	ave_sb3_1	ave_sb4_1	ave_sb5_1	ave_sb6_1	ave_sb7_1	ave_sb8_1	ave_tb1_1	ave_tb2_1	ave_tb3_1	ave_tb4_1	ave_tb5_1	ave_tb6_1	ave_tb7_1	ave_tb8_1	var_U_1	var_eb1_1	var_eb2_1	var_eb3_1	var_eb4_1	var_eb5_1	var_eb6_1	var_eb7_1	var_eb8_1	var_mu_1	var_sb1_1	var_sb2_1	var_sb3_1	var_sb4_1	var_sb5_1	var_sb6_1	var_sb7_1	var_sb8_1	var_tb1_1	var_tb2_1	var_tb3_1	var_tb4_1	var_tb5_1	var_tb6_1	var_tb7_1	var_tb8_1	E0_1	sector_1	E0_2	sector_2	githash	distance	diff_param	diff_hybrid	time
2x2_2C_8b_C2v_L	0	14	3.1695	0.0018966178	-3.1022638	-3.6869349	-0.10868969	-3.686944	-0.10869079	0.14780046	-3.2464716	9.8	-3.6500554e-05	-6.7538764e-06	0.0094399223	-0.17253352	0.0094394611	-0.17253362	3.636482e-06	8.7254376e-06	-0.1122816	-1.0480638	1.635789	0.042537516	-1.6357909	-0.04253608	0.24121687	-2.1549857	1.9492	1	0.2373	0.13396957	0.26527077	1.939942	1.8043204	1.5585986	1.8043206	1.5586046	0.018908099	1.5490036	1.1083674	0.00036189824	1.9737224e-05	0.10474189	1.1605814	0.10474469	1.1605835	-2.8421842e-05	-1.9074363e-05	1.1621379	0.73820986	-1.5518738	-0.55982036	1.5518723	0.55981661	-0.30335527	2.5243198	0.028977622	0.23770042	0.058424882	0.17898816	0.36581447	0.17898807	0.36581035	0.019049089	0.34936546	0.036155089	4.1301943	5.3685751	5.1519625	5.0536036	5.151964	5.0535964	4.2913274	6.1950073	5.2796115	2.7529111	3.3540319	5.1581494	3.3540299	5.1581423	3.7650163	3.1859676	-72.573495	R0:S0:1	-53.044	uncorrelated	51514b8	 1.28e+02	 2.36e-04	 1.00e+06	2022-04-18@10:04
2x2_2C_8b_C2v_L	0	14	3.1476138	0.0022996165	-3.102281	-3.6869316	-0.1083287	-3.6869401	-0.10833101	0.1472806	-3.24671	9.8	-3.6145279e-05	-2.2455712e-06	0.0093230173	-0.17254693	0.0093238607	-0.17254786	-3.8238278e-06	-5.4000788e-06	-0.11228213	-1.0479808	1.6357	0.042019583	-1.6357015	-0.042023056	0.24113272	-2.1549612	1.9534034	1	0.2362069	0.13396189	0.26464556	1.9399959	1.8043869	1.5581433	1.8043866	1.5581463	0.018910629	1.5492164	1.108383	0.00035611542	-2.0660876e-07	0.1044842	1.1608663	0.10448143	1.1608479	2.8248316e-05	1.1376378e-05	1.1610227	0.73791393	-1.551652	-0.55740236	1.5516574	0.55741707	-0.30332598	2.5238411	0.028976265	0.23710404	0.058375139	0.17893435	0.36645075	0.17893463	0.36644926	0.019051499	0.34926403	0.036146488	4.1275899	5.3688975	5.1519437	5.0525794	5.1519424	5.0525838	4.2912957	6.1941641	5.2804062	2.7528217	3.3542787	5.158791	3.3542904	5.1587783	3.7650339	3.1865158	-72.57172	R0:S0:1	-53.21909	uncorrelated	51514b8	 1.29e+02	 4.58e-03	 1.00e+06	2022-04-18@10:08
2x2_2C_8b_C2v_L	0	14	3.1476138	0.002314122	-3.1060138	-3.6961032	-0.10788023	-3.6961078	-0.10787713	0.1474798	-3.2636318	9.8	-3.7344851e-05	-4.4947236e-06	0.0092507871	-0.17209732	0.0092504331	-0.17209609	9.2897422e-07	-3.3356794e-06	-0.11221975	-1.048927	1.6380229	0.041857078	-1.6380238	-0.041853377	0.2408357	-2.1597008	1.9534034	1	0.2362069	0.13401414	0.25933858	1.9403599	1.8049627	1.5642735	1.8049626	1.5642683	0.018694482	1.5516078	1.1085925	0.00036529075	7.2419456e-06	0.10381287	1.1538734	0.10381138	1.1538753	-5.8255253e-07	4.5401533e-06	1.1547259	0.73542891	-1.5500832	-0.55356758	1.5500851	0.55355324	-0.30224931	2.5199512	0.028985998	0.23316512	0.058046391	0.17851556	0.36350015	0.17851562	0.36350586	0.018832552	0.34813596	0.036104835	4.0991063	5.3750052	5.154874	5.0462308	5.154872	5.0462251	4.2930729	6.1844851	5.2793853	2.7507008	3.3590312	5.1411108	3.3590336	5.1411231	3.7633822	3.1908382	-72.655358	R0:S0:1	-53.21909	uncorrelated	51514b8	 1.29e+02	 4.14e-04	 3.53e-03	2022-04-18@10:12
2x2_2C_8b_C2v_L	0	14	3.1257276	0.0015249651	-3.1060037	-3.6960816	-0.10782539	-3.6960862	-0.10782435	0.14739081	-3.2634168	9.8	-3.7489341e-05	7.2217358e-08	0.0094490432	-0.17162755	0.0094494292	-0.17162659	-1.7604524e-06	4.7932316e-08	-0.11215305	-1.0491266	1.6383466	0.042919829	-1.6383473	-0.042921378	0.24034955	-2.1600798	1.9576069	1	0.23511379	0.13402884	0.26203933	1.9401619	1.8046825	1.5610847	1.8046815	1.5610884	0.018733028	1.5505906	1.108509	0.00037462183	-1.9482659e-06	0.10435396	1.1563452	0.10435371	1.1563215	1.2683007e-05	2.6148906e-06	1.1585133	0.73668235	-1.5509194	-0.56030867	1.5509276	0.56031917	-0.30200559	2.5222501	0.028988333	0.23513928	0.058223742	0.17871038	0.36443817	0.1787113	0.36443766	0.018870165	0.34861065	0.036136984	4.1134105	5.3723309	5.1529282	5.05312	5.1529288	5.0531233	4.2928674	6.188513	5.2796308	2.7509134	3.3556645	5.1498836	3.3556784	5.1498646	3.763181	3.1881251	-72.656908	R0:S0:1	-53.394179	uncorrelated	51514b8	 1.30e+02	 4.40e-03	 1.00e+06	2022-04-18@10:17
2x2_2C_8b_C2v_L	0	14	3.1257276	0.0017636911	-3.1105047	-3.7063306	-0.10704589	-3.7063369	-0.1070469	0.146657	-3.277763	9.8	-4.2077658e-05	-4.6076493e-07	0.0093905719	-0.17137699	0.0093894924	-0.17137639	3.4683352e-07	-1.5511038e-07	-0.11218981	-1.0501218	1.6406771	0.042755977	-1.6406773	-0.04275501	0.2399929	-2.1637597	1.9576069	1	0.23511379	0.13404286	0.25940921	1.9403679	1.8052207	1.5621641	1.8052207	1.5621698	0.018651028	1.5523192	1.1086193	0.00041670938	-1.1300138e-06	0.10365713	1.1540979	0.10365987	1.1540865	-1.0396562e-07	8.0600804e-07	1.1548832	0.73546733	-1.5493805	-0.55826473	1.5493823	0.55826289	-0.30150867	2.519347	0.028990902	0.23296453	0.058035491	0.17828497	0.36425411	0.17828505	0.3642513	0.01878523	0.34778839	0.036107622	4.1000818	5.374952	5.1530737	5.0514804	5.1530739	5.0514774	4.2939135	6.1814426	5.2804249	2.7498607	3.3572187	5.144699	3.357226	5.1446853	3.7620536	3.1911569	-72.738837	R0:S0:1	-53.394179	uncorrelated	51514b8	 1.29e+02	 2.20e-04	 3.14e-03	2022-04-18@10:21
2x2_2C_8b_C2v_L	0	14	3.1038414	0.0014858078	-3.1105563	-3.7063953	-0.10705955	-3.7064013	-0.1070598	0.14669757	-3.2776567	9.8	-4.1425653e-05	-2.513897e-07	0.0094721334	-0.17112038	0.0094720774	-0.17112054	-1.7265383e-08	6.8283249e-08	-0.11209668	-1.0503256	1.6409259	0.043305589	-1.6409269	-0.043304898	0.23973529	-2.1640262	1.9618103	1	0.23402069	0.13406043	0.25990709	1.940309	1.8050576	1.5613639	1.8050578	1.5613656	0.01863295	1.5518883	1.1085956	0.00041336005	-7.6865548e-07	0.10397819	1.1545775	0.1039788	1.1545751	1.8551175e-06	9.3010149e-07	1.155938	0.73579407	-1.5499347	-0.56152187	1.5499352	0.56151844	-0.30122929	2.5203788	0.028994016	0.2332771	0.058088361	0.17840763	0.36432541	0.17840751	0.36432478	0.018766348	0.34799156	0.036123128	4.1031212	5.3744897	5.1526245	5.0540005	5.1526238	5.0539971	4.2938817	6.1831458	5.2803345	2.7496509	3.3561485	5.1469313	3.3561514	5.1469287	3.7619018	3.1899596	-72.740534	R0:S0:1	-53.569269	uncorrelated	51514b8	 1.30e+02	 5.72e-03	 1.00e+06	2022-04-18@10:25
2x2_2C_8b_C2v_L	0	14	3.1038414	0.0015386278	-3.1184104	-3.7212911	-0.10685112	-3.7212947	-0.1068516	0.14646756	-3.2930193	9.8	-4.5097389e-05	-5.6910577e-07	0.0094800275	-0.1709932	0.0094796831	-0.17099313	1.8899512e-06	6.1649171e-06	-0.1121312	-1.0518737	1.644361	0.043369743	-1.6443623	-0.043371164	0.23942816	-2.168154	1.9618103	1	0.23402069	0.13409676	0.25557136	1.9406457	1.8057655	1.5662597	1.8057646	1.5662687	0.018431594	1.5540623	1.1087695	0.00044694151	3.4822182e-06	0.10328473	1.1491231	0.1032878	1.1491046	-1.4059331e-05	-1.0271482e-05	1.1507149	0.73371417	-1.5480733	-0.55901222	1.548079	0.5590213	-0.30028541	2.5166247	0.029000786	0.23002565	0.057783106	0.17787079	0.36191181	0.17787165	0.36190666	0.01856176	0.3469609	0.036085196	4.0799006	5.3794334	5.1543555	5.0490029	5.1543585	5.0490013	4.2950923	6.1743522	5.2795908	2.7480326	3.3601188	5.1325866	3.3601281	5.1325608	3.7606954	3.1940439	-72.854655	R0:S0:1	-53.569269	uncorrelated	51514b8	 1.30e+02	 3.75e-04	 3.35e-03	2022-04-18@10:29
2x2_2C_8b_C2v_L	0	14	3.0819552	0.00085244595	-3.1184469	-3.7212929	-0.106833	-3.7212968	-0.10683437	0.14641204	-3.2928716	9.8	-4.4753955e-05	-7.8492708e-07	0.0096565569	-0.17056316	0.0096563448	-0.17056314	-3.4028456e-07	9.5617039e-07	-0.1120396	-1.0520721	1.6446507	0.044342415	-1.6446514	-0.044343662	0.23897148	-2.1685234	1.9660138	1	0.23292759	0.13411234	0.25758328	1.9404927	1.8055212	1.5638608	1.8055207	1.5638662	0.018446129	1.553221	1.1087037	0.00045206543	1.1356518e-06	0.10376742	1.150862	0.10376865	1.1508481	1.9478627e-06	-1.2510908e-06	1.1536731	0.7346672	-1.5488254	-0.56500706	1.5488292	0.56501457	-0.29997566	2.5185577	0.029003356	0.23149842	0.057920083	0.17804358	0.36251769	0.17804403	0.3625146	0.018575351	0.34735731	0.036112411	4.0906742	5.3774527	5.1528463	5.0547556	5.1528474	5.0547563	4.2949403	6.1776793	5.2797036	2.7480994	3.3574549	5.1392365	3.3574624	5.1392206	3.7604893	3.1917707	-72.856422	R0:S0:1	-53.744359	uncorrelated	51514b8	 1.31e+02	 5.14e-03	 1.00e+06	2022-04-18@10:34
2x2_2C_8b_C2v_L	0	14	3.0819552	0.0010905159	-3.1261904	-3.7338044	-0.10629675	-3.7338072	-0.10629542	0.14585141	-3.307893	9.8	-4.03822e-05	-2.000203e-06	0.0096453121	-0.17039523	0.0096460134	-0.1703943	-7.1512985e-06	-4.6228204e-06	-0.11209519	-1.0535904	1.6475118	0.044328645	-1.6475119	-0.044329254	0.23865949	-2.1724576	1.9660138	1	0.23292759	0.13413561	0.25426986	1.9407585	1.8061181	1.5662152	1.8061174	1.5662109	0.018316069	1.5550928	1.1088348	0.00040432499	-6.3817003e-07	0.10306693	1.1475766	0.10306351	1.1475611	4.766163e-05	1.2768756e-05	1.1494942	0.73312625	-1.547192	-0.56313799	1.547199	0.56314285	-0.29932025	2.5153681	0.029007655	0.22884116	0.057677744	0.17757897	0.36156155	0.17757954	0.36156639	0.01844216	0.346463	0.036081194	4.0736785	5.3809283	5.1535171	5.0520208	5.1535147	5.0520244	4.2960186	6.1700342	5.2799045	2.7468429	3.3598259	5.1309331	3.3598378	5.1309346	3.7593426	3.195134	-72.957689	R0:S0:1	-53.744359	uncorrelated	51514b8	 1.30e+02	 2.67e-04	 3.22e-03	2022-04-18@10:38
2x2_2C_8b_C2v_L	0	14	3.060069	0.00060145633	-3.1262429	-3.7338323	-0.1063104	-3.7338353	-0.10630868	0.14589052	-3.3077542	9.8	-4.0625795e-05	1.0025646e-06	0.0097445635	-0.17007692	0.0097440943	-0.17007614	1.7649537e-06	-9.124509e-07	-0.11200372	-1.0537681	1.6477526	0.044994807	-1.6477532	-0.044991153	0.23834243	-2.1727533	1.9702172	1	0.23183448	0.13415044	0.25544441	1.9406632	1.8059433	1.5649389	1.8059436	1.5649367	0.018315725	1.5545355	1.1087967	0.00041190008	-3.1666274e-06	0.1034535	1.1484139	0.10345456	1.1484204	-8.1748878e-06	1.5720418e-06	1.1512723	0.73370157	-1.5477511	-0.56715065	1.54775	0.5671355	-0.29905891	2.5166699	0.029010187	0.22971674	0.057763396	0.17770612	0.36177147	0.1777059	0.36177402	0.018441204	0.3467272	0.036099736	4.0798989	5.379846	5.1526875	5.055636	5.1526864	5.0556299	4.295937	6.1722482	5.2799112	2.7468037	3.3582289	5.1345974	3.3582275	5.1346061	3.7591918	3.1936178	-72.959263	R0:S0:1	-53.919448	uncorrelated	51514b8	 1.31e+02	 5.77e-03	 1.00e+06	2022-04-18@10:42
2x2_2C_8b_C2v_L	0	14	3.060069	0.00068536919	-3.1360976	-3.74853	-0.10600881	-3.7485332	-0.10601064	0.14540588	-3.3228291	9.8	-3.8319454e-05	-2.0367744e-05	0.0097432796	-0.16996429	0.009743908	-0.16996494	-1.1775695e-05	1.4439842e-05	-0.11205947	-1.055612	1.6511294	0.044997048	-1.6511297	-0.044999753	0.23795076	-2.1767497	1.9702172	1	0.23183448	0.1341793	0.25171569	1.9409757	1.8066273	1.5688405	1.8066273	1.568836	0.01813823	1.5565697	1.1089527	0.00038571452	5.2266006e-05	0.10274235	1.1438606	0.10273861	1.1438661	5.4271342e-05	-2.4577968e-05	1.1465582	0.73189114	-1.5459182	-0.56466354	1.5459171	0.56467736	-0.2981581	2.5131109	0.029015536	0.22687649	0.057479074	0.17718079	0.35990746	0.17718073	0.35990856	0.018260702	0.34575346	0.036063773	4.0599697	5.38404	5.1539458	5.0514846	5.1539453	5.0514873	4.2969656	6.1640141	5.2796039	2.7454568	3.3615375	5.1227892	3.3615336	5.1228038	3.7580963	3.1974603	-73.075528	R0:S0:1	-53.919448	uncorrelated	51514b8	 1.31e+02	 3.32e-04	 3.30e-03	2022-04-18@10:46
2x2_2C_8b_C2v_L	0	14	3.0381828	8.3055996e-05	-3.1361236	-3.7485114	-0.10601059	-3.7485141	-0.10601053	0.14545573	-3.3226701	9.8	-3.8089472e-05	2.2365407e-06	0.0098869509	-0.16956252	0.0098873491	-0.16956365	3.6380276e-06	7.1049455e-07	-0.11195899	-1.0558071	1.6513958	0.045850863	-1.6513968	-0.045847714	0.23759536	-2.1771031	1.9744207	1	0.23074138	0.13419563	0.25326887	1.9408516	1.806411	1.5670432	1.8064124	1.5670401	0.018147768	1.555863	1.1089009	0.00039010687	-3.6682307e-06	0.10318113	1.1450493	0.10318163	1.1450754	-2.1578827e-05	-2.3981471e-06	1.1489095	0.73265058	-1.5465999	-0.56984584	1.5465913	0.56982721	-0.29790166	2.5147519	0.029018293	0.22802498	0.057590502	0.17733645	0.36027945	0.17733528	0.36028038	0.018269551	0.34608979	0.036087165	4.0682959	5.3825477	5.1527938	5.0562696	5.1527921	5.0562612	4.2968633	6.1668075	5.2796306	2.7454565	3.3594133	5.1278394	3.3594001	5.1278594	3.7579169	3.1955328	-73.077069	R0:S0:1	-54.094538	uncorrelated	51514b8	 1.32e+02	 5.47e-03	 1.00e+06	2022-04-18@10:51
2x2_2C_8b_C2v_L	0	14	3.0381828	0.00021619194	-3.1438138	-3.7622857	-0.10584606	-3.7622803	-0.10584645	0.14494107	-3.3381348	9.8	-2.9466514e-05	-3.5345363e-05	0.0098865565	-0.16954913	0.0098863911	-0.16954882	-4.4244263e-06	-5.5642124e-06	-0.1120096	-1.0573147	1.6545811	0.045864262	-1.6545806	-0.045868919	0.23727066	-2.1812008	1.9744207	1	0.23074138	0.13423096	0.24923675	1.9411694	1.8070537	1.5714186	1.8070525	1.5714057	0.017966518	1.5579279	1.1090627	0.00029931409	7.9405842e-05	0.10254662	1.1402923	0.10253439	1.1402923	2.066759e-05	-7.1820232e-06	1.1439349	0.73068082	-1.5448992	-0.56722014	1.5449038	0.56724698	-0.29700864	2.5112103	0.029024846	0.22495742	0.057302107	0.17684934	0.35816727	0.17685019	0.35817545	0.018085749	0.34509793	0.036052293	4.0465359	5.387229	5.1544701	5.0512385	5.1544696	5.0512527	4.2980984	6.158413	5.2791565	2.7438732	3.3630921	5.1147623	3.3630887	5.1147871	3.7566892	3.199386	-73.186486	R0:S0:1	-54.094538	uncorrelated	51514b8	 1.31e+02	 3.55e-04	 3.23e-03	2022-04-18@10:55
2x2_2C_8b_C2v_L	0	14	3.0162966	-0.00040319225	-3.1438427	-3.7622667	-0.10575377	-3.7622615	-0.10575133	0.14506848	-3.3379192	9.8	-2.9253845e-05	5.4505243e-06	0.010041882	-0.16906596	0.010043369	-0.16906668	3.5142064e-06	-5.8016292e-07	-0.11191446	-1.0575071	1.6548146	0.046774908	-1.6548143	-0.046767426	0.23690495	-2.1815311	1.9786241	1	0.22964828	0.13424318	0.2510016	1.9410299	1.8068427	1.5691597	1.8068446	1.5691491	0.017983827	1.557175	1.1090034	0.00030259418	-1.1378373e-05	0.10295782	1.1416894	0.10295726	1.1417349	-1.8752311e-05	1.8294257e-06	1.1465678	0.73156385	-1.5455433	-0.5728685	1.5455301	0.57282949	-0.29678327	2.5129279	0.029026822	0.22623463	0.057427052	0.17699665	0.35876359	0.17699489	0.35876999	0.018102165	0.34545699	0.036075967	4.0562473	5.3853823	5.1530015	5.0568588	5.1529983	5.0568447	4.2979431	6.1613805	5.2792791	2.7439721	3.3606284	5.1209199	3.3606067	5.1209627	3.7565286	3.1973504	-73.187368	R0:S0:1	-54.269628	uncorrelated	51514b8	 1.32e+02	 4.07e-03	 1.00e+06	2022-04-18@10:59
2x2_2C_8b_C2v_L	0	14	3.0162966	-0.00017568924	-3.1486147	-3.7704907	-0.10492161	-3.7704957	-0.10492383	0.14446964	-3.3525203	9.8	-2.6619185e-05	-1.5572978e-05	0.0099559082	-0.1687319	0.0099568857	-0.16873321	3.4095058e-07	8.9004897e-06	-0.11193952	-1.0585968	1.6567838	0.046614739	-1.6567842	-0.046621304	0.23656925	-2.1853502	1.9786241	1	0.22964828	0.13426194	0.24862404	1.9412104	1.8072749	1.569966	1.8072751	1.5699683	0.017916345	1.5587431	1.1091074	0.00027308586	4.2466885e-05	0.10239594	1.1396472	0.10239188	1.1396481	-1.4099369e-05	-2.3139406e-05	1.1432243	0.73050054	-1.544267	-0.57105858	1.5442643	0.57108696	-0.29633042	2.5103637	0.029030197	0.22422046	0.057261932	0.17665437	0.35867419	0.17665425	0.3586696	0.018032297	0.34469357	0.036050705	4.0441476	5.3878017	5.1532488	5.0556345	5.1532503	5.0556444	4.2990478	6.1548912	5.2801081	2.7429303	3.3618505	5.1165369	3.361844	5.1165321	3.7553498	3.2000093	-73.261954	R0:S0:1	-54.269628	uncorrelated	51514b8	 1.32e+02	 1.80e-03	 2.99e-03	2022-04-18@11:03
2x2_2C_8b_C2v_L	0	14	3.0162966	-0.000544213	-3.1531562	-3.775511	-0.10516138	-3.7755126	-0.10516148	0.14429239	-3.3511017	9.8	-3.2335075e-05	-8.2292039e-06	0.010085036	-0.16865264	0.01008572	-0.16865556	1.279794e-06	2.1018341e-06	-0.1118977	-1.059414	1.6580452	0.047162167	-1.6580455	-0.047162246	0.23618926	-2.185174	1.9786241	1	0.22964828	0.13427039	0.2491742	1.9411949	1.8072842	1.5698042	1.8072866	1.5697932	0.017863538	1.5584015	1.1090887	0.00033515818	2.2625627e-05	0.10253162	1.1397452	0.10252685	1.1397938	-1.2619218e-05	-9.0661278e-06	1.1441659	0.73074376	-1.5444073	-0.57385098	1.5443908	0.57384047	-0.29587848	2.510982	0.02903168	0.22469092	0.057275018	0.17664042	0.35838091	0.17663826	0.35838433	0.01797857	0.34486105	0.036060898	4.0470453	5.3873234	5.1526452	5.0575561	5.1526417	5.0575529	4.2985851	6.1563371	5.279831	2.7429918	3.3612529	5.1175966	3.3612253	5.1176412	3.7555505	3.1992865	-73.291851	R0:S0:1	-54.269628	uncorrelated	51514b8	 1.32e+02	 3.51e-05	 1.30e-03	2022-04-18@11:07
2x2_2C_8b_C2v_L	0	14	2.9944103	-0.00052419207	-3.1531655	-3.7755189	-0.10511804	-3.7755203	-0.10511872	0.14423801	-3.3511119	9.8	-3.2335075e-05	-4.3325623e-06	0.010074458	-0.16871834	0.010074796	-0.16871975	-3.2340794e-07	-3.8202319e-08	-0.11193137	-1.0594073	1.658017	0.047197171	-1.6580179	-0.047198472	0.23627954	-2.1851664	1.9828276	1	0.22855517	0.13426634	0.24982238	1.9411526	1.8072492	1.5686572	1.8072498	1.5686532	0.01790178	1.5582344	1.1090637	0.00033495919	1.101256e-05	0.10261616	1.1409154	0.10261354	1.1409296	-1.209861e-07	-2.5017612e-06	1.1449421	0.73104038	-1.5444935	-0.57449684	1.5444894	0.57449875	-0.29609677	2.5113271	0.029030879	0.22514507	0.057312969	0.17666076	0.35899916	0.17666022	0.35900035	0.018016869	0.34494147	0.036066508	4.0505974	5.3865909	5.1520692	5.0586778	5.152068	5.0586788	4.2985528	6.1569741	5.2801516	2.7431621	3.3604805	5.1204075	3.3604722	5.1204222	3.7555719	3.1988314	-73.291921	R0:S0:1	-54.444717	uncorrelated	51514b8	 1.33e+02	 4.96e-03	 1.00e+06	2022-04-18@11:12
2x2_2C_8b_C2v_L	0	14	2.9944103	-0.00040453451	-3.159793	-3.7863404	-0.10471279	-3.7863449	-0.10471227	0.14418094	-3.3677219	9.8	-3.5710049e-05	2.4064221e-07	0.010029376	-0.16839289	0.010029659	-0.16839304	1.8725893e-06	5.1565092e-06	-0.11190724	-1.0607757	1.6606251	0.047037012	-1.6606257	-0.047037174	0.23601772	-2.1896947	1.9828276	1	0.22855517	0.1343084	0.24518089	1.9414962	1.8078683	1.5739254	1.8078687	1.5739264	0.017719264	1.560491	1.1092588	0.00036705946	3.2691237e-06	0.10187084	1.1347906	0.10187154	1.1347967	-1.5263971e-05	-9.3830036e-06	1.1389956	0.72883484	-1.5427689	-0.57068998	1.5427659	0.57068988	-0.29519599	2.5074778	0.029038637	0.22159585	0.057001493	0.17619842	0.35643559	0.17619809	0.35643409	0.017832177	0.34384606	0.036024429	4.0254941	5.3919281	5.1544325	5.052876	5.1544327	5.0528755	4.3000478	6.1477949	5.279687	2.7413848	3.3646998	5.1050218	3.3646952	5.1050226	3.7541702	3.2030926	-73.387902	R0:S0:1	-54.444717	uncorrelated	51514b8	 1.33e+02	 3.98e-04	 3.30e-03	2022-04-18@11:16
2x2_2C_8b_C2v_L	0	14	2.9725241	-0.0012017396	-3.1598195	-3.7863354	-0.1047298	-3.7863399	-0.10473073	0.14420778	-3.3675284	9.8	-3.5710474e-05	-3.4598854e-07	0.01019851	-0.16792336	0.01019875	-0.16792357	-9.0258039e-07	8.9114169e-07	-0.11182765	-1.0609863	1.6609276	0.048042327	-1.6609283	-0.048044763	0.23555026	-2.1900853	1.987031	1	0.22746207	0.13432461	0.24732316	1.9413345	1.8076207	1.5716462	1.8076205	1.5716474	0.017733888	1.5596295	1.1091906	0.00037549922	2.0586467e-06	0.10240295	1.1363557	0.10240225	1.1363502	3.0029998e-06	-1.9412302e-06	1.142211	0.72984093	-1.5435284	-0.57687412	1.5435296	0.5768853	-0.29487399	2.5094718	0.029041312	0.22323323	0.057146816	0.17637495	0.35695608	0.17637509	0.35695462	0.017846221	0.34426076	0.036052754	4.0368017	5.3898784	5.1529453	5.0588351	5.1529453	5.0588403	4.2999052	6.1512077	5.2796452	2.7414951	3.3620273	5.1114728	3.3620288	5.1114675	3.7539585	3.2007607	-73.389778	R0:S0:1	-54.619807	uncorrelated	51514b8	 1.34e+02	 5.13e-03	 1.00e+06	2022-04-18@11:20
2x2_2C_8b_C2v_L	0	14	2.9725241	-0.00099967584	-3.1675123	-3.7991328	-0.10419504	-3.7991358	-0.10419427	0.14353879	-3.3819971	9.8	-4.6006372e-05	3.2201341e-05	0.010180372	-0.16779777	0.010180149	-0.16779784	3.4600469e-06	5.6212569e-06	-0.11189449	-1.0624628	1.6638478	0.047986393	-1.6638487	-0.047984826	0.23522013	-2.1938434	1.987031	1	0.22746207	0.13434403	0.24459119	1.9415676	1.8081893	1.5734562	1.8081894	1.5734692	0.017626191	1.5613264	1.1093082	0.0004790816	-7.0952657e-05	0.10170503	1.1336613	0.10171576	1.1336491	-1.6980165e-05	5.4373479e-06	1.138456	0.72851492	-1.5419602	-0.57495178	1.5419612	0.5749406	-0.29428832	2.5065351	0.029044828	0.22101748	0.056933712	0.17592787	0.35626651	0.17592792	0.35625843	0.01773599	0.34343236	0.036023765	4.0224536	5.3928216	5.1533637	5.056556	5.1533658	5.0565488	4.3008487	6.14423	5.280128	2.7404015	3.3639899	5.1048151	3.363998	5.1047827	3.7529261	3.2038409	-73.490982	R0:S0:1	-54.619807	uncorrelated	51514b8	 1.33e+02	 2.42e-04	 3.05e-03	2022-04-18@11:24
2x2_2C_8b_C2v_L	0	14	2.9506379	-0.0014107619	-3.1675549	-3.7991499	-0.10423187	-3.7991531	-0.10423413	0.14359562	-3.3818762	9.8	-4.6278775e-05	-4.2060047e-06	0.010262592	-0.16749487	0.010260955	-0.16749406	-2.2754777e-06	-1.7053152e-07	-0.11179356	-1.0626768	1.6640785	0.04857077	-1.6640788	-0.048576295	0.23492804	-2.1941285	1.9912345	1	0.22636897	0.1343601	0.24533819	1.9414953	1.8080379	1.5726996	1.8080363	1.572706	0.01761449	1.5608835	1.1092821	0.00048826477	1.0003659e-05	0.1020571	1.1340223	0.10205767	1.1339914	9.8152561e-06	-2.3830683e-06	1.1397294	0.7289354	-1.5424586	-0.57836758	1.5424679	0.57839777	-0.29400559	2.5075958	0.029047632	0.22158048	0.056999062	0.17604101	0.35626715	0.17604235	0.35626291	0.017723873	0.34364718	0.036039347	4.0264857	5.3921773	5.1528404	5.0593875	5.1528428	5.0594005	4.3008012	6.1459964	5.280028	2.74029	3.3628359	5.1070886	3.3628491	5.1070608	3.752787	3.2026195	-73.492513	R0:S0:1	-54.794897	uncorrelated	51514b8	 1.34e+02	 4.88e-03	 1.00e+06	2022-04-18@11:29
2x2_2C_8b_C2v_L	0	14	2.9506379	-0.0013645289	-3.1744413	-3.8107001	-0.10382891	-3.8106934	-0.1038252	0.14316451	-3.3968456	9.8	-2.9172503e-05	9.6277156e-06	0.010241165	-0.16728413	0.010240381	-0.16728366	5.8992929e-06	9.4135431e-06	-0.11183506	-1.0640471	1.6668217	0.048567304	-1.666821	-0.048560035	0.23455834	-2.1981305	1.9912345	1	0.22636897	0.13439081	0.24223333	1.9417463	1.8085729	1.5757529	1.808574	1.5757508	0.017478102	1.562651	1.1094204	0.00030663771	-1.5012693e-05	0.10146497	1.1301455	0.10147104	1.1301772	-3.9881285e-05	-1.3729116e-05	1.135659	0.72739943	-1.5409903	-0.57625931	1.5409804	0.57622545	-0.29323483	2.5046161	0.029053218	0.21915511	0.056770363	0.17562986	0.35480944	0.17562892	0.35481048	0.01758538	0.34278115	0.036009354	4.0096373	5.3957926	5.1539873	5.0561194	5.1539886	5.0561056	4.3019443	6.1387491	5.2800356	2.7389537	3.3654553	5.09749	3.3654387	5.0975076	3.7515935	3.2058349	-73.588674	R0:S0:1	-54.794897	uncorrelated	51514b8	 1.34e+02	 2.95e-04	 3.04e-03	2022-04-18@11:33
2x2_2C_8b_C2v_L	0	14	2.9287517	-0.0018959202	-3.1744924	-3.810746	-0.10382484	-3.8107393	-0.10382579	0.14319814	-3.3967153	9.8	-2.9707956e-05	-2.2149597e-06	0.010360612	-0.16691822	0.010360723	-0.16691754	-4.3091381e-06	9.9026697e-07	-0.11175051	-1.0642585	1.667058	0.049307139	-1.6670557	-0.049315191	0.23422945	-2.1984357	1.9954379	1	0.22527586	0.13440416	0.24357917	1.941635	1.8083924	1.5741761	1.8083909	1.5741809	0.017485038	1.5620465	1.1093741	0.00031686524	6.0966379e-06	0.10185353	1.1311528	0.10185155	1.13112	2.2014375e-05	-1.2142299e-06	1.1377475	0.72808933	-1.5415526	-0.58079425	1.5415613	0.58083259	-0.29299961	2.5060233	0.029055461	0.22016456	0.056870628	0.17575927	0.35515487	0.17576058	0.35515122	0.017591834	0.34307462	0.036029689	4.0169274	5.3944748	5.1529573	5.0603911	5.1529601	5.0604092	4.3018459	6.14114	5.2800259	2.7389829	3.3635876	5.1019044	3.3636005	5.1018749	3.7514459	3.2041816	-73.590323	R0:S0:1	-54.969986	uncorrelated	51514b8	 1.35e+02	 5.55e-03	 1.00e+06	2022-04-18@11:37
2x2_2C_8b_C2v_L	0	14	2.9287517	-0.0017984688	-3.1825178	-3.8250138	-0.10346104	-3.8250097	-0.10345849	0.14269632	-3.4117739	9.8	-8.4606466e-06	2.9631981e-06	0.010352636	-0.16681253	0.010351678	-0.16681211	1.0776493e-05	4.6446372e-06	-0.1118003	-1.0657749	1.6703386	0.049273277	-1.6703384	-0.049267652	0.23390167	-2.2024252	1.9954379	1	0.22527586	0.13443183	0.24037323	1.9419066	1.8090164	1.5773033	1.8090171	1.5773035	0.017345182	1.5638947	1.1095169	9.0445022e-05	-1.1925882e-06	0.10114358	1.1272983	0.10114776	1.127324	-6.6947039e-05	-1.3299932e-05	1.1333597	0.72646894	-1.5398662	-0.57834499	1.5398579	0.5783203	-0.29226552	2.5028025	0.029060478	0.21766225	0.05662301	0.17527587	0.35369052	0.17527518	0.35368998	0.01744971	0.34216711	0.035996834	3.999444	5.3981913	5.1539591	5.0568086	5.1539612	5.0567984	4.3028851	6.1335725	5.2802008	2.7376666	3.3663894	5.0921362	3.3663741	5.0921466	3.7503558	3.2076375	-73.700777	R0:S0:1	-54.969986	uncorrelated	51514b8	 1.34e+02	 3.03e-04	 3.12e-03	2022-04-18@11:41
2x2_2C_8b_C2v_L	0	14	2.9068655	-0.0023285552	-3.1825625	-3.8250248	-0.10350702	-3.8250211	-0.10350811	0.14277213	-3.4116192	9.8	-9.0087486e-06	-1.6625822e-06	0.010467144	-0.16643304	0.0104678	-0.16643258	-4.2711573e-06	1.8086464e-06	-0.11170378	-1.0660237	1.6705858	0.050026014	-1.6705841	-0.050033342	0.23355576	-2.2027487	1.9996414	1	0.22418276	0.13444839	0.24147531	1.9418062	1.8088387	1.5761738	1.8088374	1.5761793	0.017338069	1.5633317	1.1094789	9.6899231e-05	4.4965987e-06	0.10155847	1.1278821	0.1015566	1.1278506	2.2581955e-05	-1.3816285e-06	1.1352201	0.72707189	-1.5404326	-0.58278128	1.5404408	0.5828156	-0.29195949	2.5041356	0.029063329	0.21849773	0.056713657	0.17540641	0.35378321	0.17540757	0.35377932	0.017442162	0.34244203	0.036016264	4.00543	5.3971698	5.1531649	5.0606576	5.1531671	5.0606725	4.3028124	6.1358114	5.2800276	2.7376184	3.3648082	5.0954372	3.3648215	5.0954084	3.7501954	3.2060937	-73.702481	R0:S0:1	-55.145076	uncorrelated	51514b8	 1.35e+02	 5.55e-03	 1.00e+06	2022-04-18@11:46
2x2_2C_8b_C2v_L	0	14	2.9068655	-0.0022564371	-3.1918667	-3.8394484	-0.10322994	-3.8394402	-0.10322882	0.142189	-3.4256725	9.8	1.8192567e-05	4.1086103e-07	0.010454395	-0.16635601	0.010453169	-0.16635555	1.7902918e-06	-1.3692732e-06	-0.11175861	-1.0677508	1.6739133	0.050028521	-1.6739127	-0.050022482	0.23314795	-2.2064472	1.9996414	1	0.22418276	0.13447441	0.23840724	1.9420736	1.8094454	1.5793588	1.8094456	1.5793562	0.0171881	1.5650846	1.1096161	-0.00019495424	-2.7131118e-06	0.10093644	1.1240787	0.10093916	1.1240921	-7.799838e-06	2.0662121e-06	1.1310477	0.72552932	-1.538807	-0.58051198	1.538805	0.5804867	-0.29113623	2.5010251	0.029068068	0.21611451	0.056469773	0.17493682	0.3522366	0.17493667	0.35223955	0.017290008	0.34157873	0.035984684	3.9886828	5.400733	5.1541642	5.05709	5.1541647	5.0570784	4.3036858	6.1286605	5.2800773	2.7364161	3.3675731	5.0856947	3.3675689	5.0857076	3.7492323	3.2094515	-73.814353	R0:S0:1	-55.145076	uncorrelated	51514b8	 1.35e+02	 3.03e-04	 3.00e-03	2022-04-18@11:50
2x2_2C_8b_C2v_L	0	14	2.8849793	-0.0028063489	-3.191901	-3.8394337	-0.10325086	-3.8394257	-0.10324991	0.14225097	-3.4256085	9.8	1.8220325e-05	-5.857023e-07	0.010585252	-0.16596866	0.010585355	-0.16596815	-1.764321e-06	2.8968484e-07	-0.11167752	-1.0679666	1.6741411	0.05079162	-1.6741393	-0.050793064	0.23280857	-2.206781	2.0038448	1	0.22308966	0.1344889	0.23965788	1.9419673	1.8092683	1.5779919	1.8092677	1.5779935	0.017188688	1.5645051	1.1095733	-0.00019873146	4.1805636e-08	0.10130507	1.1248238	0.10130473	1.124811	1.2101289e-05	1.6820256e-06	1.1330926	0.72617994	-1.5393638	-0.58508061	1.5393678	0.58508738	-0.29086547	2.5023937	0.029070525	0.2170644	0.056565656	0.1750651	0.35246213	0.17506567	0.35246184	0.0172902	0.34186224	0.036004512	3.9954686	5.3995312	5.1532376	5.0612561	5.1532388	5.0612581	4.3036111	6.1309533	5.2799456	2.7364167	3.3658384	5.0895773	3.3658453	5.0895665	3.7490662	3.2078539	-73.815959	R0:S0:1	-55.320166	uncorrelated	51514b8	 1.36e+02	 4.99e-03	 1.00e+06	2022-04-18@11:54
2x2_2C_8b_C2v_L	0	14	2.8849793	-0.0026661686	-3.1994589	-3.8508716	-0.1027417	-3.8508733	-0.10274206	0.14182514	-3.4411997	9.8	1.4055335e-05	-1.8412544e-07	0.010536199	-0.16577956	0.010535717	-0.1657793	-9.0793093e-07	-2.9489472e-06	-0.11173889	-1.0694602	1.6768434	0.050718553	-1.6768438	-0.050718115	0.23254102	-2.2109519	2.0038448	1	0.22308966	0.13451757	0.23685222	1.942198	1.8097847	1.5803091	1.8097844	1.5803103	0.017082299	1.5662085	1.1097018	-0.00015244161	-2.6297381e-06	0.10072209	1.1216364	0.1007225	1.121628	8.8940886e-06	5.825364e-06	1.1292544	0.72480639	-1.5379143	-0.58289588	1.5379178	0.58289512	-0.29028367	2.4995344	0.029075668	0.21480623	0.056355047	0.17466373	0.35144476	0.17466406	0.35144494	0.017181866	0.34101742	0.035976369	3.9803273	5.4027743	5.1540958	5.0584924	5.1540954	5.0584908	4.3047714	6.1239132	5.280308	2.7351726	3.3680153	5.0817276	3.3680216	5.081723	3.7478703	3.2108896	-73.914148	R0:S0:1	-55.320166	uncorrelated	51514b8	 1.35e+02	 2.72e-04	 3.04e-03	2022-04-18@11:58
2x2_2C_8b_C2v_L	0	14	2.8630931	-0.0031851495	-3.1995063	-3.8508896	-0.10277959	-3.8508911	-0.10277914	0.14187812	-3.4410571	9.8	1.427826e-05	2.143737e-08	0.010649994	-0.16543703	0.010649945	-0.16543689	2.990615e-07	-1.9528037e-07	-0.11164389	-1.0696416	1.6770608	0.051391192	-1.6770611	-0.051389964	0.23222945	-2.211238	2.0080483	1	0.22199655	0.13453123	0.23791084	1.9421104	1.8096278	1.579235	1.8096278	1.5792356	0.017080356	1.5657053	1.1096664	-0.00015710411	-1.2513642e-06	0.10104906	1.1221694	0.10104959	1.1221683	1.9734395e-07	1.2222556e-06	1.130919	0.72533685	-1.5384182	-0.58687042	1.538419	0.58686518	-0.29002347	2.5007253	0.029078	0.21563151	0.056434038	0.17477841	0.35156923	0.17477843	0.35156947	0.017179634	0.3412647	0.035993578	3.9859339	5.4018036	5.1533414	5.0620321	5.1533411	5.0620284	4.3047012	6.1259098	5.2802344	2.7351496	3.3665709	5.0848584	3.366573	5.0848579	3.7477296	3.2095048	-73.915635	R0:S0:1	-55.495255	uncorrelated	51514b8	 1.36e+02	 5.85e-03	 1.00e+06	2022-04-18@12:03
2x2_2C_8b_C2v_L	0	14	2.8630931	-0.0030860213	-3.2083841	-3.8659192	-0.10260614	-3.8659211	-0.10260722	0.14164158	-3.4566941	9.8	6.9554622e-06	3.027613e-06	0.010683839	-0.16540345	0.010681181	-0.16540506	-4.4675578e-06	-7.4879051e-06	-0.11170143	-1.0713377	1.6805277	0.051430882	-1.6805294	-0.051426198	0.23202912	-2.2154487	2.0080483	1	0.22199655	0.13456621	0.23445561	1.9423944	1.8102588	1.58307	1.8102598	1.5830634	0.016930438	1.5675896	1.1098197	-7.7194746e-05	-1.3483555e-05	0.10033196	1.1178146	0.10033401	1.1178356	3.3461877e-05	1.6430966e-05	1.1263001	0.72361173	-1.5367304	-0.58436929	1.5367264	0.58434338	-0.28931515	2.4974507	0.029084322	0.21294471	0.056175624	0.17429352	0.34964187	0.17429268	0.34964672	0.017027822	0.34033043	0.035960918	3.9668876	5.4059642	5.1547187	5.0576467	5.1547152	5.0576347	4.3058446	6.1181872	5.2801784	2.7337011	3.3697902	5.0734299	3.3697854	5.0734572	3.7465986	3.2130469	-74.033603	R0:S0:1	-55.495255	uncorrelated	51514b8	 1.36e+02	 3.41e-04	 3.10e-03	2022-04-18@12:07
2x2_2C_8b_C2v_L	0	14	2.8412069	-0.0037631406	-3.2084169	-3.865893	-0.10263178	-3.8658954	-0.10263009	0.14161647	-3.4564769	9.8	6.9373532e-06	3.6322559e-07	0.010794365	-0.16494878	0.010794586	-0.1649487	2.2285615e-07	-1.0954987e-06	-0.11160639	-1.0715295	1.6807641	0.05226274	-1.6807647	-0.052261516	0.2315757	-2.2157584	2.0122517	1	0.22090345	0.13458024	0.2358554	1.9422842	1.8100781	1.5817203	1.8100782	1.5817177	0.016924038	1.5669753	1.1097748	-7.7508548e-05	-1.8203651e-06	0.10081046	1.1184362	0.10080964	1.1184405	1.0371763e-06	2.700957e-06	1.1285342	0.72428964	-1.5372935	-0.58930958	1.5372931	0.58930331	-0.28893262	2.4988963	0.029086687	0.21404408	0.056274799	0.17442439	0.34980344	0.17442423	0.34980576	0.017021075	0.3406333	0.035981207	3.9743151	5.4046422	5.1537224	5.0621693	5.1537211	5.0621668	4.3057312	6.1206288	5.2800083	2.7337243	3.3679728	5.0773328	3.3679723	5.0773402	3.7464237	3.2113779	-74.034805	R0:S0:1	-55.670345	uncorrelated	51514b8	 1.37e+02	 4.86e-03	 1.00e+06	2022-04-18@12:11
2x2_2C_8b_C2v_L	0	14	2.8412069	-0.0036280112	-3.2166998	-3.8777825	-0.10217432	-3.8777829	-0.10217713	0.14088607	-3.470059	9.8	-3.5172708e-06	-4.2569302e-06	0.010762499	-0.16481774	0.010762725	-0.16481605	1.645061e-06	8.1327673e-06	-0.11167405	-1.0731225	1.6835567	0.052221619	-1.6835574	-0.052222862	0.23114288	-2.2193006	2.0122517	1	0.22090345	0.13460166	0.23348157	1.9424918	1.8105634	1.5835027	1.8105615	1.5835142	0.016814191	1.5684585	1.1098836	3.9722249e-05	1.4118774e-05	0.10025381	1.1158886	0.10025718	1.1158581	-1.7676137e-05	-1.6562944e-05	1.1252055	0.72312712	-1.5359559	-0.58752683	1.5359658	0.58754297	-0.28824676	2.4963194	0.029090531	0.2121125	0.05608481	0.17404344	0.34904244	0.17404511	0.34903548	0.016909284	0.33989196	0.035956043	3.961591	5.4073201	5.1542529	5.0600001	5.1542578	5.0600027	4.3065583	6.1145026	5.2804164	2.7327121	3.3697446	5.0710944	3.3697575	5.0710594	3.7454712	3.2141106	-74.131969	R0:S0:1	-55.670345	uncorrelated	51514b8	 1.37e+02	 2.31e-04	 2.81e-03	2022-04-18@12:15
2x2_2C_8b_C2v_L	0	14	2.8193207	-0.00407865	-3.216729	-3.8777841	-0.10218266	-3.8777848	-0.10218372	0.14093608	-3.4699794	9.8	-3.0769585e-06	4.6404233e-07	0.010846985	-0.1644926	0.010846396	-0.16449387	2.9339781e-06	3.9216027e-06	-0.11158862	-1.0733136	1.6837486	0.052766874	-1.6837493	-0.052763761	0.23087785	-2.2195574	2.0164552	1	0.21981034	0.1346132	0.2343684	1.9424143	1.810437	1.5826718	1.8104382	1.5826709	0.016815334	1.5680563	1.1098565	3.5518157e-05	2.1244829e-06	0.10052804	1.1161768	0.10053048	1.1162025	-2.1187798e-05	-8.4148403e-06	1.126567	0.72360137	-1.5363606	-0.59075845	1.5363517	0.59074167	-0.28804071	2.4972706	0.029092499	0.21281273	0.056154958	0.17413593	0.34911385	0.1741349	0.34911295	0.016910266	0.34009087	0.035969793	3.9662644	5.4065063	5.1536487	5.062971	5.1536489	5.0629629	4.3064929	6.1161062	5.2803494	2.7327222	3.3685703	5.073537	3.3685564	5.0735521	3.74537	3.2130046	-74.133132	R0:S0:1	-55.845434	uncorrelated	51514b8	 1.38e+02	 4.85e-03	 1.00e+06	2022-04-18@12:20
2x2_2C_8b_C2v_L	0	14	2.8193207	-0.003938051	-3.223839	-3.8891408	-0.1017485	-3.8891368	-0.10174966	0.14051171	-3.4848638	9.8	-2.4836037e-05	-6.3223669e-07	0.0108324	-0.16428978	0.010831804	-0.16429059	-1.3170503e-06	-1.0840469e-07	-0.11162262	-1.0747859	1.6864544	0.052736323	-1.6864546	-0.052739528	0.23052873	-2.2235668	2.0164552	1	0.21981034	0.13464473	0.23147515	1.9426411	1.8109309	1.5852734	1.8109306	1.5852716	0.016692349	1.5696793	1.1099878	0.00027760554	3.6648367e-06	0.099920297	1.112747	0.09991932	1.1127481	3.6469912e-06	-1.8183672e-06	1.122637	0.72222072	-1.5349886	-0.58864913	1.534989	0.58866199	-0.28732931	2.4945302	0.02909815	0.21047481	0.055948131	0.17375374	0.34787987	0.17375398	0.34787985	0.016785459	0.33927715	0.035942225	3.9506297	5.4098783	5.15467	5.0600072	5.1546709	5.0600147	4.3075851	6.1093974	5.2806231	2.7314194	3.370866	5.0651903	3.3708626	5.0651918	3.7442218	3.2159561	-74.22885	R0:S0:1	-55.845434	uncorrelated	51514b8	 1.37e+02	 2.77e-04	 2.91e-03	2022-04-18@12:24
2x2_2C_8b_C2v_L	0	14	2.7974345	-0.0045427441	-3.2238892	-3.8891669	-0.10177537	-3.8891631	-0.10177496	0.14055561	-3.4847642	9.8	-2.4361108e-05	1.2559253e-06	0.010914178	-0.16392777	0.010914156	-0.16392828	1.8079154e-06	-2.8548178e-07	-0.1115561	-1.0749184	1.6866868	0.053397709	-1.6866866	-0.053395591	0.23020678	-2.2238568	2.0206586	1	0.21871724	0.13465703	0.23276717	1.9425459	1.8107711	1.5840817	1.8107719	1.5840751	0.016697441	1.5691539	1.1099478	0.00027816522	3.0833381e-07	0.10033051	1.113365	0.10032992	1.1133911	-1.451904e-05	-2.6745397e-06	1.1246214	0.72280468	-1.5354927	-0.59266346	1.5354848	0.59265293	-0.28708431	2.4957742	0.029100226	0.2115155	0.056033845	0.17387027	0.34806944	0.17386943	0.34807256	0.016790461	0.339538	0.035960176	3.9573089	5.4087078	5.1538406	5.0637656	5.1538401	5.0637658	4.3075162	6.1114808	5.2805142	2.7314586	3.3693057	5.0686291	3.3692902	5.0686522	3.7440712	3.2145143	-74.230429	R0:S0:1	-56.020524	uncorrelated	51514b8	 1.38e+02	 6.00e-03	 1.00e+06	2022-04-18@12:28
2x2_2C_8b_C2v_L	0	14	2.7974345	-0.0044310968	-3.2328718	-3.9045966	-0.10149221	-3.90459	-0.1014914	0.14021431	-3.500876	9.8	2.8009276e-08	-4.8283563e-06	0.010920085	-0.16387095	0.010920267	-0.16387112	1.0497103e-06	2.3860815e-06	-0.11163007	-1.0766182	1.6902173	0.05339569	-1.6902158	-0.053396517	0.23000352	-2.228194	2.0206586	1	0.21871724	0.13468897	0.22964114	1.9428106	1.8114036	1.5873225	1.8114038	1.5873205	0.016566929	1.5709787	1.1100937	8.2764581e-07	1.3342828e-05	0.099622087	1.109485	0.099620645	1.1094928	-9.4701541e-06	-7.0344181e-06	1.1202675	0.72121596	-1.5337665	-0.59015047	1.5337635	0.59015322	-0.28644868	2.4926035	0.029105913	0.20904124	0.055792411	0.17337898	0.34647211	0.17337878	0.3464727	0.01665815	0.33862237	0.035928111	3.9400065	5.4124877	5.1549081	5.0599736	5.1549091	5.0599759	4.3086425	6.1039574	5.2807582	2.7300843	3.3721376	5.0586817	3.3721312	5.0586869	3.7429344	3.2179163	-74.350916	R0:S0:1	-56.020524	uncorrelated	51514b8	 1.38e+02	 3.23e-04	 3.13e-03	2022-04-18@12:32
2x2_2C_8b_C2v_L	0	14	2.7755483	-0.0050807556	-3.2329005	-3.9045659	-0.10157814	-3.9045596	-0.10157828	0.140272	-3.5006277	9.8	-3.9773869e-08	9.0721089e-08	0.01103209	-0.16345381	0.011032522	-0.1634537	-4.4173461e-07	6.5827329e-07	-0.111515	-1.0768282	1.690463	0.054168106	-1.6904616	-0.054169653	0.22960186	-2.228499	2.0248621	1	0.21762414	0.13470532	0.23076147	1.9427175	1.8112342	1.5864253	1.8112339	1.5864265	0.016555249	1.5704416	1.1100584	5.0262418e-07	2.3330589e-07	0.10005118	1.1097482	0.10005072	1.1097427	2.0061068e-06	-7.3027846e-07	1.1220845	0.72177169	-1.5343115	-0.59458802	1.5343125	0.59459473	-0.28607949	2.4938871	0.02910873	0.20995295	0.055876521	0.17350468	0.34643217	0.17350492	0.34643121	0.016646325	0.33889064	0.03594663	3.9458109	5.411522	5.1541946	5.0637489	5.1541958	5.063752	4.3085635	6.106104	5.2805519	2.7300459	3.3706842	5.0614383	3.3706858	5.0614316	3.7427742	3.2164489	-74.352283	R0:S0:1	-56.195614	uncorrelated	51514b8	 1.39e+02	 4.05e-03	 1.00e+06	2022-04-18@12:37
2x2_2C_8b_C2v_L	0	14	2.7755483	-0.0049761913	-3.2378622	-3.912845	-0.10092055	-3.9128459	-0.1009203	0.13967802	-3.5149883	9.8	-9.5066427e-07	-7.2755996e-06	0.010984468	-0.16316386	0.010984392	-0.16316366	2.3199664e-06	-4.2069349e-07	-0.11156051	-1.0779313	1.692519	0.054079403	-1.6925197	-0.054080314	0.22922259	-2.2323094	2.0248621	1	0.21762414	0.13472986	0.22874755	1.9428769	1.8116038	1.587545	1.8116034	1.5875439	0.016482344	1.5717978	1.1101585	1.2211978e-05	1.7601791e-05	0.099524096	1.1075759	0.099522198	1.1075747	-1.5740971e-05	-5.1029134e-06	1.1191592	0.72079779	-1.5332293	-0.59300104	1.5332309	0.59300745	-0.28554408	2.4916855	0.029113055	0.20825724	0.055730438	0.17321331	0.34603352	0.17321365	0.34603428	0.016571861	0.3382019	0.035925171	3.9349497	5.4138461	5.154685	5.0624385	5.1546856	5.0624415	4.3096289	6.1003994	5.2812023	2.728981	3.3719055	5.0568185	3.3719045	5.0568195	3.741621	3.218767	-74.428197	R0:S0:1	-56.195614	uncorrelated	51514b8	 1.38e+02	 2.06e-04	 2.74e-03	2022-04-18@12:41
2x2_2C_8b_C2v_L	0	14	2.7536621	-0.0053530281	-3.2379315	-3.912918	-0.1009456	-3.9129185	-0.10094575	0.13968153	-3.5148069	9.8	-3.8354239e-07	1.1508987e-06	0.011045832	-0.16290711	0.011046222	-0.16290741	-5.2355403e-08	1.7010979e-07	-0.11149083	-1.0781034	1.6927095	0.054576647	-1.6927096	-0.054576189	0.22899787	-2.2325033	2.0290655	1	0.21653103	0.13474034	0.22956617	1.9428065	1.8114765	1.5866373	1.8114768	1.5866366	0.016485623	1.5714052	1.1101293	4.3976622e-06	-2.4746196e-06	0.099827394	1.1080577	0.099827289	1.1080625	3.8210971e-07	3.819251e-07	1.1204614	0.72123056	-1.5336449	-0.5960437	1.5336431	0.59604064	-0.28537901	2.4926077	0.029114856	0.2088987	0.055794203	0.17330705	0.346207	0.17330679	0.34620719	0.016575036	0.33839863	0.035939103	3.9393327	5.4130844	5.1540889	5.0651748	5.1540885	5.0651737	4.3095663	6.1019567	5.2811598	2.7289835	3.3707725	5.0593574	3.3707702	5.059361	3.7415336	3.217689	-74.429535	R0:S0:1	-56.370703	uncorrelated	51514b8	 1.39e+02	 5.45e-03	 1.00e+06	2022-04-18@12:45
2x2_2C_8b_C2v_L	0	14	2.7536621	-0.0052871293	-3.2462125	-3.9268319	-0.10060201	-3.9268349	-0.10060087	0.13925835	-3.5295188	9.8	-2.6700081e-08	1.9339096e-06	0.01100881	-0.16277588	0.011010606	-0.16277621	-9.494437e-07	-1.4403146e-06	-0.11153295	-1.0797584	1.6959551	0.054519494	-1.6959562	-0.05451995	0.22865616	-2.2364416	2.0290655	1	0.21653103	0.13476948	0.22680197	1.9430365	1.8120425	1.5895534	1.8120425	1.5895504	0.01636011	1.5730575	1.1102653	-1.3950274e-07	-5.0560464e-06	0.099232119	1.1044414	0.099229373	1.1044428	7.6990765e-06	4.4107835e-06	1.1164528	0.71986843	-1.5320865	-0.59352952	1.5320874	0.59353004	-0.28467348	2.4896992	0.029120034	0.20670725	0.055584487	0.17286706	0.3447676	0.17286702	0.34477005	0.01644788	0.33756302	0.03590902	3.9239385	5.4164334	5.1550767	5.0618203	5.1550751	5.0618212	4.3105156	6.0951553	5.2814889	2.7277805	3.373274	5.0504312	3.3732744	5.0504373	3.7405295	3.2208361	-74.53863	R0:S0:1	-56.370703	uncorrelated	51514b8	 1.39e+02	 2.95e-04	 2.93e-03	2022-04-18@12:49
2x2_2C_8b_C2v_L	0	14	2.7317759	-0.0058782161	-3.2462798	-3.9268667	-0.10071979	-3.9268698	-0.10071996	0.13931134	-3.5293276	9.8	-1.9331496e-07	-2.1152829e-07	0.011128241	-0.1624102	0.011128119	-0.16240979	-3.9809544e-07	-2.2928603e-07	-0.11145282	-1.0799081	1.6962002	0.055227837	-1.6962006	-0.055228613	0.22829805	-2.2367397	2.033269	1	0.21543793	0.13478594	0.22773992	1.9429618	1.8118878	1.5888914	1.8118875	1.5888928	0.016343831	1.5725781	1.110235	2.0473507e-06	1.2848913e-07	0.09959441	1.1045619	0.099594492	1.1045536	2.5223409e-06	4.9546311e-07	1.1181274	0.72029812	-1.532595	-0.59752646	1.5325976	0.59753132	-0.28430954	2.4908712	0.029122896	0.20748	0.055651794	0.17298335	0.34465206	0.17298364	0.34465137	0.016431565	0.33780419	0.035926053	3.9287868	5.415673	5.1545311	5.0650445	5.154531	5.0650463	4.3104839	6.0970692	5.2811772	2.7276851	3.3720696	5.0525499	3.3720739	5.0525436	3.740347	3.2195114	-74.540517	R0:S0:1	-56.545793	uncorrelated	51514b8	 1.40e+02	 5.35e-03	 1.00e+06	2022-04-18@12:54
2x2_2C_8b_C2v_L	0	14	2.7317759	-0.0058430839	-3.2549907	-3.9411408	-0.10047568	-3.9411376	-0.10047622	0.13861679	-3.5422035	9.8	6.1963405e-06	1.7136115e-06	0.011114984	-0.16237636	0.011114011	-0.16237642	6.0971821e-06	-1.6481822e-06	-0.11153027	-1.0815589	1.6995325	0.055187163	-1.6995318	-0.055184017	0.227841	-2.240115	2.033269	1	0.21543793	0.13481011	0.2253804	1.9431752	1.8124152	1.5914274	1.8124157	1.5914306	0.016216101	1.5740329	1.1103522	-7.2354803e-05	-4.5100059e-06	0.099024377	1.1015381	0.099027353	1.1015473	-3.3577307e-05	-2.8841841e-07	1.1147119	0.71907803	-1.531185	-0.59529484	1.5311808	0.5952808	-0.28352405	2.4882566	0.029127206	0.20562319	0.055456714	0.1725719	0.34340556	0.17257145	0.3434033	0.016302311	0.33706624	0.035899747	3.9155441	5.4185685	5.1553194	5.0619869	5.1553208	5.0619801	4.3111904	6.0910963	5.2814248	2.7266508	3.3742887	5.0448225	3.3742838	5.0448215	3.7395205	3.2223464	-74.648283	R0:S0:1	-56.545793	uncorrelated	51514b8	 1.39e+02	 2.83e-04	 2.73e-03	2022-04-18@12:58
2x2_2C_8b_C2v_L	0	14	2.7098897	-0.0063643027	-3.2550406	-3.9411586	-0.1005475	-3.9411559	-0.10054809	0.13868339	-3.5422022	9.8	5.1589148e-06	-6.7733393e-07	0.011227573	-0.16199666	0.011227866	-0.16199669	-1.8759479e-06	4.8896953e-07	-0.11143746	-1.0817637	1.6997237	0.055889485	-1.6997228	-0.055891883	0.22751808	-2.2404174	2.0374724	1	0.21434483	0.13482321	0.22622532	1.9430987	1.8122845	1.5906937	1.8122841	1.5906962	0.016205047	1.5736119	1.1103236	-6.2382938e-05	6.2924897e-07	0.09935799	1.1016162	0.099357497	1.1016047	1.1793791e-05	8.7442344e-07	1.116199	0.71953761	-1.5316024	-0.599254	1.5316051	0.59926369	-0.28322349	2.4892781	0.029129458	0.20629661	0.055525951	0.17266814	0.34335037	0.17266847	0.34334871	0.016291124	0.33727843	0.03591467	3.9200906	5.4178001	5.1546982	5.0652957	5.1546988	5.0652984	4.3111441	6.0927665	5.2811837	2.7266139	3.3730916	5.0469912	3.3730972	5.0469806	3.7393733	3.2211688	-74.650062	R0:S0:1	-56.720883	uncorrelated	51514b8	 1.40e+02	 5.47e-03	 1.00e+06	2022-04-18@13:02
2x2_2C_8b_C2v_L	0	14	2.7098897	-0.0063267494	-3.2637603	-3.9541835	-0.10023292	-3.9541761	-0.10023239	0.13849134	-3.5584032	9.8	1.2268358e-05	-4.4576811e-07	0.011207305	-0.16189481	0.011206509	-0.16189521	6.9516627e-06	8.9863928e-06	-0.11150822	-1.0834146	1.702776	0.055895801	-1.7027759	-0.055894531	0.22736102	-2.2448285	2.0374724	1	0.21434483	0.13485656	0.22361535	1.9433254	1.812808	1.5933714	1.8128078	1.5933786	0.016101075	1.5752398	1.110454	-0.00014377117	6.0836206e-06	0.09880082	1.098254	0.098805282	1.0982568	-4.4894918e-05	-1.6893586e-05	1.1124618	0.7181724	-1.5301455	-0.59711108	1.5301441	0.59710476	-0.28269495	2.486541	0.029135334	0.20421415	0.055318926	0.17226124	0.34201253	0.17226147	0.34200713	0.016185802	0.33644919	0.035887884	3.9053759	5.4211095	5.1556849	5.0621683	5.1556894	5.0621604	4.3123371	6.0859873	5.2815794	2.7253201	3.3754101	5.0385556	3.3754067	5.0385422	3.7381746	3.2241009	-74.760041	R0:S0:1	-56.720883	uncorrelated	51514b8	 1.40e+02	 2.95e-04	 2.95e-03	2022-04-18@13:06
2x2_2C_8b_C2v_L	0	14	2.6880034	-0.0068999973	-3.2638023	-3.9541948	-0.1002913	-3.954188	-0.10029397	0.1384566	-3.558254	9.8	1.0142312e-05	-2.1215595e-06	0.011318908	-0.16149288	0.011319149	-0.16149278	-3.0523987e-06	1.0658582e-06	-0.1114211	-1.08362	1.7029995	0.056599203	-1.7029977	-0.056604677	0.22696954	-2.2451045	2.0416759	1	0.21325172	0.13487016	0.22461172	1.9432405	1.8126631	1.592504	1.8126619	1.5925125	0.016090143	1.5747718	1.1104217	-0.00012478965	2.8172472e-06	0.099151127	1.098451	0.099151238	1.0984188	1.9069363e-05	5.4885216e-07	1.114163	0.71868768	-1.5306066	-0.60117067	1.5306148	0.6011946	-0.28234566	2.4876641	0.029137671	0.20501932	0.055395698	0.17236805	0.3420249	0.17236915	0.34201927	0.016174785	0.33668573	0.035904212	3.9106704	5.4202046	5.1550089	5.0657028	5.1550114	5.0657085	4.3122618	6.0878531	5.2813339	2.7253062	3.3740736	5.0411205	3.3740889	5.0410886	3.738028	3.2228141	-74.761499	R0:S0:1	-56.895972	uncorrelated	51514b8	 1.41e+02	 5.06e-03	 1.00e+06	2022-04-18@13:10
2x2_2C_8b_C2v_L	0	14	2.6880034	-0.0067733319	-3.271217	-3.9662822	-0.099894157	-3.9662849	-0.099893262	0.13804067	-3.5734939	9.8	1.9787799e-05	-8.6019758e-07	0.011291422	-0.16132331	0.011290994	-0.16132222	2.2990761e-06	2.8035843e-06	-0.11147884	-1.0851072	1.7058537	0.056626523	-1.7058553	-0.056626774	0.22671848	-2.2491995	2.0416759	1	0.21325172	0.13490081	0.22202011	1.9434506	1.8131424	1.5948163	1.8131408	1.5948257	0.015988063	1.576299	1.1105445	-0.00024010393	2.6209251e-07	0.098629006	1.095302	0.098631722	1.0952714	-9.572563e-06	-2.6091903e-06	1.1105199	0.71740895	-1.5292732	-0.59938258	1.5292849	0.59938728	-0.28177419	2.4850761	0.029143086	0.2028902	0.055203649	0.17199455	0.34088587	0.17199606	0.34088164	0.016071286	0.33590409	0.035878592	3.8964566	5.4233243	5.1558719	5.0630772	5.1558741	5.0630712	4.3133555	6.0814663	5.2817441	2.7240485	3.3761491	5.0335431	3.3761676	5.0335141	3.7368987	3.2255858	-74.862114	R0:S0:1	-56.895972	uncorrelated	51514b8	 1.40e+02	 2.67e-04	 2.83e-03	2022-04-18@13:14
2x2_2C_8b_C2v_L	0	14	2.6661172	-0.0073623621	-3.2712729	-3.9663133	-0.099950838	-3.9663167	-0.099952219	0.13804482	-3.5732805	9.8	1.789845e-05	-1.548213e-06	0.011389186	-0.16099077	0.011389012	-0.16099002	-1.6779145e-06	3.1411599e-07	-0.1114095	-1.0852717	1.7060676	0.057236022	-1.7060678	-0.057237365	0.22635665	-2.249449	2.0458793	1	0.21215862	0.13491249	0.22321296	1.9433604	1.8129984	1.5937671	1.8129973	1.5937762	0.015985079	1.5758131	1.1105077	-0.00022359136	-8.2826562e-07	0.098953224	1.0958063	0.098955021	1.0957753	1.5062897e-05	3.1206916e-06	1.112382	0.71796569	-1.5297287	-0.60306344	1.5297381	0.60307127	-0.2814756	2.4862321	0.029145058	0.20387772	0.055285194	0.17209985	0.34105574	0.17210088	0.34105111	0.016068282	0.33615049	0.035895369	3.9026034	5.4222614	5.1551321	5.066523	5.155133	5.0665192	4.3132715	6.0834092	5.2816124	2.7240939	3.3747382	5.036631	3.3747571	5.0366031	3.7367651	3.2242593	-74.863513	R0:S0:1	-57.071062	uncorrelated	51514b8	 1.41e+02	 4.80e-03	 1.00e+06	2022-04-18@13:19
2x2_2C_8b_C2v_L	0	14	2.6661172	-0.0072680331	-3.2786115	-3.9782274	-0.099557542	-3.9782275	-0.099558366	0.13742291	-3.5868046	9.8	4.1656086e-06	-1.3917252e-06	0.011350443	-0.16087042	0.01134926	-0.16087018	4.284753e-07	1.1454937e-06	-0.11146696	-1.0867339	1.7089229	0.057133387	-1.7089235	-0.057132702	0.22597608	-2.2530107	2.0458793	1	0.21215862	0.13493841	0.22093697	1.9435539	1.8134504	1.5958767	1.8134498	1.5958803	0.01588336	1.5772172	1.1106216	-5.1336523e-05	2.6684939e-06	0.098407225	1.0930358	0.098409555	1.0930276	-2.5094726e-06	-2.2100296e-06	1.1089963	0.71682257	-1.5284891	-0.60079606	1.5284926	0.60079504	-0.28083145	2.4837717	0.029149652	0.20203278	0.055108235	0.17174724	0.34007071	0.17174776	0.34006879	0.015965247	0.33542927	0.035870667	3.8899124	5.4250312	5.1559401	5.0638245	5.1559413	5.0638209	4.3141265	6.0775714	5.2820788	2.723024	3.3766645	5.0298435	3.3766696	5.0298348	3.7358312	3.2269174	-74.959239	R0:S0:1	-57.071062	uncorrelated	51514b8	 1.41e+02	 2.49e-04	 2.66e-03	2022-04-18@13:23
2x2_2C_8b_C2v_L	0	14	2.644231	-0.0077738362	-3.2786697	-3.9782775	-0.099629192	-3.9782777	-0.099629216	0.13746918	-3.586705	9.8	4.036215e-06	-1.9148789e-07	0.011436135	-0.16053499	0.011436037	-0.16053507	5.1708334e-08	1.2807718e-07	-0.11138575	-1.0869218	1.7091083	0.05771729	-1.7091084	-0.057716685	0.22566329	-2.2532784	2.0500828	1	0.21106552	0.13495047	0.22177881	1.9434821	1.8133359	1.5952513	1.8133358	1.5952522	0.015873672	1.5768327	1.1105963	-5.0934455e-05	-4.114263e-07	0.09871515	1.0930927	0.098715671	1.0930919	9.5856923e-07	4.9685969e-07	1.1104039	0.71725626	-1.5288548	-0.60412375	1.5288552	0.60412077	-0.28054353	2.4847059	0.029151715	0.20272963	0.0551734	0.17183184	0.34002521	0.17183186	0.34002485	0.015955544	0.33562519	0.03588412	3.8942924	5.4243054	5.1554035	5.0666932	5.1554035	5.0666904	4.314074	6.0791147	5.2818817	2.7230128	3.3756114	5.0317649	3.3756128	5.0317638	3.7357066	3.2258531	-74.960857	R0:S0:1	-57.246152	uncorrelated	51514b8	 1.42e+02	 5.62e-03	 1.00e+06	2022-04-18@13:27
2x2_2C_8b_C2v_L	0	14	2.644231	-0.0076724085	-3.2880945	-3.9929474	-0.09941897	-3.9929584	-0.099419869	0.13692274	-3.6007199	9.8	-2.7047994e-06	1.0709559e-07	0.011456151	-0.16048664	0.011458312	-0.16048721	-1.5368505e-06	-1.9198224e-06	-0.11145665	-1.0887458	1.7125192	0.057709586	-1.7125188	-0.057712094	0.22528046	-2.2570153	2.0500828	1	0.21106552	0.13497944	0.21911281	1.9437085	1.8138808	1.5981837	1.8138822	1.5981809	0.015740551	1.5783665	1.1107264	3.3505068e-05	-5.8456196e-07	0.098057737	1.0896063	0.09805377	1.0896144	9.2039123e-06	3.4249871e-06	1.1066003	0.7159375	-1.5273799	-0.60173224	1.5273731	0.60173951	-0.27977016	2.4819605	0.029156845	0.2005905	0.054966636	0.17140793	0.33852102	0.17140671	0.33852145	0.015821025	0.33483719	0.035855904	3.8794615	5.4275704	5.1564228	5.0631825	5.1564196	5.0631895	4.3149052	6.0727943	5.2821195	2.7218436	3.3781074	5.0229883	3.3781017	5.0229962	3.7347944	3.2288488	-75.074698	R0:S0:1	-57.246152	uncorrelated	51514b8	 1.42e+02	 3.05e-04	 2.79e-03	2022-04-18@13:31
2x2_2C_8b_C2v_L	0	14	2.6223448	-0.0083693575	-3.2881396	-3.9929521	-0.099509808	-3.9929624	-0.09951016	0.13701954	-3.6006621	9.8	-2.2493495e-06	2.0121411e-07	0.01153961	-0.16007726	0.011539919	-0.16007766	4.8398106e-07	-2.9410407e-07	-0.11137873	-1.0888846	1.7127379	0.05842344	-1.71274	-0.058423868	0.2249341	-2.2573347	2.0542862	1	0.20997241	0.13499251	0.22031791	1.9436197	1.8137379	1.5973288	1.8137381	1.5973281	0.015737496	1.5778857	1.1106913	2.9107166e-05	9.6516765e-08	0.098505085	1.0897838	0.098504342	1.0897863	-3.4083876e-06	-2.1836689e-07	1.1085368	0.71647479	-1.5278274	-0.60585023	1.5278267	0.60585157	-0.27947147	2.4831271	0.029159066	0.20161049	0.055046868	0.17151331	0.33851251	0.1715131	0.33851272	0.015818102	0.33508281	0.035872781	3.8855716	5.4265402	5.1557144	5.066808	5.1557129	5.0668088	4.3148587	6.074709	5.2818639	2.7218721	3.376736	5.0255571	3.376735	5.0255606	3.7346302	3.2275164	-75.076484	R0:S0:1	-57.421241	uncorrelated	51514b8	 1.43e+02	 6.41e-03	 1.00e+06	2022-04-18@13:35
2x2_2C_8b_C2v_L	0	14	2.6223448	-0.0082911579	-3.298817	-4.0103389	-0.099289645	-4.0103324	-0.099289932	0.13644595	-3.6154135	9.8	-8.8407404e-06	1.8265974e-06	0.011556133	-0.1600927	0.011555701	-0.16009302	1.9644322e-06	3.4743739e-06	-0.11146823	-1.0908583	1.7166772	0.058436512	-1.7166765	-0.058436362	0.22462384	-2.2612781	2.0542862	1	0.20997241	0.13501844	0.21780339	1.9438506	1.8143517	1.5999958	1.8143519	1.5999952	0.015614691	1.579456	1.1108183	0.00011477167	4.5305299e-07	0.097810083	1.0865589	0.09781144	1.0865698	-1.734582e-05	-7.7577744e-06	1.1047616	0.71516939	-1.5261679	-0.60353862	1.5261639	0.60353787	-0.27879814	2.4802881	0.029163576	0.19959273	0.054835621	0.17103026	0.33715707	0.17103004	0.33715634	0.015693804	0.33427399	0.03584381	3.8714139	5.4296636	5.1564063	5.0635953	5.1564083	5.0635976	4.3156558	6.0682175	5.2823341	2.7207427	3.379122	5.0174292	3.3791132	5.0174326	3.733745	3.2305556	-75.206148	R0:S0:1	-57.421241	uncorrelated	51514b8	 1.42e+02	 3.04e-04	 2.95e-03	2022-04-18@13:40
2x2_2C_8b_C2v_L	0	14	2.6004586	-0.0089323392	-3.2988347	-4.0102607	-0.099436878	-4.0102539	-0.099437355	0.13656324	-3.6153262	9.8	-9.2413207e-06	1.4176688e-07	0.011657234	-0.15969216	0.011657288	-0.15969271	2.349444e-07	3.6351249e-07	-0.11137063	-1.0910346	1.7168932	0.059152312	-1.716892	-0.059152856	0.22426787	-2.2616	2.0584897	1	0.20887931	0.13503478	0.21868854	1.9437774	1.8142119	1.5995416	1.8142124	1.5995378	0.015598032	1.5790283	1.1107926	0.00012242966	2.637922e-06	0.098218378	1.0863732	0.098217502	1.0863874	-5.9782502e-06	-3.1943517e-06	1.1063245	0.71559096	-1.5266238	-0.60745474	1.5266186	0.60745613	-0.27843563	2.481351	0.02916642	0.20035427	0.054901967	0.17113639	0.33693575	0.17113593	0.33693708	0.015677305	0.33449377	0.035859448	3.8758706	5.4289881	5.1559444	5.0666521	5.155945	5.0666571	4.3156363	6.069934	5.2819911	2.720671	3.3780594	5.018952	3.3780489	5.0189624	3.7335715	3.2293659	-75.207723	R0:S0:1	-57.596331	uncorrelated	51514b8	 1.43e+02	 3.72e-03	 1.00e+06	2022-04-18@13:44
2x2_2C_8b_C2v_L	0	14	2.6004586	-0.0087580759	-3.3008848	-4.0135988	-0.09861494	-4.01359	-0.098613153	0.13631973	-3.6320743	9.8	-5.1224109e-06	1.2307449e-06	0.011544673	-0.15930798	0.011544816	-0.15930794	5.7096241e-07	-1.0436503e-07	-0.11139401	-1.0917614	1.7179976	0.059006585	-1.7179951	-0.059005501	0.22412536	-2.2661786	2.0584897	1	0.20887931	0.13507202	0.21686132	1.9438952	1.8144013	1.6000587	1.8144021	1.6000537	0.015571672	1.5802495	1.110886	6.7483812e-05	-1.0419595e-06	0.097889215	1.0846929	0.097888318	1.0847101	-5.081323e-06	-6.8946301e-07	1.1036582	0.71472969	-1.5259971	-0.60611197	1.5259905	0.60610591	-0.27819608	2.4796431	0.029172931	0.19873246	0.054794119	0.17098953	0.33688885	0.17098881	0.33689157	0.015649944	0.33385405	0.035845296	3.8658856	5.4312922	5.1566609	5.0658376	5.156661	5.06584	4.3172006	6.0645904	5.2829549	2.7193555	3.3787881	5.0156525	3.3787774	5.0156663	3.7320298	3.231153	-75.261847	R0:S0:1	-57.596331	uncorrelated	51514b8	 1.43e+02	 1.78e-03	 2.77e-03	2022-04-18@13:48
2x2_2C_8b_C2v_L	0	14	2.6004586	-0.0092184199	-3.3047481	-4.0184409	-0.098797211	-4.0184381	-0.098796136	0.13591911	-3.6289653	9.8	-1.2890407e-05	2.095745e-06	0.011648495	-0.15914993	0.011647772	-0.15915089	-2.7979745e-06	-4.930119e-06	-0.11137129	-1.0924247	1.7190998	0.059500713	-1.7191002	-0.05949911	0.2236547	-2.2654396	2.0584897	1	0.20887931	0.13506615	0.21783249	1.9438491	1.8144279	1.5994991	1.8144287	1.5994881	0.015538799	1.579861	1.1108544	0.00016936302	-4.7137358e-06	0.098023303	1.0849072	0.098021285	1.0849326	1.5268612e-05	7.2401044e-06	1.105069	0.71519671	-1.526013	-0.60878958	1.5260075	0.60878052	-0.27777107	2.4802369	0.029171832	0.19957358	0.05483518	0.17095782	0.33685956	0.17095711	0.33686668	0.015616778	0.33405653	0.035853047	3.8711141	5.4301874	5.1557509	5.0683551	5.1557486	5.0683577	4.3165134	6.0662839	5.2826519	2.7197719	3.3779398	5.0177098	3.377927	5.0177409	3.7324436	3.2304415	-75.284809	R0:S0:1	-57.596331	uncorrelated	51514b8	 1.43e+02	 5.92e-05	 1.21e-03	2022-04-18@13:52
2x2_2C_8b_C2v_L	0	14	2.5785724	-0.0091043406	-3.3047794	-4.0184658	-0.098734916	-4.0184631	-0.098733417	0.13580766	-3.62899	9.8	-1.2293792e-05	1.5250752e-06	0.011665823	-0.15927215	0.011666315	-0.15927255	5.9549489e-07	-3.4594225e-07	-0.11141892	-1.0924058	1.7190717	0.059473589	-1.7190715	-0.059471902	0.22375943	-2.2654083	2.0626931	1	0.20778621	0.13506173	0.21823794	1.9438226	1.8143874	1.5984218	1.8143882	1.5984133	0.015568832	1.5797298	1.1108299	0.00016342286	1.1863578e-07	0.097968157	1.0860957	0.097966317	1.0861216	-8.0697825e-06	-1.9552679e-06	1.1056303	0.71539028	-1.5261427	-0.6091832	1.5261352	0.60917544	-0.27797944	2.4805127	0.029171008	0.19985158	0.054858973	0.17098419	0.33754061	0.17098336	0.33754544	0.015646709	0.33412349	0.035858343	3.873538	5.4296586	5.1552846	5.0692369	5.1552837	5.0692403	4.3164994	6.0667559	5.2828876	2.7198839	3.3773215	5.0203365	3.377306	5.0203614	3.7324573	3.2300543	-75.284909	R0:S0:1	-57.771421	uncorrelated	51514b8	 1.44e+02	 5.36e-03	 1.00e+06	2022-04-18@13:56
2x2_2C_8b_C2v_L	0	14	2.5785724	-0.0089844635	-3.3121524	-4.0306415	-0.098677979	-4.0306322	-0.098677087	0.13586075	-3.6461805	9.8	-1.9934774e-06	9.1657103e-07	0.011602926	-0.1591747	0.01160254	-0.15917527	3.6408011e-06	9.3658312e-06	-0.11138763	-1.0939679	1.7220359	0.059286841	-1.7220347	-0.059286061	0.22361737	-2.2701379	2.0626931	1	0.20778621	0.13511308	0.21419864	1.9441257	1.814959	1.603903	1.8149596	1.6039041	0.01541093	1.5817231	1.1110273	3.0535633e-05	5.1708259e-06	0.097406529	1.0802793	0.097409174	1.0802957	-2.9181514e-05	-1.6591665e-05	1.0998027	0.71337737	-1.5245436	-0.60459083	1.5245369	0.60458565	-0.27719064	2.4770417	0.029180186	0.19667472	0.054583884	0.17055843	0.33461916	0.17055797	0.33461681	0.0154882	0.33309149	0.035819449	3.8504233	5.4348914	5.1579257	5.0621386	5.1579291	5.0621371	4.3179857	6.0585712	5.2830105	2.7180537	3.3815789	5.0049242	3.3815666	5.0049259	3.7311229	3.2340436	-75.391767	R0:S0:1	-57.771421	uncorrelated	51514b8	 1.43e+02	 4.44e-04	 2.99e-03	2022-04-18@14:00
2x2_2C_8b_C2v_L	0	14	2.5566862	-0.010046913	-3.3121897	-4.0306482	-0.098835197	-4.0306389	-0.098836734	0.13603899	-3.6459228	9.8	-3.9999382e-06	-1.3529958e-06	0.011756363	-0.15857619	0.011756581	-0.15857599	-1.2649883e-06	1.4277165e-06	-0.11134537	-1.0941088	1.7222985	0.060315987	-1.7222964	-0.060320272	0.22309599	-2.2704955	2.0668966	1	0.2066931	0.13512679	0.21611477	1.9439908	1.8147832	1.6027007	1.8147826	1.6027028	0.015403862	1.5810455	1.1109741	5.5545994e-05	5.0716213e-06	0.097964329	1.0804357	0.097963467	1.0804234	3.5050531e-06	-3.6319642e-06	1.1030277	0.71421184	-1.5250656	-0.61045146	1.5250677	0.61047051	-0.27673517	2.4786689	0.029182454	0.19831461	0.054705734	0.17068577	0.33459548	0.17068627	0.33459323	0.015481401	0.3334405	0.035842241	3.8602305	5.4331802	5.1568584	5.0674665	5.1568606	5.0674762	4.3178908	6.0612783	5.2823734	2.7182177	3.3795989	5.0086032	3.3796011	5.0085899	3.7309015	3.2322013	-75.393715	R0:S0:1	-57.94651	uncorrelated	51514b8	 1.44e+02	 3.91e-03	 1.00e+06	2022-04-18@14:05
2x2_2C_8b_C2v_L	0	14	2.5566862	-0.0098087304	-3.3171379	-4.0393819	-0.098089761	-4.0393772	-0.098088411	0.13506986	-3.6587563	9.8	2.2486113e-06	1.6654691e-07	0.011669472	-0.15837354	0.011670451	-0.15837376	4.1105441e-06	6.0765838e-06	-0.11140979	-1.0952547	1.7244697	0.060175315	-1.7244672	-0.060171915	0.22265903	-2.2738174	2.0668966	1	0.2066931	0.13514465	0.21474793	1.9440994	1.8150671	1.602556	1.8150688	1.6025548	0.015356678	1.5820631	1.111042	-2.6303879e-05	3.9550122e-06	0.097525205	1.0796011	0.09752625	1.0796283	-2.8030748e-05	-1.1137692e-05	1.1008154	0.71359989	-1.5242651	-0.60935693	1.5242528	0.60934027	-0.27629389	2.4769858	0.02918552	0.19705794	0.054605474	0.1704547	0.33493331	0.17045326	0.33493261	0.015432735	0.33290519	0.035827611	3.8530867	5.4346707	5.1567902	5.0673699	5.1567912	5.0673653	4.3186603	6.0568729	5.2833752	2.7173884	3.3800036	5.0073731	3.3799875	5.0073851	3.7299826	3.2339032	-75.467934	R0:S0:1	-57.94651	uncorrelated	51514b8	 1.44e+02	 1.40e-04	 2.50e-03	2022-04-18@14:09
2x2_2C_8b_C2v_L	0	14	2.5348	-0.010128772	-3.3171899	-4.0394564	-0.09815373	-4.0394516	-0.09815452	0.13513922	-3.6586817	9.8	5.1095623e-07	-1.586615e-06	0.011725916	-0.15820047	0.011726157	-0.15820037	-4.5378801e-06	-4.080337e-06	-0.11135093	-1.0954205	1.7246017	0.060440039	-1.7246	-0.060444284	0.22251469	-2.2740056	2.0711	1	0.2056	0.13515315	0.21527342	1.9440515	1.8150102	1.6023337	1.8150097	1.6023334	0.015357691	1.5818562	1.111031	-9.8667915e-06	1.7205744e-07	0.097640036	1.0795848	0.097637389	1.0795686	2.954696e-05	8.3012984e-06	1.1015768	0.71388948	-1.5244408	-0.61084091	1.5244451	0.61085791	-0.27617982	2.477493	0.029186969	0.19752348	0.054649443	0.17049701	0.33485487	0.17049745	0.33485529	0.015433904	0.33301239	0.035835081	3.8556259	5.434286	5.1565755	5.0687205	5.1565749	5.0687282	4.3186336	6.0577279	5.2833005	2.7174144	3.3794659	5.0082429	3.3794738	5.0082347	3.729939	3.2333312	-75.46929	R0:S0:1	-58.1216	uncorrelated	51514b8	 1.45e+02	 5.82e-03	 1.00e+06	2022-04-18@14:13
2x2_2C_8b_C2v_L	0	14	2.5348	-0.010040702	-3.3256143	-4.0546843	-0.098004715	-4.0546914	-0.098002137	0.1348596	-3.6739012	9.8	1.4156733e-05	4.7473814e-07	0.011729109	-0.15812179	0.011727872	-0.15812091	4.2667934e-07	5.304464e-06	-0.11137144	-1.0970631	1.7281874	0.060475486	-1.728191	-0.060472911	0.22224052	-2.2781485	2.0711	1	0.2056	0.13519217	0.21220488	1.944303	1.815551	1.6058649	1.8155493	1.6058722	0.015219645	1.5834557	1.1111788	-0.00019429249	-2.880156e-06	0.097056487	1.0755055	0.097060721	1.0754819	2.4779357e-06	-2.9088738e-06	1.0971053	0.71231148	-1.5229963	-0.60826862	1.5230088	0.60826012	-0.27541954	2.4746807	0.029193871	0.19504716	0.054419843	0.17008037	0.33296132	0.17008188	0.33295892	0.015294785	0.33217865	0.035805714	3.8382822	5.4381874	5.157979	5.0644072	5.1579797	5.0643924	4.3196832	6.051087	5.2836849	2.715914	3.3823751	4.9978705	3.3823938	4.9978525	3.7288691	3.2364498	-75.586745	R0:S0:1	-58.1216	uncorrelated	51514b8	 1.45e+02	 3.55e-04	 2.86e-03	2022-04-18@14:17
