Number of OpenMP threads = 4
!!!!!!!!!!!!!!!!!!!!!!!!!!!!! - Fading to Sr2CuO2Cl2 - !!!!!!!!!!!!!!!!!!!!!!!!!!!!!
reading data file /home/theod/code_pyqcm/simulations/cdmft_max_supra_sid.tsv, line 1
111 columns read
----->  D  =  0.0
----->  U  =  14.0
----->  e  =  2.3
----->  eb1_1  =  -0.006655534
----->  eb2_1  =  -3.3502828
----->  eb3_1  =  -4.1133163
----->  eb4_1  =  -0.10235806
----->  eb5_1  =  -4.113222
----->  eb6_1  =  -0.1023468
----->  eb7_1  =  0.14108001
----->  eb8_1  =  -3.7537133
----->  mu  =  9.68
----->  sb1_1  =  -0.0001012231
----->  sb2_1  =  7.5002141e-06
----->  sb3_1  =  0.011771903
----->  sb4_1  =  -0.16264369
----->  sb5_1  =  0.011773954
----->  sb6_1  =  -0.16264057
----->  sb7_1  =  1.0013529e-05
----->  sb8_1  =  -2.0059213e-06
----->  tb1_1  =  -0.11240159
----->  tb2_1  =  -1.1061747
----->  tb3_1  =  1.7476608
----->  tb4_1  =  0.057892245
----->  tb5_1  =  -1.7476438
----->  tb6_1  =  -0.057886658
----->  tb7_1  =  0.22749261
----->  tb8_1  =  -2.3061557
----->  tpd  =  2.1
----->  tpp  =  1.0
----->  tppp  =  0.2

******************************* CDMFT procedure *******************************

minimization method =  CG
mixing state =  1
frequency grid type =  sharp
fictitious inverse temperature =  50
frequency cutoff =  2.0
--------------------------------------------------------------------------------

CDMFT iteration 1, distance =  1.66e+02, diff param =  6.32e-02
73 minimization steps, time(MIN)/time(ED)=0.00206
sb1_1     =  0.0000	sb2_1     =  0.0000	sb3_1     =  0.0100	sb4_1     = -0.1826	sb5_1     =  0.0100	
sb6_1     = -0.1826	sb7_1     = -0.0000	sb8_1     = -0.0000	eb1_1     =  0.0073	eb2_1     = -3.2414	
eb3_1     = -3.9501	eb4_1     = -0.1161	eb5_1     = -3.9500	eb6_1     = -0.1161	eb7_1     =  0.1568	
eb8_1     = -3.5868	tb1_1     = -0.1179	tb2_1     = -1.1038	tb3_1     =  1.7414	tb4_1     =  0.0429	
tb5_1     = -1.7414	tb6_1     = -0.0429	tb7_1     =  0.2522	tb8_1     = -2.3030	

CDMFT iteration 2, distance =  1.92e+02, diff param =  1.09e-02, diff hybrid =  9.64e-02
43 minimization steps, time(MIN)/time(ED)=0.00168
sb1_1     =  0.0000	sb2_1     = -0.0000	sb3_1     =  0.0064	sb4_1     = -0.1959	sb5_1     =  0.0064	
sb6_1     = -0.1959	sb7_1     = -0.0000	sb8_1     = -0.0000	eb1_1     =  0.0128	eb2_1     = -3.2264	
eb3_1     = -3.9501	eb4_1     = -0.1356	eb5_1     = -3.9500	eb6_1     = -0.1356	eb7_1     =  0.1719	
eb8_1     = -3.5949	tb1_1     = -0.1194	tb2_1     = -1.0965	tb3_1     =  1.7353	tb4_1     =  0.0233	
tb5_1     = -1.7353	tb6_1     = -0.0233	tb7_1     =  0.2660	tb8_1     = -2.2952	

CDMFT iteration 3, distance =  1.79e+02, diff param =  1.70e-02, diff hybrid =  4.50e-02
74 minimization steps, time(MIN)/time(ED)=0.00173
sb1_1     = -0.0000	sb2_1     =  0.0000	sb3_1     =  0.0080	sb4_1     = -0.1889	sb5_1     =  0.0080	
sb6_1     = -0.1889	sb7_1     =  0.0000	sb8_1     =  0.0000	eb1_1     =  0.0051	eb2_1     = -3.1504	
eb3_1     = -3.9329	eb4_1     = -0.1317	eb5_1     = -3.9329	eb6_1     = -0.1317	eb7_1     =  0.1732	
eb8_1     = -3.6024	tb1_1     = -0.1181	tb2_1     = -1.0878	tb3_1     =  1.7365	tb4_1     =  0.0302	
tb5_1     = -1.7365	tb6_1     = -0.0302	tb7_1     =  0.2587	tb8_1     = -2.3032	

CDMFT iteration 4, distance =  1.82e+02, diff param =  1.87e-03, diff hybrid =  2.69e-02
25 minimization steps, time(MIN)/time(ED)=0.00148
sb1_1     =  0.0000	sb2_1     = -0.0000	sb3_1     =  0.0080	sb4_1     = -0.1902	sb5_1     =  0.0080	
sb6_1     = -0.1902	sb7_1     = -0.0000	sb8_1     = -0.0000	eb1_1     =  0.0074	eb2_1     = -3.1522	
eb3_1     = -3.9327	eb4_1     = -0.1297	eb5_1     = -3.9327	eb6_1     = -0.1297	eb7_1     =  0.1705	
eb8_1     = -3.5966	tb1_1     = -0.1186	tb2_1     = -1.0873	tb3_1     =  1.7346	tb4_1     =  0.0300	
tb5_1     = -1.7346	tb6_1     = -0.0300	tb7_1     =  0.2604	tb8_1     = -2.2996	

CDMFT iteration 5, distance =  1.84e+02, diff param =  1.57e-03, diff hybrid =  8.72e-03
24 minimization steps, time(MIN)/time(ED)=0.00132
sb1_1     = -0.0000	sb2_1     = -0.0000	sb3_1     =  0.0075	sb4_1     = -0.1911	sb5_1     =  0.0075	
sb6_1     = -0.1911	sb7_1     =  0.0000	sb8_1     = -0.0000	eb1_1     =  0.0093	eb2_1     = -3.1572	
eb3_1     = -3.9348	eb4_1     = -0.1315	eb5_1     = -3.9348	eb6_1     = -0.1315	eb7_1     =  0.1721	
eb8_1     = -3.5981	tb1_1     = -0.1185	tb2_1     = -1.0879	tb3_1     =  1.7346	tb4_1     =  0.0281	
tb5_1     = -1.7346	tb6_1     = -0.0281	tb7_1     =  0.2614	tb8_1     = -2.2995	

CDMFT iteration 6, distance =  1.82e+02, diff param =  7.88e-04, diff hybrid =  4.21e-03
9 minimization steps, time(MIN)/time(ED)=0.00115
====================== CDMFT converged on the parameters ======================
sb1_1     = -0.0000	sb2_1     = -0.0000	sb3_1     =  0.0079	sb4_1     = -0.1903	sb5_1     =  0.0079	
sb6_1     = -0.1903	sb7_1     = -0.0000	sb8_1     =  0.0000	eb1_1     =  0.0076	eb2_1     = -3.1572	
eb3_1     = -3.9347	eb4_1     = -0.1314	eb5_1     = -3.9347	eb6_1     = -0.1314	eb7_1     =  0.1722	
eb8_1     = -3.5981	tb1_1     = -0.1185	tb2_1     = -1.0883	tb3_1     =  1.7354	tb4_1     =  0.0300	
tb5_1     = -1.7354	tb6_1     = -0.0300	tb7_1     =  0.2603	tb8_1     = -2.3004	
   <D> = 0.011035
   <e> = 1.251953
   <mu> = 1.607470
   <tpd> = -0.615019
   <tpp> = -0.203126
   <tppp> = 0.084313
************************* CDMFT completed successfully *************************

******************************* CDMFT procedure *******************************

minimization method =  CG
mixing state =  1
frequency grid type =  sharp
fictitious inverse temperature =  50
frequency cutoff =  2.0
--------------------------------------------------------------------------------

CDMFT iteration 1, distance =  1.79e+02, diff param =  2.62e-03
16 minimization steps, time(MIN)/time(ED)=0.00046
sb1_1     = -0.0000	sb2_1     = -0.0000	sb3_1     =  0.0084	sb4_1     = -0.1877	sb5_1     =  0.0084	
sb6_1     = -0.1877	sb7_1     =  0.0000	sb8_1     = -0.0000	eb1_1     =  0.0063	eb2_1     = -3.1582	
eb3_1     = -3.9362	eb4_1     = -0.1277	eb5_1     = -3.9363	eb6_1     = -0.1277	eb7_1     =  0.1690	
eb8_1     = -3.6013	tb1_1     = -0.1178	tb2_1     = -1.0859	tb3_1     =  1.7310	tb4_1     =  0.0324	
tb5_1     = -1.7310	tb6_1     = -0.0324	tb7_1     =  0.2576	tb8_1     = -2.2948	

CDMFT iteration 2, distance =  1.78e+02, diff param =  3.34e-03, diff hybrid =  1.35e-02
46 minimization steps, time(MIN)/time(ED)=0.00082
sb1_1     =  0.0000	sb2_1     = -0.0000	sb3_1     =  0.0085	sb4_1     = -0.1872	sb5_1     =  0.0085	
sb6_1     = -0.1872	sb7_1     = -0.0000	sb8_1     =  0.0000	eb1_1     =  0.0070	eb2_1     = -3.1708	
eb3_1     = -3.9429	eb4_1     = -0.1270	eb5_1     = -3.9429	eb6_1     = -0.1270	eb7_1     =  0.1682	
eb8_1     = -3.6033	tb1_1     = -0.1176	tb2_1     = -1.0880	tb3_1     =  1.7326	tb4_1     =  0.0333	
tb5_1     = -1.7326	tb6_1     = -0.0333	tb7_1     =  0.2570	tb8_1     = -2.2959	

CDMFT iteration 3, distance =  1.78e+02, diff param =  1.56e-04, diff hybrid =  2.44e-03
5 minimization steps, time(MIN)/time(ED)=0.00060
====================== CDMFT converged on the parameters ======================
sb1_1     =  0.0000	sb2_1     =  0.0000	sb3_1     =  0.0086	sb4_1     = -0.1872	sb5_1     =  0.0086	
sb6_1     = -0.1872	sb7_1     =  0.0000	sb8_1     = -0.0000	eb1_1     =  0.0073	eb2_1     = -3.1709	
eb3_1     = -3.9430	eb4_1     = -0.1270	eb5_1     = -3.9430	eb6_1     = -0.1270	eb7_1     =  0.1683	
eb8_1     = -3.6033	tb1_1     = -0.1177	tb2_1     = -1.0880	tb3_1     =  1.7325	tb4_1     =  0.0337	
tb5_1     = -1.7325	tb6_1     = -0.0337	tb7_1     =  0.2572	tb8_1     = -2.2959	
   <D> = 0.012170
   <e> = 1.252927
   <mu> = 1.609338
   <tpd> = -0.610784
   <tpp> = -0.201028
   <tppp> = 0.083395
************************* CDMFT completed successfully *************************

******************************* CDMFT procedure *******************************

minimization method =  CG
mixing state =  1
frequency grid type =  sharp
fictitious inverse temperature =  50
frequency cutoff =  2.0
--------------------------------------------------------------------------------

CDMFT iteration 1, distance =  1.75e+02, diff param =  3.04e-03
40 minimization steps, time(MIN)/time(ED)=0.00102
sb1_1     =  0.0000	sb2_1     =  0.0000	sb3_1     =  0.0091	sb4_1     = -0.1846	sb5_1     =  0.0091	
sb6_1     = -0.1846	sb7_1     = -0.0000	sb8_1     = -0.0000	eb1_1     =  0.0055	eb2_1     = -3.1771	
eb3_1     = -3.9478	eb4_1     = -0.1244	eb5_1     = -3.9478	eb6_1     = -0.1244	eb7_1     =  0.1661	
eb8_1     = -3.6088	tb1_1     = -0.1170	tb2_1     = -1.0865	tb3_1     =  1.7290	tb4_1     =  0.0363	
tb5_1     = -1.7290	tb6_1     = -0.0363	tb7_1     =  0.2543	tb8_1     = -2.2913	

CDMFT iteration 2, distance =  1.73e+02, diff param =  2.86e-03, diff hybrid =  1.30e-02
30 minimization steps, time(MIN)/time(ED)=0.00087
sb1_1     = -0.0000	sb2_1     =  0.0000	sb3_1     =  0.0094	sb4_1     = -0.1836	sb5_1     =  0.0094	
sb6_1     = -0.1836	sb7_1     =  0.0000	sb8_1     =  0.0000	eb1_1     =  0.0054	eb2_1     = -3.1871	
eb3_1     = -3.9539	eb4_1     = -0.1231	eb5_1     = -3.9539	eb6_1     = -0.1231	eb7_1     =  0.1646	
eb8_1     = -3.6082	tb1_1     = -0.1168	tb2_1     = -1.0883	tb3_1     =  1.7307	tb4_1     =  0.0380	
tb5_1     = -1.7307	tb6_1     = -0.0380	tb7_1     =  0.2530	tb8_1     = -2.2919	

CDMFT iteration 3, distance =  1.74e+02, diff param =  2.74e-04, diff hybrid =  3.66e-03
8 minimization steps, time(MIN)/time(ED)=0.00066
====================== CDMFT converged on the parameters ======================
sb1_1     = -0.0000	sb2_1     = -0.0000	sb3_1     =  0.0093	sb4_1     = -0.1840	sb5_1     =  0.0093	
sb6_1     = -0.1840	sb7_1     = -0.0000	sb8_1     = -0.0000	eb1_1     =  0.0062	eb2_1     = -3.1873	
eb3_1     = -3.9540	eb4_1     = -0.1230	eb5_1     = -3.9540	eb6_1     = -0.1230	eb7_1     =  0.1645	
eb8_1     = -3.6083	tb1_1     = -0.1169	tb2_1     = -1.0882	tb3_1     =  1.7304	tb4_1     =  0.0378	
tb5_1     = -1.7304	tb6_1     = -0.0378	tb7_1     =  0.2536	tb8_1     = -2.2916	
   <D> = 0.013070
   <e> = 1.254072
   <mu> = 1.611417
   <tpd> = -0.605958
   <tpp> = -0.198452
   <tppp> = 0.082290
************************* CDMFT completed successfully *************************

******************************* CDMFT procedure *******************************

minimization method =  CG
mixing state =  1
frequency grid type =  sharp
fictitious inverse temperature =  50
frequency cutoff =  2.0
--------------------------------------------------------------------------------

CDMFT iteration 1, distance =  1.71e+02, diff param =  3.43e-03
35 minimization steps, time(MIN)/time(ED)=0.00099
sb1_1     = -0.0001	sb2_1     = -0.0000	sb3_1     =  0.0097	sb4_1     = -0.1814	sb5_1     =  0.0097	
sb6_1     = -0.1814	sb7_1     =  0.0000	sb8_1     = -0.0000	eb1_1     =  0.0044	eb2_1     = -3.1956	
eb3_1     = -3.9601	eb4_1     = -0.1208	eb5_1     = -3.9601	eb6_1     = -0.1208	eb7_1     =  0.1629	
eb8_1     = -3.6153	tb1_1     = -0.1161	tb2_1     = -1.0871	tb3_1     =  1.7272	tb4_1     =  0.0403	
tb5_1     = -1.7272	tb6_1     = -0.0402	tb7_1     =  0.2507	tb8_1     = -2.2876	

CDMFT iteration 2, distance =  1.68e+02, diff param =  2.84e-03, diff hybrid =  1.29e-02
45 minimization steps, time(MIN)/time(ED)=0.00104
sb1_1     = -0.0000	sb2_1     =  0.0000	sb3_1     =  0.0101	sb4_1     = -0.1801	sb5_1     =  0.0101	
sb6_1     = -0.1801	sb7_1     = -0.0000	sb8_1     =  0.0000	eb1_1     =  0.0038	eb2_1     = -3.2058	
eb3_1     = -3.9654	eb4_1     = -0.1194	eb5_1     = -3.9655	eb6_1     = -0.1194	eb7_1     =  0.1610	
eb8_1     = -3.6136	tb1_1     = -0.1159	tb2_1     = -1.0889	tb3_1     =  1.7289	tb4_1     =  0.0422	
tb5_1     = -1.7289	tb6_1     = -0.0422	tb7_1     =  0.2490	tb8_1     = -2.2880	

CDMFT iteration 3, distance =  1.69e+02, diff param =  3.59e-04, diff hybrid =  4.47e-03
7 minimization steps, time(MIN)/time(ED)=0.00077
====================== CDMFT converged on the parameters ======================
sb1_1     = -0.0000	sb2_1     = -0.0000	sb3_1     =  0.0099	sb4_1     = -0.1806	sb5_1     =  0.0099	
sb6_1     = -0.1806	sb7_1     =  0.0000	sb8_1     = -0.0000	eb1_1     =  0.0047	eb2_1     = -3.2059	
eb3_1     = -3.9655	eb4_1     = -0.1192	eb5_1     = -3.9656	eb6_1     = -0.1192	eb7_1     =  0.1607	
eb8_1     = -3.6137	tb1_1     = -0.1161	tb2_1     = -1.0888	tb3_1     =  1.7285	tb4_1     =  0.0417	
tb5_1     = -1.7285	tb6_1     = -0.0417	tb7_1     =  0.2497	tb8_1     = -2.2876	
   <D> = 0.013713
   <e> = 1.255278
   <mu> = 1.613548
   <tpd> = -0.600932
   <tpp> = -0.195680
   <tppp> = 0.081121
************************* CDMFT completed successfully *************************

******************************* CDMFT procedure *******************************

minimization method =  CG
mixing state =  1
frequency grid type =  sharp
fictitious inverse temperature =  50
frequency cutoff =  2.0
--------------------------------------------------------------------------------

CDMFT iteration 1, distance =  1.66e+02, diff param =  2.77e-03
24 minimization steps, time(MIN)/time(ED)=0.00068
sb1_1     = -0.0000	sb2_1     = -0.0000	sb3_1     =  0.0102	sb4_1     = -0.1779	sb5_1     =  0.0102	
sb6_1     = -0.1779	sb7_1     = -0.0000	sb8_1     = -0.0000	eb1_1     =  0.0029	eb2_1     = -3.2105	
eb3_1     = -3.9694	eb4_1     = -0.1171	eb5_1     = -3.9694	eb6_1     = -0.1171	eb7_1     =  0.1592	
eb8_1     = -3.6198	tb1_1     = -0.1152	tb2_1     = -1.0871	tb3_1     =  1.7249	tb4_1     =  0.0438	
tb5_1     = -1.7249	tb6_1     = -0.0438	tb7_1     =  0.2468	tb8_1     = -2.2832	

CDMFT iteration 2, distance =  1.63e+02, diff param =  2.91e-03, diff hybrid =  1.29e-02
41 minimization steps, time(MIN)/time(ED)=0.00087
sb1_1     = -0.0000	sb2_1     = -0.0000	sb3_1     =  0.0106	sb4_1     = -0.1764	sb5_1     =  0.0106	
sb6_1     = -0.1764	sb7_1     =  0.0000	sb8_1     =  0.0000	eb1_1     =  0.0021	eb2_1     = -3.2202	
eb3_1     = -3.9753	eb4_1     = -0.1155	eb5_1     = -3.9753	eb6_1     = -0.1155	eb7_1     =  0.1572	
eb8_1     = -3.6188	tb1_1     = -0.1150	tb2_1     = -1.0889	tb3_1     =  1.7267	tb4_1     =  0.0459	
tb5_1     = -1.7267	tb6_1     = -0.0459	tb7_1     =  0.2448	tb8_1     = -2.2840	

CDMFT iteration 3, distance =  1.64e+02, diff param =  1.40e-03, diff hybrid =  5.03e-03
22 minimization steps, time(MIN)/time(ED)=0.00078
sb1_1     =  0.0000	sb2_1     = -0.0000	sb3_1     =  0.0104	sb4_1     = -0.1771	sb5_1     =  0.0104	
sb6_1     = -0.1771	sb7_1     = -0.0000	sb8_1     = -0.0000	eb1_1     =  0.0030	eb2_1     = -3.2259	
eb3_1     = -3.9766	eb4_1     = -0.1153	eb5_1     = -3.9766	eb6_1     = -0.1153	eb7_1     =  0.1564	
eb8_1     = -3.6164	tb1_1     = -0.1152	tb2_1     = -1.0896	tb3_1     =  1.7266	tb4_1     =  0.0452	
tb5_1     = -1.7266	tb6_1     = -0.0452	tb7_1     =  0.2453	tb8_1     = -2.2828	

CDMFT iteration 4, distance =  1.64e+02, diff param =  2.37e-04, diff hybrid =  2.66e-03
7 minimization steps, time(MIN)/time(ED)=0.00063
====================== CDMFT converged on the parameters ======================
sb1_1     =  0.0000	sb2_1     =  0.0000	sb3_1     =  0.0103	sb4_1     = -0.1772	sb5_1     =  0.0103	
sb6_1     = -0.1772	sb7_1     =  0.0000	sb8_1     = -0.0000	eb1_1     =  0.0032	eb2_1     = -3.2261	
eb3_1     = -3.9767	eb4_1     = -0.1156	eb5_1     = -3.9767	eb6_1     = -0.1156	eb7_1     =  0.1570	
eb8_1     = -3.6168	tb1_1     = -0.1152	tb2_1     = -1.0896	tb3_1     =  1.7266	tb4_1     =  0.0448	
tb5_1     = -1.7266	tb6_1     = -0.0448	tb7_1     =  0.2455	tb8_1     = -2.2829	
   <D> = 0.014120
   <e> = 1.256467
   <mu> = 1.615527
   <tpd> = -0.596083
   <tpp> = -0.192846
   <tppp> = 0.079956
************************* CDMFT completed successfully *************************

******************************* CDMFT procedure *******************************

minimization method =  CG
mixing state =  1
frequency grid type =  sharp
fictitious inverse temperature =  50
frequency cutoff =  2.0
--------------------------------------------------------------------------------

CDMFT iteration 1, distance =  1.61e+02, diff param =  2.71e-03
26 minimization steps, time(MIN)/time(ED)=0.00064
sb1_1     =  0.0000	sb2_1     = -0.0000	sb3_1     =  0.0107	sb4_1     = -0.1740	sb5_1     =  0.0107	
sb6_1     = -0.1740	sb7_1     = -0.0000	sb8_1     =  0.0000	eb1_1     =  0.0008	eb2_1     = -3.2285	
eb3_1     = -3.9793	eb4_1     = -0.1133	eb5_1     = -3.9794	eb6_1     = -0.1133	eb7_1     =  0.1550	
eb8_1     = -3.6230	tb1_1     = -0.1143	tb2_1     = -1.0875	tb3_1     =  1.7228	tb4_1     =  0.0475	
tb5_1     = -1.7228	tb6_1     = -0.0475	tb7_1     =  0.2422	tb8_1     = -2.2787	

CDMFT iteration 2, distance =  1.59e+02, diff param =  3.04e-03, diff hybrid =  1.30e-02
38 minimization steps, time(MIN)/time(ED)=0.00078
sb1_1     =  0.0000	sb2_1     = -0.0000	sb3_1     =  0.0109	sb4_1     = -0.1726	sb5_1     =  0.0109	
sb6_1     = -0.1726	sb7_1     = -0.0000	sb8_1     = -0.0000	eb1_1     =  0.0001	eb2_1     = -3.2386	
eb3_1     = -3.9859	eb4_1     = -0.1117	eb5_1     = -3.9859	eb6_1     = -0.1117	eb7_1     =  0.1530	
eb8_1     = -3.6229	tb1_1     = -0.1141	tb2_1     = -1.0894	tb3_1     =  1.7246	tb4_1     =  0.0492	
tb5_1     = -1.7246	tb6_1     = -0.0492	tb7_1     =  0.2404	tb8_1     = -2.2796	

CDMFT iteration 3, distance =  1.59e+02, diff param =  4.21e-04, diff hybrid =  4.48e-03
7 minimization steps, time(MIN)/time(ED)=0.00060
====================== CDMFT converged on the parameters ======================
sb1_1     =  0.0000	sb2_1     =  0.0000	sb3_1     =  0.0108	sb4_1     = -0.1733	sb5_1     =  0.0108	
sb6_1     = -0.1733	sb7_1     =  0.0000	sb8_1     = -0.0000	eb1_1     =  0.0011	eb2_1     = -3.2388	
eb3_1     = -3.9860	eb4_1     = -0.1113	eb5_1     = -3.9860	eb6_1     = -0.1113	eb7_1     =  0.1525	
eb8_1     = -3.6229	tb1_1     = -0.1142	tb2_1     = -1.0893	tb3_1     =  1.7243	tb4_1     =  0.0484	
tb5_1     = -1.7243	tb6_1     = -0.0484	tb7_1     =  0.2411	tb8_1     = -2.2792	
   <D> = 0.014448
   <e> = 1.257729
   <mu> = 1.617764
   <tpd> = -0.590814
   <tpp> = -0.189912
   <tppp> = 0.078736
************************* CDMFT completed successfully *************************

******************************* CDMFT procedure *******************************

minimization method =  CG
mixing state =  1
frequency grid type =  sharp
fictitious inverse temperature =  50
frequency cutoff =  2.0
--------------------------------------------------------------------------------

CDMFT iteration 1, distance =  1.57e+02, diff param =  3.87e-03
51 minimization steps, time(MIN)/time(ED)=0.00124
sb1_1     =  0.0000	sb2_1     = -0.0000	sb3_1     =  0.0110	sb4_1     = -0.1706	sb5_1     =  0.0110	
sb6_1     = -0.1706	sb7_1     =  0.0000	sb8_1     = -0.0000	eb1_1     = -0.0010	eb2_1     = -3.2502	
eb3_1     = -3.9936	eb4_1     = -0.1098	eb5_1     = -3.9936	eb6_1     = -0.1098	eb7_1     =  0.1507	
eb8_1     = -3.6279	tb1_1     = -0.1134	tb2_1     = -1.0885	tb3_1     =  1.7214	tb4_1     =  0.0504	
tb5_1     = -1.7214	tb6_1     = -0.0504	tb7_1     =  0.2379	tb8_1     = -2.2744	

CDMFT iteration 2, distance =  1.54e+02, diff param =  2.29e-03, diff hybrid =  1.31e-02
28 minimization steps, time(MIN)/time(ED)=0.00100
sb1_1     =  0.0000	sb2_1     = -0.0000	sb3_1     =  0.0113	sb4_1     = -0.1687	sb5_1     =  0.0113	
sb6_1     = -0.1687	sb7_1     = -0.0000	sb8_1     = -0.0000	eb1_1     = -0.0025	eb2_1     = -3.2572	
eb3_1     = -3.9976	eb4_1     = -0.1082	eb5_1     = -3.9975	eb6_1     = -0.1082	eb7_1     =  0.1487	
eb8_1     = -3.6255	tb1_1     = -0.1131	tb2_1     = -1.0899	tb3_1     =  1.7229	tb4_1     =  0.0525	
tb5_1     = -1.7229	tb6_1     = -0.0525	tb7_1     =  0.2355	tb8_1     = -2.2749	

CDMFT iteration 3, distance =  1.54e+02, diff param =  5.61e-04, diff hybrid =  5.97e-03
10 minimization steps, time(MIN)/time(ED)=0.00076
====================== CDMFT converged on the parameters ======================
sb1_1     =  0.0000	sb2_1     =  0.0000	sb3_1     =  0.0111	sb4_1     = -0.1692	sb5_1     =  0.0111	
sb6_1     = -0.1692	sb7_1     =  0.0000	sb8_1     = -0.0000	eb1_1     = -0.0015	eb2_1     = -3.2575	
eb3_1     = -3.9977	eb4_1     = -0.1073	eb5_1     = -3.9977	eb6_1     = -0.1073	eb7_1     =  0.1474	
eb8_1     = -3.6257	tb1_1     = -0.1133	tb2_1     = -1.0898	tb3_1     =  1.7226	tb4_1     =  0.0517	
tb5_1     = -1.7226	tb6_1     = -0.0517	tb7_1     =  0.2360	tb8_1     = -2.2745	
   <D> = 0.014615
   <e> = 1.258995
   <mu> = 1.619914
   <tpd> = -0.585611
   <tpp> = -0.186887
   <tppp> = 0.077503
************************* CDMFT completed successfully *************************

******************************* CDMFT procedure *******************************

minimization method =  CG
mixing state =  1
frequency grid type =  sharp
fictitious inverse temperature =  50
frequency cutoff =  2.0
--------------------------------------------------------------------------------

CDMFT iteration 1, distance =  1.52e+02, diff param =  3.29e-03
50 minimization steps, time(MIN)/time(ED)=0.00118
sb1_1     = -0.0000	sb2_1     = -0.0000	sb3_1     =  0.0112	sb4_1     = -0.1667	sb5_1     =  0.0112	
sb6_1     = -0.1667	sb7_1     = -0.0000	sb8_1     =  0.0000	eb1_1     = -0.0033	eb2_1     = -3.2666	
eb3_1     = -4.0032	eb4_1     = -0.1059	eb5_1     = -4.0032	eb6_1     = -0.1059	eb7_1     =  0.1459	
eb8_1     = -3.6314	tb1_1     = -0.1124	tb2_1     = -1.0886	tb3_1     =  1.7192	tb4_1     =  0.0531	
tb5_1     = -1.7192	tb6_1     = -0.0531	tb7_1     =  0.2331	tb8_1     = -2.2697	

CDMFT iteration 2, distance =  1.49e+02, diff param =  2.10e-03, diff hybrid =  1.32e-02
33 minimization steps, time(MIN)/time(ED)=0.00098
sb1_1     =  0.0000	sb2_1     =  0.0000	sb3_1     =  0.0115	sb4_1     = -0.1645	sb5_1     =  0.0115	
sb6_1     = -0.1645	sb7_1     = -0.0000	sb8_1     = -0.0000	eb1_1     = -0.0053	eb2_1     = -3.2725	
eb3_1     = -4.0066	eb4_1     = -0.1044	eb5_1     = -4.0066	eb6_1     = -0.1044	eb7_1     =  0.1439	
eb8_1     = -3.6303	tb1_1     = -0.1122	tb2_1     = -1.0899	tb3_1     =  1.7206	tb4_1     =  0.0554	
tb5_1     = -1.7206	tb6_1     = -0.0554	tb7_1     =  0.2305	tb8_1     = -2.2707	

CDMFT iteration 3, distance =  1.49e+02, diff param =  5.83e-04, diff hybrid =  6.72e-03
10 minimization steps, time(MIN)/time(ED)=0.00075
====================== CDMFT converged on the parameters ======================
sb1_1     =  0.0000	sb2_1     =  0.0000	sb3_1     =  0.0113	sb4_1     = -0.1650	sb5_1     =  0.0113	
sb6_1     = -0.1650	sb7_1     =  0.0000	sb8_1     = -0.0000	eb1_1     = -0.0043	eb2_1     = -3.2728	
eb3_1     = -4.0067	eb4_1     = -0.1033	eb5_1     = -4.0068	eb6_1     = -0.1033	eb7_1     =  0.1425	
eb8_1     = -3.6302	tb1_1     = -0.1124	tb2_1     = -1.0897	tb3_1     =  1.7204	tb4_1     =  0.0547	
tb5_1     = -1.7204	tb6_1     = -0.0547	tb7_1     =  0.2309	tb8_1     = -2.2703	
   <D> = 0.014674
   <e> = 1.260259
   <mu> = 1.622027
   <tpd> = -0.580446
   <tpp> = -0.183828
   <tppp> = 0.076271
************************* CDMFT completed successfully *************************

******************************* CDMFT procedure *******************************

minimization method =  CG
mixing state =  1
frequency grid type =  sharp
fictitious inverse temperature =  50
frequency cutoff =  2.0
--------------------------------------------------------------------------------

CDMFT iteration 1, distance =  1.47e+02, diff param =  4.13e-03
34 minimization steps, time(MIN)/time(ED)=0.00088
sb1_1     = -0.0000	sb2_1     =  0.0000	sb3_1     =  0.0114	sb4_1     = -0.1627	sb5_1     =  0.0114	
sb6_1     = -0.1627	sb7_1     = -0.0000	sb8_1     = -0.0000	eb1_1     = -0.0062	eb2_1     = -3.2865	
eb3_1     = -4.0147	eb4_1     = -0.1021	eb5_1     = -4.0147	eb6_1     = -0.1021	eb7_1     =  0.1407	
eb8_1     = -3.6338	tb1_1     = -0.1116	tb2_1     = -1.0891	tb3_1     =  1.7173	tb4_1     =  0.0560	
tb5_1     = -1.7173	tb6_1     = -0.0560	tb7_1     =  0.2279	tb8_1     = -2.2648	

CDMFT iteration 2, distance =  1.44e+02, diff param =  1.70e-03, diff hybrid =  1.33e-02
27 minimization steps, time(MIN)/time(ED)=0.00076
sb1_1     =  0.0000	sb2_1     = -0.0000	sb3_1     =  0.0116	sb4_1     = -0.1603	sb5_1     =  0.0116	
sb6_1     = -0.1603	sb7_1     =  0.0000	sb8_1     =  0.0000	eb1_1     = -0.0085	eb2_1     = -3.2903	
eb3_1     = -4.0166	eb4_1     = -0.1007	eb5_1     = -4.0166	eb6_1     = -0.1007	eb7_1     =  0.1386	
eb8_1     = -3.6336	tb1_1     = -0.1113	tb2_1     = -1.0901	tb3_1     =  1.7185	tb4_1     =  0.0581	
tb5_1     = -1.7185	tb6_1     = -0.0581	tb7_1     =  0.2251	tb8_1     = -2.2661	

CDMFT iteration 3, distance =  1.44e+02, diff param =  1.50e-03, diff hybrid =  7.01e-03
35 minimization steps, time(MIN)/time(ED)=0.00079
sb1_1     = -0.0000	sb2_1     = -0.0000	sb3_1     =  0.0114	sb4_1     = -0.1606	sb5_1     =  0.0114	
sb6_1     = -0.1606	sb7_1     = -0.0000	sb8_1     =  0.0000	eb1_1     = -0.0074	eb2_1     = -3.2961	
eb3_1     = -4.0171	eb4_1     = -0.0991	eb5_1     = -4.0171	eb6_1     = -0.0991	eb7_1     =  0.1366	
eb8_1     = -3.6310	tb1_1     = -0.1116	tb2_1     = -1.0908	tb3_1     =  1.7183	tb4_1     =  0.0574	
tb5_1     = -1.7184	tb6_1     = -0.0574	tb7_1     =  0.2252	tb8_1     = -2.2650	

CDMFT iteration 4, distance =  1.45e+02, diff param =  5.31e-04, diff hybrid =  3.24e-03
8 minimization steps, time(MIN)/time(ED)=0.00065
====================== CDMFT converged on the parameters ======================
sb1_1     = -0.0000	sb2_1     = -0.0000	sb3_1     =  0.0112	sb4_1     = -0.1613	sb5_1     =  0.0112	
sb6_1     = -0.1613	sb7_1     =  0.0000	sb8_1     = -0.0000	eb1_1     = -0.0064	eb2_1     = -3.2964	
eb3_1     = -4.0171	eb4_1     = -0.0993	eb5_1     = -4.0172	eb6_1     = -0.0993	eb7_1     =  0.1370	
eb8_1     = -3.6313	tb1_1     = -0.1115	tb2_1     = -1.0908	tb3_1     =  1.7183	tb4_1     =  0.0560	
tb5_1     = -1.7183	tb6_1     = -0.0560	tb7_1     =  0.2259	tb8_1     = -2.2647	
   <D> = 0.014663
   <e> = 1.261373
   <mu> = 1.623872
   <tpd> = -0.575854
   <tpp> = -0.181102
   <tppp> = 0.075183
************************* CDMFT completed successfully *************************

******************************* CDMFT procedure *******************************

minimization method =  CG
mixing state =  1
frequency grid type =  sharp
fictitious inverse temperature =  50
frequency cutoff =  2.0
--------------------------------------------------------------------------------

CDMFT iteration 1, distance =  1.42e+02, diff param =  4.03e-03
37 minimization steps, time(MIN)/time(ED)=0.00092
sb1_1     = -0.0000	sb2_1     =  0.0000	sb3_1     =  0.0115	sb4_1     = -0.1581	sb5_1     =  0.0115	
sb6_1     = -0.1581	sb7_1     = -0.0000	sb8_1     = -0.0000	eb1_1     = -0.0098	eb2_1     = -3.3075	
eb3_1     = -4.0249	eb4_1     = -0.0986	eb5_1     = -4.0249	eb6_1     = -0.0986	eb7_1     =  0.1357	
eb8_1     = -3.6384	tb1_1     = -0.1106	tb2_1     = -1.0899	tb3_1     =  1.7154	tb4_1     =  0.0587	
tb5_1     = -1.7154	tb6_1     = -0.0587	tb7_1     =  0.2223	tb8_1     = -2.2607	

CDMFT iteration 2, distance =  1.38e+02, diff param =  1.88e-03, diff hybrid =  1.35e-02
25 minimization steps, time(MIN)/time(ED)=0.00076
sb1_1     =  0.0000	sb2_1     = -0.0000	sb3_1     =  0.0117	sb4_1     = -0.1556	sb5_1     =  0.0117	
sb6_1     = -0.1556	sb7_1     =  0.0000	sb8_1     =  0.0000	eb1_1     = -0.0125	eb2_1     = -3.3104	
eb3_1     = -4.0264	eb4_1     = -0.0968	eb5_1     = -4.0264	eb6_1     = -0.0968	eb7_1     =  0.1323	
eb8_1     = -3.6357	tb1_1     = -0.1106	tb2_1     = -1.0906	tb3_1     =  1.7165	tb4_1     =  0.0611	
tb5_1     = -1.7165	tb6_1     = -0.0611	tb7_1     =  0.2190	tb8_1     = -2.2611	

CDMFT iteration 3, distance =  1.39e+02, diff param =  2.57e-03, diff hybrid =  7.31e-03
39 minimization steps, time(MIN)/time(ED)=0.00080
sb1_1     = -0.0000	sb2_1     =  0.0000	sb3_1     =  0.0114	sb4_1     = -0.1563	sb5_1     =  0.0114	
sb6_1     = -0.1563	sb7_1     = -0.0000	sb8_1     = -0.0000	eb1_1     = -0.0109	eb2_1     = -3.3215	
eb3_1     = -4.0270	eb4_1     = -0.0948	eb5_1     = -4.0271	eb6_1     = -0.0948	eb7_1     =  0.1300	
eb8_1     = -3.6326	tb1_1     = -0.1109	tb2_1     = -1.0921	tb3_1     =  1.7162	tb4_1     =  0.0597	
tb5_1     = -1.7162	tb6_1     = -0.0597	tb7_1     =  0.2193	tb8_1     = -2.2597	

CDMFT iteration 4, distance =  1.40e+02, diff param =  9.28e-04, diff hybrid =  4.68e-03
22 minimization steps, time(MIN)/time(ED)=0.00072
====================== CDMFT converged on the parameters ======================
sb1_1     =  0.0000	sb2_1     = -0.0000	sb3_1     =  0.0112	sb4_1     = -0.1570	sb5_1     =  0.0112	
sb6_1     = -0.1570	sb7_1     =  0.0000	sb8_1     =  0.0000	eb1_1     = -0.0095	eb2_1     = -3.3234	
eb3_1     = -4.0271	eb4_1     = -0.0951	eb5_1     = -4.0271	eb6_1     = -0.0951	eb7_1     =  0.1309	
eb8_1     = -3.6351	tb1_1     = -0.1106	tb2_1     = -1.0924	tb3_1     =  1.7162	tb4_1     =  0.0581	
tb5_1     = -1.7162	tb6_1     = -0.0581	tb7_1     =  0.2203	tb8_1     = -2.2602	
   <D> = 0.014564
   <e> = 1.262591
   <mu> = 1.625898
   <tpd> = -0.570845
   <tpp> = -0.178113
   <tppp> = 0.073998
************************* CDMFT completed successfully *************************

******************************* CDMFT procedure *******************************

minimization method =  CG
mixing state =  1
frequency grid type =  sharp
fictitious inverse temperature =  50
frequency cutoff =  2.0
--------------------------------------------------------------------------------

CDMFT iteration 1, distance =  1.37e+02, diff param =  4.38e-03
50 minimization steps, time(MIN)/time(ED)=0.00120
sb1_1     = -0.0000	sb2_1     = -0.0000	sb3_1     =  0.0115	sb4_1     = -0.1537	sb5_1     =  0.0115	
sb6_1     = -0.1537	sb7_1     =  0.0000	sb8_1     = -0.0000	eb1_1     = -0.0138	eb2_1     = -3.3352	
eb3_1     = -4.0365	eb4_1     = -0.0950	eb5_1     = -4.0366	eb6_1     = -0.0951	eb7_1     =  0.1295	
eb8_1     = -3.6407	tb1_1     = -0.1099	tb2_1     = -1.0914	tb3_1     =  1.7137	tb4_1     =  0.0611	
tb5_1     = -1.7137	tb6_1     = -0.0612	tb7_1     =  0.2163	tb8_1     = -2.2557	

CDMFT iteration 2, distance =  1.33e+02, diff param =  2.89e-03, diff hybrid =  1.39e-02
36 minimization steps, time(MIN)/time(ED)=0.00103
sb1_1     = -0.0001	sb2_1     =  0.0000	sb3_1     =  0.0117	sb4_1     = -0.1510	sb5_1     =  0.0117	
sb6_1     = -0.1510	sb7_1     =  0.0000	sb8_1     =  0.0000	eb1_1     = -0.0171	eb2_1     = -3.3438	
eb3_1     = -4.0404	eb4_1     = -0.0930	eb5_1     = -4.0403	eb6_1     = -0.0930	eb7_1     =  0.1255	
eb8_1     = -3.6369	tb1_1     = -0.1101	tb2_1     = -1.0928	tb3_1     =  1.7152	tb4_1     =  0.0637	
tb5_1     = -1.7152	tb6_1     = -0.0637	tb7_1     =  0.2125	tb8_1     = -2.2559	

CDMFT iteration 3, distance =  1.34e+02, diff param =  1.22e-03, diff hybrid =  7.90e-03
11 minimization steps, time(MIN)/time(ED)=0.00078
sb1_1     = -0.0001	sb2_1     =  0.0000	sb3_1     =  0.0114	sb4_1     = -0.1517	sb5_1     =  0.0114	
sb6_1     = -0.1517	sb7_1     =  0.0000	sb8_1     = -0.0000	eb1_1     = -0.0147	eb2_1     = -3.3441	
eb3_1     = -4.0404	eb4_1     = -0.0905	eb5_1     = -4.0403	eb6_1     = -0.0905	eb7_1     =  0.1226	
eb8_1     = -3.6366	tb1_1     = -0.1101	tb2_1     = -1.0928	tb3_1     =  1.7148	tb4_1     =  0.0619	
tb5_1     = -1.7148	tb6_1     = -0.0619	tb7_1     =  0.2131	tb8_1     = -2.2552	

CDMFT iteration 4, distance =  1.34e+02, diff param =  7.13e-04, diff hybrid =  5.74e-03
8 minimization steps, time(MIN)/time(ED)=0.00064
====================== CDMFT converged on the parameters ======================
sb1_1     = -0.0001	sb2_1     =  0.0000	sb3_1     =  0.0111	sb4_1     = -0.1525	sb5_1     =  0.0111	
sb6_1     = -0.1525	sb7_1     =  0.0000	sb8_1     =  0.0000	eb1_1     = -0.0132	eb2_1     = -3.3444	
eb3_1     = -4.0403	eb4_1     = -0.0910	eb5_1     = -4.0402	eb6_1     = -0.0910	eb7_1     =  0.1240	
eb8_1     = -3.6366	tb1_1     = -0.1098	tb2_1     = -1.0930	tb3_1     =  1.7148	tb4_1     =  0.0603	
tb5_1     = -1.7148	tb6_1     = -0.0603	tb7_1     =  0.2141	tb8_1     = -2.2550	
   <D> = 0.014390
   <e> = 1.263852
   <mu> = 1.627986
   <tpd> = -0.565667
   <tpp> = -0.174986
   <tppp> = 0.072771
************************* CDMFT completed successfully *************************

******************************* CDMFT procedure *******************************

minimization method =  CG
mixing state =  1
frequency grid type =  sharp
fictitious inverse temperature =  50
frequency cutoff =  2.0
--------------------------------------------------------------------------------

CDMFT iteration 1, distance =  1.32e+02, diff param =  5.21e-03
56 minimization steps, time(MIN)/time(ED)=0.00126
sb1_1     =  0.0000	sb2_1     = -0.0000	sb3_1     =  0.0115	sb4_1     = -0.1491	sb5_1     =  0.0115	
sb6_1     = -0.1491	sb7_1     =  0.0000	sb8_1     =  0.0000	eb1_1     = -0.0182	eb2_1     = -3.3632	
eb3_1     = -4.0490	eb4_1     = -0.0914	eb5_1     = -4.0488	eb6_1     = -0.0913	eb7_1     =  0.1225	
eb8_1     = -3.6414	tb1_1     = -0.1094	tb2_1     = -1.0928	tb3_1     =  1.7121	tb4_1     =  0.0635	
tb5_1     = -1.7121	tb6_1     = -0.0634	tb7_1     =  0.2097	tb8_1     = -2.2502	

CDMFT iteration 2, distance =  1.28e+02, diff param =  2.56e-03, diff hybrid =  1.43e-02
31 minimization steps, time(MIN)/time(ED)=0.00102
sb1_1     = -0.0000	sb2_1     =  0.0000	sb3_1     =  0.0116	sb4_1     = -0.1462	sb5_1     =  0.0116	
sb6_1     = -0.1462	sb7_1     = -0.0001	sb8_1     =  0.0000	eb1_1     = -0.0220	eb2_1     = -3.3689	
eb3_1     = -4.0507	eb4_1     = -0.0891	eb5_1     = -4.0508	eb6_1     = -0.0891	eb7_1     =  0.1176	
eb8_1     = -3.6370	tb1_1     = -0.1097	tb2_1     = -1.0937	tb3_1     =  1.7132	tb4_1     =  0.0658	
tb5_1     = -1.7132	tb6_1     = -0.0659	tb7_1     =  0.2056	tb8_1     = -2.2501	

CDMFT iteration 3, distance =  1.28e+02, diff param =  1.49e-03, diff hybrid =  8.22e-03
14 minimization steps, time(MIN)/time(ED)=0.00079
sb1_1     =  0.0001	sb2_1     = -0.0000	sb3_1     =  0.0111	sb4_1     = -0.1470	sb5_1     =  0.0111	
sb6_1     = -0.1470	sb7_1     =  0.0000	sb8_1     = -0.0000	eb1_1     = -0.0190	eb2_1     = -3.3695	
eb3_1     = -4.0507	eb4_1     = -0.0860	eb5_1     = -4.0507	eb6_1     = -0.0859	eb7_1     =  0.1143	
eb8_1     = -3.6367	tb1_1     = -0.1095	tb2_1     = -1.0939	tb3_1     =  1.7128	tb4_1     =  0.0637	
tb5_1     = -1.7128	tb6_1     = -0.0636	tb7_1     =  0.2062	tb8_1     = -2.2494	

CDMFT iteration 4, distance =  1.29e+02, diff param =  8.44e-04, diff hybrid =  6.73e-03
8 minimization steps, time(MIN)/time(ED)=0.00065
====================== CDMFT converged on the parameters ======================
sb1_1     = -0.0000	sb2_1     = -0.0000	sb3_1     =  0.0109	sb4_1     = -0.1479	sb5_1     =  0.0110	
sb6_1     = -0.1479	sb7_1     = -0.0000	sb8_1     =  0.0000	eb1_1     = -0.0171	eb2_1     = -3.3698	
eb3_1     = -4.0505	eb4_1     = -0.0866	eb5_1     = -4.0505	eb6_1     = -0.0867	eb7_1     =  0.1162	
eb8_1     = -3.6368	tb1_1     = -0.1091	tb2_1     = -1.0941	tb3_1     =  1.7128	tb4_1     =  0.0620	
tb5_1     = -1.7128	tb6_1     = -0.0620	tb7_1     =  0.2074	tb8_1     = -2.2492	
   <D> = 0.014156
   <e> = 1.265080
   <mu> = 1.630013
   <tpd> = -0.560609
   <tpp> = -0.171925
   <tppp> = 0.071577
************************* CDMFT completed successfully *************************

******************************* CDMFT procedure *******************************
slurmstepd: error: *** JOB 4733198 ON nc30443 CANCELLED AT 2022-04-18T00:49:17 ***
