Number of OpenMP threads = 4
!!!!!!!!!!!!!!!!!!!!!!!!!!!!! - Fading to Sr2CuO2Cl2 - !!!!!!!!!!!!!!!!!!!!!!!!!!!!!
reading data file /home/theod/code_pyqcm/simulations/cdmft_max_supra_sid.tsv, line 1
111 columns read
----->  D  =  0.0
----->  U  =  14.0
----->  e  =  2.3
----->  eb1_1  =  -0.006655534
----->  eb2_1  =  -3.3502828
----->  eb3_1  =  -4.1133163
----->  eb4_1  =  -0.10235806
----->  eb5_1  =  -4.113222
----->  eb6_1  =  -0.1023468
----->  eb7_1  =  0.14108001
----->  eb8_1  =  -3.7537133
----->  mu  =  9.68
----->  sb1_1  =  -0.0001012231
----->  sb2_1  =  7.5002141e-06
----->  sb3_1  =  0.011771903
----->  sb4_1  =  -0.16264369
----->  sb5_1  =  0.011773954
----->  sb6_1  =  -0.16264057
----->  sb7_1  =  1.0013529e-05
----->  sb8_1  =  -2.0059213e-06
----->  tb1_1  =  -0.11240159
----->  tb2_1  =  -1.1061747
----->  tb3_1  =  1.7476608
----->  tb4_1  =  0.057892245
----->  tb5_1  =  -1.7476438
----->  tb6_1  =  -0.057886658
----->  tb7_1  =  0.22749261
----->  tb8_1  =  -2.3061557
----->  tpd  =  2.1
----->  tpp  =  1.0
----->  tppp  =  0.2

******************************* CDMFT procedure *******************************

minimization method =  CG
mixing state =  1
frequency grid type =  sharp
fictitious inverse temperature =  50
frequency cutoff =  2.0
--------------------------------------------------------------------------------

CDMFT iteration 1, distance =  1.66e+02, diff param =  6.21e-02
127 minimization steps, time(MIN)/time(ED)=0.00336
sb1_1     =  0.0000	sb2_1     = -0.0000	sb3_1     =  0.0101	sb4_1     = -0.1828	sb5_1     =  0.0101	
sb6_1     = -0.1828	sb7_1     =  0.0000	sb8_1     =  0.0000	eb1_1     =  0.0073	eb2_1     = -3.2405	
eb3_1     = -3.9554	eb4_1     = -0.1165	eb5_1     = -3.9553	eb6_1     = -0.1165	eb7_1     =  0.1567	
eb8_1     = -3.5865	tb1_1     = -0.1179	tb2_1     = -1.1037	tb3_1     =  1.7426	tb4_1     =  0.0430	
tb5_1     = -1.7426	tb6_1     = -0.0430	tb7_1     =  0.2522	tb8_1     = -2.3029	

CDMFT iteration 2, distance =  1.92e+02, diff param =  1.10e-02, diff hybrid =  9.64e-02
60 minimization steps, time(MIN)/time(ED)=0.00255
sb1_1     = -0.0000	sb2_1     =  0.0000	sb3_1     =  0.0064	sb4_1     = -0.1959	sb5_1     =  0.0064	
sb6_1     = -0.1959	sb7_1     =  0.0000	sb8_1     =  0.0000	eb1_1     =  0.0128	eb2_1     = -3.2246	
eb3_1     = -3.9502	eb4_1     = -0.1356	eb5_1     = -3.9501	eb6_1     = -0.1355	eb7_1     =  0.1720	
eb8_1     = -3.5954	tb1_1     = -0.1194	tb2_1     = -1.0962	tb3_1     =  1.7354	tb4_1     =  0.0236	
tb5_1     = -1.7353	tb6_1     = -0.0236	tb7_1     =  0.2660	tb8_1     = -2.2954	

CDMFT iteration 3, distance =  1.79e+02, diff param =  1.51e-02, diff hybrid =  4.47e-02
79 minimization steps, time(MIN)/time(ED)=0.00238
sb1_1     =  0.0001	sb2_1     =  0.0000	sb3_1     =  0.0080	sb4_1     = -0.1889	sb5_1     =  0.0080	
sb6_1     = -0.1889	sb7_1     = -0.0000	sb8_1     = -0.0000	eb1_1     =  0.0052	eb2_1     = -3.1585	
eb3_1     = -3.9330	eb4_1     = -0.1315	eb5_1     = -3.9330	eb6_1     = -0.1315	eb7_1     =  0.1731	
eb8_1     = -3.6017	tb1_1     = -0.1181	tb2_1     = -1.0891	tb3_1     =  1.7364	tb4_1     =  0.0303	
tb5_1     = -1.7364	tb6_1     = -0.0303	tb7_1     =  0.2587	tb8_1     = -2.3029	

CDMFT iteration 4, distance =  1.82e+02, diff param =  1.85e-03, diff hybrid =  2.64e-02
28 minimization steps, time(MIN)/time(ED)=0.00199
sb1_1     = -0.0000	sb2_1     = -0.0000	sb3_1     =  0.0079	sb4_1     = -0.1903	sb5_1     =  0.0079	
sb6_1     = -0.1903	sb7_1     =  0.0000	sb8_1     =  0.0000	eb1_1     =  0.0075	eb2_1     = -3.1594	
eb3_1     = -3.9328	eb4_1     = -0.1298	eb5_1     = -3.9328	eb6_1     = -0.1298	eb7_1     =  0.1703	
eb8_1     = -3.5958	tb1_1     = -0.1186	tb2_1     = -1.0884	tb3_1     =  1.7346	tb4_1     =  0.0298	
tb5_1     = -1.7346	tb6_1     = -0.0298	tb7_1     =  0.2604	tb8_1     = -2.2993	

CDMFT iteration 5, distance =  1.84e+02, diff param =  1.14e-03, diff hybrid =  8.70e-03
24 minimization steps, time(MIN)/time(ED)=0.00173
sb1_1     =  0.0000	sb2_1     =  0.0000	sb3_1     =  0.0075	sb4_1     = -0.1911	sb5_1     =  0.0075	
sb6_1     = -0.1911	sb7_1     = -0.0000	sb8_1     = -0.0000	eb1_1     =  0.0092	eb2_1     = -3.1613	
eb3_1     = -3.9339	eb4_1     = -0.1317	eb5_1     = -3.9339	eb6_1     = -0.1317	eb7_1     =  0.1721	
eb8_1     = -3.5974	tb1_1     = -0.1185	tb2_1     = -1.0885	tb3_1     =  1.7345	tb4_1     =  0.0281	
tb5_1     = -1.7345	tb6_1     = -0.0281	tb7_1     =  0.2613	tb8_1     = -2.2993	

CDMFT iteration 6, distance =  1.82e+02, diff param =  7.99e-04, diff hybrid =  3.84e-03
10 minimization steps, time(MIN)/time(ED)=0.00150
====================== CDMFT converged on the parameters ======================
sb1_1     =  0.0000	sb2_1     =  0.0000	sb3_1     =  0.0079	sb4_1     = -0.1902	sb5_1     =  0.0079	
sb6_1     = -0.1902	sb7_1     =  0.0000	sb8_1     =  0.0000	eb1_1     =  0.0075	eb2_1     = -3.1612	
eb3_1     = -3.9339	eb4_1     = -0.1313	eb5_1     = -3.9339	eb6_1     = -0.1313	eb7_1     =  0.1721	
eb8_1     = -3.5975	tb1_1     = -0.1185	tb2_1     = -1.0889	tb3_1     =  1.7352	tb4_1     =  0.0300	
tb5_1     = -1.7352	tb6_1     = -0.0300	tb7_1     =  0.2602	tb8_1     = -2.3002	
   <D> = 0.011015
   <e> = 1.251959
   <mu> = 1.607485
   <tpd> = -0.614989
   <tpp> = -0.203115
   <tppp> = 0.084308
************************* CDMFT completed successfully *************************

******************************* CDMFT procedure *******************************

minimization method =  CG
mixing state =  1
frequency grid type =  sharp
fictitious inverse temperature =  50
frequency cutoff =  2.0
--------------------------------------------------------------------------------

CDMFT iteration 1, distance =  1.72e+02, diff param =  2.85e-02
91 minimization steps, time(MIN)/time(ED)=0.00231
sb1_1     = -0.0000	sb2_1     =  0.0000	sb3_1     =  0.0099	sb4_1     = -0.1773	sb5_1     =  0.0099	
sb6_1     = -0.1773	sb7_1     = -0.0000	sb8_1     =  0.0000	eb1_1     = -0.0016	eb2_1     = -3.2112	
eb3_1     = -4.0007	eb4_1     = -0.1180	eb5_1     = -4.0006	eb6_1     = -0.1180	eb7_1     =  0.1600	
eb8_1     = -3.6782	tb1_1     = -0.1152	tb2_1     = -1.0866	tb3_1     =  1.7302	tb4_1     =  0.0411	
tb5_1     = -1.7302	tb6_1     = -0.0411	tb7_1     =  0.2456	tb8_1     = -2.2939	

CDMFT iteration 2, distance =  1.60e+02, diff param =  9.15e-03, diff hybrid =  6.20e-02
57 minimization steps, time(MIN)/time(ED)=0.00185
sb1_1     =  0.0000	sb2_1     = -0.0000	sb3_1     =  0.0113	sb4_1     = -0.1707	sb5_1     =  0.0113	
sb6_1     = -0.1707	sb7_1     = -0.0000	sb8_1     =  0.0000	eb1_1     = -0.0039	eb2_1     = -3.2386	
eb3_1     = -4.0187	eb4_1     = -0.1116	eb5_1     = -4.0188	eb6_1     = -0.1116	eb7_1     =  0.1527	
eb8_1     = -3.6755	tb1_1     = -0.1138	tb2_1     = -1.0927	tb3_1     =  1.7364	tb4_1     =  0.0504	
tb5_1     = -1.7364	tb6_1     = -0.0504	tb7_1     =  0.2380	tb8_1     = -2.2979	

CDMFT iteration 3, distance =  1.64e+02, diff param =  5.04e-03, diff hybrid =  2.14e-02
61 minimization steps, time(MIN)/time(ED)=0.00171
sb1_1     = -0.0000	sb2_1     =  0.0000	sb3_1     =  0.0108	sb4_1     = -0.1731	sb5_1     =  0.0108	
sb6_1     = -0.1731	sb7_1     =  0.0000	sb8_1     =  0.0000	eb1_1     =  0.0008	eb2_1     = -3.2604	
eb3_1     = -4.0239	eb4_1     = -0.1098	eb5_1     = -4.0239	eb6_1     = -0.1098	eb7_1     =  0.1508	
eb8_1     = -3.6725	tb1_1     = -0.1147	tb2_1     = -1.0954	tb3_1     =  1.7358	tb4_1     =  0.0485	
tb5_1     = -1.7358	tb6_1     = -0.0485	tb7_1     =  0.2406	tb8_1     = -2.2953	

CDMFT iteration 4, distance =  1.65e+02, diff param =  2.29e-03, diff hybrid =  1.13e-02
42 minimization steps, time(MIN)/time(ED)=0.00154
sb1_1     =  0.0000	sb2_1     = -0.0000	sb3_1     =  0.0105	sb4_1     = -0.1742	sb5_1     =  0.0105	
sb6_1     = -0.1742	sb7_1     =  0.0000	sb8_1     =  0.0000	eb1_1     =  0.0022	eb2_1     = -3.2663	
eb3_1     = -4.0275	eb4_1     = -0.1121	eb5_1     = -4.0275	eb6_1     = -0.1121	eb7_1     =  0.1536	
eb8_1     = -3.6780	tb1_1     = -0.1145	tb2_1     = -1.0962	tb3_1     =  1.7365	tb4_1     =  0.0469	
tb5_1     = -1.7365	tb6_1     = -0.0469	tb7_1     =  0.2420	tb8_1     = -2.2967	

CDMFT iteration 5, distance =  1.64e+02, diff param =  9.05e-04, diff hybrid =  3.88e-03
9 minimization steps, time(MIN)/time(ED)=0.00129
====================== CDMFT converged on the parameters ======================
sb1_1     =  0.0000	sb2_1     = -0.0000	sb3_1     =  0.0110	sb4_1     = -0.1731	sb5_1     =  0.0110	
sb6_1     = -0.1731	sb7_1     =  0.0000	sb8_1     =  0.0000	eb1_1     =  0.0004	eb2_1     = -3.2663	
eb3_1     = -4.0274	eb4_1     = -0.1126	eb5_1     = -4.0274	eb6_1     = -0.1126	eb7_1     =  0.1544	
eb8_1     = -3.6778	tb1_1     = -0.1144	tb2_1     = -1.0965	tb3_1     =  1.7370	tb4_1     =  0.0491	
tb5_1     = -1.7370	tb6_1     = -0.0491	tb7_1     =  0.2409	tb8_1     = -2.2974	
   <D> = 0.014344
   <e> = 1.258108
   <mu> = 1.617608
   <tpd> = -0.590700
   <tpp> = -0.188635
   <tppp> = 0.078423
************************* CDMFT completed successfully *************************

******************************* CDMFT procedure *******************************

minimization method =  CG
mixing state =  1
frequency grid type =  sharp
fictitious inverse temperature =  50
frequency cutoff =  2.0
--------------------------------------------------------------------------------

CDMFT iteration 1, distance =  1.56e+02, diff param =  3.30e-02
67 minimization steps, time(MIN)/time(ED)=0.00162
sb1_1     = -0.0000	sb2_1     =  0.0000	sb3_1     =  0.0122	sb4_1     = -0.1601	sb5_1     =  0.0122	
sb6_1     = -0.1602	sb7_1     = -0.0000	sb8_1     =  0.0000	eb1_1     = -0.0118	eb2_1     = -3.3247	
eb3_1     = -4.1143	eb4_1     = -0.1053	eb5_1     = -4.1143	eb6_1     = -0.1053	eb7_1     =  0.1438	
eb8_1     = -3.7581	tb1_1     = -0.1110	tb2_1     = -1.0946	tb3_1     =  1.7354	tb4_1     =  0.0597	
tb5_1     = -1.7354	tb6_1     = -0.0597	tb7_1     =  0.2249	tb8_1     = -2.2905	

CDMFT iteration 2, distance =  1.40e+02, diff param =  1.70e-02, diff hybrid =  6.21e-02
80 minimization steps, time(MIN)/time(ED)=0.00175
sb1_1     = -0.0000	sb2_1     =  0.0000	sb3_1     =  0.0132	sb4_1     = -0.1494	sb5_1     =  0.0132	
sb6_1     = -0.1494	sb7_1     = -0.0000	sb8_1     =  0.0000	eb1_1     = -0.0264	eb2_1     = -3.3896	
eb3_1     = -4.1395	eb4_1     = -0.1005	eb5_1     = -4.1395	eb6_1     = -0.1005	eb7_1     =  0.1317	
eb8_1     = -3.7478	tb1_1     = -0.1118	tb2_1     = -1.1050	tb3_1     =  1.7438	tb4_1     =  0.0707	
tb5_1     = -1.7438	tb6_1     = -0.0707	tb7_1     =  0.2109	tb8_1     = -2.2934	

CDMFT iteration 3, distance =  1.40e+02, diff param =  6.88e-03, diff hybrid =  3.32e-02
52 minimization steps, time(MIN)/time(ED)=0.00151
sb1_1     =  0.0000	sb2_1     =  0.0000	sb3_1     =  0.0117	sb4_1     = -0.1512	sb5_1     =  0.0117	
sb6_1     = -0.1512	sb7_1     =  0.0000	sb8_1     = -0.0000	eb1_1     = -0.0168	eb2_1     = -3.3944	
eb3_1     = -4.1283	eb4_1     = -0.0890	eb5_1     = -4.1281	eb6_1     = -0.0890	eb7_1     =  0.1187	
eb8_1     = -3.7341	tb1_1     = -0.1113	tb2_1     = -1.1062	tb3_1     =  1.7403	tb4_1     =  0.0648	
tb5_1     = -1.7403	tb6_1     = -0.0648	tb7_1     =  0.2113	tb8_1     = -2.2873	

CDMFT iteration 4, distance =  1.45e+02, diff param =  3.76e-03, diff hybrid =  2.14e-02
35 minimization steps, time(MIN)/time(ED)=0.00132
sb1_1     = -0.0001	sb2_1     =  0.0000	sb3_1     =  0.0109	sb4_1     = -0.1547	sb5_1     =  0.0109	
sb6_1     = -0.1547	sb7_1     = -0.0000	sb8_1     = -0.0000	eb1_1     = -0.0102	eb2_1     = -3.3968	
eb3_1     = -4.1259	eb4_1     = -0.0909	eb5_1     = -4.1258	eb6_1     = -0.0909	eb7_1     =  0.1245	
eb8_1     = -3.7440	tb1_1     = -0.1104	tb2_1     = -1.1067	tb3_1     =  1.7396	tb4_1     =  0.0582	
tb5_1     = -1.7396	tb6_1     = -0.0583	tb7_1     =  0.2162	tb8_1     = -2.2892	

CDMFT iteration 5, distance =  1.43e+02, diff param =  2.51e-03, diff hybrid =  1.30e-02
19 minimization steps, time(MIN)/time(ED)=0.00117
sb1_1     =  0.0001	sb2_1     = -0.0000	sb3_1     =  0.0116	sb4_1     = -0.1530	sb5_1     =  0.0116	
sb6_1     = -0.1529	sb7_1     =  0.0000	sb8_1     = -0.0000	eb1_1     = -0.0144	eb2_1     = -3.3968	
eb3_1     = -4.1260	eb4_1     = -0.0950	eb5_1     = -4.1259	eb6_1     = -0.0950	eb7_1     =  0.1292	
eb8_1     = -3.7493	tb1_1     = -0.1102	tb2_1     = -1.1070	tb3_1     =  1.7407	tb4_1     =  0.0619	
tb5_1     = -1.7407	tb6_1     = -0.0619	tb7_1     =  0.2148	tb8_1     = -2.2922	

CDMFT iteration 6, distance =  1.42e+02, diff param =  1.63e-03, diff hybrid =  1.12e-02
19 minimization steps, time(MIN)/time(ED)=0.00107
sb1_1     = -0.0002	sb2_1     =  0.0000	sb3_1     =  0.0121	sb4_1     = -0.1515	sb5_1     =  0.0121	
sb6_1     = -0.1515	sb7_1     = -0.0001	sb8_1     =  0.0000	eb1_1     = -0.0175	eb2_1     = -3.3968	
eb3_1     = -4.1263	eb4_1     = -0.0940	eb5_1     = -4.1263	eb6_1     = -0.0940	eb7_1     =  0.1269	
eb8_1     = -3.7451	tb1_1     = -0.1110	tb2_1     = -1.1068	tb3_1     =  1.7406	tb4_1     =  0.0650	
tb5_1     = -1.7406	tb6_1     = -0.0650	tb7_1     =  0.2130	tb8_1     = -2.2914	

CDMFT iteration 7, distance =  1.42e+02, diff param =  1.25e-03, diff hybrid =  5.60e-03
11 minimization steps, time(MIN)/time(ED)=0.00096
sb1_1     = -0.0000	sb2_1     =  0.0000	sb3_1     =  0.0116	sb4_1     = -0.1526	sb5_1     =  0.0116	
sb6_1     = -0.1527	sb7_1     =  0.0001	sb8_1     = -0.0000	eb1_1     = -0.0146	eb2_1     = -3.3969	
eb3_1     = -4.1264	eb4_1     = -0.0920	eb5_1     = -4.1263	eb6_1     = -0.0919	eb7_1     =  0.1248	
eb8_1     = -3.7449	tb1_1     = -0.1108	tb2_1     = -1.1067	tb3_1     =  1.7401	tb4_1     =  0.0628	
tb5_1     = -1.7401	tb6_1     = -0.0627	tb7_1     =  0.2141	tb8_1     = -2.2905	

CDMFT iteration 8, distance =  1.43e+02, diff param =  6.11e-04, diff hybrid =  6.42e-03
8 minimization steps, time(MIN)/time(ED)=0.00087
====================== CDMFT converged on the parameters ======================
sb1_1     = -0.0001	sb2_1     = -0.0000	sb3_1     =  0.0115	sb4_1     = -0.1531	sb5_1     =  0.0115	
sb6_1     = -0.1532	sb7_1     = -0.0000	sb8_1     =  0.0000	eb1_1     = -0.0136	eb2_1     = -3.3970	
eb3_1     = -4.1263	eb4_1     = -0.0928	eb5_1     = -4.1262	eb6_1     = -0.0929	eb7_1     =  0.1264	
eb8_1     = -3.7449	tb1_1     = -0.1105	tb2_1     = -1.1068	tb3_1     =  1.7402	tb4_1     =  0.0616	
tb5_1     = -1.7402	tb6_1     = -0.0617	tb7_1     =  0.2147	tb8_1     = -2.2904	
   <D> = 0.014650
   <e> = 1.264250
   <mu> = 1.627719
   <tpd> = -0.565975
   <tpp> = -0.173692
   <tppp> = 0.072519
************************* CDMFT completed successfully *************************

******************************* CDMFT procedure *******************************

minimization method =  CG
mixing state =  1
frequency grid type =  sharp
fictitious inverse temperature =  50
frequency cutoff =  2.0
--------------------------------------------------------------------------------

CDMFT iteration 1, distance =  1.35e+02, diff param =  4.32e-02
87 minimization steps, time(MIN)/time(ED)=0.00209
sb1_1     =  0.0001	sb2_1     = -0.0000	sb3_1     =  0.0125	sb4_1     = -0.1397	sb5_1     =  0.0125	
sb6_1     = -0.1398	sb7_1     =  0.0001	sb8_1     = -0.0000	eb1_1     = -0.0380	eb2_1     = -3.5113	
eb3_1     = -4.2339	eb4_1     = -0.0936	eb5_1     = -4.2336	eb6_1     = -0.0935	eb7_1     =  0.1172	
eb8_1     = -3.8279	tb1_1     = -0.1109	tb2_1     = -1.1102	tb3_1     =  1.7422	tb4_1     =  0.0724	
tb5_1     = -1.7422	tb6_1     = -0.0723	tb7_1     =  0.1965	tb8_1     = -2.2839	

CDMFT iteration 2, distance =  8.49e+01, diff param =  2.00e-01, diff hybrid =  6.50e-02
175 minimization steps, time(MIN)/time(ED)=0.00305
sb1_1     = -0.0000	sb2_1     =  0.0000	sb3_1     =  0.0184	sb4_1     = -0.0889	sb5_1     =  0.0184	
sb6_1     = -0.0889	sb7_1     = -0.0007	sb8_1     =  0.0001	eb1_1     = -0.2321	eb2_1     = -4.3791	
eb3_1     = -4.4844	eb4_1     = -0.1620	eb5_1     = -4.4847	eb6_1     = -0.1620	eb7_1     =  0.1203	
eb8_1     = -3.7933	tb1_1     = -0.1921	tb2_1     = -1.1990	tb3_1     =  1.7820	tb4_1     =  0.1457	
tb5_1     = -1.7821	tb6_1     = -0.1457	tb7_1     =  0.1483	tb8_1     = -2.2881	

CDMFT iteration 3, distance =  8.45e+01, diff param =  5.80e-02, diff hybrid =  1.29e-01
202 minimization steps, time(MIN)/time(ED)=0.00383
sb1_1     =  0.0001	sb2_1     = -0.0001	sb3_1     =  0.0139	sb4_1     = -0.0885	sb5_1     =  0.0138	
sb6_1     = -0.0884	sb7_1     = -0.0000	sb8_1     = -0.0000	eb1_1     = -0.1337	eb2_1     = -4.2232	
eb3_1     = -4.5523	eb4_1     = -0.1131	eb5_1     = -4.5525	eb6_1     = -0.1131	eb7_1     = -0.0415	
eb8_1     = -3.8688	tb1_1     = -0.1713	tb2_1     = -1.1917	tb3_1     =  1.7964	tb4_1     =  0.1484	
tb5_1     = -1.7964	tb6_1     = -0.1484	tb7_1     =  0.1408	tb8_1     = -2.2886	

CDMFT iteration 4, distance =  1.33e+02, diff param =  1.47e-01, diff hybrid =  1.20e-01
144 minimization steps, time(MIN)/time(ED)=0.00383
sb1_1     = -0.0006	sb2_1     = -0.0000	sb3_1     =  0.0097	sb4_1     = -0.1322	sb5_1     =  0.0097	
sb6_1     = -0.1322	sb7_1     = -0.0001	sb8_1     =  0.0000	eb1_1     = -0.0035	eb2_1     = -3.6553	
eb3_1     = -4.2970	eb4_1     = -0.0672	eb5_1     = -4.2984	eb6_1     = -0.0674	eb7_1     =  0.0664	
eb8_1     = -3.7932	tb1_1     = -0.1142	tb2_1     = -1.1353	tb3_1     =  1.7533	tb4_1     =  0.0773	
tb5_1     = -1.7536	tb6_1     = -0.0774	tb7_1     =  0.1690	tb8_1     = -2.2742	

CDMFT iteration 5, distance =  1.29e+02, diff param =  2.02e-02, diff hybrid =  1.83e-01
85 minimization steps, time(MIN)/time(ED)=0.00338
sb1_1     =  0.0002	sb2_1     = -0.0000	sb3_1     =  0.0113	sb4_1     = -0.1338	sb5_1     =  0.0113	
sb6_1     = -0.1337	sb7_1     =  0.0001	sb8_1     = -0.0000	eb1_1     = -0.0366	eb2_1     = -3.6137	
eb3_1     = -4.2616	eb4_1     = -0.0849	eb5_1     = -4.2609	eb6_1     = -0.0847	eb7_1     =  0.1044	
eb8_1     = -3.8321	tb1_1     = -0.1101	tb2_1     = -1.1270	tb3_1     =  1.7501	tb4_1     =  0.0730	
tb5_1     = -1.7500	tb6_1     = -0.0727	tb7_1     =  0.1874	tb8_1     = -2.2883	

CDMFT iteration 6, distance =  8.59e+01, diff param =  1.66e-01, diff hybrid =  5.02e-02
220 minimization steps, time(MIN)/time(ED)=0.00359
sb1_1     = -0.0000	sb2_1     =  0.0000	sb3_1     =  0.0182	sb4_1     = -0.0909	sb5_1     =  0.0182	
sb6_1     = -0.0910	sb7_1     = -0.0015	sb8_1     =  0.0003	eb1_1     = -0.2198	eb2_1     = -4.3189	
eb3_1     = -4.4718	eb4_1     = -0.1523	eb5_1     = -4.4727	eb6_1     = -0.1524	eb7_1     =  0.1030	
eb8_1     = -3.7830	tb1_1     = -0.1882	tb2_1     = -1.1933	tb3_1     =  1.7812	tb4_1     =  0.1417	
tb5_1     = -1.7814	tb6_1     = -0.1418	tb7_1     =  0.1446	tb8_1     = -2.2847	

CDMFT iteration 7, distance =  8.64e+01, diff param =  5.19e-02, diff hybrid =  1.18e-01
138 minimization steps, time(MIN)/time(ED)=0.00360
sb1_1     =  0.0003	sb2_1     = -0.0001	sb3_1     =  0.0142	sb4_1     = -0.0911	sb5_1     =  0.0141	
sb6_1     = -0.0909	sb7_1     = -0.0002	sb8_1     = -0.0000	eb1_1     = -0.1294	eb2_1     = -4.1670	
eb3_1     = -4.5309	eb4_1     = -0.1115	eb5_1     = -4.5312	eb6_1     = -0.1115	eb7_1     = -0.0323	
eb8_1     = -3.8455	tb1_1     = -0.1681	tb2_1     = -1.1850	tb3_1     =  1.7927	tb4_1     =  0.1450	
tb5_1     = -1.7927	tb6_1     = -0.1451	tb7_1     =  0.1354	tb8_1     = -2.2833	

CDMFT iteration 8, distance =  1.31e+02, diff param =  1.33e-01, diff hybrid =  1.11e-01
167 minimization steps, time(MIN)/time(ED)=0.00370
sb1_1     = -0.0012	sb2_1     = -0.0000	sb3_1     =  0.0099	sb4_1     = -0.1309	sb5_1     =  0.0100	
sb6_1     = -0.1310	sb7_1     = -0.0003	sb8_1     =  0.0000	eb1_1     = -0.0043	eb2_1     = -3.6533	
eb3_1     = -4.2992	eb4_1     = -0.0681	eb5_1     = -4.3023	eb6_1     = -0.0688	eb7_1     =  0.0665	
eb8_1     = -3.7908	tb1_1     = -0.1141	tb2_1     = -1.1352	tb3_1     =  1.7538	tb4_1     =  0.0790	
tb5_1     = -1.7544	tb6_1     = -0.0794	tb7_1     =  0.1673	tb8_1     = -2.2739	

CDMFT iteration 9, distance =  1.29e+02, diff param =  1.87e-02, diff hybrid =  1.70e-01
79 minimization steps, time(MIN)/time(ED)=0.00345
sb1_1     =  0.0005	sb2_1     = -0.0001	sb3_1     =  0.0115	sb4_1     = -0.1334	sb5_1     =  0.0115	
sb6_1     = -0.1333	sb7_1     =  0.0003	sb8_1     = -0.0000	eb1_1     = -0.0387	eb2_1     = -3.6248	
eb3_1     = -4.2680	eb4_1     = -0.0854	eb5_1     = -4.2671	eb6_1     = -0.0848	eb7_1     =  0.1034	
eb8_1     = -3.8304	tb1_1     = -0.1111	tb2_1     = -1.1282	tb3_1     =  1.7512	tb4_1     =  0.0745	
tb5_1     = -1.7511	tb6_1     = -0.0740	tb7_1     =  0.1865	tb8_1     = -2.2879	

CDMFT iteration 10, distance =  8.62e+01, diff param =  1.57e-01, diff hybrid =  4.92e-02
180 minimization steps, time(MIN)/time(ED)=0.00351
sb1_1     = -0.0002	sb2_1     =  0.0000	sb3_1     =  0.0182	sb4_1     = -0.0917	sb5_1     =  0.0182	
sb6_1     = -0.0919	sb7_1     = -0.0032	sb8_1     =  0.0006	eb1_1     = -0.2142	eb2_1     = -4.2905	
eb3_1     = -4.4716	eb4_1     = -0.1506	eb5_1     = -4.4738	eb6_1     = -0.1508	eb7_1     =  0.1035	
eb8_1     = -3.7856	tb1_1     = -0.1861	tb2_1     = -1.1906	tb3_1     =  1.7814	tb4_1     =  0.1408	
tb5_1     = -1.7818	tb6_1     = -0.1410	tb7_1     =  0.1452	tb8_1     = -2.2854	

CDMFT iteration 11, distance =  8.66e+01, diff param =  5.26e-02, diff hybrid =  1.15e-01
164 minimization steps, time(MIN)/time(ED)=0.00360
sb1_1     =  0.0007	sb2_1     = -0.0003	sb3_1     =  0.0143	sb4_1     = -0.0916	sb5_1     =  0.0142	
sb6_1     = -0.0911	sb7_1     = -0.0005	sb8_1     = -0.0001	eb1_1     = -0.1279	eb2_1     = -4.1265	
eb3_1     = -4.5297	eb4_1     = -0.1122	eb5_1     = -4.5301	eb6_1     = -0.1120	eb7_1     = -0.0315	
eb8_1     = -3.8434	tb1_1     = -0.1667	tb2_1     = -1.1803	tb3_1     =  1.7925	tb4_1     =  0.1448	
tb5_1     = -1.7925	tb6_1     = -0.1448	tb7_1     =  0.1347	tb8_1     = -2.2828	

CDMFT iteration 12, distance =  1.31e+02, diff param =  1.26e-01, diff hybrid =  1.10e-01
191 minimization steps, time(MIN)/time(ED)=0.00371
sb1_1     = -0.0025	sb2_1     =  0.0000	sb3_1     =  0.0100	sb4_1     = -0.1304	sb5_1     =  0.0101	
sb6_1     = -0.1307	sb7_1     = -0.0007	sb8_1     =  0.0000	eb1_1     = -0.0047	eb2_1     = -3.6544	
eb3_1     = -4.2990	eb4_1     = -0.0680	eb5_1     = -4.3054	eb6_1     = -0.0695	eb7_1     =  0.0653	
eb8_1     = -3.7880	tb1_1     = -0.1141	tb2_1     = -1.1354	tb3_1     =  1.7538	tb4_1     =  0.0796	
tb5_1     = -1.7549	tb6_1     = -0.0804	tb7_1     =  0.1661	tb8_1     = -2.2731	

CDMFT iteration 13, distance =  1.29e+02, diff param =  2.01e-02, diff hybrid =  1.68e-01
75 minimization steps, time(MIN)/time(ED)=0.00354
sb1_1     =  0.0010	sb2_1     = -0.0001	sb3_1     =  0.0115	sb4_1     = -0.1333	sb5_1     =  0.0114	
sb6_1     = -0.1332	sb7_1     =  0.0004	sb8_1     = -0.0000	eb1_1     = -0.0385	eb2_1     = -3.6212	
eb3_1     = -4.2660	eb4_1     = -0.0855	eb5_1     = -4.2627	eb6_1     = -0.0841	eb7_1     =  0.1031	
eb8_1     = -3.8303	tb1_1     = -0.1110	tb2_1     = -1.1277	tb3_1     =  1.7507	tb4_1     =  0.0748	
tb5_1     = -1.7502	tb6_1     = -0.0737	tb7_1     =  0.1865	tb8_1     = -2.2878	

CDMFT iteration 14, distance =  8.64e+01, diff param =  1.49e-01, diff hybrid =  4.92e-02
215 minimization steps, time(MIN)/time(ED)=0.00362
sb1_1     = -0.0003	sb2_1     =  0.0001	sb3_1     =  0.0181	sb4_1     = -0.0919	sb5_1     =  0.0181	
sb6_1     = -0.0923	sb7_1     = -0.0065	sb8_1     =  0.0012	eb1_1     = -0.2105	eb2_1     = -4.2431	
eb3_1     = -4.4645	eb4_1     = -0.1490	eb5_1     = -4.4693	eb6_1     = -0.1495	eb7_1     =  0.1040	
eb8_1     = -3.7873	tb1_1     = -0.1842	tb2_1     = -1.1854	tb3_1     =  1.7803	tb4_1     =  0.1399	
tb5_1     = -1.7811	tb6_1     = -0.1402	tb7_1     =  0.1456	tb8_1     = -2.2858	

CDMFT iteration 15, distance =  8.68e+01, diff param =  4.22e-02, diff hybrid =  1.14e-01
130 minimization steps, time(MIN)/time(ED)=0.00363
sb1_1     =  0.0014	sb2_1     = -0.0005	sb3_1     =  0.0145	sb4_1     = -0.0921	sb5_1     =  0.0142	
sb6_1     = -0.0911	sb7_1     = -0.0009	sb8_1     = -0.0001	eb1_1     = -0.1314	eb2_1     = -4.1784	
eb3_1     = -4.5286	eb4_1     = -0.1126	eb5_1     = -4.5291	eb6_1     = -0.1120	eb7_1     = -0.0309	
eb8_1     = -3.8410	tb1_1     = -0.1686	tb2_1     = -1.1861	tb3_1     =  1.7923	tb4_1     =  0.1447	
tb5_1     = -1.7923	tb6_1     = -0.1446	tb7_1     =  0.1343	tb8_1     = -2.2822	

CDMFT iteration 16, distance =  1.30e+02, diff param =  1.33e-01, diff hybrid =  1.10e-01
178 minimization steps, time(MIN)/time(ED)=0.00367
sb1_1     = -0.0050	sb2_1     = -0.0000	sb3_1     =  0.0100	sb4_1     = -0.1302	sb5_1     =  0.0101	
sb6_1     = -0.1306	sb7_1     = -0.0014	sb8_1     =  0.0001	eb1_1     = -0.0048	eb2_1     = -3.6582	
eb3_1     = -4.2964	eb4_1     = -0.0673	eb5_1     = -4.3090	eb6_1     = -0.0702	eb7_1     =  0.0649	
eb8_1     = -3.7893	tb1_1     = -0.1141	tb2_1     = -1.1359	tb3_1     =  1.7534	tb4_1     =  0.0794	
tb5_1     = -1.7556	tb6_1     = -0.0809	tb7_1     =  0.1658	tb8_1     = -2.2735	

CDMFT iteration 17, distance =  1.29e+02, diff param =  2.10e-02, diff hybrid =  1.67e-01
83 minimization steps, time(MIN)/time(ED)=0.00355
sb1_1     =  0.0020	sb2_1     = -0.0002	sb3_1     =  0.0116	sb4_1     = -0.1334	sb5_1     =  0.0113	
sb6_1     = -0.1330	sb7_1     =  0.0010	sb8_1     = -0.0001	eb1_1     = -0.0384	eb2_1     = -3.6184	
eb3_1     = -4.2665	eb4_1     = -0.0861	eb5_1     = -4.2593	eb6_1     = -0.0833	eb7_1     =  0.1029	
eb8_1     = -3.8300	tb1_1     = -0.1110	tb2_1     = -1.1273	tb3_1     =  1.7508	tb4_1     =  0.0754	
tb5_1     = -1.7496	tb6_1     = -0.0732	tb7_1     =  0.1864	tb8_1     = -2.2878	

CDMFT iteration 18, distance =  8.65e+01, diff param =  1.52e-01, diff hybrid =  4.94e-02
235 minimization steps, time(MIN)/time(ED)=0.00364
sb1_1     = -0.0006	sb2_1     =  0.0002	sb3_1     =  0.0181	sb4_1     = -0.0918	sb5_1     =  0.0181	
sb6_1     = -0.0927	sb7_1     = -0.0127	sb8_1     =  0.0024	eb1_1     = -0.2114	eb2_1     = -4.2556	
eb3_1     = -4.4603	eb4_1     = -0.1483	eb5_1     = -4.4697	eb6_1     = -0.1496	eb7_1     =  0.1037	
eb8_1     = -3.7865	tb1_1     = -0.1848	tb2_1     = -1.1867	tb3_1     =  1.7796	tb4_1     =  0.1396	
tb5_1     = -1.7812	tb6_1     = -0.1401	tb7_1     =  0.1453	tb8_1     = -2.2853	

CDMFT iteration 19, distance =  8.69e+01, diff param =  4.74e-02, diff hybrid =  1.14e-01
146 minimization steps, time(MIN)/time(ED)=0.00367
sb1_1     =  0.0028	sb2_1     = -0.0010	sb3_1     =  0.0147	sb4_1     = -0.0929	sb5_1     =  0.0141	
sb6_1     = -0.0908	sb7_1     = -0.0017	sb8_1     = -0.0002	eb1_1     = -0.1283	eb2_1     = -4.1408	
eb3_1     = -4.5336	eb4_1     = -0.1128	eb5_1     = -4.5333	eb6_1     = -0.1116	eb7_1     = -0.0300	
eb8_1     = -3.8386	tb1_1     = -0.1669	tb2_1     = -1.1819	tb3_1     =  1.7932	tb4_1     =  0.1446	
tb5_1     = -1.7930	tb6_1     = -0.1443	tb7_1     =  0.1339	tb8_1     = -2.2817	

CDMFT iteration 20, distance =  1.30e+02, diff param =  1.30e-01, diff hybrid =  1.09e-01
144 minimization steps, time(MIN)/time(ED)=0.00367
sb1_1     = -0.0095	sb2_1     = -0.0000	sb3_1     =  0.0098	sb4_1     = -0.1298	sb5_1     =  0.0103	
sb6_1     = -0.1308	sb7_1     = -0.0027	sb8_1     =  0.0002	eb1_1     = -0.0049	eb2_1     = -3.6421	
eb3_1     = -4.2891	eb4_1     = -0.0661	eb5_1     = -4.3134	eb6_1     = -0.0717	eb7_1     =  0.0655	
eb8_1     = -3.7910	tb1_1     = -0.1137	tb2_1     = -1.1336	tb3_1     =  1.7521	tb4_1     =  0.0788	
tb5_1     = -1.7563	tb6_1     = -0.0817	tb7_1     =  0.1660	tb8_1     = -2.2740	

CDMFT iteration 21, distance =  1.29e+02, diff param =  2.01e-02, diff hybrid =  1.66e-01
89 minimization steps, time(MIN)/time(ED)=0.00358
sb1_1     =  0.0037	sb2_1     = -0.0004	sb3_1     =  0.0118	sb4_1     = -0.1335	sb5_1     =  0.0112	
sb6_1     = -0.1328	sb7_1     =  0.0019	sb8_1     = -0.0002	eb1_1     = -0.0389	eb2_1     = -3.6150	
eb3_1     = -4.2711	eb4_1     = -0.0876	eb5_1     = -4.2588	eb6_1     = -0.0823	eb7_1     =  0.1030	
eb8_1     = -3.8297	tb1_1     = -0.1111	tb2_1     = -1.1268	tb3_1     =  1.7516	tb4_1     =  0.0767	
tb5_1     = -1.7496	tb6_1     = -0.0725	tb7_1     =  0.1863	tb8_1     = -2.2877	

CDMFT iteration 22, distance =  8.67e+01, diff param =  1.61e-01, diff hybrid =  4.97e-02
222 minimization steps, time(MIN)/time(ED)=0.00364
sb1_1     = -0.0014	sb2_1     =  0.0005	sb3_1     =  0.0182	sb4_1     = -0.0917	sb5_1     =  0.0180	
sb6_1     = -0.0933	sb7_1     = -0.0232	sb8_1     =  0.0044	eb1_1     = -0.2151	eb2_1     = -4.3058	
eb3_1     = -4.4576	eb4_1     = -0.1477	eb5_1     = -4.4754	eb6_1     = -0.1500	eb7_1     =  0.1062	
eb8_1     = -3.7912	tb1_1     = -0.1867	tb2_1     = -1.1921	tb3_1     =  1.7791	tb4_1     =  0.1392	
tb5_1     = -1.7823	tb6_1     = -0.1404	tb7_1     =  0.1453	tb8_1     = -2.2863	

CDMFT iteration 23, distance =  8.70e+01, diff param =  5.13e-02, diff hybrid =  1.15e-01
202 minimization steps, time(MIN)/time(ED)=0.00372
sb1_1     =  0.0051	sb2_1     = -0.0018	sb3_1     =  0.0147	sb4_1     = -0.0939	sb5_1     =  0.0137	
sb6_1     = -0.0902	sb7_1     = -0.0032	sb8_1     = -0.0004	eb1_1     = -0.1263	eb2_1     = -4.1488	
eb3_1     = -4.5204	eb4_1     = -0.1118	eb5_1     = -4.5216	eb6_1     = -0.1097	eb7_1     = -0.0286	
eb8_1     = -3.8367	tb1_1     = -0.1661	tb2_1     = -1.1833	tb3_1     =  1.7911	tb4_1     =  0.1436	
tb5_1     = -1.7911	tb6_1     = -0.1430	tb7_1     =  0.1332	tb8_1     = -2.2814	

CDMFT iteration 24, distance =  1.30e+02, diff param =  1.29e-01, diff hybrid =  1.09e-01
203 minimization steps, time(MIN)/time(ED)=0.00377
sb1_1     = -0.0173	sb2_1     =  0.0001	sb3_1     =  0.0097	sb4_1     = -0.1295	sb5_1     =  0.0104	
sb6_1     = -0.1312	sb7_1     = -0.0050	sb8_1     =  0.0003	eb1_1     = -0.0050	eb2_1     = -3.6457	
eb3_1     = -4.2797	eb4_1     = -0.0639	eb5_1     = -4.3252	eb6_1     = -0.0742	eb7_1     =  0.0661	
eb8_1     = -3.7885	tb1_1     = -0.1127	tb2_1     = -1.1342	tb3_1     =  1.7505	tb4_1     =  0.0774	
tb5_1     = -1.7585	tb6_1     = -0.0828	tb7_1     =  0.1662	tb8_1     = -2.2734	

CDMFT iteration 25, distance =  1.29e+02, diff param =  2.29e-02, diff hybrid =  1.65e-01
77 minimization steps, time(MIN)/time(ED)=0.00368
sb1_1     =  0.0069	sb2_1     = -0.0008	sb3_1     =  0.0121	sb4_1     = -0.1338	sb5_1     =  0.0109	
sb6_1     = -0.1324	sb7_1     =  0.0035	sb8_1     = -0.0004	eb1_1     = -0.0394	eb2_1     = -3.6188	
eb3_1     = -4.2763	eb4_1     = -0.0898	eb5_1     = -4.2518	eb6_1     = -0.0800	eb7_1     =  0.1030	
eb8_1     = -3.8292	tb1_1     = -0.1112	tb2_1     = -1.1273	tb3_1     =  1.7524	tb4_1     =  0.0785	
tb5_1     = -1.7484	tb6_1     = -0.0706	tb7_1     =  0.1862	tb8_1     = -2.2876	

CDMFT iteration 26, distance =  8.72e+01, diff param =  1.60e-01, diff hybrid =  5.07e-02
237 minimization steps, time(MIN)/time(ED)=0.00374
sb1_1     = -0.0023	sb2_1     =  0.0008	sb3_1     =  0.0183	sb4_1     = -0.0916	sb5_1     =  0.0181	
sb6_1     = -0.0945	sb7_1     = -0.0372	sb8_1     =  0.0069	eb1_1     = -0.2145	eb2_1     = -4.3022	
eb3_1     = -4.4493	eb4_1     = -0.1456	eb5_1     = -4.4834	eb6_1     = -0.1502	eb7_1     =  0.1094	
eb8_1     = -3.7979	tb1_1     = -0.1864	tb2_1     = -1.1917	tb3_1     =  1.7779	tb4_1     =  0.1378	
tb5_1     = -1.7838	tb6_1     = -0.1403	tb7_1     =  0.1447	tb8_1     = -2.2872	

CDMFT iteration 27, distance =  8.74e+01, diff param =  6.14e-02, diff hybrid =  1.18e-01
144 minimization steps, time(MIN)/time(ED)=0.00375
sb1_1     =  0.0080	sb2_1     = -0.0028	sb3_1     =  0.0150	sb4_1     = -0.0957	sb5_1     =  0.0134	
sb6_1     = -0.0898	sb7_1     = -0.1319	sb8_1     = -0.0006	eb1_1     = -0.1204	eb2_1     = -4.1253	
eb3_1     = -4.5230	eb4_1     = -0.1114	eb5_1     = -4.5170	eb6_1     = -0.1072	eb7_1     =  0.0259	
eb8_1     = -3.8313	tb1_1     = -0.1632	tb2_1     = -1.1814	tb3_1     =  1.7918	tb4_1     =  0.1426	
tb5_1     = -1.7904	tb6_1     = -0.1413	tb7_1     = -0.0057	tb8_1     = -2.2803	

CDMFT iteration 28, distance =  1.29e+02, diff param =  1.25e-01, diff hybrid =  1.08e-01
169 minimization steps, time(MIN)/time(ED)=0.00377
sb1_1     = -0.0262	sb2_1     =  0.0000	sb3_1     =  0.0095	sb4_1     = -0.1289	sb5_1     =  0.0107	
sb6_1     = -0.1316	sb7_1     = -0.1664	sb8_1     =  0.0006	eb1_1     = -0.0056	eb2_1     = -3.6463	
eb3_1     = -4.2672	eb4_1     = -0.0613	eb5_1     = -4.3381	eb6_1     = -0.0775	eb7_1     = -0.0674	
eb8_1     = -3.7911	tb1_1     = -0.1109	tb2_1     = -1.1343	tb3_1     =  1.7483	tb4_1     =  0.0758	
tb5_1     = -1.7608	tb6_1     = -0.0846	tb7_1     = -0.0080	tb8_1     = -2.2743	

CDMFT iteration 29, distance =  1.29e+02, diff param =  2.56e-02, diff hybrid =  1.61e-01
91 minimization steps, time(MIN)/time(ED)=0.00370
sb1_1     =  0.0106	sb2_1     = -0.0013	sb3_1     =  0.0124	sb4_1     = -0.1338	sb5_1     =  0.0106	
sb6_1     = -0.1319	sb7_1     = -0.1858	sb8_1     = -0.0005	eb1_1     = -0.0409	eb2_1     = -3.6227	
eb3_1     = -4.2825	eb4_1     = -0.0927	eb5_1     = -4.2524	eb6_1     = -0.0775	eb7_1     = -0.1028	
eb8_1     = -3.8292	tb1_1     = -0.1115	tb2_1     = -1.1276	tb3_1     =  1.7534	tb4_1     =  0.0810	
tb5_1     = -1.7487	tb6_1     = -0.0688	tb7_1     =  0.0055	tb8_1     = -2.2876	

CDMFT iteration 30, distance =  8.80e+01, diff param =  1.52e-01, diff hybrid =  5.31e-02
161 minimization steps, time(MIN)/time(ED)=0.00369
sb1_1     = -0.0035	sb2_1     =  0.0011	sb3_1     =  0.0181	sb4_1     = -0.0919	sb5_1     =  0.0177	
sb6_1     = -0.0959	sb7_1     = -0.1445	sb8_1     =  0.0086	eb1_1     = -0.2110	eb2_1     = -4.2722	
eb3_1     = -4.4250	eb4_1     = -0.1413	eb5_1     = -4.4714	eb6_1     = -0.1480	eb7_1     = -0.1121	
eb8_1     = -3.8049	tb1_1     = -0.1848	tb2_1     = -1.1887	tb3_1     =  1.7741	tb4_1     =  0.1350	
tb5_1     = -1.7820	tb6_1     = -0.1388	tb7_1     = -0.0469	tb8_1     = -2.2881	

CDMFT iteration 31, distance =  8.81e+01, diff param =  6.86e-02, diff hybrid =  1.18e-01
203 minimization steps, time(MIN)/time(ED)=0.00374
sb1_1     =  0.0100	sb2_1     = -0.0033	sb3_1     =  0.0150	sb4_1     = -0.0973	sb5_1     =  0.0132	
sb6_1     = -0.0898	sb7_1     =  0.0083	sb8_1     = -0.0007	eb1_1     = -0.1110	eb2_1     = -4.0432	
eb3_1     = -4.5046	eb4_1     = -0.1100	eb5_1     = -4.4991	eb6_1     = -0.1042	eb7_1     = -0.0225	
eb8_1     = -3.8231	tb1_1     = -0.1582	tb2_1     = -1.1726	tb3_1     =  1.7887	tb4_1     =  0.1406	
tb5_1     = -1.7874	tb6_1     = -0.1390	tb7_1     = -0.1303	tb8_1     = -2.2785	

CDMFT iteration 32, distance =  1.29e+02, diff param =  1.09e-01, diff hybrid =  1.07e-01
146 minimization steps, time(MIN)/time(ED)=0.00373
sb1_1     = -0.0324	sb2_1     =  0.0001	sb3_1     =  0.0094	sb4_1     = -0.1284	sb5_1     =  0.0109	
sb6_1     = -0.1319	sb7_1     =  0.0103	sb8_1     =  0.0007	eb1_1     = -0.0061	eb2_1     = -3.6471	
eb3_1     = -4.2537	eb4_1     = -0.0594	eb5_1     = -4.3445	eb6_1     = -0.0804	eb7_1     =  0.0694	
eb8_1     = -3.7925	tb1_1     = -0.1092	tb2_1     = -1.1344	tb3_1     =  1.7458	tb4_1     =  0.0745	
tb5_1     = -1.7618	tb6_1     = -0.0860	tb7_1     = -0.1670	tb8_1     = -2.2749	

CDMFT iteration 33, distance =  1.28e+02, diff param =  2.91e-02, diff hybrid =  1.57e-01
96 minimization steps, time(MIN)/time(ED)=0.00368
sb1_1     =  0.0133	sb2_1     = -0.0017	sb3_1     =  0.0127	sb4_1     = -0.1338	sb5_1     =  0.0104	
sb6_1     = -0.1313	sb7_1     = -0.0071	sb8_1     = -0.0007	eb1_1     = -0.0423	eb2_1     = -3.6234	
eb3_1     = -4.2880	eb4_1     = -0.0949	eb5_1     = -4.2455	eb6_1     = -0.0754	eb7_1     =  0.1026	
eb8_1     = -3.8294	tb1_1     = -0.1117	tb2_1     = -1.1276	tb3_1     =  1.7543	tb4_1     =  0.0830	
tb5_1     = -1.7475	tb6_1     = -0.0672	tb7_1     = -0.1855	tb8_1     = -2.2877	

CDMFT iteration 34, distance =  8.87e+01, diff param =  1.46e-01, diff hybrid =  5.53e-02
259 minimization steps, time(MIN)/time(ED)=0.00373
sb1_1     = -0.0048	sb2_1     =  0.0016	sb3_1     =  0.0181	sb4_1     = -0.0923	sb5_1     =  0.0178	
sb6_1     = -0.0972	sb7_1     =  0.0515	sb8_1     =  0.0093	eb1_1     = -0.2072	eb2_1     = -4.2400	
eb3_1     = -4.4178	eb4_1     = -0.1389	eb5_1     = -4.4790	eb6_1     = -0.1481	eb7_1     =  0.1133	
eb8_1     = -3.8091	tb1_1     = -0.1831	tb2_1     = -1.1853	tb3_1     =  1.7731	tb4_1     =  0.1332	
tb5_1     = -1.7834	tb6_1     = -0.1388	tb7_1     = -0.1445	tb8_1     = -2.2887	

CDMFT iteration 35, distance =  8.83e+01, diff param =  6.81e-02, diff hybrid =  1.19e-01
194 minimization steps, time(MIN)/time(ED)=0.00377
sb1_1     =  0.0111	sb2_1     = -0.0035	sb3_1     =  0.0151	sb4_1     = -0.0981	sb5_1     =  0.0131	
sb6_1     = -0.0897	sb7_1     =  0.1294	sb8_1     = -0.0008	eb1_1     = -0.1075	eb2_1     = -4.0149	
eb3_1     = -4.5006	eb4_1     = -0.1099	eb5_1     = -4.4929	eb6_1     = -0.1033	eb7_1     =  0.0213	
eb8_1     = -3.8207	tb1_1     = -0.1562	tb2_1     = -1.1696	tb3_1     =  1.7881	tb4_1     =  0.1398	
tb5_1     = -1.7864	tb6_1     = -0.1380	tb7_1     =  0.0111	tb8_1     = -2.2780	

CDMFT iteration 36, distance =  1.28e+02, diff param =  1.05e-01, diff hybrid =  1.06e-01
142 minimization steps, time(MIN)/time(ED)=0.00376
sb1_1     = -0.0328	sb2_1     =  0.0000	sb3_1     =  0.0093	sb4_1     = -0.1279	sb5_1     =  0.0111	
sb6_1     = -0.1319	sb7_1     =  0.1667	sb8_1     =  0.0008	eb1_1     = -0.0065	eb2_1     = -3.6375	
eb3_1     = -4.2534	eb4_1     = -0.0585	eb5_1     = -4.3537	eb6_1     = -0.0821	eb7_1     = -0.0697	
eb8_1     = -3.7933	tb1_1     = -0.1090	tb2_1     = -1.1331	tb3_1     =  1.7459	tb4_1     =  0.0742	
tb5_1     = -1.7634	tb6_1     = -0.0871	tb7_1     =  0.0115	tb8_1     = -2.2752	

CDMFT iteration 37, distance =  1.28e+02, diff param =  3.17e-02, diff hybrid =  1.54e-01
125 minimization steps, time(MIN)/time(ED)=0.00373
sb1_1     =  0.0147	sb2_1     = -0.0019	sb3_1     =  0.0129	sb4_1     = -0.1339	sb5_1     =  0.0102	
sb6_1     = -0.1309	sb7_1     =  0.1853	sb8_1     = -0.0008	eb1_1     = -0.0430	eb2_1     = -3.6191	
eb3_1     = -4.2930	eb4_1     = -0.0961	eb5_1     = -4.2397	eb6_1     = -0.0742	eb7_1     = -0.1025	
eb8_1     = -3.8289	tb1_1     = -0.1118	tb2_1     = -1.1269	tb3_1     =  1.7551	tb4_1     =  0.0842	
tb5_1     = -1.7465	tb6_1     = -0.0665	tb7_1     = -0.0079	tb8_1     = -2.2876	

CDMFT iteration 38, distance =  8.91e+01, diff param =  1.52e-01, diff hybrid =  5.69e-02
278 minimization steps, time(MIN)/time(ED)=0.00379
sb1_1     = -0.0055	sb2_1     =  0.0018	sb3_1     =  0.0180	sb4_1     = -0.0927	sb5_1     =  0.0178	
sb6_1     = -0.0979	sb7_1     =  0.1448	sb8_1     =  0.0095	eb1_1     = -0.2087	eb2_1     = -4.2711	
eb3_1     = -4.4111	eb4_1     = -0.1372	eb5_1     = -4.4785	eb6_1     = -0.1476	eb7_1     = -0.1138	
eb8_1     = -3.8102	tb1_1     = -0.1840	tb2_1     = -1.1887	tb3_1     =  1.7721	tb4_1     =  0.1318	
tb5_1     = -1.7834	tb6_1     = -0.1386	tb7_1     =  0.0530	tb8_1     = -2.2888	

CDMFT iteration 39, distance =  8.85e+01, diff param =  6.89e-02, diff hybrid =  1.19e-01
189 minimization steps, time(MIN)/time(ED)=0.00383
sb1_1     =  0.0115	sb2_1     = -0.0037	sb3_1     =  0.0151	sb4_1     = -0.0986	sb5_1     =  0.0131	
sb6_1     = -0.0897	sb7_1     = -0.0127	sb8_1     = -0.0009	eb1_1     = -0.1089	eb2_1     = -4.0430	
eb3_1     = -4.5000	eb4_1     = -0.1100	eb5_1     = -4.4897	eb6_1     = -0.1028	eb7_1     = -0.0204	
eb8_1     = -3.8187	tb1_1     = -0.1569	tb2_1     = -1.1729	tb3_1     =  1.7880	tb4_1     =  0.1394	
tb5_1     = -1.7859	tb6_1     = -0.1373	tb7_1     =  0.1288	tb8_1     = -2.2776	

CDMFT iteration 40, distance =  1.28e+02, diff param =  1.07e-01, diff hybrid =  1.06e-01
177 minimization steps, time(MIN)/time(ED)=0.00384
sb1_1     = -0.0349	sb2_1     =  0.0001	sb3_1     =  0.0093	sb4_1     = -0.1277	sb5_1     =  0.0111	
sb6_1     = -0.1317	sb7_1     = -0.0118	sb8_1     =  0.0009	eb1_1     = -0.0067	eb2_1     = -3.6498	
eb3_1     = -4.2518	eb4_1     = -0.0581	eb5_1     = -4.3555	eb6_1     = -0.0824	eb7_1     =  0.0693	
eb8_1     = -3.7923	tb1_1     = -0.1084	tb2_1     = -1.1349	tb3_1     =  1.7456	tb4_1     =  0.0742	
tb5_1     = -1.7638	tb6_1     = -0.0874	tb7_1     =  0.1663	tb8_1     = -2.2750	

CDMFT iteration 41, distance =  1.28e+02, diff param =  3.17e-02, diff hybrid =  1.53e-01
96 minimization steps, time(MIN)/time(ED)=0.00379
sb1_1     =  0.0151	sb2_1     = -0.0019	sb3_1     =  0.0129	sb4_1     = -0.1338	sb5_1     =  0.0102	
sb6_1     = -0.1310	sb7_1     =  0.0083	sb8_1     = -0.0008	eb1_1     = -0.0433	eb2_1     = -3.6280	
eb3_1     = -4.2916	eb4_1     = -0.0963	eb5_1     = -4.2446	eb6_1     = -0.0738	eb7_1     =  0.1024	
eb8_1     = -3.8291	tb1_1     = -0.1120	tb2_1     = -1.1281	tb3_1     =  1.7548	tb4_1     =  0.0845	
tb5_1     = -1.7474	tb6_1     = -0.0663	tb7_1     =  0.1853	tb8_1     = -2.2877	

CDMFT iteration 42, distance =  8.93e+01, diff param =  1.49e-01, diff hybrid =  5.77e-02
209 minimization steps, time(MIN)/time(ED)=0.00381
sb1_1     = -0.0056	sb2_1     =  0.0019	sb3_1     =  0.0180	sb4_1     = -0.0928	sb5_1     =  0.0178	
sb6_1     = -0.0981	sb7_1     = -0.0532	sb8_1     =  0.0095	eb1_1     = -0.2084	eb2_1     = -4.2644	
eb3_1     = -4.4081	eb4_1     = -0.1364	eb5_1     = -4.4782	eb6_1     = -0.1470	eb7_1     =  0.1142	
eb8_1     = -3.8120	tb1_1     = -0.1838	tb2_1     = -1.1880	tb3_1     =  1.7717	tb4_1     =  0.1314	
tb5_1     = -1.7834	tb6_1     = -0.1382	tb7_1     =  0.1452	tb8_1     = -2.2893	

CDMFT iteration 43, distance =  8.85e+01, diff param =  6.67e-02, diff hybrid =  1.18e-01
198 minimization steps, time(MIN)/time(ED)=0.00384
sb1_1     =  0.0116	sb2_1     = -0.0038	sb3_1     =  0.0152	sb4_1     = -0.0986	sb5_1     =  0.0132	
sb6_1     = -0.0897	sb7_1     = -0.1287	sb8_1     = -0.0008	eb1_1     = -0.1103	eb2_1     = -4.0531	
eb3_1     = -4.5000	eb4_1     = -0.1103	eb5_1     = -4.4893	eb6_1     = -0.1031	eb7_1     =  0.0204	
eb8_1     = -3.8201	tb1_1     = -0.1574	tb2_1     = -1.1740	tb3_1     =  1.7880	tb4_1     =  0.1395	
tb5_1     = -1.7858	tb6_1     = -0.1374	tb7_1     = -0.0125	tb8_1     = -2.2780	

CDMFT iteration 44, distance =  1.27e+02, diff param =  1.09e-01, diff hybrid =  1.06e-01
151 minimization steps, time(MIN)/time(ED)=0.00384
sb1_1     = -0.0340	sb2_1     =  0.0002	sb3_1     =  0.0093	sb4_1     = -0.1275	sb5_1     =  0.0111	
sb6_1     = -0.1316	sb7_1     = -0.1658	sb8_1     =  0.0008	eb1_1     = -0.0068	eb2_1     = -3.6481	
eb3_1     = -4.2523	eb4_1     = -0.0581	eb5_1     = -4.3560	eb6_1     = -0.0824	eb7_1     = -0.0686	
eb8_1     = -3.7921	tb1_1     = -0.1087	tb2_1     = -1.1347	tb3_1     =  1.7457	tb4_1     =  0.0744	
tb5_1     = -1.7639	tb6_1     = -0.0876	tb7_1     = -0.0118	tb8_1     = -2.2749	

CDMFT iteration 45, distance =  1.28e+02, diff param =  3.18e-02, diff hybrid =  1.53e-01
75 minimization steps, time(MIN)/time(ED)=0.00378
sb1_1     =  0.0151	sb2_1     = -0.0019	sb3_1     =  0.0129	sb4_1     = -0.1339	sb5_1     =  0.0102	
sb6_1     = -0.1310	sb7_1     = -0.1853	sb8_1     = -0.0008	eb1_1     = -0.0431	eb2_1     = -3.6284	
eb3_1     = -4.2914	eb4_1     = -0.0962	eb5_1     = -4.2441	eb6_1     = -0.0737	eb7_1     = -0.1022	
eb8_1     = -3.8297	tb1_1     = -0.1120	tb2_1     = -1.1282	tb3_1     =  1.7548	tb4_1     =  0.0844	
tb5_1     = -1.7473	tb6_1     = -0.0663	tb7_1     =  0.0083	tb8_1     = -2.2878	

CDMFT iteration 46, distance =  8.93e+01, diff param =  1.49e-01, diff hybrid =  5.77e-02
200 minimization steps, time(MIN)/time(ED)=0.00380
sb1_1     = -0.0057	sb2_1     =  0.0019	sb3_1     =  0.0179	sb4_1     = -0.0929	sb5_1     =  0.0177	
sb6_1     = -0.0981	sb7_1     = -0.1452	sb8_1     =  0.0094	eb1_1     = -0.2085	eb2_1     = -4.2658	
eb3_1     = -4.4028	eb4_1     = -0.1356	eb5_1     = -4.4696	eb6_1     = -0.1464	eb7_1     = -0.1138	
eb8_1     = -3.8118	tb1_1     = -0.1838	tb2_1     = -1.1881	tb3_1     =  1.7709	tb4_1     =  0.1309	
tb5_1     = -1.7819	tb6_1     = -0.1377	tb7_1     = -0.0528	tb8_1     = -2.2893	

CDMFT iteration 47, distance =  8.85e+01, diff param =  7.05e-02, diff hybrid =  1.18e-01
217 minimization steps, time(MIN)/time(ED)=0.00385
sb1_1     =  0.0116	sb2_1     = -0.0037	sb3_1     =  0.0152	sb4_1     = -0.0986	sb5_1     =  0.0132	
sb6_1     = -0.0897	sb7_1     =  0.0128	sb8_1     = -0.0009	eb1_1     = -0.1090	eb2_1     = -4.0303	
eb3_1     = -4.4998	eb4_1     = -0.1104	eb5_1     = -4.4884	eb6_1     = -0.1031	eb7_1     = -0.0202	
eb8_1     = -3.8178	tb1_1     = -0.1567	tb2_1     = -1.1713	tb3_1     =  1.7879	tb4_1     =  0.1395	
tb5_1     = -1.7856	tb6_1     = -0.1374	tb7_1     = -0.1285	tb8_1     = -2.2774	

CDMFT iteration 48, distance =  1.27e+02, diff param =  1.05e-01, diff hybrid =  1.06e-01
160 minimization steps, time(MIN)/time(ED)=0.00385
sb1_1     = -0.0348	sb2_1     =  0.0002	sb3_1     =  0.0093	sb4_1     = -0.1275	sb5_1     =  0.0111	
sb6_1     = -0.1316	sb7_1     =  0.0118	sb8_1     =  0.0008	eb1_1     = -0.0068	eb2_1     = -3.6520	
eb3_1     = -4.2521	eb4_1     = -0.0581	eb5_1     = -4.3558	eb6_1     = -0.0824	eb7_1     =  0.0685	
eb8_1     = -3.7906	tb1_1     = -0.1085	tb2_1     = -1.1352	tb3_1     =  1.7457	tb4_1     =  0.0744	
tb5_1     = -1.7638	tb6_1     = -0.0876	tb7_1     = -0.1658	tb8_1     = -2.2744	

CDMFT iteration 49, distance =  1.28e+02, diff param =  3.39e-02, diff hybrid =  1.52e-01
90 minimization steps, time(MIN)/time(ED)=0.00380
sb1_1     =  0.0151	sb2_1     = -0.0019	sb3_1     =  0.0129	sb4_1     = -0.1340	sb5_1     =  0.0101	
sb6_1     = -0.1308	sb7_1     = -0.0083	sb8_1     = -0.0008	eb1_1     = -0.0428	eb2_1     = -3.6249	
eb3_1     = -4.2958	eb4_1     = -0.0964	eb5_1     = -4.2335	eb6_1     = -0.0733	eb7_1     =  0.1020	
eb8_1     = -3.8279	tb1_1     = -0.1118	tb2_1     = -1.1278	tb3_1     =  1.7556	tb4_1     =  0.0845	
tb5_1     = -1.7453	tb6_1     = -0.0660	tb7_1     = -0.1852	tb8_1     = -2.2873	

CDMFT iteration 50, distance =  8.94e+01, diff param =  1.45e-01, diff hybrid =  5.77e-02
224 minimization steps, time(MIN)/time(ED)=0.00382
sb1_1     = -0.0059	sb2_1     =  0.0019	sb3_1     =  0.0180	sb4_1     = -0.0931	sb5_1     =  0.0178	
sb6_1     = -0.0983	sb7_1     =  0.0529	sb8_1     =  0.0095	eb1_1     = -0.2056	eb2_1     = -4.2370	
eb3_1     = -4.4060	eb4_1     = -0.1356	eb5_1     = -4.4768	eb6_1     = -0.1468	eb7_1     =  0.1139	
eb8_1     = -3.8126	tb1_1     = -0.1825	tb2_1     = -1.1850	tb3_1     =  1.7715	tb4_1     =  0.1307	
tb5_1     = -1.7832	tb6_1     = -0.1381	tb7_1     = -0.1454	tb8_1     = -2.2894	

CDMFT iteration 51, distance =  8.85e+01, diff param =  6.13e-02, diff hybrid =  1.18e-01
161 minimization steps, time(MIN)/time(ED)=0.00384
sb1_1     =  0.0116	sb2_1     = -0.0038	sb3_1     =  0.0152	sb4_1     = -0.0987	sb5_1     =  0.0132	
sb6_1     = -0.0896	sb7_1     =  0.1284	sb8_1     = -0.0009	eb1_1     = -0.1116	eb2_1     = -4.0681	
eb3_1     = -4.4990	eb4_1     = -0.1106	eb5_1     = -4.4892	eb6_1     = -0.1035	eb7_1     =  0.0204	
eb8_1     = -3.8170	tb1_1     = -0.1581	tb2_1     = -1.1757	tb3_1     =  1.7878	tb4_1     =  0.1396	
tb5_1     = -1.7857	tb6_1     = -0.1375	tb7_1     =  0.0135	tb8_1     = -2.2771	

CDMFT iteration 52, distance =  1.27e+02, diff param =  1.11e-01, diff hybrid =  1.06e-01
121 minimization steps, time(MIN)/time(ED)=0.00382
sb1_1     = -0.0339	sb2_1     =  0.0001	sb3_1     =  0.0093	sb4_1     = -0.1275	sb5_1     =  0.0111	
sb6_1     = -0.1316	sb7_1     =  0.1657	sb8_1     =  0.0008	eb1_1     = -0.0068	eb2_1     = -3.6475	
eb3_1     = -4.2571	eb4_1     = -0.0581	eb5_1     = -4.3575	eb6_1     = -0.0824	eb7_1     = -0.0683	
eb8_1     = -3.7916	tb1_1     = -0.1088	tb2_1     = -1.1345	tb3_1     =  1.7467	tb4_1     =  0.0745	
tb5_1     = -1.7642	tb6_1     = -0.0876	tb7_1     =  0.0117	tb8_1     = -2.2747	

CDMFT iteration 53, distance =  1.28e+02, diff param =  3.26e-02, diff hybrid =  1.53e-01
61 minimization steps, time(MIN)/time(ED)=0.00377
sb1_1     =  0.0151	sb2_1     = -0.0019	sb3_1     =  0.0129	sb4_1     = -0.1339	sb5_1     =  0.0102	
sb6_1     = -0.1309	sb7_1     =  0.1853	sb8_1     = -0.0008	eb1_1     = -0.0430	eb2_1     = -3.6275	
eb3_1     = -4.2940	eb4_1     = -0.0964	eb5_1     = -4.2400	eb6_1     = -0.0735	eb7_1     = -0.1023	
eb8_1     = -3.8305	tb1_1     = -0.1119	tb2_1     = -1.1281	tb3_1     =  1.7553	tb4_1     =  0.0845	
tb5_1     = -1.7465	tb6_1     = -0.0663	tb7_1     = -0.0083	tb8_1     = -2.2881	

CDMFT iteration 54, distance =  8.93e+01, diff param =  1.48e-01, diff hybrid =  5.78e-02
277 minimization steps, time(MIN)/time(ED)=0.00381
sb1_1     = -0.0057	sb2_1     =  0.0019	sb3_1     =  0.0180	sb4_1     = -0.0929	sb5_1     =  0.0178	
sb6_1     = -0.0982	sb7_1     =  0.1453	sb8_1     =  0.0095	eb1_1     = -0.2082	eb2_1     = -4.2583	
eb3_1     = -4.4074	eb4_1     = -0.1361	eb5_1     = -4.4779	eb6_1     = -0.1471	eb7_1     = -0.1140	
eb8_1     = -3.8119	tb1_1     = -0.1836	tb2_1     = -1.1872	tb3_1     =  1.7716	tb4_1     =  0.1311	
tb5_1     = -1.7833	tb6_1     = -0.1382	tb7_1     =  0.0529	tb8_1     = -2.2893	

CDMFT iteration 55, distance =  8.85e+01, diff param =  6.64e-02, diff hybrid =  1.18e-01
196 minimization steps, time(MIN)/time(ED)=0.00384
sb1_1     =  0.0116	sb2_1     = -0.0037	sb3_1     =  0.0152	sb4_1     = -0.0986	sb5_1     =  0.0132	
sb6_1     = -0.0897	sb7_1     = -0.0131	sb8_1     = -0.0009	eb1_1     = -0.1105	eb2_1     = -4.0501	
eb3_1     = -4.5000	eb4_1     = -0.1104	eb5_1     = -4.4894	eb6_1     = -0.1033	eb7_1     = -0.0204	
eb8_1     = -3.8182	tb1_1     = -0.1575	tb2_1     = -1.1736	tb3_1     =  1.7880	tb4_1     =  0.1395	
tb5_1     = -1.7858	tb6_1     = -0.1374	tb7_1     =  0.1286	tb8_1     = -2.2774	

CDMFT iteration 56, distance =  1.27e+02, diff param =  1.10e-01, diff hybrid =  1.06e-01
151 minimization steps, time(MIN)/time(ED)=0.00383
sb1_1     = -0.0361	sb2_1     =  0.0002	sb3_1     =  0.0093	sb4_1     = -0.1275	sb5_1     =  0.0111	
sb6_1     = -0.1316	sb7_1     = -0.0118	sb8_1     =  0.0008	eb1_1     = -0.0067	eb2_1     = -3.6404	
eb3_1     = -4.2518	eb4_1     = -0.0581	eb5_1     = -4.3559	eb6_1     = -0.0824	eb7_1     =  0.0687	
eb8_1     = -3.7922	tb1_1     = -0.1080	tb2_1     = -1.1336	tb3_1     =  1.7456	tb4_1     =  0.0744	
tb5_1     = -1.7639	tb6_1     = -0.0875	tb7_1     =  0.1659	tb8_1     = -2.2749	

CDMFT iteration 57, distance =  1.28e+02, diff param =  3.33e-02, diff hybrid =  1.53e-01
101 minimization steps, time(MIN)/time(ED)=0.00380
sb1_1     =  0.0151	sb2_1     = -0.0019	sb3_1     =  0.0129	sb4_1     = -0.1339	sb5_1     =  0.0101	
sb6_1     = -0.1308	sb7_1     =  0.0083	sb8_1     = -0.0008	eb1_1     = -0.0429	eb2_1     = -3.6197	
eb3_1     = -4.2955	eb4_1     = -0.0965	eb5_1     = -4.2361	eb6_1     = -0.0735	eb7_1     =  0.1023	
eb8_1     = -3.8287	tb1_1     = -0.1118	tb2_1     = -1.1271	tb3_1     =  1.7555	tb4_1     =  0.0846	
tb5_1     = -1.7458	tb6_1     = -0.0662	tb7_1     =  0.1852	tb8_1     = -2.2875	

CDMFT iteration 58, distance =  8.94e+01, diff param =  1.45e-01, diff hybrid =  5.79e-02
252 minimization steps, time(MIN)/time(ED)=0.00383
sb1_1     = -0.0058	sb2_1     =  0.0019	sb3_1     =  0.0180	sb4_1     = -0.0929	sb5_1     =  0.0179	
sb6_1     = -0.0983	sb7_1     = -0.0531	sb8_1     =  0.0095	eb1_1     = -0.2052	eb2_1     = -4.2300	
eb3_1     = -4.4078	eb4_1     = -0.1355	eb5_1     = -4.4791	eb6_1     = -0.1472	eb7_1     =  0.1141	
eb8_1     = -3.8121	tb1_1     = -0.1823	tb2_1     = -1.1843	tb3_1     =  1.7718	tb4_1     =  0.1308	
tb5_1     = -1.7836	tb6_1     = -0.1383	tb7_1     =  0.1453	tb8_1     = -2.2893	

CDMFT iteration 59, distance =  8.85e+01, diff param =  6.20e-02, diff hybrid =  1.18e-01
195 minimization steps, time(MIN)/time(ED)=0.00385
sb1_1     =  0.0118	sb2_1     = -0.0038	sb3_1     =  0.0152	sb4_1     = -0.0987	sb5_1     =  0.0132	
sb6_1     = -0.0897	sb7_1     = -0.1285	sb8_1     = -0.0009	eb1_1     = -0.1108	eb2_1     = -4.0550	
eb3_1     = -4.5004	eb4_1     = -0.1105	eb5_1     = -4.4888	eb6_1     = -0.1033	eb7_1     =  0.0204	
eb8_1     = -3.8185	tb1_1     = -0.1576	tb2_1     = -1.1742	tb3_1     =  1.7880	tb4_1     =  0.1396	
tb5_1     = -1.7857	tb6_1     = -0.1374	tb7_1     = -0.0135	tb8_1     = -2.2775	

CDMFT iteration 60, distance =  1.27e+02, diff param =  1.08e-01, diff hybrid =  1.06e-01
133 minimization steps, time(MIN)/time(ED)=0.00384
sb1_1     = -0.0342	sb2_1     =  0.0001	sb3_1     =  0.0093	sb4_1     = -0.1274	sb5_1     =  0.0111	
sb6_1     = -0.1316	sb7_1     = -0.1656	sb8_1     =  0.0008	eb1_1     = -0.0069	eb2_1     = -3.6521	
eb3_1     = -4.2548	eb4_1     = -0.0580	eb5_1     = -4.3560	eb6_1     = -0.0825	eb7_1     = -0.0683	
eb8_1     = -3.7916	tb1_1     = -0.1087	tb2_1     = -1.1352	tb3_1     =  1.7462	tb4_1     =  0.0745	
tb5_1     = -1.7639	tb6_1     = -0.0876	tb7_1     = -0.0119	tb8_1     = -2.2747	

CDMFT iteration 61, distance =  1.28e+02, diff param =  3.34e-02, diff hybrid =  1.52e-01
98 minimization steps, time(MIN)/time(ED)=0.00381
sb1_1     =  0.0151	sb2_1     = -0.0019	sb3_1     =  0.0129	sb4_1     = -0.1340	sb5_1     =  0.0101	
sb6_1     = -0.1308	sb7_1     = -0.1851	sb8_1     = -0.0008	eb1_1     = -0.0429	eb2_1     = -3.6238	
eb3_1     = -4.2956	eb4_1     = -0.0964	eb5_1     = -4.2357	eb6_1     = -0.0732	eb7_1     = -0.1020	
eb8_1     = -3.8282	tb1_1     = -0.1118	tb2_1     = -1.1276	tb3_1     =  1.7556	tb4_1     =  0.0846	
tb5_1     = -1.7457	tb6_1     = -0.0661	tb7_1     =  0.0084	tb8_1     = -2.2874	

CDMFT iteration 62, distance =  8.94e+01, diff param =  1.54e-01, diff hybrid =  5.78e-02
147 minimization steps, time(MIN)/time(ED)=0.00380
sb1_1     = -0.0059	sb2_1     =  0.0020	sb3_1     =  0.0180	sb4_1     = -0.0931	sb5_1     =  0.0179	
sb6_1     = -0.0984	sb7_1     = -0.1455	sb8_1     =  0.0094	eb1_1     = -0.2096	eb2_1     = -4.2837	
eb3_1     = -4.4086	eb4_1     = -0.1359	eb5_1     = -4.4816	eb6_1     = -0.1473	eb7_1     = -0.1139	
eb8_1     = -3.8119	tb1_1     = -0.1844	tb2_1     = -1.1900	tb3_1     =  1.7719	tb4_1     =  0.1308	
tb5_1     = -1.7840	tb6_1     = -0.1384	tb7_1     = -0.0527	tb8_1     = -2.2893	

CDMFT iteration 63, distance =  8.84e+01, diff param =  7.41e-02, diff hybrid =  1.18e-01
223 minimization steps, time(MIN)/time(ED)=0.00383
sb1_1     =  0.0116	sb2_1     = -0.0037	sb3_1     =  0.0152	sb4_1     = -0.0986	sb5_1     =  0.0132	
sb6_1     = -0.0896	sb7_1     =  0.0135	sb8_1     = -0.0009	eb1_1     = -0.1093	eb2_1     = -4.0216	
eb3_1     = -4.5005	eb4_1     = -0.1105	eb5_1     = -4.4901	eb6_1     = -0.1036	eb7_1     = -0.0205	
eb8_1     = -3.8174	tb1_1     = -0.1566	tb2_1     = -1.1702	tb3_1     =  1.7881	tb4_1     =  0.1396	
tb5_1     = -1.7859	tb6_1     = -0.1375	tb7_1     = -0.1284	tb8_1     = -2.2773	

CDMFT iteration 64, distance =  1.27e+02, diff param =  1.04e-01, diff hybrid =  1.06e-01
142 minimization steps, time(MIN)/time(ED)=0.00383
sb1_1     = -0.0338	sb2_1     =  0.0002	sb3_1     =  0.0093	sb4_1     = -0.1274	sb5_1     =  0.0111	
sb6_1     = -0.1316	sb7_1     =  0.0118	sb8_1     =  0.0009	eb1_1     = -0.0069	eb2_1     = -3.6507	
eb3_1     = -4.2519	eb4_1     = -0.0580	eb5_1     = -4.3559	eb6_1     = -0.0825	eb7_1     =  0.0682	
eb8_1     = -3.7914	tb1_1     = -0.1089	tb2_1     = -1.1350	tb3_1     =  1.7456	tb4_1     =  0.0746	
tb5_1     = -1.7638	tb6_1     = -0.0877	tb7_1     = -0.1655	tb8_1     = -2.2746	

CDMFT iteration 65, distance =  1.28e+02, diff param =  3.32e-02, diff hybrid =  1.52e-01
121 minimization steps, time(MIN)/time(ED)=0.00381
sb1_1     =  0.0152	sb2_1     = -0.0019	sb3_1     =  0.0129	sb4_1     = -0.1340	sb5_1     =  0.0101	
sb6_1     = -0.1309	sb7_1     = -0.0083	sb8_1     = -0.0008	eb1_1     = -0.0426	eb2_1     = -3.6228	
eb3_1     = -4.2947	eb4_1     = -0.0963	eb5_1     = -4.2373	eb6_1     = -0.0733	eb7_1     =  0.1021	
eb8_1     = -3.8288	tb1_1     = -0.1117	tb2_1     = -1.1275	tb3_1     =  1.7554	tb4_1     =  0.0845	
tb5_1     = -1.7460	tb6_1     = -0.0660	tb7_1     = -0.1853	tb8_1     = -2.2875	

CDMFT iteration 66, distance =  8.95e+01, diff param =  1.45e-01, diff hybrid =  5.78e-02
219 minimization steps, time(MIN)/time(ED)=0.00382
sb1_1     = -0.0058	sb2_1     =  0.0019	sb3_1     =  0.0180	sb4_1     = -0.0931	sb5_1     =  0.0178	
sb6_1     = -0.0984	sb7_1     =  0.0527	sb8_1     =  0.0094	eb1_1     = -0.2049	eb2_1     = -4.2376	
eb3_1     = -4.4045	eb4_1     = -0.1355	eb5_1     = -4.4756	eb6_1     = -0.1468	eb7_1     =  0.1144	
eb8_1     = -3.8132	tb1_1     = -0.1823	tb2_1     = -1.1853	tb3_1     =  1.7712	tb4_1     =  0.1306	
tb5_1     = -1.7830	tb6_1     = -0.1380	tb7_1     = -0.1457	tb8_1     = -2.2896	

CDMFT iteration 67, distance =  8.85e+01, diff param =  6.30e-02, diff hybrid =  1.18e-01
192 minimization steps, time(MIN)/time(ED)=0.00384
sb1_1     =  0.0116	sb2_1     = -0.0037	sb3_1     =  0.0152	sb4_1     = -0.0986	sb5_1     =  0.0132	
sb6_1     = -0.0896	sb7_1     =  0.1285	sb8_1     = -0.0009	eb1_1     = -0.1115	eb2_1     = -4.0557	
eb3_1     = -4.5006	eb4_1     = -0.1109	eb5_1     = -4.4897	eb6_1     = -0.1037	eb7_1     =  0.0206	
eb8_1     = -3.8182	tb1_1     = -0.1579	tb2_1     = -1.1741	tb3_1     =  1.7880	tb4_1     =  0.1398	
tb5_1     = -1.7858	tb6_1     = -0.1376	tb7_1     =  0.0134	tb8_1     = -2.2774	

CDMFT iteration 68, distance =  1.27e+02, diff param =  1.11e-01, diff hybrid =  1.06e-01
162 minimization steps, time(MIN)/time(ED)=0.00384
sb1_1     = -0.0345	sb2_1     =  0.0002	sb3_1     =  0.0093	sb4_1     = -0.1274	sb5_1     =  0.0111	
sb6_1     = -0.1315	sb7_1     =  0.1653	sb8_1     =  0.0008	eb1_1     = -0.0068	eb2_1     = -3.6399	
eb3_1     = -4.2528	eb4_1     = -0.0581	eb5_1     = -4.3564	eb6_1     = -0.0824	eb7_1     = -0.0678	
eb8_1     = -3.7908	tb1_1     = -0.1086	tb2_1     = -1.1335	tb3_1     =  1.7458	tb4_1     =  0.0747	
tb5_1     = -1.7640	tb6_1     = -0.0877	tb7_1     =  0.0117	tb8_1     = -2.2744	

CDMFT iteration 69, distance =  1.28e+02, diff param =  3.21e-02, diff hybrid =  1.52e-01
76 minimization steps, time(MIN)/time(ED)=0.00381
sb1_1     =  0.0151	sb2_1     = -0.0019	sb3_1     =  0.0129	sb4_1     = -0.1339	sb5_1     =  0.0102	
sb6_1     = -0.1309	sb7_1     =  0.1852	sb8_1     = -0.0008	eb1_1     = -0.0428	eb2_1     = -3.6237	
eb3_1     = -4.2925	eb4_1     = -0.0961	eb5_1     = -4.2425	eb6_1     = -0.0736	eb7_1     = -0.1021	
eb8_1     = -3.8288	tb1_1     = -0.1119	tb2_1     = -1.1276	tb3_1     =  1.7550	tb4_1     =  0.0844	
tb5_1     = -1.7470	tb6_1     = -0.0663	tb7_1     = -0.0083	tb8_1     = -2.2875	

CDMFT iteration 70, distance =  8.94e+01, diff param =  1.43e-01, diff hybrid =  5.78e-02
195 minimization steps, time(MIN)/time(ED)=0.00382
sb1_1     = -0.0057	sb2_1     =  0.0018	sb3_1     =  0.0180	sb4_1     = -0.0931	sb5_1     =  0.0178	
sb6_1     = -0.0983	sb7_1     =  0.1456	sb8_1     =  0.0094	eb1_1     = -0.2048	eb2_1     = -4.2254	
eb3_1     = -4.4059	eb4_1     = -0.1357	eb5_1     = -4.4770	eb6_1     = -0.1466	eb7_1     = -0.1142	
eb8_1     = -3.8129	tb1_1     = -0.1821	tb2_1     = -1.1838	tb3_1     =  1.7714	tb4_1     =  0.1308	
tb5_1     = -1.7833	tb6_1     = -0.1379	tb7_1     =  0.0526	tb8_1     = -2.2896	

CDMFT iteration 71, distance =  8.85e+01, diff param =  6.22e-02, diff hybrid =  1.18e-01
172 minimization steps, time(MIN)/time(ED)=0.00383
sb1_1     =  0.0116	sb2_1     = -0.0037	sb3_1     =  0.0152	sb4_1     = -0.0986	sb5_1     =  0.0132	
sb6_1     = -0.0897	sb7_1     = -0.0128	sb8_1     = -0.0009	eb1_1     = -0.1110	eb2_1     = -4.0492	
eb3_1     = -4.4999	eb4_1     = -0.1107	eb5_1     = -4.4899	eb6_1     = -0.1037	eb7_1     = -0.0205	
eb8_1     = -3.8159	tb1_1     = -0.1577	tb2_1     = -1.1733	tb3_1     =  1.7880	tb4_1     =  0.1396	
tb5_1     = -1.7858	tb6_1     = -0.1376	tb7_1     =  0.1285	tb8_1     = -2.2768	

CDMFT iteration 72, distance =  1.27e+02, diff param =  1.10e-01, diff hybrid =  1.05e-01
165 minimization steps, time(MIN)/time(ED)=0.00384
sb1_1     = -0.0339	sb2_1     =  0.0001	sb3_1     =  0.0093	sb4_1     = -0.1274	sb5_1     =  0.0111	
sb6_1     = -0.1316	sb7_1     = -0.0117	sb8_1     =  0.0008	eb1_1     = -0.0068	eb2_1     = -3.6370	
eb3_1     = -4.2526	eb4_1     = -0.0581	eb5_1     = -4.3555	eb6_1     = -0.0823	eb7_1     =  0.0683	
eb8_1     = -3.7925	tb1_1     = -0.1087	tb2_1     = -1.1331	tb3_1     =  1.7458	tb4_1     =  0.0746	
tb5_1     = -1.7638	tb6_1     = -0.0875	tb7_1     =  0.1657	tb8_1     = -2.2749	

CDMFT iteration 73, distance =  1.28e+02, diff param =  3.27e-02, diff hybrid =  1.53e-01
82 minimization steps, time(MIN)/time(ED)=0.00381
sb1_1     =  0.0150	sb2_1     = -0.0019	sb3_1     =  0.0129	sb4_1     = -0.1340	sb5_1     =  0.0102	
sb6_1     = -0.1309	sb7_1     =  0.0082	sb8_1     = -0.0008	eb1_1     = -0.0429	eb2_1     = -3.6202	
eb3_1     = -4.2940	eb4_1     = -0.0965	eb5_1     = -4.2378	eb6_1     = -0.0736	eb7_1     =  0.1022	
eb8_1     = -3.8296	tb1_1     = -0.1118	tb2_1     = -1.1271	tb3_1     =  1.7553	tb4_1     =  0.0845	
tb5_1     = -1.7461	tb6_1     = -0.0663	tb7_1     =  0.1852	tb8_1     = -2.2878	

CDMFT iteration 74, distance =  8.93e+01, diff param =  1.50e-01, diff hybrid =  5.77e-02
300 minimization steps, time(MIN)/time(ED)=0.00385
sb1_1     = -0.0057	sb2_1     =  0.0019	sb3_1     =  0.0180	sb4_1     = -0.0930	sb5_1     =  0.0178	
sb6_1     = -0.0982	sb7_1     = -0.0530	sb8_1     =  0.0095	eb1_1     = -0.2077	eb2_1     = -4.2580	
eb3_1     = -4.4073	eb4_1     = -0.1361	eb5_1     = -4.4777	eb6_1     = -0.1471	eb7_1     =  0.1141	
eb8_1     = -3.8119	tb1_1     = -0.1835	tb2_1     = -1.1872	tb3_1     =  1.7716	tb4_1     =  0.1311	
tb5_1     = -1.7833	tb6_1     = -0.1382	tb7_1     =  0.1453	tb8_1     = -2.2892	

CDMFT iteration 75, distance =  8.85e+01, diff param =  6.54e-02, diff hybrid =  1.18e-01
167 minimization steps, time(MIN)/time(ED)=0.00386
sb1_1     =  0.0117	sb2_1     = -0.0037	sb3_1     =  0.0152	sb4_1     = -0.0986	sb5_1     =  0.0132	
sb6_1     = -0.0897	sb7_1     = -0.1286	sb8_1     = -0.0009	eb1_1     = -0.1108	eb2_1     = -4.0555	
eb3_1     = -4.4977	eb4_1     = -0.1103	eb5_1     = -4.4892	eb6_1     = -0.1033	eb7_1     =  0.0204	
eb8_1     = -3.8179	tb1_1     = -0.1577	tb2_1     = -1.1742	tb3_1     =  1.7876	tb4_1     =  0.1394	
tb5_1     = -1.7857	tb6_1     = -0.1374	tb7_1     = -0.0128	tb8_1     = -2.2774	

CDMFT iteration 76, distance =  1.27e+02, diff param =  1.11e-01, diff hybrid =  1.06e-01
160 minimization steps, time(MIN)/time(ED)=0.00386
sb1_1     = -0.0343	sb2_1     =  0.0001	sb3_1     =  0.0093	sb4_1     = -0.1275	sb5_1     =  0.0111	
sb6_1     = -0.1316	sb7_1     = -0.1658	sb8_1     =  0.0008	eb1_1     = -0.0068	eb2_1     = -3.6372	
eb3_1     = -4.2517	eb4_1     = -0.0580	eb5_1     = -4.3564	eb6_1     = -0.0825	eb7_1     = -0.0686	
eb8_1     = -3.7917	tb1_1     = -0.1086	tb2_1     = -1.1331	tb3_1     =  1.7456	tb4_1     =  0.0744	
tb5_1     = -1.7640	tb6_1     = -0.0875	tb7_1     = -0.0118	tb8_1     = -2.2747	

CDMFT iteration 77, distance =  1.28e+02, diff param =  3.25e-02, diff hybrid =  1.53e-01
115 minimization steps, time(MIN)/time(ED)=0.00384
sb1_1     =  0.0152	sb2_1     = -0.0019	sb3_1     =  0.0129	sb4_1     = -0.1339	sb5_1     =  0.0101	
sb6_1     = -0.1309	sb7_1     = -0.1852	sb8_1     = -0.0008	eb1_1     = -0.0429	eb2_1     = -3.6201	
eb3_1     = -4.2935	eb4_1     = -0.0964	eb5_1     = -4.2403	eb6_1     = -0.0736	eb7_1     = -0.1022	
eb8_1     = -3.8285	tb1_1     = -0.1118	tb2_1     = -1.1271	tb3_1     =  1.7552	tb4_1     =  0.0845	
tb5_1     = -1.7466	tb6_1     = -0.0662	tb7_1     =  0.0083	tb8_1     = -2.2875	

CDMFT iteration 78, distance =  8.94e+01, diff param =  1.53e-01, diff hybrid =  5.78e-02
277 minimization steps, time(MIN)/time(ED)=0.00387
sb1_1     = -0.0058	sb2_1     =  0.0019	sb3_1     =  0.0180	sb4_1     = -0.0930	sb5_1     =  0.0178	
sb6_1     = -0.0983	sb7_1     = -0.1454	sb8_1     =  0.0095	eb1_1     = -0.2080	eb2_1     = -4.2746	
eb3_1     = -4.4066	eb4_1     = -0.1359	eb5_1     = -4.4776	eb6_1     = -0.1470	eb7_1     = -0.1141	
eb8_1     = -3.8120	tb1_1     = -0.1838	tb2_1     = -1.1892	tb3_1     =  1.7715	tb4_1     =  0.1309	
tb5_1     = -1.7833	tb6_1     = -0.1382	tb7_1     = -0.0530	tb8_1     = -2.2893	

CDMFT iteration 79, distance =  8.85e+01, diff param =  7.47e-02, diff hybrid =  1.18e-01
183 minimization steps, time(MIN)/time(ED)=0.00389
sb1_1     =  0.0117	sb2_1     = -0.0037	sb3_1     =  0.0152	sb4_1     = -0.0986	sb5_1     =  0.0132	
sb6_1     = -0.0897	sb7_1     =  0.0134	sb8_1     = -0.0009	eb1_1     = -0.1078	eb2_1     = -4.0084	
eb3_1     = -4.4989	eb4_1     = -0.1103	eb5_1     = -4.4891	eb6_1     = -0.1033	eb7_1     = -0.0203	
eb8_1     = -3.8173	tb1_1     = -0.1559	tb2_1     = -1.1688	tb3_1     =  1.7878	tb4_1     =  0.1394	
tb5_1     = -1.7857	tb6_1     = -0.1374	tb7_1     = -0.1285	tb8_1     = -2.2772	

CDMFT iteration 80, distance =  1.27e+02, diff param =  1.02e-01, diff hybrid =  1.06e-01
164 minimization steps, time(MIN)/time(ED)=0.00389
sb1_1     = -0.0343	sb2_1     =  0.0001	sb3_1     =  0.0094	sb4_1     = -0.1275	sb5_1     =  0.0112	
sb6_1     = -0.1317	sb7_1     =  0.0119	sb8_1     =  0.0009	eb1_1     = -0.0069	eb2_1     = -3.6488	
eb3_1     = -4.2515	eb4_1     = -0.0581	eb5_1     = -4.3565	eb6_1     = -0.0828	eb7_1     =  0.0686	
eb8_1     = -3.7914	tb1_1     = -0.1087	tb2_1     = -1.1347	tb3_1     =  1.7455	tb4_1     =  0.0745	
tb5_1     = -1.7639	tb6_1     = -0.0878	tb7_1     = -0.1658	tb8_1     = -2.2746	

CDMFT iteration 81, distance =  1.28e+02, diff param =  3.23e-02, diff hybrid =  1.52e-01
88 minimization steps, time(MIN)/time(ED)=0.00387
sb1_1     =  0.0152	sb2_1     = -0.0019	sb3_1     =  0.0129	sb4_1     = -0.1339	sb5_1     =  0.0102	
sb6_1     = -0.1310	sb7_1     = -0.0084	sb8_1     = -0.0009	eb1_1     = -0.0431	eb2_1     = -3.6270	
eb3_1     = -4.2927	eb4_1     = -0.0964	eb5_1     = -4.2430	eb6_1     = -0.0736	eb7_1     =  0.1024	
eb8_1     = -3.8300	tb1_1     = -0.1120	tb2_1     = -1.1280	tb3_1     =  1.7550	tb4_1     =  0.0846	
tb5_1     = -1.7471	tb6_1     = -0.0662	tb7_1     = -0.1854	tb8_1     = -2.2879	

CDMFT iteration 82, distance =  8.93e+01, diff param =  1.43e-01, diff hybrid =  5.79e-02
250 minimization steps, time(MIN)/time(ED)=0.00389
sb1_1     = -0.0057	sb2_1     =  0.0019	sb3_1     =  0.0180	sb4_1     = -0.0930	sb5_1     =  0.0178	
sb6_1     = -0.0982	sb7_1     =  0.0530	sb8_1     =  0.0095	eb1_1     = -0.2059	eb2_1     = -4.2279	
eb3_1     = -4.4066	eb4_1     = -0.1360	eb5_1     = -4.4778	eb6_1     = -0.1469	eb7_1     =  0.1141	
eb8_1     = -3.8121	tb1_1     = -0.1824	tb2_1     = -1.1839	tb3_1     =  1.7715	tb4_1     =  0.1310	
tb5_1     = -1.7833	tb6_1     = -0.1381	tb7_1     = -0.1453	tb8_1     = -2.2893	

CDMFT iteration 83, distance =  8.85e+01, diff param =  6.57e-02, diff hybrid =  1.18e-01
186 minimization steps, time(MIN)/time(ED)=0.00390
sb1_1     =  0.0116	sb2_1     = -0.0037	sb3_1     =  0.0152	sb4_1     = -0.0986	sb5_1     =  0.0132	
sb6_1     = -0.0897	sb7_1     =  0.1286	sb8_1     = -0.0009	eb1_1     = -0.1089	eb2_1     = -4.0248	
eb3_1     = -4.5001	eb4_1     = -0.1107	eb5_1     = -4.4896	eb6_1     = -0.1036	eb7_1     =  0.0206	
eb8_1     = -3.8190	tb1_1     = -0.1566	tb2_1     = -1.1707	tb3_1     =  1.7880	tb4_1     =  0.1397	
tb5_1     = -1.7858	tb6_1     = -0.1376	tb7_1     =  0.0135	tb8_1     = -2.2776	

CDMFT iteration 84, distance =  1.27e+02, diff param =  1.04e-01, diff hybrid =  1.06e-01
160 minimization steps, time(MIN)/time(ED)=0.00390
sb1_1     = -0.0340	sb2_1     =  0.0002	sb3_1     =  0.0094	sb4_1     = -0.1275	sb5_1     =  0.0111	
sb6_1     = -0.1316	sb7_1     =  0.1656	sb8_1     =  0.0008	eb1_1     = -0.0069	eb2_1     = -3.6492	
eb3_1     = -4.2550	eb4_1     = -0.0581	eb5_1     = -4.3572	eb6_1     = -0.0826	eb7_1     = -0.0683	
eb8_1     = -3.7913	tb1_1     = -0.1088	tb2_1     = -1.1348	tb3_1     =  1.7462	tb4_1     =  0.0746	
tb5_1     = -1.7641	tb6_1     = -0.0878	tb7_1     =  0.0118	tb8_1     = -2.2746	

CDMFT iteration 85, distance =  1.28e+02, diff param =  3.28e-02, diff hybrid =  1.52e-01
95 minimization steps, time(MIN)/time(ED)=0.00387
sb1_1     =  0.0152	sb2_1     = -0.0019	sb3_1     =  0.0129	sb4_1     = -0.1340	sb5_1     =  0.0101	
sb6_1     = -0.1309	sb7_1     =  0.1852	sb8_1     = -0.0008	eb1_1     = -0.0426	eb2_1     = -3.6248	
eb3_1     = -4.2943	eb4_1     = -0.0963	eb5_1     = -4.2394	eb6_1     = -0.0734	eb7_1     = -0.1020	
eb8_1     = -3.8288	tb1_1     = -0.1117	tb2_1     = -1.1278	tb3_1     =  1.7553	tb4_1     =  0.0845	
tb5_1     = -1.7464	tb6_1     = -0.0662	tb7_1     = -0.0083	tb8_1     = -2.2875	

CDMFT iteration 86, distance =  8.94e+01, diff param =  1.44e-01, diff hybrid =  5.77e-02
227 minimization steps, time(MIN)/time(ED)=0.00389
sb1_1     = -0.0057	sb2_1     =  0.0018	sb3_1     =  0.0180	sb4_1     = -0.0931	sb5_1     =  0.0178	
sb6_1     = -0.0983	sb7_1     =  0.1454	sb8_1     =  0.0094	eb1_1     = -0.2050	eb2_1     = -4.2312	
eb3_1     = -4.4055	eb4_1     = -0.1356	eb5_1     = -4.4770	eb6_1     = -0.1469	eb7_1     = -0.1137	
eb8_1     = -3.8117	tb1_1     = -0.1822	tb2_1     = -1.1844	tb3_1     =  1.7714	tb4_1     =  0.1307	
tb5_1     = -1.7832	tb6_1     = -0.1380	tb7_1     =  0.0527	tb8_1     = -2.2892	

CDMFT iteration 87, distance =  8.85e+01, diff param =  6.43e-02, diff hybrid =  1.18e-01
154 minimization steps, time(MIN)/time(ED)=0.00389
sb1_1     =  0.0117	sb2_1     = -0.0038	sb3_1     =  0.0152	sb4_1     = -0.0987	sb5_1     =  0.0132	
sb6_1     = -0.0897	sb7_1     = -0.0130	sb8_1     = -0.0009	eb1_1     = -0.1098	eb2_1     = -4.0393	
eb3_1     = -4.5024	eb4_1     = -0.1107	eb5_1     = -4.4900	eb6_1     = -0.1036	eb7_1     = -0.0204	
eb8_1     = -3.8176	tb1_1     = -0.1571	tb2_1     = -1.1724	tb3_1     =  1.7884	tb4_1     =  0.1397	
tb5_1     = -1.7858	tb6_1     = -0.1375	tb7_1     =  0.1285	tb8_1     = -2.2773	

CDMFT iteration 88, distance =  1.27e+02, diff param =  1.07e-01, diff hybrid =  1.05e-01
121 minimization steps, time(MIN)/time(ED)=0.00388
sb1_1     = -0.0341	sb2_1     =  0.0002	sb3_1     =  0.0093	sb4_1     = -0.1273	sb5_1     =  0.0111	
sb6_1     = -0.1315	sb7_1     = -0.0118	sb8_1     =  0.0008	eb1_1     = -0.0069	eb2_1     = -3.6504	
eb3_1     = -4.2467	eb4_1     = -0.0579	eb5_1     = -4.3520	eb6_1     = -0.0823	eb7_1     =  0.0682	
eb8_1     = -3.7914	tb1_1     = -0.1088	tb2_1     = -1.1350	tb3_1     =  1.7446	tb4_1     =  0.0745	
tb5_1     = -1.7631	tb6_1     = -0.0876	tb7_1     =  0.1655	tb8_1     = -2.2746	

CDMFT iteration 89, distance =  1.28e+02, diff param =  3.28e-02, diff hybrid =  1.52e-01
106 minimization steps, time(MIN)/time(ED)=0.00386
sb1_1     =  0.0152	sb2_1     = -0.0019	sb3_1     =  0.0129	sb4_1     = -0.1341	sb5_1     =  0.0101	
sb6_1     = -0.1309	sb7_1     =  0.0084	sb8_1     = -0.0008	eb1_1     = -0.0425	eb2_1     = -3.6240	
eb3_1     = -4.2935	eb4_1     = -0.0962	eb5_1     = -4.2379	eb6_1     = -0.0732	eb7_1     =  0.1020	
eb8_1     = -3.8286	tb1_1     = -0.1117	tb2_1     = -1.1276	tb3_1     =  1.7552	tb4_1     =  0.0844	
tb5_1     = -1.7460	tb6_1     = -0.0660	tb7_1     =  0.1853	tb8_1     = -2.2874	

CDMFT iteration 90, distance =  8.95e+01, diff param =  1.48e-01, diff hybrid =  5.77e-02
162 minimization steps, time(MIN)/time(ED)=0.00386
sb1_1     = -0.0058	sb2_1     =  0.0019	sb3_1     =  0.0180	sb4_1     = -0.0932	sb5_1     =  0.0179	
sb6_1     = -0.0986	sb7_1     = -0.0521	sb8_1     =  0.0093	eb1_1     = -0.2069	eb2_1     = -4.2505	
eb3_1     = -4.4086	eb4_1     = -0.1358	eb5_1     = -4.4853	eb6_1     = -0.1475	eb7_1     =  0.1135	
eb8_1     = -3.8109	tb1_1     = -0.1831	tb2_1     = -1.1864	tb3_1     =  1.7720	tb4_1     =  0.1307	
tb5_1     = -1.7847	tb6_1     = -0.1384	tb7_1     =  0.1456	tb8_1     = -2.2890	

CDMFT iteration 91, distance =  8.83e+01, diff param =  6.39e-02, diff hybrid =  1.18e-01
213 minimization steps, time(MIN)/time(ED)=0.00388
sb1_1     =  0.0116	sb2_1     = -0.0038	sb3_1     =  0.0152	sb4_1     = -0.0985	sb5_1     =  0.0133	
sb6_1     = -0.0896	sb7_1     = -0.1286	sb8_1     = -0.0009	eb1_1     = -0.1125	eb2_1     = -4.0599	
eb3_1     = -4.5019	eb4_1     = -0.1110	eb5_1     = -4.4917	eb6_1     = -0.1042	eb7_1     =  0.0210	
eb8_1     = -3.8195	tb1_1     = -0.1583	tb2_1     = -1.1745	tb3_1     =  1.7883	tb4_1     =  0.1399	
tb5_1     = -1.7861	tb6_1     = -0.1378	tb7_1     = -0.0131	tb8_1     = -2.2777	

CDMFT iteration 92, distance =  1.27e+02, diff param =  1.12e-01, diff hybrid =  1.06e-01
156 minimization steps, time(MIN)/time(ED)=0.00388
sb1_1     = -0.0330	sb2_1     =  0.0001	sb3_1     =  0.0093	sb4_1     = -0.1273	sb5_1     =  0.0111	
sb6_1     = -0.1314	sb7_1     = -0.1651	sb8_1     =  0.0008	eb1_1     = -0.0068	eb2_1     = -3.6377	
eb3_1     = -4.2535	eb4_1     = -0.0581	eb5_1     = -4.3564	eb6_1     = -0.0822	eb7_1     = -0.0673	
eb8_1     = -3.7913	tb1_1     = -0.1091	tb2_1     = -1.1332	tb3_1     =  1.7459	tb4_1     =  0.0749	
tb5_1     = -1.7640	tb6_1     = -0.0877	tb7_1     = -0.0116	tb8_1     = -2.2745	

CDMFT iteration 93, distance =  1.28e+02, diff param =  3.35e-02, diff hybrid =  1.53e-01
60 minimization steps, time(MIN)/time(ED)=0.00385
sb1_1     =  0.0150	sb2_1     = -0.0018	sb3_1     =  0.0129	sb4_1     = -0.1340	sb5_1     =  0.0101	
sb6_1     = -0.1308	sb7_1     = -0.1853	sb8_1     = -0.0008	eb1_1     = -0.0425	eb2_1     = -3.6220	
eb3_1     = -4.2954	eb4_1     = -0.0962	eb5_1     = -4.2333	eb6_1     = -0.0734	eb7_1     = -0.1021	
eb8_1     = -3.8284	tb1_1     = -0.1117	tb2_1     = -1.1274	tb3_1     =  1.7555	tb4_1     =  0.0844	
tb5_1     = -1.7452	tb6_1     = -0.0662	tb7_1     =  0.0081	tb8_1     = -2.2874	

CDMFT iteration 94, distance =  8.95e+01, diff param =  1.47e-01, diff hybrid =  5.78e-02
255 minimization steps, time(MIN)/time(ED)=0.00387
sb1_1     = -0.0058	sb2_1     =  0.0019	sb3_1     =  0.0180	sb4_1     = -0.0932	sb5_1     =  0.0178	
sb6_1     = -0.0984	sb7_1     = -0.1456	sb8_1     =  0.0093	eb1_1     = -0.2058	eb2_1     = -4.2423	
eb3_1     = -4.4051	eb4_1     = -0.1356	eb5_1     = -4.4760	eb6_1     = -0.1467	eb7_1     = -0.1136	
eb8_1     = -3.8110	tb1_1     = -0.1827	tb2_1     = -1.1855	tb3_1     =  1.7713	tb4_1     =  0.1306	
tb5_1     = -1.7830	tb6_1     = -0.1380	tb7_1     = -0.0520	tb8_1     = -2.2890	

CDMFT iteration 95, distance =  8.85e+01, diff param =  6.27e-02, diff hybrid =  1.18e-01
187 minimization steps, time(MIN)/time(ED)=0.00388
sb1_1     =  0.0116	sb2_1     = -0.0037	sb3_1     =  0.0152	sb4_1     = -0.0986	sb5_1     =  0.0133	
sb6_1     = -0.0897	sb7_1     =  0.0133	sb8_1     = -0.0009	eb1_1     = -0.1124	eb2_1     = -4.0621	
eb3_1     = -4.4998	eb4_1     = -0.1107	eb5_1     = -4.4902	eb6_1     = -0.1039	eb7_1     = -0.0206	
eb8_1     = -3.8184	tb1_1     = -0.1583	tb2_1     = -1.1747	tb3_1     =  1.7879	tb4_1     =  0.1397	
tb5_1     = -1.7859	tb6_1     = -0.1376	tb7_1     = -0.1285	tb8_1     = -2.2775	

CDMFT iteration 96, distance =  1.27e+02, diff param =  1.11e-01, diff hybrid =  1.05e-01
190 minimization steps, time(MIN)/time(ED)=0.00389
sb1_1     = -0.0336	sb2_1     =  0.0002	sb3_1     =  0.0093	sb4_1     = -0.1273	sb5_1     =  0.0111	
sb6_1     = -0.1315	sb7_1     =  0.0116	sb8_1     =  0.0008	eb1_1     = -0.0069	eb2_1     = -3.6432	
eb3_1     = -4.2532	eb4_1     = -0.0582	eb5_1     = -4.3559	eb6_1     = -0.0822	eb7_1     =  0.0677	
eb8_1     = -3.7907	tb1_1     = -0.1089	tb2_1     = -1.1340	tb3_1     =  1.7459	tb4_1     =  0.0748	
tb5_1     = -1.7639	tb6_1     = -0.0876	tb7_1     = -0.1653	tb8_1     = -2.2744	

CDMFT iteration 97, distance =  1.28e+02, diff param =  3.27e-02, diff hybrid =  1.52e-01
98 minimization steps, time(MIN)/time(ED)=0.00387
sb1_1     =  0.0149	sb2_1     = -0.0019	sb3_1     =  0.0129	sb4_1     = -0.1339	sb5_1     =  0.0101	
sb6_1     = -0.1309	sb7_1     = -0.0082	sb8_1     = -0.0008	eb1_1     = -0.0426	eb2_1     = -3.6215	
eb3_1     = -4.2939	eb4_1     = -0.0961	eb5_1     = -4.2381	eb6_1     = -0.0735	eb7_1     =  0.1019	
eb8_1     = -3.8272	tb1_1     = -0.1118	tb2_1     = -1.1274	tb3_1     =  1.7552	tb4_1     =  0.0843	
tb5_1     = -1.7461	tb6_1     = -0.0662	tb7_1     = -0.1851	tb8_1     = -2.2870	

CDMFT iteration 98, distance =  8.94e+01, diff param =  1.42e-01, diff hybrid =  5.76e-02
218 minimization steps, time(MIN)/time(ED)=0.00388
sb1_1     = -0.0057	sb2_1     =  0.0019	sb3_1     =  0.0180	sb4_1     = -0.0931	sb5_1     =  0.0178	
sb6_1     = -0.0983	sb7_1     =  0.0521	sb8_1     =  0.0093	eb1_1     = -0.2044	eb2_1     = -4.2197	
eb3_1     = -4.4055	eb4_1     = -0.1355	eb5_1     = -4.4761	eb6_1     = -0.1467	eb7_1     =  0.1137	
eb8_1     = -3.8114	tb1_1     = -0.1819	tb2_1     = -1.1831	tb3_1     =  1.7714	tb4_1     =  0.1307	
tb5_1     = -1.7831	tb6_1     = -0.1380	tb7_1     = -0.1456	tb8_1     = -2.2892	

CDMFT iteration 99, distance =  8.85e+01, diff param =  6.04e-02, diff hybrid =  1.18e-01
180 minimization steps, time(MIN)/time(ED)=0.00389
sb1_1     =  0.0115	sb2_1     = -0.0037	sb3_1     =  0.0152	sb4_1     = -0.0986	sb5_1     =  0.0133	
sb6_1     = -0.0897	sb7_1     =  0.1285	sb8_1     = -0.0009	eb1_1     = -0.1119	eb2_1     = -4.0584	
eb3_1     = -4.5005	eb4_1     = -0.1108	eb5_1     = -4.4900	eb6_1     = -0.1039	eb7_1     =  0.0206	
eb8_1     = -3.8172	tb1_1     = -0.1581	tb2_1     = -1.1744	tb3_1     =  1.7880	tb4_1     =  0.1397	
tb5_1     = -1.7858	tb6_1     = -0.1376	tb7_1     =  0.0131	tb8_1     = -2.2772	

CDMFT iteration 100, distance =  1.27e+02, diff param =  1.12e-01, diff hybrid =  1.05e-01
160 minimization steps, time(MIN)/time(ED)=0.00389
sb1_1     = -0.0317	sb2_1     =  0.0000	sb3_1     =  0.0093	sb4_1     = -0.1274	sb5_1     =  0.0111	
sb6_1     = -0.1315	sb7_1     =  0.1653	sb8_1     =  0.0008	eb1_1     = -0.0067	eb2_1     = -3.6369	
eb3_1     = -4.2532	eb4_1     = -0.0582	eb5_1     = -4.3555	eb6_1     = -0.0821	eb7_1     = -0.0678	
eb8_1     = -3.7903	tb1_1     = -0.1094	tb2_1     = -1.1330	tb3_1     =  1.7459	tb4_1     =  0.0747	
tb5_1     = -1.7638	tb6_1     = -0.0875	tb7_1     =  0.0115	tb8_1     = -2.2743	

CDMFT iteration 101, distance =  1.28e+02, diff param =  3.24e-02, diff hybrid =  1.52e-01
82 minimization steps, time(MIN)/time(ED)=0.00387
sb1_1     =  0.0149	sb2_1     = -0.0018	sb3_1     =  0.0129	sb4_1     = -0.1339	sb5_1     =  0.0102	
sb6_1     = -0.1310	sb7_1     =  0.1853	sb8_1     = -0.0008	eb1_1     = -0.0425	eb2_1     = -3.6205	
eb3_1     = -4.2931	eb4_1     = -0.0959	eb5_1     = -4.2378	eb6_1     = -0.0737	eb7_1     = -0.1021	
eb8_1     = -3.8272	tb1_1     = -0.1117	tb2_1     = -1.1272	tb3_1     =  1.7551	tb4_1     =  0.0842	
tb5_1     = -1.7460	tb6_1     = -0.0663	tb7_1     = -0.0080	tb8_1     = -2.2871	
Traceback (most recent call last):
  File "/home/theod/code_pyqcm/simulations/cdmft_fade_with_mu.py", line 137, in <module>
    fade(fade_func, initial_P, material_P, 20)
  File "/home/theod/.local/lib/python3.8/site-packages/pyqcm/loop.py", line 390, in fade
    F()
  File "/home/theod/code_pyqcm/simulations/cdmft_fade_with_mu.py", line 125, in fade_func
    cdmft(
  File "/home/theod/.local/lib/python3.8/site-packages/pyqcm/cdmft.py", line 514, in cdmft
    raise pyqcm.TooManyIterationsError(maxiter)
pyqcm.TooManyIterationsError: 100
