model	D	U	e	eb1_1	eb2_1	eb3_1	eb4_1	eb5_1	eb6_1	eb7_1	eb8_1	mu	sb1_1	sb2_1	sb3_1	sb4_1	sb5_1	sb6_1	sb7_1	sb8_1	tb1_1	tb2_1	tb3_1	tb4_1	tb5_1	tb6_1	tb7_1	tb8_1	tpd	tpp	tppp	ave_D_1	ave_U_1	ave_eb1_1	ave_eb2_1	ave_eb3_1	ave_eb4_1	ave_eb5_1	ave_eb6_1	ave_eb7_1	ave_eb8_1	ave_mu_1	ave_sb1_1	ave_sb2_1	ave_sb3_1	ave_sb4_1	ave_sb5_1	ave_sb6_1	ave_sb7_1	ave_sb8_1	ave_tb1_1	ave_tb2_1	ave_tb3_1	ave_tb4_1	ave_tb5_1	ave_tb6_1	ave_tb7_1	ave_tb8_1	var_D_1	var_U_1	var_eb1_1	var_eb2_1	var_eb3_1	var_eb4_1	var_eb5_1	var_eb6_1	var_eb7_1	var_eb8_1	var_mu_1	var_sb1_1	var_sb2_1	var_sb3_1	var_sb4_1	var_sb5_1	var_sb6_1	var_sb7_1	var_sb8_1	var_tb1_1	var_tb2_1	var_tb3_1	var_tb4_1	var_tb5_1	var_tb6_1	var_tb7_1	var_tb8_1	E0_1	sector_1	E0_2	sector_2	githash	distance	diff_param	diff_hybrid	time
2x2_2C_8b_C2v_L	0.1	14	1.94	0.0086839677	-3.1445289	-3.9164807	-0.13437878	-3.9164407	-0.13437791	0.17455273	-3.5797676	9.5	2.7540906e-05	-4.0887161e-07	0.0069035686	-0.19307525	0.0069033966	-0.1930765	-1.0933969e-05	2.552128e-06	-0.11908613	-1.0874005	1.7341014	0.025163995	-1.7340927	-0.025176042	0.26343251	-2.2991102	1.29	0.656	0.167	-0.043147346	0.13185934	0.13421925	1.9448554	1.7869546	1.7424987	1.7869547	1.7424904	0.014822092	1.5535603	1.1008188	-0.00021138519	4.8997281e-06	-0.089139665	1.0540974	-0.08914898	1.0541112	5.4070961e-05	1.7094806e-06	1.1156655	0.68220327	-1.63106	-0.23423063	1.6310533	0.23426454	-0.29478323	2.5541081	0.49216735	0.028620018	0.12477011	0.054151931	0.19480515	0.24591229	0.19480509	0.24591848	0.015064876	0.34634959	0.037277038	3.4589435	5.5445757	5.2979213	4.7343742	5.2979243	4.7343959	4.3935201	6.1467328	5.1373309	2.6768226	3.517	4.9129945	3.5169883	4.9129967	3.6850728	3.1699116	-73.504326	R0:S0:1	-60.48	uncorrelated	51514b8	 2.24e+01	 7.40e-01	 1.00e+06	2022-04-08@19:19
2x2_2C_8b_C2v_L	0.1	14	1.94	0.077234377	-4.8216058	-5.6617121	-0.030915292	-5.6627225	-0.030044474	0.020180935	-5.2280621	9.5	-0.034458537	-5.2067483e-05	0.0041149486	0.0038736395	0.0040181167	0.0037954868	0.058762948	9.3196391e-06	-8.4353194e-05	-0.77911344	1.1987651	-0.047870504	-1.1989	0.047758594	1.2607215e-05	-1.5088891	1.29	0.656	0.167	-0.047452561	0.052730611	0.00014452546	1.9793974	1.9521008	1.9996276	1.9520952	1.9996287	0.00058699799	1.9093581	1.0522145	0.044544403	5.428706e-05	-0.049503351	-0.0011795863	-0.049451023	-0.0010832239	-0.097589738	-2.8102694e-05	0.00015617295	0.53225343	-0.85362141	0.071793322	0.85369471	-0.071652781	-9.4042156e-06	1.2210958	0.70363671	0.012586751	0.0001446013	0.020537163	0.047346357	0.00037894209	0.047351713	0.00037810036	0.00059412294	0.088015519	0.012574205	3.4385473	4.7105113	4.5492583	4.1957888	4.5491046	4.1955562	4.1135231	4.5634844	4.5627235	3.4706618	3.8190632	3.8070538	3.8192391	3.8072751	3.8902451	4.017707	-83.123125	R0:S0:1	-60.48	uncorrelated	51514b8	 1.04e+00	 2.09e-01	 1.69e+00	2022-04-08@19:22
2x2_2C_8b_C2v_L	0.1	14	1.94	0.081057222	-5.4457516	-6.1674187	-0.037167717	-6.1676453	-0.036048855	0.04283293	-5.5883337	9.5	-8.5069748e-05	-5.102258e-07	0.0021074839	0.00019841912	0.002094119	0.00012331645	-0.0072909567	2.2167526e-05	-2.513983e-06	-0.81596333	1.2431931	-0.0053207686	-1.2432158	0.0050628714	9.9025205e-05	-1.553702	1.29	0.656	0.167	-0.046965388	0.051504412	8.7492736e-10	1.9800186	1.953082	1.9999958	1.9530815	1.9999962	8.8199311e-06	1.9103586	1.0509794	0.0001095898	5.6197828e-06	-0.046761098	0.00024420629	-0.046753528	0.00031758969	0.012049438	-1.7518606e-05	4.1866771e-06	0.52425568	-0.84546199	0.007980546	0.84547025	-0.0076017203	-9.5671349e-05	1.2155938	0.70493882	0.012309807	8.7492736e-10	0.019919415	0.046386682	4.1921932e-06	0.046387132	3.8029857e-06	8.8205685e-06	0.087071319	0.012292333	3.4392881	4.7051851	4.5376274	4.1885633	4.5375978	4.1885257	4.1220779	4.5493895	4.560712	3.4706884	3.8237786	3.8114693	3.8238088	3.8115039	3.8779789	4.0258714	-87.186972	R0:S0:1	-60.48	uncorrelated	51514b8	 9.91e-01	 1.62e-02	 3.44e-02	2022-04-08@19:25
2x2_2C_8b_C2v_L	0.1	14	1.94	0.081057497	-5.513853	-6.1939961	-0.037880441	-6.1940518	-0.036597193	0.043533305	-5.5954114	9.5	3.1523563e-05	-2.1691254e-07	0.0021236207	0.00044813249	0.0021110295	0.00036447288	0.0047174773	-2.717406e-05	9.3044211e-08	-0.82061129	1.2456116	-0.0063073342	-1.2456238	0.0054036898	-5.4705987e-05	-1.5545024	1.29	0.656	0.167	-0.046962059	0.051461623	1.1996137e-10	1.9800431	1.9531263	1.9999941	1.9531267	1.9999957	3.6894344e-06	1.9104083	1.0509379	-4.0613626e-05	-6.7713941e-06	-0.046729572	1.2518683e-05	-0.046724172	3.5841996e-05	-0.0077932864	2.1105752e-05	-1.5579024e-07	0.52398129	-0.84508819	0.0094378839	0.84508039	-0.0080894774	5.2852134e-05	1.2152131	0.70497566	0.012300215	1.1996137e-10	0.01989491	0.046343265	5.8776507e-06	0.046342909	4.3170488e-06	3.6895425e-06	0.087025091	0.012282955	3.4399035	4.7044134	4.5371097	4.188362	4.537145	4.1883922	4.1217849	4.5493135	4.5600965	3.4712206	3.8239528	3.8116837	3.8239198	3.8116413	3.8782389	4.0257493	-87.448817	R0:S0:1	-60.48	uncorrelated	51514b8	 9.89e-01	 0.00e+00	 6.40e-04	2022-04-08@19:28
2x2_2C_8b_C2v_L	0.1	14	1.94	0.081057497	-5.513853	-6.1939961	-0.037880441	-6.1940518	-0.036597193	0.043533305	-5.5954114	10	3.1523563e-05	-2.1691254e-07	0.0021236207	0.00044813249	0.0021110295	0.00036447288	0.0047174773	-2.717406e-05	9.3044211e-08	-0.82061129	1.2456116	-0.0063073342	-1.2456238	0.0054036898	-5.4705987e-05	-1.5545024	1.29	0.656	0.167	-0.048545622	0.056119757	1.4216661e-10	1.9784576	1.9491094	1.9999929	1.9491099	1.9999948	4.5033874e-06	1.9017926	1.0555734	-4.3963993e-05	-7.1052026e-06	-0.0489858	8.1288157e-05	-0.048980485	9.3650541e-05	-0.0086094549	2.1308408e-05	-1.5001475e-07	0.54130479	-0.87859713	0.01037372	0.87858739	-0.0088917719	5.0148858e-05	1.2720395	0.70136027	0.01335755	1.4216661e-10	0.021473578	0.05026692	7.1354187e-06	0.050266416	5.2412131e-06	4.5035e-06	0.095077515	0.013328579	3.4008693	4.7536118	4.5814968	4.2050136	4.5815351	4.2050464	4.1199438	4.6101436	4.5991307	3.4369158	3.8096685	3.7950419	3.8096326	3.7949943	3.8800846	4.0091346	-89.555233	R0:S0:1	-64.48	uncorrelated	51514b8	 1.25e+00	 1.77e-01	 1.00e+06	2022-04-08@19:31
2x2_2C_8b_C2v_L	0.1	14	1.94	0.081272472	-5.9218136	-6.6066097	-0.038637427	-6.6083904	-0.038816567	0.047060719	-6.0868762	10	-0.0018639053	2.0603845e-07	0.0021614831	-2.2513301e-05	0.0021456192	0.00038756582	-0.00018610307	-6.4205365e-05	4.6295983e-07	-0.81956988	1.239275	0.00022058811	-1.2394108	0.0037949691	-7.1438014e-07	-1.5541186	1.29	0.656	0.167	-0.04853227	0.051726564	5.1015089e-07	1.9797524	1.9528961	2	1.9529004	1.9999974	7.0654269e-09	1.9103768	1.0512226	0.0026487909	-1.1654635e-05	-0.046684248	4.7493691e-06	-0.04667638	-8.1604524e-05	0.00034108544	4.1435398e-05	-5.8818446e-07	0.52779814	-0.84699507	-0.00036539734	0.84696008	-0.0062860298	6.4011063e-07	1.2152673	0.704597	0.012374133	5.1015154e-07	0.020183597	0.046567178	8.8531769e-09	0.046562987	2.6131809e-06	7.0654272e-09	0.087052913	0.012348786	3.4399703	4.7064089	4.5403537	4.1899852	4.540294	4.1899691	4.1204085	4.5508372	4.5600342	3.4716922	3.8224526	3.8100148	3.8224776	3.8100512	3.8795915	4.0246368	-92.9069	R0:S0:1	-64.48	uncorrelated	51514b8	 1.24e+00	 1.41e-04	 6.04e-02	2022-04-08@19:34
2x2_2C_8b_C2v_L	0.1	14	1.94	0.081487664	-6.3301084	-7.0194682	-0.039394408	-7.0229745	-0.04103605	0.050588133	-6.5783952	10.5	-0.0034694296	7.9846048e-07	0.002010432	-0.00049213957	0.0020424824	0.00038750069	-0.0050894229	1.3702554e-05	7.7831127e-07	-0.81786122	1.2322501	0.006736039	-1.2325069	0.0019256566	5.3210462e-05	-1.5534893	1.29	0.656	0.167	-0.051053834	0.051988798	2.1969217e-06	1.9794885	1.952708	1.9999896	1.9527205	1.9999992	6.6673611e-06	1.9103577	1.0515005	0.0054970456	-2.8774808e-06	-0.047754653	-0.00020360302	-0.047763043	-0.00021061661	0.010477604	-6.0317798e-07	-1.0152957e-06	0.53123171	-0.84852113	-0.012548988	0.84839558	-0.0035587495	-4.4847107e-05	1.2152516	0.70414844	0.012453256	2.1969309e-06	0.020445717	0.046750475	1.0405208e-05	0.04673832	8.4857033e-07	6.6675019e-06	0.08707012	0.012421529	3.439953	4.7083051	4.5430843	4.1915946	4.5431142	4.1916618	4.1192311	4.552094	4.5600665	3.4720561	3.8210779	3.8084866	3.8209779	3.8083449	3.8808114	4.0237405	-98.365229	R0:S0:1	-68.48	uncorrelated	51514b8	 1.84e+00	 1.30e-03	 1.00e+06	2022-04-08@19:37
2x2_2C_8b_C2v_L	0.1	14	1.94	0.081493102	-6.3315384	-7.0206324	-0.039418489	-7.0240811	-0.041035571	0.050593796	-6.5784424	10.5	-0.00027458289	-9.0149164e-07	0.0022607525	-0.00014949769	0.0022529692	0.00023928536	-0.0043511913	1.9803191e-05	-1.0275147e-07	-0.81829491	1.2333038	0.0020655196	-1.233579	0.0010300601	5.137825e-05	-1.5534557	1.29	0.656	0.167	-0.051098826	0.052018623	1.3761304e-08	1.9794715	1.9526486	1.999999	1.9526546	1.9999998	4.8729736e-06	1.9103672	1.0515304	0.00043507164	7.2708876e-06	-0.047973927	-6.4310252e-05	-0.047966455	-0.00014685329	0.0089572622	-1.8580455e-05	1.3364754e-07	0.53146055	-0.84901486	-0.003846793	0.84897492	-0.0018996427	-4.3151454e-05	1.2151675	0.70408887	0.012460096	1.3761305e-08	0.020462568	0.046808604	9.7695591e-07	0.046802698	2.4245976e-07	4.8730499e-06	0.087061425	0.012428553	3.4400674	4.7083101	4.5438308	4.1918956	4.5436736	4.1917693	4.1191004	4.5521506	4.5599328	3.4721912	3.8207698	3.8081121	3.8208738	3.8082326	3.8809307	4.0236649	-98.37459	R0:S0:1	-68.48	uncorrelated	51514b8	 1.84e+00	 0.00e+00	 7.08e-04	2022-04-08@19:40
2x2_2C_8b_C2v_L	0.1	14	1.94	0.08171906	-6.7425262	-7.435697	-0.040223636	-7.4407556	-0.043254042	0.054132536	-7.0700287	11	0.0043646339	-3.7937094e-06	0.0027047991	6.5650034e-05	0.0026396692	-4.5631408e-05	-0.007778178	5.2442772e-05	-1.5222434e-06	-0.81778726	1.2287304	-0.0007538325	-1.2291648	-0.0025001495	0.00010167205	-1.552882	1.29	0.656	0.167	-0.054972808	0.052410195	4.4383413e-06	1.9791504	1.9523146	1.9999998	1.9523183	1.9999981	2.0261087e-05	1.9103537	1.0519349	-0.0078137887	2.1491816e-05	-0.050952941	3.0664619e-05	-0.050921331	-0.00027538856	0.01826258	-5.1340186e-05	2.1648145e-06	0.53561172	-0.85171446	0.0015974641	0.85171923	0.005316655	-8.026686e-05	1.2150541	0.70333264	0.012578076	4.4383709e-06	0.020781579	0.047134835	1.6873761e-07	0.047131057	1.8667605e-06	2.026197e-05	0.087074737	0.012541863	3.4401442	4.7105332	4.5484472	4.1945142	4.5481025	4.1941881	4.1175772	4.5536988	4.5598952	3.4727302	3.8184936	3.8054871	3.8187796	3.8058265	3.8825515	4.0225872	-103.85212	R0:S0:1	-72.48	uncorrelated	51514b8	 2.95e+00	 1.59e-03	 1.00e+06	2022-04-08@19:43
2x2_2C_8b_C2v_L	0.1	14	1.94	0.081731044	-6.744548	-7.437619	-0.040223261	-7.4426496	-0.043251756	0.054195738	-7.0696367	11	-0.0013147505	-1.0229161e-06	0.0023607851	1.6929348e-05	0.0023637733	2.9682465e-05	-0.0044019939	-2.6324327e-05	-2.4426231e-07	-0.81722647	1.2286055	-0.00015250825	-1.2290169	-0.00043119636	8.6484131e-05	-1.5529639	1.29	0.656	0.167	-0.054901745	0.052389451	4.0269342e-07	1.9791882	1.9523372	2	1.9523457	1.9999999	6.4904491e-06	1.9103268	1.0519138	0.0023535734	3.4296614e-07	-0.050688774	2.4973841e-06	-0.050685532	-8.5256917e-05	0.010336807	8.9783777e-06	3.2470915e-07	0.53510909	-0.85153431	0.00032276738	0.85147741	0.00092182812	-6.8532183e-05	1.2152837	0.70336746	0.012573175	4.0269366e-07	0.020743965	0.047112733	7.0173973e-09	0.04710438	5.6330654e-08	6.4905473e-06	0.087099675	0.012536719	3.4399332	4.7104646	4.54812	4.1943167	4.5479031	4.1941512	4.1179081	4.5536039	4.5600704	3.4724874	3.8186681	3.8056833	3.8188092	3.8058493	3.8821332	4.0227775	-103.86229	R0:S0:1	-72.48	uncorrelated	51514b8	 2.95e+00	 0.00e+00	 4.37e-04	2022-04-08@19:46
2x2_2C_8b_C2v_L	0.1	14	1.94	0.081986407	-7.1610095	-7.8576918	-0.041051739	-7.8642187	-0.045465177	0.057866544	-7.5604863	11.5	-0.0048394558	-7.3499507e-08	0.0023671243	0.00047727758	0.0024091683	-0.00025282189	-0.00033838087	-0.00014511831	1.1145201e-08	-0.81603094	1.2248359	-0.0064397312	-1.225379	-0.00071909616	0.00010456988	-1.5525203	1.29	0.656	0.167	-0.060404651	0.052852387	7.2044799e-06	1.9789205	1.9519871	1.9999833	1.9520052	1.9999998	5.2464579e-08	1.9102657	1.052387	0.0099546672	-3.3678321e-05	-0.055130256	0.00057343393	-0.055139376	0.00012518921	0.00092490825	0.00010402941	7.8707383e-07	0.53851291	-0.85432589	0.015864725	0.85414853	0.0017371335	-7.8571057e-05	1.2155704	0.70235771	0.012722961	7.204542e-06	0.021010002	0.047455087	1.6692511e-05	0.047437575	2.0450448e-07	5.2464765e-08	0.087157893	0.012682481	3.4395507	4.7127783	4.5529919	4.1973621	4.5530171	4.197426	4.1169671	4.5550325	4.5605136	3.4725353	3.8161468	3.8027686	3.816021	3.8025756	3.8830333	4.0221017	-109.3701	R0:S0:1	-76.48	uncorrelated	51514b8	 4.88e+00	 1.36e-03	 1.00e+06	2022-04-08@19:50
2x2_2C_8b_C2v_L	0.1	14	1.94	0.081997903	-7.1618857	-7.8586721	-0.041057771	-7.8651488	-0.045464935	0.057866544	-7.5597452	11.5	-0.00067347676	1.7714959e-06	0.0025841933	9.8189978e-05	0.0025932628	-0.0001792929	-0.00038841618	3.9503302e-06	-5.7463659e-07	-0.81685924	1.2245456	-0.0016507851	-1.225042	-0.00035227261	0.0001513352	-1.5524608	1.29	0.656	0.167	-0.06046568	0.052842249	1.3952751e-07	1.9788802	1.9520161	1.9999989	1.9520316	2	6.9432329e-08	1.9102717	1.0523773	0.0013853831	2.7604961e-06	-0.055280241	0.00017036505	-0.055275343	0.00011328614	0.0010614736	-7.6208272e-06	6.5349779e-07	0.53904357	-0.8540669	0.0040707718	0.85394465	0.00084229449	-0.00011355708	1.2154826	0.70238085	0.012720975	1.3952754e-07	0.02105	0.047426788	1.0974893e-06	0.047411673	4.8897043e-08	6.943284e-08	0.087152541	0.012680672	3.4397437	4.7128627	4.5527898	4.1972882	4.552558	4.1971516	4.1166526	4.5552751	4.5602575	3.4727861	3.8161429	3.8027204	3.8162544	3.8028488	3.8833479	4.0218858	-109.37395	R0:S0:1	-76.48	uncorrelated	51514b8	 4.88e+00	 0.00e+00	 4.41e-04	2022-04-08@19:53
2x2_2C_8b_C2v_L	0.1	14	1.94	0.082293679	-7.5835515	-8.2837918	-0.04192202	-8.2915787	-0.047675106	0.061606216	-8.0487679	12	0.0016492383	7.4817444e-06	0.0029309769	9.4284198e-05	0.0029414376	-0.00038764073	0.007689542	0.00011062716	-1.0938743e-06	-0.81719322	1.2211241	-0.002429311	-1.2216543	0.0012668313	0.00024593147	-1.5519466	1.29	0.656	0.167	-0.068722671	0.053450037	1.1554293e-06	1.9785495	1.9516938	1.9999966	1.9517196	1.999999	3.8384961e-05	1.9102013	1.0529944	-0.003986391	1.8852354e-05	-0.062552852	0.00043236381	-0.062540019	0.00061503731	-0.025131893	-7.2982469e-05	1.5178533e-06	0.54320412	-0.85648034	0.0071555251	0.85625958	-0.0038158688	-0.00017646523	1.2157879	0.7009309	0.012934278	1.1554306e-06	0.02137859	0.047742677	3.4032318e-06	0.047717445	9.7716646e-07	3.8386899e-05	0.087220552	0.012890941	3.4391652	4.7158319	4.5581279	4.2013071	4.5578827	4.2012279	4.1153935	4.5570784	4.5608451	3.4727814	3.8127921	3.7987197	3.8128517	3.7987797	3.8848477	4.0210771	-114.90992	R0:S0:1	-80.48	uncorrelated	51514b8	 8.30e+00	 2.20e-04	 1.00e+06	2022-04-08@19:57
2x2_2C_8b_C2v_L	0.1	14	1.94	0.082618506	-8.0098777	-8.7131257	-0.042814397	-8.7220661	-0.049882024	0.065423361	-8.5364601	12.5	0.0052632994	-7.7308023e-06	0.0036684457	-3.1549919e-05	0.0036243201	-0.00061318671	0.019684622	-7.3550242e-05	-2.1613355e-06	-0.81533066	1.2186281	-0.0021666071	-1.2193235	0.0042799457	0.00038706009	-1.5504397	1.29	0.656	0.167	-0.081638103	0.054391056	1.7294107e-05	1.978357	1.9513722	1.9999958	1.9513917	1.9999832	0.00038996052	1.9101784	1.0539418	-0.015417201	6.7661636e-06	-0.074419602	0.00070415118	-0.074388361	0.0018590958	-0.080093794	2.2767368e-05	4.4971077e-06	0.54545404	-0.85859144	0.0079417211	0.85845398	-0.015808168	-0.00027032889	1.2159349	0.698511	0.013288689	1.7294361e-05	0.021570265	0.048059078	4.2206823e-06	0.048039895	1.6754112e-05	0.00039004847	0.087243121	0.013242776	3.4368743	4.7195899	4.5651694	4.2078005	4.5647431	4.2076013	4.1149089	4.5575462	4.5632822	3.4710194	3.8074622	3.7922329	3.8077142	3.7925311	3.887518	4.0211812	-120.46977	R0:S0:1	-84.48	uncorrelated	51514b8	 1.48e+01	 1.67e-03	 1.00e+06	2022-04-08@20:01
2x2_2C_8b_C2v_L	0.1	14	1.94	0.08262135	-8.0099465	-8.7131776	-0.042812045	-8.7221191	-0.049878004	0.066009567	-8.5360114	12.5	0.0043227427	2.6016147e-06	0.0035801509	-9.4156094e-05	0.0035539764	-0.00079408164	0.011613421	-2.3266976e-05	-1.9174988e-06	-0.81596811	1.2184886	-0.0020489168	-1.2191269	0.0039166851	0.00030123961	-1.5504895	1.29	0.656	0.167	-0.081610267	0.054329678	1.1671189e-05	1.9783162	1.951381	1.9999962	1.9514079	1.9999858	0.00013560873	1.9101692	1.0538814	-0.012667064	1.2694698e-06	-0.074345478	0.00071977312	-0.074315038	0.0018961645	-0.047235368	5.117044e-06	2.9672319e-06	0.54604434	-0.85852999	0.0075310723	0.85831061	-0.014538526	-0.00020691425	1.2159785	0.69851927	0.013274508	1.1671304e-05	0.021610648	0.048050417	3.7957368e-06	0.048024104	1.4181275e-05	0.00013562093	0.087252786	0.01322871	3.4378309	4.7189336	4.5649736	4.2076621	4.5646364	4.2076007	4.1150611	4.5578727	4.5622747	3.4719832	3.8075683	3.792368	3.8076957	3.7925113	3.8857835	4.0212251	-120.46882	R0:S0:1	-84.48	uncorrelated	51514b8	 1.48e+01	 0.00e+00	 1.18e-03	2022-04-08@20:05
2x2_2C_8b_C2v_L	0.1	14	1.94	0.08298078	-8.4407383	-9.146682	-0.043729458	-9.1566432	-0.052073876	0.071067991	-9.0217204	13	0.0077371317	1.0969739e-05	0.0042644057	-0.00043036897	0.0042148569	-0.00138079	0.01153048	-3.0475674e-05	-2.68615e-06	-0.81608164	1.2163519	-0.0008310812	-1.21699	0.0077434585	0.00030047246	-1.5490709	1.29	0.656	0.167	-0.10345884	0.055951421	6.0249424e-05	1.9780398	1.9511532	1.9999988	1.9511769	1.999903	0.00023398546	1.9100877	1.0555101	-0.028765153	3.8663368e-05	-0.09449532	0.00080302185	-0.094452068	0.0051998454	-0.062049982	-5.0159539e-05	9.5521014e-06	0.54925332	-0.8591525	0.0042272679	0.85903703	-0.037821098	-0.00020111474	1.216677	0.69376681	0.013947291	6.0252213e-05	0.021885942	0.048278204	1.2344364e-06	0.0482546	9.7032223e-05	0.00023400174	0.087333149	0.013899774	3.4346695	4.7243562	4.5752328	4.2198571	4.574264	4.2197938	4.1158996	4.5583853	4.5658834	3.4696047	3.7976389	3.7801528	3.7982925	3.780983	3.8855385	4.0226373	-126.05288	R0:S0:1	-88.48	uncorrelated	51514b8	 2.87e+01	 3.50e-04	 1.00e+06	2022-04-08@20:09
2x2_2C_8b_C2v_L	0.1	14	1.94	0.083381974	-8.8762036	-9.5843383	-0.044673372	-9.5952265	-0.05425459	0.076830688	-9.5048915	13.5	0.010402141	-1.8836079e-05	0.0051268843	-0.0011586506	0.0050386005	-0.0030265329	0.0088096516	1.2885979e-05	-9.3103728e-06	-0.81333942	1.2131013	0.001217247	-1.2130728	0.012239592	0.00039966745	-1.5487579	1.29	0.656	0.167	-0.14762311	0.060144981	0.00020287919	1.9780163	1.951332	1.9999961	1.9513842	1.9994465	0.00029885919	1.9096187	1.0597044	-0.052661099	0.00027298477	-0.13524384	-0.00025409116	-0.13514533	0.016493382	-0.07019174	-0.00036055053	6.5989237e-05	0.54837597	-0.85391265	-0.0072545932	0.85374541	-0.088889861	-0.00027045847	1.2213606	0.68107353	0.015781786	0.00020291125	0.021912023	0.048119385	3.8618273e-06	0.048066766	0.00055371887	0.00029886806	0.087777801	0.015732759	3.4204495	4.739567	4.5965851	4.2520218	4.5936175	4.2539216	4.1259809	4.5548103	4.5814678	3.4567783	3.7716233	3.7480096	3.7735663	3.7506315	3.8758097	4.0317547	-131.65978	R0:S0:1	-92.48	uncorrelated	51514b8	 6.84e+01	 8.11e-02	 1.00e+06	2022-04-08@20:14
2x2_2C_8b_C2v_L	0.1	14	1.94	0.14933039	-8.866035	-9.5472233	-0.2099981	-9.5594103	-0.2207611	0.34863987	-9.3776175	13.5	-0.00029247031	-0.00024975735	0.003511101	-0.03394912	0.0035743241	-0.034557083	0.00019378159	2.6620283e-05	-0.023580333	-0.81579472	1.2143492	-0.0094874425	-1.2150647	0.0095736759	0.051183937	-1.54407	1.29	0.656	0.167	-0.14858836	0.060938445	7.9352386e-05	1.9778797	1.9509467	1.9992599	1.9510003	1.999258	8.8601993e-05	1.9079512	1.0604617	0.0014179298	0.00018027619	-0.13628688	0.04086395	-0.13623483	0.041300271	-0.0012595183	-0.00011939949	0.02418232	0.54955998	-0.85698034	0.092871244	0.85651392	-0.093091997	-0.031684419	1.2326283	0.68003512	0.015980842	8.0490493e-05	0.022048409	0.048496532	0.00076385173	0.048444157	0.00076430703	8.9187489e-05	0.089341682	0.015940675	3.4143211	4.7462616	4.6009043	4.2627623	4.6005375	4.2626424	4.1276242	4.5658372	4.5868287	3.4515834	3.7695984	3.7426235	3.7695933	3.7427482	3.8731709	4.0297783	-131.91822	R0:S0:1	-92.48	uncorrelated	51514b8	 6.96e+01	 3.96e-04	 6.81e-03	2022-04-08@20:18
2x2_2C_8b_C2v_L	0.1	14	1.94	0.28230242	-9.2855976	-9.9145542	-0.54301816	-9.9300696	-0.55723407	0.90021131	-9.6035555	14	-0.018347013	0.00031559678	0.0021240313	-0.10133932	0.0017059591	-0.10089518	-0.023968952	5.6389512e-05	-0.074916204	-0.81747637	1.213389	-0.028224715	-1.2158719	0.010402975	0.15419181	-1.5342508	1.29	0.656	0.167	-0.31763927	0.10827322	0.011904575	1.9790768	1.9538564	1.9761084	1.9553767	1.9877234	0.0037785995	1.9010826	1.1075622	0.18303094	-0.046075445	-0.30704228	0.30959948	-0.28625956	0.235023	0.21148269	0.063477645	0.21006359	0.51483577	-0.7970105	0.48745593	0.77791203	-0.31959836	-0.09988586	1.2987271	0.56432514	0.03296504	0.0125243	0.020888287	0.045770295	0.02442204	0.044316405	0.012656602	0.0039199526	0.095749709	0.033012872	3.2358001	4.9780305	4.7942206	4.7084808	4.8481155	4.6916172	4.2644777	4.5038372	4.9176722	3.2261556	3.5158071	3.4401763	3.4742157	3.3945555	3.7590492	4.1381465	-138.12312	R0:S0:1	-96.48	uncorrelated	51514b8	 4.00e+02	 1.53e-02	 1.00e+06	2022-04-08@20:21
2x2_2C_8b_C2v_L	0.1	14	1.94	0.28490614	-9.2853417	-9.9148081	-0.53893824	-9.930381	-0.5543196	0.90045035	-9.6036088	14	-0.0025617726	2.4775233e-06	-0.0075797558	-0.074633958	-0.0051491298	-0.076432326	-0.018753244	0.0058675451	-0.059431627	-0.82209968	1.2157129	-0.04284956	-1.2171858	0.034658018	0.10176094	-1.5385149	1.29	0.656	0.167	-0.29326581	0.098787082	0.003768387	1.9785754	1.9536645	1.9811017	1.9541336	1.98547	0.001283211	1.9009524	1.098188	0.025579719	-0.0085320371	-0.27109657	0.2437994	-0.26789886	0.22173665	0.12491964	0.0089637316	0.12622313	0.52524745	-0.80386615	0.46259363	0.79722387	-0.39692976	-0.058674752	1.2972935	0.58864136	0.029718668	0.0039167321	0.021382864	0.045947949	0.01905384	0.045500777	0.014695028	0.0013050437	0.095860234	0.02971995	3.2466556	4.9343278	4.7717364	4.6352547	4.7932704	4.6304799	4.2506959	4.520543	4.8122071	3.2745226	3.5528402	3.4944875	3.53475	3.4707601	3.7582524	4.12191	-138.10952	R0:S0:1	-96.48	uncorrelated	51514b8	 5.85e+02	 3.21e-03	 2.19e-02	2022-04-08@20:24
2x2_2C_8b_C2v_L	0.1	14	1.94	0.28754918	-9.2853471	-9.9151953	-0.5353626	-9.9307552	-0.55075701	0.89756002	-9.6034211	14	-5.2895627e-05	0.000616542	-0.0046604831	-0.074921425	-0.0054375287	-0.074049662	-0.0097102683	0.0031711058	-0.056683947	-0.82165355	1.2171456	-0.033837954	-1.2168862	0.035855168	0.099918001	-1.5380686	1.29	0.656	0.167	-0.29243735	0.097204508	0.0032025963	1.9785322	1.953551	1.9854374	1.9537998	1.9853611	0.00055517375	1.9010791	1.0966128	0.0030962248	-0.0025673302	-0.27015746	0.21828112	-0.26858447	0.21786008	0.063385463	0.002173979	0.11655847	0.52652934	-0.80487685	0.40144489	0.80240355	-0.40418093	-0.056463247	1.2958742	0.59132829	0.029360892	0.0033192836	0.021425087	0.046062763	0.01474377	0.045820188	0.014792596	0.00056195772	0.095746559	0.029359741	3.2524068	4.9257857	4.7746249	4.6105841	4.776188	4.6125504	4.2479817	4.5235082	4.798896	3.2832319	3.5545822	3.4904482	3.5519626	3.4890492	3.7567239	4.1195041	-138.09213	R0:S0:1	-96.48	uncorrelated	51514b8	 6.10e+02	 4.22e-04	 1.89e-03	2022-04-08@20:27
2x2_2C_8b_C2v_L	0.1	14	1.94	0.49801461	-9.6988131	-10.251075	-1.0172548	-10.271111	-1.0394426	1.7151477	-9.6997287	14.5	0.008811976	-0.00082380444	-0.021917625	-0.11945971	-0.022975701	-0.11900271	-0.015111121	0.0096688836	-0.094106526	-0.83204301	1.2229519	-0.073887855	-1.2220388	0.085660965	0.14685924	-1.531663	1.29	0.656	0.167	-0.32135924	0.42849092	0.050814648	1.9931887	1.9832014	1.9503087	1.9838787	1.9480468	0.00067756459	1.8693234	1.4279615	-0.034570673	0.013739196	-0.26787984	0.92393234	-0.2733923	0.94566713	0.080074856	-0.019810702	0.96630621	0.16891565	-0.30423976	0.34178538	0.29318051	-0.36095254	-0.053027191	1.6776485	0.34346624	0.043282897	0.049653218	0.0068877861	0.017145195	0.048419487	0.016451133	0.050627281	0.0006839517	0.12440367	0.043422517	1.522929	6.9938035	6.6671489	6.3322434	6.7006819	6.3510779	5.3929929	3.9078777	6.6383963	1.1179851	1.54627	1.7961257	1.4946943	1.770958	2.6155918	4.9077023	-144.91513	R0:S0:1	-100.48	uncorrelated	51514b8	 2.12e+02	 4.55e-01	 1.00e+06	2022-04-08@20:30
2x2_2C_8b_C2v_L	0.1	14	1.94	0.0082061347	-9.6095591	-10.156529	-0.10041305	-10.170615	-0.090365398	0.02933512	-9.9518781	14.5	-0.041525043	-0.00026227787	-0.0036794422	-0.048191991	-0.0031117535	-0.046986291	-0.079590827	1.7149349e-05	-0.001978782	-0.81757566	1.2001682	-0.058210471	-1.2012757	0.057578672	0.0013269276	-1.5156905	1.29	0.656	0.167	-0.3723831	0.47425961	1.8725857	1.9939903	1.9768903	1.782039	1.9767123	1.771038	0.69424474	1.9144324	1.4739128	1.1320136	-0.0035627961	-0.33619794	1.5619026	-0.3339056	1.5659638	2.971634	0.0037242625	0.18029402	0.14849103	-0.40724072	0.98800944	0.4103413	-1.015733	-0.047201505	1.1543758	0.32207169	0.061637797	0.17050528	0.0060396273	0.023179854	0.21360334	0.023350424	0.22622938	0.39406227	0.081839682	0.061766856	6.3958512	7.0966494	6.1791426	5.1983923	6.1669824	5.1579349	2.825606	4.4214941	1.6378658	0.9592118	1.9058533	3.2145558	1.9179445	3.2726605	8.0393328	3.5592281	-141.17617	R0:S0:1	-100.48	uncorrelated	51514b8	 2.36e+02	 3.57e-02	 4.68e-02	2022-04-08@20:35
2x2_2C_8b_C2v_L	0.1	14	1.94	-0.16008634	-9.597017	-10.144955	-0.094773729	-10.158914	-0.093592382	0.03670637	-9.9254057	14.5	-0.067524719	0.00073766301	-0.0019795148	-0.054784111	-0.0019454692	-0.05491472	-0.08256476	4.9789066e-05	-0.0010078979	-0.83358005	1.2005072	-0.05660678	-1.2014168	0.056117337	8.5516473e-05	-1.512263	1.29	0.656	0.167	-0.35562819	0.47766463	1.9206617	1.9937727	1.9769997	1.7653249	1.9770339	1.7654469	0.70451618	1.9148834	1.4773004	1.2339382	-0.00076298007	-0.32121417	1.6535688	-0.32075597	1.6556338	2.9871402	-0.00047845074	0.0038718326	0.1515249	-0.40481947	0.98817347	0.40443672	-0.98630966	-0.0019292668	1.1485443	0.32313328	0.060853392	0.07558861	0.0062561358	0.023043909	0.22364615	0.023009131	0.22326234	0.39562063	0.081391191	0.060993994	6.4411338	7.0910618	6.1929245	5.1272373	6.1936471	5.1272971	2.8090007	4.4281351	1.587961	0.96295045	1.8847434	3.3086102	1.8837531	3.3088674	8.0828726	3.5385601	-141.42855	R0:S0:1	-100.48	uncorrelated	51514b8	 2.33e+02	 3.76e-04	 1.41e-02	2022-04-08@20:38
2x2_2C_8b_C2v_L	0.1	14	1.94	-1.1954462	-9.8007534	-10.235889	1.1107166	-10.243361	1.1490182	-2.2342355	-10.342724	15	-0.20095757	0.0025282895	0.012121798	0.024879604	0.013934976	0.025347747	-0.2215967	-0.0096767583	0.14136662	-0.8537119	1.1667875	-0.078367161	-1.1688771	0.072540125	-0.25004528	-1.4670714	1.29	0.656	0.167	-0.32528861	0.88910089	1.9137884	1.9974487	1.9973965	0.016933155	1.9942382	0.013874287	1.9144745	1.9872643	1.8889957	1.5300632	-0.12635689	-0.22662489	-0.097856253	-0.36999533	-0.14986515	1.467666	0.44511139	-0.22925021	0.064154421	-0.046656071	0.69646626	0.10304937	-0.61871748	0.41574913	0.18808142	0.42186452	0.036472614	0.084557301	0.0025633688	0.002685286	0.01676664	0.0059766372	0.013760885	0.08320029	0.013167309	0.036566051	6.5936289	7.5797932	7.7557972	0.39905191	7.4552229	0.6068774	6.3783837	7.172351	1.3595192	0.42042355	0.24549068	7.58208	0.55123834	7.3826083	1.5949118	0.83450278	-152.60662	R0:S0:1	-104.48	uncorrelated	51514b8	 2.13e+02	 5.21e-01	 1.00e+06	2022-04-08@20:41
2x2_2C_8b_C2v_L	0.1	14	1.94	-0.84380058	-9.8006947	-10.134795	0.18852658	-10.204251	0.2568192	-0.11443346	-10.637862	15	-0.015320043	-0.011005654	0.0096328497	0.083273258	0.00063063445	0.091331205	0.025950801	-0.00489563	0.11489098	-0.77085945	1.1691438	0.015764306	-1.1705625	0.016039808	-0.089592545	-1.5333129	1.29	0.656	0.167	-0.31785628	0.8360494	1.9993707	1.9997097	1.9950946	0.0014556526	1.9968116	0.019365393	1.0705822	1.9605172	1.835979	0.1101434	0.044535734	-0.32915216	-0.029505746	-0.23901325	-0.13554063	-1.9648748	-0.18346748	-0.0028349727	0.0074028261	-0.086919703	0.052056225	0.057724119	-0.60321427	2.541376	0.55192648	0.42281657	0.035933969	0.00066266165	0.00029436757	0.0051122394	0.0019074684	0.0032929129	0.02451692	0.57699998	0.038556015	0.035987402	7.948077	7.9512907	7.556058	0.43358988	7.7029131	0.53881681	5.0500024	6.0022468	0.054481779	0.052208583	0.46806066	7.6036213	0.30690815	7.4577355	3.8512548	1.9047803	-147.65002	R0:S0:1	-104.48	uncorrelated	51514b8	 2.07e+02	 2.27e-02	 9.64e-02	2022-04-08@20:44
2x2_2C_8b_C2v_L	0.1	14	1.94	-0.82737863	-9.8000921	-10.128924	0.22834525	-10.198879	0.19242011	-0.10249404	-10.612653	15	0.012975241	0.0096972414	0.0011362764	0.087733427	0.0090989961	0.083691643	-0.021567028	0.0038795493	0.11327037	-0.7718517	1.1678137	-0.013283068	-1.1721327	-0.013113651	-0.086793633	-1.5319297	1.29	0.656	0.167	-0.31624906	0.83281052	1.9994789	1.9997184	1.9967281	0.018152245	1.9952684	0.002019619	0.97347227	1.9591153	1.8327411	-0.093840227	-0.038837832	-0.24416067	-0.13116581	-0.32108093	-0.041346264	1.7661313	0.1601536	-0.0038055164	0.0072907644	-0.058900421	0.56758867	0.084185348	-0.10196492	2.7360482	0.57013748	0.42343546	0.03575685	0.00054775563	0.00028551387	0.0033836448	0.02357753	0.0049287163	0.0026933702	0.5653744	0.039853282	0.035809492	7.949519	7.9518499	7.6982531	0.53347753	7.5696101	0.44303349	5.4782508	5.947034	0.053553263	0.051819282	0.31292836	7.4672957	0.45427658	7.5965791	3.5395279	1.949805	-147.51402	R0:S0:1	-104.48	uncorrelated	51514b8	 2.06e+02	 1.37e-02	 2.43e-02	2022-04-08@20:48
2x2_2C_8b_C2v_L	0.1	14	1.94	-0.82192409	-9.7999378	-10.127249	0.20867457	-10.196571	0.21164977	-0.094147641	-10.603959	15	-0.006567823	-0.004228074	0.007586004	0.086109308	0.0015321313	0.085966341	0.019006235	-0.0032845437	0.11370662	-0.77086471	1.166742	0.0098074871	-1.1726498	0.011974735	-0.085435708	-1.5318449	1.29	0.656	0.167	-0.31561106	0.82994808	1.9997293	1.9997394	1.9953722	0.003133975	1.9966309	0.018164452	0.89723847	1.9580954	1.8298788	0.03809545	0.027737107	-0.31453323	-0.057560413	-0.24830739	-0.13245795	-1.584965	-0.13805173	-0.0054048962	0.0070413932	-0.082447303	0.17106913	0.060734069	-0.55522112	2.8828413	0.58367458	0.42341534	0.035694102	0.00028131435	0.00026403725	0.0048193505	0.0041761896	0.0034850696	0.024017012	0.54345164	0.040793586	0.03574659	7.9526826	7.9526841	7.5790157	0.46174273	7.6888756	0.54627996	5.8454413	5.9055265	0.051293331	0.051121871	0.44472995	7.5784902	0.32341755	7.4576082	3.2628103	1.9837688	-147.46076	R0:S0:1	-104.48	uncorrelated	51514b8	 2.06e+02	 1.01e-02	 2.07e-02	2022-04-08@20:51
2x2_2C_8b_C2v_L	0.1	14	1.94	-0.81869691	-9.7998261	-10.126061	0.21271888	-10.195466	0.20485286	-0.091664072	-10.59866	15	0.0025188505	0.00075860557	0.0020721391	0.086137461	0.0076430154	0.085898643	-0.016754709	0.0030224616	0.11327349	-0.77123039	1.168236	-0.010330848	-1.1708734	-0.0088103524	-0.085212342	-1.5315064	1.29	0.656	0.167	-0.31434816	0.82768977	1.9997731	1.9997449	1.996604	0.016113801	1.9954579	0.0035703123	0.8507326	1.9572057	1.82762	-0.0027437032	-0.02087123	-0.25106815	-0.12437996	-0.31006685	-0.061687025	1.4418142	0.12562152	-0.0063007034	0.0070116555	-0.060988815	0.52077173	0.081118373	-0.18753428	2.984041	0.59570699	0.42392064	0.035659629	0.00023469018	0.00025836337	0.003516659	0.021323928	0.0047282466	0.0047905435	0.52307803	0.041624079	0.035712211	7.9526821	7.9524956	7.6885057	0.52446949	7.5857342	0.46551815	6.126739	5.8676432	0.051700782	0.051458849	0.32480569	7.4830317	0.43803857	7.5760049	3.049372	2.0167774	-147.432	R0:S0:1	-104.48	uncorrelated	51514b8	 2.05e+02	 9.69e-03	 1.81e-02	2022-04-08@20:54
2x2_2C_8b_C2v_L	0.1	14	1.94	-0.81275634	-9.7995829	-10.124048	0.20000827	-10.193271	0.21407453	-0.08966868	-10.589042	15	-0.0067427678	-0.0047600883	0.0067092932	0.085134223	0.0021880026	0.086561267	0.015089058	-0.0026492208	0.11278551	-0.77166967	1.1672175	0.0072298241	-1.1717585	0.0096342983	-0.084901425	-1.5310873	1.29	0.656	0.167	-0.31353766	0.82605453	1.9996996	1.999733	1.9954894	0.0043051253	1.9965937	0.015381255	0.81673955	1.9565922	1.8259843	0.043908124	0.024707615	-0.30710584	-0.068483854	-0.25179252	-0.12197106	-1.326333	-0.11529921	-0.0057641685	0.0072074182	-0.080461366	0.21553668	0.061384118	-0.50734223	3.0542707	0.60372617	0.42410551	0.035646809	0.00031290414	0.00027053393	0.0046956327	0.005816737	0.0035276398	0.020356024	0.50585078	0.042194598	0.035699543	7.9513962	7.9517359	7.5900523	0.47614348	7.6859085	0.51985888	6.3336443	5.8433292	0.052860509	0.052316285	0.43384305	7.5657548	0.32804259	7.4899052	2.8905293	2.0374098	-147.38719	R0:S0:1	-104.48	uncorrelated	51514b8	 2.05e+02	 1.05e-02	 1.61e-02	2022-04-08@20:58
2x2_2C_8b_C2v_L	0.1	14	1.94	-0.80471959	-9.7992127	-10.121078	0.21417758	-10.190428	0.19835596	-0.089356916	-10.575846	15	0.010758532	0.0084906028	0.0025850895	0.086329172	0.0071694201	0.084833465	-0.014332183	0.0025400506	0.11240018	-0.77207671	1.1677513	-0.0085994114	-1.1713406	-0.0072104381	-0.084878337	-1.5299183	1.29	0.656	0.167	-0.31307526	0.82552303	1.999519	1.9997206	1.9965886	0.014094904	1.9955236	0.0042801916	0.80415459	1.9563024	1.8254527	-0.082553808	-0.02909337	-0.25326514	-0.11611981	-0.30590955	-0.068001534	1.2769991	0.11168595	-0.0053382239	0.0073820216	-0.061214982	0.48458479	0.07995789	-0.21396087	3.08228	0.60739941	0.42438803	0.035620398	0.00050532896	0.00028307112	0.0035354874	0.01865758	0.0046590758	0.0057917902	0.49875841	0.042465778	0.03567318	7.9487913	7.9509594	7.6876539	0.50323613	7.5923005	0.47390899	6.4182588	5.8326039	0.05516843	0.053133226	0.32671165	7.5081384	0.43149805	7.5681169	2.8242663	2.0467796	-147.331	R0:S0:1	-104.48	uncorrelated	51514b8	 2.05e+02	 1.07e-02	 1.50e-02	2022-04-08@21:01
2x2_2C_8b_C2v_L	0.1	14	1.94	-0.79478326	-9.7988411	-10.117664	0.19661438	-10.18668	0.21415242	-0.08843512	-10.559341	15	-0.0063062546	-0.0044788501	0.0063824647	0.084431041	0.002285944	0.086469421	0.0134962	-0.0023328971	0.1114127	-0.77259028	1.1672721	0.0062733328	-1.1713718	0.0088653372	-0.084697042	-1.5290619	1.29	0.656	0.167	-0.31265578	0.82463121	1.9997001	1.9997313	1.9955382	0.004737312	1.9965705	0.014515018	0.78814294	1.9559401	1.8245607	0.042086325	0.022800391	-0.30415471	-0.071918879	-0.25310987	-0.11869442	-1.2142467	-0.10613242	-0.0059732803	0.0072617375	-0.079600092	0.23039659	0.061793663	-0.4912842	3.1154147	0.61176363	0.42438323	0.03562382	0.00031252446	0.00027219999	0.0046443601	0.0064234592	0.0035530316	0.019212227	0.48926912	0.042803014	0.035676636	7.9510559	7.9514174	7.5948691	0.47979389	7.6840362	0.51250187	6.5225789	5.820568	0.053358791	0.052737032	0.42903278	7.5621038	0.33060446	7.4994055	2.7447775	2.0567529	-147.26058	R0:S0:1	-104.48	uncorrelated	51514b8	 2.04e+02	 9.14e-03	 1.42e-02	2022-04-08@21:05
2x2_2C_8b_C2v_L	0.1	14	1.94	-0.78827534	-9.7986417	-10.115203	0.2097385	-10.184405	0.20164598	-0.08781597	-10.548618	15	0.0074877252	0.0056410076	0.0024863485	0.085810214	0.0070524895	0.085349925	-0.012973985	0.0023131726	0.11116379	-0.77261653	1.16765	-0.0081554266	-1.1707286	-0.0067204511	-0.084728736	-1.527959	1.29	0.656	0.167	-0.31230281	0.82434975	1.9996558	1.9997286	1.9965451	0.01396559	1.9955852	0.0044439255	0.77699003	1.9557581	1.8242792	-0.054211185	-0.023683005	-0.25473594	-0.11603831	-0.3028988	-0.069334556	1.1698274	0.10192971	-0.0058812245	0.0072972003	-0.062002818	0.47860237	0.078867005	-0.22125137	3.1375641	0.61408584	0.42460466	0.035587259	0.0003599163	0.00027495837	0.0035812355	0.018575038	0.0045945668	0.0059954811	0.4827741	0.04297213	0.035640057	7.9504863	7.951289	7.6838742	0.50675859	7.5981576	0.47100742	6.5895104	5.8138902	0.053889471	0.052887918	0.33111917	7.5062658	0.4255391	7.5707474	2.6899317	2.0624957	-147.21495	R0:S0:1	-104.48	uncorrelated	51514b8	 2.04e+02	 6.89e-03	 1.35e-02	2022-04-08@21:08
2x2_2C_8b_C2v_L	0.1	14	1.94	-0.7875014	-9.7986024	-10.114995	0.20822205	-10.184029	0.20324756	-0.087263867	-10.547266	15	0.0042265002	0.0049065586	0.0065095127	0.086099104	0.0022970138	0.085058713	0.012307252	-0.0020342598	0.11088166	-0.7728766	1.166329	0.0058294856	-1.171931	0.00828042	-0.084639158	-1.5279439	1.29	0.656	0.167	-0.31214328	0.82366979	1.9996392	1.9997419	1.9955829	0.0048401691	1.9965295	0.014586873	0.76605215	1.955571	1.8235991	-0.05601023	0.0086814274	-0.3018966	-0.073266428	-0.2546366	-0.11898645	-1.1210263	-0.098346644	-0.0076681639	0.0071505737	-0.078799667	0.23831412	0.062495875	-0.48526333	3.1600814	0.61655471	0.42450991	0.03561284	0.00037758974	0.00026132698	0.0045972304	0.0064864491	0.0035961544	0.019532908	0.47596726	0.043145818	0.035665689	7.9494527	7.9511772	7.5992231	0.47598595	7.6807668	0.51843181	6.6617259	5.8063293	0.055329921	0.053039018	0.42456281	7.5652464	0.3343902	7.4949642	2.6332378	2.0689043	-147.20797	R0:S0:1	-104.48	uncorrelated	51514b8	 2.04e+02	 6.51e-03	 1.29e-02	2022-04-08@21:11
2x2_2C_8b_C2v_L	0.1	14	1.94	-0.78671721	-9.7985702	-10.114659	0.20891988	-10.183803	0.20247244	-0.086832224	-10.545964	15	0.005247825	0.0036959995	0.0024959075	0.085724035	0.0062780064	0.085525002	-0.011881265	0.0020074802	0.11082572	-0.77293128	1.1676041	-0.007845745	-1.170555	-0.0053986913	-0.084561807	-1.5279791	1.29	0.656	0.167	-0.31193028	0.8233517	1.9997168	1.9997318	1.9965114	0.013748939	1.9956243	0.0051640433	0.75808726	1.9554188	1.8232809	-0.034268571	-0.019871795	-0.25593029	-0.11561059	-0.30002753	-0.075493046	1.0855423	0.094911553	-0.00625705	0.0072783567	-0.062618864	0.47331105	0.078333764	-0.24684142	3.1765318	0.61855371	0.42461031	0.035590811	0.00029480186	0.00027163351	0.0036166514	0.018304012	0.0045525985	0.0069698146	0.47071079	0.043286992	0.035643679	7.9510269	7.9512648	7.6808881	0.50787628	7.6006748	0.48128969	6.7152836	5.8002827	0.053571939	0.052975344	0.33458496	7.5064643	0.42293213	7.5603123	2.5920781	2.074019	-147.20153	R0:S0:1	-104.48	uncorrelated	51514b8	 2.04e+02	 6.34e-03	 1.23e-02	2022-04-08@21:15
2x2_2C_8b_C2v_L	0.1	14	1.94	-0.78584452	-9.7985322	-10.114416	0.20743443	-10.183409	0.20399404	-0.086444702	-10.544517	15	0.0024233118	0.0032125174	0.0064717832	0.086012966	0.002334185	0.085217238	0.011526224	-0.0019962911	0.11076562	-0.7729235	1.1664177	0.0054026726	-1.1718101	0.0077894987	-0.084461148	-1.5277667	1.29	0.656	0.167	-0.31186569	0.82318319	1.9997015	1.9997408	1.9956101	0.0050478685	1.996516	0.014062695	0.75188745	1.9553644	1.8231125	-0.037983363	0.010050444	-0.3004953	-0.074774941	-0.2555602	-0.11699584	-1.0585775	-0.092484362	-0.0073387367	0.00716666	-0.078300166	0.24538515	0.062751919	-0.47560332	3.1875189	0.61928887	0.42461266	0.035584454	0.00031110622	0.00026249939	0.0045685961	0.0067723174	0.003611019	0.018828157	0.46695958	0.043336479	0.03563727	7.9504675	7.9513285	7.6019529	0.47696706	7.6794549	0.51409759	6.7496594	5.7980159	0.054369665	0.052919195	0.42171776	7.5640786	0.33604761	7.5005764	2.5636092	2.0757788	-147.1944	R0:S0:1	-104.48	uncorrelated	51514b8	 2.04e+02	 6.09e-03	 1.19e-02	2022-04-08@21:18
2x2_2C_8b_C2v_L	0.1	14	1.94	-0.78508202	-9.798504	-10.114094	0.20810707	-10.183196	0.20323274	-0.086058537	-10.543246	15	0.0036563625	0.0023154299	0.0028286596	0.085654396	0.0058983019	0.085632023	-0.011190076	0.0018488156	0.11074723	-0.77292913	1.167563	-0.0073925403	-1.1704945	-0.0048269213	-0.084394714	-1.5279518	1.29	0.656	0.167	-0.31172636	0.82286539	1.9997425	1.9997342	1.9964865	0.013369682	1.9956567	0.0054604881	0.74587079	1.9552216	1.8227946	-0.020031853	-0.017207658	-0.25734657	-0.11416999	-0.2982012	-0.077785958	1.0290367	0.089817309	-0.0065017345	0.0072562439	-0.063008074	0.46518977	0.07783153	-0.25710223	3.2004731	0.62109964	0.42466626	0.035574551	0.00026735157	0.00026926678	0.0036432298	0.017822467	0.0045183791	0.0073658081	0.46268973	0.043469255	0.035627422	7.9512724	7.9512971	7.6791382	0.50559164	7.6031305	0.48382703	6.79348	5.7927104	0.053457574	0.052972144	0.33664268	7.5098482	0.42036686	7.5574676	2.5307073	2.0802505	-147.18846	R0:S0:1	-104.48	uncorrelated	51514b8	 2.04e+02	 9.85e-03	 1.15e-02	2022-04-08@21:21
2x2_2C_8b_C2v_L	0.1	14	1.94	-0.77310819	-9.7980799	-10.109905	0.19084329	-10.178883	0.21781872	-0.0856459	-10.523331	15	-0.012517264	-0.010342728	0.0057300239	0.08374803	0.0027441246	0.087086643	0.011135236	-0.0019934416	0.1099024	-0.77398135	1.1674397	0.0043178423	-1.1704768	0.0071381896	-0.084300263	-1.5265593	1.29	0.656	0.167	-0.31176902	0.82291478	1.9993508	1.9997109	1.9956162	0.0059088315	1.9965264	0.012673548	0.74327558	1.9551707	1.8228439	0.1052258	0.027906835	-0.29929064	-0.080473766	-0.25636252	-0.1113541	-1.0211237	-0.08842988	-0.0057093995	0.0075756839	-0.078247826	0.2665154	0.062552843	-0.4567298	3.2025987	0.62121555	0.42466809	0.035572165	0.00068542963	0.00029285649	0.0045616284	0.0080758965	0.0036015105	0.016746865	0.46136539	0.043515913	0.035625116	7.945686	7.949805	7.6021964	0.49312359	7.6803742	0.49552354	6.7989718	5.7941954	0.058276659	0.05445906	0.42137267	7.5482545	0.33535974	7.5204175	2.5249175	2.0784764	-147.10686	R0:S0:1	-104.48	uncorrelated	51514b8	 2.04e+02	 1.12e-02	 1.14e-02	2022-04-08@21:25
2x2_2C_8b_C2v_L	0.1	14	1.94	-0.75860164	-9.7974664	-10.104652	0.21175316	-10.173618	0.19709525	-0.084753623	-10.498966	15	0.0050688007	0.0035854953	0.0027004527	0.086020909	0.0057508272	0.084699142	-0.010774492	0.0017590277	0.10866396	-0.77440817	1.166719	-0.007132889	-1.1703841	-0.0043283538	-0.084120977	-1.5248363	1.29	0.656	0.167	-0.31168955	0.82294492	1.9997129	1.9997316	1.9964805	0.012908454	1.9956723	0.0057873678	0.7359582	1.9550346	1.8228744	-0.03506376	-0.018223713	-0.25798514	-0.11246819	-0.29742351	-0.079789084	0.98854642	0.085716119	-0.0063333239	0.0072800417	-0.063143633	0.45849619	0.077512194	-0.26578208	3.2142639	0.6223466	0.42470647	0.035533063	0.00029919254	0.00027186524	0.0036500647	0.01714042	0.0045020967	0.0078573111	0.45688334	0.043641749	0.035585808	7.9510206	7.9513431	7.6782821	0.50077828	7.6048953	0.48798161	6.8353786	5.7928853	0.053633254	0.052935736	0.33764958	7.5152361	0.41838379	7.5528538	2.4938239	2.078969	-147.00458	R0:S0:1	-104.48	uncorrelated	51514b8	 2.04e+02	 5.61e-03	 1.12e-02	2022-04-08@21:28
2x2_2C_8b_C2v_L	0.1	14	1.94	-0.75781614	-9.797441	-10.104452	0.21026184	-10.173253	0.19880223	-0.084212972	-10.497664	15	0.0025862333	0.003217216	0.0058316694	0.086316358	0.0028778442	0.084476118	0.01016182	-0.0015390839	0.10878839	-0.77415547	1.1656594	0.0045763204	-1.1714735	0.0072881468	-0.084032434	-1.52494	1.29	0.656	0.167	-0.31148864	0.82241169	1.9996971	1.9997385	1.9956913	0.0053660295	1.9964403	0.013924921	0.72588974	1.9548566	1.8223409	-0.038276223	0.0084022675	-0.29668134	-0.077087523	-0.2588282	-0.1170368	-0.93626818	-0.081048997	-0.0073585931	0.0072099523	-0.076963052	0.25829947	0.063971394	-0.46903668	3.2343837	0.62465343	0.42470447	0.03554008	0.00031610816	0.00026481822	0.0044834866	0.0071777053	0.0036903727	0.018747752	0.44972641	0.043806294	0.035592913	7.9503162	7.9512018	7.6085587	0.47550441	7.6738632	0.51925508	6.9028842	5.785969	0.054598733	0.053103542	0.41475921	7.5643868	0.34223543	7.4971115	2.441054	2.0846911	-146.99814	R0:S0:1	-104.48	uncorrelated	51514b8	 2.04e+02	 5.44e-03	 1.07e-02	2022-04-08@21:31
2x2_2C_8b_C2v_L	0.1	14	1.94	-0.7570789	-9.797411	-10.104151	0.21053748	-10.173029	0.19848971	-0.083831431	-10.496437	15	0.0035986062	0.0023399108	0.0027918396	0.085976853	0.0058436404	0.084930139	-0.0099908661	0.0018099167	0.10879971	-0.77411821	1.1667367	-0.0069532317	-1.1702802	-0.0042916229	-0.083976687	-1.5248433	1.29	0.656	0.167	-0.31143639	0.82243325	1.999737	1.9997338	1.9964386	0.012914886	1.9957167	0.0057149706	0.72185192	1.954827	1.8223626	-0.021912992	-0.015513905	-0.25952666	-0.1130465	-0.29567689	-0.078945859	0.91777965	0.078507621	-0.0065633129	0.0072588539	-0.063876714	0.45704434	0.076693687	-0.2644414	3.2409467	0.62504207	0.42477887	0.035511835	0.00027345266	0.00026963172	0.0036936781	0.017176135	0.0044558629	0.007747346	0.44705642	0.043832721	0.035564607	7.9512693	7.9513729	7.6747271	0.50501086	7.6092317	0.48233136	6.9237616	5.7848651	0.053526735	0.05293254	0.34156636	7.5119729	0.41388183	7.5580767	2.4238162	2.0854853	-146.99235	R0:S0:1	-104.48	uncorrelated	51514b8	 2.04e+02	 6.97e-03	 1.03e-02	2022-04-08@21:35
2x2_2C_8b_C2v_L	0.1	14	1.94	-0.75056221	-9.7971326	-10.101993	0.20004526	-10.170527	0.2088169	-0.082627843	-10.485484	15	-0.0056461961	-0.004227501	0.0057542434	0.085004748	0.0030301513	0.085952537	0.009545291	-0.0015973792	0.10842696	-0.77433916	1.166293	0.0039434582	-1.1705162	0.0064443489	-0.083720708	-1.524129	1.29	0.656	0.167	-0.31153897	0.82251811	1.9996879	1.999731	1.9957101	0.005849402	1.996444	0.01259705	0.71249558	1.9547873	1.8224476	0.042610724	0.017433815	-0.29576452	-0.079958427	-0.26001719	-0.11163273	-0.87506521	-0.074388224	-0.0063850784	0.0072867571	-0.076566444	0.27027044	0.063936097	-0.44922555	3.2536309	0.62521974	0.42477857	0.03547944	0.00032609926	0.00027246277	0.0044636734	0.007912636	0.0036879573	0.016804698	0.44128014	0.043866726	0.035532122	7.9507404	7.9513287	7.6107642	0.48220018	7.6737181	0.50303385	6.9623063	5.7854671	0.053943699	0.052967197	0.4122389	7.5573409	0.34263938	7.5148709	2.389281	2.0842067	-146.94552	R0:S0:1	-104.48	uncorrelated	51514b8	 2.04e+02	 5.04e-03	 9.99e-03	2022-04-08@21:38
2x2_2C_8b_C2v_L	0.1	14	1.94	-0.7498202	-9.7970938	-10.101657	0.20112635	-10.170308	0.2077645	-0.082210813	-10.484186	15	-0.0032043734	-0.0036870715	0.0027423117	0.084734097	0.0058219425	0.086212701	-0.009125273	0.0016030486	0.10829468	-0.77443144	1.1672222	-0.0067535758	-1.1694606	-0.0038243649	-0.083689378	-1.5240915	1.29	0.656	0.167	-0.31143914	0.82220281	1.9996822	1.9997385	1.9963865	0.013304626	1.9957605	0.0058212351	0.70605483	1.9547024	1.8221323	0.042734777	-0.0061346598	-0.26136539	-0.11501445	-0.29380474	-0.080059552	0.83800977	0.071084485	-0.0073863178	0.0071997024	-0.064781513	0.45842007	0.075932338	-0.27234448	3.2656189	0.62632253	0.42472985	0.035488464	0.0003321714	0.00026472528	0.0037479114	0.017869406	0.0044097268	0.0078151604	0.43663781	0.0439448	0.035541172	7.9502457	7.9513124	7.6703093	0.5155928	7.6130493	0.47889039	7.0023917	5.7821802	0.054675793	0.053000442	0.34629359	7.5022129	0.40972715	7.5602779	2.3568068	2.0868679	-146.93955	R0:S0:1	-104.48	uncorrelated	51514b8	 2.04e+02	 4.87e-03	 9.51e-03	2022-04-08@21:42
2x2_2C_8b_C2v_L	0.1	14	1.94	-0.74908318	-9.7970569	-10.101439	0.20053363	-10.169988	0.20827833	-0.081851174	-10.482945	15	-0.0039220479	-0.0027406924	0.0056908527	0.085121188	0.0028126836	0.085923038	0.0088068851	-0.0015884611	0.10826031	-0.77444735	1.166182	0.003548778	-1.1704597	0.0064864946	-0.083613305	-1.5240634	1.29	0.656	0.167	-0.31137959	0.82208834	1.9997262	1.9997333	1.9957429	0.0060501664	1.996409	0.012766957	0.70085052	1.9546375	1.8220178	0.026901601	0.014458509	-0.29415749	-0.081223381	-0.26095628	-0.11302145	-0.80840662	-0.06807487	-0.0065927757	0.007263201	-0.07598842	0.2768749	0.064613685	-0.4515403	3.2749017	0.62714691	0.42476579	0.035472666	0.00028513658	0.00027006352	0.0044291358	0.008181404	0.0037240934	0.017038411	0.43284372	0.044004246	0.035525371	7.9511656	7.9513951	7.6137867	0.48227348	7.6702327	0.50906224	7.0335095	5.7797944	0.053645334	0.052926005	0.40903604	7.5567851	0.34642948	7.5095049	2.3318086	2.0887386	-146.93367	R0:S0:1	-104.48	uncorrelated	51514b8	 2.04e+02	 4.70e-03	 9.16e-03	2022-04-08@21:45
2x2_2C_8b_C2v_L	0.1	14	1.94	-0.7483397	-9.7970264	-10.101119	0.20147785	-10.169773	0.20732553	-0.081541062	-10.481678	15	-0.0019338318	-0.0024834647	0.0028122043	0.084846527	0.005711314	0.086192629	-0.008457556	0.0014831912	0.1082111	-0.77445502	1.1671235	-0.0063916773	-1.1694956	-0.0034082522	-0.083582438	-1.523989	1.29	0.656	0.167	-0.3113104	0.82190613	1.9997172	1.9997379	1.9963662	0.01298053	1.9957861	0.0060555869	0.69619019	1.954575	1.8218356	0.029554037	-0.0069407779	-0.26241545	-0.11385582	-0.29249048	-0.081574701	0.7785432	0.065796253	-0.0072089845	0.0072086798	-0.06514393	0.45187325	0.075482807	-0.27965635	3.28372	0.62795267	0.42476604	0.035472121	0.0002947453	0.00026535715	0.0037694939	0.017436129	0.0043827605	0.0081349274	0.42941555	0.044061935	0.035524824	7.9508087	7.9513917	7.6684972	0.51392549	7.6153947	0.48026496	7.0630803	5.7774121	0.054146216	0.052939274	0.34839165	7.5048877	0.40721808	7.5584772	2.3074967	2.0906992	-146.9279	R0:S0:1	-104.48	uncorrelated	51514b8	 2.04e+02	 4.51e-03	 8.82e-03	2022-04-08@21:48
2x2_2C_8b_C2v_L	0.1	14	1.94	-0.74760686	-9.7969962	-10.100906	0.2009125	-10.169459	0.20780747	-0.081240334	-10.480449	15	-0.0027795041	-0.0017763529	0.0055885203	0.085189707	0.0028820447	0.085903053	0.0081692858	-0.0014218108	0.10818259	-0.77446609	1.1661608	0.0031466322	-1.1704218	0.0061441715	-0.083529692	-1.5239343	1.29	0.656	0.167	-0.31126268	0.82181413	1.9997411	1.9997346	1.9957671	0.0062719566	1.996389	0.0125064	0.69190661	1.954523	1.8217436	0.016633485	0.012370896	-0.292903	-0.082676334	-0.26196874	-0.11207098	-0.7518921	-0.063288793	-0.0067265368	0.0072493602	-0.07556772	0.28396835	0.064969066	-0.44566648	3.2913629	0.62861042	0.42479592	0.035459972	0.000269183	0.00026874196	0.0044036035	0.0084784752	0.0037453978	0.01670512	0.42623994	0.044109607	0.035512672	7.9513271	7.9514315	7.6159702	0.48344327	7.6684657	0.50811434	7.0887669	5.7755204	0.053559273	0.052906064	0.40669642	7.5551384	0.34845785	7.5113667	2.2865847	2.0921921	-146.92224	R0:S0:1	-104.48	uncorrelated	51514b8	 2.04e+02	 4.36e-03	 8.50e-03	2022-04-08@21:52
2x2_2C_8b_C2v_L	0.1	14	1.94	-0.74695551	-9.7969614	-10.100625	0.20165634	-10.169277	0.2070237	-0.081029486	-10.479331	15	-0.0012096672	-0.0017790617	0.002995053	0.084985006	0.0054649633	0.086254375	-0.0080833692	0.0011996595	0.10814055	-0.77448238	1.1670372	-0.0059489983	-1.1695091	-0.0028506182	-0.083374754	-1.5240105	1.29	0.656	0.167	-0.31140932	0.82184533	1.9997314	1.9997378	1.9963621	0.012572078	1.9957886	0.0064592958	0.69138219	1.9545325	1.8217749	0.022120857	-0.0075084899	-0.26310365	-0.11196335	-0.29191786	-0.084487379	0.74883497	0.063875048	-0.0071181519	0.0072076193	-0.065190325	0.44362967	0.075476682	-0.29141779	3.2912799	0.62836551	0.4247251	0.03546422	0.00027959654	0.00026553295	0.0037744116	0.016899059	0.0043795754	0.0086838894	0.42604999	0.044100333	0.035516872	7.951088	7.9514681	7.6682912	0.50944701	7.6153518	0.48655243	7.0886581	5.7765653	0.053870944	0.052861854	0.34871711	7.5101356	0.40714875	7.551931	2.286522	2.091062	-146.91709	R0:S0:1	-104.48	uncorrelated	51514b8	 2.04e+02	 4.25e-03	 8.27e-03	2022-04-08@21:55
2x2_2C_8b_C2v_L	0.1	14	1.94	-0.74603212	-9.796912	-10.100344	0.20095847	-10.168898	0.20759098	-0.080704039	-10.47779	15	-0.0022019168	-0.0012578689	0.0053898202	0.085164018	0.0030771494	0.085877062	0.0079820585	-0.0013534185	0.10809126	-0.77450357	1.1661904	0.0027454067	-1.1704098	0.0057604443	-0.083379596	-1.5235885	1.29	0.656	0.167	-0.3114402	0.82202053	1.9997468	1.9997361	1.9957704	0.0065409715	1.9963872	0.012145247	0.68827205	1.9545812	1.8219502	0.011342926	0.011379659	-0.29256868	-0.084612109	-0.26265699	-0.11031347	-0.73552474	-0.061845989	-0.0067627362	0.0072181834	-0.07553738	0.29215264	0.064964396	-0.43838613	3.2942231	0.62778224	0.42475969	0.035441632	0.00026313358	0.00026724048	0.004399743	0.0088414712	0.0037478443	0.016233464	0.42424639	0.044053506	0.035494219	7.9515392	7.9516093	7.6159963	0.48741605	7.6684925	0.50380387	7.0949394	5.778269	0.053352952	0.0527122	0.40652743	7.550739	0.34845742	7.5161121	2.2781654	2.0894511	-146.9102	R0:S0:1	-104.48	uncorrelated	51514b8	 2.04e+02	 4.24e-03	 8.13e-03	2022-04-08@21:59
2x2_2C_8b_C2v_L	0.1	14	1.94	-0.74485837	-9.7968502	-10.099878	0.20212361	-10.16852	0.20628244	-0.080348407	-10.475774	15	-0.00021559863	-0.00088311065	0.0028551059	0.084989754	0.0057001418	0.086058866	-0.007742503	0.0012462422	0.1080251	-0.77452668	1.1669937	-0.0059022344	-1.1695985	-0.0028828014	-0.083346966	-1.523687	1.29	0.656	0.167	-0.31138521	0.82186003	1.9997447	1.9997377	1.9963476	0.01252398	1.9958064	0.0063733904	0.68512815	1.9545125	1.8217897	0.01186171	-0.0081484628	-0.26365688	-0.11205604	-0.29149655	-0.083616255	0.71287803	0.060097488	-0.0069983106	0.007202262	-0.065481626	0.44290277	0.075090318	-0.28936188	3.3003949	0.62857163	0.42475246	0.035443788	0.00026533208	0.0002656384	0.0037895289	0.01682172	0.0043612497	0.008571839	0.42175112	0.044117299	0.035496408	7.9513977	7.9515827	7.6667053	0.5105908	7.6174968	0.48297919	7.1166817	5.7762132	0.053556347	0.052746976	0.35043719	7.5092936	0.4048418	7.5550085	2.2611178	2.0910747	-146.90168	R0:S0:1	-104.48	uncorrelated	51514b8	 2.04e+02	 4.03e-03	 7.98e-03	2022-04-08@22:02
2x2_2C_8b_C2v_L	0.1	14	1.94	-0.74413184	-9.79681	-10.099666	0.20154514	-10.16822	0.20675508	-0.080105535	-10.474549	15	-0.001257767	-0.00048838905	0.0052795579	0.08522301	0.0031330511	0.0857768	0.0072994818	-0.0011825489	0.10797764	-0.77455836	1.1660849	0.0023928588	-1.1703548	0.0055350794	-0.083291701	-1.5234746	1.29	0.656	0.167	-0.31128859	0.82173602	1.9997497	1.9997365	1.9958012	0.0067113637	1.9963604	0.012022122	0.67949233	1.9544593	1.8216657	0.0030040729	0.0095292471	-0.29110887	-0.085594004	-0.2637656	-0.11006689	-0.67396708	-0.05658926	-0.0068691109	0.007217516	-0.075006495	0.29775239	0.065440694	-0.43496514	3.3103342	0.62929956	0.42479461	0.035429515	0.00026004684	0.00026678748	0.004367357	0.0090648285	0.0037759338	0.016084618	0.41750282	0.044165728	0.035482115	7.9515123	7.9515803	7.6186998	0.48713602	7.6661371	0.50509637	7.149949	5.7739473	0.053431111	0.052758504	0.40364389	7.5504264	0.35108346	7.5156339	2.2334928	2.0928911	-146.89587	R0:S0:1	-104.48	uncorrelated	51514b8	 2.04e+02	 3.76e-03	 7.65e-03	2022-04-08@22:06
2x2_2C_8b_C2v_L	0.1	14	1.94	-0.74341779	-9.7967725	-10.099364	0.20219197	-10.168001	0.20602898	-0.079842839	-10.473335	15	-8.8065621e-07	-0.00064122621	0.0035425121	0.085051266	0.0048795724	0.086027091	-0.0070874967	0.0012482754	0.10792686	-0.77458367	1.1668546	-0.0051786176	-1.1695879	-0.0019892387	-0.083235672	-1.5232884	1.29	0.656	0.167	-0.31137671	0.82173731	1.9997464	1.9997375	1.9963197	0.011853698	1.9958424	0.0069649098	0.67633005	1.9544641	1.821667	0.0089502615	-0.0076955606	-0.26575481	-0.10905196	-0.2892227	-0.087578201	0.65432782	0.054570181	-0.0069772	0.0072030426	-0.06585429	0.4291746	0.07461331	-0.3064541	3.3145781	0.62923426	0.42475976	0.035425272	0.00026356617	0.00026580724	0.0038195876	0.015933699	0.0043228296	0.0093697702	0.4153382	0.044160247	0.035477839	7.9514624	7.9516146	7.6651443	0.50423281	7.619467	0.49003049	7.1629203	5.774198	0.053500683	0.05272172	0.35225969	7.5169112	0.40264471	7.5472569	2.2214903	2.0925179	-146.89029	R0:S0:1	-104.48	uncorrelated	51514b8	 2.04e+02	 3.60e-03	 7.26e-03	2022-04-08@22:09
2x2_2C_8b_C2v_L	0.1	14	1.94	-0.74266462	-9.7967347	-10.099132	0.20161874	-10.167694	0.20646683	-0.079570716	-10.472045	15	-0.0010045067	-0.0003295972	0.0051657743	0.085266803	0.0032236056	0.085798889	0.006637983	-0.00090646331	0.10788147	-0.77461442	1.1660902	0.0021459448	-1.1703016	0.0053600916	-0.083233084	-1.5232865	1.29	0.656	0.167	-0.31121604	0.82151962	1.9997489	1.9997364	1.9958305	0.0068368056	1.9963313	0.011949662	0.67160911	1.9543748	1.8214492	0.0013021953	0.00858836	-0.28978888	-0.086200239	-0.26493937	-0.11010491	-0.61434022	-0.051752136	-0.0069065936	0.0072234038	-0.074499727	0.30164147	0.06594987	-0.43273592	3.324232	0.63037286	0.42480138	0.035421924	0.00026083835	0.000266944	0.0043366978	0.009234221	0.0038063761	0.015996416	0.41148135	0.044243181	0.035474534	7.9514634	7.951545	7.6212675	0.48638648	7.6636409	0.50705897	7.1966963	5.7708511	0.053502685	0.052806262	0.40090396	7.5506901	0.35382462	7.5144264	2.1943978	2.0953474	-146.88468	R0:S0:1	-104.48	uncorrelated	51514b8	 2.04e+02	 3.46e-03	 6.97e-03	2022-04-08@22:13
2x2_2C_8b_C2v_L	0.1	14	1.94	-0.74190685	-9.7966934	-10.09882	0.20223827	-10.167455	0.20576815	-0.079379804	-10.470744	15	0.00012256854	-0.00041488324	0.003242484	0.085075866	0.0051648391	0.085970682	-0.006174271	0.00078147397	0.1078218	-0.7746519	1.1667657	-0.0051972474	-1.1695953	-0.001992398	-0.083251547	-1.5232015	1.29	0.656	0.167	-0.31107062	0.82129767	1.9997462	1.9997365	1.996289	0.011956938	1.9958778	0.0068658341	0.6670213	1.9542902	1.8212272	0.0067393144	-0.0070395085	-0.26646327	-0.11012968	-0.28794872	-0.086471898	0.57276145	0.04844969	-0.0069891912	0.0072281804	-0.066476637	0.43054267	0.07390805	-0.30419004	3.3337161	0.63148694	0.42484019	0.035418827	0.0002636983	0.00026686475	0.0038514152	0.016068717	0.0042861767	0.0092374995	0.40767878	0.044321789	0.035471466	7.9513477	7.9514844	7.6619073	0.50924229	7.6233602	0.48453932	7.2298661	5.7674933	0.053649759	0.052882092	0.35585581	7.5127209	0.39858421	7.5522272	2.1676405	2.0982375	-146.87903	R0:S0:1	-104.48	uncorrelated	51514b8	 2.04e+02	 3.38e-03	 6.62e-03	2022-04-08@22:16
2x2_2C_8b_C2v_L	0.1	14	1.94	-0.74080383	-9.7966386	-10.098459	0.20150614	-10.167017	0.20630965	-0.079227221	-10.468828	15	-0.00096869523	-0.00030345937	0.0053333015	0.085297203	0.0030642478	0.085777991	0.0062020303	-0.0011405146	0.10773499	-0.77470952	1.1661581	0.0019011957	-1.1703145	0.005071729	-0.083159	-1.5232713	1.29	0.656	0.167	-0.31112797	0.82132535	1.9997483	1.9997362	1.9958406	0.0069931781	1.9963228	0.011706303	0.66675734	1.9542774	1.821255	0.0016998869	0.0078416353	-0.28924742	-0.087087923	-0.26538516	-0.10909759	-0.57286526	-0.047543643	-0.0069190101	0.0072275854	-0.074261019	0.30606454	0.066141433	-0.4274123	3.3335926	0.63153274	0.42482979	0.035413186	0.00026150313	0.00026711108	0.0043259461	0.0094477376	0.0038155271	0.015676171	0.40744859	0.04433316	0.035465797	7.9514399	7.9515304	7.6227334	0.48710637	7.6625448	0.50551858	7.230219	5.7677158	0.053540077	0.052832266	0.39931863	7.5496393	0.35513124	7.5166629	2.1682637	2.097844	-146.871	R0:S0:1	-104.48	uncorrelated	51514b8	 2.04e+02	 3.30e-03	 6.35e-03	2022-04-08@22:20
2x2_2C_8b_C2v_L	0.1	14	1.94	-0.73988527	-9.7965924	-10.098095	0.20218777	-10.166719	0.20553087	-0.07901296	-10.467261	15	0.00021700954	-0.00033351556	0.0032594648	0.085071111	0.0051475718	0.085947136	-0.0060094736	0.00086712802	0.10767857	-0.77474062	1.166745	-0.0049160663	-1.1696249	-0.0017089363	-0.083180298	-1.5230757	1.29	0.656	0.167	-0.31112083	0.82132471	1.9997469	1.9997366	1.9962889	0.011688646	1.9958784	0.0070707547	0.66472205	1.9542736	1.8212543	0.0054763947	-0.0068234466	-0.26679502	-0.10881674	-0.28775073	-0.087824778	0.55606301	0.046738169	-0.0069746343	0.0072221574	-0.066479311	0.42504156	0.073885592	-0.30992707	3.3366782	0.63156618	0.42483213	0.035410175	0.00026297936	0.00026669939	0.0038519494	0.01571337	0.0042852684	0.0095155417	0.40602378	0.044336473	0.035462783	7.9514093	7.9515383	7.6618367	0.50614863	7.6235257	0.48731468	7.2394457	5.7676972	0.053584124	0.05282561	0.35599593	7.5161959	0.39832762	7.5491461	2.1592078	2.0978265	-146.86437	R0:S0:1	-104.48	uncorrelated	51514b8	 2.04e+02	 3.28e-03	 6.21e-03	2022-04-08@22:23
2x2_2C_8b_C2v_L	0.1	14	1.94	-0.73875018	-9.7965418	-10.09772	0.20145971	-10.166276	0.20607297	-0.078824262	-10.465319	15	-0.00087959674	-0.00023409114	0.0051846798	0.085248111	0.0031926769	0.085743966	0.0060104719	-0.001133629	0.10759337	-0.77479517	1.1661041	0.0019137534	-1.1702656	0.0051378951	-0.083134351	-1.5228975	1.29	0.656	0.167	-0.31117346	0.82141377	1.9997485	1.9997365	1.9958624	0.0069374801	1.9963017	0.011823332	0.66352396	1.954298	1.8213434	0.0010973991	0.007502692	-0.28850227	-0.086542444	-0.26620017	-0.10991807	-0.55217752	-0.045283671	-0.0069188835	0.0072190524	-0.073905267	0.304943	0.066488846	-0.42953487	3.3369923	0.6311976	0.42481767	0.035402803	0.00026133035	0.00026679105	0.0043033274	0.0093716481	0.0038373571	0.015834782	0.40532321	0.044312824	0.035455383	7.9514949	7.9515902	7.6243777	0.48462222	7.6608795	0.50865803	7.2391992	5.7690012	0.053481004	0.052767016	0.39755374	7.5518035	0.35684299	7.5135799	2.1583821	2.0965072	-146.85619	R0:S0:1	-104.48	uncorrelated	51514b8	 2.04e+02	 3.26e-03	 6.15e-03	2022-04-08@22:27
2x2_2C_8b_C2v_L	0.1	14	1.94	-0.73646126	-9.7964254	-10.096881	0.20291203	-10.165474	0.20432501	-0.078581932	-10.461402	15	0.00099083008	0.00044661804	0.003526039	0.085217734	0.004938142	0.085818536	-0.005387416	0.00065181707	0.10745132	-0.77487371	1.166553	-0.0045661912	-1.1696447	-0.0013662992	-0.083130015	-1.5225853	1.29	0.656	0.167	-0.31109806	0.8212137	1.9997473	1.999736	1.9962634	0.011385955	1.9959047	0.0073039185	0.65844192	1.954208	1.8211433	-0.002823243	-0.0072006398	-0.26815974	-0.10765573	-0.28645342	-0.089055121	0.49941945	0.042093611	-0.0069285982	0.0072307535	-0.066889105	0.41874674	0.073443572	-0.31604845	3.347166	0.63230739	0.42484148	0.035400184	0.00026254882	0.00026733023	0.0038788517	0.015300855	0.0042575951	0.0098424975	0.40116192	0.044396534	0.035452785	7.9514368	7.9515354	7.6598943	0.50451444	7.6257154	0.48862147	7.274501	5.7658857	0.053559477	0.052836529	0.3581653	7.5186745	0.39595109	7.547327	2.1291734	2.0991641	-146.83972	R0:S0:1	-104.48	uncorrelated	51514b8	 2.04e+02	 2.89e-03	 5.86e-03	2022-04-08@22:30
