model	E_kin	D	U	e	eb1_1	eb2_1	eb3_1	eb4_1	eb5_1	eb6_1	eb7_1	eb8_1	mu	sb1_1	sb2_1	sb3_1	sb4_1	sb5_1	sb6_1	sb7_1	sb8_1	tb1_1	tb2_1	tb3_1	tb4_1	tb5_1	tb6_1	tb7_1	tb8_1	tpd	tpp	tppp	ave_D	ave_e	ave_mu	ave_tpd	ave_tpp	ave_tppp	ave_D_1	ave_U_1	ave_eb1_1	ave_eb2_1	ave_eb3_1	ave_eb4_1	ave_eb5_1	ave_eb6_1	ave_eb7_1	ave_eb8_1	ave_mu_1	ave_sb1_1	ave_sb2_1	ave_sb3_1	ave_sb4_1	ave_sb5_1	ave_sb6_1	ave_sb7_1	ave_sb8_1	ave_tb1_1	ave_tb2_1	ave_tb3_1	ave_tb4_1	ave_tb5_1	ave_tb6_1	ave_tb7_1	ave_tb8_1	var_D_1	var_U_1	var_eb1_1	var_eb2_1	var_eb3_1	var_eb4_1	var_eb5_1	var_eb6_1	var_eb7_1	var_eb8_1	var_mu_1	var_sb1_1	var_sb2_1	var_sb3_1	var_sb4_1	var_sb5_1	var_sb6_1	var_sb7_1	var_sb8_1	var_tb1_1	var_tb2_1	var_tb3_1	var_tb4_1	var_tb5_1	var_tb6_1	var_tb7_1	var_tb8_1	E0_1	sector_1	E0_2	sector_2	githash	iterations	dist_function	distance	diff_hybrid	time
2x2_2C_8b_C2v_L	6.4522431	0.1	14	1.94	0.081057497	-5.513853	-6.1939961	-0.037880441	-6.1940518	-0.036597193	0.043533305	-5.5954114	9.5	3.1523563e-05	-2.1691254e-07	0.0021236207	0.00044813249	0.0021110295	0.00036447288	0.0047174773	-2.717406e-05	9.3044211e-08	-0.82061129	1.2456116	-0.0063073342	-1.2456238	0.0054036898	-5.4705987e-05	-1.5545024	1.29	0.656	0.167	-0.021197787	1.3165819	1.6664651	-0.29413305	-0.037634925	0.016879054	-0.046962059	0.051461623	1.1996137e-10	1.9800431	1.9531263	1.9999941	1.9531267	1.9999957	3.6894344e-06	1.9104083	1.0509379	-4.0613626e-05	-6.7713941e-06	-0.046729572	1.2518683e-05	-0.046724172	3.5841996e-05	-0.0077932864	2.1105752e-05	-1.5579024e-07	0.52398129	-0.84508819	0.0094378839	0.84508039	-0.0080894774	5.2852134e-05	1.2152131	0.70497566	0.012300215	1.1996137e-10	0.01989491	0.046343265	5.8776507e-06	0.046342909	4.3170488e-06	3.6895425e-06	0.087025091	0.012282955	3.4399035	4.7044134	4.5371097	4.188362	4.537145	4.1883922	4.1217849	4.5493135	4.5600965	3.4712206	3.8239528	3.8116837	3.8239198	3.8116413	3.8782389	4.0257493	-87.448817	R0:S0:1	-60.48	uncorrelated	51514b8	3	sharp_wc_2.0_b_50	 9.89e-01	 6.40e-04	2022-04-08@19:28
2x2_2C_8b_C2v_L	6.4524811	0.1	14	1.94	0.081272472	-5.9218136	-6.6066097	-0.038637427	-6.6083904	-0.038816567	0.047060719	-6.0868762	10	-0.0018639053	2.0603845e-07	0.0021614831	-2.2513301e-05	0.0021456192	0.00038756582	-0.00018610307	-6.4205365e-05	4.6295983e-07	-0.81956988	1.239275	0.00022058811	-1.2394108	0.0037949691	-7.1438014e-07	-1.5541186	1.29	0.656	0.167	-0.021870556	1.31659	1.6665287	-0.29404086	-0.037614394	0.016869481	-0.04853227	0.051726564	5.1015089e-07	1.9797524	1.9528961	2	1.9529004	1.9999974	7.0654269e-09	1.9103768	1.0512226	0.0026487909	-1.1654635e-05	-0.046684248	4.7493691e-06	-0.04667638	-8.1604524e-05	0.00034108544	4.1435398e-05	-5.8818446e-07	0.52779814	-0.84699507	-0.00036539734	0.84696008	-0.0062860298	6.4011063e-07	1.2152673	0.704597	0.012374133	5.1015154e-07	0.020183597	0.046567178	8.8531769e-09	0.046562987	2.6131809e-06	7.0654272e-09	0.087052913	0.012348786	3.4399703	4.7064089	4.5403537	4.1899852	4.540294	4.1899691	4.1204085	4.5508372	4.5600342	3.4716922	3.8224526	3.8100148	3.8224776	3.8100512	3.8795915	4.0246368	-92.9069	R0:S0:1	-64.48	uncorrelated	51514b8	1	sharp_wc_2.0_b_50	 1.24e+00	 6.04e-02	2022-04-08@19:34
2x2_2C_8b_C2v_L	6.4525862	0.1	14	1.94	0.081493102	-6.3315384	-7.0206324	-0.039418489	-7.0240811	-0.041035571	0.050593796	-6.5784424	10.5	-0.00027458289	-9.0149164e-07	0.0022607525	-0.00014949769	0.0022529692	0.00023928536	-0.0043511913	1.9803191e-05	-1.0275147e-07	-0.81829491	1.2333038	0.0020655196	-1.233579	0.0010300601	5.137825e-05	-1.5534557	1.29	0.656	0.167	-0.022986652	1.3165976	1.6666003	-0.29394659	-0.037596435	0.016860601	-0.051098826	0.052018623	1.3761304e-08	1.9794715	1.9526486	1.999999	1.9526546	1.9999998	4.8729736e-06	1.9103672	1.0515304	0.00043507164	7.2708876e-06	-0.047973927	-6.4310252e-05	-0.047966455	-0.00014685329	0.0089572622	-1.8580455e-05	1.3364754e-07	0.53146055	-0.84901486	-0.003846793	0.84897492	-0.0018996427	-4.3151454e-05	1.2151675	0.70408887	0.012460096	1.3761305e-08	0.020462568	0.046808604	9.7695591e-07	0.046802698	2.4245976e-07	4.8730499e-06	0.087061425	0.012428553	3.4400674	4.7083101	4.5438308	4.1918956	4.5436736	4.1917693	4.1191004	4.5521506	4.5599328	3.4721912	3.8207698	3.8081121	3.8208738	3.8082326	3.8809307	4.0236649	-98.37459	R0:S0:1	-68.48	uncorrelated	51514b8	1	sharp_wc_2.0_b_50	 1.84e+00	 7.08e-04	2022-04-08@19:40
2x2_2C_8b_C2v_L	6.4526514	0.1	14	1.94	0.081731044	-6.744548	-7.437619	-0.040223261	-7.4426496	-0.043251756	0.054195738	-7.0696367	11	-0.0013147505	-1.0229161e-06	0.0023607851	1.6929348e-05	0.0023637733	2.9682465e-05	-0.0044019939	-2.6324327e-05	-2.4426231e-07	-0.81722647	1.2286055	-0.00015250825	-1.2290169	-0.00043119636	8.6484131e-05	-1.5529639	1.29	0.656	0.167	-0.024656202	1.3166068	1.6667079	-0.29382264	-0.037577238	0.016850524	-0.054901745	0.052389451	4.0269342e-07	1.9791882	1.9523372	2	1.9523457	1.9999999	6.4904491e-06	1.9103268	1.0519138	0.0023535734	3.4296614e-07	-0.050688774	2.4973841e-06	-0.050685532	-8.5256917e-05	0.010336807	8.9783777e-06	3.2470915e-07	0.53510909	-0.85153431	0.00032276738	0.85147741	0.00092182812	-6.8532183e-05	1.2152837	0.70336746	0.012573175	4.0269366e-07	0.020743965	0.047112733	7.0173973e-09	0.04710438	5.6330654e-08	6.4905473e-06	0.087099675	0.012536719	3.4399332	4.7104646	4.54812	4.1943167	4.5479031	4.1941512	4.1179081	4.5536039	4.5600704	3.4724874	3.8186681	3.8056833	3.8188092	3.8058493	3.8821332	4.0227775	-103.86229	R0:S0:1	-72.48	uncorrelated	51514b8	1	sharp_wc_2.0_b_50	 2.95e+00	 4.37e-04	2022-04-08@19:47
2x2_2C_8b_C2v_L	6.4526254	0.1	14	1.94	0.081997903	-7.1618857	-7.8586721	-0.041057771	-7.8651488	-0.045464935	0.057866544	-7.5597452	11.5	-0.00067347676	1.7714959e-06	0.0025841933	9.8189978e-05	0.0025932628	-0.0001792929	-0.00038841618	3.9503302e-06	-5.7463659e-07	-0.81685924	1.2245456	-0.0016507851	-1.225042	-0.00035227261	0.0001513352	-1.5524608	1.29	0.656	0.167	-0.027104091	1.316618	1.6668514	-0.29366591	-0.037555471	0.016838462	-0.06046568	0.052842249	1.3952751e-07	1.9788802	1.9520161	1.9999989	1.9520316	2	6.9432329e-08	1.9102717	1.0523773	0.0013853831	2.7604961e-06	-0.055280241	0.00017036505	-0.055275343	0.00011328614	0.0010614736	-7.6208272e-06	6.5349779e-07	0.53904357	-0.8540669	0.0040707718	0.85394465	0.00084229449	-0.00011355708	1.2154826	0.70238085	0.012720975	1.3952754e-07	0.02105	0.047426788	1.0974893e-06	0.047411673	4.8897043e-08	6.943284e-08	0.087152541	0.012680672	3.4397437	4.7128627	4.5527898	4.1972882	4.552558	4.1971516	4.1166526	4.5552751	4.5602575	3.4727861	3.8161429	3.8027204	3.8162544	3.8028488	3.8833479	4.0218858	-109.37395	R0:S0:1	-76.48	uncorrelated	51514b8	1	sharp_wc_2.0_b_50	 4.88e+00	 4.41e-04	2022-04-08@19:53
2x2_2C_8b_C2v_L	6.4524633	0.1	14	1.94	0.082293679	-7.5835515	-8.2837918	-0.04192202	-8.2915787	-0.047675106	0.061606216	-8.0487679	12	0.0016492383	7.4817444e-06	0.0029309769	9.4284198e-05	0.0029414376	-0.00038764073	0.007689542	0.00011062716	-1.0938743e-06	-0.81719322	1.2211241	-0.002429311	-1.2216543	0.0012668313	0.00024593147	-1.5519466	1.29	0.656	0.167	-0.030740766	1.3166323	1.6670573	-0.29345825	-0.037530424	0.01682352	-0.068722671	0.053450037	1.1554293e-06	1.9785495	1.9516938	1.9999966	1.9517196	1.999999	3.8384961e-05	1.9102013	1.0529944	-0.003986391	1.8852354e-05	-0.062552852	0.00043236381	-0.062540019	0.00061503731	-0.025131893	-7.2982469e-05	1.5178533e-06	0.54320412	-0.85648034	0.0071555251	0.85625958	-0.0038158688	-0.00017646523	1.2157879	0.7009309	0.012934278	1.1554306e-06	0.02137859	0.047742677	3.4032318e-06	0.047717445	9.7716646e-07	3.8386899e-05	0.087220552	0.012890941	3.4391652	4.7158319	4.5581279	4.2013071	4.5578827	4.2012279	4.1153935	4.5570784	4.5608451	3.4727814	3.8127921	3.7987197	3.8128517	3.7987797	3.8848477	4.0210771	-114.90992	R0:S0:1	-80.48	uncorrelated	51514b8	0	sharp_wc_2.0_b_50	 8.30e+00	 1.00e+06	2022-04-08@19:57
2x2_2C_8b_C2v_L	6.4519413	0.1	14	1.94	0.08262135	-8.0099465	-8.7131776	-0.042812045	-8.7221191	-0.049878004	0.066009567	-8.5360114	12.5	0.0043227427	2.6016147e-06	0.0035801509	-9.4156094e-05	0.0035539764	-0.00079408164	0.011613421	-2.3266976e-05	-1.9174988e-06	-0.81596811	1.2184886	-0.0020489168	-1.2191269	0.0039166851	0.00030123961	-1.5504895	1.29	0.656	0.167	-0.036412346	1.3166499	1.6673631	-0.29318925	-0.037507769	0.01680641	-0.081610267	0.054329678	1.1671189e-05	1.9783162	1.951381	1.9999962	1.9514079	1.9999858	0.00013560873	1.9101692	1.0538814	-0.012667064	1.2694698e-06	-0.074345478	0.00071977312	-0.074315038	0.0018961645	-0.047235368	5.117044e-06	2.9672319e-06	0.54604434	-0.85852999	0.0075310723	0.85831061	-0.014538526	-0.00020691425	1.2159785	0.69851927	0.013274508	1.1671304e-05	0.021610648	0.048050417	3.7957368e-06	0.048024104	1.4181275e-05	0.00013562093	0.087252786	0.01322871	3.4378309	4.7189336	4.5649736	4.2076621	4.5646364	4.2076007	4.1150611	4.5578727	4.5622747	3.4719832	3.8075683	3.792368	3.8076957	3.7925113	3.8857835	4.0212251	-120.46882	R0:S0:1	-84.48	uncorrelated	51514b8	1	sharp_wc_2.0_b_50	 1.48e+01	 1.18e-03	2022-04-08@20:05
2x2_2C_8b_C2v_L	6.4511418	0.1	14	1.94	0.08298078	-8.4407383	-9.146682	-0.043729458	-9.1566432	-0.052073876	0.071067991	-9.0217204	13	0.0077371317	1.0969739e-05	0.0042644057	-0.00043036897	0.0042148569	-0.00138079	0.01153048	-3.0475674e-05	-2.68615e-06	-0.81608164	1.2163519	-0.0008310812	-1.21699	0.0077434585	0.00030047246	-1.5490709	1.29	0.656	0.167	-0.046036218	1.3166802	1.6679642	-0.29270789	-0.037475889	0.01677821	-0.10345884	0.055951421	6.0249424e-05	1.9780398	1.9511532	1.9999988	1.9511769	1.999903	0.00023398546	1.9100877	1.0555101	-0.028765153	3.8663368e-05	-0.09449532	0.00080302185	-0.094452068	0.0051998454	-0.062049982	-5.0159539e-05	9.5521014e-06	0.54925332	-0.8591525	0.0042272679	0.85903703	-0.037821098	-0.00020111474	1.216677	0.69376681	0.013947291	6.0252213e-05	0.021885942	0.048278204	1.2344364e-06	0.0482546	9.7032223e-05	0.00023400174	0.087333149	0.013899774	3.4346695	4.7243562	4.5752328	4.2198571	4.574264	4.2197938	4.1158996	4.5583853	4.5658834	3.4696047	3.7976389	3.7801528	3.7982925	3.780983	3.8855385	4.0226373	-126.05288	R0:S0:1	-88.48	uncorrelated	51514b8	0	sharp_wc_2.0_b_50	 2.87e+01	 1.00e+06	2022-04-08@20:10
2x2_2C_8b_C2v_L	6.4498314	0.1	14	1.94	0.14933039	-8.866035	-9.5472233	-0.2099981	-9.5594103	-0.2207611	0.34863987	-9.3776175	13.5	-0.00029247031	-0.00024975735	0.003511101	-0.03394912	0.0035743241	-0.034557083	0.00019378159	2.6620283e-05	-0.023580333	-0.81579472	1.2143492	-0.0094874425	-1.2150647	0.0095736759	0.051183937	-1.54407	1.29	0.656	0.167	-0.065830187	1.3167416	1.6697822	-0.29160346	-0.037467212	0.016737194	-0.14858836	0.060938445	7.9352386e-05	1.9778797	1.9509467	1.9992599	1.9510003	1.999258	8.8601993e-05	1.9079512	1.0604617	0.0014179298	0.00018027619	-0.13628688	0.04086395	-0.13623483	0.041300271	-0.0012595183	-0.00011939949	0.02418232	0.54955998	-0.85698034	0.092871244	0.85651392	-0.093091997	-0.031684419	1.2326283	0.68003512	0.015980842	8.0490493e-05	0.022048409	0.048496532	0.00076385173	0.048444157	0.00076430703	8.9187489e-05	0.089341682	0.015940675	3.4143211	4.7462616	4.6009043	4.2627623	4.6005375	4.2626424	4.1276242	4.5658372	4.5868287	3.4515834	3.7695984	3.7426235	3.7695933	3.7427482	3.8731709	4.0297783	-131.91822	R0:S0:1	-92.48	uncorrelated	51514b8	1	sharp_wc_2.0_b_50	 6.96e+01	 6.81e-03	2022-04-08@20:18
2x2_2C_8b_C2v_L	6.4570287	0.1	14	1.94	0.28754918	-9.2853471	-9.9151953	-0.5353626	-9.9307552	-0.55075701	0.89756002	-9.6034211	14	-5.2895627e-05	0.000616542	-0.0046604831	-0.074921425	-0.0054375287	-0.074049662	-0.0097102683	0.0031711058	-0.056683947	-0.82165355	1.2171456	-0.033837954	-1.2168862	0.035855168	0.099918001	-1.5380686	1.29	0.656	0.167	-0.12762891	1.3170744	1.6832591	-0.28532769	-0.037694179	0.01665599	-0.29243735	0.097204508	0.0032025963	1.9785322	1.953551	1.9854374	1.9537998	1.9853611	0.00055517375	1.9010791	1.0966128	0.0030962248	-0.0025673302	-0.27015746	0.21828112	-0.26858447	0.21786008	0.063385463	0.002173979	0.11655847	0.52652934	-0.80487685	0.40144489	0.80240355	-0.40418093	-0.056463247	1.2958742	0.59132829	0.029360892	0.0033192836	0.021425087	0.046062763	0.01474377	0.045820188	0.014792596	0.00056195772	0.095746559	0.029359741	3.2524068	4.9257857	4.7746249	4.6105841	4.776188	4.6125504	4.2479817	4.5235082	4.798896	3.2832319	3.5545822	3.4904482	3.5519626	3.4890492	3.7567239	4.1195041	-138.09213	R0:S0:1	-96.48	uncorrelated	51514b8	2	sharp_wc_2.0_b_50	 6.10e+02	 1.89e-03	2022-04-08@20:28
2x2_2C_8b_C2v_L	6.721411	0.1	14	1.94	-0.16008634	-9.597017	-10.144955	-0.094773729	-10.158914	-0.093592382	0.03670637	-9.9254057	14.5	-0.067524719	0.00073766301	-0.0019795148	-0.054784111	-0.0019454692	-0.05491472	-0.08256476	4.9789066e-05	-0.0010078979	-0.83358005	1.2005072	-0.05660678	-1.2014168	0.056117337	8.5516473e-05	-1.512263	1.29	0.656	0.167	-0.22253375	1.3209106	1.8136655	-0.2162948	-0.035890142	0.016295788	-0.35562819	0.47766463	1.9206617	1.9937727	1.9769997	1.7653249	1.9770339	1.7654469	0.70451618	1.9148834	1.4773004	1.2339382	-0.00076298007	-0.32121417	1.6535688	-0.32075597	1.6556338	2.9871402	-0.00047845074	0.0038718326	0.1515249	-0.40481947	0.98817347	0.40443672	-0.98630966	-0.0019292668	1.1485443	0.32313328	0.060853392	0.07558861	0.0062561358	0.023043909	0.22364615	0.023009131	0.22326234	0.39562063	0.081391191	0.060993994	6.4411338	7.0910618	6.1929245	5.1272373	6.1936471	5.1272971	2.8090007	4.4281351	1.587961	0.96295045	1.8847434	3.3086102	1.8837531	3.3088674	8.0828726	3.5385601	-141.42855	R0:S0:1	-100.48	uncorrelated	51514b8	2	sharp_wc_2.0_b_50	 2.33e+02	 1.41e-02	2022-04-08@20:39
