model	E_kin	D	U	e	eb1_1	eb2_1	eb3_1	eb4_1	eb5_1	eb6_1	eb7_1	eb8_1	mu	sb1_1	sb2_1	sb3_1	sb4_1	sb5_1	sb6_1	sb7_1	sb8_1	tb1_1	tb2_1	tb3_1	tb4_1	tb5_1	tb6_1	tb7_1	tb8_1	tpd	tpp	tppp	ave_D	ave_e	ave_mu	ave_tpd	ave_tpp	ave_tppp	ave_U_1	ave_eb1_1	ave_eb2_1	ave_eb3_1	ave_eb4_1	ave_eb5_1	ave_eb6_1	ave_eb7_1	ave_eb8_1	ave_mu_1	ave_sb1_1	ave_sb2_1	ave_sb3_1	ave_sb4_1	ave_sb5_1	ave_sb6_1	ave_sb7_1	ave_sb8_1	ave_tb1_1	ave_tb2_1	ave_tb3_1	ave_tb4_1	ave_tb5_1	ave_tb6_1	ave_tb7_1	ave_tb8_1	var_U_1	var_eb1_1	var_eb2_1	var_eb3_1	var_eb4_1	var_eb5_1	var_eb6_1	var_eb7_1	var_eb8_1	var_mu_1	var_sb1_1	var_sb2_1	var_sb3_1	var_sb4_1	var_sb5_1	var_sb6_1	var_sb7_1	var_sb8_1	var_tb1_1	var_tb2_1	var_tb3_1	var_tb4_1	var_tb5_1	var_tb6_1	var_tb7_1	var_tb8_1	E0_1	sector_1	E0_2	sector_2	githash	time
2x2_2C_8b_C2v_L	4.205323	0	14	2.3	0.0092323556	-3.1612953	-3.9339231	-0.13165602	-3.933917	-0.13165757	0.17209696	-3.5973986	9.45	1.5333356e-05	9.0001191e-07	0.0074718567	-0.19108458	0.0074731519	-0.19108478	-5.7657766e-06	-5.6877182e-06	-0.11850641	-1.0885199	1.7345396	0.028063295	-1.7345386	-0.028069645	0.26131458	-2.2993085	2.1	1	0.2	0.011014664	1.2519588	1.607485	-0.61498912	-0.20311522	0.084307505	0.12949793	0.2938939	1.9358755	1.7869603	1.5383428	1.786959	1.5383442	0.022639357	1.5299848	1.095121	-0.00013671482	-4.0628793e-06	0.1182721	1.2628247	0.11826774	1.2628013	3.54288e-05	1.1581043e-05	1.2467653	0.7480265	-1.6227773	-0.53164182	1.6227852	0.53167337	-0.32039503	2.6034654	0.028144568	0.26322277	0.062195902	0.19280422	0.38481944	0.19280532	0.3848181	0.023007451	0.35634523	0.037726165	4.2581233	5.3725169	5.1615345	4.9584374	5.1615372	4.9584558	4.3909876	6.2465555	5.2386728	2.7347131	3.3624616	5.2937249	3.3624713	5.293705	3.6810523	3.1101808	-73.397626	R0:S0:1	-57.2	uncorrelated	51514b8	2022-04-16@12:02
2x2_2C_8b_C2v_L	4.8857839	0	14	2.3457632	-0.01646825	-3.4267726	-4.1539872	-0.091460891	-4.1533868	-0.091072802	0.12303108	-3.7736548	9.7657895	0.00054992615	-2.7227831e-05	0.01172954	-0.15119614	0.011702441	-0.15119897	0.00027619704	-3.6050778e-05	-0.11081753	-1.1118851	1.7465404	0.064157266	-1.7464819	-0.063750394	0.21190621	-2.29804	2.0920632	1	0.20196316	0.014648893	1.2647739	1.62838	-0.56426848	-0.17233098	0.072046804	0.13393584	0.2114237	1.9454355	1.8213594	1.6094503	1.8213694	1.6094515	0.014539365	1.595564	1.1106564	-0.010508304	-0.00025929228	0.092335294	1.0484946	0.092430539	1.0491979	-0.00087693693	0.00031061755	1.0835338	0.70979664	-1.5030248	-0.61567696	1.5030217	0.61369399	-0.26700092	2.4465209	0.028963974	0.19512386	0.053345093	0.16521818	0.32821708	0.16521073	0.32834223	0.014602419	0.3255387	0.035334026	3.8351319	5.4288982	5.1415915	5.0885057	5.1415822	5.0872382	4.3208977	5.9980216	5.2857664	2.7254571	3.3871344	4.9840879	3.3872387	4.9846388	3.7238648	3.2683045	-76.231031	R0:S0:1	-59.360211	uncorrelated	51514b8	2022-04-16@13:16
2x2_2C_8b_C2v_L	5.6688765	0	14	2.3915263	-0.077187194	-4.0777455	-4.6495652	-0.087179456	-4.6496323	-0.08720045	0.020487912	-4.0258314	10.081579	-5.2324868e-06	1.8327044e-06	0.0090713924	-0.07470503	0.0090716196	-0.074711584	-0.11960847	-1.4699535e-06	-0.13060746	-1.1804592	1.8031526	0.12315617	-1.8031627	-0.12316612	1.4120153e-05	-2.3062087	2.0841263	1	0.20392632	0.011825241	1.2800139	1.6506619	-0.50483133	-0.13084043	0.055958078	0.13809998	1.9979623	1.9633147	1.8575524	1.7791743	1.8575526	1.7791859	0.041899507	1.6942257	1.1286777	5.599832e-05	-2.6878018e-06	0.083651809	0.59240575	0.08364921	0.59240349	0.36211066	-5.9443285e-08	0.1173172	0.61061797	-1.3857892	-0.55730047	1.3857929	0.5572988	-2.3618375e-05	2.2044975	0.029721132	0.0020746755	0.036700934	0.13570538	0.22925372	0.13570519	0.22923856	0.041914036	0.26517769	0.031779056	5.451329	5.6314446	5.1999838	4.8383199	5.199974	4.8383126	4.303578	5.6265641	2.5665915	2.6778486	3.5293428	4.3346887	3.5293542	4.3346816	3.9247894	3.4458165	-81.431086	R0:S0:1	-61.520421	uncorrelated	51514b8	2022-04-16@14:40
2x2_2C_8b_C2v_L	6.2318691	0	14	2.4372895	-0.44288495	-5.376853	-5.7349476	-0.46944741	-5.7349526	-0.4694541	0.45329629	-4.8460611	10.397368	-1.7260152e-05	-3.9767998e-05	4.9618711e-05	-0.00021740755	4.6224215e-05	-0.00021254979	-0.22001349	9.9729953e-06	-0.18937914	-1.2922755	1.9248703	0.20439719	-1.9248699	-0.20439361	-3.1110688e-06	-2.4268739	2.0761895	1	0.20588947	1.119684e-05	1.2890952	1.6659522	-0.46653138	-0.105488	0.046078367	0.13867888	1.9975949	1.9656127	1.8852169	1.9948622	1.8852175	1.9948624	0.0070449408	1.7391173	1.1361402	8.7074247e-05	6.8599096e-05	4.8839735e-05	0.00067260107	5.3050976e-05	0.0006662607	0.34620275	-3.5555799e-05	0.15576413	0.58903196	-1.2694767	-0.26750131	1.2694716	0.26749524	1.2572383e-05	2.1069228	0.029803762	0.0024057973	0.034450235	0.11196063	0.0051326562	0.11196008	0.0051324383	0.0070234116	0.2330742	0.029548187	5.4907575	5.6758081	5.2702	4.5139938	5.2702048	4.5140018	4.2365927	5.4836372	2.5328687	2.658147	3.6196433	3.5269999	3.6196373	3.5269904	3.7920457	3.594244	-93.836469	R0:S0:1	-63.680632	uncorrelated	51514b8	2022-04-16@15:04
2x2_2C_8b_C2v_L	6.4194103	0	14	2.4830526	-0.67872586	-5.6136038	-5.9706996	-0.73242499	-5.970664	-0.73241061	0.74052334	-5.1155702	10.713158	0.00026074613	-0.00015661201	-7.4424579e-05	0.00021026378	-0.0001257095	0.00031701598	-0.21507327	-2.2438946e-05	-0.17459715	-1.2911338	1.9157718	0.19370028	-1.9157667	-0.19369888	-8.418596e-05	-2.4181588	2.0682526	1	0.20785263	3.6818017e-07	1.2890628	1.6660089	-0.46657574	-0.10559156	0.0460934	0.13892269	1.9978961	1.9651219	1.8845091	1.9952865	1.8845094	1.9952866	0.0068053828	1.7385819	1.1364034	-0.00081193309	0.00018387822	5.9127585e-05	-0.00043416004	0.00010225148	-0.00063143211	0.34013305	4.116902e-06	0.14572211	0.59338069	-1.2731646	-0.25616106	1.2731616	0.25615893	6.334652e-05	2.1082617	0.029849547	0.0021044398	0.034942487	0.11263333	0.0047091565	0.1126331	0.0047091126	0.0067852956	0.23350441	0.029596511	5.4876594	5.6772791	5.2757218	4.5121533	5.2757277	4.5121613	4.2339632	5.4891469	2.5330033	2.661278	3.6191704	3.5254457	3.619165	3.5254374	3.7937185	3.5916283	-98.561072	R0:S0:1	-65.840842	uncorrelated	51514b8	2022-04-16@15:22
2x2_2C_8b_C2v_L	6.6063827	0	14	2.5288158	-0.70912082	-5.7449616	-6.102308	-0.78246517	-6.1023174	-0.78246222	0.79293303	-5.276831	11.028947	0.00056808907	-0.00023291119	-4.3074239e-05	0.00023140703	-0.00010744772	0.00032976708	-0.15874329	1.0882586e-05	-0.13345459	-1.2868833	1.9001994	0.14953812	-1.9001977	-0.14954142	-3.5728955e-05	-2.3974112	2.0603158	1	0.20981579	1.5317672e-07	1.2890232	1.6660104	-0.46669865	-0.10570252	0.046109234	0.13957433	1.9986381	1.9640332	1.8822447	1.996876	1.8822457	1.9968759	0.004103336	1.7347986	1.1370977	-0.0015519828	0.00026933044	3.5290783e-05	-0.00040860894	7.9892893e-05	-0.00057127916	0.26386838	-2.3140046e-05	0.1172871	0.60282454	-1.285055	-0.20836885	1.2850475	0.20837254	2.0837598e-05	2.121501	0.029970828	0.0013621691	0.036035	0.11478519	0.0031221037	0.11478429	0.0031222396	0.0040959976	0.23647786	0.029723743	5.4812554	5.681409	5.2929312	4.5037731	5.2929349	4.5037853	4.2332386	5.5184665	2.5321252	2.6674256	3.6186354	3.5211799	3.618628	3.521169	3.7834328	3.5785265	-101.16186	R0:S0:1	-68.001053	uncorrelated	51514b8	2022-04-16@15:38
2x2_2C_8b_C2v_L	6.7914631	0	14	2.5745789	-0.70736864	-5.7766335	-6.1750481	-0.77133204	-6.1750549	-0.77132218	0.77351553	-5.4998781	11.344737	-2.2668398e-06	9.162337e-07	-4.8733222e-07	-1.2675302e-08	1.6389747e-06	-5.0296463e-06	-0.11454388	-1.0099917e-05	-0.091102677	-1.2695663	1.8753958	0.098544668	-1.8753962	-0.098545848	5.3443984e-06	-2.3850851	2.0523789	1	0.21177895	-1.8540871e-08	1.2889497	1.6659646	-0.4670416	-0.10591345	0.046171109	0.14044015	1.9992876	1.9630548	1.8795917	1.9984384	1.8795918	1.9984383	0.0024526077	1.732164	1.1379715	4.5027736e-06	-5.416766e-06	2.9943828e-07	1.2732281e-07	-1.3952414e-06	7.8037047e-06	0.20393495	9.0643889e-06	0.084789389	0.61064527	-1.2985548	-0.14711968	1.2985538	0.14712169	-4.4643329e-06	2.1313382	0.030128675	0.00071251557	0.037020393	0.11730957	0.0015611539	0.11730942	0.0015611972	0.0024499619	0.23851789	0.029884259	5.4801652	5.6893522	5.3141446	4.4972368	5.3141444	4.497238	4.2348604	5.5367329	2.5268438	2.6688735	3.617448	3.5152737	3.6174474	3.5152729	3.7750626	3.5698472	-103.13959	R0:S0:1	-70.161263	uncorrelated	51514b8	2022-04-16@15:49
2x2_2C_8b_C2v_L	6.9784779	0	14	2.6203421	-0.68998651	-5.903578	-6.3973968	-0.75163525	-6.3974032	-0.75161872	0.76987227	-5.7073292	11.660526	1.7309466e-07	-9.1930756e-07	2.9574768e-07	2.0914216e-06	9.0005241e-07	1.0449825e-06	-0.073839772	3.9958931e-06	-0.053896366	-1.2578566	1.8663508	0.066118814	-1.8663511	-0.066116562	1.0877312e-05	-2.3677931	2.0444421	1	0.21374211	-9.7318971e-08	1.2889086	1.6660037	-0.46714501	-0.10604518	0.046195356	0.14093708	1.9997157	1.9623098	1.8784771	1.9991807	1.8784774	1.9991808	0.0011731282	1.7298612	1.1384926	-2.5246676e-07	2.2345425e-06	-9.5021147e-07	-3.128869e-06	-1.1835322e-06	-1.591912e-06	0.14094966	-3.5368697e-06	0.053563508	0.61678835	-1.3042533	-0.10644188	1.3042513	0.10643851	-7.872308e-06	2.1390888	0.030218315	0.00028432046	0.037769558	0.11836687	0.00081912894	0.11836662	0.000819078	0.0011725174	0.24030909	0.029977716	5.4775593	5.6933482	5.3226865	4.4935706	5.3226876	4.4935734	4.2327111	5.5545496	2.525242	2.6718986	3.6170692	3.5130194	3.6170672	3.5130162	3.7720186	3.5612572	-105.82215	R0:S0:1	-72.321474	uncorrelated	51514b8	2022-04-16@15:59
2x2_2C_8b_C2v_L	7.1654569	0	14	2.6661053	-0.68315797	-6.1283034	-6.6263632	-0.74648783	-6.6263658	-0.74648192	0.76988597	-5.9325088	11.976316	-4.5835384e-05	-1.0017656e-05	9.0164602e-06	-0.00033679377	-6.4694505e-06	0.00030936859	0.0059220195	-0.00053277993	-0.021796467	-1.2525914	1.8562455	0.039126405	-1.856248	-0.039119536	0.056280616	-2.3555393	2.0365053	1	0.21570526	-3.7917884e-08	1.2888649	1.6660706	-0.46724811	-0.10618079	0.046221665	0.14144185	1.9999461	1.961867	1.8776058	1.9996633	1.877605	1.9996634	0.00014769804	1.727529	1.1389976	0.00010109952	-3.287986e-05	-1.6115484e-05	0.00045022672	1.3911068e-05	-0.00041321053	-0.012170875	0.00033043983	0.023228311	0.62019484	-1.3085894	-0.068136169	1.3085955	0.068124621	-0.039654672	2.147092	0.030309643	5.3928832e-05	0.038214851	0.11919342	0.00033666268	0.11919413	0.00033654493	0.00014774311	0.24211532	0.030077714	5.4768669	5.6963463	5.3296137	4.4917659	5.32961	4.4917552	4.2322497	5.5713668	2.5236643	2.6730218	3.6164905	3.5109539	3.6164968	3.5109637	3.7687518	3.5528099	-108.85042	R0:S0:1	-74.481684	uncorrelated	51514b8	2022-04-16@16:09
2x2_2C_8b_C2v_L	7.3519923	0	14	2.7118684	-0.68331327	-6.2138677	-6.7598469	-0.7481694	-6.7598068	-0.74815503	0.77136147	-6.2089347	12.292105	-3.2227907e-05	-3.7453316e-06	-1.226231e-05	-6.4638184e-05	5.5301603e-06	7.8896452e-05	0.0060874464	-0.00072440751	-0.0032968071	-1.2343189	1.8343868	-0.00050153126	-1.8343915	0.00038831445	0.071007015	-2.3492646	2.0285684	1	0.21766842	4.3223822e-07	1.2888107	1.6661874	-0.46738915	-0.10636148	0.046269634	0.14247606	1.9999986	1.961256	1.8759289	1.9999999	1.8759245	2	0.00021500812	1.7266159	1.1400208	6.4063064e-05	-5.1774546e-05	2.775647e-06	8.1974758e-05	7.1003336e-06	-0.00010003542	-0.013555101	0.00044539055	0.0037667989	0.62456581	-1.3164287	0.00094933811	1.3164621	-0.00073505693	-0.04849814	2.1502202	0.030495477	1.4263962e-06	0.038831996	0.12078782	6.6183213e-08	0.12079184	4.0165819e-08	0.00021510486	0.24280887	0.030268038	5.4807325	5.7034458	5.3445917	4.4947597	5.344574	4.4947078	4.2310612	5.5773628	2.5192816	2.6715659	3.6135721	3.5052408	3.6136043	3.5052925	3.7703799	3.5489896	-111.35842	R0:S0:1	-76.641895	uncorrelated	51514b8	2022-04-16@16:14
2x2_2C_8b_C2v_L	7.5381468	0	14	2.7576316	-0.68383607	-6.4114233	-6.9843982	-0.74731127	-6.9896287	-0.74707184	0.77997115	-6.4405891	12.607895	4.1023724e-06	-6.5734266e-06	2.4100259e-05	-0.046584068	-3.7280749e-05	0.046655052	-0.00019590151	-5.7219358e-05	-1.5431703e-05	-1.2236035	1.8234226	-5.1730364e-05	-1.8240742	6.4479575e-05	-0.081957607	-2.3332682	2.0206316	1	0.21963158	9.6457152e-07	1.2887455	1.666262	-0.46756709	-0.10656276	0.04632249	0.14325368	2	1.9609353	1.8750092	1.9997519	1.8750403	1.999751	0.0002500346	1.7252083	1.1407649	-7.5222716e-06	-6.9973961e-06	-8.0965503e-09	0.055764944	2.0320737e-05	-0.055857461	0.00047485992	4.134311e-05	1.9055241e-05	0.6268894	-1.3205754	0.00010589782	1.3204704	-0.00013360566	0.054227926	2.1542849	0.030636153	0	0.03915527	0.12165717	0.00024811836	0.12162683	0.00024899324	0.00025003896	0.24389088	0.030429879	5.4822905	5.7065585	5.3521708	4.4976248	5.3517373	4.4973301	4.2264232	5.5880908	2.5177095	2.6713236	3.6116503	3.5043219	3.6118272	3.5046238	3.7752559	3.5426822	-114.36947	R0:S0:1	-78.802105	uncorrelated	51514b8	2022-04-16@16:19
2x2_2C_8b_C2v_L	7.7252802	0	14	2.8033947	-0.68383607	-6.6639557	-7.3668676	-0.72943016	-7.3680922	-0.72863868	0.855658	-6.7644343	12.923684	6.8229054e-05	-1.4144542e-07	3.4478973e-05	-0.071815942	4.6960793e-05	0.071773698	5.4350736e-05	-7.5854358e-06	1.4657601e-06	-1.2179279	1.8328457	-7.7677335e-06	-1.8330044	-4.7043053e-06	-0.10911065	-2.3353983	2.0126947	1	0.22159474	-5.967153e-06	1.2886922	1.6663833	-0.46760935	-0.10673881	0.046364313	0.14309377	2	1.9607425	1.8753434	1.9994861	1.8753462	1.9994865	0.00039832253	1.7250426	1.1405249	-0.00011700973	-6.128171e-06	-5.8332845e-05	0.081224071	-6.348532e-05	-0.081186304	-0.00014355918	1.1531881e-05	-1.9694112e-06	0.62823205	-1.3190836	2.3936302e-05	1.3190939	1.6463343e-05	0.069198618	2.1546107	0.030603514	7.8763218e-10	0.039349934	0.12133522	0.00051382215	0.12133216	0.00051340374	0.00039832621	0.2440188	0.030420242	5.4827843	5.707966	5.3478963	4.4953161	5.3477713	4.4951881	4.2272058	5.5886841	2.5172157	2.6716089	3.6129703	3.5086919	3.6130489	3.5088169	3.7754222	3.5423101	-118.24878	R0:S0:1	-80.962316	uncorrelated	51514b8	2022-04-16@16:24
2x2_2C_8b_C2v_L	7.9115189	0	14	2.8491579	-0.67487193	-6.8714026	-7.5989164	-0.75060622	-7.5991328	-0.75016145	0.98340838	-7.0202312	13.239474	0.04492324	-6.8959065e-06	0.00016005861	-0.088145105	1.9983086e-05	0.088088413	-0.0010971103	-0.00025995483	-4.755057e-06	-1.2110858	1.8227376	0.00055468874	-1.8227524	0.00021418628	-0.13705828	-2.3263428	2.0047579	1	0.22355789	-1.630672e-06	1.2886232	1.6665122	-0.46775797	-0.106955	0.046423776	0.14391	1.9996955	1.9602529	1.8744668	1.9993182	1.8744717	1.999319	0.000568375	1.7235064	1.141267	-0.072981403	-5.0099772e-06	-0.0001009067	0.094576193	-2.4695831e-05	-0.094524913	0.0030588669	0.00013961127	-2.9569029e-08	0.63173851	-1.3229937	-0.0014432247	1.3229617	-0.00056711415	0.083473836	2.1591305	0.030748886	0.00030446773	0.039842626	0.12216529	0.00068173213	0.12216076	0.00068087857	0.00056838241	0.24519511	0.030596855	5.4836497	5.7123508	5.3552598	4.4980022	5.3552578	4.4980327	4.2241116	5.5992068	2.517622	2.6713638	3.6112372	3.5072685	3.6112183	3.5072314	3.7795543	3.5359766	-121.42926	R0:S0:1	-83.122526	uncorrelated	51514b8	2022-04-16@16:29
2x2_2C_8b_C2v_L	8.0968014	0	14	2.8949211	-0.6274484	-7.1907754	-7.9510102	-0.79079508	-7.9495174	-0.79100688	1.1035688	-7.4449972	13.555263	0.065065992	-6.7889715e-05	2.7811504e-05	-0.11742527	1.6441775e-05	0.11739443	8.1220106e-05	5.0159446e-05	-0.00022788794	-1.2117214	1.82831	6.9950414e-05	-1.8281144	5.4142311e-05	-0.18479813	-2.3482433	1.9968211	1	0.22552105	-5.5880077e-07	1.2885268	1.6665938	-0.46799226	-0.10724221	0.046512552	0.14355843	1.9994323	1.9602007	1.8744298	1.9989504	1.8744239	1.9989511	0.00092777325	1.7244529	1.1407247	-0.10028478	6.6662858e-05	-1.84864e-05	0.11879211	-1.3303501e-05	-0.11875798	-0.00024041348	-4.8750783e-05	0.00037990006	0.63181137	-1.3231049	-0.00020689876	1.3231114	-0.00016088978	0.1075163	2.1564732	0.030684276	0.00056752351	0.039895762	0.12219748	0.001049391	0.12220346	0.0010487096	0.00092773217	0.24446318	0.030578341	5.4830949	5.7129181	5.3540657	4.4965954	5.3542039	4.4967171	4.2330368	5.5888693	2.5192863	2.6710091	3.6121151	3.5114529	3.6120416	3.5113255	3.7728846	3.5419585	-125.6874	R0:S0:1	-85.282737	uncorrelated	51514b8	2022-04-16@16:36
2x2_2C_8b_C2v_L	8.2838985	0	14	2.9406842	-0.59816967	-7.2999019	-8.1043064	-0.75171893	-8.1031976	-0.75159308	0.91855468	-7.7431843	13.871053	0.081060268	-8.8454675e-05	-3.1347249e-05	-0.13719704	-1.681535e-05	0.13717578	-1.3677432e-05	-8.0173887e-06	-0.00023616466	-1.1980707	1.812393	-9.70539e-05	-1.8122421	-4.7465495e-05	-0.19934756	-2.3456541	1.9888842	1	0.22748421	-1.6059523e-06	1.2884658	1.6668555	-0.46800464	-0.10745847	0.046569873	0.14480769	1.9992011	1.9593441	1.8724112	1.9986802	1.8724089	1.9986806	0.0010692215	1.7238204	1.141877	-0.11948088	6.8451721e-05	8.9123777e-06	0.13417712	-5.1627663e-07	-0.13416145	4.5558058e-05	-1.668497e-06	0.00045163972	0.63805229	-1.3320459	0.00035225118	1.3320344	0.00017650737	0.11531944	2.1581711	0.030909077	0.000798561	0.040758973	0.12410879	0.0013194089	0.12411144	0.0013190322	0.0010691604	0.24494934	0.030837665	5.4849911	5.7199125	5.3715758	4.5033902	5.3716897	4.5035084	4.2322283	5.5931046	2.518371	2.6714981	3.6076525	3.5066191	3.6075813	3.5064976	3.7745747	3.539633	-128.16881	R0:S0:1	-87.442947	uncorrelated	51514b8	2022-04-16@16:43
2x2_2C_8b_C2v_L	8.4717642	0	14	2.9864474	-0.40716673	-7.5363891	-8.4171238	-0.51491968	-8.4164886	-0.51482553	0.60111226	-7.994533	14.186842	0.093899313	-0.00031277929	6.8144534e-06	-0.14865413	-8.6374231e-06	0.14862444	-1.1245655e-05	-2.4498185e-05	-0.00058985374	-1.1953305	1.8133896	2.7102481e-05	-1.81332	-1.7387415e-05	-0.20070478	-2.333327	1.9809474	1	0.22944737	1.5936989e-06	1.2884261	1.6670209	-0.46795296	-0.10759595	0.046593649	0.14518959	1.9989698	1.9587498	1.8721689	1.9984858	1.8721586	1.9984865	0.0010946872	1.7228904	1.1422201	-0.13582368	0.00023114613	2.1410216e-06	0.14396044	1.6626585e-05	-0.14392705	1.4339736e-06	-3.1250661e-06	0.0014464704	0.6428201	-1.3331034	-0.0001240887	1.3331645	5.7036789e-05	0.11670464	2.1599416	0.030975317	0.0010296196	0.041355009	0.12433312	0.00151364	0.12434257	0.0015129378	0.0010946198	0.2456791	0.030929383	5.4826098	5.7216102	5.3728594	4.5036604	5.3728825	4.5036171	4.2259964	5.6020865	2.5217351	2.6748167	3.6071125	3.5077946	3.6071401	3.5078327	3.7809462	3.5348886	-130.33153	R0:S0:1	-89.603158	uncorrelated	51514b8	2022-04-16@16:53
