model	E_kin	D	U	e	eb1_1	eb2_1	eb3_1	eb4_1	eb5_1	eb6_1	eb7_1	eb8_1	mu	sb1_1	sb2_1	sb3_1	sb4_1	sb5_1	sb6_1	sb7_1	sb8_1	tb1_1	tb2_1	tb3_1	tb4_1	tb5_1	tb6_1	tb7_1	tb8_1	tpd	tpp	tppp	ave_D	ave_e	ave_mu	ave_tpd	ave_tpp	ave_tppp	ave_U_1	ave_eb1_1	ave_eb2_1	ave_eb3_1	ave_eb4_1	ave_eb5_1	ave_eb6_1	ave_eb7_1	ave_eb8_1	ave_mu_1	ave_sb1_1	ave_sb2_1	ave_sb3_1	ave_sb4_1	ave_sb5_1	ave_sb6_1	ave_sb7_1	ave_sb8_1	ave_tb1_1	ave_tb2_1	ave_tb3_1	ave_tb4_1	ave_tb5_1	ave_tb6_1	ave_tb7_1	ave_tb8_1	var_U_1	var_eb1_1	var_eb2_1	var_eb3_1	var_eb4_1	var_eb5_1	var_eb6_1	var_eb7_1	var_eb8_1	var_mu_1	var_sb1_1	var_sb2_1	var_sb3_1	var_sb4_1	var_sb5_1	var_sb6_1	var_sb7_1	var_sb8_1	var_tb1_1	var_tb2_1	var_tb3_1	var_tb4_1	var_tb5_1	var_tb6_1	var_tb7_1	var_tb8_1	E0_1	sector_1	E0_2	sector_2	githash	time
2x2_2C_8b_C2v_L	4.2064206	0	14	2.3	0.0091560067	-3.1680207	-3.9362307	-0.13185004	-3.9362488	-0.13185712	0.1722452	-3.5984456	9.45	8.051885e-05	-1.1411606e-05	0.0074657568	-0.19118742	0.0074700682	-0.19118829	-1.2453127e-05	-4.6839186e-06	-0.1185329	-1.0895407	1.7350606	0.028041679	-1.735062	-0.028064232	0.26140273	-2.2996728	2.1	1	0.2	0.011011394	1.2519852	1.6075364	-0.61487148	-0.20305195	0.084281592	0.12950266	0.29334307	1.9359729	1.7870728	1.539634	1.7870706	1.5396335	0.02260344	1.5302303	1.0951476	-0.00072736493	3.5566028e-05	0.11819872	1.2617997	0.11818151	1.2617652	5.7382926e-05	-5.660282e-08	1.2461621	0.74767056	-1.6224924	-0.53093286	1.6225039	0.53104431	-0.32034994	2.6029086	0.028145475	0.26295956	0.062107678	0.19272379	0.38411006	0.19272546	0.38410236	0.022970947	0.35624193	0.037720941	4.2548564	5.3732251	5.1619432	4.9573885	5.1619443	4.9574489	4.3909227	6.2455543	5.238167	2.7347546	3.363304	5.2909778	3.3633088	5.2909569	3.6811455	3.110837	-73.424878	R0:S0:1	-57.2	uncorrelated	51514b8	2022-04-17@17:01
2x2_2C_8b_C2v_L	4.3452571	0	14	2.3299828	0.0069893226	-3.1673844	-3.9353505	-0.12951568	-3.9353455	-0.12952124	0.17013194	-3.5931217	9.4724138	8.5150065e-05	1.4803664e-06	0.008163365	-0.18921957	0.0081693801	-0.18922403	-8.474537e-06	1.0201451e-05	-0.11818898	-1.088057	1.7324121	0.031203512	-1.7324099	-0.031230754	0.25912212	-2.2950733	2.0948	1	0.20128621	0.011653504	1.252354	1.6083911	-0.61299028	-0.20234768	0.083937834	0.12977029	0.30027336	1.935715	1.7886835	1.5298975	1.7886821	1.5299034	0.022643002	1.5310781	1.0958763	-0.00080105404	1.2996251e-05	0.11831492	1.2644776	0.1183026	1.2644618	2.7576986e-05	-1.8820449e-05	1.2490347	0.75069683	-1.6159661	-0.54808491	1.6159689	0.54820255	-0.31972008	2.5995311	0.028194448	0.26732294	0.06232336	0.19135311	0.38721534	0.19135417	0.38720011	0.022984705	0.35595058	0.037646772	4.2907828	5.3641295	5.1525744	4.979473	5.1525783	4.9795274	4.3850569	6.2441316	5.2450727	2.7373645	3.3533933	5.3053046	3.3533857	5.3052732	3.6849488	3.1139716	-73.479516	R0:S0:1	-57.139448	uncorrelated	51514b8	2022-04-17@17:09
2x2_2C_8b_C2v_L	4.4935656	0	14	2.3599655	0.0064151345	-3.1681627	-3.934489	-0.12778584	-3.93447	-0.12778555	0.1684946	-3.5886854	9.4948276	6.8800767e-05	2.5058469e-06	0.0086212011	-0.18747034	0.0086247493	-0.1874735	-9.5755751e-07	8.2065506e-06	-0.11765996	-1.0866139	1.7295501	0.033547325	-1.7295441	-0.033556354	0.25712939	-2.2906489	2.0896	1	0.20257241	0.012188336	1.2529849	1.6095927	-0.61020118	-0.20094559	0.083308927	0.13010835	0.29217757	1.9364061	1.7905235	1.5362176	1.7905266	1.5361963	0.02200282	1.534477	1.0969671	-0.00065051822	9.4465392e-06	0.11721757	1.2519267	0.11720769	1.2520061	-1.0429541e-05	-1.71433e-05	1.2389513	0.74731633	-1.6094041	-0.55490674	1.6093774	0.5549269	-0.31701003	2.5905738	0.028257732	0.2606816	0.061689731	0.18992672	0.38307969	0.1899238	0.38308068	0.022309848	0.35456228	0.037499844	4.254368	5.36951	5.1525728	4.9847827	5.1525647	4.9847957	4.379853	6.2315061	5.2463277	2.7359755	3.3564309	5.280854	3.3563796	5.2809342	3.6887	3.1240678	-73.53928	R0:S0:1	-57.078897	uncorrelated	51514b8	2022-04-17@17:17
2x2_2C_8b_C2v_L	4.6405721	0	14	2.3899483	0.0062294574	-3.1701761	-3.9344948	-0.12552359	-3.9344691	-0.12552225	0.16662244	-3.5852708	9.5172414	3.8408512e-05	1.9014231e-06	0.0089580968	-0.18578519	0.0089584549	-0.18578587	1.4160155e-06	-2.7711058e-07	-0.11717544	-1.085339	1.7266075	0.035557827	-1.7266031	-0.035556092	0.25547998	-2.2862845	2.0844	1	0.20385862	0.012624546	1.2535841	1.6106949	-0.60757092	-0.19958425	0.082710878	0.13041805	0.28587527	1.9369979	1.7924571	1.5388741	1.7924585	1.5388565	0.021552065	1.5378007	1.0980023	-0.00036166786	1.2489856e-06	0.11592901	1.2424621	0.11592586	1.2425175	-1.3129511e-05	-2.8678299e-06	1.2294435	0.74478063	-1.6024196	-0.56094113	1.6024046	0.56092457	-0.31519831	2.5817193	0.028315545	0.25509236	0.061143875	0.18839728	0.38104874	0.18839591	0.38105513	0.021829533	0.35318495	0.037354624	4.2272682	5.3726964	5.1506782	4.9920643	5.1506749	4.9920609	4.3745686	6.2192732	5.2499575	2.7353757	3.3574386	5.2645624	3.357406	5.2646236	3.6926298	3.1337561	-73.604621	R0:S0:1	-57.018345	uncorrelated	51514b8	2022-04-17@17:25
2x2_2C_8b_C2v_L	4.7848559	0	14	2.419931	0.0057746251	-3.1801294	-3.9349553	-0.12250274	-3.9349442	-0.12250037	0.16388308	-3.5807558	9.5396552	-1.9545883e-06	1.645286e-05	0.0093614698	-0.18338015	0.0093629969	-0.18337928	3.2665616e-06	9.0221081e-06	-0.1166111	-1.0853687	1.7239916	0.038215195	-1.7239886	-0.03821665	0.25288569	-2.2820436	2.0792	1	0.20514483	0.013094641	1.2541013	1.6117463	-0.60517426	-0.1984716	0.082202176	0.13072014	0.28202751	1.9374699	1.7941188	1.5363931	1.794118	1.5364059	0.021114409	1.5400677	1.0989197	1.8960475e-05	-3.4138637e-05	0.1150183	1.2364715	0.11502475	1.2364493	-2.1342936e-05	-7.667024e-06	1.2228159	0.74340739	-1.596262	-0.57249576	1.5962657	0.57250283	-0.31270592	2.5752604	0.028371643	0.2509314	0.060699678	0.18703763	0.38125638	0.18703839	0.38124955	0.021361355	0.35225707	0.037239352	4.2149955	5.3726947	5.1461511	5.0067232	5.1461564	5.0067255	4.3687385	6.2115044	5.2551006	2.7351636	3.3543573	5.2603557	3.3543672	5.2603134	3.6963228	3.1402795	-73.684183	R0:S0:1	-56.957793	uncorrelated	51514b8	2022-04-17@17:36
2x2_2C_8b_C2v_L	4.9353681	0	14	2.4499138	0.004871519	-3.1823765	-3.9346849	-0.12145605	-3.9346787	-0.12145429	0.16269182	-3.5749746	9.562069	-1.6933293e-05	-7.0765911e-06	0.0096236572	-0.18213898	0.009622805	-0.18213856	4.1118427e-06	6.6529677e-06	-0.11618131	-1.084034	1.7210961	0.039685991	-1.7210955	-0.039679544	0.25135236	-2.2768271	2.074	1	0.20643103	0.0133264	1.2547962	1.6129609	-0.60221933	-0.1968423	0.081505766	0.13104098	0.27421499	1.9381922	1.7961926	1.5468844	1.7961933	1.5468794	0.020563419	1.5441832	1.1000539	0.00015926103	2.0034646e-05	0.1133986	1.2206934	0.11340049	1.220722	-2.8977156e-05	-1.5513272e-05	1.2106318	0.73985452	-1.5889657	-0.57217293	1.5889586	0.57214397	-0.31052439	2.5644388	0.028431752	0.24527688	0.060043425	0.18544731	0.37511401	0.18544666	0.37511722	0.020789068	0.35049294	0.037070132	4.1735944	5.3792649	5.1484899	5.0061653	5.1484896	5.0061488	4.363427	6.1960751	5.2550327	2.7346933	3.3603297	5.2279983	3.3603157	5.2280261	3.7008541	3.1521708	-73.74824	R0:S0:1	-56.897241	uncorrelated	51514b8	2022-04-17@17:44
2x2_2C_8b_C2v_L	5.0802856	0	14	2.4798966	0.0041466146	-3.1914154	-3.9347001	-0.11837956	-3.9346976	-0.11838024	0.15971077	-3.5709914	9.5844828	6.7349813e-06	7.7748639e-07	0.0099412653	-0.17959888	0.0099418798	-0.17959864	-2.7627442e-06	1.4296045e-06	-0.11557964	-1.0839419	1.7184581	0.042080923	-1.7184572	-0.042084425	0.24857253	-2.2728108	2.0688	1	0.20771724	0.013666706	1.2553289	1.614036	-0.59976582	-0.19568388	0.080986089	0.1313461	0.2705314	1.9386473	1.7978209	1.5453953	1.7978202	1.5453995	0.020146041	1.5465607	1.1009736	-6.437235e-05	-1.3143189e-06	0.11225568	1.21341	0.11225525	1.2133916	1.4718243e-05	-4.1053689e-07	1.2033087	0.73847331	-1.5829289	-0.58173288	1.5829337	0.58175073	-0.30786766	2.557834	0.028488285	0.24152185	0.059616489	0.1841154	0.37484317	0.18411608	0.37484057	0.020347006	0.34948625	0.036953978	4.1597746	5.37971	5.1448217	5.0201191	5.1448237	5.0201279	4.357701	6.1878348	5.2598146	2.7345226	3.3578017	5.222465	3.3578098	5.2224449	3.7045517	3.1585571	-73.82529	R0:S0:1	-56.83669	uncorrelated	51514b8	2022-04-17@17:56
2x2_2C_8b_C2v_L	5.2312652	0	14	2.5098793	0.0033738503	-3.1937263	-3.9344972	-0.11736919	-3.9344932	-0.11736833	0.1585214	-3.5666165	9.6068966	9.1526747e-06	7.8669759e-08	0.010144514	-0.17843416	0.010145	-0.17843407	1.3956078e-06	5.0998126e-06	-0.11514946	-1.0826142	1.7155019	0.043330418	-1.715501	-0.04333152	0.24714937	-2.2679177	2.0636	1	0.20900345	0.013804744	1.256039	1.6152368	-0.59679706	-0.19397787	0.080271178	0.131666	0.26235092	1.9393875	1.7999301	1.5565556	1.79993	1.5565566	0.019616274	1.5509491	1.1021113	-8.8836222e-05	3.8625469e-06	0.1104667	1.1968186	0.11046693	1.1968208	-1.279833e-05	-9.2871301e-06	1.19002	0.73475091	-1.5755445	-0.57952446	1.5755434	0.5795291	-0.3057287	2.5465725	0.028548136	0.2355522	0.05894428	0.18249591	0.36840867	0.18249599	0.36840727	0.019800187	0.3475501	0.036781082	4.1155655	5.3869252	5.1478477	5.0176981	5.1478491	5.0176998	4.3526526	6.1713707	5.2599395	2.7339522	3.3644796	5.1882342	3.3644763	5.1882317	3.7089652	3.1706331	-73.892957	R0:S0:1	-56.776138	uncorrelated	51514b8	2022-04-17@18:03
2x2_2C_8b_C2v_L	5.3755645	0	14	2.5398621	0.0022679855	-3.2057835	-3.9342516	-0.11401965	-3.9342508	-0.11401747	0.15518809	-3.5608392	9.6293103	-7.3058875e-07	7.18372e-07	0.010382803	-0.17564458	0.010383167	-0.17564344	-2.4523914e-06	-9.0462065e-06	-0.11453398	-1.0829165	1.7128499	0.045575763	-1.7128497	-0.04557617	0.24400987	-2.2634111	2.0584	1	0.21028966	0.014046505	1.2565528	1.6162831	-0.59440721	-0.19286378	0.079773365	0.13195455	0.2602563	1.9397662	1.8014987	1.5538092	1.801498	1.5538045	0.019251449	1.5530359	1.102984	7.7591374e-06	-7.1172271e-06	0.10922292	1.1900619	0.10921931	1.1900486	2.2449796e-05	1.6782195e-05	1.183601	0.73401752	-1.5696516	-0.5886836	1.5696578	0.58868737	-0.30295267	2.5404488	0.028601454	0.23315811	0.058585664	0.18119471	0.36873662	0.18119529	0.36874166	0.019414975	0.34664806	0.036670099	4.1086765	5.3858444	5.1436504	5.033699	5.1436489	5.0337051	4.3464928	6.1643969	5.2650499	2.7344806	3.3608282	5.1867914	3.360837	5.1867915	3.7129632	3.1761072	-73.969924	R0:S0:1	-56.715586	uncorrelated	51514b8	2022-04-17@18:15
2x2_2C_8b_C2v_L	5.5271623	0	14	2.5698448	0.0013981769	-3.2076647	-3.9340265	-0.11307563	-3.9340256	-0.1130763	0.1539569	-3.5564111	9.6517241	1.6562929e-06	1.6727185e-07	0.010517574	-0.1744684	0.010517428	-0.17446847	-1.8658924e-06	-2.255102e-06	-0.11409874	-1.0814676	1.7098821	0.046573217	-1.7098823	-0.046574457	0.24254294	-2.2584985	2.0532	1	0.21157586	0.014098145	1.2572807	1.6174864	-0.59140233	-0.19108507	0.079042171	0.13227291	0.25206648	1.9405056	1.8036256	1.5659627	1.8036252	1.5659634	0.018731178	1.5575651	1.1041227	-1.6316205e-05	-2.1696385e-06	0.10734466	1.1723698	0.10734423	1.172361	1.2586171e-05	4.7251362e-06	1.1695916	0.73022281	-1.5622334	-0.58442883	1.5622366	0.58443488	-0.30069432	2.5289649	0.028660935	0.22723781	0.057914416	0.17956102	0.36175823	0.17956139	0.36175812	0.018881611	0.34459606	0.036494196	4.0630824	5.3934636	5.1474593	5.0294042	5.1474596	5.029407	4.3415577	6.1475072	5.2651364	2.7339057	3.3682093	5.1502995	3.3682142	5.1502933	3.7173498	3.1881615	-74.036723	R0:S0:1	-56.655034	uncorrelated	51514b8	2022-04-17@18:23
2x2_2C_8b_C2v_L	5.6730318	0	14	2.5998276	0.0002037212	-3.2141324	-3.9320926	-0.11059525	-3.9320934	-0.1105944	0.15121126	-3.550128	9.6741379	1.1052755e-07	9.778416e-07	0.010737205	-0.17223876	0.010735586	-0.17223816	2.7432982e-06	8.5770326e-06	-0.1135887	-1.0808425	1.7066743	0.0484675	-1.7066768	-0.048468653	0.2399506	-2.2534198	2.048	1	0.21286207	0.014233274	1.2578443	1.6185369	-0.58890864	-0.18978992	0.07848738	0.13255835	0.24891941	1.9409142	1.8053068	1.5675277	1.8053049	1.5675366	0.01836342	1.5603034	1.1050409	-1.1579327e-06	2.6041015e-06	0.1058896	1.1623508	0.10589458	1.1623279	-2.1927325e-05	-1.4605496e-05	1.1615974	0.72897353	-1.5560162	-0.58951616	1.5560262	0.58952626	-0.29821495	2.5213737	0.028713834	0.2244771	0.05753427	0.17819851	0.35992468	0.1782002	0.35992015	0.018499013	0.34336142	0.036367276	4.0477674	5.394365	5.1457881	5.039558	5.1457931	5.0395573	4.3357683	6.1378976	5.2683369	2.7344601	3.3676775	5.1390938	3.3676883	5.1390646	3.7215684	3.1951815	-74.096431	R0:S0:1	-56.594483	uncorrelated	51514b8	2022-04-17@18:31
2x2_2C_8b_C2v_L	5.8222503	0	14	2.6298103	-0.00090466353	-3.2172452	-3.9320194	-0.10861028	-3.9320216	-0.10861256	0.14873569	-3.5454181	9.6965517	-2.3969832e-06	-1.155524e-06	0.010845848	-0.17022624	0.010845739	-0.17022727	3.2158976e-06	9.7998579e-06	-0.11301876	-1.079669	1.7039432	0.049814877	-1.7039437	-0.049816257	0.23746899	-2.2488138	2.0428	1	0.21414828	0.014283532	1.258501	1.6196892	-0.58611497	-0.18822158	0.077836069	0.13287034	0.24290184	1.9415027	1.8071811	1.5745789	1.8071815	1.5745857	0.017883658	1.5639401	1.1060745	2.521147e-05	9.0318152e-06	0.10418071	1.1476544	0.10418381	1.1476597	-2.7511845e-05	-1.8545952e-05	1.1497906	0.72625328	-1.5493671	-0.58929563	1.5493628	0.5893003	-0.29529157	2.5120279	0.028771753	0.21979242	0.056994328	0.17671985	0.35537688	0.17671953	0.35537029	0.018006704	0.34168016	0.036217266	4.0152276	5.3991361	5.14717	5.0422938	5.1471725	5.042292	4.3305061	6.1247189	5.27037	2.7340202	3.3712231	5.1147239	3.371217	5.1147139	3.7256209	3.2043054	-74.162652	R0:S0:1	-56.533931	uncorrelated	51514b8	2022-04-17@18:39
2x2_2C_8b_C2v_L	5.9700392	0	14	2.6597931	-0.0021840269	-3.221076	-3.931742	-0.1064328	-3.9317431	-0.1064322	0.14612763	-3.540229	9.7189655	-2.5659205e-06	1.4902292e-07	0.010967671	-0.1680641	0.010967672	-0.1680635	2.9617435e-07	-2.5597899e-06	-0.11246573	-1.0786294	1.7011373	0.051423149	-1.701139	-0.051421739	0.2348795	-2.2440723	2.0376	1	0.21543448	0.014340815	1.2591173	1.6207945	-0.58345782	-0.18676205	0.077226601	0.13317036	0.2383418	1.9419894	1.8089622	1.57937	1.8089613	1.5793695	0.017459595	1.5671793	1.107045	2.725347e-05	-1.8955349e-06	0.10263278	1.1345939	0.10263271	1.1345859	4.8659636e-07	3.9693651e-06	1.1396538	0.72426285	-1.5429633	-0.59128369	1.5429691	0.59128115	-0.29247699	2.5035323	0.028827322	0.21613387	0.056545374	0.17529519	0.35186874	0.17529596	0.35187071	0.017571014	0.34017059	0.036079737	3.9907221	5.4021912	5.1473712	5.0482343	5.1473714	5.0482326	4.3250775	6.1131545	5.2728586	2.7340072	3.3730144	5.0958959	3.3730203	5.0958941	3.7296974	3.2121958	-74.227874	R0:S0:1	-56.473379	uncorrelated	51514b8	2022-04-17@18:47
2x2_2C_8b_C2v_L	6.116328	0	14	2.6897759	-0.0039400789	-3.2452061	-3.9308028	-0.10316764	-3.930813	-0.10316499	0.14205434	-3.5336918	9.7413793	4.5342333e-05	-8.5969478e-07	0.010990372	-0.16504599	0.010992019	-0.1650451	2.4692904e-06	5.6598511e-06	-0.11193581	-1.0805881	1.698454	0.053031053	-1.6984547	-0.053032013	0.23108522	-2.2393237	2.0324	1	0.21672069	0.014373334	1.2596818	1.6218849	-0.5809018	-0.18547896	0.076679217	0.13344682	0.23655621	1.9424216	1.8105834	1.5794292	1.8105831	1.5794365	0.017052728	1.5696437	1.1079284	-0.00050798904	1.9475724e-06	0.10111653	1.1242399	0.10111657	1.1242204	-1.1764818e-05	-6.1803884e-06	1.1325997	0.72350087	-1.536897	-0.59575937	1.5369012	0.59576377	-0.28888594	2.4964824	0.028878332	0.21448804	0.056138939	0.17395674	0.35077068	0.17395705	0.35076719	0.01715175	0.33902113	0.035957743	3.9825358	5.4014262	5.1450734	5.061727	5.1450736	5.0617236	4.3184971	6.1048935	5.2766061	2.7352898	3.3709406	5.0894079	3.3709524	5.0893857	3.7341144	3.2181038	-74.325229	R0:S0:1	-56.412828	uncorrelated	51514b8	2022-04-17@18:59
2x2_2C_8b_C2v_L	6.2683108	0	14	2.7197586	-0.0048461119	-3.2463307	-3.9306783	-0.1020325	-3.9306878	-0.1020307	0.14068822	-3.5296244	9.7637931	4.1943045e-05	-1.1923872e-06	0.010997735	-0.16375935	0.010997033	-0.16375822	2.5193658e-06	2.5026822e-06	-0.11144376	-1.079006	1.6954453	0.053568167	-1.6954471	-0.053563787	0.22962405	-2.2344546	2.0272	1	0.2180069	0.014281103	1.260422	1.6230515	-0.57791978	-0.18360146	0.075932733	0.13375234	0.22886396	1.9431015	1.8126943	1.5916024	1.8126938	1.5916096	0.016601464	1.5742793	1.1090266	-0.00048058196	-8.7168774e-07	0.099030099	1.1056815	0.099033927	1.1056665	-8.2589277e-06	-9.5364503e-07	1.1175296	0.71997449	-1.5295691	-0.58831705	1.5295751	0.58830086	-0.28662909	2.4849915	0.028935188	0.20880909	0.055520672	0.17231808	0.34368076	0.1723186	0.34367857	0.016693877	0.33678456	0.035782923	3.9381768	5.4089139	5.1495737	5.0550643	5.1495737	5.055049	4.3138188	6.0879285	5.277574	2.7348291	3.3785412	5.052276	3.3785549	5.0522611	3.7383561	3.2293689	-74.390879	R0:S0:1	-56.352276	uncorrelated	51514b8	2022-04-17@19:07
2x2_2C_8b_C2v_L	6.4144297	0	14	2.7497414	-0.0066964987	-3.248856	-3.9300061	-0.0997452	-3.9300184	-0.099744925	0.13716856	-3.5221021	9.7862069	2.2842278e-05	-9.5413074e-07	0.01113936	-0.16133369	0.011138533	-0.16133329	8.4064509e-07	2.1646672e-07	-0.11098834	-1.0776649	1.6925737	0.055400294	-1.6925766	-0.055397263	0.22638329	-2.2290164	2.022	1	0.2192931	0.014301559	1.2609906	1.6240999	-0.57543017	-0.18226439	0.075375758	0.13403417	0.22654561	1.9434357	1.8143248	1.5943689	1.8143243	1.594375	0.016209567	1.5769309	1.1099061	-0.00027856476	-2.2233696e-06	0.097597963	1.0936578	0.097600935	1.0936436	1.7509121e-06	2.7319504e-06	1.1101438	0.71894483	-1.5236201	-0.59217219	1.5236264	0.59216052	-0.28336018	2.4777474	0.028987198	0.20694608	0.055208717	0.17098935	0.34101466	0.17098985	0.34101267	0.016293614	0.33551273	0.035662397	3.9249698	5.4097082	5.1488559	5.0644294	5.1488549	5.0644163	4.3080524	6.0788365	5.2799415	2.7353998	3.3785037	5.0391938	3.378517	5.0391823	3.7424997	3.2354012	-74.44631	R0:S0:1	-56.291724	uncorrelated	51514b8	2022-04-17@19:16
2x2_2C_8b_C2v_L	6.5614651	0	14	2.7797241	-0.0087570738	-3.2603857	-3.9283026	-0.09637206	-3.928306	-0.096372486	0.13260154	-3.515906	9.8086207	-5.9814465e-06	-1.0311606e-06	0.011061466	-0.15804024	0.011061568	-0.15804004	-2.1423472e-06	-5.8680985e-06	-0.11035629	-1.0777731	1.6897736	0.056790797	-1.6897741	-0.056791432	0.22218936	-2.2243619	2.0168	1	0.22057931	0.014256345	1.2615774	1.6251998	-0.57282947	-0.18090032	0.074806488	0.134319	0.2244926	1.9438013	1.815938	1.5958154	1.8159379	1.5958113	0.015790471	1.5795786	1.1108027	7.6709497e-05	-1.197995e-07	0.096006224	1.0810871	0.096003755	1.081086	1.4431147e-05	8.3488997e-06	1.1022452	0.71806378	-1.5176255	-0.59485894	1.5176269	0.59486307	-0.27927937	2.4705617	0.029039559	0.20520536	0.054865083	0.16965929	0.33917792	0.16965935	0.33918107	0.015865644	0.3342242	0.035537494	3.9137562	5.4097931	5.1476129	5.076495	5.1476109	5.0764999	4.3018789	6.0698592	5.2835112	2.7361463	3.3773395	5.0296138	3.3773405	5.0296217	3.7466256	3.2411655	-74.514736	R0:S0:1	-56.231172	uncorrelated	51514b8	2022-04-17@19:28
2x2_2C_8b_C2v_L	6.7138316	0	14	2.8097069	-0.0097215814	-3.2628104	-3.9280182	-0.095522616	-3.9280215	-0.095524182	0.13110833	-3.512147	9.8310345	-3.7323793e-06	6.8444532e-07	0.011045268	-0.15689583	0.011045805	-0.15689622	1.7959463e-06	5.7706496e-06	-0.10994281	-1.076262	1.6867169	0.057225879	-1.6867173	-0.057227873	0.22063921	-2.219483	2.0116	1	0.22186552	0.014121544	1.2623282	1.6263621	-0.56984493	-0.1789571	0.074049062	0.13462265	0.21673874	1.9444899	1.8179987	1.6089857	1.817999	1.6089889	0.015319527	1.5842665	1.1118754	5.3912736e-05	3.548762e-06	0.093988349	1.0615839	0.093989174	1.0615854	-1.7230539e-05	-1.0987166e-05	1.0869238	0.7144095	-1.5105313	-0.58592067	1.5105283	0.58592892	-0.27668115	2.4591838	0.029096021	0.19944316	0.054238053	0.16805989	0.3313697	0.16805966	0.33136595	0.015391003	0.33188191	0.03536678	3.868414	5.4177629	5.1531073	5.0669065	5.1531089	5.0669105	4.297507	6.0529326	5.2841192	2.7355201	3.3857071	4.9894491	3.3857026	4.9894417	3.7505831	3.2519838	-74.584441	R0:S0:1	-56.170621	uncorrelated	51514b8	2022-04-17@19:36
2x2_2C_8b_C2v_L	6.8583626	0	14	2.8396897	-0.012326056	-3.2755072	-3.9263206	-0.09178246	-3.9263335	-0.091791323	0.12529658	-3.5038157	9.8534483	-6.3890734e-05	4.1290448e-06	0.010964357	-0.15336837	0.010958843	-0.15337433	1.4192782e-05	6.0291884e-06	-0.10946593	-1.0764116	1.6838859	0.058821726	-1.6838915	-0.058813842	0.21582448	-2.214145	2.0064	1	0.22315172	0.014076761	1.2628437	1.6273781	-0.56747769	-0.17779035	0.073556229	0.13487835	0.21776131	1.9446743	1.8194645	1.6065586	1.8194713	1.6065254	0.014973025	1.5861854	1.112659	0.0010164268	2.6288674e-05	0.092525392	1.0516881	0.09252833	1.0518674	-0.00014492858	-4.8594754e-05	1.0829637	0.71485883	-1.5049408	-0.5915441	1.5048782	0.59151112	-0.2724292	2.4534002	0.029142812	0.2001858	0.054056997	0.16681453	0.33159482	0.16680811	0.33160525	0.015037004	0.33093831	0.03526167	3.8735017	5.4143704	5.1497809	5.0851002	5.1497859	5.0851347	4.2907151	6.0468334	5.2880607	2.7372879	3.3815385	4.9903548	3.3814164	4.9904749	3.7549892	3.2557197	-74.649193	R0:S0:1	-56.110069	uncorrelated	51514b8	2022-04-17@19:49
2x2_2C_8b_C2v_L	7.0096453	0	14	2.8696724	-0.0136949	-3.2870493	-3.923198	-0.090786507	-3.9231439	-0.090789897	0.12366105	-3.4978635	9.8758621	-3.9131219e-05	2.2438848e-06	0.010943424	-0.1519314	0.010945901	-0.15193156	2.682395e-06	6.4891388e-06	-0.1091412	-1.0762142	1.6802656	0.059351675	-1.6802553	-0.059363375	0.21398207	-2.208657	2.0012	1	0.22443793	0.013922334	1.2635613	1.6285072	-0.56459453	-0.17593956	0.072837134	0.13515995	0.21186676	1.9452729	1.8213767	1.6180678	1.8213777	1.6180478	0.014539419	1.5904025	1.113657	0.00067930601	2.3096033e-05	0.090662203	1.0330599	0.090654288	1.0331113	-6.3418573e-05	-3.4491781e-05	1.069979	0.71212539	-1.4982001	-0.58381347	1.4981748	0.58387087	-0.26969359	2.4428793	0.029195181	0.19592011	0.053510089	0.16531494	0.32444093	0.16531373	0.32444731	0.014600875	0.32879166	0.035102847	3.838331	5.4201431	5.1545608	5.0780852	5.154573	5.0781525	4.2858433	6.0320009	5.2885192	2.7376598	3.3882445	4.9546117	3.3881836	4.9546364	3.7592321	3.2652575	-74.71991	R0:S0:1	-56.049517	uncorrelated	51514b8	2022-04-17@19:58
2x2_2C_8b_C2v_L	7.1566446	0	14	2.8996552	-0.016164511	-3.2902458	-3.9233581	-0.088298823	-3.9233018	-0.088296237	0.11941581	-3.4913653	9.8982759	-2.2222029e-05	6.7634243e-07	0.010903015	-0.14919403	0.010904152	-0.14919528	1.4895494e-06	8.1138598e-08	-0.10879976	-1.0748725	1.6775445	0.060809527	-1.677534	-0.060813082	0.21027344	-2.2034677	1.996	1	0.22572414	0.01383805	1.2641497	1.629569	-0.56204518	-0.17452008	0.072266009	0.13542576	0.21085871	1.9455363	1.823035	1.6210971	1.8230375	1.6210665	0.014172904	1.593142	1.1144982	0.0004683793	1.9288376e-05	0.089174499	1.0193471	0.089165947	1.019432	-4.5519729e-05	-2.0739643e-05	1.0635504	0.71153867	-1.4921479	-0.58530673	1.4921152	0.58532422	-0.26596265	2.4356096	0.029243935	0.19533679	0.053262635	0.16394974	0.32162759	0.16394717	0.32164361	0.014230625	0.32739429	0.034982917	3.8302342	5.420102	5.1542805	5.0870704	5.1542893	5.0871228	4.2801323	6.0227271	5.2908513	2.7386665	3.3881852	4.9413194	3.3881152	4.9413798	3.7633088	3.27067	-74.781744	R0:S0:1	-55.988966	uncorrelated	51514b8	2022-04-17@20:07
2x2_2C_8b_C2v_L	7.3045633	0	14	2.9296379	-0.019133882	-3.3052885	-3.9227657	-0.084942271	-3.9227107	-0.084937501	0.11327041	-3.4842704	9.9206897	-7.3006438e-06	9.4685563e-08	0.010712797	-0.14563871	0.01071289	-0.14563957	2.1922131e-06	5.8334539e-06	-0.10836756	-1.0752729	1.6749951	0.061923411	-1.6749848	-0.061921493	0.20515566	-2.1984193	1.9908	1	0.22701034	0.01369081	1.2647553	1.6306829	-0.55938075	-0.17307857	0.071684674	0.13568722	0.21074602	1.9458197	1.8246933	1.6230959	1.8246956	1.6230743	0.013745414	1.5957909	1.115348	0.00023126159	1.6331717e-05	0.087512578	1.0048069	0.08750938	1.0048816	-4.0917408e-05	-2.2337133e-05	1.057657	0.71126103	-1.4859951	-0.58604065	1.4859667	0.58603407	-0.26094729	2.4284043	0.029291779	0.19553531	0.052993329	0.16256964	0.3193913	0.16256738	0.31940307	0.013799531	0.32602911	0.03485854	3.8269646	5.4187807	5.1534728	5.0989867	5.1534821	5.0990164	4.2736144	6.0140047	5.2937411	2.74021	3.3869443	4.9311955	3.3868874	4.9312409	3.7676373	3.2758311	-74.860066	R0:S0:1	-55.928414	uncorrelated	51514b8	2022-04-17@20:21
2x2_2C_8b_C2v_L	7.4540917	0	14	2.9596207	-0.02218989	-3.3215473	-3.9220871	-0.083010533	-3.9220742	-0.083010506	0.10915909	-3.477413	9.9431034	-4.4761258e-06	2.4556129e-06	0.010634063	-0.14290146	0.010634845	-0.14290354	-4.6526399e-06	4.8060937e-06	-0.10819843	-1.0756912	1.6722123	0.063048174	-1.6722098	-0.06305143	0.20122701	-2.1931441	1.9856	1	0.22829655	0.013529772	1.2654078	1.6318285	-0.55659711	-0.17147224	0.071055429	0.13595058	0.20981883	1.9461628	1.8264524	1.6298394	1.8264546	1.6298199	0.013316642	1.5989172	1.116223	0.00021426932	9.1971103e-06	0.085994027	0.9875688	0.085989383	0.987624	4.0610058e-07	-1.6182292e-05	1.0511972	0.71043889	-1.4795952	-0.58372606	1.4795731	0.58373971	-0.25660586	2.4202597	0.029340168	0.19548635	0.052673888	0.16114065	0.31432205	0.16113847	0.31433235	0.013370497	0.32439946	0.034727013	3.8170182	5.4194745	5.1552847	5.102625	5.155288	5.1026585	4.2677837	6.0036281	5.2946069	2.7417574	3.3889643	4.908768	3.388921	4.908808	3.7719121	3.28222	-74.946761	R0:S0:1	-55.867862	uncorrelated	51514b8	2022-04-17@20:34
