model	E_kin	D	U	e	eb1_1	eb2_1	eb3_1	eb4_1	eb5_1	eb6_1	eb7_1	eb8_1	mu	sb1_1	sb2_1	sb3_1	sb4_1	sb5_1	sb6_1	sb7_1	sb8_1	tb1_1	tb2_1	tb3_1	tb4_1	tb5_1	tb6_1	tb7_1	tb8_1	tpd	tpp	tppp	ave_D	ave_e	ave_mu	ave_tpd	ave_tpp	ave_tppp	ave_U_1	ave_eb1_1	ave_eb2_1	ave_eb3_1	ave_eb4_1	ave_eb5_1	ave_eb6_1	ave_eb7_1	ave_eb8_1	ave_mu_1	ave_sb1_1	ave_sb2_1	ave_sb3_1	ave_sb4_1	ave_sb5_1	ave_sb6_1	ave_sb7_1	ave_sb8_1	ave_tb1_1	ave_tb2_1	ave_tb3_1	ave_tb4_1	ave_tb5_1	ave_tb6_1	ave_tb7_1	ave_tb8_1	var_U_1	var_eb1_1	var_eb2_1	var_eb3_1	var_eb4_1	var_eb5_1	var_eb6_1	var_eb7_1	var_eb8_1	var_mu_1	var_sb1_1	var_sb2_1	var_sb3_1	var_sb4_1	var_sb5_1	var_sb6_1	var_sb7_1	var_sb8_1	var_tb1_1	var_tb2_1	var_tb3_1	var_tb4_1	var_tb5_1	var_tb6_1	var_tb7_1	var_tb8_1	E0_1	sector_1	E0_2	sector_2	githash	iterations	dist_function	distance	diff_hybrid	time
2x2_2C_8b_C2v_L	4.2058699	0	14	2.3	0.0092112218	-3.1664049	-3.9353856	-0.13175777	-3.9353648	-0.13175273	0.17218357	-3.5979218	9.45	-4.3821834e-05	-2.6831168e-06	0.0074611542	-0.19116024	0.0074561207	-0.19115805	9.973519e-06	4.4320876e-06	-0.11853064	-1.0893236	1.7348475	0.028050176	-1.7348456	-0.028033806	0.26138396	-2.299476	2.1	1	0.2	0.01100835	1.2519717	1.6075079	-0.61493084	-0.20308243	0.084294873	0.12949756	0.29378005	1.9359257	1.7870386	1.5388182	1.7870386	1.5388173	0.022630805	1.5301116	1.0951319	0.00039408927	3.2908626e-06	0.11823572	1.2624589	0.11824762	1.2624779	-5.3779423e-05	-1.0009272e-05	1.2465569	0.74793292	-1.6225584	-0.5313186	1.6225554	0.53124651	-0.32043486	2.603141	0.028144506	0.26320934	0.062150253	0.19274518	0.38454987	0.1927452	0.38455659	0.022998729	0.35629214	0.037723142	4.2573621	5.372661	5.1615836	4.9580779	5.1615867	4.958039	4.3908863	6.2460639	5.2385313	2.7348812	3.3627738	5.292736	3.3627702	5.29275	3.6811656	3.1105584	-73.416078	R0:S0:1	-57.2	uncorrelated	51514b8	5	sharp_wc_2.0_b_50	 1.82e+02	 4.02e-03	2022-04-17@16:53
2x2_2C_8b_C2v_L	4.3074984	0	14	2.3299828	0.0080776245	-3.1615208	-3.9245977	-0.13161586	-3.9246124	-0.13161432	0.17166445	-3.5773537	9.4517241	-4.6914299e-05	-2.1856546e-06	0.0079002828	-0.19106506	0.0078961701	-0.1910634	2.6147039e-06	-6.7419065e-06	-0.11864578	-1.0883314	1.7325482	0.02975199	-1.7325524	-0.029736185	0.26109587	-2.2944792	2.0948	1	0.20128621	0.011097463	1.2513388	1.6068303	-0.61681503	-0.2047521	0.084909787	0.12945153	0.31077706	1.9347669	1.7860117	1.5184607	1.786013	1.5184566	0.023303499	1.5250632	1.094639	0.0004397683	-5.8964564e-06	0.12044355	1.2816033	0.1204506	1.281615	-1.8544656e-06	1.3440207e-05	1.2634288	0.75560237	-1.6251343	-0.54856905	1.6251317	0.54849824	-0.32233524	2.6133565	0.028134747	0.27494263	0.063184794	0.19339926	0.39344646	0.19339822	0.39345545	0.023681216	0.35846314	0.037848216	4.3442149	5.355179	5.1512967	4.9797276	5.1512922	4.9796938	4.3884845	6.2678371	5.2443166	2.7391441	3.3464276	5.3416737	3.3464324	5.341698	3.6824448	3.0974956	-73.324509	R0:S0:1	-56.973931	uncorrelated	51514b8	1	sharp_wc_2.0_b_50	 1.82e+02	 4.76e-03	2022-04-17@17:01
2x2_2C_8b_C2v_L	4.4271697	0	14	2.3599655	0.008842585	-3.1518271	-3.9070341	-0.1325152	-3.9070462	-0.13251482	0.17269226	-3.560153	9.4534483	2.4777068e-05	4.9335393e-06	0.0074400315	-0.19180401	0.0074411752	-0.19180341	-3.0512367e-06	-2.113234e-06	-0.11869391	-1.0861152	1.7280921	0.02775865	-1.7280937	-0.027761051	0.26217893	-2.2895014	2.0896	1	0.20257241	0.010703934	1.2512133	1.6067107	-0.61699343	-0.20504153	0.084977459	0.12947429	0.30622249	1.935023	1.7857771	1.5275839	1.7857773	1.527579	0.023205457	1.5253762	1.0948413	-0.00022649701	-1.0106942e-05	0.1196915	1.2743616	0.11968868	1.274363	1.7139839e-05	5.686068e-06	1.2581691	0.75357529	-1.6256591	-0.53500204	1.625659	0.5350136	-0.32273216	2.6114023	0.028139753	0.27253856	0.062965741	0.19366526	0.38981297	0.19366502	0.38981447	0.023593567	0.35835275	0.03780502	4.3176985	5.3603412	5.1580106	4.9675699	5.1580071	4.9675811	4.3874192	6.2663898	5.2407239	2.7392306	3.3534859	5.3233606	3.3534841	5.3233707	3.684614	3.09999	-73.197904	R0:S0:1	-56.747862	uncorrelated	51514b8	2	sharp_wc_2.0_b_50	 1.80e+02	 2.93e-03	2022-04-17@17:13
2x2_2C_8b_C2v_L	4.5351034	0	14	2.3899483	0.008344544	-3.1431581	-3.8923844	-0.13261763	-3.8923875	-0.13261973	0.17268373	-3.5396665	9.4551724	1.5742162e-05	-1.0267973e-06	0.0074715122	-0.1918321	0.0074719706	-0.19183465	4.756945e-08	2.8429469e-06	-0.11867855	-1.0845303	1.7249298	0.027856029	-1.7249317	-0.027858103	0.26219382	-2.2843801	2.0844	1	0.20385862	0.010548436	1.2507565	1.6062393	-0.61826602	-0.20623852	0.08540284	0.12946384	0.31545733	1.9343465	1.7848995	1.5182871	1.7849008	1.5182789	0.023598817	1.5220788	1.0946076	-0.00014862753	7.3162001e-06	0.12075216	1.2834906	0.12074962	1.2835278	-6.0457524e-06	-7.1198159e-06	1.266367	0.75778321	-1.6279311	-0.53952114	1.6279211	0.53952147	-0.32389897	2.6175775	0.028137276	0.27918263	0.063574437	0.19428918	0.39392963	0.19428796	0.39392952	0.023998719	0.35975615	0.03787194	4.3624647	5.3513984	5.154512	4.9763053	5.1545072	4.9763013	4.3854487	6.2805408	5.2434621	2.741814	3.3457214	5.3478107	3.3457005	5.3478501	3.6862847	3.0921273	-73.080894	R0:S0:1	-56.521793	uncorrelated	51514b8	1	sharp_wc_2.0_b_50	 1.80e+02	 3.99e-03	2022-04-17@17:21
2x2_2C_8b_C2v_L	4.6505303	0	14	2.419931	0.0083896729	-3.1335821	-3.8774941	-0.13351859	-3.877485	-0.13351743	0.17321422	-3.5207444	9.4568966	3.4843296e-06	-1.607567e-05	0.007253911	-0.19235702	0.007253669	-0.19235728	-9.5633844e-07	-3.0482691e-06	-0.11867149	-1.0825553	1.7214329	0.026860826	-1.721432	-0.026861123	0.26271551	-2.2793663	2.0792	1	0.20514483	0.01026108	1.2505074	1.6060235	-0.61881662	-0.20688286	0.085604964	0.12948699	0.31578614	1.934266	1.7843847	1.5217403	1.7843851	1.5217235	0.023626022	1.5209473	1.0946516	-3.5091116e-05	3.9361659e-05	0.12076501	1.281483	0.12075605	1.2815151	3.691677e-06	-2.3579605e-06	1.2661088	0.75790428	-1.6293552	-0.53345303	1.6293496	0.53344964	-0.32426206	2.618876	0.028141871	0.2801813	0.063655173	0.19472781	0.39242631	0.1947273	0.39243376	0.024036198	0.36025116	0.037874611	4.3602232	5.35199	5.1579899	4.9716246	5.1579863	4.9716235	4.3840082	6.2852417	5.241219	2.7425774	3.3478154	5.3431462	3.3477968	5.3431979	3.6882587	3.090451	-72.965136	R0:S0:1	-56.295724	uncorrelated	51514b8	1	sharp_wc_2.0_b_50	 1.78e+02	 4.09e-03	2022-04-17@17:29
2x2_2C_8b_C2v_L	4.7643568	0	14	2.4499138	0.0087566171	-3.1228662	-3.8604042	-0.13394892	-3.8603938	-0.13394882	0.17361614	-3.5015429	9.4586207	1.0218239e-05	6.5319256e-06	0.0069562984	-0.19285589	0.0069581539	-0.19285552	-7.5231456e-07	1.5444367e-06	-0.1186879	-1.080327	1.7173239	0.025548302	-1.7173209	-0.025552477	0.26341998	-2.2740693	2.074	1	0.20643103	0.0099001912	1.2502198	1.6057076	-0.61954401	-0.20759835	0.085843504	0.12948935	0.31746204	1.9340992	1.7838226	1.5221435	1.7838216	1.5221502	0.023792836	1.5196114	1.0946531	-9.4087747e-05	-1.3748599e-05	0.12064074	1.2820522	0.12064101	1.282032	2.8357343e-06	-3.7592855e-09	1.266464	0.75865934	-1.6307586	-0.52669609	1.6307634	0.52671814	-0.32522294	2.6205294	0.028142515	0.28187664	0.063812007	0.19518347	0.39266168	0.19518435	0.39265759	0.024216955	0.36082537	0.03787974	4.3655363	5.3507912	5.1601918	4.9683569	5.1601961	4.968369	4.3825067	6.2908375	5.2410198	2.7438498	3.3481745	5.3451953	3.3481822	5.3451656	3.690332	3.0883296	-72.834215	R0:S0:1	-56.069655	uncorrelated	51514b8	1	sharp_wc_2.0_b_50	 1.77e+02	 4.05e-03	2022-04-17@17:37
2x2_2C_8b_C2v_L	4.877252	0	14	2.4798966	0.0088583593	-3.1118408	-3.8425033	-0.13438598	-3.8424856	-0.13438446	0.17379791	-3.4814455	9.4603448	8.6256632e-06	1.5367966e-07	0.0066776528	-0.19327391	0.0066808231	-0.19327363	2.1831288e-07	1.503994e-06	-0.11869566	-1.0781024	1.7131226	0.02430372	-1.7131183	-0.024303882	0.26390062	-2.2685936	2.0688	1	0.20771724	0.0095104636	1.2499054	1.6053664	-0.62035059	-0.20839107	0.086111726	0.12948814	0.32061697	1.9338368	1.7831745	1.5216137	1.7831752	1.5216036	0.024004211	1.5179381	1.0946221	-8.1331116e-05	3.1975234e-06	0.1206339	1.2834701	0.12062845	1.2834959	-3.4615569e-06	-2.7540622e-06	1.2679127	0.76001602	-1.6323667	-0.52062603	1.6323592	0.52062172	-0.32614838	2.6228766	0.028142371	0.28475186	0.064055103	0.19569819	0.39320578	0.19569748	0.39320926	0.024444405	0.36153329	0.037892698	4.3770679	5.3484207	5.1619433	4.9664569	5.1619408	4.9664573	4.3808676	6.2978754	5.2409975	2.7454903	3.3475558	5.3499928	3.3475398	5.3500245	3.6924576	3.0853439	-72.697588	R0:S0:1	-55.843586	uncorrelated	51514b8	1	sharp_wc_2.0_b_50	 1.76e+02	 4.22e-03	2022-04-17@17:45
2x2_2C_8b_C2v_L	4.9916363	0	14	2.5098793	0.0089398362	-3.1022585	-3.8282304	-0.13501197	-3.8282269	-0.13501139	0.1742236	-3.4627337	9.462069	-3.7877168e-06	-1.7594065e-07	0.0063769304	-0.19380876	0.0063754692	-0.19380898	2.4387876e-06	1.8936225e-06	-0.11870809	-1.076073	1.7096976	0.0230172	-1.7096969	-0.023012829	0.26453406	-2.2635702	2.0636	1	0.20900345	0.009115535	1.2496281	1.6050965	-0.62099608	-0.20909522	0.086342135	0.12949785	0.32241818	1.9336839	1.7826785	1.5231699	1.7826799	1.5231631	0.02414948	1.5166449	1.094636	3.4081184e-05	1.6037744e-06	0.12046647	1.2831474	0.12046853	1.2831785	-1.502945e-05	-4.3835889e-06	1.2680477	0.76067004	-1.6336573	-0.51346435	1.6336476	0.51343827	-0.32697941	2.6244272	0.028144316	0.28683982	0.064200774	0.19610803	0.39272973	0.1961068	0.39273249	0.024604474	0.36208435	0.037897566	4.381047	5.3476814	5.1644825	4.9627705	5.1644785	4.9627571	4.3793319	6.3032425	5.2401438	2.7467535	3.3484961	5.3501234	3.3484811	5.3501572	3.6945859	3.0833066	-72.583651	R0:S0:1	-55.617517	uncorrelated	51514b8	1	sharp_wc_2.0_b_50	 1.75e+02	 4.08e-03	2022-04-17@17:53
2x2_2C_8b_C2v_L	5.1038928	0	14	2.5398621	0.0089567677	-3.0904545	-3.8107347	-0.13539724	-3.8107424	-0.13539773	0.17446694	-3.4428087	9.4637931	-4.9324224e-06	2.7484672e-06	0.0061117675	-0.19417391	0.0061171917	-0.19417382	5.535152e-06	8.090152e-06	-0.11870339	-1.0737371	1.7055985	0.021819607	-1.7055981	-0.021812675	0.26500865	-2.258174	2.0584	1	0.21028966	0.0086882188	1.2492952	1.6047353	-0.62185186	-0.20993658	0.086626224	0.1294949	0.32628782	1.9333728	1.7820107	1.5219798	1.782014	1.5219718	0.024395973	1.5148283	1.0945896	4.3891006e-05	-9.7055752e-07	0.12044916	1.285108	0.12044658	1.2851567	-3.6762941e-05	-1.4119948e-05	1.2698219	0.76229747	-1.6353035	-0.50776988	1.6352848	0.50773172	-0.32799951	2.6270701	0.028143748	0.29026105	0.064487724	0.19663174	0.39353288	0.19662898	0.39353526	0.024868411	0.3628419	0.037913961	4.3953747	5.3447794	5.1658667	4.9617051	5.1658572	4.961686	4.3776821	6.3108441	5.240446	2.7485254	3.3473177	5.3566803	3.3472932	5.3567301	3.6967125	3.0799283	-72.447571	R0:S0:1	-55.391448	uncorrelated	51514b8	1	sharp_wc_2.0_b_50	 1.74e+02	 4.35e-03	2022-04-17@18:02
2x2_2C_8b_C2v_L	5.2157698	0	14	2.5698448	0.0088131542	-3.0794822	-3.794434	-0.13572626	-3.7944326	-0.13572478	0.17496931	-3.4246165	9.4655172	-2.4132197e-05	-2.5773998e-05	0.0058013532	-0.19451847	0.0057991065	-0.19451802	3.440255e-06	-8.9543892e-06	-0.11872296	-1.0715381	1.7017885	0.020550331	-1.7017889	-0.020540365	0.26563604	-2.2533937	2.0532	1	0.21157586	0.0082177664	1.2489494	1.6043661	-0.62273245	-0.21081363	0.086927099	0.12949171	0.33160468	1.9329923	1.7813884	1.5197888	1.7813913	1.5197602	0.024732901	1.5129452	1.0945267	0.00022193281	5.7478864e-05	0.12052627	1.2880687	0.12051591	1.2881378	-1.4306933e-05	3.2394555e-06	1.2722255	0.76440584	-1.6367476	-0.50194159	1.6367298	0.50188474	-0.32938062	2.6299675	0.028142916	0.29482166	0.06483705	0.19711078	0.39476844	0.19710815	0.39478394	0.025225517	0.36361937	0.03793459	4.4151694	5.3409084	5.1665504	4.9615448	5.1665385	4.9615194	4.3761776	6.3187666	5.2414534	2.7506304	3.3452666	5.3659146	3.3452333	5.3660195	3.6987627	3.0761778	-72.322499	R0:S0:1	-55.165379	uncorrelated	51514b8	1	sharp_wc_2.0_b_50	 1.73e+02	 4.41e-03	2022-04-17@18:10
2x2_2C_8b_C2v_L	5.3271974	0	14	2.5998276	0.0086279336	-3.0663063	-3.7766351	-0.13616875	-3.7766513	-0.13616923	0.17503243	-3.4039107	9.4672414	-2.2019773e-05	-1.7035816e-06	0.0054981557	-0.19487631	0.0054963997	-0.1948757	1.044781e-06	-2.9348106e-06	-0.11870299	-1.0690309	1.6977288	0.019273014	-1.6977332	-0.019269225	0.26595191	-2.2478484	2.048	1	0.21286207	0.0077043571	1.2485923	1.6039828	-0.62365266	-0.21172134	0.087238132	0.12948864	0.33688774	1.9325923	1.7806415	1.5180283	1.7806407	1.5180381	0.025036657	1.5108422	1.0944573	0.00020861346	-1.7322586e-06	0.12059598	1.2907539	0.12060029	1.2907229	-5.1616174e-07	5.4243319e-06	1.274504	0.76651167	-1.6385943	-0.49590411	1.6386036	0.49589462	-0.33043436	2.6331638	0.028142194	0.29946329	0.065205245	0.19769104	0.39576003	0.19769187	0.3957595	0.025550822	0.36447959	0.037957611	4.4340129	5.3372585	5.1677707	4.9609983	5.1677739	4.9609927	4.3744274	6.3275428	5.2419465	2.7527069	3.3434277	5.3746285	3.343448	5.3745936	3.7010035	3.0720819	-72.181314	R0:S0:1	-54.93931	uncorrelated	51514b8	1	sharp_wc_2.0_b_50	 1.72e+02	 5.18e-03	2022-04-17@18:18
