model	E_kin	D	U	e	eb1_1	eb2_1	eb3_1	eb4_1	eb5_1	eb6_1	eb7_1	eb8_1	mu	sb1_1	sb2_1	sb3_1	sb4_1	sb5_1	sb6_1	sb7_1	sb8_1	tb1_1	tb2_1	tb3_1	tb4_1	tb5_1	tb6_1	tb7_1	tb8_1	tpd	tpp	tppp	ave_D	ave_e	ave_mu	ave_tpd	ave_tpp	ave_tppp	ave_U_1	ave_eb1_1	ave_eb2_1	ave_eb3_1	ave_eb4_1	ave_eb5_1	ave_eb6_1	ave_eb7_1	ave_eb8_1	ave_mu_1	ave_sb1_1	ave_sb2_1	ave_sb3_1	ave_sb4_1	ave_sb5_1	ave_sb6_1	ave_sb7_1	ave_sb8_1	ave_tb1_1	ave_tb2_1	ave_tb3_1	ave_tb4_1	ave_tb5_1	ave_tb6_1	ave_tb7_1	ave_tb8_1	var_U_1	var_eb1_1	var_eb2_1	var_eb3_1	var_eb4_1	var_eb5_1	var_eb6_1	var_eb7_1	var_eb8_1	var_mu_1	var_sb1_1	var_sb2_1	var_sb3_1	var_sb4_1	var_sb5_1	var_sb6_1	var_sb7_1	var_sb8_1	var_tb1_1	var_tb2_1	var_tb3_1	var_tb4_1	var_tb5_1	var_tb6_1	var_tb7_1	var_tb8_1	E0_1	sector_1	E0_2	sector_2	githash	time
2x2_2C_8b_C2v_L	4.2063055	0	14	2.3	0.0092099237	-3.1617859	-3.9349697	-0.13176825	-3.9349469	-0.13176422	0.17233917	-3.5990401	9.45	-6.4481171e-05	-3.6921465e-06	0.0074487536	-0.19115794	0.0074461375	-0.19115668	6.8359971e-06	2.764212e-06	-0.11850159	-1.0885439	1.7347434	0.028013617	-1.7347391	-0.028001456	0.26147627	-2.2997957	2.1	1	0.2	0.011014452	1.2519845	1.6075258	-0.61488979	-0.20305009	0.084281005	0.12950516	0.29307726	1.9359428	1.7870396	1.5396696	1.78704	1.539675	0.022612692	1.5302905	1.0951532	0.0005811108	1.655727e-06	0.11818304	1.2616916	0.11819144	1.2616926	-3.0726086e-05	-3.1297559e-06	1.2458671	0.74757177	-1.6225743	-0.53077543	1.6225722	0.53071931	-0.32040832	2.6028922	0.028145929	0.26272056	0.062135831	0.19275143	0.38415382	0.19275124	0.38415676	0.022980356	0.35621465	0.037719938	4.253407	5.3735528	5.1621273	4.9571297	5.1621311	4.9570969	4.3912006	6.2452382	5.2382905	2.7344557	3.3634488	5.2906447	3.363455	5.290635	3.6809539	3.1108805	-73.407251	R0:S0:1	-57.2	uncorrelated	51514b8	2022-04-17@17:01
2x2_2C_8b_C2v_L	4.3568802	0	14	2.3299828	0.0066754387	-3.1622295	-3.9358356	-0.12865333	-3.9358189	-0.12864982	0.16977461	-3.5995276	9.4793103	-5.1383587e-05	-1.8658882e-06	0.0082890706	-0.18846369	0.008285487	-0.18845985	4.5494318e-06	-5.8998103e-07	-0.11800639	-1.0869156	1.731669	0.031889135	-1.7316657	-0.031876091	0.25853739	-2.2956481	2.0948	1	0.20128621	0.011851338	1.2526682	1.6088764	-0.61181531	-0.20160656	0.083638455	0.12988107	0.29703186	1.9359364	1.7894342	1.5326894	1.7894331	1.5326961	0.022455468	1.5329259	1.096267	0.00048400804	-2.8953788e-06	0.11773454	1.2594051	0.11774433	1.2593847	-1.8536345e-05	1.7995984e-06	1.2447999	0.74932102	-1.613253	-0.549372	1.6132598	0.54932369	-0.31893857	2.5955169	0.028215077	0.26475538	0.062121813	0.19077392	0.38557669	0.19077497	0.38558063	0.022785539	0.35516706	0.037587	4.2749404	5.3667837	5.1528298	4.9805178	5.1528355	4.9804947	4.3843515	6.2368198	5.2456095	2.7364573	3.3549683	5.2949428	3.3549848	5.2949202	3.6853685	3.1186841	-73.505353	R0:S0:1	-57.194621	uncorrelated	51514b8	2022-04-17@17:09
2x2_2C_8b_C2v_L	4.5120618	0	14	2.3599655	0.0062545336	-3.1750512	-3.9419142	-0.12475441	-3.9419187	-0.12475514	0.16621148	-3.5991066	9.5086207	-9.2175465e-06	-7.1114182e-07	0.0089872755	-0.18522206	0.0089875869	-0.1852215	-7.3153958e-08	-2.3587964e-06	-0.11718295	-1.0871091	1.7296216	0.035926499	-1.7296219	-0.035924945	0.25495769	-2.2915596	2.0896	1	0.20257241	0.01268937	1.2534743	1.6104259	-0.60828833	-0.19984031	0.082854854	0.1303055	0.28887132	1.9367426	1.7917979	1.5315645	1.791798	1.5315666	0.021691583	1.536578	1.097554	8.7387205e-05	-1.0515326e-06	0.11663557	1.2494868	0.11663574	1.2494795	3.3306754e-06	4.2403445e-06	1.2342448	0.746224	-1.6048342	-0.56687622	1.6048355	0.56687194	-0.31500655	2.5858976	0.028294113	0.25668825	0.061368852	0.18886465	0.38471003	0.18886462	0.38471002	0.021970736	0.35367511	0.037424871	4.245835	5.3694866	5.1473961	4.9983911	5.1473957	4.9983898	4.3772104	6.223702	5.2518756	2.7347778	3.3525805	5.2824056	3.3525857	5.2823995	3.6895255	3.1289998	-73.645241	R0:S0:1	-57.189241	uncorrelated	51514b8	2022-04-17@17:20
2x2_2C_8b_C2v_L	4.6706349	0	14	2.3899483	0.0051276597	-3.1893525	-3.9492257	-0.12189199	-3.9492261	-0.12189432	0.16350318	-3.5994004	9.537931	1.1250507e-05	-3.3738924e-05	0.0095741742	-0.18261859	0.009573482	-0.18261884	-3.5350496e-06	-6.6410726e-06	-0.11653166	-1.0873955	1.7276289	0.039225158	-1.7276282	-0.039227169	0.25199168	-2.2872787	2.0844	1	0.20385862	0.013262958	1.2543726	1.6120577	-0.60445114	-0.19780074	0.081975271	0.13072006	0.28074321	1.9376039	1.7945146	1.5366408	1.7945152	1.5366228	0.020978917	1.5412574	1.0989278	-0.00010969598	7.8427364e-05	0.11485815	1.2348092	0.11484478	1.2348387	1.5015907e-05	-5.6487173e-06	1.2217616	0.74273682	-1.5952593	-0.57714777	1.5952529	0.5771589	-0.31163271	2.5737774	0.028371346	0.24981801	0.060574426	0.18671407	0.3806767	0.18671334	0.38068458	0.021218853	0.35170069	0.03723244	4.2090323	5.3740787	5.1449324	5.0098292	5.1449281	5.0098369	4.3701667	6.2063425	5.2552763	2.7340366	3.3542136	5.2580237	3.3541945	5.2580784	3.6944088	3.1420799	-73.798204	R0:S0:1	-57.183862	uncorrelated	51514b8	2022-04-17@17:32
2x2_2C_8b_C2v_L	4.829949	0	14	2.419931	0.0040556976	-3.1997072	-3.9546915	-0.11900227	-3.9546868	-0.11900167	0.16053277	-3.5989657	9.5672414	-2.8551832e-05	-5.624341e-06	0.01001587	-0.17993801	0.010013587	-0.17993928	-2.1255629e-05	8.1083098e-06	-0.11582575	-1.0871009	1.7252515	0.042147396	-1.725252	-0.042138719	0.24888887	-2.2827618	2.0792	1	0.20514483	0.013699661	1.2552927	1.6136984	-0.6005624	-0.19568176	0.081076551	0.13113772	0.27189613	1.938475	1.797173	1.5432482	1.7971748	1.5432281	0.020262701	1.5461216	1.1003216	0.00027622461	9.6333394e-06	0.11292446	1.2183908	0.11292553	1.2184343	0.00012307166	2.3740731e-06	1.2077161	0.73894748	-1.5858787	-0.58464211	1.5858696	0.58459516	-0.30804285	2.5612738	0.028449156	0.24254481	0.059773428	0.18461652	0.37601	0.18461493	0.37602261	0.020469275	0.34960335	0.037034104	4.1668416	5.379826	5.1438471	5.0190873	5.14384	5.0190639	4.3632311	6.1882192	5.2583734	2.7330876	3.3570525	5.2304421	3.3570399	5.2305117	3.6993555	3.1553597	-73.933117	R0:S0:1	-57.178483	uncorrelated	51514b8	2022-04-17@17:43
2x2_2C_8b_C2v_L	4.9945576	0	14	2.4499138	0.0031974092	-3.2091024	-3.9580979	-0.11741733	-3.9581215	-0.11742016	0.15889462	-3.5993693	9.5965517	2.272395e-06	-3.9925457e-06	0.010202627	-0.17830405	0.010203613	-0.17830427	-5.9382239e-06	-5.7025036e-06	-0.11527636	-1.0863832	1.7220806	0.043575517	-1.7220853	-0.043580177	0.24698509	-2.2777597	2.074	1	0.20643103	0.013871779	1.2563692	1.6154107	-0.5962433	-0.19305007	0.080002195	0.13155332	0.2594644	1.9396152	1.8002833	1.5596763	1.8002824	1.5596792	0.019513854	1.5528784	1.1019026	-2.1165877e-05	4.6347808e-06	0.11023048	1.1944798	0.1102264	1.1944492	3.8031066e-05	1.0747926e-05	1.1878595	0.73324399	-1.5750591	-0.57946835	1.5750695	0.57949326	-0.30509612	2.5443937	0.028527	0.23341221	0.058737732	0.18222971	0.36679182	0.18223052	0.36679105	0.019696468	0.34659001	0.03677894	4.1000585	5.3908429	5.1483031	5.0139013	5.1483009	5.0139126	4.3568427	6.1624522	5.2586796	2.732171	3.3673863	5.1804294	3.3674039	5.1804108	3.7049661	3.1737638	-74.061838	R0:S0:1	-57.173103	uncorrelated	51514b8	2022-04-17@17:52
2x2_2C_8b_C2v_L	5.1513734	0	14	2.4798966	0.0016541732	-3.217793	-3.9618532	-0.11399209	-3.961873	-0.11399387	0.15542438	-3.5989864	9.6258621	9.2693606e-07	-4.9367073e-07	0.010571809	-0.17533472	0.010573612	-0.17533569	-8.4440338e-07	1.1363182e-06	-0.11458287	-1.0857033	1.7193243	0.046372267	-1.7193271	-0.04637343	0.24364155	-2.2732469	2.0688	1	0.20771724	0.014158655	1.2572204	1.6169314	-0.59262456	-0.19107615	0.079173642	0.13194475	0.25413715	1.9402534	1.8027575	1.5621961	1.8027586	1.562196	0.018986484	1.5571429	1.1031773	-9.2113895e-06	1.8241933e-06	0.1082237	1.1808484	0.10822147	1.1808548	3.784556e-06	-1.3832096e-06	1.176075	0.73091679	-1.5661135	-0.58733606	1.5661095	0.58733896	-0.30181854	2.533316	0.028599507	0.2287638	0.058145151	0.18023471	0.36412245	0.18023379	0.36412123	0.019144629	0.34467519	0.036599725	4.0740484	5.3933009	5.14569	5.0271596	5.1456864	5.0271603	4.3498542	6.1469045	5.2634471	2.7321222	3.3671954	5.1632193	3.3671926	5.163226	3.70984	3.1845754	-74.184335	R0:S0:1	-57.167724	uncorrelated	51514b8	2022-04-17@18:01
2x2_2C_8b_C2v_L	5.3123984	0	14	2.5098793	0.00013333304	-3.2302846	-3.9674721	-0.11133127	-3.9674644	-0.11133085	0.15234226	-3.5986821	9.6551724	-2.7104654e-07	3.3509535e-07	0.010828632	-0.17252242	0.010828694	-0.17252174	-2.7927226e-06	-8.3541399e-06	-0.11384609	-1.0856841	1.7170334	0.048746634	-1.7170314	-0.048747375	0.24024312	-2.2687864	2.0636	1	0.20900345	0.014322091	1.2581849	1.6185895	-0.58861527	-0.18877616	0.078227457	0.13236049	0.2453453	1.9411287	1.8054509	1.571875	1.8054505	1.5718722	0.018277963	1.5623948	1.1045842	2.7870653e-06	-6.1117205e-06	0.10600696	1.1607319	0.10600449	1.1607221	2.2845506e-05	1.4982897e-05	1.1600306	0.72699462	-1.5566588	-0.58969406	1.5566623	0.58969821	-0.29772444	2.5200821	0.028676721	0.22182816	0.057341488	0.17810986	0.35768622	0.17811021	0.35768921	0.018415066	0.34225849	0.03639192	4.0278084	5.4001626	5.1469041	5.0322188	5.1469035	5.032224	4.3430252	6.127498	5.2659747	2.7313404	3.3719878	5.1293283	3.3719938	5.1293273	3.7148835	3.1978714	-74.32567	R0:S0:1	-57.162345	uncorrelated	51514b8	2022-04-17@18:10
2x2_2C_8b_C2v_L	5.4719014	0	14	2.5398621	-0.0016976651	-3.2403842	-3.971895	-0.10833725	-3.9718946	-0.10833529	0.14895875	-3.5982707	9.6844828	-7.7704249e-06	6.5172364e-07	0.011054339	-0.16946816	0.011056671	-0.16946674	-8.8308274e-07	-2.7161872e-06	-0.11309792	-1.0852329	1.7144601	0.051212894	-1.7144591	-0.051215665	0.23666597	-2.2642908	2.0584	1	0.21028966	0.014448124	1.259107	1.6201855	-0.5847618	-0.18657801	0.07732508	0.13276187	0.23841699	1.9418676	1.8080251	1.5790752	1.8080243	1.5790748	0.017659591	1.567252	1.1059216	8.1858329e-05	-2.5198828e-06	0.10386243	1.1421676	0.10385833	1.1421488	7.6623438e-06	5.4945401e-06	1.1455583	0.72388975	-1.5474963	-0.59333887	1.5475021	0.59335409	-0.29374653	2.5077769	0.028751045	0.21626172	0.056660173	0.1760553	0.35243166	0.17605596	0.35243303	0.017778777	0.33998521	0.036196191	3.9908145	5.4051084	5.1470494	5.0403287	5.1470491	5.0403385	4.3361686	6.109715	5.269331	2.7309748	3.3749021	5.1015734	3.374911	5.1015621	3.7198431	3.2097036	-74.45558	R0:S0:1	-57.156966	uncorrelated	51514b8	2022-04-17@18:20
2x2_2C_8b_C2v_L	5.6302937	0	14	2.5698448	-0.0042134429	-3.2633341	-3.9816758	-0.10405443	-3.9816503	-0.10404939	0.14349889	-3.5972616	9.7137931	9.3291062e-06	7.5406869e-06	0.01124989	-0.16519426	0.011248832	-0.16519231	-3.596918e-06	-5.6716346e-06	-0.11218833	-1.0868713	1.7134369	0.054085911	-1.713432	-0.05408158	0.23131113	-2.2602711	2.0532	1	0.21157586	0.014551425	1.2599816	1.6218162	-0.58095251	-0.18456313	0.076484376	0.13315764	0.23392047	1.9425164	1.81048	1.581359	1.8104792	1.5813539	0.017007472	1.5712246	1.1071752	-0.00010721205	-2.281847e-05	0.10168098	1.1256039	0.10168235	1.1255992	3.0370758e-05	1.6880837e-05	1.1335404	0.72190318	-1.5387408	-0.60150128	1.5387452	0.60148346	-0.28835279	2.4973711	0.028823902	0.21234647	0.056053437	0.17404538	0.34948341	0.17404605	0.34948977	0.017108169	0.33810467	0.036021723	3.9681597	5.4067812	5.144305	5.0576295	5.1443058	5.0576245	4.3282376	6.0956518	5.2744062	2.7311353	3.3737173	5.0865669	3.373724	5.0865717	3.7248498	3.218862	-74.62986	R0:S0:1	-57.151586	uncorrelated	51514b8	2022-04-17@18:35
2x2_2C_8b_C2v_L	5.7866413	0	14	2.5998276	-0.006005474	-3.2733412	-3.9843184	-0.10008605	-3.9843045	-0.10008368	0.13821325	-3.5937118	9.7431034	1.190184e-05	-1.6629047e-06	0.01124623	-0.16206393	0.011246339	-0.16206338	3.7201904e-06	5.8050487e-06	-0.11161434	-1.0862668	1.7104067	0.055736263	-1.7104041	-0.055733074	0.22721393	-2.2546469	2.048	1	0.21286207	0.014551733	1.2608197	1.623245	-0.57744141	-0.18253969	0.075665155	0.13351355	0.23039783	1.9430317	1.8128526	1.5828889	1.8128526	1.58289	0.016558188	1.5753508	1.1083754	-0.00013966922	6.4474597e-06	0.099193912	1.1114314	0.099195867	1.1114407	-2.3943164e-05	-1.0310942e-05	1.1220897	0.72040672	-1.5300867	-0.60358322	1.5300836	0.60356973	-0.28461541	2.4863861	0.028889592	0.20932419	0.055572664	0.17210513	0.34774722	0.17210505	0.34774675	0.01664558	0.33612005	0.03584365	3.9491611	5.4076619	5.1423596	5.0705579	5.1423624	5.0705504	4.320671	6.0808602	5.2794501	2.7320896	3.3731187	5.0734844	3.3731133	5.0734853	3.7302856	3.2283746	-74.740563	R0:S0:1	-57.146207	uncorrelated	51514b8	2022-04-17@18:55
2x2_2C_8b_C2v_L	5.9500668	0	14	2.6298103	-0.0097192567	-3.2887891	-3.9901303	-0.098096297	-3.9901355	-0.098096134	0.13464918	-3.5919408	9.7724138	8.3640255e-07	-2.3963558e-07	0.011464749	-0.15826177	0.011463116	-0.15826169	-6.4749918e-09	5.5744925e-08	-0.11084672	-1.0865171	1.7084346	0.05861756	-1.7084356	-0.058618368	0.22233522	-2.2500192	2.0428	1	0.21414828	0.014510406	1.2618353	1.6250117	-0.57319867	-0.18009378	0.074677607	0.13392991	0.22359022	1.9438011	1.8155477	1.5971856	1.8155475	1.5971873	0.015759117	1.5805975	1.1097716	-1.153262e-05	1.4896727e-07	0.097360185	1.0843825	0.097361634	1.0843761	4.2990791e-07	-8.2503802e-08	1.1073979	0.71699122	-1.5205778	-0.60522538	1.5205799	0.60522871	-0.27859508	2.4733775	0.028966462	0.20455059	0.054864941	0.16997407	0.33767471	0.1699743	0.33767369	0.015837616	0.33354173	0.03563412	3.9081135	5.4141653	5.1459565	5.0738864	5.1459564	5.0738865	4.3137102	6.0620831	5.2797991	2.7317861	3.3793272	5.0300432	3.379331	5.030038	3.735222	3.2406897	-74.889077	R0:S0:1	-57.140828	uncorrelated	51514b8	2022-04-17@19:10
2x2_2C_8b_C2v_L	6.1128941	0	14	2.6597931	-0.012434854	-3.3048358	-3.9958002	-0.095403493	-3.9957976	-0.095403147	0.1303752	-3.5921854	9.8017241	-3.5550414e-06	-7.2050587e-07	0.011488885	-0.15490651	0.011487226	-0.15490623	2.1870772e-06	8.1635894e-06	-0.110202	-1.0867735	1.7061748	0.060353069	-1.7061759	-0.060353023	0.21798252	-2.2456597	2.0376	1	0.21543448	0.014382162	1.2628414	1.6266767	-0.56907449	-0.17759459	0.073689516	0.13432316	0.21685193	1.9445604	1.8182821	1.6087681	1.8182814	1.6087703	0.015092162	1.5860793	1.1111384	6.0732303e-05	8.4203162e-06	0.094831665	1.0599991	0.094835032	1.0599996	-2.1999582e-05	-1.5887296e-05	1.091643	0.71371753	-1.5109116	-0.60187913	1.5109126	0.60188202	-0.27343664	2.4598764	0.029038988	0.19953914	0.054165371	0.16779308	0.32984676	0.16779363	0.32984463	0.015163003	0.33079044	0.035420341	3.8682414	5.4201394	5.1490785	5.0755082	5.1490818	5.0755091	4.3069284	6.0423248	5.2820416	2.7317251	3.3849722	4.9921674	3.3849688	4.9921618	3.7402014	3.2530352	-75.039038	R0:S0:1	-57.135448	uncorrelated	51514b8	2022-04-17@19:26
2x2_2C_8b_C2v_L	6.2740646	0	14	2.6897759	-0.01531318	-3.3266395	-4.0019071	-0.092299142	-4.0019009	-0.092299548	0.12495863	-3.5889382	9.8310345	-1.6795481e-05	1.4789698e-06	0.011384152	-0.15155794	0.011385298	-0.15155714	-1.4661407e-06	5.0804635e-06	-0.10969886	-1.0877646	1.7039968	0.061741719	-1.7039958	-0.061747047	0.21323597	-2.240132	2.0324	1	0.21672069	0.014223938	1.2637996	1.6282673	-0.5651155	-0.17520916	0.07275255	0.1346809	0.21248138	1.9451996	1.8209059	1.617186	1.820906	1.6171748	0.01449889	1.5910166	1.1124099	0.00031768267	1.1116468e-05	0.092332898	1.0382673	0.092328901	1.0382834	-1.520033e-05	-1.745372e-05	1.0783742	0.71152906	-1.501554	-0.59839746	1.5015471	0.59842776	-0.26828674	2.4472023	0.029104963	0.19641853	0.053573055	0.16567267	0.32388593	0.1656725	0.32389096	0.014563261	0.32827594	0.035218365	3.841101	5.4232456	5.1507631	5.0801861	5.1507657	5.0802184	4.2993385	6.0248988	5.2849458	2.7328378	3.3884299	4.9625545	3.3884079	4.9625695	3.745751	3.2640084	-75.192944	R0:S0:1	-57.130069	uncorrelated	51514b8	2022-04-17@19:42
2x2_2C_8b_C2v_L	6.4284146	0	14	2.7197586	-0.01789638	-3.3439424	-4.0043866	-0.08715002	-4.0043749	-0.087155167	0.11666418	-3.5839553	9.8603448	-1.7041339e-05	1.0991256e-06	0.011088485	-0.14792676	0.011089248	-0.14792654	-1.0113863e-05	3.1857519e-06	-0.10937993	-1.0880029	1.7009008	0.062659086	-1.700898	-0.062665928	0.20783856	-2.2338529	2.0272	1	0.2180069	0.014080462	1.2645735	1.6295949	-0.56181328	-0.17331896	0.072002243	0.13497316	0.21339339	1.945475	1.8230949	1.6134801	1.8230956	1.6134632	0.014161408	1.594485	1.1134394	0.00038262154	1.2832451e-05	0.089599164	1.0264241	0.089594312	1.0264489	2.8441076e-05	-1.504042e-05	1.0712361	0.71196298	-1.4933442	-0.59961333	1.4933324	0.59965184	-0.2639121	2.4373991	0.029158546	0.1970851	0.053307383	0.16381971	0.32538046	0.16381899	0.32538821	0.014218241	0.3264947	0.035057826	3.8446903	5.4191481	5.1467362	5.1004177	5.1467388	5.1004608	4.2907642	6.0127841	5.2911181	2.7356574	3.383973	4.9639893	3.3839431	4.9640155	3.7517242	3.2706912	-75.309652	R0:S0:1	-57.12469	uncorrelated	51514b8	2022-04-17@20:03
2x2_2C_8b_C2v_L	6.5878559	0	14	2.7497414	-0.021063291	-3.3583482	-4.0082375	-0.083244917	-4.0081614	-0.08324221	0.10953224	-3.5810862	9.8896552	-2.8435409e-05	3.316882e-06	0.010825744	-0.14425376	0.010828106	-0.14425578	3.4843683e-06	5.2429543e-06	-0.1089529	-1.0878008	1.6981733	0.0637338	-1.698159	-0.063738703	0.20243831	-2.2282653	2.022	1	0.2192931	0.013877548	1.2654824	1.6311083	-0.55803383	-0.17104861	0.071118454	0.13530287	0.21125126	1.9459401	1.8255363	1.6182926	1.8255437	1.6182128	0.013647792	1.5990058	1.1146132	0.0010662018	5.5791541e-05	0.087046328	1.0063953	0.087027411	1.0066186	-0.00014347047	-7.0149308e-05	1.0602344	0.71075267	-1.4844977	-0.59663572	1.4844107	0.59668258	-0.25852937	2.425696	0.029219084	0.19574987	0.052872696	0.16181323	0.32167041	0.16180588	0.32171279	0.013701047	0.32412743	0.034869391	3.8289695	5.4197846	5.1470367	5.1099891	5.1470563	5.1101341	4.2830684	5.9968227	5.2950249	2.7372603	3.3850542	4.9437567	3.3848682	4.9439141	3.7572015	3.2797853	-75.435913	R0:S0:1	-57.11931	uncorrelated	51514b8	2022-04-17@20:24
