model	D	U	e	eb1_1	eb2_1	eb3_1	eb4_1	eb5_1	eb6_1	eb7_1	eb8_1	mu	sb1_1	sb2_1	sb3_1	sb4_1	sb5_1	sb6_1	sb7_1	sb8_1	tb1_1	tb2_1	tb3_1	tb4_1	tb5_1	tb6_1	tb7_1	tb8_1	tpd	tpp	tppp	ave_U_1	ave_eb1_1	ave_eb2_1	ave_eb3_1	ave_eb4_1	ave_eb5_1	ave_eb6_1	ave_eb7_1	ave_eb8_1	ave_mu_1	ave_sb1_1	ave_sb2_1	ave_sb3_1	ave_sb4_1	ave_sb5_1	ave_sb6_1	ave_sb7_1	ave_sb8_1	ave_tb1_1	ave_tb2_1	ave_tb3_1	ave_tb4_1	ave_tb5_1	ave_tb6_1	ave_tb7_1	ave_tb8_1	var_U_1	var_eb1_1	var_eb2_1	var_eb3_1	var_eb4_1	var_eb5_1	var_eb6_1	var_eb7_1	var_eb8_1	var_mu_1	var_sb1_1	var_sb2_1	var_sb3_1	var_sb4_1	var_sb5_1	var_sb6_1	var_sb7_1	var_sb8_1	var_tb1_1	var_tb2_1	var_tb3_1	var_tb4_1	var_tb5_1	var_tb6_1	var_tb7_1	var_tb8_1	E0_1	sector_1	E0_2	sector_2	githash	distance	diff_param	diff_hybrid	time
2x2_2C_8b_C2v_L	0	14	2.3	-0.006655534	-3.3502828	-4.1133163	-0.10235806	-4.113222	-0.1023468	0.14108001	-3.7537133	9.45	-0.0001012231	7.5002141e-06	0.011771903	-0.16264369	0.011773954	-0.16264057	1.0013529e-05	-2.0059213e-06	-0.11240159	-1.1061747	1.7476608	0.057892245	-1.7476438	-0.057886658	0.22749261	-2.3061557	2.1	1	0.2	0.12716137	0.28181729	1.9402532	1.8083082	1.5130122	1.8083084	1.5129678	0.019394233	1.5640145	1.0966834	0.0012748774	4.6515161e-06	0.10641814	1.1989609	0.10640855	1.1990641	-8.3408762e-05	-1.3513614e-05	1.1997914	0.73898962	-1.5466556	-0.66603149	1.5466326	0.66601042	-0.29483563	2.5174425	0.027712395	0.24609509	0.058026746	0.17511218	0.37904073	0.17511149	0.37906006	0.019514994	0.34028119	0.036135481	4.2609133	5.3299699	5.0745517	5.1361052	5.0745557	5.1361211	4.3684546	6.1056856	5.2727357	2.7624838	3.3445197	5.2983157	3.3444483	5.2984297	3.6838858	3.2147797	-74.585444	R0:S0:1	-57.2	uncorrelated	51514b8	 1.66e+02	 6.25e-02	 1.00e+06	2022-04-17@16:42
2x2_2C_8b_C2v_L	0	14	2.3	0.007313029	-3.2367328	-3.9549297	-0.11657654	-3.9548882	-0.11657604	0.15682638	-3.586764	9.45	2.5311439e-05	-3.5253625e-05	0.010087428	-0.18280743	0.010090772	-0.18281074	2.0799929e-06	4.8079014e-06	-0.11789883	-1.1031099	1.742503	0.042964303	-1.7424963	-0.042968007	0.25226439	-2.303027	2.1	1	0.2	0.12925411	0.36083959	1.9313009	1.7812345	1.3898587	1.7812356	1.3898225	0.024826967	1.5042829	1.0919306	-0.00026344495	9.2613289e-05	0.12188688	1.3787239	0.12186329	1.3788164	-2.9735627e-05	-2.6539742e-05	1.3261983	0.7823285	-1.6400833	-0.65654868	1.6400641	0.65654656	-0.32037587	2.6633356	0.028091721	0.29376925	0.066154899	0.19616432	0.43653882	0.19616298	0.4365421	0.025160611	0.36681427	0.03851609	4.6775156	5.2846848	5.0875339	5.1087968	5.0875276	5.1087717	4.3861017	6.3578909	5.2941534	2.7410954	3.2549399	5.6204911	3.2548828	5.6206207	3.6729963	3.0330824	-73.59774	R0:S0:1	-57.2	uncorrelated	51514b8	 1.92e+02	 1.08e-02	 9.64e-02	2022-04-17@16:46
2x2_2C_8b_C2v_L	0	14	2.3	0.012803823	-3.2231549	-3.9499104	-0.13551269	-3.9498611	-0.1355097	0.17195494	-3.5948432	9.45	5.5598665e-05	-4.0935512e-06	0.0064545542	-0.19584832	0.0064566048	-0.19584861	-1.9698245e-06	-4.0063791e-06	-0.11939687	-1.09603	1.7353103	0.023600624	-1.7353012	-0.023599504	0.26595233	-2.2952539	2.1	1	0.2	0.12942856	0.26923496	1.9381452	1.78941	1.5744625	1.7894133	1.5744133	0.022007334	1.5378065	1.095911	-0.0004651589	2.1338744e-05	0.11315067	1.2335921	0.11313659	1.2337235	3.2394118e-08	-2.1842628e-06	1.219509	0.73613639	-1.6160584	-0.49058235	1.6160246	0.4905587	-0.3223467	2.5834238	0.028134887	0.24644187	0.060160194	0.19115667	0.36741407	0.19115336	0.36743574	0.022387759	0.352984	0.037472436	4.1291374	5.3967266	5.1784288	4.9115027	5.1784167	4.9115123	4.3896456	6.2136716	5.2271447	2.7342945	3.3929674	5.2115556	3.3928899	5.2117162	3.6861473	3.1349212	-73.589313	R0:S0:1	-57.2	uncorrelated	51514b8	 1.79e+02	 1.55e-02	 4.46e-02	2022-04-17@16:50
2x2_2C_8b_C2v_L	0	14	2.3	0.005198829	-3.1555487	-3.9318999	-0.13152698	-3.9318527	-0.13152355	0.1733401	-3.6027371	9.45	1.8059119e-05	-2.7471387e-06	0.0079460902	-0.18887255	0.0079479003	-0.18887358	3.1183878e-06	4.842387e-06	-0.11808892	-1.088575	1.7361462	0.030193058	-1.7361366	-0.030194376	0.25889167	-2.3032181	2.1	1	0.2	0.1295872	0.30362564	1.9351465	1.78597	1.534041	1.7859713	1.5340228	0.022645433	1.5273037	1.0949097	-0.00017809577	1.4668088e-05	0.12019528	1.2656846	0.12018929	1.2657456	-2.4816806e-05	-1.2285068e-05	1.2566974	0.75189688	-1.6257145	-0.54550189	1.6256973	0.54549346	-0.31815729	2.6108924	0.028159738	0.27152077	0.062852742	0.19352786	0.38480301	0.19352657	0.3848082	0.023009769	0.35746581	0.037826188	4.2984279	5.3663973	5.1593926	4.9731412	5.1593907	4.9731375	4.3918587	6.257945	5.2369424	2.7347181	3.3545321	5.30807	3.3544945	5.3081329	3.678791	3.100902	-73.398863	R0:S0:1	-57.2	uncorrelated	51514b8	 1.82e+02	 2.09e-03	 2.63e-02	2022-04-17@16:53
2x2_2C_8b_C2v_L	0	14	2.3	0.0075360133	-3.1567211	-3.9320239	-0.12972204	-3.9319868	-0.12972211	0.17023108	-3.5954382	9.45	3.342355e-05	2.360029e-06	0.0078630685	-0.19021396	0.0078661598	-0.1902134	-6.4973141e-06	-6.3822546e-06	-0.11862716	-1.0880081	1.7344629	0.029784445	-1.7344543	-0.029795401	0.26030229	-2.2991631	2.1	1	0.2	0.12938859	0.31719256	1.9343521	1.786255	1.5077735	1.7862528	1.5077736	0.023706326	1.5251997	1.0944584	-0.00031491494	-5.1048409e-06	0.12025757	1.2901232	0.12024984	1.2900943	3.8783335e-05	1.2527731e-05	1.2673289	0.75821225	-1.6240013	-0.55166645	1.6240101	0.5517205	-0.32310025	2.6142747	0.028122156	0.2789302	0.063550699	0.19312266	0.39856966	0.19312446	0.39856758	0.024088055	0.35836065	0.037865236	4.3757934	5.3486605	5.1449294	4.9888892	5.1449361	4.9889237	4.390019	6.267438	5.2506648	2.7399951	3.3390968	5.3650992	3.3391038	5.3650694	3.6804494	3.0964251	-73.371957	R0:S0:1	-57.2	uncorrelated	51514b8	 1.84e+02	 1.85e-03	 8.61e-03	2022-04-17@16:57
2x2_2C_8b_C2v_L	0	14	2.3	0.0092099237	-3.1617859	-3.9349697	-0.13176825	-3.9349469	-0.13176422	0.17233917	-3.5990401	9.45	-6.4481171e-05	-3.6921465e-06	0.0074487536	-0.19115794	0.0074461375	-0.19115668	6.8359971e-06	2.764212e-06	-0.11850159	-1.0885439	1.7347434	0.028013617	-1.7347391	-0.028001456	0.26147627	-2.2997957	2.1	1	0.2	0.12950516	0.29307726	1.9359428	1.7870396	1.5396696	1.78704	1.539675	0.022612692	1.5302905	1.0951532	0.0005811108	1.655727e-06	0.11818304	1.2616916	0.11819144	1.2616926	-3.0726086e-05	-3.1297559e-06	1.2458671	0.74757177	-1.6225743	-0.53077543	1.6225722	0.53071931	-0.32040832	2.6028922	0.028145929	0.26272056	0.062135831	0.19275143	0.38415382	0.19275124	0.38415676	0.022980356	0.35621465	0.037719938	4.253407	5.3735528	5.1621273	4.9571297	5.1621311	4.9570969	4.3912006	6.2452382	5.2382905	2.7344557	3.3634488	5.2906447	3.363455	5.290635	3.6809539	3.1108805	-73.407251	R0:S0:1	-57.2	uncorrelated	51514b8	 1.82e+02	 8.57e-04	 4.00e-03	2022-04-17@17:01
2x2_2C_8b_C2v_L	0	14	2.3299828	0.0074308211	-3.1616651	-3.9348501	-0.13143453	-3.9348295	-0.13143386	0.17224446	-3.5988565	9.4793103	-5.2461622e-05	-4.5933977e-06	0.0079686158	-0.19024239	0.0079718377	-0.19023918	-6.3349557e-06	3.3521797e-06	-0.11852791	-1.089	1.7354841	0.030054523	-1.7354775	-0.030071184	0.26029161	-2.3006849	2.0948	1	0.20128621	0.13025011	0.29244523	1.9358681	1.787074	1.5409672	1.7870663	1.5410167	0.022244766	1.5300557	1.0962253	0.00048881898	3.4420399e-06	0.11864684	1.2581641	0.11864751	1.257987	4.1062629e-05	1.4938697e-06	1.2465708	0.74782157	-1.6224	-0.53999087	1.6224494	0.54009258	-0.31830603	2.6042439	0.028283035	0.26226101	0.062204819	0.1927429	0.38242411	0.19274974	0.38240385	0.022592486	0.35647628	0.037773463	4.2466382	5.3779397	5.1653238	4.9636985	5.1653515	4.9637413	4.3875504	6.2481459	5.2382018	2.7301548	3.3597299	5.2814523	3.3598176	5.2812428	3.6832331	3.1071818	-73.53875	R0:S0:1	-57.194621	uncorrelated	51514b8	 1.80e+02	 2.04e-03	 1.00e+06	2022-04-17@17:05
2x2_2C_8b_C2v_L	0	14	2.3299828	0.0066754387	-3.1622295	-3.9358356	-0.12865333	-3.9358189	-0.12864982	0.16977461	-3.5995276	9.4793103	-5.1383587e-05	-1.8658882e-06	0.0082890706	-0.18846369	0.008285487	-0.18845985	4.5494318e-06	-5.8998103e-07	-0.11800639	-1.0869156	1.731669	0.031889135	-1.7316657	-0.031876091	0.25853739	-2.2956481	2.0948	1	0.20128621	0.12988107	0.29703186	1.9359364	1.7894342	1.5326894	1.7894331	1.5326961	0.022455468	1.5329259	1.096267	0.00048400804	-2.8953788e-06	0.11773454	1.2594051	0.11774433	1.2593847	-1.8536345e-05	1.7995984e-06	1.2447999	0.74932102	-1.613253	-0.549372	1.6132598	0.54932369	-0.31893857	2.5955169	0.028215077	0.26475538	0.062121813	0.19077392	0.38557669	0.19077497	0.38558063	0.022785539	0.35516706	0.037587	4.2749404	5.3667837	5.1528298	4.9805178	5.1528355	4.9804947	4.3843515	6.2368198	5.2456095	2.7364573	3.3549683	5.2949428	3.3549848	5.2949202	3.6853685	3.1186841	-73.505353	R0:S0:1	-57.194621	uncorrelated	51514b8	 1.79e+02	 4.83e-04	 1.10e-02	2022-04-17@17:08
2x2_2C_8b_C2v_L	0	14	2.3599655	0.0073693142	-3.1628127	-3.9361786	-0.12770366	-3.9361647	-0.1277033	0.16900001	-3.599147	9.5086207	-3.8370921e-05	-3.2514567e-06	0.0083149797	-0.18782184	0.0083143212	-0.18782078	-2.8129924e-06	5.4968025e-06	-0.11780774	-1.0871401	1.7318863	0.032382729	-1.7318828	-0.032385706	0.25790124	-2.2959342	2.0896	1	0.20257241	0.13064084	0.28522347	1.9366056	1.7898108	1.5415802	1.7898084	1.5415992	0.021768657	1.5347441	1.0975929	0.00035395047	4.3774028e-06	0.11693081	1.2480938	0.11693514	1.2480354	1.7391305e-05	-4.8124352e-06	1.2338698	0.74485189	-1.6124409	-0.54754497	1.6124567	0.54756635	-0.31626258	2.5920739	0.02835578	0.25540661	0.061520789	0.19056392	0.3815312	0.19056618	0.38152373	0.02207603	0.35453952	0.037572444	4.2168446	5.3806818	5.1608711	4.9747332	5.1608814	4.974738	4.3808668	6.2308573	5.2460301	2.7295838	3.3594485	5.2653486	3.3594794	5.2652758	3.6880578	3.1209689	-73.632738	R0:S0:1	-57.189241	uncorrelated	51514b8	 1.76e+02	 2.75e-03	 1.00e+06	2022-04-17@17:12
2x2_2C_8b_C2v_L	0	14	2.3599655	0.0060766938	-3.1713392	-3.9399477	-0.12588716	-3.9399562	-0.12588683	0.16718458	-3.5980869	9.5086207	-4.6522032e-06	-4.1934629e-06	0.008794874	-0.18601157	0.0087938313	-0.18601072	-6.469214e-07	3.5455388e-07	-0.11731627	-1.086404	1.7290121	0.034730665	-1.7290133	-0.034730491	0.25570977	-2.2907372	2.0896	1	0.20257241	0.13030803	0.28618945	1.9369322	1.7921419	1.5403072	1.7921415	1.5403093	0.021633542	1.5379788	1.0977204	4.3707482e-05	9.1218714e-06	0.11594619	1.2429527	0.11594664	1.2429411	3.3293684e-06	-1.8166901e-06	1.2302533	0.7447616	-1.6037304	-0.55686825	1.6037341	0.55687147	-0.31537376	2.5824661	0.028294997	0.25575459	0.061207651	0.18866018	0.38064517	0.18866055	0.38064507	0.021918856	0.35305818	0.037378821	4.2261356	5.3737385	5.1520234	4.9876576	5.1520237	4.9876592	4.3774225	6.2178813	5.2485358	2.734945	3.3588402	5.2637909	3.3588469	5.2637821	3.690298	3.1333672	-73.629417	R0:S0:1	-57.189241	uncorrelated	51514b8	 1.75e+02	 1.17e-03	 1.03e-02	2022-04-17@17:16
2x2_2C_8b_C2v_L	0	14	2.3599655	0.0062545336	-3.1750512	-3.9419142	-0.12475441	-3.9419187	-0.12475514	0.16621148	-3.5991066	9.5086207	-9.2175465e-06	-7.1114182e-07	0.0089872755	-0.18522206	0.0089875869	-0.1852215	-7.3153958e-08	-2.3587964e-06	-0.11718295	-1.0871091	1.7296216	0.035926499	-1.7296219	-0.035924945	0.25495769	-2.2915596	2.0896	1	0.20257241	0.1303055	0.28887132	1.9367426	1.7917979	1.5315645	1.791798	1.5315666	0.021691583	1.536578	1.097554	8.7387205e-05	-1.0515326e-06	0.11663557	1.2494868	0.11663574	1.2494795	3.3306754e-06	4.2403445e-06	1.2342448	0.746224	-1.6048342	-0.56687622	1.6048355	0.56687194	-0.31500655	2.5858976	0.028294113	0.25668825	0.061368852	0.18886465	0.38471003	0.18886462	0.38471002	0.021970736	0.35367511	0.037424871	4.245835	5.3694866	5.1473961	4.9983911	5.1473957	4.9983898	4.3772104	6.223702	5.2518756	2.7347778	3.3525805	5.2824056	3.3525857	5.2823995	3.6895255	3.1289998	-73.645241	R0:S0:1	-57.189241	uncorrelated	51514b8	 1.75e+02	 1.96e-04	 2.48e-03	2022-04-17@17:20
2x2_2C_8b_C2v_L	0	14	2.3899483	0.0068494871	-3.175203	-3.942024	-0.12475935	-3.9420284	-0.12475944	0.16625457	-3.5991307	9.537931	-9.4594305e-06	-2.2248812e-07	0.0089436852	-0.18549363	0.0089439339	-0.18549366	3.2838602e-07	8.1083575e-08	-0.11727353	-1.087038	1.7293973	0.035782028	-1.7293987	-0.035781131	0.25535115	-2.2913175	2.0844	1	0.20385862	0.13104452	0.2779135	1.9373995	1.7925075	1.5436891	1.7925073	1.543691	0.021147794	1.5391896	1.0989236	8.7337147e-05	-6.4311168e-07	0.11547662	1.2365917	0.11547711	1.2365862	-5.027404e-07	5.3069903e-07	1.2227858	0.74183842	-1.6028484	-0.55974704	1.6028505	0.55974411	-0.31355148	2.5804707	0.028430911	0.24864288	0.060784687	0.18841678	0.37918714	0.18841695	0.37918698	0.021413557	0.35268454	0.037387693	4.1867116	5.3837623	5.1568839	4.9873102	5.1568841	4.9873074	4.3739303	6.2145317	5.2506921	2.72902	3.3595138	5.2462273	3.359518	5.2462216	3.6928516	3.1336073	-73.773931	R0:S0:1	-57.183862	uncorrelated	51514b8	 1.72e+02	 2.16e-03	 1.00e+06	2022-04-17@17:24
2x2_2C_8b_C2v_L	0	14	2.3899483	0.0053149333	-3.1798595	-3.9448081	-0.12312301	-3.9448119	-0.12312337	0.16469925	-3.5991842	9.537931	-3.4507154e-06	4.3655277e-06	0.0093365133	-0.18352385	0.0093369817	-0.18352417	6.5291196e-07	3.194351e-06	-0.11663482	-1.0857293	1.7264173	0.037902093	-1.7264177	-0.037902987	0.25301888	-2.2865761	2.0844	1	0.20385862	0.13073187	0.27643314	1.9378548	1.7948354	1.546774	1.7948355	1.5467789	0.020890837	1.5429815	1.0991318	3.2696031e-05	-9.0250933e-06	0.11423654	1.2271368	0.1142385	1.2271313	-4.8007014e-06	-2.9951974e-06	1.2162602	0.74059027	-1.5942357	-0.56597557	1.5942358	0.5659787	-0.31204722	2.5697903	0.028374081	0.24751482	0.060358789	0.18654146	0.37606844	0.18654141	0.37606517	0.021136448	0.35092933	0.037179063	4.1815564	5.379957	5.1506588	4.9964231	5.1506594	4.9964229	4.3708333	6.1991342	5.2517541	2.733537	3.361818	5.2351402	3.3618209	5.2351278	3.694931	3.1471621	-73.761652	R0:S0:1	-57.183862	uncorrelated	51514b8	 1.71e+02	 2.47e-03	 1.01e-02	2022-04-17@17:28
2x2_2C_8b_C2v_L	0	14	2.3899483	0.0051276597	-3.1893525	-3.9492257	-0.12189199	-3.9492261	-0.12189432	0.16350318	-3.5994004	9.537931	1.1250507e-05	-3.3738924e-05	0.0095741742	-0.18261859	0.009573482	-0.18261884	-3.5350496e-06	-6.6410726e-06	-0.11653166	-1.0873955	1.7276289	0.039225158	-1.7276282	-0.039227169	0.25199168	-2.2872787	2.0844	1	0.20385862	0.13072006	0.28074321	1.9376039	1.7945146	1.5366408	1.7945152	1.5366228	0.020978917	1.5412574	1.0989278	-0.00010969598	7.8427364e-05	0.11485815	1.2348092	0.11484478	1.2348387	1.5015907e-05	-5.6487173e-06	1.2217616	0.74273682	-1.5952593	-0.57714777	1.5952529	0.5771589	-0.31163271	2.5737774	0.028371346	0.24981801	0.060574426	0.18671407	0.3806767	0.18671334	0.38068458	0.021218853	0.35170069	0.03723244	4.2090323	5.3740787	5.1449324	5.0098292	5.1449281	5.0098369	4.3701667	6.2063425	5.2552763	2.7340366	3.3542136	5.2580237	3.3541945	5.2580784	3.6944088	3.1420799	-73.798204	R0:S0:1	-57.183862	uncorrelated	51514b8	 1.71e+02	 2.55e-04	 3.00e-03	2022-04-17@17:31
2x2_2C_8b_C2v_L	0	14	2.419931	0.0058609899	-3.1894765	-3.9493058	-0.12183487	-3.9493057	-0.12183407	0.16336005	-3.5994442	9.5672414	7.9453742e-06	8.8451062e-06	0.00947719	-0.18298046	0.009478589	-0.18298253	4.8238242e-06	5.9834023e-07	-0.11662698	-1.0873032	1.7273874	0.038879946	-1.7273882	-0.038871803	0.2524684	-2.2869997	2.0792	1	0.20514483	0.13145635	0.27048496	1.9382209	1.7952116	1.5478346	1.7952151	1.5478192	0.020506115	1.5438031	1.1002771	-7.4519822e-05	-1.786347e-05	0.1136847	1.2228609	0.113685	1.2229333	-2.7509842e-05	7.1388755e-08	1.2102733	0.73861378	-1.5933102	-0.56914705	1.5932878	0.5690972	-0.31042919	2.5685389	0.028507428	0.2422226	0.060025816	0.18626922	0.375723	0.18626618	0.37572946	0.020735776	0.35071622	0.037198585	4.1526629	5.3878413	5.1541692	4.9984758	5.154161	4.9984532	4.3669422	6.1975438	5.2549435	2.7284511	3.3606939	5.2238779	3.3606589	5.22395	3.6977483	3.1463277	-73.92656	R0:S0:1	-57.178483	uncorrelated	51514b8	 1.69e+02	 1.90e-03	 1.00e+06	2022-04-17@17:35
2x2_2C_8b_C2v_L	0	14	2.419931	0.0043390011	-3.1915266	-3.9507836	-0.12015461	-3.9507806	-0.12015799	0.16192057	-3.6000463	9.5672414	2.5890581e-05	-3.5726352e-06	0.0098031164	-0.18090446	0.0098047323	-0.18090473	-2.5606187e-06	6.5685198e-06	-0.11593569	-1.085582	1.7241044	0.04080869	-1.7241019	-0.040818476	0.25011954	-2.2824072	2.0792	1	0.20514483	0.13114598	0.26794654	1.9387205	1.7975321	1.5524459	1.7975311	1.5524565	0.020216333	1.547873	1.1005145	-0.00024726037	1.381602e-05	0.11227895	1.2116343	0.11227694	1.2116058	5.2241346e-06	-1.2854722e-05	1.2023326	0.73691527	-1.584712	-0.57358105	1.5847168	0.57362796	-0.30873282	2.5573077	0.028451162	0.24036306	0.059561016	0.18440575	0.37188714	0.18440667	0.37187789	0.020428205	0.34880587	0.036981693	4.1415288	5.3852498	5.1490542	5.005872	5.1490587	5.0058931	4.3640206	6.180954	5.255618	2.732654	3.3641354	5.2092629	3.3641433	5.2092238	3.6997609	3.1603508	-73.90405	R0:S0:1	-57.178483	uncorrelated	51514b8	 1.67e+02	 2.19e-03	 1.01e-02	2022-04-17@17:39
2x2_2C_8b_C2v_L	0	14	2.419931	0.0040556976	-3.1997072	-3.9546915	-0.11900227	-3.9546868	-0.11900167	0.16053277	-3.5989657	9.5672414	-2.8551832e-05	-5.624341e-06	0.01001587	-0.17993801	0.010013587	-0.17993928	-2.1255629e-05	8.1083098e-06	-0.11582575	-1.0871009	1.7252515	0.042147396	-1.725252	-0.042138719	0.24888887	-2.2827618	2.0792	1	0.20514483	0.13113772	0.27189613	1.938475	1.797173	1.5432482	1.7971748	1.5432281	0.020262701	1.5461216	1.1003216	0.00027622461	9.6333394e-06	0.11292446	1.2183908	0.11292553	1.2184343	0.00012307166	2.3740731e-06	1.2077161	0.73894748	-1.5858787	-0.58464211	1.5858696	0.58459516	-0.30804285	2.5612738	0.028449156	0.24254481	0.059773428	0.18461652	0.37601	0.18461493	0.37602261	0.020469275	0.34960335	0.037034104	4.1668416	5.379826	5.1438471	5.0190873	5.14384	5.0190639	4.3632311	6.1882192	5.2583734	2.7330876	3.3570525	5.2304421	3.3570399	5.2305117	3.6993555	3.1553597	-73.933117	R0:S0:1	-57.178483	uncorrelated	51514b8	 1.67e+02	 2.54e-04	 3.18e-03	2022-04-17@17:43
2x2_2C_8b_C2v_L	0	14	2.4499138	0.0047042868	-3.1998433	-3.9547656	-0.11887956	-3.9547615	-0.11887776	0.16034313	-3.5990515	9.5965517	-2.8621186e-05	4.0400334e-07	0.0099209621	-0.18032106	0.0099207772	-0.18032083	2.6606744e-06	-9.1865405e-07	-0.1159337	-1.0869776	1.7250315	0.041760645	-1.7250307	-0.0417589	0.24936231	-2.2824988	2.074	1	0.20643103	0.13187039	0.2629086	1.9390169	1.797831	1.5530549	1.797831	1.5530562	0.019857071	1.5484475	1.1016331	0.00026939283	-3.0737535e-06	0.11179039	1.2078085	0.11179127	1.2078072	-1.1335026e-05	2.045249e-06	1.1970111	0.73531509	-1.5840229	-0.57676512	1.5840231	0.57675593	-0.30701373	2.5565917	0.028584298	0.23584922	0.0592916	0.18419093	0.37170217	0.18419093	0.37170266	0.020055549	0.34869506	0.037008266	4.1161769	5.3925151	5.1524963	5.008577	5.1524969	5.0085712	4.3600439	6.1804294	5.2587747	2.7277631	3.3625155	5.1996747	3.3625178	5.1996712	3.7026308	3.1588111	-74.061625	R0:S0:1	-57.173103	uncorrelated	51514b8	 1.65e+02	 2.72e-03	 1.00e+06	2022-04-17@17:47
2x2_2C_8b_C2v_L	0	14	2.4499138	0.0031974092	-3.2091024	-3.9580979	-0.11741733	-3.9581215	-0.11742016	0.15889462	-3.5993693	9.5965517	2.272395e-06	-3.9925457e-06	0.010202627	-0.17830405	0.010203613	-0.17830427	-5.9382239e-06	-5.7025036e-06	-0.11527636	-1.0863832	1.7220806	0.043575517	-1.7220853	-0.043580177	0.24698509	-2.2777597	2.074	1	0.20643103	0.13155332	0.2594644	1.9396152	1.8002833	1.5596763	1.8002824	1.5596792	0.019513854	1.5528784	1.1019026	-2.1165877e-05	4.6347808e-06	0.11023048	1.1944798	0.1102264	1.1944492	3.8031066e-05	1.0747926e-05	1.1878595	0.73324399	-1.5750591	-0.57946835	1.5750695	0.57949326	-0.30509612	2.5443937	0.028527	0.23341221	0.058737732	0.18222971	0.36679182	0.18223052	0.36679105	0.019696468	0.34659001	0.03677894	4.1000585	5.3908429	5.1483031	5.0139013	5.1483009	5.0139126	4.3568427	6.1624522	5.2586796	2.732171	3.3673863	5.1804294	3.3674039	5.1804108	3.7049661	3.1737638	-74.061838	R0:S0:1	-57.173103	uncorrelated	51514b8	 1.63e+02	 7.93e-04	 1.02e-02	2022-04-17@17:52
2x2_2C_8b_C2v_L	0	14	2.4798966	0.0026559992	-3.2093611	-3.9582511	-0.11613075	-3.9582725	-0.11612883	0.15748208	-3.5994496	9.6258621	8.458365e-07	1.6339437e-06	0.010412674	-0.17714157	0.010411496	-0.17714123	7.3700619e-07	-6.1750896e-06	-0.11507452	-1.0866772	1.7225298	0.04492038	-1.7225352	-0.044912557	0.24564053	-2.2785699	2.0688	1	0.20771724	0.13230471	0.25530517	1.9397946	1.8003472	1.5609943	1.8003483	1.5609841	0.019134144	1.5531212	1.103013	-7.849636e-06	-7.6572484e-06	0.10994209	1.1894039	0.10994252	1.1894282	1.7790595e-06	1.0617294e-05	1.1833027	0.73193498	-1.5750438	-0.5845012	1.5750402	0.5844667	-0.30272148	2.5448325	0.028664721	0.22979106	0.058575721	0.18220304	0.36575901	0.18220206	0.36576729	0.019305329	0.34661959	0.036818682	4.0769772	5.3981038	5.152362	5.0183604	5.1523555	5.0183464	4.3533533	6.1632777	5.2614429	2.7268006	3.3652814	5.1701986	3.3652752	5.1702368	3.7072209	3.1709147	-74.190195	R0:S0:1	-57.167724	uncorrelated	51514b8	 1.61e+02	 2.71e-03	 1.00e+06	2022-04-17@17:56
2x2_2C_8b_C2v_L	0	14	2.4798966	0.0016541732	-3.217793	-3.9618532	-0.11399209	-3.961873	-0.11399387	0.15542438	-3.5989864	9.6258621	9.2693606e-07	-4.9367073e-07	0.010571809	-0.17533472	0.010573612	-0.17533569	-8.4440338e-07	1.1363182e-06	-0.11458287	-1.0857033	1.7193243	0.046372267	-1.7193271	-0.04637343	0.24364155	-2.2732469	2.0688	1	0.20771724	0.13194475	0.25413715	1.9402534	1.8027575	1.5621961	1.8027586	1.562196	0.018986484	1.5571429	1.1031773	-9.2113895e-06	1.8241933e-06	0.1082237	1.1808484	0.10822147	1.1808548	3.784556e-06	-1.3832096e-06	1.176075	0.73091679	-1.5661135	-0.58733606	1.5661095	0.58733896	-0.30181854	2.533316	0.028599507	0.2287638	0.058145151	0.18023471	0.36412245	0.18023379	0.36412123	0.019144629	0.34467519	0.036599725	4.0740484	5.3933009	5.14569	5.0271596	5.1456864	5.0271603	4.3498542	6.1469045	5.2634471	2.7321222	3.3671954	5.1632193	3.3671926	5.163226	3.70984	3.1845754	-74.184335	R0:S0:1	-57.167724	uncorrelated	51514b8	 1.59e+02	 6.31e-04	 1.07e-02	2022-04-17@18:01
2x2_2C_8b_C2v_L	0	14	2.5098793	0.0015630028	-3.2183824	-3.9621774	-0.11290521	-3.9621948	-0.11290606	0.15426352	-3.599095	9.6551724	1.7294047e-06	7.6817307e-08	0.010610264	-0.17434492	0.01061007	-0.17434572	1.1087909e-06	8.3539324e-07	-0.11434399	-1.0860612	1.7197577	0.047069792	-1.7197614	-0.047069323	0.24250589	-2.2739364	2.0636	1	0.20900345	0.13270818	0.24735499	1.940606	1.8029933	1.5674884	1.8029939	1.5674885	0.018532346	1.5581468	1.1043842	-1.7134193e-05	5.1372161e-07	0.10766086	1.1723134	0.10766128	1.1723202	-7.2189238e-06	-2.0765476e-06	1.1679602	0.72843972	-1.5656468	-0.58728772	1.5656447	0.58728424	-0.2992914	2.5320534	0.028739529	0.22324609	0.057828871	0.18010237	0.36131583	0.18010185	0.36131522	0.01868096	0.34433962	0.036615801	4.0363501	5.4035517	5.1520636	5.0257257	5.1520612	5.0257225	4.3465403	6.1446923	5.2655651	2.7262535	3.3683486	5.1433662	3.3683463	5.1433727	3.7122664	3.183816	-74.314089	R0:S0:1	-57.162345	uncorrelated	51514b8	 1.57e+02	 3.34e-03	 1.00e+06	2022-04-17@18:05
2x2_2C_8b_C2v_L	0	14	2.5098793	0.00013333304	-3.2302846	-3.9674721	-0.11133127	-3.9674644	-0.11133085	0.15234226	-3.5986821	9.6551724	-2.7104654e-07	3.3509535e-07	0.010828632	-0.17252242	0.010828694	-0.17252174	-2.7927226e-06	-8.3541399e-06	-0.11384609	-1.0856841	1.7170334	0.048746634	-1.7170314	-0.048747375	0.24024312	-2.2687864	2.0636	1	0.20900345	0.13236049	0.2453453	1.9411287	1.8054509	1.571875	1.8054505	1.5718722	0.018277963	1.5623948	1.1045842	2.7870653e-06	-6.1117205e-06	0.10600696	1.1607319	0.10600449	1.1607221	2.2845506e-05	1.4982897e-05	1.1600306	0.72699462	-1.5566588	-0.58969406	1.5566623	0.58969821	-0.29772444	2.5200821	0.028676721	0.22182816	0.057341488	0.17810986	0.35768622	0.17811021	0.35768921	0.018415066	0.34225849	0.03639192	4.0278084	5.4001626	5.1469041	5.0322188	5.1469035	5.032224	4.3430252	6.127498	5.2659747	2.7313404	3.3719878	5.1293283	3.3719938	5.1293273	3.7148835	3.1978714	-74.32567	R0:S0:1	-57.162345	uncorrelated	51514b8	 1.55e+02	 7.07e-04	 1.04e-02	2022-04-17@18:10
2x2_2C_8b_C2v_L	0	14	2.5398621	-0.00027963943	-3.2305873	-3.9676318	-0.11016067	-3.9676238	-0.11015777	0.150907	-3.598729	9.6844828	4.5727687e-08	1.0833651e-06	0.010889598	-0.17142042	0.010889091	-0.17141943	-1.2731328e-06	-6.3789642e-06	-0.11360326	-1.0859618	1.7174962	0.04960444	-1.7174947	-0.049600747	0.23887232	-2.2695241	2.0584	1	0.21028966	0.13312306	0.23998266	1.9413965	1.8056067	1.5756849	1.8056067	1.5756773	0.017868406	1.5630622	1.105747	-5.1657412e-07	-6.4767638e-06	0.10554983	1.1533774	0.10554867	1.1533855	1.3247612e-05	1.175602e-05	1.153281	0.72505845	-1.5564213	-0.59100096	1.5564213	0.59098553	-0.29513753	2.519649	0.02881628	0.21739656	0.057100974	0.17802951	0.35548316	0.17802945	0.35548982	0.017997484	0.34207178	0.036419504	3.9968681	5.409148	5.1525455	5.0329196	5.1525439	5.0329163	4.3396969	6.1267059	5.2685834	2.7256902	3.3718655	5.1133843	3.371864	5.1134022	3.717192	3.1960701	-74.454178	R0:S0:1	-57.156966	uncorrelated	51514b8	 1.53e+02	 2.95e-03	 1.00e+06	2022-04-17@18:15
2x2_2C_8b_C2v_L	0	14	2.5398621	-0.0016976651	-3.2403842	-3.971895	-0.10833725	-3.9718946	-0.10833529	0.14895875	-3.5982707	9.6844828	-7.7704249e-06	6.5172364e-07	0.011054339	-0.16946816	0.011056671	-0.16946674	-8.8308274e-07	-2.7161872e-06	-0.11309792	-1.0852329	1.7144601	0.051212894	-1.7144591	-0.051215665	0.23666597	-2.2642908	2.0584	1	0.21028966	0.13276187	0.23841699	1.9418676	1.8080251	1.5790752	1.8080243	1.5790748	0.017659591	1.567252	1.1059216	8.1858329e-05	-2.5198828e-06	0.10386243	1.1421676	0.10385833	1.1421488	7.6623438e-06	5.4945401e-06	1.1455583	0.72388975	-1.5474963	-0.59333887	1.5475021	0.59335409	-0.29374653	2.5077769	0.028751045	0.21626172	0.056660173	0.1760553	0.35243166	0.17605596	0.35243303	0.017778777	0.33998521	0.036196191	3.9908145	5.4051084	5.1470494	5.0403287	5.1470491	5.0403385	4.3361686	6.109715	5.269331	2.7309748	3.3749021	5.1015734	3.374911	5.1015621	3.7198431	3.2097036	-74.45558	R0:S0:1	-57.156966	uncorrelated	51514b8	 1.51e+02	 8.13e-04	 1.06e-02	2022-04-17@18:20
2x2_2C_8b_C2v_L	0	14	2.5698448	-0.0021391494	-3.2411748	-3.9722978	-0.10679726	-3.9722969	-0.10679699	0.14730589	-3.5981726	9.7137931	-6.4179557e-06	3.0948944e-07	0.011068853	-0.16821429	0.011068173	-0.16821425	3.7763977e-06	7.5725904e-06	-0.11286523	-1.0855272	1.7149414	0.051883132	-1.7149412	-0.051881311	0.23519393	-2.2649576	2.0532	1	0.21157586	0.13351543	0.23387597	1.9420927	1.808195	1.5815078	1.8081954	1.5815103	0.017299188	1.5678107	1.1070623	6.892065e-05	4.6451162e-06	0.10323886	1.1356696	0.10324222	1.1356809	-2.8244646e-05	-1.4331441e-05	1.1392696	0.72230563	-1.547174	-0.59424931	1.5471694	0.59424164	-0.29125995	2.5075576	0.028888706	0.21241023	0.056457324	0.17595258	0.35103888	0.17595224	0.35103622	0.017411305	0.33983991	0.036225069	3.9641018	5.4131059	5.1520158	5.042464	5.1520176	5.0424595	4.3327188	6.1093999	5.2726591	2.7256327	3.3739069	5.0891041	3.3738992	5.0891048	3.7222123	3.2075522	-74.584028	R0:S0:1	-57.151586	uncorrelated	51514b8	 1.49e+02	 2.78e-03	 1.00e+06	2022-04-17@18:25
2x2_2C_8b_C2v_L	0	14	2.5698448	-0.0034808492	-3.2497946	-3.976088	-0.10524657	-3.9760885	-0.10524954	0.14489292	-3.5966073	9.7137931	-2.3436276e-05	2.3101572e-07	0.011176306	-0.1664273	0.011177006	-0.16642777	-1.4121657e-06	5.1696534e-08	-0.11234946	-1.084626	1.7118633	0.053222444	-1.7118629	-0.053226129	0.23277391	-2.2593212	2.0532	1	0.21157586	0.13315682	0.23138414	1.9426137	1.8105987	1.5868002	1.8105987	1.5868022	0.01703324	1.5722059	1.1072607	0.00025806247	1.0634959e-06	0.10151225	1.1229059	0.10151116	1.1229005	4.6383801e-06	-1.2785582e-06	1.1302914	0.72070083	-1.538364	-0.59427169	1.5383636	0.5942877	-0.28944698	2.4951986	0.028824189	0.21065175	0.055972225	0.17400052	0.34706213	0.17400052	0.34705938	0.017137316	0.33762196	0.035995708	3.952488	5.4103073	5.1478691	5.0465988	5.1478697	5.0466074	4.3291748	6.0916679	5.2728239	2.730663	3.3783938	5.0727517	3.3783934	5.072744	3.7249394	3.2216323	-74.579479	R0:S0:1	-57.151586	uncorrelated	51514b8	 1.47e+02	 3.35e-03	 1.06e-02	2022-04-17@18:30
2x2_2C_8b_C2v_L	0	14	2.5698448	-0.0042134429	-3.2633341	-3.9816758	-0.10405443	-3.9816503	-0.10404939	0.14349889	-3.5972616	9.7137931	9.3291062e-06	7.5406869e-06	0.01124989	-0.16519426	0.011248832	-0.16519231	-3.596918e-06	-5.6716346e-06	-0.11218833	-1.0868713	1.7134369	0.054085911	-1.713432	-0.05408158	0.23131113	-2.2602711	2.0532	1	0.21157586	0.13315764	0.23392047	1.9425164	1.81048	1.581359	1.8104792	1.5813539	0.017007472	1.5712246	1.1071752	-0.00010721205	-2.281847e-05	0.10168098	1.1256039	0.10168235	1.1255992	3.0370758e-05	1.6880837e-05	1.1335404	0.72190318	-1.5387408	-0.60150128	1.5387452	0.60148346	-0.28835279	2.4973711	0.028823902	0.21234647	0.056053437	0.17404538	0.34948341	0.17404605	0.34948977	0.017108169	0.33810467	0.036021723	3.9681597	5.4067812	5.144305	5.0576295	5.1443058	5.0576245	4.3282376	6.0956518	5.2744062	2.7311353	3.3737173	5.0865669	3.373724	5.0865717	3.7248498	3.218862	-74.62986	R0:S0:1	-57.151586	uncorrelated	51514b8	 1.47e+02	 2.85e-04	 3.56e-03	2022-04-17@18:35
2x2_2C_8b_C2v_L	0	14	2.5998276	-0.0037666499	-3.2635656	-3.9816612	-0.10356089	-3.9816368	-0.10355918	0.14275265	-3.5971061	9.7431034	8.9673036e-06	1.7843928e-06	0.011168008	-0.16546506	0.011167742	-0.165463	-1.1021588e-06	-6.6940054e-07	-0.11229278	-1.0868267	1.7133659	0.05364293	-1.7133601	-0.053643525	0.23147508	-2.2601072	2.048	1	0.21286207	0.1338929	0.22807622	1.9428367	1.8108836	1.5871685	1.8108824	1.587172	0.016742955	1.5726758	1.1083571	-9.9772915e-05	-5.7905976e-06	0.10061846	1.1185485	0.10061964	1.1185272	8.9566812e-06	3.5435402e-06	1.1250724	0.71964707	-1.5377255	-0.59459666	1.5377313	0.59460311	-0.28738972	2.4949981	0.028958412	0.20773044	0.055769162	0.17378896	0.34697692	0.17379004	0.34697603	0.016840458	0.33751478	0.036029311	3.9325728	5.4167717	5.1516196	5.0501823	5.1516234	5.0501862	4.3252679	6.0917934	5.2768852	2.7261475	3.3762456	5.065505	3.3762554	5.0654842	3.7276915	3.2191739	-74.757842	R0:S0:1	-57.146207	uncorrelated	51514b8	 1.45e+02	 1.86e-03	 1.00e+06	2022-04-17@18:40
2x2_2C_8b_C2v_L	0	14	2.5998276	-0.0055172105	-3.2648864	-3.9826265	-0.10242823	-3.9826037	-0.10242746	0.14137326	-3.5975998	9.7431034	9.1914151e-06	-5.9765944e-07	0.011271109	-0.16338021	0.011270329	-0.16337929	1.0699197e-06	2.0127977e-06	-0.11158696	-1.0848663	1.7097841	0.055002727	-1.7097791	-0.055001246	0.22908991	-2.2552232	2.048	1	0.21286207	0.13356045	0.22354075	1.9434418	1.8133458	1.5974208	1.8133455	1.5974235	0.016385117	1.5777138	1.1086515	-0.00010672095	1.3860693e-06	0.098899598	1.1006158	0.098902033	1.1006134	-6.1503541e-06	-3.1150551e-06	1.1133022	0.7170448	-1.5287206	-0.59216163	1.5287201	0.59215654	-0.28506608	2.4815731	0.028898802	0.20457429	0.055210612	0.17181708	0.33999262	0.17181738	0.33999107	0.016476907	0.3349369	0.035782012	3.9082425	5.4169546	5.1502053	5.0491324	5.1502091	5.0491298	4.3224701	6.071554	5.2758859	2.7302308	3.3837734	5.0369388	3.3837733	5.0369297	3.7299499	3.2345211	-74.732451	R0:S0:1	-57.146207	uncorrelated	51514b8	 1.43e+02	 1.49e-03	 1.05e-02	2022-04-17@18:45
2x2_2C_8b_C2v_L	0	14	2.5998276	-0.0067932641	-3.2690936	-3.9839643	-0.10115536	-3.9839458	-0.10115581	0.13934149	-3.5949635	9.7431034	-5.0995199e-06	-1.9140685e-06	0.011367104	-0.16176199	0.011366325	-0.16176161	-1.9238237e-06	-2.4624318e-06	-0.11141994	-1.0857235	1.7105833	0.056395485	-1.7105812	-0.056397318	0.22692801	-2.2552995	2.048	1	0.21286207	0.13356046	0.22784052	1.9431747	1.8129536	1.5900359	1.8129522	1.5900358	0.016361632	1.5759697	1.1085001	6.1703136e-05	3.3852768e-06	0.099630686	1.1046486	0.099630317	1.1046352	1.1086955e-05	2.8688278e-06	1.1195464	0.71906315	-1.5298721	-0.60346681	1.5298788	0.60347738	-0.28347482	2.4853964	0.028898307	0.20768963	0.055445964	0.17206941	0.34320311	0.17207063	0.34320393	0.016450416	0.33581229	0.035827958	3.9333185	5.411577	5.1456788	5.0646869	5.1456817	5.0646919	4.3213388	6.0785387	5.2770406	2.730842	3.3771281	5.0562068	3.3771336	5.0561982	3.7297719	3.2299742	-74.738128	R0:S0:1	-57.146207	uncorrelated	51514b8	 1.43e+02	 1.04e-03	 4.63e-03	2022-04-17@18:50
2x2_2C_8b_C2v_L	0	14	2.5998276	-0.006005474	-3.2733412	-3.9843184	-0.10008605	-3.9843045	-0.10008368	0.13821325	-3.5937118	9.7431034	1.190184e-05	-1.6629047e-06	0.01124623	-0.16206393	0.011246339	-0.16206338	3.7201904e-06	5.8050487e-06	-0.11161434	-1.0862668	1.7104067	0.055736263	-1.7104041	-0.055733074	0.22721393	-2.2546469	2.048	1	0.21286207	0.13351355	0.23039783	1.9430317	1.8128526	1.5828889	1.8128526	1.58289	0.016558188	1.5753508	1.1083754	-0.00013966922	6.4474597e-06	0.099193912	1.1114314	0.099195867	1.1114407	-2.3943164e-05	-1.0310942e-05	1.1220897	0.72040672	-1.5300867	-0.60358322	1.5300836	0.60356973	-0.28461541	2.4863861	0.028889592	0.20932419	0.055572664	0.17210513	0.34774722	0.17210505	0.34774675	0.01664558	0.33612005	0.03584365	3.9491611	5.4076619	5.1423596	5.0705579	5.1423624	5.0705504	4.320671	6.0808602	5.2794501	2.7320896	3.3731187	5.0734844	3.3731133	5.0734853	3.7302856	3.2283746	-74.740563	R0:S0:1	-57.146207	uncorrelated	51514b8	 1.43e+02	 7.95e-04	 2.44e-03	2022-04-17@18:55
2x2_2C_8b_C2v_L	0	14	2.6298103	-0.0052696518	-3.2762422	-3.9844893	-0.10031259	-3.9844831	-0.100316	0.1385433	-3.5954839	9.7724138	-9.2208979e-06	-6.6163214e-06	0.011092501	-0.16249587	0.011093117	-0.16249623	-2.6139602e-06	1.0928046e-05	-0.11153787	-1.0867045	1.7104161	0.054780176	-1.710415	-0.0547851	0.22769937	-2.2549942	2.0428	1	0.21414828	0.13428089	0.22026342	1.9436363	1.8135455	1.5966446	1.8135449	1.59665	0.016133432	1.5781079	1.1097293	0.00010811151	2.2099901e-05	0.097900654	1.0973921	0.097900926	1.0973816	2.8963752e-06	-2.0065963e-05	1.1076477	0.71617816	-1.5282931	-0.59011659	1.5282942	0.59013995	-0.28313057	2.4813516	0.029030158	0.20153605	0.055033827	0.1716713	0.34096224	0.17167184	0.34095657	0.016219207	0.33485781	0.035813424	3.8891296	5.4229606	5.1539382	5.0522713	5.153942	5.0522795	4.318331	6.0720395	5.2805664	2.7260121	3.381361	5.0323056	3.3813607	5.0322886	3.732975	3.232041	-74.881323	R0:S0:1	-57.140828	uncorrelated	51514b8	 1.41e+02	 1.95e-03	 1.00e+06	2022-04-17@19:00
2x2_2C_8b_C2v_L	0	14	2.6298103	-0.008109151	-3.277252	-3.9855144	-0.099599976	-3.9855095	-0.099598811	0.13748061	-3.5964845	9.7724138	-6.0599087e-06	-1.3259984e-06	0.011325089	-0.15998233	0.011324665	-0.1599829	7.7258754e-07	-3.0055274e-06	-0.11084167	-1.084615	1.7070605	0.056906552	-1.7070601	-0.056904604	0.22480452	-2.2505395	2.0428	1	0.21414828	0.1339601	0.21688625	1.9441776	1.8159246	1.6078221	1.8159252	1.6078151	0.015725451	1.5828586	1.1100037	7.787442e-05	3.2235972e-06	0.096590484	1.0778362	0.096589098	1.0778574	-5.12053e-06	1.9048392e-06	1.0978713	0.71386187	-1.5195315	-0.59073082	1.5195261	0.59072123	-0.28008005	2.4687762	0.028972611	0.19949198	0.054531946	0.16976112	0.33272833	0.16976052	0.33273287	0.015807289	0.33238599	0.035576941	3.8696139	5.4225885	5.1527389	5.0525747	5.1527382	5.0525751	4.3156687	6.0530619	5.2784763	2.7300059	3.3884999	5.001979	3.3884886	5.0020005	3.7348686	3.2463413	-74.859603	R0:S0:1	-57.140828	uncorrelated	51514b8	 1.38e+02	 3.14e-03	 1.06e-02	2022-04-17@19:05
2x2_2C_8b_C2v_L	0	14	2.6298103	-0.0097192567	-3.2887891	-3.9901303	-0.098096297	-3.9901355	-0.098096134	0.13464918	-3.5919408	9.7724138	8.3640255e-07	-2.3963558e-07	0.011464749	-0.15826177	0.011463116	-0.15826169	-6.4749918e-09	5.5744925e-08	-0.11084672	-1.0865171	1.7084346	0.05861756	-1.7084356	-0.058618368	0.22233522	-2.2500192	2.0428	1	0.21414828	0.13392991	0.22359022	1.9438011	1.8155477	1.5971856	1.8155475	1.5971873	0.015759117	1.5805975	1.1097716	-1.153262e-05	1.4896727e-07	0.097360185	1.0843825	0.097361634	1.0843761	4.2990791e-07	-8.2503802e-08	1.1073979	0.71699122	-1.5205778	-0.60522538	1.5205799	0.60522871	-0.27859508	2.4733775	0.028966462	0.20455059	0.054864941	0.16997407	0.33767471	0.1699743	0.33767369	0.015837616	0.33354173	0.03563412	3.9081135	5.4141653	5.1459565	5.0738864	5.1459564	5.0738865	4.3137102	6.0620831	5.2797991	2.7317861	3.3793272	5.0300432	3.379331	5.030038	3.735222	3.2406897	-74.889077	R0:S0:1	-57.140828	uncorrelated	51514b8	 1.39e+02	 6.87e-04	 5.04e-03	2022-04-17@19:10
2x2_2C_8b_C2v_L	0	14	2.6597931	-0.0083761594	-3.2891258	-3.9901945	-0.096844745	-3.9901999	-0.096844874	0.13319519	-3.5921814	9.8017241	6.4959539e-07	-1.9970309e-08	0.011238584	-0.15885466	0.011238688	-0.15885462	7.2824359e-08	4.4212025e-08	-0.11097436	-1.0864716	1.7081851	0.05743613	-1.7081862	-0.05743593	0.2228342	-2.2496829	2.0376	1	0.21543448	0.13464477	0.21814831	1.9440807	1.8158935	1.5994142	1.8158935	1.5994147	0.015611711	1.5819222	1.1108933	-8.4903309e-06	-1.7238697e-07	0.09591035	1.0809238	0.095910399	1.080922	-8.1590847e-08	1.0664272e-07	1.0984295	0.71510458	-1.5197701	-0.59631009	1.519771	0.59630976	-0.27837595	2.4712572	0.029096941	0.1998891	0.054616357	0.16974345	0.33772024	0.1697435	0.33772008	0.015686749	0.33298334	0.035647861	3.8759939	5.4230826	5.1520596	5.0676115	5.152059	5.0676106	4.3107212	6.0586664	5.2842812	2.7270577	3.3804053	5.0170821	3.380407	5.0170815	3.7381429	3.240323	-75.014813	R0:S0:1	-57.135448	uncorrelated	51514b8	 1.37e+02	 1.85e-03	 1.00e+06	2022-04-17@19:15
2x2_2C_8b_C2v_L	0	14	2.6597931	-0.010021847	-3.2921464	-3.9914904	-0.096369306	-3.9914956	-0.096369963	0.13237308	-3.5934322	9.8017241	-9.0130548e-07	1.4982868e-07	0.011246723	-0.15699502	0.011247438	-0.15699482	-3.4993781e-09	4.0471941e-08	-0.11021355	-1.0846921	1.7046596	0.058288435	-1.7046602	-0.058289456	0.22064402	-2.2449486	2.0376	1	0.21543448	0.13432156	0.21105231	1.9448594	1.8185367	1.6152646	1.8185367	1.6152657	0.015153487	1.587842	1.111283	1.230748e-05	-5.6586521e-08	0.094030763	1.0579008	0.094030065	1.0578958	-4.7628041e-07	-2.3462574e-07	1.0827428	0.71123278	-1.5102845	-0.58789915	1.5102854	0.58790434	-0.27557143	2.4560274	0.029039405	0.19484126	0.05390134	0.16765339	0.32756805	0.16765344	0.32756717	0.015226208	0.32987505	0.0353748	3.836461	5.4266909	5.1539401	5.0570909	5.1539396	5.0570931	4.3083587	6.0352469	5.2822506	2.7304897	3.3920151	4.9738977	3.3920172	4.9738938	3.7402923	3.2575646	-74.998195	R0:S0:1	-57.135448	uncorrelated	51514b8	 1.34e+02	 3.20e-03	 1.07e-02	2022-04-17@19:20
2x2_2C_8b_C2v_L	0	14	2.6597931	-0.012434854	-3.3048358	-3.9958002	-0.095403493	-3.9957976	-0.095403147	0.1303752	-3.5921854	9.8017241	-3.5550414e-06	-7.2050587e-07	0.011488885	-0.15490651	0.011487226	-0.15490623	2.1870772e-06	8.1635894e-06	-0.110202	-1.0867735	1.7061748	0.060353069	-1.7061759	-0.060353023	0.21798252	-2.2456597	2.0376	1	0.21543448	0.13432316	0.21685193	1.9445604	1.8182821	1.6087681	1.8182814	1.6087703	0.015092162	1.5860793	1.1111384	6.0732303e-05	8.4203162e-06	0.094831665	1.0599991	0.094835032	1.0599996	-2.1999582e-05	-1.5887296e-05	1.091643	0.71371753	-1.5109116	-0.60187913	1.5109126	0.60188202	-0.27343664	2.4598764	0.029038988	0.19953914	0.054165371	0.16779308	0.32984676	0.16779363	0.32984463	0.015163003	0.33079044	0.035420341	3.8682414	5.4201394	5.1490785	5.0755082	5.1490818	5.0755091	4.3069284	6.0423248	5.2820416	2.7317251	3.3849722	4.9921674	3.3849688	4.9921618	3.7402014	3.2530352	-75.039038	R0:S0:1	-57.135448	uncorrelated	51514b8	 1.34e+02	 8.70e-04	 6.35e-03	2022-04-17@19:25
2x2_2C_8b_C2v_L	0	14	2.6897759	-0.011511964	-3.3063817	-3.9954387	-0.093731998	-3.9954363	-0.093733682	0.1283254	-3.5904639	9.8310345	-1.013775e-05	1.0149146e-06	0.01132034	-0.15513568	0.011319925	-0.15513683	1.1921417e-06	1.7004581e-06	-0.11039673	-1.0869133	1.7058813	0.059690607	-1.7058816	-0.059690762	0.21801911	-2.244847	2.0324	1	0.21672069	0.13502183	0.21397579	1.9446702	1.8184133	1.6069563	1.8184141	1.6069523	0.01500315	1.5865286	1.1121502	0.00015237454	3.0754796e-06	0.093645285	1.0595191	0.093645409	1.059541	-1.5802847e-05	-7.2287992e-06	1.08632	0.71307613	-1.5107301	-0.59786473	1.5107224	0.59786452	-0.27315319	2.4595701	0.029166199	0.19679237	0.05406897	0.16770433	0.33184599	0.16770362	0.33184685	0.015070075	0.33067134	0.035459267	3.8507325	5.4259079	5.1529085	5.0765406	5.1529097	5.0765464	4.3034575	6.0423495	5.2869379	2.7277143	3.3827535	4.9899069	3.3827377	4.9899205	3.7432313	3.2503917	-75.159949	R0:S0:1	-57.130069	uncorrelated	51514b8	 1.33e+02	 2.19e-03	 1.00e+06	2022-04-17@19:31
2x2_2C_8b_C2v_L	0	14	2.6897759	-0.012813679	-3.3127263	-3.9969601	-0.092977623	-3.9969458	-0.092975191	0.12695863	-3.5908352	9.8310345	-3.685551e-06	2.0834464e-07	0.011227657	-0.15352017	0.011227763	-0.15352132	1.3773846e-06	-6.4960193e-07	-0.10967057	-1.0855173	1.7023082	0.060046758	-1.7023048	-0.060045329	0.21593721	-2.2396419	2.0324	1	0.21672069	0.13467463	0.20734289	1.945438	1.821031	1.6211853	1.8210326	1.6211762	0.014600384	1.5924065	1.1125008	6.2728516e-05	2.3031196e-06	0.09159668	1.0381655	0.091594678	1.0382016	-1.151307e-05	-1.8273795e-06	1.0704519	0.70943831	-1.501328	-0.58758073	1.5013145	0.58756999	-0.27064073	2.4442466	0.029104437	0.19203019	0.053362584	0.16562022	0.32291562	0.16561869	0.32292058	0.014665499	0.32754183	0.03518634	3.8139909	5.4287013	5.1543218	5.0655943	5.1543226	5.0655994	4.3008139	6.0191546	5.2857629	2.7316022	3.3937487	4.9502358	3.3937264	4.9502614	3.7456554	3.2673569	-75.147425	R0:S0:1	-57.130069	uncorrelated	51514b8	 1.30e+02	 3.47e-03	 1.09e-02	2022-04-17@19:36
2x2_2C_8b_C2v_L	0	14	2.6897759	-0.01531318	-3.3266395	-4.0019071	-0.092299142	-4.0019009	-0.092299548	0.12495863	-3.5889382	9.8310345	-1.6795481e-05	1.4789698e-06	0.011384152	-0.15155794	0.011385298	-0.15155714	-1.4661407e-06	5.0804635e-06	-0.10969886	-1.0877646	1.7039968	0.061741719	-1.7039958	-0.061747047	0.21323597	-2.240132	2.0324	1	0.21672069	0.1346809	0.21248138	1.9451996	1.8209059	1.617186	1.820906	1.6171748	0.01449889	1.5910166	1.1124099	0.00031768267	1.1116468e-05	0.092332898	1.0382673	0.092328901	1.0382834	-1.520033e-05	-1.745372e-05	1.0783742	0.71152906	-1.501554	-0.59839746	1.5015471	0.59842776	-0.26828674	2.4472023	0.029104963	0.19641853	0.053573055	0.16567267	0.32388593	0.1656725	0.32389096	0.014563261	0.32827594	0.035218365	3.841101	5.4232456	5.1507631	5.0801861	5.1507657	5.0802184	4.2993385	6.0248988	5.2849458	2.7328378	3.3884299	4.9625545	3.3884079	4.9625695	3.745751	3.2640084	-75.192944	R0:S0:1	-57.130069	uncorrelated	51514b8	 1.30e+02	 6.67e-04	 6.13e-03	2022-04-17@19:41
2x2_2C_8b_C2v_L	0	14	2.7197586	-0.014645707	-3.3269411	-4.0017991	-0.090638672	-4.0017921	-0.090634752	0.12297026	-3.588813	9.8603448	-7.5807469e-06	1.1998865e-06	0.011256456	-0.1516094	0.011256131	-0.15161042	5.4204226e-06	-8.0848361e-07	-0.10983959	-1.0877471	1.7038039	0.061293478	-1.7038036	-0.06128782	0.21317363	-2.2398834	2.0272	1	0.2180069	0.13538987	0.20958028	1.9453011	1.8210221	1.615751	1.8210239	1.6157372	0.014399772	1.5914688	1.1134231	0.00014352785	3.8300909e-06	0.091178314	1.0370118	0.091176854	1.0370668	-4.0894848e-05	-6.5689507e-06	1.0730065	0.71083895	-1.5014394	-0.59527054	1.5014231	0.59524608	-0.26783987	2.4471022	0.029233818	0.19365941	0.05348426	0.16559713	0.32551319	0.16559541	0.32552166	0.014460608	0.32814619	0.035260369	3.8230941	5.429281	5.1547521	5.0818429	5.1547528	5.0818467	4.2961427	6.0248851	5.2898511	2.728551	3.3862573	4.9594885	3.3862249	4.9595313	3.7484901	3.2611134	-75.316455	R0:S0:1	-57.12469	uncorrelated	51514b8	 1.29e+02	 1.81e-03	 1.00e+06	2022-04-17@19:47
2x2_2C_8b_C2v_L	0	14	2.7197586	-0.016044613	-3.3279559	-4.0026019	-0.089812213	-4.0025948	-0.089812738	0.12156515	-3.5898916	9.8603448	-1.0132349e-05	5.6947981e-07	0.011174246	-0.14989572	0.011175033	-0.14989605	-1.4005721e-06	6.0958199e-07	-0.10913143	-1.0855218	1.7000485	0.061753022	-1.700047	-0.06175666	0.21105037	-2.234887	2.0272	1	0.2180069	0.13504069	0.20335629	1.9460131	1.8235682	1.6293092	1.8235689	1.6292989	0.014015757	1.5972073	1.1137463	0.00020708443	7.2823477e-06	0.08918512	1.0158819	0.089181271	1.0159035	-7.5995942e-06	-8.2924868e-06	1.0577028	0.70735866	-1.4922466	-0.58557015	1.4922375	0.58558763	-0.26527996	2.4322455	0.029171682	0.1891645	0.052828256	0.16356056	0.31684474	0.16355983	0.31684997	0.014075656	0.32504399	0.034993568	3.7884255	5.431767	5.1560195	5.0712903	5.1560212	5.0713138	4.2937736	6.0022207	5.2887632	2.7322449	3.3967666	4.9210646	3.3967457	4.9210826	3.7506218	3.2773394	-75.291422	R0:S0:1	-57.12469	uncorrelated	51514b8	 1.26e+02	 3.18e-03	 1.09e-02	2022-04-17@19:52
2x2_2C_8b_C2v_L	0	14	2.7197586	-0.018736193	-3.3410528	-4.005586	-0.089096578	-4.0055482	-0.089090873	0.11921544	-3.5866269	9.8603448	3.1366877e-06	-3.2710071e-07	0.01129311	-0.14784886	0.011292987	-0.14784794	2.9947322e-06	-9.3865127e-07	-0.10922794	-1.0876161	1.7012985	0.063395188	-1.7012914	-0.06339182	0.2081266	-2.2349055	2.0272	1	0.2180069	0.13503748	0.20929925	1.9457283	1.8234215	1.6249055	1.8234212	1.6249037	0.013926967	1.595717	1.1136432	-7.1105548e-05	-1.4952713e-06	0.089975237	1.0161277	0.08997547	1.0161343	-1.1224488e-05	2.9394879e-06	1.0667603	0.70978564	-1.4924517	-0.59642848	1.4924505	0.59641335	-0.26283032	2.4352886	0.029170486	0.19432808	0.053081405	0.16362811	0.31809407	0.16362834	0.31809649	0.013986959	0.32584313	0.035025446	3.8194071	5.4254676	5.1522637	5.0867815	5.1522674	5.0867762	4.2920671	6.0083762	5.2877107	2.7339062	3.3910185	4.9346971	3.3910155	4.9346986	3.7509177	3.2739205	-75.323108	R0:S0:1	-57.12469	uncorrelated	51514b8	 1.26e+02	 1.22e-03	 6.16e-03	2022-04-17@19:58
2x2_2C_8b_C2v_L	0	14	2.7197586	-0.01789638	-3.3439424	-4.0043866	-0.08715002	-4.0043749	-0.087155167	0.11666418	-3.5839553	9.8603448	-1.7041339e-05	1.0991256e-06	0.011088485	-0.14792676	0.011089248	-0.14792654	-1.0113863e-05	3.1857519e-06	-0.10937993	-1.0880029	1.7009008	0.062659086	-1.700898	-0.062665928	0.20783856	-2.2338529	2.0272	1	0.2180069	0.13497316	0.21339339	1.945475	1.8230949	1.6134801	1.8230956	1.6134632	0.014161408	1.594485	1.1134394	0.00038262154	1.2832451e-05	0.089599164	1.0264241	0.089594312	1.0264489	2.8441076e-05	-1.504042e-05	1.0712361	0.71196298	-1.4933442	-0.59961333	1.4933324	0.59965184	-0.2639121	2.4373991	0.029158546	0.1970851	0.053307383	0.16381971	0.32538046	0.16381899	0.32538821	0.014218241	0.3264947	0.035057826	3.8446903	5.4191481	5.1467362	5.1004177	5.1467388	5.1004608	4.2907642	6.0127841	5.2911181	2.7356574	3.383973	4.9639893	3.3839431	4.9640155	3.7517242	3.2706912	-75.309652	R0:S0:1	-57.12469	uncorrelated	51514b8	 1.27e+02	 6.94e-04	 3.19e-03	2022-04-17@20:03
2x2_2C_8b_C2v_L	0	14	2.7497414	-0.016200841	-3.3445129	-4.0041547	-0.086918717	-4.0041395	-0.086899608	0.1171941	-3.5848792	9.8896552	1.1107853e-05	3.327615e-07	0.010857862	-0.14867589	0.010855833	-0.14867299	1.152159e-05	-1.8055194e-06	-0.10912013	-1.0881343	1.7007626	0.06113981	-1.7007608	-0.061124963	0.20881957	-2.2338451	2.022	1	0.2192931	0.13574361	0.20262194	1.9460503	1.8236192	1.6251059	1.823619	1.6250974	0.013824232	1.5969746	1.1147338	-0.00021181094	-6.0086716e-06	0.088117571	1.0148946	0.08811948	1.0149197	-4.9168365e-05	6.502734e-06	1.0547111	0.70775753	-1.4922616	-0.58403786	1.4922625	0.58397684	-0.26297871	2.4332153	0.029299175	0.18816794	0.052793284	0.16350954	0.31988826	0.16350965	0.31989954	0.013879064	0.32527353	0.035041999	3.7828901	5.4347541	5.1582128	5.0802116	5.1582117	5.0801843	4.2888612	6.0053155	5.2942422	2.7290724	3.3917291	4.926346	3.3917283	4.9263738	3.7540846	3.273122	-75.440256	R0:S0:1	-57.11931	uncorrelated	51514b8	 1.24e+02	 2.02e-03	 1.00e+06	2022-04-17@20:08
2x2_2C_8b_C2v_L	0	14	2.7497414	-0.019768292	-3.34531	-4.0050099	-0.087287708	-4.0049964	-0.087304655	0.11640376	-3.5867197	9.8896552	-1.0639478e-05	-5.6516344e-07	0.011069644	-0.14615433	0.01107169	-0.1461553	-9.5665821e-06	1.0126627e-06	-0.10863817	-1.0858593	1.6972771	0.06314797	-1.6972728	-0.063165256	0.20574567	-2.2295222	2.022	1	0.2192931	0.13541812	0.19858255	1.9466437	1.8261517	1.6421682	1.8261517	1.6421667	0.013330042	1.6023547	1.1150525	0.00030758343	1.4197576e-05	0.08684476	0.98910694	0.086840098	0.98909233	2.2491611e-05	-1.4725299e-05	1.044076	0.70483733	-1.4830005	-0.57923929	1.4829937	0.57931511	-0.25898514	2.4195286	0.029241143	0.18597683	0.052245218	0.16148959	0.30774237	0.16148953	0.30773823	0.01338751	0.32232005	0.034787251	3.7568823	5.4365002	5.1605294	5.0698616	5.1605357	5.0699124	4.2868307	5.9844397	5.2900625	2.7328262	3.402587	4.8799305	3.4025713	4.8799103	3.7555842	3.2883881	-75.423358	R0:S0:1	-57.11931	uncorrelated	51514b8	 1.22e+02	 2.98e-03	 1.12e-02	2022-04-17@20:13
2x2_2C_8b_C2v_L	0	14	2.7497414	-0.023289753	-3.3558515	-4.0088329	-0.085921749	-4.0087633	-0.085899497	0.11278224	-3.5841948	9.8896552	-6.4175345e-06	2.8639542e-06	0.011199079	-0.14376677	0.011196665	-0.14376473	8.7050216e-06	3.5016652e-07	-0.10906003	-1.0873556	1.698605	0.065332478	-1.6985924	-0.065311933	0.20240034	-2.2297092	2.022	1	0.2192931	0.13538003	0.20934519	1.9460888	1.8258391	1.6312562	1.8258443	1.6311964	0.013394727	1.5998924	1.1148003	0.00044347634	2.4023594e-05	0.087913655	0.99422038	0.087907555	0.99440613	-0.00010459929	-3.1407521e-05	1.0597544	0.70917053	-1.4835496	-0.59645555	1.4834917	0.5963928	-0.25697263	2.4245593	0.029233131	0.19521444	0.052742171	0.16164431	0.31276298	0.16163916	0.31280281	0.013453716	0.32365549	0.034848202	3.8128216	5.4249544	5.1529441	5.0970164	5.1529545	5.0970705	4.2846196	5.9939969	5.2896976	2.7358487	3.391829	4.9110954	3.3917072	4.9112404	3.7560442	3.2823025	-75.452726	R0:S0:1	-57.11931	uncorrelated	51514b8	 1.22e+02	 1.51e-03	 6.92e-03	2022-04-17@20:19
2x2_2C_8b_C2v_L	0	14	2.7497414	-0.021063291	-3.3583482	-4.0082375	-0.083244917	-4.0081614	-0.08324221	0.10953224	-3.5810862	9.8896552	-2.8435409e-05	3.316882e-06	0.010825744	-0.14425376	0.010828106	-0.14425578	3.4843683e-06	5.2429543e-06	-0.1089529	-1.0878008	1.6981733	0.0637338	-1.698159	-0.063738703	0.20243831	-2.2282653	2.022	1	0.2192931	0.13530287	0.21125126	1.9459401	1.8255363	1.6182926	1.8255437	1.6182128	0.013647792	1.5990058	1.1146132	0.0010662018	5.5791541e-05	0.087046328	1.0063953	0.087027411	1.0066186	-0.00014347047	-7.0149308e-05	1.0602344	0.71075267	-1.4844977	-0.59663572	1.4844107	0.59668258	-0.25852937	2.425696	0.029219084	0.19574987	0.052872696	0.16181323	0.32167041	0.16180588	0.32171279	0.013701047	0.32412743	0.034869391	3.8289695	5.4197846	5.1470367	5.1099891	5.1470563	5.1101341	4.2830684	5.9968227	5.2950249	2.7372603	3.3850542	4.9437567	3.3848682	4.9439141	3.7572015	3.2797853	-75.435913	R0:S0:1	-57.11931	uncorrelated	51514b8	 1.22e+02	 9.18e-04	 5.29e-03	2022-04-17@20:24
2x2_2C_8b_C2v_L	0	14	2.7797241	-0.019084627	-3.359665	-4.0078316	-0.083564691	-4.0077313	-0.08353535	0.110932	-3.5827711	9.9189655	-4.716465e-06	4.0337908e-07	0.010637834	-0.14517058	0.010637142	-0.14517149	1.6668206e-05	-6.6588093e-07	-0.10853228	-1.0881038	1.6980857	0.062067752	-1.6980698	-0.062049468	0.20365934	-2.2285395	2.0168	1	0.22057931	0.13610365	0.19772577	1.9466694	1.8261421	1.6344432	1.8261465	1.6343925	0.013215364	1.602052	1.1159921	0.00021308888	1.7861557e-05	0.08548856	0.99127156	0.085480483	0.99143759	-0.00012175997	-1.8837852e-05	1.0400231	0.70534211	-1.4832944	-0.57773562	1.4832457	0.57765814	-0.25720825	2.4206027	0.029365314	0.18454702	0.052219668	0.16146866	0.31345136	0.16146439	0.31348807	0.013266648	0.32258229	0.034840649	3.7522679	5.438802	5.1611925	5.0821556	5.1612045	5.0821814	4.2818239	5.9874844	5.2974824	2.7296227	3.3960891	4.8937566	3.395988	4.8938768	3.7591354	3.2835844	-75.571363	R0:S0:1	-57.113931	uncorrelated	51514b8	 1.20e+02	 4.16e-03	 1.00e+06	2022-04-17@20:29
2x2_2C_8b_C2v_L	0	14	2.7797241	-0.02409415	-3.3755973	-4.0132171	-0.084628239	-4.0132111	-0.084640223	0.110537	-3.5843671	9.9189655	7.9029699e-05	-1.8285078e-05	0.010966553	-0.14241789	0.010970223	-0.14241819	-5.9700837e-06	-2.5523868e-06	-0.10850575	-1.08782	1.6955662	0.064782877	-1.6955639	-0.0648057	0.20030607	-2.2242857	2.0168	1	0.22057931	0.13575578	0.19717126	1.9471592	1.828781	1.6512525	1.8287113	1.6519781	0.012732189	1.6070463	1.1162453	-0.0088399798	-0.00052187624	0.08451779	0.96578095	0.084652715	0.96377032	0.0012422501	0.00063240729	1.0345258	0.70351268	-1.4733019	-0.57555887	1.4740591	0.57525103	-0.25289961	2.4075954	0.029303098	0.18590196	0.0517645	0.15934041	0.30076137	0.15940923	0.3003117	0.012789778	0.31980412	0.034596044	3.7417473	5.4378474	5.1630117	5.0741927	5.1628789	5.0727909	4.2792766	5.968431	5.2912721	2.7347984	3.4050098	4.8482794	3.4066356	4.8467939	3.7609362	3.2979411	-75.608288	R0:S0:1	-57.113931	uncorrelated	51514b8	 1.17e+02	 2.19e-03	 1.19e-02	2022-04-17@20:34
2x2_2C_8b_C2v_L	0	14	2.7797241	-0.027916342	-3.3788798	-4.0135291	-0.082500584	-4.014233	-0.082812952	0.10544488	-3.5802464	9.9189655	-3.3634111e-06	-1.5338818e-05	0.011024226	-0.13987644	0.01102031	-0.13984858	-0.00023379493	2.291641e-05	-0.10902681	-1.0882202	1.6961528	0.066663317	-1.6962458	-0.066887502	0.1964305	-2.2238929	2.0168	1	0.22057931	0.13662441	1.9742728	1.9602465	1.8342195	1.7724393	1.8341126	1.7734487	0.038442351	1.6532191	1.1219126	-0.0061339392	-0.000463281	0.063590003	0.83786973	0.063711895	0.83460344	0.0017766145	0.00049767894	0.16546273	0.61757486	-1.467333	-0.46631378	1.4684113	0.46656152	-0.28360268	2.2989889	0.029473692	0.029158423	0.039815447	0.15551242	0.22080628	0.15561669	0.21995635	0.045073699	0.29237112	0.033221235	5.4923753	5.6387299	5.2179065	4.786727	5.217712	4.7845057	4.3259596	5.7888538	2.6606	2.6886704	3.5196983	4.4788417	3.5219234	4.4765474	3.847943	3.3875719	-75.605577	R0:S0:1	-57.113931	uncorrelated	51514b8	 9.20e+01	 1.14e-01	 7.21e-03	2022-04-17@20:39
2x2_2C_8b_C2v_L	0	14	2.7797241	-0.15163785	-3.8771228	-4.1382758	-0.12008557	-4.1397627	-0.12043486	0.12620831	-3.5615052	9.9189655	0.00024573407	-0.00011263466	0.018292493	-0.10985985	0.018274048	-0.10987477	-0.00017218883	3.2681712e-05	-0.16734866	-1.13434	1.7158351	0.11942754	-1.7160971	-0.11937832	0.17243597	-2.2280111	2.0168	1	0.22057931	0.13677997	1.9880235	1.9629514	1.8364615	1.7451795	1.8363997	1.7460162	0.017976313	1.6472381	1.1218914	-0.0030628471	-7.4820898e-05	0.099339731	0.78122184	0.099463817	0.77957821	0.00092527818	0.00024982755	0.181626	0.60304265	-1.4607543	-0.65711866	1.4614334	0.65637755	-0.23515313	2.3127779	0.029503961	0.012345255	0.037113145	0.15352511	0.24404954	0.15358547	0.2432692	0.019289828	0.2965088	0.033324859	5.477622	5.6328559	5.1901268	4.8708175	5.1899244	4.8692821	4.2821889	5.8150923	2.6051011	2.6811139	3.5109391	4.5034627	3.5123402	4.502328	3.8121093	3.3761886	-77.497617	R0:S0:1	-57.113931	uncorrelated	51514b8	 9.80e+01	 8.20e-02	 9.95e-02	2022-04-17@20:44
