Number of OpenMP threads = 4
!!!!!!!!!!!!!!!!!!!!!!!!!!!!! - Fading to Sr2CuO2Cl2 - !!!!!!!!!!!!!!!!!!!!!!!!!!!!!
reading data file /home/theod/code_pyqcm/simulations/cdmft_max_supra_sid.tsv, line 1
111 columns read
----->  D  =  0.0
----->  U  =  14.0
----->  e  =  2.3
----->  eb1_1  =  -0.006655534
----->  eb2_1  =  -3.3502828
----->  eb3_1  =  -4.1133163
----->  eb4_1  =  -0.10235806
----->  eb5_1  =  -4.113222
----->  eb6_1  =  -0.1023468
----->  eb7_1  =  0.14108001
----->  eb8_1  =  -3.7537133
----->  mu  =  9.68
----->  sb1_1  =  -0.0001012231
----->  sb2_1  =  7.5002141e-06
----->  sb3_1  =  0.011771903
----->  sb4_1  =  -0.16264369
----->  sb5_1  =  0.011773954
----->  sb6_1  =  -0.16264057
----->  sb7_1  =  1.0013529e-05
----->  sb8_1  =  -2.0059213e-06
----->  tb1_1  =  -0.11240159
----->  tb2_1  =  -1.1061747
----->  tb3_1  =  1.7476608
----->  tb4_1  =  0.057892245
----->  tb5_1  =  -1.7476438
----->  tb6_1  =  -0.057886658
----->  tb7_1  =  0.22749261
----->  tb8_1  =  -2.3061557
----->  tpd  =  2.1
----->  tpp  =  1.0
----->  tppp  =  0.2

******************************* CDMFT procedure *******************************

minimization method =  CG
mixing state =  1
frequency grid type =  sharp
fictitious inverse temperature =  50
frequency cutoff =  2.0
--------------------------------------------------------------------------------

CDMFT iteration 1, distance =  1.66e+02, diff param =  6.25e-02
137 minimization steps, time(MIN)/time(ED)=0.00348
sb1_1     =  0.0000	sb2_1     = -0.0000	sb3_1     =  0.0101	sb4_1     = -0.1828	sb5_1     =  0.0101	
sb6_1     = -0.1828	sb7_1     =  0.0000	sb8_1     =  0.0000	eb1_1     =  0.0073	eb2_1     = -3.2367	
eb3_1     = -3.9549	eb4_1     = -0.1166	eb5_1     = -3.9549	eb6_1     = -0.1166	eb7_1     =  0.1568	
eb8_1     = -3.5868	tb1_1     = -0.1179	tb2_1     = -1.1031	tb3_1     =  1.7425	tb4_1     =  0.0430	
tb5_1     = -1.7425	tb6_1     = -0.0430	tb7_1     =  0.2523	tb8_1     = -2.3030	

CDMFT iteration 2, distance =  1.92e+02, diff param =  1.08e-02, diff hybrid =  9.64e-02
41 minimization steps, time(MIN)/time(ED)=0.00247
sb1_1     =  0.0001	sb2_1     = -0.0000	sb3_1     =  0.0065	sb4_1     = -0.1958	sb5_1     =  0.0065	
sb6_1     = -0.1958	sb7_1     = -0.0000	sb8_1     = -0.0000	eb1_1     =  0.0128	eb2_1     = -3.2232	
eb3_1     = -3.9499	eb4_1     = -0.1355	eb5_1     = -3.9499	eb6_1     = -0.1355	eb7_1     =  0.1720	
eb8_1     = -3.5948	tb1_1     = -0.1194	tb2_1     = -1.0960	tb3_1     =  1.7353	tb4_1     =  0.0236	
tb5_1     = -1.7353	tb6_1     = -0.0236	tb7_1     =  0.2660	tb8_1     = -2.2953	

CDMFT iteration 3, distance =  1.79e+02, diff param =  1.55e-02, diff hybrid =  4.46e-02
62 minimization steps, time(MIN)/time(ED)=0.00219
sb1_1     =  0.0000	sb2_1     = -0.0000	sb3_1     =  0.0079	sb4_1     = -0.1889	sb5_1     =  0.0079	
sb6_1     = -0.1889	sb7_1     =  0.0000	sb8_1     =  0.0000	eb1_1     =  0.0052	eb2_1     = -3.1555	
eb3_1     = -3.9319	eb4_1     = -0.1315	eb5_1     = -3.9319	eb6_1     = -0.1315	eb7_1     =  0.1733	
eb8_1     = -3.6027	tb1_1     = -0.1181	tb2_1     = -1.0886	tb3_1     =  1.7361	tb4_1     =  0.0302	
tb5_1     = -1.7361	tb6_1     = -0.0302	tb7_1     =  0.2589	tb8_1     = -2.3032	

CDMFT iteration 4, distance =  1.82e+02, diff param =  2.09e-03, diff hybrid =  2.63e-02
18 minimization steps, time(MIN)/time(ED)=0.00181
sb1_1     =  0.0000	sb2_1     =  0.0000	sb3_1     =  0.0079	sb4_1     = -0.1902	sb5_1     =  0.0079	
sb6_1     = -0.1902	sb7_1     = -0.0000	sb8_1     = -0.0000	eb1_1     =  0.0075	eb2_1     = -3.1567	
eb3_1     = -3.9320	eb4_1     = -0.1297	eb5_1     = -3.9320	eb6_1     = -0.1297	eb7_1     =  0.1702	
eb8_1     = -3.5954	tb1_1     = -0.1186	tb2_1     = -1.0880	tb3_1     =  1.7345	tb4_1     =  0.0298	
tb5_1     = -1.7345	tb6_1     = -0.0298	tb7_1     =  0.2603	tb8_1     = -2.2992	

CDMFT iteration 5, distance =  1.84e+02, diff param =  1.85e-03, diff hybrid =  8.61e-03
31 minimization steps, time(MIN)/time(ED)=0.00161
sb1_1     = -0.0001	sb2_1     = -0.0000	sb3_1     =  0.0074	sb4_1     = -0.1912	sb5_1     =  0.0074	
sb6_1     = -0.1912	sb7_1     =  0.0000	sb8_1     =  0.0000	eb1_1     =  0.0092	eb2_1     = -3.1618	
eb3_1     = -3.9350	eb4_1     = -0.1318	eb5_1     = -3.9349	eb6_1     = -0.1318	eb7_1     =  0.1723	
eb8_1     = -3.5990	tb1_1     = -0.1185	tb2_1     = -1.0885	tb3_1     =  1.7347	tb4_1     =  0.0280	
tb5_1     = -1.7347	tb6_1     = -0.0280	tb7_1     =  0.2615	tb8_1     = -2.2998	

CDMFT iteration 6, distance =  1.82e+02, diff param =  8.57e-04, diff hybrid =  4.00e-03
9 minimization steps, time(MIN)/time(ED)=0.00140
====================== CDMFT converged on the parameters ======================
sb1_1     = -0.0001	sb2_1     = -0.0000	sb3_1     =  0.0080	sb4_1     = -0.1902	sb5_1     =  0.0080	
sb6_1     = -0.1902	sb7_1     = -0.0000	sb8_1     =  0.0000	eb1_1     =  0.0074	eb2_1     = -3.1617	
eb3_1     = -3.9349	eb4_1     = -0.1314	eb5_1     = -3.9348	eb6_1     = -0.1314	eb7_1     =  0.1722	
eb8_1     = -3.5989	tb1_1     = -0.1185	tb2_1     = -1.0890	tb3_1     =  1.7355	tb4_1     =  0.0301	
tb5_1     = -1.7355	tb6_1     = -0.0301	tb7_1     =  0.2603	tb8_1     = -2.3007	
   <D> = 0.011014
   <e> = 1.251984
   <mu> = 1.607526
   <tpd> = -0.614890
   <tpp> = -0.203050
   <tppp> = 0.084281
************************* CDMFT completed successfully *************************

******************************* CDMFT procedure *******************************

minimization method =  CG
mixing state =  1
frequency grid type =  sharp
fictitious inverse temperature =  50
frequency cutoff =  2.0
--------------------------------------------------------------------------------

CDMFT iteration 1, distance =  1.80e+02, diff param =  2.04e-03
17 minimization steps, time(MIN)/time(ED)=0.00051
sb1_1     = -0.0001	sb2_1     = -0.0000	sb3_1     =  0.0083	sb4_1     = -0.1885	sb5_1     =  0.0083	
sb6_1     = -0.1885	sb7_1     =  0.0000	sb8_1     = -0.0000	eb1_1     =  0.0067	eb2_1     = -3.1622	
eb3_1     = -3.9358	eb4_1     = -0.1287	eb5_1     = -3.9358	eb6_1     = -0.1286	eb7_1     =  0.1698	
eb8_1     = -3.5995	tb1_1     = -0.1180	tb2_1     = -1.0869	tb3_1     =  1.7317	tb4_1     =  0.0319	
tb5_1     = -1.7317	tb6_1     = -0.0319	tb7_1     =  0.2585	tb8_1     = -2.2956	

CDMFT iteration 2, distance =  1.79e+02, diff param =  4.83e-04, diff hybrid =  1.10e-02
10 minimization steps, time(MIN)/time(ED)=0.00041
====================== CDMFT converged on the parameters ======================
sb1_1     = -0.0000	sb2_1     = -0.0000	sb3_1     =  0.0083	sb4_1     = -0.1878	sb5_1     =  0.0083	
sb6_1     = -0.1878	sb7_1     = -0.0000	sb8_1     =  0.0000	eb1_1     =  0.0074	eb2_1     = -3.1628	
eb3_1     = -3.9362	eb4_1     = -0.1277	eb5_1     = -3.9362	eb6_1     = -0.1277	eb7_1     =  0.1690	
eb8_1     = -3.5991	tb1_1     = -0.1178	tb2_1     = -1.0871	tb3_1     =  1.7319	tb4_1     =  0.0324	
tb5_1     = -1.7319	tb6_1     = -0.0324	tb7_1     =  0.2579	tb8_1     = -2.2959	
   <D> = 0.011851
   <e> = 1.252668
   <mu> = 1.608876
   <tpd> = -0.611815
   <tpp> = -0.201607
   <tppp> = 0.083638
************************* CDMFT completed successfully *************************

******************************* CDMFT procedure *******************************

minimization method =  CG
mixing state =  1
frequency grid type =  sharp
fictitious inverse temperature =  50
frequency cutoff =  2.0
--------------------------------------------------------------------------------

CDMFT iteration 1, distance =  1.76e+02, diff param =  2.75e-03
42 minimization steps, time(MIN)/time(ED)=0.00106
sb1_1     = -0.0000	sb2_1     = -0.0000	sb3_1     =  0.0088	sb4_1     = -0.1860	sb5_1     =  0.0088	
sb6_1     = -0.1860	sb7_1     = -0.0000	sb8_1     =  0.0000	eb1_1     =  0.0061	eb2_1     = -3.1713	
eb3_1     = -3.9399	eb4_1     = -0.1259	eb5_1     = -3.9400	eb6_1     = -0.1259	eb7_1     =  0.1672	
eb8_1     = -3.5981	tb1_1     = -0.1173	tb2_1     = -1.0864	tb3_1     =  1.7290	tb4_1     =  0.0347	
tb5_1     = -1.7290	tb6_1     = -0.0347	tb7_1     =  0.2557	tb8_1     = -2.2907	

CDMFT iteration 2, distance =  1.75e+02, diff param =  1.17e-03, diff hybrid =  1.03e-02
23 minimization steps, time(MIN)/time(ED)=0.00083
sb1_1     = -0.0000	sb2_1     = -0.0000	sb3_1     =  0.0090	sb4_1     = -0.1852	sb5_1     =  0.0090	
sb6_1     = -0.1852	sb7_1     = -0.0000	sb8_1     = -0.0000	eb1_1     =  0.0063	eb2_1     = -3.1751	
eb3_1     = -3.9419	eb4_1     = -0.1248	eb5_1     = -3.9419	eb6_1     = -0.1248	eb7_1     =  0.1662	
eb8_1     = -3.5991	tb1_1     = -0.1172	tb2_1     = -1.0871	tb3_1     =  1.7296	tb4_1     =  0.0359	
tb5_1     = -1.7296	tb6_1     = -0.0359	tb7_1     =  0.2550	tb8_1     = -2.2916	

CDMFT iteration 3, distance =  1.75e+02, diff param =  1.96e-04, diff hybrid =  2.48e-03
5 minimization steps, time(MIN)/time(ED)=0.00061
====================== CDMFT converged on the parameters ======================
sb1_1     = -0.0000	sb2_1     = -0.0000	sb3_1     =  0.0089	sb4_1     = -0.1855	sb5_1     =  0.0089	
sb6_1     = -0.1855	sb7_1     =  0.0000	sb8_1     =  0.0000	eb1_1     =  0.0068	eb2_1     = -3.1752	
eb3_1     = -3.9420	eb4_1     = -0.1248	eb5_1     = -3.9420	eb6_1     = -0.1248	eb7_1     =  0.1663	
eb8_1     = -3.5991	tb1_1     = -0.1173	tb2_1     = -1.0870	tb3_1     =  1.7294	tb4_1     =  0.0358	
tb5_1     = -1.7294	tb6_1     = -0.0358	tb7_1     =  0.2554	tb8_1     = -2.2913	
   <D> = 0.012689
   <e> = 1.253474
   <mu> = 1.610426
   <tpd> = -0.608288
   <tpp> = -0.199840
   <tppp> = 0.082855
************************* CDMFT completed successfully *************************

******************************* CDMFT procedure *******************************

minimization method =  CG
mixing state =  1
frequency grid type =  sharp
fictitious inverse temperature =  50
frequency cutoff =  2.0
--------------------------------------------------------------------------------

CDMFT iteration 1, distance =  1.72e+02, diff param =  2.16e-03
33 minimization steps, time(MIN)/time(ED)=0.00085
sb1_1     = -0.0000	sb2_1     =  0.0000	sb3_1     =  0.0093	sb4_1     = -0.1835	sb5_1     =  0.0093	
sb6_1     = -0.1835	sb7_1     =  0.0000	sb8_1     =  0.0000	eb1_1     =  0.0053	eb2_1     = -3.1799	
eb3_1     = -3.9448	eb4_1     = -0.1231	eb5_1     = -3.9448	eb6_1     = -0.1231	eb7_1     =  0.1647	
eb8_1     = -3.5992	tb1_1     = -0.1166	tb2_1     = -1.0857	tb3_1     =  1.7264	tb4_1     =  0.0379	
tb5_1     = -1.7264	tb6_1     = -0.0379	tb7_1     =  0.2530	tb8_1     = -2.2866	

CDMFT iteration 2, distance =  1.71e+02, diff param =  2.47e-03, diff hybrid =  1.01e-02
42 minimization steps, time(MIN)/time(ED)=0.00095
sb1_1     =  0.0000	sb2_1     = -0.0000	sb3_1     =  0.0096	sb4_1     = -0.1826	sb5_1     =  0.0096	
sb6_1     = -0.1826	sb7_1     = -0.0000	sb8_1     = -0.0000	eb1_1     =  0.0051	eb2_1     = -3.1894	
eb3_1     = -3.9492	eb4_1     = -0.1219	eb5_1     = -3.9492	eb6_1     = -0.1219	eb7_1     =  0.1635	
eb8_1     = -3.5994	tb1_1     = -0.1165	tb2_1     = -1.0874	tb3_1     =  1.7276	tb4_1     =  0.0392	
tb5_1     = -1.7276	tb6_1     = -0.0392	tb7_1     =  0.2520	tb8_1     = -2.2873	

CDMFT iteration 3, distance =  1.71e+02, diff param =  2.55e-04, diff hybrid =  3.00e-03
5 minimization steps, time(MIN)/time(ED)=0.00069
====================== CDMFT converged on the parameters ======================
sb1_1     =  0.0000	sb2_1     =  0.0000	sb3_1     =  0.0095	sb4_1     = -0.1830	sb5_1     =  0.0095	
sb6_1     = -0.1830	sb7_1     =  0.0000	sb8_1     =  0.0000	eb1_1     =  0.0059	eb2_1     = -3.1895	
eb3_1     = -3.9493	eb4_1     = -0.1218	eb5_1     = -3.9493	eb6_1     = -0.1218	eb7_1     =  0.1634	
eb8_1     = -3.5994	tb1_1     = -0.1166	tb2_1     = -1.0873	tb3_1     =  1.7274	tb4_1     =  0.0389	
tb5_1     = -1.7274	tb6_1     = -0.0389	tb7_1     =  0.2525	tb8_1     = -2.2870	
   <D> = 0.013263
   <e> = 1.254373
   <mu> = 1.612058
   <tpd> = -0.604451
   <tpp> = -0.197801
   <tppp> = 0.081975
************************* CDMFT completed successfully *************************

******************************* CDMFT procedure *******************************

minimization method =  CG
mixing state =  1
frequency grid type =  sharp
fictitious inverse temperature =  50
frequency cutoff =  2.0
--------------------------------------------------------------------------------

CDMFT iteration 1, distance =  1.69e+02, diff param =  1.90e-03
21 minimization steps, time(MIN)/time(ED)=0.00058
sb1_1     =  0.0000	sb2_1     = -0.0000	sb3_1     =  0.0098	sb4_1     = -0.1809	sb5_1     =  0.0098	
sb6_1     = -0.1809	sb7_1     = -0.0000	sb8_1     =  0.0000	eb1_1     =  0.0043	eb2_1     = -3.1915	
eb3_1     = -3.9508	eb4_1     = -0.1202	eb5_1     = -3.9508	eb6_1     = -0.1202	eb7_1     =  0.1619	
eb8_1     = -3.6000	tb1_1     = -0.1159	tb2_1     = -1.0856	tb3_1     =  1.7241	tb4_1     =  0.0408	
tb5_1     = -1.7241	tb6_1     = -0.0408	tb7_1     =  0.2501	tb8_1     = -2.2824	

CDMFT iteration 2, distance =  1.67e+02, diff param =  2.19e-03, diff hybrid =  1.01e-02
25 minimization steps, time(MIN)/time(ED)=0.00064
sb1_1     = -0.0000	sb2_1     = -0.0000	sb3_1     =  0.0100	sb4_1     = -0.1799	sb5_1     =  0.0100	
sb6_1     = -0.1799	sb7_1     = -0.0000	sb8_1     =  0.0000	eb1_1     =  0.0041	eb2_1     = -3.1997	
eb3_1     = -3.9547	eb4_1     = -0.1190	eb5_1     = -3.9547	eb6_1     = -0.1190	eb7_1     =  0.1605	
eb8_1     = -3.5990	tb1_1     = -0.1158	tb2_1     = -1.0871	tb3_1     =  1.7253	tb4_1     =  0.0421	
tb5_1     = -1.7253	tb6_1     = -0.0421	tb7_1     =  0.2489	tb8_1     = -2.2828	

CDMFT iteration 3, distance =  1.67e+02, diff param =  2.54e-04, diff hybrid =  3.18e-03
5 minimization steps, time(MIN)/time(ED)=0.00049
====================== CDMFT converged on the parameters ======================
sb1_1     = -0.0000	sb2_1     =  0.0000	sb3_1     =  0.0099	sb4_1     = -0.1803	sb5_1     =  0.0099	
sb6_1     = -0.1803	sb7_1     =  0.0000	sb8_1     = -0.0000	eb1_1     =  0.0047	eb2_1     = -3.1998	
eb3_1     = -3.9548	eb4_1     = -0.1189	eb5_1     = -3.9548	eb6_1     = -0.1189	eb7_1     =  0.1603	
eb8_1     = -3.5991	tb1_1     = -0.1159	tb2_1     = -1.0870	tb3_1     =  1.7250	tb4_1     =  0.0418	
tb5_1     = -1.7250	tb6_1     = -0.0418	tb7_1     =  0.2494	tb8_1     = -2.2825	
   <D> = 0.013700
   <e> = 1.255293
   <mu> = 1.613698
   <tpd> = -0.600562
   <tpp> = -0.195682
   <tppp> = 0.081077
************************* CDMFT completed successfully *************************

******************************* CDMFT procedure *******************************

minimization method =  CG
mixing state =  1
frequency grid type =  sharp
fictitious inverse temperature =  50
frequency cutoff =  2.0
--------------------------------------------------------------------------------

CDMFT iteration 1, distance =  1.65e+02, diff param =  2.72e-03
42 minimization steps, time(MIN)/time(ED)=0.00099
sb1_1     =  0.0000	sb2_1     = -0.0000	sb3_1     =  0.0102	sb4_1     = -0.1783	sb5_1     =  0.0102	
sb6_1     = -0.1783	sb7_1     = -0.0000	sb8_1     = -0.0000	eb1_1     =  0.0032	eb2_1     = -3.2091	
eb3_1     = -3.9581	eb4_1     = -0.1174	eb5_1     = -3.9581	eb6_1     = -0.1174	eb7_1     =  0.1589	
eb8_1     = -3.5994	tb1_1     = -0.1153	tb2_1     = -1.0864	tb3_1     =  1.7221	tb4_1     =  0.0436	
tb5_1     = -1.7221	tb6_1     = -0.0436	tb7_1     =  0.2470	tb8_1     = -2.2778	

CDMFT iteration 2, distance =  1.63e+02, diff param =  7.93e-04, diff hybrid =  1.02e-02
9 minimization steps, time(MIN)/time(ED)=0.00060
====================== CDMFT converged on the parameters ======================
sb1_1     =  0.0000	sb2_1     =  0.0000	sb3_1     =  0.0104	sb4_1     = -0.1771	sb5_1     =  0.0104	
sb6_1     = -0.1771	sb7_1     =  0.0000	sb8_1     = -0.0000	eb1_1     =  0.0027	eb2_1     = -3.2094	
eb3_1     = -3.9583	eb4_1     = -0.1161	eb5_1     = -3.9583	eb6_1     = -0.1161	eb7_1     =  0.1575	
eb8_1     = -3.5994	tb1_1     = -0.1151	tb2_1     = -1.0867	tb3_1     =  1.7225	tb4_1     =  0.0449	
tb5_1     = -1.7225	tb6_1     = -0.0449	tb7_1     =  0.2456	tb8_1     = -2.2786	
   <D> = 0.013872
   <e> = 1.256369
   <mu> = 1.615411
   <tpd> = -0.596243
   <tpp> = -0.193050
   <tppp> = 0.080002
************************* CDMFT completed successfully *************************

******************************* CDMFT procedure *******************************

minimization method =  CG
mixing state =  1
frequency grid type =  sharp
fictitious inverse temperature =  50
frequency cutoff =  2.0
--------------------------------------------------------------------------------

CDMFT iteration 1, distance =  1.61e+02, diff param =  2.71e-03
43 minimization steps, time(MIN)/time(ED)=0.00092
sb1_1     =  0.0000	sb2_1     = -0.0000	sb3_1     =  0.0106	sb4_1     = -0.1753	sb5_1     =  0.0106	
sb6_1     = -0.1753	sb7_1     = -0.0000	sb8_1     =  0.0000	eb1_1     =  0.0017	eb2_1     = -3.2178	
eb3_1     = -3.9619	eb4_1     = -0.1140	eb5_1     = -3.9619	eb6_1     = -0.1140	eb7_1     =  0.1554	
eb8_1     = -3.5990	tb1_1     = -0.1146	tb2_1     = -1.0857	tb3_1     =  1.7193	tb4_1     =  0.0464	
tb5_1     = -1.7193	tb6_1     = -0.0464	tb7_1     =  0.2436	tb8_1     = -2.2732	

CDMFT iteration 2, distance =  1.59e+02, diff param =  6.31e-04, diff hybrid =  1.07e-02
12 minimization steps, time(MIN)/time(ED)=0.00059
====================== CDMFT converged on the parameters ======================
sb1_1     =  0.0000	sb2_1     =  0.0000	sb3_1     =  0.0106	sb4_1     = -0.1743	sb5_1     =  0.0106	
sb6_1     = -0.1743	sb7_1     =  0.0000	sb8_1     =  0.0000	eb1_1     =  0.0016	eb2_1     = -3.2184	
eb3_1     = -3.9622	eb4_1     = -0.1129	eb5_1     = -3.9622	eb6_1     = -0.1129	eb7_1     =  0.1543	
eb8_1     = -3.5991	tb1_1     = -0.1143	tb2_1     = -1.0861	tb3_1     =  1.7198	tb4_1     =  0.0471	
tb5_1     = -1.7198	tb6_1     = -0.0471	tb7_1     =  0.2425	tb8_1     = -2.2739	
   <D> = 0.014159
   <e> = 1.257220
   <mu> = 1.616931
   <tpd> = -0.592625
   <tpp> = -0.191076
   <tppp> = 0.079174
************************* CDMFT completed successfully *************************

******************************* CDMFT procedure *******************************

minimization method =  CG
mixing state =  1
frequency grid type =  sharp
fictitious inverse temperature =  50
frequency cutoff =  2.0
--------------------------------------------------------------------------------

CDMFT iteration 1, distance =  1.57e+02, diff param =  3.34e-03
48 minimization steps, time(MIN)/time(ED)=0.00107
sb1_1     = -0.0000	sb2_1     =  0.0000	sb3_1     =  0.0108	sb4_1     = -0.1725	sb5_1     =  0.0108	
sb6_1     = -0.1725	sb7_1     = -0.0000	sb8_1     = -0.0000	eb1_1     =  0.0001	eb2_1     = -3.2303	
eb3_1     = -3.9675	eb4_1     = -0.1113	eb5_1     = -3.9675	eb6_1     = -0.1113	eb7_1     =  0.1523	
eb8_1     = -3.5987	tb1_1     = -0.1138	tb2_1     = -1.0857	tb3_1     =  1.7170	tb4_1     =  0.0487	
tb5_1     = -1.7170	tb6_1     = -0.0487	tb7_1     =  0.2402	tb8_1     = -2.2688	

CDMFT iteration 2, distance =  1.55e+02, diff param =  7.07e-04, diff hybrid =  1.04e-02
9 minimization steps, time(MIN)/time(ED)=0.00061
====================== CDMFT converged on the parameters ======================
sb1_1     =  0.0000	sb2_1     =  0.0000	sb3_1     =  0.0109	sb4_1     = -0.1714	sb5_1     =  0.0109	
sb6_1     = -0.1714	sb7_1     = -0.0000	sb8_1     = -0.0000	eb1_1     = -0.0003	eb2_1     = -3.2306	
eb3_1     = -3.9676	eb4_1     = -0.1102	eb5_1     = -3.9676	eb6_1     = -0.1102	eb7_1     =  0.1509	
eb8_1     = -3.5987	tb1_1     = -0.1136	tb2_1     = -1.0860	tb3_1     =  1.7175	tb4_1     =  0.0496	
tb5_1     = -1.7175	tb6_1     = -0.0496	tb7_1     =  0.2389	tb8_1     = -2.2695	
   <D> = 0.014322
   <e> = 1.258185
   <mu> = 1.618589
   <tpd> = -0.588615
   <tpp> = -0.188776
   <tppp> = 0.078227
************************* CDMFT completed successfully *************************

******************************* CDMFT procedure *******************************

minimization method =  CG
mixing state =  1
frequency grid type =  sharp
fictitious inverse temperature =  50
frequency cutoff =  2.0
--------------------------------------------------------------------------------

CDMFT iteration 1, distance =  1.53e+02, diff param =  2.95e-03
47 minimization steps, time(MIN)/time(ED)=0.00090
sb1_1     = -0.0000	sb2_1     =  0.0000	sb3_1     =  0.0111	sb4_1     = -0.1695	sb5_1     =  0.0111	
sb6_1     = -0.1695	sb7_1     = -0.0000	sb8_1     = -0.0000	eb1_1     = -0.0017	eb2_1     = -3.2404	
eb3_1     = -3.9719	eb4_1     = -0.1083	eb5_1     = -3.9719	eb6_1     = -0.1083	eb7_1     =  0.1490	
eb8_1     = -3.5983	tb1_1     = -0.1131	tb2_1     = -1.0852	tb3_1     =  1.7145	tb4_1     =  0.0512	
tb5_1     = -1.7145	tb6_1     = -0.0512	tb7_1     =  0.2367	tb8_1     = -2.2643	

CDMFT iteration 2, distance =  1.51e+02, diff param =  8.13e-04, diff hybrid =  1.06e-02
13 minimization steps, time(MIN)/time(ED)=0.00059
====================== CDMFT converged on the parameters ======================
sb1_1     = -0.0000	sb2_1     =  0.0000	sb3_1     =  0.0111	sb4_1     = -0.1682	sb5_1     =  0.0111	
sb6_1     = -0.1682	sb7_1     =  0.0000	sb8_1     =  0.0000	eb1_1     = -0.0021	eb2_1     = -3.2412	
eb3_1     = -3.9723	eb4_1     = -0.1068	eb5_1     = -3.9723	eb6_1     = -0.1068	eb7_1     =  0.1473	
eb8_1     = -3.5982	tb1_1     = -0.1129	tb2_1     = -1.0855	tb3_1     =  1.7149	tb4_1     =  0.0519	
tb5_1     = -1.7149	tb6_1     = -0.0519	tb7_1     =  0.2352	tb8_1     = -2.2650	
   <D> = 0.014448
   <e> = 1.259107
   <mu> = 1.620186
   <tpd> = -0.584762
   <tpp> = -0.186578
   <tppp> = 0.077325
************************* CDMFT completed successfully *************************

******************************* CDMFT procedure *******************************

minimization method =  CG
mixing state =  1
frequency grid type =  sharp
fictitious inverse temperature =  50
frequency cutoff =  2.0
--------------------------------------------------------------------------------

CDMFT iteration 1, distance =  1.49e+02, diff param =  2.78e-03
42 minimization steps, time(MIN)/time(ED)=0.00087
sb1_1     = -0.0000	sb2_1     =  0.0000	sb3_1     =  0.0112	sb4_1     = -0.1664	sb5_1     =  0.0112	
sb6_1     = -0.1664	sb7_1     = -0.0000	sb8_1     =  0.0000	eb1_1     = -0.0035	eb2_1     = -3.2498	
eb3_1     = -3.9761	eb4_1     = -0.1052	eb5_1     = -3.9761	eb6_1     = -0.1052	eb7_1     =  0.1449	
eb8_1     = -3.5966	tb1_1     = -0.1123	tb2_1     = -1.0846	tb3_1     =  1.7119	tb4_1     =  0.0532	
tb5_1     = -1.7119	tb6_1     = -0.0532	tb7_1     =  0.2328	tb8_1     = -2.2593	

CDMFT iteration 2, distance =  1.47e+02, diff param =  3.35e-03, diff hybrid =  1.06e-02
32 minimization steps, time(MIN)/time(ED)=0.00076
sb1_1     =  0.0000	sb2_1     =  0.0000	sb3_1     =  0.0112	sb4_1     = -0.1652	sb5_1     =  0.0112	
sb6_1     = -0.1652	sb7_1     = -0.0000	sb8_1     = -0.0000	eb1_1     = -0.0042	eb2_1     = -3.2633	
eb3_1     = -3.9817	eb4_1     = -0.1041	eb5_1     = -3.9817	eb6_1     = -0.1040	eb7_1     =  0.1435	
eb8_1     = -3.5973	tb1_1     = -0.1122	tb2_1     = -1.0869	tb3_1     =  1.7134	tb4_1     =  0.0541	
tb5_1     = -1.7134	tb6_1     = -0.0541	tb7_1     =  0.2313	tb8_1     = -2.2603	

CDMFT iteration 3, distance =  1.47e+02, diff param =  2.85e-04, diff hybrid =  3.56e-03
8 minimization steps, time(MIN)/time(ED)=0.00057
====================== CDMFT converged on the parameters ======================
sb1_1     =  0.0000	sb2_1     =  0.0000	sb3_1     =  0.0112	sb4_1     = -0.1655	sb5_1     =  0.0112	
sb6_1     = -0.1655	sb7_1     = -0.0000	sb8_1     = -0.0000	eb1_1     = -0.0038	eb2_1     = -3.2636	
eb3_1     = -3.9817	eb4_1     = -0.1036	eb5_1     = -3.9816	eb6_1     = -0.1036	eb7_1     =  0.1428	
eb8_1     = -3.5971	tb1_1     = -0.1123	tb2_1     = -1.0868	tb3_1     =  1.7134	tb4_1     =  0.0536	
tb5_1     = -1.7134	tb6_1     = -0.0536	tb7_1     =  0.2315	tb8_1     = -2.2601	
   <D> = 0.014551
   <e> = 1.259982
   <mu> = 1.621816
   <tpd> = -0.580953
   <tpp> = -0.184563
   <tppp> = 0.076484
************************* CDMFT completed successfully *************************

******************************* CDMFT procedure *******************************

minimization method =  CG
mixing state =  1
frequency grid type =  sharp
fictitious inverse temperature =  50
frequency cutoff =  2.0
--------------------------------------------------------------------------------

CDMFT iteration 1, distance =  1.45e+02, diff param =  1.86e-03
19 minimization steps, time(MIN)/time(ED)=0.00041
sb1_1     =  0.0000	sb2_1     = -0.0000	sb3_1     =  0.0113	sb4_1     = -0.1634	sb5_1     =  0.0113	
sb6_1     = -0.1634	sb7_1     =  0.0000	sb8_1     =  0.0000	eb1_1     = -0.0055	eb2_1     = -3.2649	
eb3_1     = -3.9826	eb4_1     = -0.1024	eb5_1     = -3.9826	eb6_1     = -0.1024	eb7_1     =  0.1414	
eb8_1     = -3.5976	tb1_1     = -0.1116	tb2_1     = -1.0849	tb3_1     =  1.7098	tb4_1     =  0.0550	
tb5_1     = -1.7098	tb6_1     = -0.0550	tb7_1     =  0.2291	tb8_1     = -2.2552	

CDMFT iteration 2, distance =  1.43e+02, diff param =  1.49e-03, diff hybrid =  1.05e-02
25 minimization steps, time(MIN)/time(ED)=0.00046
sb1_1     = -0.0000	sb2_1     = -0.0000	sb3_1     =  0.0114	sb4_1     = -0.1618	sb5_1     =  0.0114	
sb6_1     = -0.1618	sb7_1     = -0.0000	sb8_1     = -0.0000	eb1_1     = -0.0068	eb2_1     = -3.2691	
eb3_1     = -3.9840	eb4_1     = -0.1012	eb5_1     = -3.9839	eb6_1     = -0.1012	eb7_1     =  0.1393	
eb8_1     = -3.5950	tb1_1     = -0.1114	tb2_1     = -1.0857	tb3_1     =  1.7106	tb4_1     =  0.0564	
tb5_1     = -1.7106	tb6_1     = -0.0564	tb7_1     =  0.2269	tb8_1     = -2.2553	

CDMFT iteration 3, distance =  1.43e+02, diff param =  1.04e-03, diff hybrid =  4.63e-03
21 minimization steps, time(MIN)/time(ED)=0.00046
sb1_1     =  0.0000	sb2_1     = -0.0000	sb3_1     =  0.0112	sb4_1     = -0.1621	sb5_1     =  0.0112	
sb6_1     = -0.1621	sb7_1     =  0.0000	sb8_1     =  0.0000	eb1_1     = -0.0060	eb2_1     = -3.2733	
eb3_1     = -3.9843	eb4_1     = -0.1001	eb5_1     = -3.9843	eb6_1     = -0.1001	eb7_1     =  0.1382	
eb8_1     = -3.5937	tb1_1     = -0.1116	tb2_1     = -1.0863	tb3_1     =  1.7104	tb4_1     =  0.0557	
tb5_1     = -1.7104	tb6_1     = -0.0557	tb7_1     =  0.2272	tb8_1     = -2.2546	

CDMFT iteration 4, distance =  1.43e+02, diff param =  7.95e-04, diff hybrid =  2.44e-03
17 minimization steps, time(MIN)/time(ED)=0.00045
====================== CDMFT converged on the parameters ======================
sb1_1     = -0.0000	sb2_1     = -0.0000	sb3_1     =  0.0111	sb4_1     = -0.1625	sb5_1     =  0.0111	
sb6_1     = -0.1625	sb7_1     = -0.0000	sb8_1     =  0.0000	eb1_1     = -0.0053	eb2_1     = -3.2762	
eb3_1     = -3.9845	eb4_1     = -0.1003	eb5_1     = -3.9845	eb6_1     = -0.1003	eb7_1     =  0.1385	
eb8_1     = -3.5955	tb1_1     = -0.1115	tb2_1     = -1.0867	tb3_1     =  1.7104	tb4_1     =  0.0548	
tb5_1     = -1.7104	tb6_1     = -0.0548	tb7_1     =  0.2277	tb8_1     = -2.2550	
   <D> = 0.014552
   <e> = 1.260820
   <mu> = 1.623245
   <tpd> = -0.577441
   <tpp> = -0.182540
   <tppp> = 0.075665
************************* CDMFT completed successfully *************************

******************************* CDMFT procedure *******************************

minimization method =  CG
mixing state =  1
frequency grid type =  sharp
fictitious inverse temperature =  50
frequency cutoff =  2.0
--------------------------------------------------------------------------------

CDMFT iteration 1, distance =  1.41e+02, diff param =  1.95e-03
14 minimization steps, time(MIN)/time(ED)=0.00031
sb1_1     = -0.0000	sb2_1     = -0.0000	sb3_1     =  0.0113	sb4_1     = -0.1600	sb5_1     =  0.0113	
sb6_1     = -0.1600	sb7_1     =  0.0000	sb8_1     = -0.0000	eb1_1     = -0.0081	eb2_1     = -3.2773	
eb3_1     = -3.9855	eb4_1     = -0.0996	eb5_1     = -3.9855	eb6_1     = -0.0996	eb7_1     =  0.1375	
eb8_1     = -3.5965	tb1_1     = -0.1108	tb2_1     = -1.0846	tb3_1     =  1.7071	tb4_1     =  0.0569	
tb5_1     = -1.7071	tb6_1     = -0.0569	tb7_1     =  0.2248	tb8_1     = -2.2505	

CDMFT iteration 2, distance =  1.38e+02, diff param =  3.14e-03, diff hybrid =  1.06e-02
39 minimization steps, time(MIN)/time(ED)=0.00057
sb1_1     =  0.0000	sb2_1     = -0.0000	sb3_1     =  0.0115	sb4_1     = -0.1583	sb5_1     =  0.0115	
sb6_1     = -0.1583	sb7_1     = -0.0000	sb8_1     =  0.0000	eb1_1     = -0.0097	eb2_1     = -3.2888	
eb3_1     = -3.9901	eb4_1     = -0.0981	eb5_1     = -3.9901	eb6_1     = -0.0981	eb7_1     =  0.1346	
eb8_1     = -3.5919	tb1_1     = -0.1108	tb2_1     = -1.0865	tb3_1     =  1.7084	tb4_1     =  0.0586	
tb5_1     = -1.7084	tb6_1     = -0.0586	tb7_1     =  0.2223	tb8_1     = -2.2500	

CDMFT iteration 3, distance =  1.39e+02, diff param =  6.87e-04, diff hybrid =  5.04e-03
10 minimization steps, time(MIN)/time(ED)=0.00046
====================== CDMFT converged on the parameters ======================
sb1_1     =  0.0000	sb2_1     = -0.0000	sb3_1     =  0.0112	sb4_1     = -0.1589	sb5_1     =  0.0112	
sb6_1     = -0.1589	sb7_1     =  0.0000	sb8_1     =  0.0000	eb1_1     = -0.0084	eb2_1     = -3.2891	
eb3_1     = -3.9902	eb4_1     = -0.0968	eb5_1     = -3.9902	eb6_1     = -0.0968	eb7_1     =  0.1332	
eb8_1     = -3.5922	tb1_1     = -0.1110	tb2_1     = -1.0865	tb3_1     =  1.7082	tb4_1     =  0.0574	
tb5_1     = -1.7082	tb6_1     = -0.0574	tb7_1     =  0.2228	tb8_1     = -2.2497	
   <D> = 0.014510
   <e> = 1.261835
   <mu> = 1.625012
   <tpd> = -0.573199
   <tpp> = -0.180094
   <tppp> = 0.074678
************************* CDMFT completed successfully *************************

******************************* CDMFT procedure *******************************

minimization method =  CG
mixing state =  1
frequency grid type =  sharp
fictitious inverse temperature =  50
frequency cutoff =  2.0
--------------------------------------------------------------------------------

CDMFT iteration 1, distance =  1.37e+02, diff param =  1.85e-03
21 minimization steps, time(MIN)/time(ED)=0.00046
sb1_1     = -0.0000	sb2_1     =  0.0000	sb3_1     =  0.0112	sb4_1     = -0.1570	sb5_1     =  0.0112	
sb6_1     = -0.1570	sb7_1     = -0.0000	sb8_1     =  0.0000	eb1_1     = -0.0100	eb2_1     = -3.2921	
eb3_1     = -3.9915	eb4_1     = -0.0964	eb5_1     = -3.9915	eb6_1     = -0.0964	eb7_1     =  0.1324	
eb8_1     = -3.5934	tb1_1     = -0.1102	tb2_1     = -1.0847	tb3_1     =  1.7047	tb4_1     =  0.0583	
tb5_1     = -1.7047	tb6_1     = -0.0583	tb7_1     =  0.2206	tb8_1     = -2.2449	

CDMFT iteration 2, distance =  1.34e+02, diff param =  3.20e-03, diff hybrid =  1.07e-02
36 minimization steps, time(MIN)/time(ED)=0.00057
sb1_1     = -0.0000	sb2_1     = -0.0000	sb3_1     =  0.0115	sb4_1     = -0.1549	sb5_1     =  0.0115	
sb6_1     = -0.1549	sb7_1     =  0.0000	sb8_1     =  0.0000	eb1_1     = -0.0124	eb2_1     = -3.3048	
eb3_1     = -3.9958	eb4_1     = -0.0954	eb5_1     = -3.9958	eb6_1     = -0.0954	eb7_1     =  0.1304	
eb8_1     = -3.5922	tb1_1     = -0.1102	tb2_1     = -1.0868	tb3_1     =  1.7062	tb4_1     =  0.0604	
tb5_1     = -1.7062	tb6_1     = -0.0604	tb7_1     =  0.2180	tb8_1     = -2.2457	

CDMFT iteration 3, distance =  1.34e+02, diff param =  8.70e-04, diff hybrid =  6.35e-03
19 minimization steps, time(MIN)/time(ED)=0.00051
====================== CDMFT converged on the parameters ======================
sb1_1     = -0.0000	sb2_1     =  0.0000	sb3_1     =  0.0113	sb4_1     = -0.1551	sb5_1     =  0.0113	
sb6_1     = -0.1551	sb7_1     =  0.0000	sb8_1     =  0.0000	eb1_1     = -0.0115	eb2_1     = -3.3064	
eb3_1     = -3.9954	eb4_1     = -0.0937	eb5_1     = -3.9954	eb6_1     = -0.0937	eb7_1     =  0.1283	
eb8_1     = -3.5905	tb1_1     = -0.1104	tb2_1     = -1.0869	tb3_1     =  1.7059	tb4_1     =  0.0597	
tb5_1     = -1.7059	tb6_1     = -0.0597	tb7_1     =  0.2180	tb8_1     = -2.2448	
   <D> = 0.014382
   <e> = 1.262841
   <mu> = 1.626677
   <tpd> = -0.569074
   <tpp> = -0.177595
   <tppp> = 0.073690
************************* CDMFT completed successfully *************************

******************************* CDMFT procedure *******************************

minimization method =  CG
mixing state =  1
frequency grid type =  sharp
fictitious inverse temperature =  50
frequency cutoff =  2.0
--------------------------------------------------------------------------------

CDMFT iteration 1, distance =  1.33e+02, diff param =  2.19e-03
33 minimization steps, time(MIN)/time(ED)=0.00062
sb1_1     = -0.0000	sb2_1     =  0.0000	sb3_1     =  0.0112	sb4_1     = -0.1535	sb5_1     =  0.0112	
sb6_1     = -0.1535	sb7_1     =  0.0000	sb8_1     = -0.0000	eb1_1     = -0.0128	eb2_1     = -3.3127	
eb3_1     = -3.9970	eb4_1     = -0.0930	eb5_1     = -3.9969	eb6_1     = -0.0930	eb7_1     =  0.1270	
eb8_1     = -3.5908	tb1_1     = -0.1097	tb2_1     = -1.0855	tb3_1     =  1.7023	tb4_1     =  0.0600	
tb5_1     = -1.7023	tb6_1     = -0.0600	tb7_1     =  0.2159	tb8_1     = -2.2396	

CDMFT iteration 2, distance =  1.30e+02, diff param =  3.47e-03, diff hybrid =  1.09e-02
33 minimization steps, time(MIN)/time(ED)=0.00064
sb1_1     = -0.0000	sb2_1     =  0.0000	sb3_1     =  0.0114	sb4_1     = -0.1516	sb5_1     =  0.0114	
sb6_1     = -0.1516	sb7_1     = -0.0000	sb8_1     =  0.0000	eb1_1     = -0.0153	eb2_1     = -3.3266	
eb3_1     = -4.0019	eb4_1     = -0.0923	eb5_1     = -4.0019	eb6_1     = -0.0923	eb7_1     =  0.1250	
eb8_1     = -3.5889	tb1_1     = -0.1097	tb2_1     = -1.0878	tb3_1     =  1.7040	tb4_1     =  0.0617	
tb5_1     = -1.7040	tb6_1     = -0.0617	tb7_1     =  0.2132	tb8_1     = -2.2401	

CDMFT iteration 3, distance =  1.30e+02, diff param =  6.67e-04, diff hybrid =  6.13e-03
13 minimization steps, time(MIN)/time(ED)=0.00051
====================== CDMFT converged on the parameters ======================
sb1_1     = -0.0000	sb2_1     =  0.0000	sb3_1     =  0.0113	sb4_1     = -0.1516	sb5_1     =  0.0113	
sb6_1     = -0.1516	sb7_1     =  0.0000	sb8_1     = -0.0000	eb1_1     = -0.0146	eb2_1     = -3.3269	
eb3_1     = -4.0018	eb4_1     = -0.0906	eb5_1     = -4.0018	eb6_1     = -0.0906	eb7_1     =  0.1230	
eb8_1     = -3.5888	tb1_1     = -0.1098	tb2_1     = -1.0877	tb3_1     =  1.7038	tb4_1     =  0.0613	
tb5_1     = -1.7038	tb6_1     = -0.0613	tb7_1     =  0.2132	tb8_1     = -2.2399	
   <D> = 0.014224
   <e> = 1.263800
   <mu> = 1.628267
   <tpd> = -0.565115
   <tpp> = -0.175209
   <tppp> = 0.072753
************************* CDMFT completed successfully *************************

******************************* CDMFT procedure *******************************

minimization method =  CG
mixing state =  1
frequency grid type =  sharp
fictitious inverse temperature =  50
frequency cutoff =  2.0
--------------------------------------------------------------------------------

CDMFT iteration 1, distance =  1.29e+02, diff param =  1.81e-03
14 minimization steps, time(MIN)/time(ED)=0.00030
sb1_1     = -0.0000	sb2_1     =  0.0000	sb3_1     =  0.0112	sb4_1     = -0.1499	sb5_1     =  0.0112	
sb6_1     = -0.1499	sb7_1     = -0.0000	sb8_1     =  0.0000	eb1_1     = -0.0160	eb2_1     = -3.3280	
eb3_1     = -4.0026	eb4_1     = -0.0898	eb5_1     = -4.0026	eb6_1     = -0.0898	eb7_1     =  0.1216	
eb8_1     = -3.5899	tb1_1     = -0.1091	tb2_1     = -1.0855	tb3_1     =  1.7000	tb4_1     =  0.0618	
tb5_1     = -1.7000	tb6_1     = -0.0618	tb7_1     =  0.2111	tb8_1     = -2.2349	

CDMFT iteration 2, distance =  1.26e+02, diff param =  3.18e-03, diff hybrid =  1.09e-02
43 minimization steps, time(MIN)/time(ED)=0.00053
sb1_1     =  0.0000	sb2_1     = -0.0000	sb3_1     =  0.0113	sb4_1     = -0.1478	sb5_1     =  0.0113	
sb6_1     = -0.1478	sb7_1     =  0.0000	sb8_1     = -0.0000	eb1_1     = -0.0187	eb2_1     = -3.3411	
eb3_1     = -4.0056	eb4_1     = -0.0891	eb5_1     = -4.0055	eb6_1     = -0.0891	eb7_1     =  0.1192	
eb8_1     = -3.5866	tb1_1     = -0.1092	tb2_1     = -1.0876	tb3_1     =  1.7013	tb4_1     =  0.0634	
tb5_1     = -1.7013	tb6_1     = -0.0634	tb7_1     =  0.2081	tb8_1     = -2.2349	

CDMFT iteration 3, distance =  1.26e+02, diff param =  1.22e-03, diff hybrid =  6.16e-03
21 minimization steps, time(MIN)/time(ED)=0.00048
sb1_1     = -0.0000	sb2_1     =  0.0000	sb3_1     =  0.0111	sb4_1     = -0.1479	sb5_1     =  0.0111	
sb6_1     = -0.1479	sb7_1     = -0.0000	sb8_1     =  0.0000	eb1_1     = -0.0179	eb2_1     = -3.3439	
eb3_1     = -4.0044	eb4_1     = -0.0872	eb5_1     = -4.0044	eb6_1     = -0.0872	eb7_1     =  0.1167	
eb8_1     = -3.5840	tb1_1     = -0.1094	tb2_1     = -1.0880	tb3_1     =  1.7009	tb4_1     =  0.0627	
tb5_1     = -1.7009	tb6_1     = -0.0627	tb7_1     =  0.2078	tb8_1     = -2.2339	

CDMFT iteration 4, distance =  1.27e+02, diff param =  6.94e-04, diff hybrid =  3.19e-03
13 minimization steps, time(MIN)/time(ED)=0.00043
====================== CDMFT converged on the parameters ======================
sb1_1     =  0.0000	sb2_1     =  0.0000	sb3_1     =  0.0109	sb4_1     = -0.1487	sb5_1     =  0.0109	
sb6_1     = -0.1487	sb7_1     =  0.0000	sb8_1     = -0.0000	eb1_1     = -0.0162	eb2_1     = -3.3445	
eb3_1     = -4.0042	eb4_1     = -0.0869	eb5_1     = -4.0041	eb6_1     = -0.0869	eb7_1     =  0.1172	
eb8_1     = -3.5849	tb1_1     = -0.1091	tb2_1     = -1.0881	tb3_1     =  1.7008	tb4_1     =  0.0611	
tb5_1     = -1.7008	tb6_1     = -0.0611	tb7_1     =  0.2088	tb8_1     = -2.2338	
   <D> = 0.014080
   <e> = 1.264574
   <mu> = 1.629595
   <tpd> = -0.561813
   <tpp> = -0.173319
   <tppp> = 0.072002
************************* CDMFT completed successfully *************************

******************************* CDMFT procedure *******************************

minimization method =  CG
mixing state =  1
frequency grid type =  sharp
fictitious inverse temperature =  50
frequency cutoff =  2.0
--------------------------------------------------------------------------------

CDMFT iteration 1, distance =  1.24e+02, diff param =  2.02e-03
14 minimization steps, time(MIN)/time(ED)=0.00031
sb1_1     = -0.0000	sb2_1     = -0.0000	sb3_1     =  0.0111	sb4_1     = -0.1462	sb5_1     =  0.0111	
sb6_1     = -0.1462	sb7_1     = -0.0000	sb8_1     =  0.0000	eb1_1     = -0.0198	eb2_1     = -3.3453	
eb3_1     = -4.0050	eb4_1     = -0.0873	eb5_1     = -4.0050	eb6_1     = -0.0873	eb7_1     =  0.1164	
eb8_1     = -3.5867	tb1_1     = -0.1086	tb2_1     = -1.0859	tb3_1     =  1.6973	tb4_1     =  0.0631	
tb5_1     = -1.6973	tb6_1     = -0.0632	tb7_1     =  0.2057	tb8_1     = -2.2295	

CDMFT iteration 2, distance =  1.22e+02, diff param =  2.98e-03, diff hybrid =  1.12e-02
36 minimization steps, time(MIN)/time(ED)=0.00052
sb1_1     = -0.0000	sb2_1     =  0.0000	sb3_1     =  0.0112	sb4_1     = -0.1438	sb5_1     =  0.0112	
sb6_1     = -0.1438	sb7_1     =  0.0000	sb8_1     =  0.0000	eb1_1     = -0.0233	eb2_1     = -3.3559	
eb3_1     = -4.0088	eb4_1     = -0.0859	eb5_1     = -4.0088	eb6_1     = -0.0859	eb7_1     =  0.1128	
eb8_1     = -3.5842	tb1_1     = -0.1091	tb2_1     = -1.0874	tb3_1     =  1.6986	tb4_1     =  0.0653	
tb5_1     = -1.6986	tb6_1     = -0.0653	tb7_1     =  0.2024	tb8_1     = -2.2297	

CDMFT iteration 3, distance =  1.22e+02, diff param =  1.51e-03, diff hybrid =  6.92e-03
20 minimization steps, time(MIN)/time(ED)=0.00049
sb1_1     = -0.0000	sb2_1     =  0.0000	sb3_1     =  0.0108	sb4_1     = -0.1443	sb5_1     =  0.0108	
sb6_1     = -0.1443	sb7_1     =  0.0000	sb8_1     =  0.0000	eb1_1     = -0.0211	eb2_1     = -3.3583	
eb3_1     = -4.0082	eb4_1     = -0.0832	eb5_1     = -4.0082	eb6_1     = -0.0832	eb7_1     =  0.1095	
eb8_1     = -3.5811	tb1_1     = -0.1090	tb2_1     = -1.0878	tb3_1     =  1.6982	tb4_1     =  0.0637	
tb5_1     = -1.6982	tb6_1     = -0.0637	tb7_1     =  0.2024	tb8_1     = -2.2283	

CDMFT iteration 4, distance =  1.22e+02, diff param =  9.18e-04, diff hybrid =  5.29e-03
17 minimization steps, time(MIN)/time(ED)=0.00044
====================== CDMFT converged on the parameters ======================
sb1_1     = -0.0000	sb2_1     =  0.0000	sb3_1     =  0.0106	sb4_1     = -0.1452	sb5_1     =  0.0106	
sb6_1     = -0.1452	sb7_1     =  0.0000	sb8_1     = -0.0000	eb1_1     = -0.0191	eb2_1     = -3.3597	
eb3_1     = -4.0078	eb4_1     = -0.0836	eb5_1     = -4.0077	eb6_1     = -0.0835	eb7_1     =  0.1109	
eb8_1     = -3.5828	tb1_1     = -0.1085	tb2_1     = -1.0881	tb3_1     =  1.6981	tb4_1     =  0.0621	
tb5_1     = -1.6981	tb6_1     = -0.0620	tb7_1     =  0.2037	tb8_1     = -2.2285	
   <D> = 0.013878
   <e> = 1.265482
   <mu> = 1.631108
   <tpd> = -0.558034
   <tpp> = -0.171049
   <tppp> = 0.071118
************************* CDMFT completed successfully *************************

******************************* CDMFT procedure *******************************
slurmstepd: error: *** JOB 4733196 ON nc30442 CANCELLED AT 2022-04-18T00:49:17 ***
