model	E_kin	D	U	e	eb1_1	eb2_1	eb3_1	eb4_1	eb5_1	eb6_1	eb7_1	eb8_1	mu	sb1_1	sb2_1	sb3_1	sb4_1	sb5_1	sb6_1	sb7_1	sb8_1	tb1_1	tb2_1	tb3_1	tb4_1	tb5_1	tb6_1	tb7_1	tb8_1	tpd	tpp	tppp	ave_D	ave_e	ave_mu	ave_tpd	ave_tpp	ave_tppp	ave_U_1	ave_eb1_1	ave_eb2_1	ave_eb3_1	ave_eb4_1	ave_eb5_1	ave_eb6_1	ave_eb7_1	ave_eb8_1	ave_mu_1	ave_sb1_1	ave_sb2_1	ave_sb3_1	ave_sb4_1	ave_sb5_1	ave_sb6_1	ave_sb7_1	ave_sb8_1	ave_tb1_1	ave_tb2_1	ave_tb3_1	ave_tb4_1	ave_tb5_1	ave_tb6_1	ave_tb7_1	ave_tb8_1	var_U_1	var_eb1_1	var_eb2_1	var_eb3_1	var_eb4_1	var_eb5_1	var_eb6_1	var_eb7_1	var_eb8_1	var_mu_1	var_sb1_1	var_sb2_1	var_sb3_1	var_sb4_1	var_sb5_1	var_sb6_1	var_sb7_1	var_sb8_1	var_tb1_1	var_tb2_1	var_tb3_1	var_tb4_1	var_tb5_1	var_tb6_1	var_tb7_1	var_tb8_1	E0_1	sector_1	E0_2	sector_2	githash	iterations	dist_function	distance	diff_hybrid	time
2x2_2C_8b_C2v_L	7.9548872	0	14	3.1695	0.0018966178	-3.1022638	-3.6869349	-0.10868969	-3.686944	-0.10869079	0.14780046	-3.2464716	9.8	-3.6500554e-05	-6.7538764e-06	0.0094399223	-0.17253352	0.0094394611	-0.17253362	3.636482e-06	8.7254376e-06	-0.1122816	-1.0480638	1.635789	0.042537516	-1.6357909	-0.04253608	0.24121687	-2.1549857	1.9492	1	0.2373	0.013237844	1.2557043	1.6180274	-0.59066599	-0.19598988	0.080026616	0.13396957	0.26527077	1.939942	1.8043204	1.5585986	1.8043206	1.5586046	0.018908099	1.5490036	1.1083674	0.00036189824	1.9737224e-05	0.10474189	1.1605814	0.10474469	1.1605835	-2.8421842e-05	-1.9074363e-05	1.1621379	0.73820986	-1.5518738	-0.55982036	1.5518723	0.55981661	-0.30335527	2.5243198	0.028977622	0.23770042	0.058424882	0.17898816	0.36581447	0.17898807	0.36581035	0.019049089	0.34936546	0.036155089	4.1301943	5.3685751	5.1519625	5.0536036	5.151964	5.0535964	4.2913274	6.1950073	5.2796115	2.7529111	3.3540319	5.1581494	3.3540299	5.1581423	3.7650163	3.1859676	-72.573495	R0:S0:1	-53.044	uncorrelated	51514b8	0	sharp_wc_2.0_b_50	 1.28e+02	 1.00e+06	2022-04-18@10:04
2x2_2C_8b_C2v_L	7.9141246	0	14	3.1581828	0.0023021711	-3.1030126	-3.6889704	-0.10785655	-3.688978	-0.10785369	0.1474003	-3.25621	9.8	-4.0146384e-05	1.0614261e-07	0.0092375963	-0.17213781	0.0092372493	-0.17213667	-1.8065858e-07	-4.0672987e-06	-0.11223525	-1.0483622	1.6363799	0.041844989	-1.6363812	-0.041840709	0.240903	-2.157616	1.9515	1	0.23732759	0.013196648	1.2558932	1.6181848	-0.59020884	-0.19545502	0.079842436	0.13398908	0.26215179	1.9401506	1.8046003	1.5606646	1.8046005	1.5606602	0.018821181	1.5504171	1.1084864	0.00039431508	-4.5628727e-06	0.10418829	1.157574	0.10418794	1.1575748	8.0471972e-06	9.1039436e-06	1.1580065	0.73681501	-1.5510028	-0.55531951	1.5510044	0.55530141	-0.30278582	2.5219867	0.028981303	0.23521123	0.05823556	0.178782	0.36532297	0.17878186	0.36532832	0.0189608	0.3486951	0.0361264	4.1143562	5.3717122	5.1533883	5.0499795	5.1533854	5.0499722	4.292338	6.1892864	5.2801335	2.7517632	3.356245	5.1510702	3.3562493	5.1510811	3.7640437	3.1885774	-72.601568	R0:S0:1	-53.134538	uncorrelated	51514b8	1	sharp_wc_2.0_b_50	 1.29e+02	 2.03e-03	2022-04-18@10:13
2x2_2C_8b_C2v_L	7.8715706	0	14	3.1468655	0.0021104486	-3.1054734	-3.6952456	-0.10754877	-3.6952539	-0.10754837	0.14707582	-3.2651095	9.8	-4.4137273e-05	-9.5277647e-07	0.00929571	-0.17185725	0.0092948855	-0.17185648	2.7877425e-06	2.9711023e-08	-0.11223242	-1.0490654	1.6380031	0.042212273	-1.6380052	-0.042208706	0.24052077	-2.1601667	1.9538	1	0.23735517	0.013247541	1.2560252	1.6183378	-0.58987557	-0.19510898	0.079722046	0.13401472	0.26114041	1.940218	1.8048015	1.5610986	1.8048012	1.561102	0.018755455	1.5511284	1.1085352	0.00043449153	4.1448603e-07	0.10403103	1.1564295	0.10403376	1.156423	-1.3780261e-05	-7.3747862e-07	1.1570027	0.73636621	-1.550491	-0.55663052	1.5504942	0.55661827	-0.30226494	2.5210907	0.028985892	0.23436404	0.058173586	0.17862082	0.36499429	0.17862111	0.36499411	0.018893015	0.34835627	0.036122163	4.1091525	5.3729687	5.1533167	5.0506222	5.1533168	5.0506136	4.2930415	6.1863451	5.280193	2.750958	3.3565	5.1488848	3.3565062	5.1488782	3.763178	3.189431	-72.653509	R0:S0:1	-53.225076	uncorrelated	51514b8	1	sharp_wc_2.0_b_50	 1.29e+02	 1.90e-03	2022-04-18@10:21
2x2_2C_8b_C2v_L	7.828743	0	14	3.1355483	0.00188266	-3.1097251	-3.7039955	-0.10717077	-3.7039996	-0.10717373	0.14680396	-3.2727865	9.8	-3.458354e-05	-7.2323542e-08	0.009372724	-0.17153234	0.0093714324	-0.17153355	1.9238647e-06	4.3983104e-06	-0.11222403	-1.0500792	1.640148	0.042690948	-1.6401506	-0.042690797	0.24007784	-2.1623587	1.9561	1	0.23738276	0.013306426	1.2561472	1.6184864	-0.5895572	-0.1947949	0.079612343	0.13403215	0.260672	1.9402589	1.8050485	1.5606348	1.805048	1.5606438	0.018696133	1.5516667	1.1085659	0.0003418169	1.1128361e-06	0.1038638	1.1559691	0.10386859	1.1559612	-1.3702756e-05	-7.9352875e-06	1.1565165	0.73621365	-1.5498813	-0.55879993	1.5498843	0.55879997	-0.30177085	2.5203747	0.028988937	0.23388067	0.058134844	0.17841374	0.36505921	0.17841423	0.3650534	0.01883094	0.34809854	0.036119839	4.1071573	5.3734427	5.1524714	5.0527157	5.1524741	5.0527085	4.2933762	6.1841207	5.2805715	2.7504413	3.3560756	5.1491267	3.3560803	5.1491085	3.7625731	3.1900398	-72.716686	R0:S0:1	-53.315614	uncorrelated	51514b8	1	sharp_wc_2.0_b_50	 1.29e+02	 1.87e-03	2022-04-18@10:29
2x2_2C_8b_C2v_L	7.786109	0	14	3.124231	0.0016706047	-3.1113837	-3.707331	-0.10684333	-3.7073348	-0.10684083	0.14651021	-3.2813216	9.8	-3.4093683e-05	4.3960437e-07	0.0094118355	-0.17116653	0.0094115493	-0.17116551	-9.6135418e-07	-2.2806992e-06	-0.11217616	-1.0506607	1.6411717	0.042978764	-1.6411729	-0.042976781	0.23963728	-2.1648197	1.9584	1	0.23741034	0.013343204	1.2562786	1.618632	-0.5892347	-0.19444976	0.079491612	0.13405982	0.25945326	1.9403321	1.8051699	1.561515	1.8051693	1.5615128	0.018624344	1.5523733	1.1086218	0.00033857159	-3.8507826e-06	0.10373378	1.154347	0.10373359	1.1543388	1.0282473e-05	6.2309953e-06	1.1552232	0.73568674	-1.5495526	-0.55964891	1.5495578	0.55964221	-0.30116206	2.5195052	0.028993937	0.23290704	0.058068078	0.17832093	0.36450943	0.17832142	0.36451319	0.018757573	0.34775932	0.036114528	4.1007305	5.3749496	5.1528754	5.0528387	5.1528744	5.0528357	4.2941525	6.1812003	5.2805058	2.7495888	3.3565657	5.1458973	3.3565734	5.145898	3.7616628	3.1909258	-72.753299	R0:S0:1	-53.406152	uncorrelated	51514b8	1	sharp_wc_2.0_b_50	 1.29e+02	 1.78e-03	2022-04-18@10:37
2x2_2C_8b_C2v_L	7.7447984	0	14	3.1129138	0.0015584266	-3.1170113	-3.7182704	-0.10680765	-3.7182863	-0.10680959	0.14621178	-3.2895251	9.8	-3.6304082e-05	-1.6505662e-06	0.0094693237	-0.17105677	0.009469148	-0.17105725	2.0920603e-06	6.2064191e-06	-0.11218951	-1.0518857	1.6437695	0.043368466	-1.643773	-0.043368717	0.23924354	-2.1671305	1.9607	1	0.23743793	0.013390005	1.2564421	1.6188301	-0.58877947	-0.19401464	0.079338457	0.13408641	0.25753204	1.9404776	1.8055408	1.5635882	1.8055406	1.5635963	0.01849213	1.5533231	1.1086988	0.00036022845	6.1521891e-06	0.10353048	1.1519024	0.10353342	1.1518938	-1.6213131e-05	-1.1410029e-05	1.1532211	0.73483424	-1.5486759	-0.56032315	1.5486779	0.56032631	-0.30042332	2.5179498	0.028998807	0.23143603	0.057935785	0.17803372	0.36330331	0.17803387	0.36329796	0.018622761	0.34731019	0.036102611	4.0906945	5.3771939	5.1532607	5.0517189	5.1532614	5.0517145	4.2946228	6.1773635	5.2800121	2.7486959	3.3580685	5.1397397	3.3580734	5.1397237	3.7610342	3.1925609	-72.831253	R0:S0:1	-53.49669	uncorrelated	51514b8	1	sharp_wc_2.0_b_50	 1.30e+02	 1.98e-03	2022-04-18@10:46
2x2_2C_8b_C2v_L	7.7020149	0	14	3.1015966	0.0012152888	-3.1221322	-3.7260334	-0.10659539	-3.7260403	-0.10659739	0.14589244	-3.2979578	9.8	-2.606965e-05	5.3811322e-07	0.0095771192	-0.17075258	0.0095767651	-0.17075463	1.1944204e-06	4.261926e-06	-0.11217338	-1.0530104	1.6457323	0.043995558	-1.6457338	-0.043995165	0.23875075	-2.1695718	1.963	1	0.23746552	0.013458062	1.2565649	1.618989	-0.58845149	-0.19370274	0.079228389	0.13411013	0.25688691	1.9405381	1.8057462	1.5637672	1.8057476	1.5637687	0.018413082	1.5538944	1.1087347	0.00026050525	9.417754e-07	0.1034644	1.150929	0.10346619	1.1509484	-9.9639496e-06	-7.1485715e-06	1.1527012	0.73454003	-1.5481857	-0.56299496	1.5481774	0.56298678	-0.29978888	2.5172621	0.029003015	0.23087936	0.057879332	0.17786486	0.36292998	0.17786367	0.36292681	0.018541286	0.3470357	0.036101601	4.0874511	5.3780381	5.1528131	5.0534298	5.1528119	5.0534228	4.2951089	6.1749881	5.2800152	2.7480442	3.3579508	5.1384127	3.3579405	5.1384221	3.7602805	3.1931587	-72.894604	R0:S0:1	-53.587228	uncorrelated	51514b8	1	sharp_wc_2.0_b_50	 1.30e+02	 1.88e-03	2022-04-18@10:55
2x2_2C_8b_C2v_L	7.6592332	0	14	3.0902793	0.001067889	-3.1242294	-3.7296993	-0.1061797	-3.7297025	-0.10617767	0.14578125	-3.3069273	9.8	-2.6069859e-05	4.8265701e-07	0.0095955726	-0.17033062	0.0095960017	-0.17032991	4.6772964e-06	7.1983025e-06	-0.11213144	-1.0537145	1.6467993	0.044343543	-1.6467992	-0.044342315	0.23841059	-2.1721601	1.9653	1	0.2374931	0.013502332	1.2566914	1.6191314	-0.58813748	-0.19337179	0.079112002	0.13413628	0.25574009	1.9405986	1.8058775	1.5642043	1.8058778	1.5642072	0.018355498	1.5545847	1.1087859	0.00026106838	3.5659737e-06	0.10339564	1.1495353	0.10339747	1.1495386	-3.1844651e-05	-1.3529747e-05	1.1515405	0.73412481	-1.5478131	-0.56430763	1.5478107	0.56430314	-0.29931493	2.5164188	0.0290077	0.22988628	0.057823943	0.17776036	0.36259524	0.17776018	0.36259332	0.018481901	0.34670189	0.036096902	4.0818153	5.3793293	5.1529269	5.0542232	5.152928	5.0542199	4.2958897	6.1721015	5.2800864	2.7472458	3.3581592	5.1361009	3.3581561	5.1360959	3.759373	3.1939748	-72.934178	R0:S0:1	-53.677766	uncorrelated	51514b8	1	sharp_wc_2.0_b_50	 1.30e+02	 1.82e-03	2022-04-18@11:05
2x2_2C_8b_C2v_L	7.6174398	0	14	3.0789621	0.00089242089	-3.1285574	-3.7376456	-0.10613585	-3.7376395	-0.10613252	0.14553254	-3.3156625	9.8	-3.1388754e-05	1.5304339e-06	0.0096588963	-0.17022069	0.0096565849	-0.17021974	2.3112764e-06	-3.3722361e-06	-0.11212223	-1.0547169	1.6488033	0.044631143	-1.6488036	-0.044621585	0.2380666	-2.174632	1.9676	1	0.23752069	0.013534942	1.2568435	1.6193081	-0.5877309	-0.19296456	0.07896973	0.134166	0.25406677	1.9407244	1.8061481	1.5661558	1.8061486	1.5661467	0.018251942	1.5554915	1.1088595	0.00031541414	-6.0109586e-06	0.10316655	1.1472918	0.10316967	1.147318	-8.843542e-06	5.6180873e-06	1.1496245	0.73333235	-1.547167	-0.56454252	1.5471632	0.56450046	-0.29868163	2.5150393	0.029013114	0.22864749	0.05770986	0.17755445	0.36148735	0.177554	0.36149542	0.018376679	0.34626824	0.036087342	4.0725325	5.381501	5.1535878	5.0528722	5.1535862	5.0528551	4.2965552	6.1684085	5.2797633	2.7463409	3.359517	5.1303167	3.359508	5.1303489	3.7586143	3.1954293	-72.997854	R0:S0:1	-53.768303	uncorrelated	51514b8	1	sharp_wc_2.0_b_50	 1.31e+02	 1.89e-03	2022-04-18@11:14
2x2_2C_8b_C2v_L	7.5747035	0	14	3.0676448	0.00062873011	-3.1344041	-3.7467079	-0.1059237	-3.7467012	-0.10592167	0.14500852	-3.3222083	9.8	-3.2505165e-05	-4.2381478e-07	0.0097810556	-0.1699216	0.0097809162	-0.16992015	7.4057765e-07	-1.0344302e-06	-0.11211751	-1.0559601	1.6509994	0.04519346	-1.6509987	-0.045190564	0.23746937	-2.1764958	1.9699	1	0.23754828	0.013587323	1.2569676	1.6194614	-0.58739844	-0.19264515	0.078857227	0.13418219	0.25339527	1.9407883	1.8064026	1.5663863	1.8064018	1.5663848	0.01815923	1.5560001	1.1088943	0.00032839289	-1.317649e-07	0.10297225	1.1462476	0.10297281	1.1462422	-2.3929537e-06	1.7139121e-06	1.1490448	0.73308299	-1.5465528	-0.56684558	1.546557	0.56683717	-0.2979558	2.5142819	0.029015979	0.22805326	0.057650327	0.1773451	0.36110466	0.17734578	0.36110769	0.018281473	0.34602228	0.036083499	4.0694518	5.3821901	5.1530141	5.0545368	5.1530152	5.0545336	4.2967176	6.1663319	5.2797187	2.7458632	3.359476	5.1291031	3.3594802	5.1291027	3.7581377	3.19614	-73.06367	R0:S0:1	-53.858841	uncorrelated	51514b8	1	sharp_wc_2.0_b_50	 1.31e+02	 1.80e-03	2022-04-18@11:24
2x2_2C_8b_C2v_L	7.5316666	0	14	3.0563276	0.00045402442	-3.1365179	-3.7504544	-0.10543298	-3.750456	-0.10543293	0.14498282	-3.3324123	9.8	-3.3509307e-05	-2.0712418e-07	0.0097688868	-0.16950339	0.0097687285	-0.16950344	-2.4602466e-06	-6.2786423e-06	-0.11209185	-1.0566183	1.6521084	0.045523455	-1.6521089	-0.045522807	0.23720678	-2.1794598	1.9722	1	0.23757586	0.013636917	1.2570864	1.6195992	-0.58710362	-0.19233559	0.078749372	0.1342106	0.25251163	1.9408409	1.8065172	1.5662927	1.8065172	1.5662889	0.018123236	1.5566782	1.1089394	0.00033974357	-3.9552653e-06	0.10296874	1.1453403	0.10296699	1.1453398	1.9958057e-05	1.1887375e-05	1.1481109	0.73270852	-1.5462207	-0.56828319	1.5462223	0.56827968	-0.29760124	2.5135544	0.029021015	0.22725037	0.057601589	0.17725106	0.36108067	0.17725103	0.36108397	0.018243835	0.34569152	0.036081369	4.0650078	5.3832914	5.152926	5.0557541	5.152924	5.0557538	4.297639	6.1634431	5.2800748	2.7450198	3.3593536	5.1279685	3.3593564	5.1279768	3.7570941	3.1967809	-73.106394	R0:S0:1	-53.949379	uncorrelated	51514b8	1	sharp_wc_2.0_b_50	 1.31e+02	 1.94e-03	2022-04-18@11:33
2x2_2C_8b_C2v_L	7.4897733	0	14	3.0450103	0.00027303242	-3.1404843	-3.757848	-0.10526358	-3.7578534	-0.10526355	0.14478369	-3.3411053	9.8	-2.5724356e-05	-1.4589738e-06	0.0098201263	-0.16926381	0.0098217204	-0.16926253	-3.4005148e-06	-4.8740406e-06	-0.11206532	-1.0575562	1.6539567	0.045829898	-1.6539565	-0.045832664	0.23685796	-2.1819441	1.9745	1	0.23760345	0.013667422	1.2572356	1.6197721	-0.5867024	-0.19193839	0.078609464	0.13423732	0.25092666	1.9409565	1.8067877	1.5679684	1.8067869	1.5679691	0.018029147	1.5575523	1.1090115	0.00026151932	-3.6073888e-07	0.10274413	1.1430884	0.10274047	1.1430641	2.404409e-05	9.6929341e-06	1.1462566	0.73198528	-1.5455306	-0.56871959	1.5455381	0.56873636	-0.29699794	2.5122262	0.029025839	0.22603127	0.057496426	0.17704207	0.36008757	0.17704279	0.36008847	0.018148026	0.34526939	0.036070734	4.0564249	5.3852462	5.1533948	5.055022	5.1533936	5.0550314	4.2982858	6.1598648	5.2798868	2.7441653	3.3604819	5.1228567	3.3604953	5.1228432	3.756338	3.1981739	-73.166168	R0:S0:1	-54.039917	uncorrelated	51514b8	1	sharp_wc_2.0_b_50	 1.31e+02	 1.85e-03	2022-04-18@11:42
2x2_2C_8b_C2v_L	7.4478257	0	14	3.0336931	3.5379044e-05	-3.1479339	-3.769164	-0.10518519	-3.7691747	-0.10518958	0.14448613	-3.3494592	9.8	-3.4265461e-05	-2.0597828e-06	0.0099354967	-0.16911527	0.0099357398	-0.16911679	-2.1674332e-06	2.2248726e-06	-0.11208161	-1.0590074	1.6566367	0.046328111	-1.6566384	-0.046333173	0.23644778	-2.1843269	1.9768	1	0.23763103	0.01371402	1.25738	1.619954	-0.58629385	-0.19155891	0.078475705	0.13425975	0.24972657	1.9410745	1.8071337	1.5691013	1.8071338	1.5691084	0.017924576	1.5583322	1.1090686	0.00034973422	5.3923579e-06	0.10247506	1.1413947	0.10247504	1.141383	9.5104357e-06	-3.8710482e-06	1.1449206	0.73139566	-1.544699	-0.57019555	1.5446999	0.57021642	-0.29634439	2.5109877	0.029029844	0.22509592	0.057388053	0.17676603	0.35928861	0.17676599	0.35928209	0.018041138	0.34489336	0.036062786	4.050042	5.386724	5.1532331	5.055268	5.1532332	5.0552739	4.2986493	6.1566813	5.2797654	2.7434837	3.3612155	5.1192361	3.3612199	5.119219	3.7557501	3.1994008	-73.249811	R0:S0:1	-54.130455	uncorrelated	51514b8	1	sharp_wc_2.0_b_50	 1.32e+02	 2.10e-03	2022-04-18@11:51
2x2_2C_8b_C2v_L	7.4037729	0	14	3.0223759	-0.00027497466	-3.1495932	-3.7719897	-0.10476027	-3.7719965	-0.10476119	0.14412062	-3.3569408	9.8	-3.5922626e-05	-3.4474105e-06	0.0099805664	-0.16863216	0.0099805644	-0.168633	-4.9489256e-06	8.0323908e-07	-0.11204587	-1.0596829	1.6575737	0.046846593	-1.657575	-0.046847812	0.23590592	-2.1864961	1.9791	1	0.23765862	0.013770084	1.2574708	1.620061	-0.58608693	-0.19133205	0.078396336	0.13428118	0.24964013	1.9410598	1.807161	1.5683124	1.8071614	1.5683091	0.017888	1.5586325	1.1090839	0.00036949286	7.5620202e-06	0.10255712	1.1411005	0.10255532	1.141105	2.7587887e-05	2.2308562e-07	1.1450893	0.73148486	-1.5446185	-0.57295874	1.5446175	0.57296212	-0.29581913	2.5108579	0.0290336	0.22490339	0.05740034	0.17673548	0.3594655	0.17673516	0.35946696	0.018003016	0.34474165	0.036067016	4.0499931	5.3868664	5.152706	5.0579956	5.1527038	5.0579969	4.2991786	6.1553504	5.2799778	2.7429752	3.3603316	5.1203343	3.3603302	5.1203449	3.7549722	3.1994144	-73.281754	R0:S0:1	-54.220993	uncorrelated	51514b8	1	sharp_wc_2.0_b_50	 1.32e+02	 1.62e-03	2022-04-18@12:01
2x2_2C_8b_C2v_L	7.3621557	0	14	3.0110586	-0.00032067554	-3.1543396	-3.7803348	-0.10470406	-3.7803428	-0.10470601	0.14389141	-3.3649279	9.8	-3.4089942e-05	5.3557071e-07	0.010036706	-0.16851476	0.010035898	-0.16851594	7.481718e-07	4.848035e-06	-0.11203507	-1.0607487	1.6596004	0.047054367	-1.6596027	-0.047055367	0.23557166	-2.1887378	1.9814	1	0.23768621	0.013788135	1.2576282	1.6202354	-0.58566392	-0.19090398	0.078246701	0.13430744	0.2476452	1.9412052	1.8074715	1.5705824	1.8074717	1.5705865	0.017772162	1.5595797	1.1091665	0.00035039927	1.6711412e-06	0.10224066	1.1384795	0.10224319	1.1384818	-8.7703292e-06	-8.4412507e-06	1.1427536	0.73059402	-1.5438523	-0.57261757	1.543851	0.57262031	-0.29515503	2.5092895	0.029038398	0.22337672	0.05726857	0.17649917	0.35822683	0.17649902	0.35822289	0.017885535	0.34428337	0.0360532	4.0392968	5.3892428	5.153482	5.0561452	5.1534826	5.056143	4.2997313	6.1515095	5.2796298	2.742091	3.362015	5.1137723	3.3620131	5.1137672	3.7543366	3.2011151	-73.345942	R0:S0:1	-54.311531	uncorrelated	51514b8	1	sharp_wc_2.0_b_50	 1.32e+02	 1.77e-03	2022-04-18@12:10
2x2_2C_8b_C2v_L	7.318744	0	14	2.9997414	-0.00065467863	-3.1577426	-3.7863867	-0.10426211	-3.7863929	-0.10426424	0.14360257	-3.3736574	9.8	-3.5346441e-05	2.2172924e-08	0.010068125	-0.16810078	0.010068472	-0.16810139	-2.8763674e-06	-6.8258551e-06	-0.11201132	-1.0616144	1.6611906	0.047518674	-1.6611921	-0.047519466	0.2351183	-2.191269	1.9837	1	0.23771379	0.013840478	1.2577343	1.6203668	-0.58539096	-0.19063428	0.078152665	0.1343277	0.24746993	1.9412242	1.807623	1.5699098	1.8076231	1.5699079	0.01773552	1.5600527	1.1091921	0.00036605311	-4.2302831e-06	0.10221654	1.1380969	0.10221441	1.1380942	2.1149424e-05	1.1996286e-05	1.142534	0.73052679	-1.5434397	-0.57489468	1.5434414	0.57489781	-0.29469941	2.5088099	0.029041889	0.22314766	0.05724972	0.17636812	0.35838601	0.17636806	0.35838738	0.017847108	0.34404839	0.03605344	4.0384374	5.3895571	5.1527734	5.0586063	5.1527711	5.0586086	4.3002723	6.149475	5.2801143	2.7415512	3.3613318	5.114539	3.3613348	5.1145436	3.7535498	3.2014665	-73.398054	R0:S0:1	-54.402069	uncorrelated	51514b8	1	sharp_wc_2.0_b_50	 1.33e+02	 1.79e-03	2022-04-18@12:19
2x2_2C_8b_C2v_L	7.2773987	0	14	2.9884241	-0.00082925141	-3.1634208	-3.7954979	-0.10430361	-3.7954963	-0.1043044	0.14338952	-3.3820386	9.8	-4.7751285e-05	1.197936e-07	0.010117119	-0.16796589	0.010117657	-0.16796618	-4.104017e-06	-6.0602792e-06	-0.11201223	-1.0628044	1.6634226	0.047838732	-1.6634212	-0.047840851	0.23476267	-2.1936352	1.986	1	0.23774138	0.013867843	1.2578971	1.6205625	-0.58493175	-0.19019974	0.078000061	0.13435673	0.24548566	1.9413787	1.8079465	1.5726019	1.8079469	1.5725978	0.017610293	1.5610263	1.1092787	0.00049571292	-3.5576053e-06	0.10202899	1.1350886	0.10202565	1.1350894	2.7388643e-05	1.1469203e-05	1.1402824	0.72958756	-1.5426509	-0.57492358	1.5426495	0.57493072	-0.29397239	2.5072031	0.029047192	0.2216724	0.057109562	0.17612348	0.35682051	0.1761231	0.35682264	0.017720409	0.34357584	0.03603975	4.0275073	5.3920506	5.1536668	5.0566657	5.1536646	5.0566726	4.3008487	6.1455287	5.2795313	2.7406408	3.3631763	5.1069828	3.3631758	5.1069904	3.7528837	3.2032209	-73.468894	R0:S0:1	-54.492607	uncorrelated	51514b8	1	sharp_wc_2.0_b_50	 1.33e+02	 1.85e-03	2022-04-18@12:28
2x2_2C_8b_C2v_L	7.2332648	0	14	2.9771069	-0.0011126811	-3.1655119	-3.7991799	-0.10380735	-3.7991795	-0.10380616	0.14304142	-3.3899307	9.8	-4.9392376e-05	5.8396244e-07	0.010157048	-0.16750906	0.010156756	-0.16750883	-2.6771536e-06	-7.0809768e-06	-0.11197929	-1.0635198	1.6645206	0.048292835	-1.6645202	-0.048292744	0.23428801	-2.1959169	1.9883	1	0.23776897	0.013917506	1.2579852	1.6206646	-0.58473004	-0.18997716	0.077923284	0.13437573	0.24554843	1.9413627	1.8080017	1.5714031	1.8080019	1.5713957	0.017590489	1.5613363	1.1092906	0.00051651717	-4.5864271e-06	0.10202662	1.1351526	0.10202377	1.135158	1.9936879e-05	1.2353076e-05	1.1404365	0.7297146	-1.5424886	-0.5774825	1.5424881	0.577481	-0.29356666	2.5070395	0.029050461	0.22158682	0.057122778	0.17606739	0.3572732	0.17606715	0.35727832	0.017699074	0.34341801	0.036043709	4.0281843	5.3920162	5.1528977	5.0596579	5.1528951	5.0596618	4.3013641	6.1441331	5.2800526	2.7401849	3.3620981	5.1090786	3.3620964	5.1090945	3.7521251	3.2032303	-73.506034	R0:S0:1	-54.583145	uncorrelated	51514b8	1	sharp_wc_2.0_b_50	 1.33e+02	 1.63e-03	2022-04-18@12:36
2x2_2C_8b_C2v_L	7.1925249	0	14	2.9657897	-0.0012583761	-3.1725245	-3.8113546	-0.10391913	-3.8113642	-0.10392371	0.14293056	-3.3993411	9.8	-5.9809201e-05	-2.1993998e-06	0.010252653	-0.16747146	0.010253434	-0.16747335	1.8627034e-06	6.4713451e-06	-0.11200205	-1.0648949	1.6673829	0.048580638	-1.6673845	-0.048585648	0.23403046	-2.1986064	1.9906	1	0.23779655	0.01393482	1.258163	1.620881	-0.58421141	-0.18949673	0.077752939	0.1344074	0.24324693	1.9415525	1.8084389	1.5745954	1.8084396	1.5746016	0.017453676	1.5624854	1.1093929	0.00062681263	1.112977e-05	0.10161501	1.131752	0.10161507	1.1317557	-2.0438516e-05	-1.4992225e-05	1.1376873	0.72857124	-1.5414142	-0.57693539	1.541409	0.57695496	-0.29286447	2.5050852	0.029056204	0.21988696	0.056950462	0.1757334	0.35546918	0.17573284	0.35546155	0.017560658	0.3428591	0.036026206	4.0153444	5.3949485	5.1538709	5.0569801	5.153872	5.0569869	4.3019856	6.1394858	5.279504	2.7391576	3.3644015	5.1002971	3.3643941	5.1002873	3.7514428	3.2053492	-73.595548	R0:S0:1	-54.673683	uncorrelated	51514b8	1	sharp_wc_2.0_b_50	 1.33e+02	 2.07e-03	2022-04-18@12:44
2x2_2C_8b_C2v_L	7.1476804	0	14	2.9544724	-0.0015656925	-3.1736778	-3.8132265	-0.10339468	-3.8132326	-0.10339368	0.1421934	-3.4057322	9.8	-5.6893218e-05	9.2454314e-07	0.010293833	-0.16692544	0.010294195	-0.16692637	8.7127899e-07	9.1537719e-07	-0.11195151	-1.06545	1.6681275	0.049144262	-1.6681288	-0.049144889	0.23326022	-2.2004219	1.9929	1	0.23782414	0.013995315	1.2582328	1.6209594	-0.58407544	-0.18932749	0.077694093	0.13442399	0.24348881	1.9415188	1.8083962	1.5729696	1.8083971	1.5729636	0.017414741	1.5625838	1.1093893	0.00060131411	1.2095563e-06	0.10175881	1.1321186	0.10175678	1.1321389	-8.4448367e-06	-3.1220503e-06	1.1382876	0.72879988	-1.5415364	-0.58038648	1.5415299	0.58038518	-0.29218154	2.5053065	0.029059092	0.21990276	0.056979277	0.17575367	0.35609303	0.17575279	0.35609531	0.017520101	0.34280285	0.036034013	4.0173579	5.3945801	5.1529826	5.0607718	5.1529805	5.0607744	4.3023391	6.1389402	5.2799062	2.7387308	3.3629354	5.1035037	3.3629233	5.1035236	3.7507254	3.2049764	-73.619335	R0:S0:1	-54.764221	uncorrelated	51514b8	1	sharp_wc_2.0_b_50	 1.34e+02	 1.54e-03	2022-04-18@12:53
2x2_2C_8b_C2v_L	7.1057801	0	14	2.9431552	-0.0020298626	-3.1809955	-3.8249081	-0.1035128	-3.8248954	-0.1035156	0.14217963	-3.4135005	9.8	-3.9377064e-05	-3.8550503e-06	0.010422769	-0.16667341	0.010421016	-0.16667367	-3.8524487e-06	-9.856283e-06	-0.1119159	-1.0670291	1.6709934	0.049829406	-1.6709886	-0.04982956	0.23279953	-2.2028138	1.9952	1	0.23785172	0.014042679	1.2583756	1.6211632	-0.58364312	-0.18896525	0.077563753	0.13445693	0.24231238	1.9416166	1.8087061	1.5749968	1.8087073	1.5749904	0.017291468	1.5632511	1.1094539	0.00042035247	4.1046143e-06	0.10167067	1.1295541	0.10166882	1.1295703	2.5117896e-05	1.3198718e-05	1.1370686	0.72827946	-1.540837	-0.58246999	1.5408285	0.58246838	-0.29138883	2.5043009	0.029064968	0.21906066	0.056890235	0.17551085	0.35460606	0.17550974	0.3546085	0.01739509	0.3424773	0.036028997	4.0106088	5.3962988	5.1531951	5.0608825	5.1531935	5.0608886	4.3026811	6.1362474	5.2793998	2.7379779	3.3639301	5.0980894	3.3639199	5.0981089	3.7501695	3.2060063	-73.704385	R0:S0:1	-54.854759	uncorrelated	51514b8	2	sharp_wc_2.0_b_50	 1.34e+02	 1.26e-03	2022-04-18@13:05
2x2_2C_8b_C2v_L	7.0640225	0	14	2.9318379	-0.0019078451	-3.1842853	-3.8300591	-0.10321088	-3.8300493	-0.10320988	0.14211983	-3.4246464	9.8	-3.8824793e-05	1.4571207e-06	0.010371945	-0.16658731	0.010375233	-0.16658762	6.8600483e-07	5.1119524e-06	-0.11193778	-1.0677332	1.6722381	0.049714566	-1.6722335	-0.049716644	0.23280339	-2.2058468	1.9975	1	0.23787931	0.014044233	1.2585321	1.6213117	-0.58324385	-0.18852304	0.077411595	0.13448052	0.24028844	1.941771	1.8089993	1.5767733	1.809001	1.576769	0.017238103	1.564438	1.1095439	0.00041302982	2.5339188e-06	0.10132592	1.127334	0.10132198	1.1273566	-1.0290101e-05	-8.8911506e-06	1.1343181	0.72727133	-1.5399817	-0.58063853	1.5399692	0.5806429	-0.29116514	2.5024146	0.029069204	0.21745992	0.056749989	0.17528811	0.35385687	0.17528664	0.35385676	0.017340824	0.34189167	0.036010778	3.9994719	5.3987556	5.1541023	5.0584398	5.1541019	5.0584478	4.3037331	6.1313157	5.2796467	2.737016	3.3655793	5.0921646	3.365562	5.092178	3.7492011	3.208018	-73.757507	R0:S0:1	-54.945297	uncorrelated	51514b8	1	sharp_wc_2.0_b_50	 1.34e+02	 2.01e-03	2022-04-18@13:14
2x2_2C_8b_C2v_L	7.0200185	0	14	2.9205207	-0.0022204597	-3.1875787	-3.8354129	-0.1028082	-3.8353957	-0.10280377	0.14166627	-3.4317791	9.8	-3.0758483e-05	-4.8703524e-06	0.010427135	-0.16621315	0.010426445	-0.16621271	2.1136795e-06	-3.7050921e-07	-0.11193551	-1.0685879	1.6736973	0.050115244	-1.6736945	-0.050111714	0.23227322	-2.2078861	1.9998	1	0.2379069	0.014083477	1.2586229	1.6214171	-0.58302595	-0.18829064	0.077331709	0.13449701	0.2403855	1.9417688	1.8091008	1.5758708	1.8091013	1.5758582	0.017204566	1.5647467	1.1095576	0.00033019807	1.3993049e-05	0.10124112	1.1272727	0.10123872	1.1273043	-1.5315501e-05	-4.4085281e-06	1.134468	0.72735791	-1.5397202	-0.5827709	1.5397129	0.58275426	-0.29067942	2.5021515	0.029072032	0.21745512	0.056750583	0.1751962	0.3541665	0.17519565	0.35417459	0.017305896	0.34173381	0.036013227	4.0000916	5.3987376	5.1533807	5.0610012	5.1533808	5.0609996	4.3040812	6.1299552	5.2800545	2.7366422	3.3647201	5.0937584	3.3647021	5.0937932	3.7485859	3.2081609	-73.802899	R0:S0:1	-55.035834	uncorrelated	51514b8	1	sharp_wc_2.0_b_50	 1.35e+02	 1.73e-03	2022-04-18@13:22
2x2_2C_8b_C2v_L	6.9778765	0	14	2.9092034	-0.0024146114	-3.1919855	-3.8431351	-0.10271519	-3.843128	-0.10271501	0.14150655	-3.4397981	9.8	-1.9464546e-05	-1.3454392e-06	0.010480741	-0.1659888	0.010480611	-0.16598926	1.1695399e-06	-9.2170233e-06	-0.1118982	-1.0696179	1.6756616	0.050419759	-1.675661	-0.050418344	0.23187689	-2.2101731	2.0021	1	0.23793448	0.014105148	1.2587643	1.6215835	-0.58263688	-0.18791362	0.077198969	0.1345248	0.23884539	1.9418824	1.809349	1.5777077	1.8093493	1.5777002	0.017103096	1.5655408	1.1096297	0.00020922269	-3.161542e-07	0.10104022	1.1249191	0.10103724	1.1249344	-2.3719728e-06	1.1571442e-05	1.1325766	0.72665535	-1.5391142	-0.58310209	1.5391113	0.58309427	-0.29000854	2.5008985	0.029077045	0.21627395	0.056647294	0.17500589	0.35305212	0.17500553	0.35305715	0.017203143	0.34134089	0.036003255	3.9915639	5.4007061	5.1539762	5.0600188	5.1539748	5.0600194	4.3046161	6.1267002	5.2798705	2.7358135	3.3659219	5.0884106	3.3659143	5.0884313	3.7479302	3.2095115	-73.863935	R0:S0:1	-55.126372	uncorrelated	51514b8	1	sharp_wc_2.0_b_50	 1.35e+02	 1.72e-03	2022-04-18@13:30
2x2_2C_8b_C2v_L	6.9340552	0	14	2.8978862	-0.0027013549	-3.1943195	-3.8474363	-0.10232006	-3.8474316	-0.10231775	0.1411679	-3.4478693	9.8	-1.162404e-05	6.486497e-07	0.010503291	-0.16559242	0.010503267	-0.16559153	3.4441272e-06	7.6291491e-06	-0.11190266	-1.0702726	1.6768539	0.050820731	-1.6768531	-0.050819545	0.23144983	-2.2124812	2.0044	1	0.23796207	0.01414651	1.258861	1.6216924	-0.5824043	-0.18766278	0.077111842	0.13454382	0.2386318	1.9418979	1.8094523	1.5772397	1.8094521	1.5772406	0.017069425	1.5659609	1.1096539	0.00012677005	4.4570942e-06	0.10103292	1.1243935	0.10103486	1.1243983	-2.6562933e-05	-1.4108237e-05	1.1324448	0.72656761	-1.5388171	-0.58506231	1.5388155	0.58505924	-0.28957129	2.5004922	0.029080335	0.21602494	0.056632003	0.17491639	0.3531336	0.17491652	0.3531328	0.017168282	0.34112757	0.036003425	3.9904966	5.4010684	5.1535342	5.0620828	5.1535366	5.062082	4.3051826	6.1248533	5.2801356	2.735286	3.3653992	5.0887258	3.3653943	5.0887239	3.7471605	3.2098321	-73.904868	R0:S0:1	-55.21691	uncorrelated	51514b8	1	sharp_wc_2.0_b_50	 1.35e+02	 1.61e-03	2022-04-18@13:39
2x2_2C_8b_C2v_L	6.8929866	0	14	2.886569	-0.0028098037	-3.2013181	-3.8597909	-0.10239668	-3.8597984	-0.10239768	0.14099239	-3.4571256	9.8	-1.7397245e-05	4.2372429e-06	0.010591863	-0.16552182	0.010591544	-0.16552311	2.1815916e-06	4.563634e-06	-0.11190248	-1.0717501	1.6797363	0.051169683	-1.679738	-0.051169513	0.2311332	-2.2151194	2.0067	1	0.23798966	0.014166831	1.2590288	1.6219006	-0.58190781	-0.18721073	0.076952173	0.13457345	0.2365282	1.9420617	1.8098725	1.579986	1.8098734	1.5799871	0.016938983	1.567017	1.1097483	0.00018913225	-5.5401969e-06	0.10068016	1.1212914	0.10068235	1.1213068	-1.7234887e-05	-7.4951353e-06	1.1298604	0.72560413	-1.537776	-0.58495569	1.5377696	0.58495103	-0.28886159	2.4986795	0.029085658	0.21441732	0.056483323	0.174592	0.35152563	0.17459118	0.35152307	0.017036263	0.34060624	0.035987387	3.9789121	5.403707	5.1542529	5.0600225	5.1542526	5.06002	4.3057151	6.1205687	5.2797992	2.7343373	3.3673771	5.0810363	3.3673678	5.0810419	3.7465342	3.2117853	-73.994654	R0:S0:1	-55.307448	uncorrelated	51514b8	1	sharp_wc_2.0_b_50	 1.36e+02	 2.03e-03	2022-04-18@13:47
2x2_2C_8b_C2v_L	6.8495069	0	14	2.8752517	-0.0032194315	-3.2054801	-3.8658708	-0.10224932	-3.8658689	-0.10224892	0.1407225	-3.4651708	9.8	-1.1590632e-05	9.7931437e-07	0.010657603	-0.16517526	0.010660085	-0.16517373	7.5570809e-06	8.3932104e-06	-0.111889	-1.0727515	1.681363	0.051753628	-1.6813603	-0.051761163	0.23065642	-2.2174946	2.009	1	0.23801724	0.014216779	1.2591326	1.622035	-0.58163299	-0.18694731	0.07685899	0.13459936	0.23611354	1.9420959	1.8100025	1.580341	1.8100016	1.580353	0.016873975	1.5674522	1.1097806	0.00012862292	6.0201716e-06	0.10074785	1.1201428	0.10074713	1.1201146	-5.2557035e-05	-1.8520737e-05	1.1296006	0.72541847	-1.5374621	-0.58741327	1.5374649	0.58745026	-0.28825963	2.4982407	0.02909021	0.21407549	0.056451452	0.17448543	0.3510288	0.1744862	0.35101931	0.016970116	0.34038695	0.035988506	3.9764946	5.4044669	5.1540727	5.0615951	5.1540777	5.0616125	4.3062397	6.1186997	5.2797241	2.7337219	3.3672607	5.079509	3.3672662	5.0794656	3.7457907	3.2121696	-74.04837	R0:S0:1	-55.397986	uncorrelated	51514b8	1	sharp_wc_2.0_b_50	 1.36e+02	 1.63e-03	2022-04-18@13:55
2x2_2C_8b_C2v_L	6.8063721	0	14	2.8639345	-0.0034091382	-3.2082189	-3.8705763	-0.10187323	-3.8705723	-0.10186916	0.14050379	-3.4743626	9.8	9.1783151e-06	2.1197006e-07	0.01067228	-0.16484357	0.010671582	-0.16484324	4.7423792e-06	7.1085075e-06	-0.11186926	-1.0734806	1.6826606	0.051981544	-1.6826605	-0.051975619	0.23032787	-2.2201198	2.0113	1	0.23804483	0.01423835	1.2592482	1.6221627	-0.58133819	-0.18663863	0.076751904	0.13462374	0.2352829	1.9421563	1.810153	1.5807007	1.8101537	1.580697	0.016829979	1.5681033	1.1098301	-9.9998398e-05	4.1540079e-06	0.10058187	1.1189219	0.10058463	1.1189482	-3.1364682e-05	-1.2730818e-05	1.1284823	0.72502358	-1.5370423	-0.58808357	1.5370354	0.58805672	-0.28784174	2.4973962	0.029094492	0.21337477	0.056395794	0.1743647	0.35077548	0.17436405	0.35077821	0.01692509	0.34005816	0.035983331	3.9718578	5.4056043	5.1541632	5.0621563	5.1541639	5.0621442	4.3069628	6.115922	5.2800652	2.732999	3.3674651	5.0776398	3.3674523	5.077659	3.7449478	3.2130034	-74.094463	R0:S0:1	-55.488524	uncorrelated	51514b8	1	sharp_wc_2.0_b_50	 1.36e+02	 1.73e-03	2022-04-18@14:04
2x2_2C_8b_C2v_L	6.7643828	0	14	2.8526172	-0.0036257809	-3.2148913	-3.8815138	-0.10191587	-3.8814602	-0.10190166	0.14026404	-3.4821588	9.8	2.4799297e-05	-4.1094989e-07	0.010747286	-0.16473392	0.010745477	-0.16473116	1.6114851e-06	-9.4241257e-06	-0.11188159	-1.0748415	1.685264	0.052361664	-1.6852542	-0.052353357	0.22995941	-2.222321	2.0136	1	0.23807241	0.01426414	1.2593913	1.6223394	-0.5809254	-0.18625632	0.076618297	0.13464723	0.23393283	1.9422744	1.8104838	1.5825481	1.8104833	1.5825268	0.016726149	1.568891	1.1098976	-0.00027474484	-4.5501436e-06	0.10036526	1.1166759	0.10036188	1.1167041	3.1498331e-06	1.6991588e-05	1.126813	0.72437789	-1.5362351	-0.58862254	1.5362331	0.58858394	-0.28719876	2.4960561	0.029098689	0.21235482	0.056288158	0.17410591	0.34960156	0.1741062	0.34961998	0.016819987	0.33966609	0.035972836	3.9642528	5.4073876	5.1544885	5.0612534	5.1544897	5.0612454	4.3073217	6.112712	5.2798415	2.7323114	3.368689	5.0724027	3.3686783	5.0724461	3.7444446	3.2144225	-74.173895	R0:S0:1	-55.579062	uncorrelated	51514b8	1	sharp_wc_2.0_b_50	 1.36e+02	 1.95e-03	2022-04-18@14:12
2x2_2C_8b_C2v_L	6.720473	0	14	2.8413	-0.0039667215	-3.2178254	-3.8860455	-0.10159293	-3.8860376	-0.10159239	0.1399805	-3.4898707	9.8	4.1868449e-05	-1.8151784e-07	0.010810178	-0.16432645	0.010808926	-0.16432648	9.0608029e-07	-3.076206e-06	-0.1118617	-1.0756619	1.6865636	0.052830671	-1.6865633	-0.052822564	0.22946684	-2.2245665	2.0159	1	0.2381	0.014302486	1.2594845	1.6224521	-0.58069353	-0.18601865	0.076535163	0.13466966	0.23371199	1.9422863	1.8105661	1.5822645	1.8105663	1.5822644	0.016679495	1.5692529	1.109922	-0.00046895294	-5.8171526e-06	0.10032846	1.1159855	0.10033221	1.1159961	3.1624242e-06	7.7564031e-06	1.1266918	0.72432199	-1.5360247	-0.59084836	1.5360243	0.59081267	-0.2866644	2.4957444	0.029102599	0.21212286	0.056276365	0.1740341	0.34953341	0.17403395	0.34953584	0.016772222	0.33948015	0.035974726	3.9630717	5.4078132	5.1541525	5.0633233	5.1541524	5.0633024	4.3078215	6.1111133	5.2800139	2.7317769	3.3681961	5.0724158	3.3681975	5.0724263	3.7437197	3.2146573	-74.216947	R0:S0:1	-55.6696	uncorrelated	51514b8	1	sharp_wc_2.0_b_50	 1.37e+02	 1.56e-03	2022-04-18@14:21
