model	E_kin	D	U	e	eb1_1	eb2_1	eb3_1	eb4_1	eb5_1	eb6_1	eb7_1	eb8_1	mu	sb1_1	sb2_1	sb3_1	sb4_1	sb5_1	sb6_1	sb7_1	sb8_1	tb1_1	tb2_1	tb3_1	tb4_1	tb5_1	tb6_1	tb7_1	tb8_1	tpd	tpp	tppp	ave_D	ave_e	ave_mu	ave_tpd	ave_tpp	ave_tppp	ave_U_1	ave_eb1_1	ave_eb2_1	ave_eb3_1	ave_eb4_1	ave_eb5_1	ave_eb6_1	ave_eb7_1	ave_eb8_1	ave_mu_1	ave_sb1_1	ave_sb2_1	ave_sb3_1	ave_sb4_1	ave_sb5_1	ave_sb6_1	ave_sb7_1	ave_sb8_1	ave_tb1_1	ave_tb2_1	ave_tb3_1	ave_tb4_1	ave_tb5_1	ave_tb6_1	ave_tb7_1	ave_tb8_1	var_U_1	var_eb1_1	var_eb2_1	var_eb3_1	var_eb4_1	var_eb5_1	var_eb6_1	var_eb7_1	var_eb8_1	var_mu_1	var_sb1_1	var_sb2_1	var_sb3_1	var_sb4_1	var_sb5_1	var_sb6_1	var_sb7_1	var_sb8_1	var_tb1_1	var_tb2_1	var_tb3_1	var_tb4_1	var_tb5_1	var_tb6_1	var_tb7_1	var_tb8_1	E0_1	sector_1	E0_2	sector_2	githash	iterations	dist_function	distance	diff_hybrid	time
2x2_2C_8b_C2v_L	4.205323	0	14	2.3	0.0092323556	-3.1612953	-3.9339231	-0.13165602	-3.933917	-0.13165757	0.17209696	-3.5973986	9.45	1.5333356e-05	9.0001191e-07	0.0074718567	-0.19108458	0.0074731519	-0.19108478	-5.7657766e-06	-5.6877182e-06	-0.11850641	-1.0885199	1.7345396	0.028063295	-1.7345386	-0.028069645	0.26131458	-2.2993085	2.1	1	0.2	0.011014664	1.2519588	1.607485	-0.61498912	-0.20311522	0.084307505	0.12949793	0.2938939	1.9358755	1.7869603	1.5383428	1.786959	1.5383442	0.022639357	1.5299848	1.095121	-0.00013671482	-4.0628793e-06	0.1182721	1.2628247	0.11826774	1.2628013	3.54288e-05	1.1581043e-05	1.2467653	0.7480265	-1.6227773	-0.53164182	1.6227852	0.53167337	-0.32039503	2.6034654	0.028144568	0.26322277	0.062195902	0.19280422	0.38481944	0.19280532	0.3848181	0.023007451	0.35634523	0.037726165	4.2581233	5.3725169	5.1615345	4.9584374	5.1615372	4.9584558	4.3909876	6.2465555	5.2386728	2.7347131	3.3624616	5.2937249	3.3624713	5.293705	3.6810523	3.1101808	-73.397626	R0:S0:1	-57.2	uncorrelated	51514b8	5	sharp_wc_2.0_b_50	 1.82e+02	 3.84e-03	2022-04-16@11:53
2x2_2C_8b_C2v_L	4.5335385	0	14	2.3457632	0.0043142314	-3.225437	-3.987358	-0.11796672	-3.9873633	-0.11796944	0.15932951	-3.6391988	9.5552632	4.773795e-05	2.5263804e-05	0.0099739179	-0.17997251	0.0099684619	-0.17997661	-8.7792097e-07	3.9528667e-06	-0.11607991	-1.0926075	1.7339414	0.042002067	-1.7339455	-0.041991723	0.24868704	-2.2946035	2.0920632	1	0.20196316	0.013775673	1.2556076	1.6137431	-0.60024868	-0.19474728	0.080840653	0.1309699	0.27229533	1.9385819	1.797586	1.5381625	1.7975898	1.5381522	0.020405212	1.5477177	1.0999328	-0.00045603399	-5.5266819e-05	0.11235261	1.2237	0.11236657	1.2237803	3.314108e-06	3.5860171e-06	1.2081667	0.73878596	-1.5853024	-0.58562259	1.5852784	0.58555746	-0.30835425	2.5601144	0.028417427	0.24245069	0.059669918	0.18424634	0.37913207	0.18424312	0.37913392	0.020611202	0.34879626	0.03705645	4.1700212	5.3796801	5.1399641	5.0207817	5.1399568	5.0207477	4.3676635	6.1805253	5.2611043	2.7321609	3.3553041	5.2414005	3.3552684	5.2414718	3.6948056	3.157016	-74.168862	R0:S0:1	-57.676	uncorrelated	51514b8	3	sharp_wc_2.0_b_50	 1.71e+02	 5.80e-03	2022-04-16@12:08
2x2_2C_8b_C2v_L	4.8834587	0	14	2.3915263	-0.0011609205	-3.2929501	-4.042654	-0.10619802	-4.0426636	-0.10619291	0.14666247	-3.681979	9.6605263	-9.0048281e-06	1.4291602e-06	0.010963031	-0.16858542	0.01096069	-0.16858473	6.7125142e-06	5.693701e-06	-0.11320417	-1.096787	1.7335463	0.051470067	-1.7335496	-0.051462491	0.23513437	-2.2898012	2.0841263	1	0.20392632	0.014608532	1.2598211	1.6205611	-0.58354247	-0.18455069	0.07674864	0.13250529	0.23336601	1.9423873	1.8088715	1.5765109	1.8088721	1.5765056	0.017506028	1.5710115	1.1053873	9.3648399e-05	1.5517271e-06	0.10285752	1.1438724	0.10286178	1.143901	-4.2579234e-05	-1.1775911e-05	1.1402564	0.72110269	-1.5464184	-0.59576142	1.5464132	0.59572886	-0.29194201	2.5040959	0.028702308	0.21160104	0.056176695	0.17533974	0.35452702	0.17533919	0.35453135	0.017618659	0.33798808	0.036207611	3.9666189	5.4111765	5.1431911	5.0408611	5.1431902	5.0408461	4.3449491	6.0915202	5.2725043	2.7266064	3.3760925	5.1054045	3.3760803	5.1054307	3.7104554	3.2147641	-74.961482	R0:S0:1	-58.152	uncorrelated	51514b8	4	sharp_wc_2.0_b_50	 1.57e+02	 4.58e-03	2022-04-16@12:28
2x2_2C_8b_C2v_L	5.2351859	0	14	2.4372895	-0.013015911	-3.3733152	-4.0985023	-0.095123693	-4.0985304	-0.095130224	0.12995206	-3.717733	9.7657895	-1.0261608e-05	1.0673668e-06	0.011544584	-0.15421202	0.011545043	-0.15421283	-8.2552638e-06	-1.0013339e-05	-0.11040757	-1.1027136	1.7342022	0.061133242	-1.7342075	-0.06113755	0.21656314	-2.2838162	2.0761895	1	0.20588947	0.01450177	1.2640185	1.6274489	-0.56663497	-0.1742414	0.072688768	0.13399414	0.20659504	1.9453941	1.8197719	1.6193471	1.8197717	1.6193439	0.01468846	1.5927639	1.1106269	0.00015164945	-6.7377065e-06	0.093791876	1.0502216	0.0937883	1.0502084	4.7989051e-05	1.5742323e-05	1.0800927	0.70816706	-1.5082029	-0.59909694	1.5082081	0.59911673	-0.27037458	2.451507	0.02897637	0.19119987	0.053400889	0.16662879	0.3238274	0.16662892	0.3238295	0.014757793	0.32708646	0.035379878	3.8106198	5.4348735	5.1509237	5.0603797	5.1509179	5.0603903	4.3207969	6.0109602	5.2818377	2.724383	3.3951532	4.9637688	3.3951616	4.9637742	3.7264493	3.2647142	-75.773992	R0:S0:1	-58.628	uncorrelated	51514b8	5	sharp_wc_2.0_b_50	 1.42e+02	 6.48e-03	2022-04-16@12:52
