Number of OpenMP threads = 4
!!!!!!!!!!!!!!!!!!!!!!!!!!!!! - Fading to Sr2CuO2Cl2 - !!!!!!!!!!!!!!!!!!!!!!!!!!!!!
reading data file /home/theod/code_pyqcm/simulations/cdmft_max_supra_sid.tsv, line 1
111 columns read
----->  D  =  0.0
----->  U  =  14.0
----->  e  =  2.3
----->  eb1_1  =  -0.006655534
----->  eb2_1  =  -3.3502828
----->  eb3_1  =  -4.1133163
----->  eb4_1  =  -0.10235806
----->  eb5_1  =  -4.113222
----->  eb6_1  =  -0.1023468
----->  eb7_1  =  0.14108001
----->  eb8_1  =  -3.7537133
----->  mu  =  9.68
----->  sb1_1  =  -0.0001012231
----->  sb2_1  =  7.5002141e-06
----->  sb3_1  =  0.011771903
----->  sb4_1  =  -0.16264369
----->  sb5_1  =  0.011773954
----->  sb6_1  =  -0.16264057
----->  sb7_1  =  1.0013529e-05
----->  sb8_1  =  -2.0059213e-06
----->  tb1_1  =  -0.11240159
----->  tb2_1  =  -1.1061747
----->  tb3_1  =  1.7476608
----->  tb4_1  =  0.057892245
----->  tb5_1  =  -1.7476438
----->  tb6_1  =  -0.057886658
----->  tb7_1  =  0.22749261
----->  tb8_1  =  -2.3061557
----->  tpd  =  2.1
----->  tpp  =  1.0
----->  tppp  =  0.2

******************************* CDMFT procedure *******************************

minimization method =  CG
mixing state =  1
frequency grid type =  sharp
fictitious inverse temperature =  50
frequency cutoff =  2.0
--------------------------------------------------------------------------------

CDMFT iteration 1, distance =  1.66e+02, diff param =  6.25e-02
115 minimization steps, time(MIN)/time(ED)=0.00305
sb1_1     =  0.0000	sb2_1     =  0.0000	sb3_1     =  0.0101	sb4_1     = -0.1828	sb5_1     =  0.0101	
sb6_1     = -0.1828	sb7_1     =  0.0000	sb8_1     =  0.0000	eb1_1     =  0.0073	eb2_1     = -3.2389	
eb3_1     = -3.9540	eb4_1     = -0.1165	eb5_1     = -3.9540	eb6_1     = -0.1165	eb7_1     =  0.1567	
eb8_1     = -3.5866	tb1_1     = -0.1179	tb2_1     = -1.1035	tb3_1     =  1.7423	tb4_1     =  0.0429	
tb5_1     = -1.7423	tb6_1     = -0.0430	tb7_1     =  0.2522	tb8_1     = -2.3030	

CDMFT iteration 2, distance =  1.92e+02, diff param =  1.04e-02, diff hybrid =  9.64e-02
34 minimization steps, time(MIN)/time(ED)=0.00212
sb1_1     =  0.0000	sb2_1     =  0.0000	sb3_1     =  0.0065	sb4_1     = -0.1959	sb5_1     =  0.0065	
sb6_1     = -0.1959	sb7_1     = -0.0000	sb8_1     = -0.0000	eb1_1     =  0.0127	eb2_1     = -3.2345	
eb3_1     = -3.9523	eb4_1     = -0.1356	eb5_1     = -3.9522	eb6_1     = -0.1356	eb7_1     =  0.1719	
eb8_1     = -3.5947	tb1_1     = -0.1194	tb2_1     = -1.0978	tb3_1     =  1.7358	tb4_1     =  0.0235	
tb5_1     = -1.7358	tb6_1     = -0.0236	tb7_1     =  0.2660	tb8_1     = -2.2952	

CDMFT iteration 3, distance =  1.79e+02, diff param =  1.65e-02, diff hybrid =  4.47e-02
74 minimization steps, time(MIN)/time(ED)=0.00206
sb1_1     = -0.0001	sb2_1     =  0.0000	sb3_1     =  0.0080	sb4_1     = -0.1889	sb5_1     =  0.0080	
sb6_1     = -0.1889	sb7_1     =  0.0000	sb8_1     = -0.0000	eb1_1     =  0.0052	eb2_1     = -3.1620	
eb3_1     = -3.9331	eb4_1     = -0.1316	eb5_1     = -3.9331	eb6_1     = -0.1316	eb7_1     =  0.1732	
eb8_1     = -3.6026	tb1_1     = -0.1181	tb2_1     = -1.0896	tb3_1     =  1.7365	tb4_1     =  0.0302	
tb5_1     = -1.7365	tb6_1     = -0.0301	tb7_1     =  0.2588	tb8_1     = -2.3032	

CDMFT iteration 4, distance =  1.82e+02, diff param =  1.87e-03, diff hybrid =  2.65e-02
27 minimization steps, time(MIN)/time(ED)=0.00175
sb1_1     =  0.0000	sb2_1     = -0.0000	sb3_1     =  0.0079	sb4_1     = -0.1902	sb5_1     =  0.0079	
sb6_1     = -0.1902	sb7_1     = -0.0000	sb8_1     = -0.0000	eb1_1     =  0.0074	eb2_1     = -3.1621	
eb3_1     = -3.9329	eb4_1     = -0.1298	eb5_1     = -3.9329	eb6_1     = -0.1298	eb7_1     =  0.1704	
eb8_1     = -3.5966	tb1_1     = -0.1186	tb2_1     = -1.0888	tb3_1     =  1.7347	tb4_1     =  0.0298	
tb5_1     = -1.7347	tb6_1     = -0.0299	tb7_1     =  0.2604	tb8_1     = -2.2996	

CDMFT iteration 5, distance =  1.84e+02, diff param =  1.36e-03, diff hybrid =  8.60e-03
26 minimization steps, time(MIN)/time(ED)=0.00154
sb1_1     = -0.0001	sb2_1     = -0.0000	sb3_1     =  0.0075	sb4_1     = -0.1911	sb5_1     =  0.0074	
sb6_1     = -0.1911	sb7_1     =  0.0000	sb8_1     = -0.0000	eb1_1     =  0.0092	eb2_1     = -3.1651	
eb3_1     = -3.9350	eb4_1     = -0.1317	eb5_1     = -3.9350	eb6_1     = -0.1317	eb7_1     =  0.1722	
eb8_1     = -3.5982	tb1_1     = -0.1185	tb2_1     = -1.0891	tb3_1     =  1.7347	tb4_1     =  0.0280	
tb5_1     = -1.7347	tb6_1     = -0.0280	tb7_1     =  0.2614	tb8_1     = -2.2995	

CDMFT iteration 6, distance =  1.82e+02, diff param =  8.12e-04, diff hybrid =  4.05e-03
9 minimization steps, time(MIN)/time(ED)=0.00134
====================== CDMFT converged on the parameters ======================
sb1_1     = -0.0000	sb2_1     = -0.0000	sb3_1     =  0.0079	sb4_1     = -0.1903	sb5_1     =  0.0079	
sb6_1     = -0.1903	sb7_1     = -0.0000	sb8_1     =  0.0000	eb1_1     =  0.0075	eb2_1     = -3.1649	
eb3_1     = -3.9349	eb4_1     = -0.1314	eb5_1     = -3.9349	eb6_1     = -0.1314	eb7_1     =  0.1721	
eb8_1     = -3.5981	tb1_1     = -0.1185	tb2_1     = -1.0895	tb3_1     =  1.7355	tb4_1     =  0.0299	
tb5_1     = -1.7355	tb6_1     = -0.0299	tb7_1     =  0.2603	tb8_1     = -2.3004	
   <D> = 0.011005
   <e> = 1.251969
   <mu> = 1.607498
   <tpd> = -0.614946
   <tpp> = -0.203087
   <tppp> = 0.084297
************************* CDMFT completed successfully *************************

******************************* CDMFT procedure *******************************

minimization method =  CG
mixing state =  1
frequency grid type =  sharp
fictitious inverse temperature =  50
frequency cutoff =  2.0
--------------------------------------------------------------------------------

CDMFT iteration 1, distance =  1.59e+02, diff param =  1.64e-01
329 minimization steps, time(MIN)/time(ED)=0.00819
sb1_1     = -0.0000	sb2_1     =  0.0000	sb3_1     =  0.0130	sb4_1     = -0.1504	sb5_1     =  0.0130	
sb6_1     = -0.1504	sb7_1     = -0.0000	sb8_1     =  0.0000	eb1_1     = -0.1172	eb2_1     = -3.7711	
eb3_1     = -4.2127	eb4_1     = -0.1078	eb5_1     = -4.2127	eb6_1     = -0.1078	eb7_1     =  0.1413	
eb8_1     = -3.9029	tb1_1     = -0.1489	tb2_1     = -1.1261	tb3_1     =  1.7366	tb4_1     =  0.0620	
tb5_1     = -1.7367	tb6_1     = -0.0620	tb7_1     =  0.2129	tb8_1     = -2.2964	

CDMFT iteration 2, distance =  7.92e+01, diff param =  2.27e-01, diff hybrid =  1.98e-01
281 minimization steps, time(MIN)/time(ED)=0.00770
sb1_1     = -0.0000	sb2_1     = -0.0000	sb3_1     =  0.0181	sb4_1     = -0.0722	sb5_1     =  0.0181	
sb6_1     = -0.0722	sb7_1     = -0.1994	sb8_1     = -0.0000	eb1_1     = -0.2821	eb2_1     = -4.5318	
eb3_1     = -4.6696	eb4_1     = -0.2140	eb5_1     = -4.6697	eb6_1     = -0.2140	eb7_1     =  0.2370	
eb8_1     = -4.1069	tb1_1     = -0.2038	tb2_1     = -1.2160	tb3_1     =  1.8106	tb4_1     =  0.1686	
tb5_1     = -1.8106	tb6_1     = -0.1686	tb7_1     = -0.0001	tb8_1     = -2.3302	

CDMFT iteration 3, distance =  8.10e+01, diff param =  1.53e-01, diff hybrid =  2.15e-01
128 minimization steps, time(MIN)/time(ED)=0.00675
sb1_1     = -0.0000	sb2_1     =  0.0000	sb3_1     =  0.0082	sb4_1     = -0.0826	sb5_1     =  0.0082	
sb6_1     = -0.0826	sb7_1     = -0.1416	sb8_1     = -0.0000	eb1_1     = -0.0423	eb2_1     = -3.9272	
eb3_1     = -4.5728	eb4_1     = -0.0677	eb5_1     = -4.5728	eb6_1     = -0.0677	eb7_1     =  0.0252	
eb8_1     = -3.9705	tb1_1     = -0.1396	tb2_1     = -1.1731	tb3_1     =  1.8074	tb4_1     =  0.1330	
tb5_1     = -1.8074	tb6_1     = -0.1330	tb7_1     = -0.0001	tb8_1     = -2.3194	

CDMFT iteration 4, distance =  1.36e+02, diff param =  1.15e-01, diff hybrid =  1.43e-01
119 minimization steps, time(MIN)/time(ED)=0.00561
sb1_1     =  0.0000	sb2_1     =  0.0000	sb3_1     =  0.0056	sb4_1     = -0.1427	sb5_1     =  0.0056	
sb6_1     = -0.1427	sb7_1     = -0.1915	sb8_1     =  0.0000	eb1_1     = -0.0065	eb2_1     = -3.7365	
eb3_1     = -4.2455	eb4_1     = -0.0518	eb5_1     = -4.2455	eb6_1     = -0.0518	eb7_1     = -0.0703	
eb8_1     = -3.8415	tb1_1     = -0.1116	tb2_1     = -1.1455	tb3_1     =  1.7436	tb4_1     =  0.0445	
tb5_1     = -1.7436	tb6_1     = -0.0445	tb7_1     = -0.0000	tb8_1     = -2.2804	

CDMFT iteration 5, distance =  1.31e+02, diff param =  3.20e-02, diff hybrid =  2.03e-01
90 minimization steps, time(MIN)/time(ED)=0.00468
sb1_1     =  0.0001	sb2_1     = -0.0000	sb3_1     =  0.0081	sb4_1     = -0.1370	sb5_1     =  0.0081	
sb6_1     = -0.1370	sb7_1     = -0.1918	sb8_1     = -0.0000	eb1_1     = -0.0177	eb2_1     = -3.6209	
eb3_1     = -4.2824	eb4_1     = -0.0764	eb5_1     = -4.2825	eb6_1     = -0.0764	eb7_1     = -0.1049	
eb8_1     = -3.9079	tb1_1     = -0.1032	tb2_1     = -1.1316	tb3_1     =  1.7569	tb4_1     =  0.0522	
tb5_1     = -1.7569	tb6_1     = -0.0522	tb7_1     =  0.0000	tb8_1     = -2.3064	

CDMFT iteration 6, distance =  1.12e+02, diff param =  1.43e-01, diff hybrid =  6.16e-02
201 minimization steps, time(MIN)/time(ED)=0.00458
sb1_1     =  0.0000	sb2_1     = -0.0000	sb3_1     =  0.0148	sb4_1     = -0.1144	sb5_1     =  0.0148	
sb6_1     = -0.1144	sb7_1     = -0.1640	sb8_1     =  0.0000	eb1_1     = -0.2311	eb2_1     = -4.2694	
eb3_1     = -4.3401	eb4_1     = -0.1072	eb5_1     = -4.3413	eb6_1     = -0.1074	eb7_1     = -0.0979	
eb8_1     = -3.8744	tb1_1     = -0.1824	tb2_1     = -1.1897	tb3_1     =  1.7696	tb4_1     =  0.0938	
tb5_1     = -1.7698	tb6_1     = -0.0939	tb7_1     = -0.0002	tb8_1     = -2.3046	

CDMFT iteration 7, distance =  8.24e+01, diff param =  1.20e-01, diff hybrid =  9.11e-02
232 minimization steps, time(MIN)/time(ED)=0.00477
sb1_1     =  0.0001	sb2_1     = -0.0000	sb3_1     =  0.0167	sb4_1     = -0.0802	sb5_1     =  0.0167	
sb6_1     = -0.0802	sb7_1     = -0.1898	sb8_1     = -0.0000	eb1_1     = -0.2104	eb2_1     = -4.4037	
eb3_1     = -4.6463	eb4_1     = -0.1602	eb5_1     = -4.6464	eb6_1     = -0.1603	eb7_1     =  0.1726	
eb8_1     = -4.0871	tb1_1     = -0.1907	tb2_1     = -1.2078	tb3_1     =  1.8117	tb4_1     =  0.1598	
tb5_1     = -1.8117	tb6_1     = -0.1597	tb7_1     = -0.0001	tb8_1     = -2.3298	

CDMFT iteration 8, distance =  1.05e+02, diff param =  1.62e-01, diff hybrid =  1.49e-01
165 minimization steps, time(MIN)/time(ED)=0.00480
sb1_1     =  0.0000	sb2_1     = -0.0000	sb3_1     =  0.0096	sb4_1     = -0.1101	sb5_1     =  0.0096	
sb6_1     = -0.1102	sb7_1     = -0.1374	sb8_1     =  0.0000	eb1_1     = -0.0202	eb2_1     = -3.7827	
eb3_1     = -4.4397	eb4_1     = -0.0632	eb5_1     = -4.4402	eb6_1     = -0.0632	eb7_1     = -0.0126	
eb8_1     = -3.8683	tb1_1     = -0.1234	tb2_1     = -1.1548	tb3_1     =  1.7822	tb4_1     =  0.1042	
tb5_1     = -1.7823	tb6_1     = -0.1042	tb7_1     = -0.0002	tb8_1     = -2.2912	

CDMFT iteration 9, distance =  1.35e+02, diff param =  5.83e-02, diff hybrid =  1.61e-01
96 minimization steps, time(MIN)/time(ED)=0.00446
sb1_1     =  0.0006	sb2_1     =  0.0000	sb3_1     =  0.0075	sb4_1     = -0.1401	sb5_1     =  0.0075	
sb6_1     = -0.1401	sb7_1     = -0.1929	sb8_1     = -0.0000	eb1_1     = -0.0048	eb2_1     = -3.6969	
eb3_1     = -4.2738	eb4_1     = -0.0639	eb5_1     = -4.2738	eb6_1     = -0.0639	eb7_1     = -0.0908	
eb8_1     = -3.8719	tb1_1     = -0.1093	tb2_1     = -1.1410	tb3_1     =  1.7510	tb4_1     =  0.0525	
tb5_1     = -1.7510	tb6_1     = -0.0524	tb7_1     =  0.0000	tb8_1     = -2.2929	

CDMFT iteration 10, distance =  1.24e+02, diff param =  7.84e-02, diff hybrid =  1.22e-01
210 minimization steps, time(MIN)/time(ED)=0.00445
sb1_1     = -0.0000	sb2_1     =  0.0000	sb3_1     =  0.0115	sb4_1     = -0.1270	sb5_1     =  0.0115	
sb6_1     = -0.1270	sb7_1     = -0.1795	sb8_1     =  0.0000	eb1_1     = -0.1563	eb2_1     = -4.0375	
eb3_1     = -4.3033	eb4_1     = -0.0889	eb5_1     = -4.3038	eb6_1     = -0.0890	eb7_1     = -0.1053	
eb8_1     = -3.8982	tb1_1     = -0.1542	tb2_1     = -1.1671	tb3_1     =  1.7627	tb4_1     =  0.0725	
tb5_1     = -1.7628	tb6_1     = -0.0726	tb7_1     = -0.0001	tb8_1     = -2.3077	

CDMFT iteration 11, distance =  8.17e+01, diff param =  1.54e-01, diff hybrid =  8.61e-02
316 minimization steps, time(MIN)/time(ED)=0.00478
sb1_1     =  0.0000	sb2_1     = -0.0000	sb3_1     =  0.0177	sb4_1     = -0.0779	sb5_1     =  0.0177	
sb6_1     = -0.0779	sb7_1     = -0.1949	sb8_1     =  0.0000	eb1_1     = -0.2409	eb2_1     = -4.4432	
eb3_1     = -4.6343	eb4_1     = -0.1792	eb5_1     = -4.6343	eb6_1     = -0.1793	eb7_1     =  0.2058	
eb8_1     = -4.0952	tb1_1     = -0.1961	tb2_1     = -1.2098	tb3_1     =  1.8085	tb4_1     =  0.1607	
tb5_1     = -1.8085	tb6_1     = -0.1606	tb7_1     =  0.0000	tb8_1     = -2.3295	

CDMFT iteration 12, distance =  9.16e+01, diff param =  1.56e-01, diff hybrid =  1.73e-01
152 minimization steps, time(MIN)/time(ED)=0.00477
sb1_1     = -0.0000	sb2_1     = -0.0000	sb3_1     =  0.0093	sb4_1     = -0.0979	sb5_1     =  0.0093	
sb6_1     = -0.0979	sb7_1     = -0.1349	sb8_1     =  0.0000	eb1_1     = -0.0300	eb2_1     = -3.8254	
eb3_1     = -4.4924	eb4_1     = -0.0651	eb5_1     = -4.4926	eb6_1     = -0.0651	eb7_1     =  0.0049	
eb8_1     = -3.9041	tb1_1     = -0.1297	tb2_1     = -1.1602	tb3_1     =  1.7921	tb4_1     =  0.1178	
tb5_1     = -1.7922	tb6_1     = -0.1178	tb7_1     =  0.0003	tb8_1     = -2.3010	

CDMFT iteration 13, distance =  1.35e+02, diff param =  7.77e-02, diff hybrid =  1.47e-01
127 minimization steps, time(MIN)/time(ED)=0.00460
sb1_1     =  0.0002	sb2_1     =  0.0000	sb3_1     =  0.0068	sb4_1     = -0.1410	sb5_1     =  0.0068	
sb6_1     = -0.1410	sb7_1     = -0.1913	sb8_1     = -0.0000	eb1_1     = -0.0061	eb2_1     = -3.7209	
eb3_1     = -4.2652	eb4_1     = -0.0586	eb5_1     = -4.2651	eb6_1     = -0.0586	eb7_1     = -0.0801	
eb8_1     = -3.8589	tb1_1     = -0.1106	tb2_1     = -1.1439	tb3_1     =  1.7486	tb4_1     =  0.0505	
tb5_1     = -1.7486	tb6_1     = -0.0504	tb7_1     =  0.0000	tb8_1     = -2.2876	

CDMFT iteration 14, distance =  1.27e+02, diff param =  2.55e-02, diff hybrid =  1.58e-01
103 minimization steps, time(MIN)/time(ED)=0.00439
sb1_1     = -0.0000	sb2_1     =  0.0000	sb3_1     =  0.0100	sb4_1     = -0.1317	sb5_1     =  0.0100	
sb6_1     = -0.1317	sb7_1     = -0.1849	sb8_1     =  0.0000	eb1_1     = -0.0356	eb2_1     = -3.6322	
eb3_1     = -4.2954	eb4_1     = -0.0825	eb5_1     = -4.2956	eb6_1     = -0.0825	eb7_1     = -0.1046	
eb8_1     = -3.9027	tb1_1     = -0.1060	tb2_1     = -1.1325	tb3_1     =  1.7606	tb4_1     =  0.0638	
tb5_1     = -1.7606	tb6_1     = -0.0638	tb7_1     = -0.0000	tb8_1     = -2.3072	

CDMFT iteration 15, distance =  8.16e+01, diff param =  2.08e-01, diff hybrid =  6.28e-02
232 minimization steps, time(MIN)/time(ED)=0.00443
sb1_1     = -0.0000	sb2_1     = -0.0000	sb3_1     =  0.0179	sb4_1     = -0.0765	sb5_1     =  0.0179	
sb6_1     = -0.0765	sb7_1     = -0.0668	sb8_1     = -0.0001	eb1_1     = -0.2524	eb2_1     = -4.4542	
eb3_1     = -4.6224	eb4_1     = -0.1858	eb5_1     = -4.6224	eb6_1     = -0.1859	eb7_1     = -0.0005	
eb8_1     = -3.8237	tb1_1     = -0.1980	tb2_1     = -1.2100	tb3_1     =  1.8061	tb4_1     =  0.1604	
tb5_1     = -1.8061	tb6_1     = -0.1604	tb7_1     =  0.0823	tb8_1     = -2.2854	

CDMFT iteration 16, distance =  9.01e+01, diff param =  1.66e-01, diff hybrid =  1.57e-01
164 minimization steps, time(MIN)/time(ED)=0.00442
sb1_1     = -0.0014	sb2_1     =  0.0001	sb3_1     =  0.0083	sb4_1     = -0.0958	sb5_1     =  0.0085	
sb6_1     = -0.0964	sb7_1     =  0.0004	sb8_1     =  0.0001	eb1_1     = -0.0233	eb2_1     = -3.7546	
eb3_1     = -4.4550	eb4_1     = -0.0589	eb5_1     = -4.4525	eb6_1     = -0.0592	eb7_1     = -0.0055	
eb8_1     = -3.9039	tb1_1     = -0.1265	tb2_1     = -1.1531	tb3_1     =  1.7864	tb4_1     =  0.1146	
tb5_1     = -1.7860	tb6_1     = -0.1147	tb7_1     =  0.1361	tb8_1     = -2.3016	

CDMFT iteration 17, distance =  1.37e+02, diff param =  6.52e-02, diff hybrid =  1.23e-01
91 minimization steps, time(MIN)/time(ED)=0.00428
sb1_1     =  0.0035	sb2_1     = -0.0000	sb3_1     =  0.0068	sb4_1     = -0.1417	sb5_1     =  0.0066	
sb6_1     = -0.1416	sb7_1     =  0.0007	sb8_1     = -0.0001	eb1_1     = -0.0048	eb2_1     = -3.7165	
eb3_1     = -4.2679	eb4_1     = -0.0595	eb5_1     = -4.2626	eb6_1     = -0.0584	eb7_1     =  0.0827	
eb8_1     = -3.8606	tb1_1     = -0.1108	tb2_1     = -1.1432	tb3_1     =  1.7490	tb4_1     =  0.0493	
tb5_1     = -1.7480	tb6_1     = -0.0482	tb7_1     =  0.1928	tb8_1     = -2.2881	

CDMFT iteration 18, distance =  1.27e+02, diff param =  2.42e-02, diff hybrid =  1.59e-01
104 minimization steps, time(MIN)/time(ED)=0.00413
sb1_1     = -0.0010	sb2_1     =  0.0001	sb3_1     =  0.0100	sb4_1     = -0.1310	sb5_1     =  0.0102	
sb6_1     = -0.1312	sb7_1     = -0.0005	sb8_1     =  0.0001	eb1_1     = -0.0386	eb2_1     = -3.6382	
eb3_1     = -4.2910	eb4_1     = -0.0827	eb5_1     = -4.2946	eb6_1     = -0.0841	eb7_1     =  0.1055	
eb8_1     = -3.9048	tb1_1     = -0.1067	tb2_1     = -1.1330	tb3_1     =  1.7600	tb4_1     =  0.0636	
tb5_1     = -1.7606	tb6_1     = -0.0648	tb7_1     =  0.1845	tb8_1     = -2.3080	

CDMFT iteration 19, distance =  8.13e+01, diff param =  2.24e-01, diff hybrid =  6.63e-02
287 minimization steps, time(MIN)/time(ED)=0.00424
sb1_1     =  0.0003	sb2_1     = -0.0001	sb3_1     =  0.0178	sb4_1     = -0.0762	sb5_1     =  0.0178	
sb6_1     = -0.0755	sb7_1     =  0.1950	sb8_1     = -0.0014	eb1_1     = -0.2559	eb2_1     = -4.4998	
eb3_1     = -4.6319	eb4_1     = -0.1874	eb5_1     = -4.6310	eb6_1     = -0.1880	eb7_1     =  0.2142	
eb8_1     = -4.0901	tb1_1     = -0.2000	tb2_1     = -1.2148	tb3_1     =  1.8075	tb4_1     =  0.1618	
tb5_1     = -1.8071	tb6_1     = -0.1620	tb7_1     =  0.0052	tb8_1     = -2.3281	

CDMFT iteration 20, distance =  8.79e+01, diff param =  1.61e-01, diff hybrid =  1.90e-01
158 minimization steps, time(MIN)/time(ED)=0.00427
sb1_1     = -0.0010	sb2_1     =  0.0002	sb3_1     =  0.0088	sb4_1     = -0.0929	sb5_1     =  0.0091	
sb6_1     = -0.0935	sb7_1     =  0.1362	sb8_1     =  0.0000	eb1_1     = -0.0333	eb2_1     = -3.8477	
eb3_1     = -4.5082	eb4_1     = -0.0644	eb5_1     = -4.5117	eb6_1     = -0.0656	eb7_1     =  0.0109	
eb8_1     = -3.9222	tb1_1     = -0.1324	tb2_1     = -1.1631	tb3_1     =  1.7952	tb4_1     =  0.1221	
tb5_1     = -1.7958	tb6_1     = -0.1223	tb7_1     = -0.0010	tb8_1     = -2.3061	

CDMFT iteration 21, distance =  1.36e+02, diff param =  8.65e-02, diff hybrid =  1.45e-01
83 minimization steps, time(MIN)/time(ED)=0.00415
sb1_1     =  0.0041	sb2_1     =  0.0000	sb3_1     =  0.0066	sb4_1     = -0.1416	sb5_1     =  0.0063	
sb6_1     = -0.1416	sb7_1     =  0.1915	sb8_1     = -0.0001	eb1_1     = -0.0062	eb2_1     = -3.7186	
eb3_1     = -4.2623	eb4_1     = -0.0574	eb5_1     = -4.2566	eb6_1     = -0.0557	eb7_1     = -0.0771	
eb8_1     = -3.8561	tb1_1     = -0.1109	tb2_1     = -1.1434	tb3_1     =  1.7476	tb4_1     =  0.0497	
tb5_1     = -1.7466	tb6_1     = -0.0474	tb7_1     = -0.0013	tb8_1     = -2.2861	

CDMFT iteration 22, distance =  1.28e+02, diff param =  2.77e-02, diff hybrid =  1.72e-01
117 minimization steps, time(MIN)/time(ED)=0.00405
sb1_1     = -0.0021	sb2_1     =  0.0002	sb3_1     =  0.0093	sb4_1     = -0.1330	sb5_1     =  0.0096	
sb6_1     = -0.1333	sb7_1     =  0.1868	sb8_1     =  0.0001	eb1_1     = -0.0289	eb2_1     = -3.6165	
eb3_1     = -4.2866	eb4_1     = -0.0795	eb5_1     = -4.2924	eb6_1     = -0.0818	eb7_1     = -0.1047	
eb8_1     = -3.9039	tb1_1     = -0.1043	tb2_1     = -1.1310	tb3_1     =  1.7587	tb4_1     =  0.0593	
tb5_1     = -1.7597	tb6_1     = -0.0615	tb7_1     =  0.0010	tb8_1     = -2.3069	

CDMFT iteration 23, distance =  8.14e+01, diff param =  2.41e-01, diff hybrid =  6.21e-02
286 minimization steps, time(MIN)/time(ED)=0.00415
sb1_1     =  0.0005	sb2_1     = -0.0002	sb3_1     =  0.0180	sb4_1     = -0.0765	sb5_1     =  0.0180	
sb6_1     = -0.0746	sb7_1     =  0.0163	sb8_1     = -0.0043	eb1_1     = -0.2677	eb2_1     = -4.5818	
eb3_1     = -4.6247	eb4_1     = -0.1888	eb5_1     = -4.6225	eb6_1     = -0.1905	eb7_1     = -0.2176	
eb8_1     = -4.0871	tb1_1     = -0.2038	tb2_1     = -1.2227	tb3_1     =  1.8064	tb4_1     =  0.1607	
tb5_1     = -1.8054	tb6_1     = -0.1617	tb7_1     = -0.1941	tb8_1     = -2.3275	

CDMFT iteration 24, distance =  8.63e+01, diff param =  1.69e-01, diff hybrid =  1.96e-01
178 minimization steps, time(MIN)/time(ED)=0.00420
sb1_1     = -0.0029	sb2_1     =  0.0004	sb3_1     =  0.0086	sb4_1     = -0.0901	sb5_1     =  0.0093	
sb6_1     = -0.0919	sb7_1     = -0.0028	sb8_1     =  0.0002	eb1_1     = -0.0357	eb2_1     = -3.8728	
eb3_1     = -4.5184	eb4_1     = -0.0644	eb5_1     = -4.5271	eb6_1     = -0.0677	eb7_1     = -0.0139	
eb8_1     = -3.9300	tb1_1     = -0.1338	tb2_1     = -1.1663	tb3_1     =  1.7972	tb4_1     =  0.1243	
tb5_1     = -1.7987	tb6_1     = -0.1249	tb7_1     = -0.1367	tb8_1     = -2.3083	

CDMFT iteration 25, distance =  1.36e+02, diff param =  9.26e-02, diff hybrid =  1.43e-01
139 minimization steps, time(MIN)/time(ED)=0.00416
sb1_1     =  0.0192	sb2_1     = -0.0003	sb3_1     =  0.0067	sb4_1     = -0.1418	sb5_1     =  0.0059	
sb6_1     = -0.1416	sb7_1     = -0.0044	sb8_1     = -0.0004	eb1_1     = -0.0067	eb2_1     = -3.7255	
eb3_1     = -4.2676	eb4_1     = -0.0583	eb5_1     = -4.2466	eb6_1     = -0.0528	eb7_1     =  0.0753	
eb8_1     = -3.8519	tb1_1     = -0.1095	tb2_1     = -1.1443	tb3_1     =  1.7484	tb4_1     =  0.0517	
tb5_1     = -1.7446	tb6_1     = -0.0443	tb7_1     = -0.1911	tb8_1     = -2.2846	

CDMFT iteration 26, distance =  1.29e+02, diff param =  3.13e-02, diff hybrid =  1.78e-01
144 minimization steps, time(MIN)/time(ED)=0.00410
sb1_1     = -0.0079	sb2_1     =  0.0006	sb3_1     =  0.0086	sb4_1     = -0.1334	sb5_1     =  0.0098	
sb6_1     = -0.1344	sb7_1     =  0.0038	sb8_1     =  0.0004	eb1_1     = -0.0262	eb2_1     = -3.6109	
eb3_1     = -4.2763	eb4_1     = -0.0756	eb5_1     = -4.2974	eb6_1     = -0.0834	eb7_1     =  0.1048	
eb8_1     = -3.9055	tb1_1     = -0.1036	tb2_1     = -1.1303	tb3_1     =  1.7567	tb4_1     =  0.0547	
tb5_1     = -1.7602	tb6_1     = -0.0627	tb7_1     = -0.1879	tb8_1     = -2.3070	

CDMFT iteration 27, distance =  8.30e+01, diff param =  2.07e-01, diff hybrid =  6.28e-02
296 minimization steps, time(MIN)/time(ED)=0.00417
sb1_1     =  0.0018	sb2_1     = -0.0006	sb3_1     =  0.0181	sb4_1     = -0.0813	sb5_1     =  0.0183	
sb6_1     = -0.0745	sb7_1     = -0.1409	sb8_1     = -0.0189	eb1_1     = -0.2554	eb2_1     = -4.4286	
eb3_1     = -4.6084	eb4_1     = -0.1828	eb5_1     = -4.5959	eb6_1     = -0.1876	eb7_1     =  0.1686	
eb8_1     = -3.9818	tb1_1     = -0.1972	tb2_1     = -1.2069	tb3_1     =  1.8051	tb4_1     =  0.1556	
tb5_1     = -1.8009	tb6_1     = -0.1593	tb7_1     = -0.0973	tb8_1     = -2.3180	

CDMFT iteration 28, distance =  8.45e+01, diff param =  1.26e-01, diff hybrid =  1.79e-01
210 minimization steps, time(MIN)/time(ED)=0.00423
sb1_1     = -0.0135	sb2_1     =  0.0029	sb3_1     =  0.0083	sb4_1     = -0.0813	sb5_1     =  0.0118	
sb6_1     = -0.0918	sb7_1     = -0.1375	sb8_1     =  0.0009	eb1_1     = -0.0521	eb2_1     = -3.9082	
eb3_1     = -4.5363	eb4_1     = -0.0712	eb5_1     = -4.5634	eb6_1     = -0.0854	eb7_1     =  0.0239	
eb8_1     = -3.9356	tb1_1     = -0.1375	tb2_1     = -1.1690	tb3_1     =  1.7995	tb4_1     =  0.1317	
tb5_1     = -1.8043	tb6_1     = -0.1348	tb7_1     =  0.0079	tb8_1     = -2.3090	

CDMFT iteration 29, distance =  1.32e+02, diff param =  9.71e-02, diff hybrid =  1.30e-01
190 minimization steps, time(MIN)/time(ED)=0.00421
sb1_1     =  0.0696	sb2_1     = -0.0011	sb3_1     =  0.0103	sb4_1     = -0.1408	sb5_1     =  0.0052	
sb6_1     = -0.1377	sb7_1     = -0.1831	sb8_1     = -0.0029	eb1_1     = -0.0159	eb2_1     = -3.7199	
eb3_1     = -4.4194	eb4_1     = -0.0883	eb5_1     = -4.2137	eb6_1     = -0.0402	eb7_1     = -0.0808	
eb8_1     = -3.8719	tb1_1     = -0.0901	tb2_1     = -1.1450	tb3_1     =  1.7765	tb4_1     =  0.0833	
tb5_1     = -1.7404	tb6_1     = -0.0315	tb7_1     =  0.0335	tb8_1     = -2.2926	

CDMFT iteration 30, distance =  1.29e+02, diff param =  5.77e-02, diff hybrid =  1.86e-01
115 minimization steps, time(MIN)/time(ED)=0.00415
sb1_1     =  0.1121	sb2_1     =  0.0064	sb3_1     =  0.0066	sb4_1     = -0.1284	sb5_1     =  0.0140	
sb6_1     = -0.1329	sb7_1     = -0.1839	sb8_1     =  0.0028	eb1_1     =  0.0617	eb2_1     = -3.7110	
eb3_1     = -4.2593	eb4_1     = -0.0609	eb5_1     = -4.3710	eb6_1     = -0.1109	eb7_1     = -0.1089	
eb8_1     = -3.9102	tb1_1     = -0.0382	tb2_1     = -1.1406	tb3_1     =  1.7545	tb4_1     =  0.0408	
tb5_1     = -1.7716	tb6_1     = -0.0930	tb7_1     = -0.0241	tb8_1     = -2.3091	

CDMFT iteration 31, distance =  8.87e+01, diff param =  1.66e-01, diff hybrid =  1.12e-01
325 minimization steps, time(MIN)/time(ED)=0.00425
sb1_1     =  0.1902	sb2_1     = -0.0054	sb3_1     =  0.0182	sb4_1     = -0.0948	sb5_1     =  0.0182	
sb6_1     = -0.0775	sb7_1     = -0.1298	sb8_1     = -0.0164	eb1_1     =  0.2331	eb2_1     = -4.3650	
eb3_1     = -4.5886	eb4_1     = -0.1620	eb5_1     = -4.5286	eb6_1     = -0.1693	eb7_1     = -0.1403	
eb8_1     = -3.9393	tb1_1     =  0.0143	tb2_1     = -1.2019	tb3_1     =  1.8042	tb4_1     =  0.1486	
tb5_1     = -1.7916	tb6_1     = -0.1454	tb7_1     =  0.1035	tb8_1     = -2.3159	

CDMFT iteration 32, distance =  8.61e+01, diff param =  1.02e-01, diff hybrid =  1.55e-01
258 minimization steps, time(MIN)/time(ED)=0.00433
sb1_1     =  0.1438	sb2_1     =  0.0034	sb3_1     =  0.0098	sb4_1     = -0.0788	sb5_1     =  0.0136	
sb6_1     = -0.0963	sb7_1     =  0.0197	sb8_1     =  0.0012	eb1_1     =  0.0751	eb2_1     = -3.9657	
eb3_1     = -4.5115	eb4_1     = -0.0789	eb5_1     = -4.6040	eb6_1     = -0.1071	eb7_1     = -0.0279	
eb8_1     = -3.9191	tb1_1     = -0.0138	tb2_1     = -1.1725	tb3_1     =  1.7939	tb4_1     =  0.1360	
tb5_1     = -1.8100	tb6_1     = -0.1379	tb7_1     =  0.1335	tb8_1     = -2.3036	

CDMFT iteration 33, distance =  1.30e+02, diff param =  9.76e-02, diff hybrid =  1.23e-01
247 minimization steps, time(MIN)/time(ED)=0.00436
sb1_1     =  0.0992	sb2_1     = -0.0007	sb3_1     =  0.0112	sb4_1     = -0.1319	sb5_1     =  0.0077	
sb6_1     = -0.1281	sb7_1     =  0.0191	sb8_1     = -0.0014	eb1_1     =  0.0113	eb2_1     = -3.6963	
eb3_1     = -4.4188	eb4_1     = -0.0857	eb5_1     = -4.2835	eb6_1     = -0.0490	eb7_1     =  0.0690	
eb8_1     = -3.8591	tb1_1     =  0.0559	tb2_1     = -1.1430	tb3_1     =  1.7776	tb4_1     =  0.0904	
tb5_1     = -1.7542	tb6_1     = -0.0618	tb7_1     =  0.1671	tb8_1     = -2.2918	

CDMFT iteration 34, distance =  1.29e+02, diff param =  4.50e-02, diff hybrid =  1.63e-01
88 minimization steps, time(MIN)/time(ED)=0.00429
sb1_1     =  0.1174	sb2_1     =  0.0039	sb3_1     =  0.0092	sb4_1     = -0.1265	sb5_1     =  0.0137	
sb6_1     = -0.1308	sb7_1     = -0.0158	sb8_1     =  0.0017	eb1_1     =  0.0625	eb2_1     = -3.7055	
eb3_1     = -4.2722	eb4_1     = -0.0674	eb5_1     = -4.3738	eb6_1     = -0.1036	eb7_1     =  0.1014	
eb8_1     = -3.8940	tb1_1     = -0.0223	tb2_1     = -1.1382	tb3_1     =  1.7559	tb4_1     =  0.0604	
tb5_1     = -1.7720	tb6_1     = -0.0919	tb7_1     =  0.1804	tb8_1     = -2.3049	

CDMFT iteration 35, distance =  8.78e+01, diff param =  1.59e-01, diff hybrid =  7.94e-02
273 minimization steps, time(MIN)/time(ED)=0.00435
sb1_1     =  0.1874	sb2_1     = -0.0035	sb3_1     =  0.0178	sb4_1     = -0.0942	sb5_1     =  0.0178	
sb6_1     = -0.0847	sb7_1     =  0.0977	sb8_1     = -0.0160	eb1_1     =  0.2212	eb2_1     = -4.3523	
eb3_1     = -4.5743	eb4_1     = -0.1554	eb5_1     = -4.5124	eb6_1     = -0.1510	eb7_1     =  0.1314	
eb8_1     = -3.9213	tb1_1     =  0.0097	tb2_1     = -1.2008	tb3_1     =  1.8019	tb4_1     =  0.1457	
tb5_1     = -1.7909	tb6_1     = -0.1395	tb7_1     =  0.1270	tb8_1     = -2.3115	

CDMFT iteration 36, distance =  8.84e+01, diff param =  1.01e-01, diff hybrid =  1.40e-01
181 minimization steps, time(MIN)/time(ED)=0.00437
sb1_1     =  0.1421	sb2_1     =  0.0037	sb3_1     =  0.0109	sb4_1     = -0.0847	sb5_1     =  0.0140	
sb6_1     = -0.0982	sb7_1     =  0.1298	sb8_1     =  0.0011	eb1_1     =  0.0758	eb2_1     = -3.9373	
eb3_1     = -4.5252	eb4_1     = -0.0873	eb5_1     = -4.5662	eb6_1     = -0.1036	eb7_1     =  0.0213	
eb8_1     = -3.8995	tb1_1     = -0.0142	tb2_1     = -1.1682	tb3_1     =  1.7958	tb4_1     =  0.1335	
tb5_1     = -1.8033	tb6_1     = -0.1358	tb7_1     = -0.0176	tb8_1     = -2.2986	

CDMFT iteration 37, distance =  1.27e+02, diff param =  8.73e-02, diff hybrid =  1.13e-01
183 minimization steps, time(MIN)/time(ED)=0.00435
sb1_1     =  0.1052	sb2_1     = -0.0004	sb3_1     =  0.0112	sb4_1     = -0.1304	sb5_1     =  0.0084	
sb6_1     = -0.1255	sb7_1     =  0.1637	sb8_1     = -0.0013	eb1_1     =  0.0103	eb2_1     = -3.6942	
eb3_1     = -4.4304	eb4_1     = -0.0868	eb5_1     = -4.2836	eb6_1     = -0.0510	eb7_1     = -0.0671	
eb8_1     = -3.8558	tb1_1     =  0.0427	tb2_1     = -1.1429	tb3_1     =  1.7797	tb4_1     =  0.0911	
tb5_1     = -1.7543	tb6_1     = -0.0684	tb7_1     = -0.0182	tb8_1     = -2.2911	

CDMFT iteration 38, distance =  1.28e+02, diff param =  4.31e-02, diff hybrid =  1.48e-01
113 minimization steps, time(MIN)/time(ED)=0.00430
sb1_1     =  0.1181	sb2_1     =  0.0036	sb3_1     =  0.0095	sb4_1     = -0.1264	sb5_1     =  0.0136	
sb6_1     = -0.1305	sb7_1     =  0.1795	sb8_1     =  0.0014	eb1_1     =  0.0627	eb2_1     = -3.7086	
eb3_1     = -4.2845	eb4_1     = -0.0681	eb5_1     = -4.3688	eb6_1     = -0.1024	eb7_1     = -0.0989	
eb8_1     = -3.8903	tb1_1     = -0.0206	tb2_1     = -1.1385	tb3_1     =  1.7578	tb4_1     =  0.0634	
tb5_1     = -1.7711	tb6_1     = -0.0917	tb7_1     =  0.0136	tb8_1     = -2.3039	

CDMFT iteration 39, distance =  8.81e+01, diff param =  1.56e-01, diff hybrid =  7.35e-02
288 minimization steps, time(MIN)/time(ED)=0.00435
sb1_1     =  0.1869	sb2_1     = -0.0032	sb3_1     =  0.0177	sb4_1     = -0.0947	sb5_1     =  0.0178	
sb6_1     = -0.0864	sb7_1     =  0.1296	sb8_1     = -0.0151	eb1_1     =  0.2193	eb2_1     = -4.3532	
eb3_1     = -4.5696	eb4_1     = -0.1537	eb5_1     = -4.5039	eb6_1     = -0.1468	eb7_1     = -0.1266	
eb8_1     = -3.9112	tb1_1     =  0.0087	tb2_1     = -1.2009	tb3_1     =  1.8012	tb4_1     =  0.1445	
tb5_1     = -1.7900	tb6_1     = -0.1375	tb7_1     = -0.0904	tb8_1     = -2.3100	

CDMFT iteration 40, distance =  8.83e+01, diff param =  9.55e-02, diff hybrid =  1.34e-01
228 minimization steps, time(MIN)/time(ED)=0.00440
sb1_1     =  0.1451	sb2_1     =  0.0039	sb3_1     =  0.0114	sb4_1     = -0.0851	sb5_1     =  0.0143	
sb6_1     = -0.0979	sb7_1     = -0.0161	sb8_1     =  0.0011	eb1_1     =  0.0834	eb2_1     = -3.9639	
eb3_1     = -4.5355	eb4_1     = -0.0919	eb5_1     = -4.5661	eb6_1     = -0.1054	eb7_1     = -0.0220	
eb8_1     = -3.8964	tb1_1     = -0.0141	tb2_1     = -1.1703	tb3_1     =  1.7973	tb4_1     =  0.1347	
tb5_1     = -1.8031	tb6_1     = -0.1369	tb7_1     = -0.1294	tb8_1     = -2.2977	

CDMFT iteration 41, distance =  1.27e+02, diff param =  9.29e-02, diff hybrid =  1.10e-01
128 minimization steps, time(MIN)/time(ED)=0.00436
sb1_1     =  0.1076	sb2_1     = -0.0003	sb3_1     =  0.0112	sb4_1     = -0.1294	sb5_1     =  0.0086	
sb6_1     = -0.1246	sb7_1     = -0.0164	sb8_1     = -0.0011	eb1_1     =  0.0099	eb2_1     = -3.6745	
eb3_1     = -4.4267	eb4_1     = -0.0854	eb5_1     = -4.2893	eb6_1     = -0.0524	eb7_1     =  0.0634	
eb8_1     = -3.8518	tb1_1     =  0.0366	tb2_1     = -1.1402	tb3_1     =  1.7791	tb4_1     =  0.0911	
tb5_1     = -1.7553	tb6_1     = -0.0718	tb7_1     = -0.1611	tb8_1     = -2.2899	

CDMFT iteration 42, distance =  1.29e+02, diff param =  4.07e-02, diff hybrid =  1.46e-01
100 minimization steps, time(MIN)/time(ED)=0.00430
sb1_1     =  0.1165	sb2_1     =  0.0030	sb3_1     =  0.0097	sb4_1     = -0.1267	sb5_1     =  0.0134	
sb6_1     = -0.1306	sb7_1     =  0.0121	sb8_1     =  0.0012	eb1_1     =  0.0581	eb2_1     = -3.6923	
eb3_1     = -4.2856	eb4_1     = -0.0689	eb5_1     = -4.3663	eb6_1     = -0.1007	eb7_1     =  0.0979	
eb8_1     = -3.8870	tb1_1     = -0.0189	tb2_1     = -1.1369	tb3_1     =  1.7578	tb4_1     =  0.0649	
tb5_1     = -1.7707	tb6_1     = -0.0906	tb7_1     = -0.1795	tb8_1     = -2.3028	

CDMFT iteration 43, distance =  8.83e+01, diff param =  1.53e-01, diff hybrid =  6.94e-02
254 minimization steps, time(MIN)/time(ED)=0.00433
sb1_1     =  0.1854	sb2_1     = -0.0028	sb3_1     =  0.0177	sb4_1     = -0.0948	sb5_1     =  0.0178	
sb6_1     = -0.0875	sb7_1     = -0.0832	sb8_1     = -0.0142	eb1_1     =  0.2158	eb2_1     = -4.3209	
eb3_1     = -4.5647	eb4_1     = -0.1528	eb5_1     = -4.4997	eb6_1     = -0.1452	eb7_1     =  0.1225	
eb8_1     = -3.9022	tb1_1     =  0.0080	tb2_1     = -1.1974	tb3_1     =  1.8005	tb4_1     =  0.1437	
tb5_1     = -1.7895	tb6_1     = -0.1365	tb7_1     = -0.1320	tb8_1     = -2.3088	

CDMFT iteration 44, distance =  8.81e+01, diff param =  8.16e-02, diff hybrid =  1.30e-01
274 minimization steps, time(MIN)/time(ED)=0.00439
sb1_1     =  0.1493	sb2_1     =  0.0040	sb3_1     =  0.0117	sb4_1     = -0.0850	sb5_1     =  0.0144	
sb6_1     = -0.0972	sb7_1     = -0.1298	sb8_1     =  0.0011	eb1_1     =  0.0926	eb2_1     = -4.0076	
eb3_1     = -4.5467	eb4_1     = -0.0959	eb5_1     = -4.5695	eb6_1     = -0.1074	eb7_1     =  0.0239	
eb8_1     = -3.8979	tb1_1     = -0.0136	tb2_1     = -1.1744	tb3_1     =  1.7990	tb4_1     =  0.1365	
tb5_1     = -1.8035	tb6_1     = -0.1384	tb7_1     =  0.0147	tb8_1     = -2.2979	

CDMFT iteration 45, distance =  1.26e+02, diff param =  9.51e-02, diff hybrid =  1.08e-01
162 minimization steps, time(MIN)/time(ED)=0.00438
sb1_1     =  0.1097	sb2_1     = -0.0002	sb3_1     =  0.0111	sb4_1     = -0.1288	sb5_1     =  0.0088	
sb6_1     = -0.1241	sb7_1     = -0.1590	sb8_1     = -0.0009	eb1_1     =  0.0099	eb2_1     = -3.7009	
eb3_1     = -4.4274	eb4_1     = -0.0840	eb5_1     = -4.2998	eb6_1     = -0.0538	eb7_1     = -0.0597	
eb8_1     = -3.8491	tb1_1     =  0.0310	tb2_1     = -1.1439	tb3_1     =  1.7793	tb4_1     =  0.0910	
tb5_1     = -1.7571	tb6_1     = -0.0743	tb7_1     =  0.0149	tb8_1     = -2.2889	

CDMFT iteration 46, distance =  1.29e+02, diff param =  3.99e-02, diff hybrid =  1.46e-01
96 minimization steps, time(MIN)/time(ED)=0.00432
sb1_1     =  0.1156	sb2_1     =  0.0028	sb3_1     =  0.0097	sb4_1     = -0.1271	sb5_1     =  0.0133	
sb6_1     = -0.1310	sb7_1     = -0.1799	sb8_1     =  0.0010	eb1_1     =  0.0552	eb2_1     = -3.6971	
eb3_1     = -4.2824	eb4_1     = -0.0693	eb5_1     = -4.3662	eb6_1     = -0.0991	eb7_1     = -0.0972	
eb8_1     = -3.8883	tb1_1     = -0.0176	tb2_1     = -1.1380	tb3_1     =  1.7569	tb4_1     =  0.0656	
tb5_1     = -1.7708	tb6_1     = -0.0892	tb7_1     = -0.0108	tb8_1     = -2.3030	

CDMFT iteration 47, distance =  8.83e+01, diff param =  1.51e-01, diff hybrid =  6.72e-02
188 minimization steps, time(MIN)/time(ED)=0.00432
sb1_1     =  0.1848	sb2_1     = -0.0026	sb3_1     =  0.0178	sb4_1     = -0.0947	sb5_1     =  0.0178	
sb6_1     = -0.0880	sb7_1     = -0.1334	sb8_1     = -0.0134	eb1_1     =  0.2152	eb2_1     = -4.3103	
eb3_1     = -4.5682	eb4_1     = -0.1532	eb5_1     = -4.5022	eb6_1     = -0.1450	eb7_1     = -0.1197	
eb8_1     = -3.8960	tb1_1     =  0.0074	tb2_1     = -1.1962	tb3_1     =  1.8012	tb4_1     =  0.1435	
tb5_1     = -1.7900	tb6_1     = -0.1363	tb7_1     =  0.0779	tb8_1     = -2.3079	

CDMFT iteration 48, distance =  8.76e+01, diff param =  7.49e-02, diff hybrid =  1.29e-01
192 minimization steps, time(MIN)/time(ED)=0.00434
sb1_1     =  0.1524	sb2_1     =  0.0041	sb3_1     =  0.0119	sb4_1     = -0.0847	sb5_1     =  0.0145	
sb6_1     = -0.0964	sb7_1     =  0.0133	sb8_1     =  0.0011	eb1_1     =  0.0996	eb2_1     = -4.0348	
eb3_1     = -4.5569	eb4_1     = -0.0991	eb5_1     = -4.5747	eb6_1     = -0.1090	eb7_1     = -0.0261	
eb8_1     = -3.9012	tb1_1     = -0.0133	tb2_1     = -1.1767	tb3_1     =  1.8006	tb4_1     =  0.1381	
tb5_1     = -1.8042	tb6_1     = -0.1398	tb7_1     =  0.1305	tb8_1     = -2.2985	

CDMFT iteration 49, distance =  1.26e+02, diff param =  1.03e-01, diff hybrid =  1.08e-01
161 minimization steps, time(MIN)/time(ED)=0.00432
sb1_1     =  0.1106	sb2_1     = -0.0002	sb3_1     =  0.0110	sb4_1     = -0.1284	sb5_1     =  0.0089	
sb6_1     = -0.1238	sb7_1     =  0.0140	sb8_1     = -0.0008	eb1_1     =  0.0097	eb2_1     = -3.6816	
eb3_1     = -4.4262	eb4_1     = -0.0829	eb5_1     = -4.3048	eb6_1     = -0.0544	eb7_1     =  0.0573	
eb8_1     = -3.8481	tb1_1     =  0.0279	tb2_1     = -1.1412	tb3_1     =  1.7791	tb4_1     =  0.0909	
tb5_1     = -1.7580	tb6_1     = -0.0758	tb7_1     =  0.1578	tb8_1     = -2.2884	

CDMFT iteration 50, distance =  1.29e+02, diff param =  3.58e-02, diff hybrid =  1.48e-01
96 minimization steps, time(MIN)/time(ED)=0.00427
sb1_1     =  0.1146	sb2_1     =  0.0025	sb3_1     =  0.0099	sb4_1     = -0.1276	sb5_1     =  0.0131	
sb6_1     = -0.1310	sb7_1     = -0.0099	sb8_1     =  0.0009	eb1_1     =  0.0525	eb2_1     = -3.6836	
eb3_1     = -4.2978	eb4_1     = -0.0704	eb5_1     = -4.3567	eb6_1     = -0.0977	eb7_1     =  0.0970	
eb8_1     = -3.8875	tb1_1     = -0.0168	tb2_1     = -1.1366	tb3_1     =  1.7598	tb4_1     =  0.0665	
tb5_1     = -1.7690	tb6_1     = -0.0881	tb7_1     =  0.1801	tb8_1     = -2.3027	

CDMFT iteration 51, distance =  8.83e+01, diff param =  1.56e-01, diff hybrid =  6.56e-02
260 minimization steps, time(MIN)/time(ED)=0.00430
sb1_1     =  0.1861	sb2_1     = -0.0023	sb3_1     =  0.0176	sb4_1     = -0.0946	sb5_1     =  0.0178	
sb6_1     = -0.0883	sb7_1     =  0.0736	sb8_1     = -0.0128	eb1_1     =  0.2185	eb2_1     = -4.3342	
eb3_1     = -4.5599	eb4_1     = -0.1524	eb5_1     = -4.4971	eb6_1     = -0.1443	eb7_1     =  0.1176	
eb8_1     = -3.8914	tb1_1     =  0.0065	tb2_1     = -1.1986	tb3_1     =  1.7998	tb4_1     =  0.1424	
tb5_1     = -1.7892	tb6_1     = -0.1361	tb7_1     =  0.1346	tb8_1     = -2.3073	

CDMFT iteration 52, distance =  8.73e+01, diff param =  7.22e-02, diff hybrid =  1.27e-01
177 minimization steps, time(MIN)/time(ED)=0.00432
sb1_1     =  0.1552	sb2_1     =  0.0041	sb3_1     =  0.0120	sb4_1     = -0.0846	sb5_1     =  0.0146	
sb6_1     = -0.0957	sb7_1     =  0.1310	sb8_1     =  0.0011	eb1_1     =  0.1055	eb2_1     = -4.0761	
eb3_1     = -4.5633	eb4_1     = -0.1011	eb5_1     = -4.5774	eb6_1     = -0.1102	eb7_1     =  0.0275	
eb8_1     = -3.9030	tb1_1     = -0.0129	tb2_1     = -1.1810	tb3_1     =  1.8016	tb4_1     =  0.1391	
tb5_1     = -1.8046	tb6_1     = -0.1408	tb7_1     = -0.0118	tb8_1     = -2.2989	

CDMFT iteration 53, distance =  1.26e+02, diff param =  1.07e-01, diff hybrid =  1.07e-01
179 minimization steps, time(MIN)/time(ED)=0.00431
sb1_1     =  0.1114	sb2_1     = -0.0001	sb3_1     =  0.0110	sb4_1     = -0.1281	sb5_1     =  0.0090	
sb6_1     = -0.1237	sb7_1     =  0.1569	sb8_1     = -0.0007	eb1_1     =  0.0098	eb2_1     = -3.7008	
eb3_1     = -4.4239	eb4_1     = -0.0818	eb5_1     = -4.3087	eb6_1     = -0.0550	eb7_1     = -0.0555	
eb8_1     = -3.8471	tb1_1     =  0.0256	tb2_1     = -1.1439	tb3_1     =  1.7787	tb4_1     =  0.0906	
tb5_1     = -1.7587	tb6_1     = -0.0766	tb7_1     = -0.0132	tb8_1     = -2.2880	

CDMFT iteration 54, distance =  1.29e+02, diff param =  3.58e-02, diff hybrid =  1.49e-01
116 minimization steps, time(MIN)/time(ED)=0.00428
sb1_1     =  0.1142	sb2_1     =  0.0024	sb3_1     =  0.0099	sb4_1     = -0.1278	sb5_1     =  0.0130	
sb6_1     = -0.1312	sb7_1     =  0.1803	sb8_1     =  0.0009	eb1_1     =  0.0510	eb2_1     = -3.6882	
eb3_1     = -4.2934	eb4_1     = -0.0704	eb5_1     = -4.3568	eb6_1     = -0.0967	eb7_1     = -0.0966	
eb8_1     = -3.8875	tb1_1     = -0.0162	tb2_1     = -1.1374	tb3_1     =  1.7589	tb4_1     =  0.0666	
tb5_1     = -1.7691	tb6_1     = -0.0872	tb7_1     =  0.0094	tb8_1     = -2.3026	

CDMFT iteration 55, distance =  8.83e+01, diff param =  1.56e-01, diff hybrid =  6.49e-02
217 minimization steps, time(MIN)/time(ED)=0.00429
sb1_1     =  0.1862	sb2_1     = -0.0022	sb3_1     =  0.0175	sb4_1     = -0.0944	sb5_1     =  0.0177	
sb6_1     = -0.0885	sb7_1     =  0.1354	sb8_1     = -0.0123	eb1_1     =  0.2187	eb2_1     = -4.3458	
eb3_1     = -4.5501	eb4_1     = -0.1516	eb5_1     = -4.4921	eb6_1     = -0.1438	eb7_1     = -0.1161	
eb8_1     = -3.8879	tb1_1     =  0.0063	tb2_1     = -1.2000	tb3_1     =  1.7982	tb4_1     =  0.1418	
tb5_1     = -1.7884	tb6_1     = -0.1356	tb7_1     = -0.0704	tb8_1     = -2.3068	

CDMFT iteration 56, distance =  8.72e+01, diff param =  7.12e-02, diff hybrid =  1.26e-01
156 minimization steps, time(MIN)/time(ED)=0.00429
sb1_1     =  0.1570	sb2_1     =  0.0040	sb3_1     =  0.0122	sb4_1     = -0.0845	sb5_1     =  0.0146	
sb6_1     = -0.0952	sb7_1     = -0.0113	sb8_1     =  0.0011	eb1_1     =  0.1093	eb2_1     = -4.0957	
eb3_1     = -4.5671	eb4_1     = -0.1025	eb5_1     = -4.5800	eb6_1     = -0.1109	eb7_1     = -0.0286	
eb8_1     = -3.9053	tb1_1     = -0.0125	tb2_1     = -1.1829	tb3_1     =  1.8022	tb4_1     =  0.1399	
tb5_1     = -1.8050	tb6_1     = -0.1414	tb7_1     = -0.1314	tb8_1     = -2.2994	

CDMFT iteration 57, distance =  1.26e+02, diff param =  1.13e-01, diff hybrid =  1.08e-01
204 minimization steps, time(MIN)/time(ED)=0.00430
sb1_1     =  0.1115	sb2_1     = -0.0002	sb3_1     =  0.0109	sb4_1     = -0.1278	sb5_1     =  0.0091	
sb6_1     = -0.1236	sb7_1     = -0.0126	sb8_1     = -0.0007	eb1_1     =  0.0096	eb2_1     = -3.6832	
eb3_1     = -4.4232	eb4_1     = -0.0810	eb5_1     = -4.3131	eb6_1     = -0.0554	eb7_1     =  0.0545	
eb8_1     = -3.8465	tb1_1     =  0.0250	tb2_1     = -1.1415	tb3_1     =  1.7786	tb4_1     =  0.0905	
tb5_1     = -1.7595	tb6_1     = -0.0773	tb7_1     = -0.1564	tb8_1     = -2.2877	

CDMFT iteration 58, distance =  1.29e+02, diff param =  3.42e-02, diff hybrid =  1.50e-01
108 minimization steps, time(MIN)/time(ED)=0.00426
sb1_1     =  0.1138	sb2_1     =  0.0022	sb3_1     =  0.0100	sb4_1     = -0.1280	sb5_1     =  0.0129	
sb6_1     = -0.1312	sb7_1     =  0.0090	sb8_1     =  0.0008	eb1_1     =  0.0498	eb2_1     = -3.6795	
eb3_1     = -4.2990	eb4_1     = -0.0711	eb5_1     = -4.3538	eb6_1     = -0.0960	eb7_1     =  0.0966	
eb8_1     = -3.8874	tb1_1     = -0.0156	tb2_1     = -1.1364	tb3_1     =  1.7598	tb4_1     =  0.0672	
tb5_1     = -1.7686	tb6_1     = -0.0868	tb7_1     = -0.1804	tb8_1     = -2.3025	

CDMFT iteration 59, distance =  8.82e+01, diff param =  1.61e-01, diff hybrid =  6.43e-02
195 minimization steps, time(MIN)/time(ED)=0.00426
sb1_1     =  0.1867	sb2_1     = -0.0021	sb3_1     =  0.0176	sb4_1     = -0.0943	sb5_1     =  0.0178	
sb6_1     = -0.0886	sb7_1     = -0.0692	sb8_1     = -0.0121	eb1_1     =  0.2192	eb2_1     = -4.3666	
eb3_1     = -4.5503	eb4_1     = -0.1517	eb5_1     = -4.4931	eb6_1     = -0.1440	eb7_1     =  0.1155	
eb8_1     = -3.8866	tb1_1     =  0.0060	tb2_1     = -1.2024	tb3_1     =  1.7982	tb4_1     =  0.1416	
tb5_1     = -1.7886	tb6_1     = -0.1359	tb7_1     = -0.1355	tb8_1     = -2.3066	

CDMFT iteration 60, distance =  8.70e+01, diff param =  6.86e-02, diff hybrid =  1.26e-01
146 minimization steps, time(MIN)/time(ED)=0.00426
sb1_1     =  0.1587	sb2_1     =  0.0040	sb3_1     =  0.0122	sb4_1     = -0.0845	sb5_1     =  0.0146	
sb6_1     = -0.0950	sb7_1     = -0.1315	sb8_1     =  0.0010	eb1_1     =  0.1125	eb2_1     = -4.1300	
eb3_1     = -4.5683	eb4_1     = -0.1030	eb5_1     = -4.5744	eb6_1     = -0.1110	eb7_1     =  0.0290	
eb8_1     = -3.9050	tb1_1     = -0.0123	tb2_1     = -1.1866	tb3_1     =  1.8024	tb4_1     =  0.1402	
tb5_1     = -1.8039	tb6_1     = -0.1415	tb7_1     =  0.0107	tb8_1     = -2.2993	

CDMFT iteration 61, distance =  1.26e+02, diff param =  1.14e-01, diff hybrid =  1.07e-01
156 minimization steps, time(MIN)/time(ED)=0.00426
sb1_1     =  0.1118	sb2_1     = -0.0001	sb3_1     =  0.0109	sb4_1     = -0.1278	sb5_1     =  0.0090	
sb6_1     = -0.1237	sb7_1     = -0.1565	sb8_1     = -0.0006	eb1_1     =  0.0096	eb2_1     = -3.7040	
eb3_1     = -4.4214	eb4_1     = -0.0806	eb5_1     = -4.3123	eb6_1     = -0.0554	eb7_1     = -0.0543	
eb8_1     = -3.8466	tb1_1     =  0.0242	tb2_1     = -1.1444	tb3_1     =  1.7783	tb4_1     =  0.0902	
tb5_1     = -1.7593	tb6_1     = -0.0774	tb7_1     =  0.0124	tb8_1     = -2.2878	

CDMFT iteration 62, distance =  1.29e+02, diff param =  3.41e-02, diff hybrid =  1.51e-01
93 minimization steps, time(MIN)/time(ED)=0.00422
sb1_1     =  0.1138	sb2_1     =  0.0023	sb3_1     =  0.0100	sb4_1     = -0.1281	sb5_1     =  0.0128	
sb6_1     = -0.1313	sb7_1     = -0.1804	sb8_1     =  0.0008	eb1_1     =  0.0497	eb2_1     = -3.6876	
eb3_1     = -4.2980	eb4_1     = -0.0710	eb5_1     = -4.3531	eb6_1     = -0.0956	eb7_1     = -0.0965	
eb8_1     = -3.8875	tb1_1     = -0.0155	tb2_1     = -1.1375	tb3_1     =  1.7597	tb4_1     =  0.0670	
tb5_1     = -1.7685	tb6_1     = -0.0863	tb7_1     = -0.0088	tb8_1     = -2.3025	

CDMFT iteration 63, distance =  8.82e+01, diff param =  1.48e-01, diff hybrid =  6.41e-02
268 minimization steps, time(MIN)/time(ED)=0.00424
sb1_1     =  0.1844	sb2_1     = -0.0020	sb3_1     =  0.0176	sb4_1     = -0.0943	sb5_1     =  0.0178	
sb6_1     = -0.0886	sb7_1     = -0.1355	sb8_1     = -0.0119	eb1_1     =  0.2151	eb2_1     = -4.2980	
eb3_1     = -4.5563	eb4_1     = -0.1523	eb5_1     = -4.4968	eb6_1     = -0.1444	eb7_1     = -0.1143	
eb8_1     = -3.8858	tb1_1     =  0.0058	tb2_1     = -1.1948	tb3_1     =  1.7992	tb4_1     =  0.1419	
tb5_1     = -1.7892	tb6_1     = -0.1360	tb7_1     =  0.0684	tb8_1     = -2.3065	

CDMFT iteration 64, distance =  8.70e+01, diff param =  5.96e-02, diff hybrid =  1.25e-01
204 minimization steps, time(MIN)/time(ED)=0.00426
sb1_1     =  0.1590	sb2_1     =  0.0041	sb3_1     =  0.0123	sb4_1     = -0.0843	sb5_1     =  0.0147	
sb6_1     = -0.0948	sb7_1     =  0.0104	sb8_1     =  0.0010	eb1_1     =  0.1133	eb2_1     = -4.1270	
eb3_1     = -4.5724	eb4_1     = -0.1039	eb5_1     = -4.5825	eb6_1     = -0.1116	eb7_1     = -0.0300	
eb8_1     = -3.9069	tb1_1     = -0.0123	tb2_1     = -1.1862	tb3_1     =  1.8030	tb4_1     =  0.1407	
tb5_1     = -1.8053	tb6_1     = -0.1421	tb7_1     =  0.1319	tb8_1     = -2.2996	

CDMFT iteration 65, distance =  1.26e+02, diff param =  1.17e-01, diff hybrid =  1.07e-01
142 minimization steps, time(MIN)/time(ED)=0.00425
sb1_1     =  0.1119	sb2_1     = -0.0001	sb3_1     =  0.0108	sb4_1     = -0.1277	sb5_1     =  0.0090	
sb6_1     = -0.1236	sb7_1     =  0.0123	sb8_1     = -0.0006	eb1_1     =  0.0096	eb2_1     = -3.6956	
eb3_1     = -4.4184	eb4_1     = -0.0803	eb5_1     = -4.3102	eb6_1     = -0.0555	eb7_1     =  0.0538	
eb8_1     = -3.8465	tb1_1     =  0.0234	tb2_1     = -1.1432	tb3_1     =  1.7777	tb4_1     =  0.0902	
tb5_1     = -1.7589	tb6_1     = -0.0776	tb7_1     =  0.1562	tb8_1     = -2.2877	

CDMFT iteration 66, distance =  1.29e+02, diff param =  3.38e-02, diff hybrid =  1.51e-01
104 minimization steps, time(MIN)/time(ED)=0.00422
sb1_1     =  0.1134	sb2_1     =  0.0022	sb3_1     =  0.0100	sb4_1     = -0.1282	sb5_1     =  0.0128	
sb6_1     = -0.1314	sb7_1     = -0.0086	sb8_1     =  0.0008	eb1_1     =  0.0486	eb2_1     = -3.6820	
eb3_1     = -4.2962	eb4_1     = -0.0710	eb5_1     = -4.3527	eb6_1     = -0.0953	eb7_1     =  0.0964	
eb8_1     = -3.8870	tb1_1     = -0.0155	tb2_1     = -1.1369	tb3_1     =  1.7593	tb4_1     =  0.0670	
tb5_1     = -1.7684	tb6_1     = -0.0861	tb7_1     =  0.1805	tb8_1     = -2.3024	

CDMFT iteration 67, distance =  8.83e+01, diff param =  1.50e-01, diff hybrid =  6.38e-02
214 minimization steps, time(MIN)/time(ED)=0.00422
sb1_1     =  0.1845	sb2_1     = -0.0020	sb3_1     =  0.0176	sb4_1     = -0.0944	sb5_1     =  0.0178	
sb6_1     = -0.0887	sb7_1     =  0.0668	sb8_1     = -0.0117	eb1_1     =  0.2152	eb2_1     = -4.3058	
eb3_1     = -4.5531	eb4_1     = -0.1519	eb5_1     = -4.4938	eb6_1     = -0.1440	eb7_1     =  0.1143	
eb8_1     = -3.8844	tb1_1     =  0.0058	tb2_1     = -1.1958	tb3_1     =  1.7987	tb4_1     =  0.1416	
tb5_1     = -1.7888	tb6_1     = -0.1357	tb7_1     =  0.1363	tb8_1     = -2.3064	

CDMFT iteration 68, distance =  8.69e+01, diff param =  5.74e-02, diff hybrid =  1.25e-01
176 minimization steps, time(MIN)/time(ED)=0.00423
sb1_1     =  0.1604	sb2_1     =  0.0041	sb3_1     =  0.0123	sb4_1     = -0.0843	sb5_1     =  0.0147	
sb6_1     = -0.0946	sb7_1     =  0.1321	sb8_1     =  0.0011	eb1_1     =  0.1162	eb2_1     = -4.1558	
eb3_1     = -4.5741	eb4_1     = -0.1046	eb5_1     = -4.5844	eb6_1     = -0.1123	eb7_1     =  0.0305	
eb8_1     = -3.9076	tb1_1     = -0.0121	tb2_1     = -1.1893	tb3_1     =  1.8032	tb4_1     =  0.1411	
tb5_1     = -1.8056	tb6_1     = -0.1425	tb7_1     = -0.0103	tb8_1     = -2.2997	

CDMFT iteration 69, distance =  1.26e+02, diff param =  1.21e-01, diff hybrid =  1.08e-01
151 minimization steps, time(MIN)/time(ED)=0.00422
sb1_1     =  0.1121	sb2_1     = -0.0001	sb3_1     =  0.0108	sb4_1     = -0.1276	sb5_1     =  0.0091	
sb6_1     = -0.1236	sb7_1     =  0.1558	sb8_1     = -0.0006	eb1_1     =  0.0096	eb2_1     = -3.6942	
eb3_1     = -4.4221	eb4_1     = -0.0801	eb5_1     = -4.3182	eb6_1     = -0.0557	eb7_1     = -0.0530	
eb8_1     = -3.8455	tb1_1     =  0.0227	tb2_1     = -1.1430	tb3_1     =  1.7785	tb4_1     =  0.0903	
tb5_1     = -1.7604	tb6_1     = -0.0780	tb7_1     = -0.0120	tb8_1     = -2.2874	

CDMFT iteration 70, distance =  1.29e+02, diff param =  3.43e-02, diff hybrid =  1.52e-01
81 minimization steps, time(MIN)/time(ED)=0.00418
sb1_1     =  0.1133	sb2_1     =  0.0021	sb3_1     =  0.0099	sb4_1     = -0.1282	sb5_1     =  0.0128	
sb6_1     = -0.1315	sb7_1     =  0.1805	sb8_1     =  0.0008	eb1_1     =  0.0483	eb2_1     = -3.6816	
eb3_1     = -4.2947	eb4_1     = -0.0711	eb5_1     = -4.3536	eb6_1     = -0.0953	eb7_1     = -0.0962	
eb8_1     = -3.8867	tb1_1     = -0.0152	tb2_1     = -1.1369	tb3_1     =  1.7590	tb4_1     =  0.0671	
tb5_1     = -1.7686	tb6_1     = -0.0860	tb7_1     =  0.0085	tb8_1     = -2.3022	

CDMFT iteration 71, distance =  8.83e+01, diff param =  1.56e-01, diff hybrid =  6.39e-02
275 minimization steps, time(MIN)/time(ED)=0.00421
sb1_1     =  0.1858	sb2_1     = -0.0020	sb3_1     =  0.0177	sb4_1     = -0.0944	sb5_1     =  0.0178	
sb6_1     = -0.0888	sb7_1     =  0.1363	sb8_1     = -0.0116	eb1_1     =  0.2181	eb2_1     = -4.3334	
eb3_1     = -4.5549	eb4_1     = -0.1522	eb5_1     = -4.4957	eb6_1     = -0.1442	eb7_1     = -0.1141	
eb8_1     = -3.8838	tb1_1     =  0.0057	tb2_1     = -1.1985	tb3_1     =  1.7990	tb4_1     =  0.1417	
tb5_1     = -1.7891	tb6_1     = -0.1358	tb7_1     = -0.0663	tb8_1     = -2.3063	

CDMFT iteration 72, distance =  8.68e+01, diff param =  6.13e-02, diff hybrid =  1.25e-01
199 minimization steps, time(MIN)/time(ED)=0.00423
sb1_1     =  0.1605	sb2_1     =  0.0041	sb3_1     =  0.0123	sb4_1     = -0.0843	sb5_1     =  0.0147	
sb6_1     = -0.0945	sb7_1     = -0.0102	sb8_1     =  0.0010	eb1_1     =  0.1167	eb2_1     = -4.1509	
eb3_1     = -4.5754	eb4_1     = -0.1049	eb5_1     = -4.5848	eb6_1     = -0.1124	eb7_1     = -0.0308	
eb8_1     = -3.9080	tb1_1     = -0.0121	tb2_1     = -1.1886	tb3_1     =  1.8035	tb4_1     =  0.1412	
tb5_1     = -1.8056	tb6_1     = -0.1426	tb7_1     = -0.1322	tb8_1     = -2.2998	

CDMFT iteration 73, distance =  1.26e+02, diff param =  1.18e-01, diff hybrid =  1.08e-01
149 minimization steps, time(MIN)/time(ED)=0.00422
sb1_1     =  0.1123	sb2_1     = -0.0001	sb3_1     =  0.0108	sb4_1     = -0.1276	sb5_1     =  0.0091	
sb6_1     = -0.1236	sb7_1     = -0.0120	sb8_1     = -0.0006	eb1_1     =  0.0097	eb2_1     = -3.7072	
eb3_1     = -4.4220	eb4_1     = -0.0800	eb5_1     = -4.3203	eb6_1     = -0.0558	eb7_1     =  0.0529	
eb8_1     = -3.8462	tb1_1     =  0.0223	tb2_1     = -1.1448	tb3_1     =  1.7784	tb4_1     =  0.0903	
tb5_1     = -1.7608	tb6_1     = -0.0781	tb7_1     = -0.1558	tb8_1     = -2.2876	

CDMFT iteration 74, distance =  1.29e+02, diff param =  3.47e-02, diff hybrid =  1.52e-01
112 minimization steps, time(MIN)/time(ED)=0.00419
sb1_1     =  0.1133	sb2_1     =  0.0021	sb3_1     =  0.0099	sb4_1     = -0.1282	sb5_1     =  0.0128	
sb6_1     = -0.1315	sb7_1     =  0.0083	sb8_1     =  0.0008	eb1_1     =  0.0484	eb2_1     = -3.6839	
eb3_1     = -4.2930	eb4_1     = -0.0710	eb5_1     = -4.3540	eb6_1     = -0.0950	eb7_1     =  0.0962	
eb8_1     = -3.8873	tb1_1     = -0.0151	tb2_1     = -1.1372	tb3_1     =  1.7586	tb4_1     =  0.0671	
tb5_1     = -1.7687	tb6_1     = -0.0858	tb7_1     = -0.1806	tb8_1     = -2.3024	

CDMFT iteration 75, distance =  8.82e+01, diff param =  1.56e-01, diff hybrid =  6.39e-02
297 minimization steps, time(MIN)/time(ED)=0.00422
sb1_1     =  0.1863	sb2_1     = -0.0020	sb3_1     =  0.0176	sb4_1     = -0.0944	sb5_1     =  0.0178	
sb6_1     = -0.0888	sb7_1     = -0.0660	sb8_1     = -0.0116	eb1_1     =  0.2197	eb2_1     = -4.3344	
eb3_1     = -4.5545	eb4_1     = -0.1522	eb5_1     = -4.4959	eb6_1     = -0.1442	eb7_1     =  0.1139	
eb8_1     = -3.8834	tb1_1     =  0.0057	tb2_1     = -1.1984	tb3_1     =  1.7990	tb4_1     =  0.1417	
tb5_1     = -1.7891	tb6_1     = -0.1358	tb7_1     = -0.1364	tb8_1     = -2.3062	

CDMFT iteration 76, distance =  8.68e+01, diff param =  6.12e-02, diff hybrid =  1.25e-01
185 minimization steps, time(MIN)/time(ED)=0.00423
sb1_1     =  0.1608	sb2_1     =  0.0041	sb3_1     =  0.0123	sb4_1     = -0.0842	sb5_1     =  0.0147	
sb6_1     = -0.0945	sb7_1     = -0.1323	sb8_1     =  0.0011	eb1_1     =  0.1173	eb2_1     = -4.1541	
eb3_1     = -4.5760	eb4_1     = -0.1051	eb5_1     = -4.5855	eb6_1     = -0.1124	eb7_1     =  0.0309	
eb8_1     = -3.9087	tb1_1     = -0.0120	tb2_1     = -1.1889	tb3_1     =  1.8036	tb4_1     =  0.1413	
tb5_1     = -1.8058	tb6_1     = -0.1427	tb7_1     =  0.0101	tb8_1     = -2.3000	

CDMFT iteration 77, distance =  1.26e+02, diff param =  1.21e-01, diff hybrid =  1.08e-01
130 minimization steps, time(MIN)/time(ED)=0.00422
sb1_1     =  0.1123	sb2_1     = -0.0001	sb3_1     =  0.0107	sb4_1     = -0.1274	sb5_1     =  0.0090	
sb6_1     = -0.1235	sb7_1     = -0.1557	sb8_1     = -0.0006	eb1_1     =  0.0097	eb2_1     = -3.7053	
eb3_1     = -4.4137	eb4_1     = -0.0797	eb5_1     = -4.3074	eb6_1     = -0.0556	eb7_1     = -0.0527	
eb8_1     = -3.8455	tb1_1     =  0.0223	tb2_1     = -1.1445	tb3_1     =  1.7769	tb4_1     =  0.0900	
tb5_1     = -1.7583	tb6_1     = -0.0780	tb7_1     =  0.0119	tb8_1     = -2.2873	

CDMFT iteration 78, distance =  1.29e+02, diff param =  3.34e-02, diff hybrid =  1.52e-01
89 minimization steps, time(MIN)/time(ED)=0.00419
sb1_1     =  0.1132	sb2_1     =  0.0021	sb3_1     =  0.0099	sb4_1     = -0.1284	sb5_1     =  0.0127	
sb6_1     = -0.1315	sb7_1     = -0.1807	sb8_1     =  0.0008	eb1_1     =  0.0478	eb2_1     = -3.6842	
eb3_1     = -4.2957	eb4_1     = -0.0710	eb5_1     = -4.3511	eb6_1     = -0.0948	eb7_1     = -0.0962	
eb8_1     = -3.8870	tb1_1     = -0.0152	tb2_1     = -1.1373	tb3_1     =  1.7591	tb4_1     =  0.0669	
tb5_1     = -1.7681	tb6_1     = -0.0856	tb7_1     = -0.0084	tb8_1     = -2.3023	

CDMFT iteration 79, distance =  8.83e+01, diff param =  1.58e-01, diff hybrid =  6.37e-02
201 minimization steps, time(MIN)/time(ED)=0.00419
sb1_1     =  0.1868	sb2_1     = -0.0020	sb3_1     =  0.0176	sb4_1     = -0.0945	sb5_1     =  0.0178	
sb6_1     = -0.0889	sb7_1     = -0.1367	sb8_1     = -0.0114	eb1_1     =  0.2209	eb2_1     = -4.3516	
eb3_1     = -4.5537	eb4_1     = -0.1520	eb5_1     = -4.4941	eb6_1     = -0.1439	eb7_1     = -0.1135	
eb8_1     = -3.8834	tb1_1     =  0.0057	tb2_1     = -1.2003	tb3_1     =  1.7989	tb4_1     =  0.1414	
tb5_1     = -1.7889	tb6_1     = -0.1355	tb7_1     =  0.0651	tb8_1     = -2.3063	

CDMFT iteration 80, distance =  8.67e+01, diff param =  6.87e-02, diff hybrid =  1.25e-01
198 minimization steps, time(MIN)/time(ED)=0.00421
sb1_1     =  0.1598	sb2_1     =  0.0040	sb3_1     =  0.0124	sb4_1     = -0.0842	sb5_1     =  0.0147	
sb6_1     = -0.0943	sb7_1     =  0.0100	sb8_1     =  0.0010	eb1_1     =  0.1158	eb2_1     = -4.1175	
eb3_1     = -4.5772	eb4_1     = -0.1056	eb5_1     = -4.5861	eb6_1     = -0.1128	eb7_1     = -0.0313	
eb8_1     = -3.9069	tb1_1     = -0.0120	tb2_1     = -1.1846	tb3_1     =  1.8038	tb4_1     =  0.1415	
tb5_1     = -1.8058	tb6_1     = -0.1429	tb7_1     =  0.1323	tb8_1     = -2.2995	

CDMFT iteration 81, distance =  1.26e+02, diff param =  1.13e-01, diff hybrid =  1.08e-01
147 minimization steps, time(MIN)/time(ED)=0.00420
sb1_1     =  0.1124	sb2_1     = -0.0002	sb3_1     =  0.0108	sb4_1     = -0.1275	sb5_1     =  0.0091	
sb6_1     = -0.1236	sb7_1     =  0.0119	sb8_1     = -0.0006	eb1_1     =  0.0097	eb2_1     = -3.7065	
eb3_1     = -4.4217	eb4_1     = -0.0798	eb5_1     = -4.3196	eb6_1     = -0.0560	eb7_1     =  0.0525	
eb8_1     = -3.8465	tb1_1     =  0.0225	tb2_1     = -1.1447	tb3_1     =  1.7783	tb4_1     =  0.0904	
tb5_1     = -1.7606	tb6_1     = -0.0784	tb7_1     =  0.1556	tb8_1     = -2.2876	

CDMFT iteration 82, distance =  1.29e+02, diff param =  3.35e-02, diff hybrid =  1.52e-01
71 minimization steps, time(MIN)/time(ED)=0.00417
sb1_1     =  0.1133	sb2_1     =  0.0021	sb3_1     =  0.0100	sb4_1     = -0.1283	sb5_1     =  0.0127	
sb6_1     = -0.1315	sb7_1     = -0.0084	sb8_1     =  0.0008	eb1_1     =  0.0482	eb2_1     = -3.6876	
eb3_1     = -4.2986	eb4_1     = -0.0712	eb5_1     = -4.3520	eb6_1     = -0.0948	eb7_1     =  0.0962	
eb8_1     = -3.8876	tb1_1     = -0.0151	tb2_1     = -1.1377	tb3_1     =  1.7597	tb4_1     =  0.0673	
tb5_1     = -1.7683	tb6_1     = -0.0856	tb7_1     =  0.1807	tb8_1     = -2.3025	

CDMFT iteration 83, distance =  8.82e+01, diff param =  1.53e-01, diff hybrid =  6.39e-02
189 minimization steps, time(MIN)/time(ED)=0.00417
sb1_1     =  0.1853	sb2_1     = -0.0019	sb3_1     =  0.0176	sb4_1     = -0.0944	sb5_1     =  0.0178	
sb6_1     = -0.0889	sb7_1     =  0.0647	sb8_1     = -0.0114	eb1_1     =  0.2170	eb2_1     = -4.3244	
eb3_1     = -4.5544	eb4_1     = -0.1521	eb5_1     = -4.4953	eb6_1     = -0.1441	eb7_1     =  0.1135	
eb8_1     = -3.8825	tb1_1     =  0.0055	tb2_1     = -1.1977	tb3_1     =  1.7990	tb4_1     =  0.1415	
tb5_1     = -1.7891	tb6_1     = -0.1358	tb7_1     =  0.1367	tb8_1     = -2.3062	

CDMFT iteration 84, distance =  8.67e+01, diff param =  5.78e-02, diff hybrid =  1.24e-01
186 minimization steps, time(MIN)/time(ED)=0.00417
sb1_1     =  0.1619	sb2_1     =  0.0040	sb3_1     =  0.0124	sb4_1     = -0.0842	sb5_1     =  0.0147	
sb6_1     = -0.0943	sb7_1     =  0.1325	sb8_1     =  0.0010	eb1_1     =  0.1196	eb2_1     = -4.1717	
eb3_1     = -4.5781	eb4_1     = -0.1058	eb5_1     = -4.5872	eb6_1     = -0.1130	eb7_1     =  0.0316	
eb8_1     = -3.9092	tb1_1     = -0.0119	tb2_1     = -1.1908	tb3_1     =  1.8039	tb4_1     =  0.1417	
tb5_1     = -1.8060	tb6_1     = -0.1430	tb7_1     = -0.0098	tb8_1     = -2.3001	

CDMFT iteration 85, distance =  1.26e+02, diff param =  1.24e-01, diff hybrid =  1.08e-01
160 minimization steps, time(MIN)/time(ED)=0.00417
sb1_1     =  0.1124	sb2_1     = -0.0001	sb3_1     =  0.0108	sb4_1     = -0.1274	sb5_1     =  0.0091	
sb6_1     = -0.1235	sb7_1     =  0.1555	sb8_1     = -0.0005	eb1_1     =  0.0096	eb2_1     = -3.6961	
eb3_1     = -4.4198	eb4_1     = -0.0795	eb5_1     = -4.3164	eb6_1     = -0.0559	eb7_1     = -0.0523	
eb8_1     = -3.8444	tb1_1     =  0.0217	tb2_1     = -1.1433	tb3_1     =  1.7780	tb4_1     =  0.0902	
tb5_1     = -1.7600	tb6_1     = -0.0784	tb7_1     = -0.0117	tb8_1     = -2.2870	

CDMFT iteration 86, distance =  1.29e+02, diff param =  3.41e-02, diff hybrid =  1.52e-01
94 minimization steps, time(MIN)/time(ED)=0.00415
sb1_1     =  0.1130	sb2_1     =  0.0020	sb3_1     =  0.0099	sb4_1     = -0.1284	sb5_1     =  0.0127	
sb6_1     = -0.1315	sb7_1     =  0.1806	sb8_1     =  0.0007	eb1_1     =  0.0474	eb2_1     = -3.6788	
eb3_1     = -4.2931	eb4_1     = -0.0711	eb5_1     = -4.3524	eb6_1     = -0.0946	eb7_1     = -0.0960	
eb8_1     = -3.8855	tb1_1     = -0.0149	tb2_1     = -1.1366	tb3_1     =  1.7586	tb4_1     =  0.0671	
tb5_1     = -1.7684	tb6_1     = -0.0855	tb7_1     =  0.0081	tb8_1     = -2.3018	

CDMFT iteration 87, distance =  8.83e+01, diff param =  1.56e-01, diff hybrid =  6.35e-02
256 minimization steps, time(MIN)/time(ED)=0.00416
sb1_1     =  0.1859	sb2_1     = -0.0018	sb3_1     =  0.0176	sb4_1     = -0.0945	sb5_1     =  0.0178	
sb6_1     = -0.0889	sb7_1     =  0.1369	sb8_1     = -0.0113	eb1_1     =  0.2183	eb2_1     = -4.3357	
eb3_1     = -4.5529	eb4_1     = -0.1517	eb5_1     = -4.4941	eb6_1     = -0.1438	eb7_1     = -0.1131	
eb8_1     = -3.8825	tb1_1     =  0.0054	tb2_1     = -1.1987	tb3_1     =  1.7988	tb4_1     =  0.1413	
tb5_1     = -1.7888	tb6_1     = -0.1356	tb7_1     = -0.0643	tb8_1     = -2.3062	

CDMFT iteration 88, distance =  8.67e+01, diff param =  5.99e-02, diff hybrid =  1.24e-01
179 minimization steps, time(MIN)/time(ED)=0.00417
sb1_1     =  0.1617	sb2_1     =  0.0040	sb3_1     =  0.0124	sb4_1     = -0.0842	sb5_1     =  0.0147	
sb6_1     = -0.0943	sb7_1     = -0.0098	sb8_1     =  0.0010	eb1_1     =  0.1194	eb2_1     = -4.1657	
eb3_1     = -4.5781	eb4_1     = -0.1059	eb5_1     = -4.5872	eb6_1     = -0.1130	eb7_1     = -0.0315	
eb8_1     = -3.9078	tb1_1     = -0.0118	tb2_1     = -1.1901	tb3_1     =  1.8039	tb4_1     =  0.1418	
tb5_1     = -1.8060	tb6_1     = -0.1430	tb7_1     = -0.1324	tb8_1     = -2.2997	

CDMFT iteration 89, distance =  1.26e+02, diff param =  1.22e-01, diff hybrid =  1.08e-01
178 minimization steps, time(MIN)/time(ED)=0.00417
sb1_1     =  0.1123	sb2_1     = -0.0002	sb3_1     =  0.0108	sb4_1     = -0.1274	sb5_1     =  0.0091	
sb6_1     = -0.1235	sb7_1     = -0.0116	sb8_1     = -0.0005	eb1_1     =  0.0097	eb2_1     = -3.7046	
eb3_1     = -4.4194	eb4_1     = -0.0795	eb5_1     = -4.3172	eb6_1     = -0.0560	eb7_1     =  0.0522	
eb8_1     = -3.8457	tb1_1     =  0.0228	tb2_1     = -1.1444	tb3_1     =  1.7780	tb4_1     =  0.0902	
tb5_1     = -1.7602	tb6_1     = -0.0785	tb7_1     = -0.1554	tb8_1     = -2.2874	

CDMFT iteration 90, distance =  1.29e+02, diff param =  3.26e-02, diff hybrid =  1.52e-01
82 minimization steps, time(MIN)/time(ED)=0.00414
sb1_1     =  0.1132	sb2_1     =  0.0021	sb3_1     =  0.0100	sb4_1     = -0.1285	sb5_1     =  0.0127	
sb6_1     = -0.1315	sb7_1     =  0.0082	sb8_1     =  0.0008	eb1_1     =  0.0480	eb2_1     = -3.6872	
eb3_1     = -4.3024	eb4_1     = -0.0714	eb5_1     = -4.3501	eb6_1     = -0.0945	eb7_1     =  0.0961	
eb8_1     = -3.8871	tb1_1     = -0.0149	tb2_1     = -1.1377	tb3_1     =  1.7604	tb4_1     =  0.0673	
tb5_1     = -1.7680	tb6_1     = -0.0855	tb7_1     = -0.1806	tb8_1     = -2.3023	

CDMFT iteration 91, distance =  8.82e+01, diff param =  1.50e-01, diff hybrid =  6.38e-02
207 minimization steps, time(MIN)/time(ED)=0.00415
sb1_1     =  0.1850	sb2_1     = -0.0018	sb3_1     =  0.0176	sb4_1     = -0.0944	sb5_1     =  0.0178	
sb6_1     = -0.0889	sb7_1     = -0.0645	sb8_1     = -0.0113	eb1_1     =  0.2169	eb2_1     = -4.3073	
eb3_1     = -4.5545	eb4_1     = -0.1521	eb5_1     = -4.4956	eb6_1     = -0.1443	eb7_1     =  0.1132	
eb8_1     = -3.8821	tb1_1     =  0.0054	tb2_1     = -1.1956	tb3_1     =  1.7990	tb4_1     =  0.1414	
tb5_1     = -1.7891	tb6_1     = -0.1359	tb7_1     = -0.1366	tb8_1     = -2.3061	

CDMFT iteration 92, distance =  8.67e+01, diff param =  6.38e-02, diff hybrid =  1.24e-01
163 minimization steps, time(MIN)/time(ED)=0.00415
sb1_1     =  0.1596	sb2_1     =  0.0039	sb3_1     =  0.0124	sb4_1     = -0.0842	sb5_1     =  0.0147	
sb6_1     = -0.0942	sb7_1     = -0.1325	sb8_1     =  0.0010	eb1_1     =  0.1155	eb2_1     = -4.1082	
eb3_1     = -4.5789	eb4_1     = -0.1059	eb5_1     = -4.5896	eb6_1     = -0.1132	eb7_1     =  0.0316	
eb8_1     = -3.9079	tb1_1     = -0.0118	tb2_1     = -1.1835	tb3_1     =  1.8040	tb4_1     =  0.1418	
tb5_1     = -1.8064	tb6_1     = -0.1432	tb7_1     =  0.0096	tb8_1     = -2.2997	

CDMFT iteration 93, distance =  1.26e+02, diff param =  1.15e-01, diff hybrid =  1.08e-01
164 minimization steps, time(MIN)/time(ED)=0.00415
sb1_1     =  0.1124	sb2_1     = -0.0001	sb3_1     =  0.0108	sb4_1     = -0.1275	sb5_1     =  0.0091	
sb6_1     = -0.1236	sb7_1     = -0.1555	sb8_1     = -0.0006	eb1_1     =  0.0096	eb2_1     = -3.6938	
eb3_1     = -4.4200	eb4_1     = -0.0796	eb5_1     = -4.3168	eb6_1     = -0.0561	eb7_1     = -0.0523	
eb8_1     = -3.8450	tb1_1     =  0.0218	tb2_1     = -1.1429	tb3_1     =  1.7780	tb4_1     =  0.0903	
tb5_1     = -1.7601	tb6_1     = -0.0784	tb7_1     =  0.0117	tb8_1     = -2.2871	

CDMFT iteration 94, distance =  1.29e+02, diff param =  3.35e-02, diff hybrid =  1.52e-01
77 minimization steps, time(MIN)/time(ED)=0.00412
sb1_1     =  0.1131	sb2_1     =  0.0020	sb3_1     =  0.0100	sb4_1     = -0.1284	sb5_1     =  0.0128	
sb6_1     = -0.1316	sb7_1     = -0.1807	sb8_1     =  0.0008	eb1_1     =  0.0476	eb2_1     = -3.6804	
eb3_1     = -4.2972	eb4_1     = -0.0714	eb5_1     = -4.3514	eb6_1     = -0.0948	eb7_1     = -0.0962	
eb8_1     = -3.8869	tb1_1     = -0.0149	tb2_1     = -1.1368	tb3_1     =  1.7594	tb4_1     =  0.0673	
tb5_1     = -1.7682	tb6_1     = -0.0856	tb7_1     = -0.0082	tb8_1     = -2.3022	

CDMFT iteration 95, distance =  8.82e+01, diff param =  1.52e-01, diff hybrid =  6.37e-02
214 minimization steps, time(MIN)/time(ED)=0.00413
sb1_1     =  0.1849	sb2_1     = -0.0019	sb3_1     =  0.0176	sb4_1     = -0.0944	sb5_1     =  0.0178	
sb6_1     = -0.0889	sb7_1     = -0.1367	sb8_1     = -0.0115	eb1_1     =  0.2165	eb2_1     = -4.3125	
eb3_1     = -4.5539	eb4_1     = -0.1521	eb5_1     = -4.4954	eb6_1     = -0.1442	eb7_1     = -0.1141	
eb8_1     = -3.8842	tb1_1     =  0.0055	tb2_1     = -1.1963	tb3_1     =  1.7989	tb4_1     =  0.1415	
tb5_1     = -1.7890	tb6_1     = -0.1358	tb7_1     =  0.0655	tb8_1     = -2.3065	

CDMFT iteration 96, distance =  8.67e+01, diff param =  6.07e-02, diff hybrid =  1.25e-01
145 minimization steps, time(MIN)/time(ED)=0.00413
sb1_1     =  0.1608	sb2_1     =  0.0040	sb3_1     =  0.0124	sb4_1     = -0.0842	sb5_1     =  0.0149	
sb6_1     = -0.0945	sb7_1     =  0.0099	sb8_1     =  0.0011	eb1_1     =  0.1176	eb2_1     = -4.1458	
eb3_1     = -4.5815	eb4_1     = -0.1058	eb5_1     = -4.6032	eb6_1     = -0.1136	eb7_1     = -0.0314	
eb8_1     = -3.9091	tb1_1     = -0.0120	tb2_1     = -1.1879	tb3_1     =  1.8045	tb4_1     =  0.1417	
tb5_1     = -1.8088	tb6_1     = -0.1435	tb7_1     =  0.1324	tb8_1     = -2.3000	

CDMFT iteration 97, distance =  1.26e+02, diff param =  1.21e-01, diff hybrid =  1.08e-01
171 minimization steps, time(MIN)/time(ED)=0.00413
sb1_1     =  0.1123	sb2_1     = -0.0002	sb3_1     =  0.0108	sb4_1     = -0.1273	sb5_1     =  0.0091	
sb6_1     = -0.1234	sb7_1     =  0.0117	sb8_1     = -0.0006	eb1_1     =  0.0098	eb2_1     = -3.6975	
eb3_1     = -4.4204	eb4_1     = -0.0796	eb5_1     = -4.3190	eb6_1     = -0.0561	eb7_1     =  0.0521	
eb8_1     = -3.8452	tb1_1     =  0.0223	tb2_1     = -1.1434	tb3_1     =  1.7782	tb4_1     =  0.0905	
tb5_1     = -1.7605	tb6_1     = -0.0785	tb7_1     =  0.1553	tb8_1     = -2.2872	

CDMFT iteration 98, distance =  1.29e+02, diff param =  3.25e-02, diff hybrid =  1.52e-01
90 minimization steps, time(MIN)/time(ED)=0.00410
sb1_1     =  0.1133	sb2_1     =  0.0021	sb3_1     =  0.0101	sb4_1     = -0.1284	sb5_1     =  0.0127	
sb6_1     = -0.1315	sb7_1     = -0.0082	sb8_1     =  0.0008	eb1_1     =  0.0481	eb2_1     = -3.6831	
eb3_1     = -4.3029	eb4_1     = -0.0715	eb5_1     = -4.3504	eb6_1     = -0.0946	eb7_1     =  0.0961	
eb8_1     = -3.8872	tb1_1     = -0.0149	tb2_1     = -1.1371	tb3_1     =  1.7605	tb4_1     =  0.0675	
tb5_1     = -1.7680	tb6_1     = -0.0856	tb7_1     =  0.1806	tb8_1     = -2.3024	

CDMFT iteration 99, distance =  8.82e+01, diff param =  1.49e-01, diff hybrid =  6.38e-02
176 minimization steps, time(MIN)/time(ED)=0.00410
sb1_1     =  0.1844	sb2_1     = -0.0018	sb3_1     =  0.0176	sb4_1     = -0.0945	sb5_1     =  0.0179	
sb6_1     = -0.0890	sb7_1     =  0.0645	sb8_1     = -0.0113	eb1_1     =  0.2152	eb2_1     = -4.3022	
eb3_1     = -4.5546	eb4_1     = -0.1521	eb5_1     = -4.4955	eb6_1     = -0.1442	eb7_1     =  0.1133	
eb8_1     = -3.8820	tb1_1     =  0.0054	tb2_1     = -1.1952	tb3_1     =  1.7991	tb4_1     =  0.1413	
tb5_1     = -1.7891	tb6_1     = -0.1359	tb7_1     =  0.1367	tb8_1     = -2.3060	

CDMFT iteration 100, distance =  8.67e+01, diff param =  5.74e-02, diff hybrid =  1.24e-01
161 minimization steps, time(MIN)/time(ED)=0.00411
sb1_1     =  0.1612	sb2_1     =  0.0040	sb3_1     =  0.0124	sb4_1     = -0.0842	sb5_1     =  0.0147	
sb6_1     = -0.0942	sb7_1     =  0.1325	sb8_1     =  0.0010	eb1_1     =  0.1184	eb2_1     = -4.1498	
eb3_1     = -4.5776	eb4_1     = -0.1059	eb5_1     = -4.5832	eb6_1     = -0.1129	eb7_1     =  0.0318	
eb8_1     = -3.9098	tb1_1     = -0.0119	tb2_1     = -1.1882	tb3_1     =  1.8037	tb4_1     =  0.1417	
tb5_1     = -1.8053	tb6_1     = -0.1430	tb7_1     = -0.0095	tb8_1     = -2.3001	

CDMFT iteration 101, distance =  1.26e+02, diff param =  1.20e-01, diff hybrid =  1.08e-01
202 minimization steps, time(MIN)/time(ED)=0.00412
sb1_1     =  0.1124	sb2_1     = -0.0001	sb3_1     =  0.0108	sb4_1     = -0.1274	sb5_1     =  0.0091	
sb6_1     = -0.1235	sb7_1     =  0.1555	sb8_1     = -0.0006	eb1_1     =  0.0096	eb2_1     = -3.6986	
eb3_1     = -4.4202	eb4_1     = -0.0796	eb5_1     = -4.3169	eb6_1     = -0.0560	eb7_1     = -0.0523	
eb8_1     = -3.8458	tb1_1     =  0.0217	tb2_1     = -1.1436	tb3_1     =  1.7781	tb4_1     =  0.0902	
tb5_1     = -1.7601	tb6_1     = -0.0785	tb7_1     = -0.0117	tb8_1     = -2.2874	
Traceback (most recent call last):
  File "/home/theod/code_pyqcm/simulations/cdmft_fade_with_mu.py", line 137, in <module>
    fade(fade_func, initial_P, material_P, 20)
  File "/home/theod/.local/lib/python3.8/site-packages/pyqcm/loop.py", line 390, in fade
    F()
  File "/home/theod/code_pyqcm/simulations/cdmft_fade_with_mu.py", line 125, in fade_func
    cdmft(
  File "/home/theod/.local/lib/python3.8/site-packages/pyqcm/cdmft.py", line 514, in cdmft
    raise pyqcm.TooManyIterationsError(maxiter)
pyqcm.TooManyIterationsError: 100
