model	D	U	e	eb1_1	eb2_1	eb3_1	eb4_1	eb5_1	eb6_1	eb7_1	eb8_1	mu	sb1_1	sb2_1	sb3_1	sb4_1	sb5_1	sb6_1	sb7_1	sb8_1	tb1_1	tb2_1	tb3_1	tb4_1	tb5_1	tb6_1	tb7_1	tb8_1	tpd	tpp	tppp	ave_D_1	ave_U_1	ave_eb1_1	ave_eb2_1	ave_eb3_1	ave_eb4_1	ave_eb5_1	ave_eb6_1	ave_eb7_1	ave_eb8_1	ave_mu_1	ave_sb1_1	ave_sb2_1	ave_sb3_1	ave_sb4_1	ave_sb5_1	ave_sb6_1	ave_sb7_1	ave_sb8_1	ave_tb1_1	ave_tb2_1	ave_tb3_1	ave_tb4_1	ave_tb5_1	ave_tb6_1	ave_tb7_1	ave_tb8_1	var_D_1	var_U_1	var_eb1_1	var_eb2_1	var_eb3_1	var_eb4_1	var_eb5_1	var_eb6_1	var_eb7_1	var_eb8_1	var_mu_1	var_sb1_1	var_sb2_1	var_sb3_1	var_sb4_1	var_sb5_1	var_sb6_1	var_sb7_1	var_sb8_1	var_tb1_1	var_tb2_1	var_tb3_1	var_tb4_1	var_tb5_1	var_tb6_1	var_tb7_1	var_tb8_1	E0_1	sector_1	E0_2	sector_2	githash	distance	diff_param	diff_hybrid	time
2x2_2C_8b_C2v_L	0.1	14	1.87	0.0086839677	-3.1445289	-3.9164807	-0.13437878	-3.9164407	-0.13437791	0.17455273	-3.5797676	9.425	2.7540906e-05	-4.0887161e-07	0.0069035686	-0.19307525	0.0069033966	-0.1930765	-1.0933969e-05	2.552128e-06	-0.11908613	-1.0874005	1.7341014	0.025163995	-1.7340927	-0.025176042	0.26343251	-2.2991102	1.15	0.59	0.14	-0.039548716	0.12995676	0.15300028	1.943568	1.7849491	1.7136812	1.7849488	1.7136734	0.015941585	1.5478547	1.0973613	-0.00021800262	5.0421372e-06	-0.0769727	1.0855552	-0.07698185	1.0855648	5.5443788e-05	1.7868262e-06	1.1405359	0.69089082	-1.6372522	-0.27309813	1.6372476	0.27313407	-0.29879129	2.5650535	0.48147878	0.028266462	0.14261398	0.055312167	0.19605289	0.26986005	0.19605314	0.26986517	0.016219615	0.34859916	0.037351388	3.5740623	5.5136309	5.2775861	4.764073	5.2775898	4.7640946	4.4012331	6.1638332	5.1337077	2.6911731	3.5014404	5.0069615	3.5014307	5.0069622	3.6776888	3.1601469	-73.174594	R0:S0:1	-60.44	uncorrelated	51514b8	 1.40e+01	 8.08e-01	 1.00e+06	2022-04-07@10:08
2x2_2C_8b_C2v_L	0.1	14	1.87	0.040381302	-4.8447926	-5.7968506	-0.052706048	-5.7953821	-0.05771332	0.047650422	-5.4807623	9.425	0.020514749	0.0002726658	0.0029345975	-0.0061151933	0.0030344025	-0.0062587678	0.046664	3.4771813e-05	-0.0014832215	-0.69133723	1.073392	0.03705121	-1.0730033	-0.037781684	-0.00031831364	-1.3572179	1.15	0.59	0.14	-0.046874586	0.041421516	5.7217673e-05	1.9830099	1.9619446	1.9997683	1.9619726	1.9997614	0.00036651506	1.9302228	1.0410592	-0.028080018	-0.00024201589	-0.04208899	0.0045598145	-0.042136805	0.0046385771	-0.077030788	4.4274827e-05	0.0023572184	0.49170537	-0.76497386	-0.056001886	0.76462332	0.057026251	0.00027725932	1.068717	0.71225521	0.010016935	5.7250731e-05	0.016939339	0.037702878	0.00023319383	0.037675627	0.00023990208	0.00036742676	0.068288251	0.010023305	3.5582789	4.5674362	4.4401067	4.1550706	4.4405637	4.1558323	4.0928741	4.4364364	4.4422115	3.5793142	3.8540848	3.8467326	3.8534746	3.8460265	3.9095971	4.034105	-83.538403	R0:S0:1	-60.44	uncorrelated	51514b8	 5.71e-01	 1.85e-01	 1.87e+00	2022-04-07@10:12
2x2_2C_8b_C2v_L	0.1	14	1.87	0.04148928	-5.3993116	-6.2449738	-0.0570568	-6.2446196	-0.062169765	0.053745022	-5.7951905	9.425	0.00053695713	1.0955461e-05	0.0014187782	3.3667944e-05	0.0014092552	-0.00036230752	1.7892331e-05	2.8542398e-05	7.5412065e-05	-0.71994919	1.1081748	-0.00046599267	-1.1080834	0.0012532753	1.1920102e-06	-1.3910023	1.15	0.59	0.14	-0.046602387	0.040577225	3.8673883e-08	1.9834873	1.9626433	2	1.9626494	1.9999997	0	1.9309453	1.0402115	-0.00073346272	-8.7130392e-06	-0.040308421	1.4841281e-06	-0.040300993	0.00053920978	-2.9489508e-05	-9.0314156e-06	-0.00010996343	0.48482382	-0.75826546	0.00070623107	0.75818973	-0.0019374426	-1.1315775e-06	1.063895	0.71314426	0.0098218352	3.8673898e-08	0.01646453	0.037016702	3.2588343e-08	0.037010801	2.6030268e-07	0	0.067596096	0.0098254496	3.5591727	4.5630144	4.4320707	4.1504627	4.4321663	4.1506098	4.0985135	4.4263939	4.4408276	3.5796901	3.8570836	3.8495376	3.8569557	3.8493922	3.9014865	4.0396176	-87.122535	R0:S0:1	-60.44	uncorrelated	51514b8	 5.57e-01	 5.26e-05	 2.01e-02	2022-04-07@10:15
