
==================================  clusters  ==================================
No	model	n_sites	position	ref.
1	clus	4	(0,0,0)	0

===================================  sites  ====================================
No	cluster	No in cluster	band	position
1	1	1	1	(0,0,0)
2	1	2	1	(1,0,0)
3	1	3	1	(2,0,0)
4	1	4	1	(3,0,0)

..................................  NN bonds  ..................................
No	cluster	No in cluster	band	position

...................................  bases  ....................................
dual:
(6.28319,0,0)
(0,0.00306796,0)
(0,0,0.00306796)

phys:
(1,0,0)
(0,1,0)
(0,0,1)

physdual:
(6.28319,0,0)
(0,6.28319,0)
(0,0,6.28319)

superdual:
(1.5708,0,0)
(0,0.00306796,0)
(0,0,0.00306796)

superlattice:
Dimension 1
(4,0,0)
lattice transformation matrix:
0.25	0	0	
0	0.000488281	0	
0	0	0.000488281	



unit_cell:
Dimension 1
(1,0,0)
lattice transformation matrix:
1	0	0	
0	0.000488281	0	
0	0	0.000488281	




.................................  neighbors  ..................................
1 : (4,0,0)
2 : (-4,0,0)

=============================  lattice operators  ==============================

Delta	(one-body)	norm = 0.25
elements (primitive form):
(1+,1+;0) : 1
(1-,1-;0) : 1
(2+,2+;0) : -1
(2-,2-;0) : -1
(3+,3+;0) : 1
(3-,3-;0) : 1
(4+,4+;0) : -1
(4-,4-;0) : -1
elements (in Green function basis):

U	(Hubbard or extended Hubbard)	norm = 1
elements (primitive form):
(1+,1-;0) : 1
(2+,2-;0) : 1
(3+,3-;0) : 1
(4+,4-;0) : 1

V	(Hubbard or extended Hubbard)	norm = 1
elements (primitive form):
(1+,2+;0) : 1
(1-,2+;0) : 1
(1+,2-;0) : 1
(1-,2-;0) : 1
(2+,3+;0) : 1
(2-,3+;0) : 1
(2+,3-;0) : 1
(2-,3-;0) : 1
(3+,4+;0) : 1
(3-,4+;0) : 1
(3+,4-;0) : 1
(3-,4-;0) : 1
(4+,1+;1) : 1
(4-,1+;1) : 1
(4+,1-;1) : 1
(4-,1-;1) : 1

Vm	(one-body)	norm = 1	Nambu correction = 1.41421	Nambu correction (full) = 2.82843
elements (primitive form):
(1+,1+;0) : 0.707107
(4+,4+;0) : 0.707107
(1-,1-;0) : 0.707107
(4-,4-;0) : 0.707107
elements (in Green function basis):

mu	(one-body)	norm = 1
elements (primitive form):
(1+,1+;0) : -1
(1-,1-;0) : -1
(2+,2+;0) : -1
(2-,2-;0) : -1
(3+,3+;0) : -1
(3-,3-;0) : -1
(4+,4+;0) : -1
(4-,4-;0) : -1
elements (in Green function basis):

t	(one-body)	norm = 1
elements (primitive form):
(1+,2+;0) : -1
(1-,2-;0) : -1
(2+,1+;0) : -1
(2-,1-;0) : -1
(2+,3+;0) : -1
(2-,3-;0) : -1
(3+,2+;0) : -1
(3-,2-;0) : -1
(3+,4+;0) : -1
(3-,4-;0) : -1
(4+,3+;0) : -1
(4-,3-;0) : -1
(4+,1+;1) : -1
(4-,1-;1) : -1
(1+,4+;2) : -1
(1-,4-;2) : -1
elements (in Green function basis):

*******************************  cluster models  *******************************

--------------------------------  cluster clus  --------------------------------
generators
1 : (0, 1, 2, 3)

group elements
1 : (0, 1, 2, 3)

Symmetric orbitals:
(1,0)	(0,0)	(0,0)	(0,0)	
(0,0)	(1,0)	(0,0)	(0,0)	
(0,0)	(0,0)	(1,0)	(0,0)	
(0,0)	(0,0)	(0,0)	(1,0)	



phases according to the different irreps:
0	



phaseR:
(1, -1)

phaseC:
((1,0), (-1,1.22465e-16))


one-body operator Vm	 (mixing 0, target 1)
1	1	0.707107
4	4	0.707107
5	5	0.707107
8	8	0.707107

==============================  model instances  ===============================
