
==================================  clusters  ==================================
No	model	n_sites	position	ref.
1	clus	2	(0,0,0)	0

===================================  sites  ====================================
No	cluster	No in cluster	band	position
1	1	1	1	(0,0,0)
2	1	2	2	(1,0,0)

..................................  NN bonds  ..................................
No	cluster	No in cluster	band	position

...................................  bases  ....................................
dual:
(2.0944,-4.18879,0)
(2.0944,2.0944,0)
(0,0,0.00306796)

phys:
(1,0,0)
(0.57735,1.1547,0)
(0,0,1)

physdual:
(6.28319,-3.14159,0)
(0,5.4414,0)
(0,0,6.28319)

superdual:
(2.0944,-4.18879,0)
(2.0944,2.0944,0)
(0,0,0.00306796)

superlattice:
Dimension 2
(1,-1,0)
(2,1,0)
lattice transformation matrix:
0.333333	-0.666667	0	
0.333333	0.333333	0	
0	0	0.000488281	



unit_cell:
Dimension 2
(1,-1,0)
(2,1,0)
lattice transformation matrix:
0.333333	-0.666667	0	
0.333333	0.333333	0	
0	0	0.000488281	




.................................  neighbors  ..................................
1 : (-1,1,0)
2 : (1,-1,0)
3 : (-2,-1,0)
4 : (2,1,0)

=============================  lattice operators  ==============================

U	(Hubbard or extended Hubbard)	norm = 1
elements (primitive form):
(1+,1-;0) : 1
(2+,2-;0) : 1

mu	(one-body)	norm = 1
elements (primitive form):
(1+,1+;0) : -1
(1-,1-;0) : -1
(2+,2+;0) : -1
(2-,2-;0) : -1
elements (in Green function basis):

t	(one-body)	norm = 1
elements (primitive form):
(1+,2+;0) : -1
(1-,2-;0) : -1
(2+,1+;0) : -1
(2-,1-;0) : -1
(1+,2+;1) : -1
(1-,2-;1) : -1
(2+,1+;2) : -1
(2-,1-;2) : -1
(1+,2+;3) : -1
(1-,2-;3) : -1
(2+,1+;4) : -1
(2-,1-;4) : -1
elements (in Green function basis):

*******************************  cluster models  *******************************

--------------------------------  cluster clus  --------------------------------
generators
1 : (0, 1, 2, 3, 4, 5)

group elements
1 : (0, 1, 2, 3, 4, 5)

Symmetric orbitals:
(1,0)	(0,0)	
(0,0)	(1,0)	



phases according to the different irreps:
0	



phaseR:
(1, -1)

phaseC:
((1,0), (-1,1.22465e-16))


one-body operator eb1	 (mixing 0, target 2)
3	3	1
4	4	1
9	9	1
10	10	1

one-body operator eb2	 (mixing 0, target 2)
5	5	1
6	6	1
11	11	1
12	12	1

one-body operator tb1	 (mixing 0, target 3)
1	3	-1
3	1	-1
2	4	-1
4	2	-1
7	9	-1
9	7	-1
8	10	-1
10	8	-1

one-body operator tb2	 (mixing 0, target 3)
1	5	-1
5	1	-1
2	6	-1
6	2	-1
7	11	-1
11	7	-1
8	12	-1
12	8	-1

==============================  model instances  ===============================
