

model	omega	E_kin	M	M_1	U	t	t_1	tperim_1	ave_M	ave_mu	ave_t	ave_M_1	ave_U_1	ave_mu_1	ave_t_1	ave_tperim_1	ave_M_2	ave_U_2	ave_mu_2	ave_t_2	ave_tperim_2	var_M_1	var_U_1	var_mu_1	var_t_1	var_tperim_1	var_M_2	var_U_2	var_mu_2	var_t_2	var_tperim_2	E0_1	sector_1	E0_2	sector_2	githash	2der_M_1	time
2D_AFM	-1.7392618	-1.6124224	0	0.020872565	0.5	1	1	1e-09	-0.15406027	1	-1.6124224	-0.3715118	0.2022763	1	-1.2521155	-0.93992654	-0.3715118	0.2022763	1	-1.2521155	-0.93992654	0.078649446	0.0087895365	0	0.0024908393	0.028028363	0.078649446	0.0087895365	0	0.0024908393	0.028028363	-12.678586	R0:N9:S-1:1	-12.678586	R0:N9:S1:1	2c06517	2.975	2022-02-09@14:07
2D_AFM	-1.8680114	-1.5908383	0	0.045255936	1	1	1	1e-09	-0.24819408	1	-1.5908383	-0.4131184	0.18383968	1	-1.2369126	-0.92765524	-0.4131184	0.18383968	1	-1.2369126	-0.92765524	0.083083703	0.0088376814	0	0.010174749	0.035401392	0.083083703	0.0088376814	0	0.010174749	0.035401392	-14.145921	R0:N9:S-1:1	-14.145921	R0:N9:S1:1	2c06517	2.456	2022-02-09@14:09
2D_AFM	-2.0061887	-1.5584889	0	0.069812867	1.5	1	1	1e-09	-0.32742579	1	-1.5584889	-0.45839425	0.16565278	1	-1.2115811	-0.90631368	-0.45839425	0.16565278	1	-1.2115811	-0.90631368	0.086222858	0.008774588	0	0.022960773	0.046517165	0.086222858	0.008774588	0	0.022960773	0.046517165	-15.705934	R0:N9:S-1:1	-15.705934	R0:N9:S1:1	2c06517	1.409	2022-02-09@14:10
2D_AFM	-2.1537642	-1.5169415	0	0.091154155	2	1	1	1e-09	-0.397377	1	-1.5169415	-0.50467388	0.14813024	1	-1.1772123	-0.87708822	-0.50467388	0.14813024	1	-1.1772123	-0.87708822	0.087831078	0.0086013256	0	0.040110432	0.060590683	0.087831078	0.0086013256	0	0.040110432	0.060590683	-17.342595	R0:N9:S-1:1	-17.342595	R0:N9:S1:1	2c06517	1.107	2022-02-09@14:11
2D_AFM	-2.3107549	-1.4680393	0	0.10935714	2.5	1	1	1e-09	-0.4600489	1	-1.4680393	-0.55065069	0.13156908	1	-1.1353768	-0.84154596	-0.55065069	0.13156908	1	-1.1353768	-0.84154596	0.087647835	0.0083143761	0	0.060490441	0.076566304	0.087647835	0.0083143761	0	0.060490441	0.076566304	-19.050045	R0:N9:S-1:1	-19.050045	R0:N9:S1:1	2c06517	1.026	2022-02-09@14:11
2D_AFM	-2.4769804	-1.4139674	0	0.12400689	3	1	1	1e-09	-0.51578708	1	-1.4139674	-0.59424162	0.1163065	1	-1.0883694	-0.80186887	-0.59424162	0.1163065	1	-1.0883694	-0.80186887	0.085895626	0.0079258497	0	0.08262828	0.093175351	0.085895626	0.0079258497	0	0.08262828	0.093175351	-20.818259	R0:N9:S-1:1	-20.818259	R0:N9:S1:1	2c06517	0.9107	2022-02-09@14:12
2D_AFM	-2.6520023	-1.3569617	0	0.13502475	3.5	1	1	1e-09	-0.56465537	1	-1.3569617	-0.63380931	0.10258254	1	-1.0387015	-0.7603716	-0.63380931	0.10258254	1	-1.0387015	-0.7603716	0.083064214	0.0074626199	0	0.105096	0.10928694	0.083064214	0.0074626199	0	0.105096	0.10928694	-22.637183	R0:N9:S-1:1	-22.637183	R0:N9:S1:1	2c06517	0.839	2022-02-09@14:12
2D_AFM	-2.8351663	-1.2989891	0	0.14250029	4	1	1	1e-09	-0.60681938	1	-1.2989891	-0.66839768	0.090493237	1	-0.98862847	-0.71906609	-0.66839768	0.090493237	1	-0.98862847	-0.71906609	0.079734793	0.0069584405	0	0.12679802	0.12413884	0.079734793	0.0069584405	0	0.12679802	0.12413884	-24.497121	R0:N9:S-1:1	-24.497121	R0:N9:S1:1	2c06517	0.7829	2022-02-09@14:12
2D_AFM	-3.0256932	-1.2415649	0	0.14674282	4.5	1	1	1e-09	-0.64270601	1	-1.2415649	-0.69779896	0.079992854	1	-0.93980799	-0.67936397	-0.69779896	0.079992854	1	-0.93980799	-0.67936397	0.0763867	0.0064441609	0	0.14708016	0.13738423	0.0763867	0.0064441609	0	0.14708016	0.13738423	-26.390134	R0:N9:S-1:1	-26.390134	R0:N9:S1:1	2c06517	0.743	2022-02-09@14:13
2D_AFM	-3.2227678	-1.1857396	0	0.14820974	5	1	1	1e-09	-0.6729409	1	-1.1857396	-0.72232218	0.070942893	1	-0.89325634	-0.64206413	-0.72232218	0.070942893	1	-0.89325634	-0.64206413	0.073327795	0.0059424295	0	0.16565834	0.14898362	0.073327795	0.0059424295	0	0.16565834	0.14898362	-28.310374	R0:N9:S-1:1	-28.310374	R0:N9:S1:1	2c06517	0.7163	2022-02-09@14:13
2D_AFM	-3.4256029	-1.1321764	0	0.14743158	5.5	1	1	1e-09	-0.69824112	1	-1.1321764	-0.74253778	0.063164314	1	-0.84947603	-0.60749457	-0.74253778	0.063164314	1	-0.84947603	-0.60749457	0.070709487	0.0054671477	0	0.18248813	0.159065	0.070709487	0.0054671477	0	0.18248813	0.159065	-30.253912	R0:N9:S-1:1	-30.253912	R0:N9:S1:1	2c06517	0.7014	2022-02-09@14:13
2D_AFM	-3.6334742	-1.0812507	0	0.14494663	6	1	1	1e-09	-0.71932786	1	-1.0812507	-0.75909474	0.056474055	1	-0.8086256	-0.57568378	-0.75909474	0.056474055	1	-0.8086256	-0.57568378	0.06857371	0.0050253438	0	0.19765237	0.1678194	0.06857371	0.0050253438	0	0.19765237	0.1678194	-32.218285	R0:N9:S-1:1	-32.218285	R0:N9:S1:1	2c06517	0.6964	2022-02-09@14:14
2D_AFM	-3.8457356	-1.0331374	0	0.14124744	6.5	1	1	1e-09	-0.73687099	1	-1.0331374	-0.7726153	0.050704389	1	-0.77066362	-0.54649925	-0.7726153	0.050704389	1	-0.77066362	-0.54649925	0.06689941	0.0046194902	0	0.21128824	0.17544274	0.06689941	0.0046194902	0	0.21128824	0.17544274	-34.201935	R0:N9:S-1:1	-34.201935	R0:N9:S1:1	2c06517	0.7009	2022-02-09@14:14
2D_AFM	-4.0618205	-0.98787607	0	0.13675511	7	1	1	1e-09	-0.75146624	1	-0.98787607	-0.78365245	0.045709923	1	-0.73544498	-0.5197361	-0.78365245	0.045709923	1	-0.73544498	-0.5197361	0.065634079	0.0042493449	0	0.22354777	0.18211076	0.065634079	0.0042493449	0	0.22354777	0.18211076	-36.203796	R0:N9:S-1:1	-36.203796	R0:N9:S1:1	2c06517	0.7127	2022-02-09@14:15
2D_AFM	-4.2812384	-0.94541858	0	0.13180601	7.5	1	1	1e-09	-0.76362669	1	-0.94541858	-0.79267549	0.041368254	1	-0.70278021	-0.49516908	-0.79267549	0.041368254	1	-0.70278021	-0.49516908	0.064714318	0.0039132029	0	0.23457885	0.18797209	0.064714318	0.0039132029	0	0.23457885	0.18797209	-38.222979	R0:N9:S-1:1	-38.222979	R0:N9:S1:1	2c06517	0.7316	2022-02-09@14:15
2D_AFM	-4.5035664	-0.90566167	0	0.12665366	8	1	1	1e-09	-0.77378487	1	-0.90566167	-0.80007214	0.037577702	1	-0.67246797	-0.47257866	-0.80007214	0.037577702	1	-0.67246797	-0.47257866	0.064077131	0.0036086573	0	0.24451755	0.19314936	0.064077131	0.0036086573	0	0.24451755	0.19314936	-40.258606	R0:N9:S-1:1	-40.258606	R0:N9:S1:1	2c06517	0.756	2022-02-09@14:15
2D_AFM	-4.7284418	-0.86846955	0	0.12147998	8.5	1	1	1e-09	-0.78230062	1	-0.86846955	-0.8061584	0.034254159	1	-0.64431107	-0.45176221	-0.8061584	0.034254159	1	-0.64431107	-0.45176221	0.063665143	0.0033330369	0	0.25348594	0.19774305	0.063665143	0.0033330369	0	0.25348594	0.19774305	-42.309745	R0:N9:S-1:1	-42.309745	R0:N9:S1:1	2c06517	0.7856	2022-02-09@14:16
2D_AFM	-4.9555532	-0.83368934	0	0.11640808	9	1	1	1e-09	-0.7894697	1	-0.83368934	-0.81118867	0.031328039	1	-0.61812413	-0.43253787	-0.81118867	0.031328039	1	-0.61812413	-0.43253787	0.063429073	0.0030836517	0	0.26159226	0.20183569	0.063429073	0.0030836517	0	0.26159226	0.20183569	-44.375406	R0:N9:S-1:1	-44.375406	R0:N9:S1:1	2c06517	0.819	2022-02-09@14:16
2D_AFM	-5.1846338	-0.80116162	0	0.11151649	9.5	1	1	1e-09	-0.79553366	1	-0.80116162	-0.8153668	0.028741601	1	-0.59373628	-0.41474435	-0.8153668	0.028741601	1	-0.59373628	-0.41474435	0.063327947	0.0028579209	0	0.26893204	0.2054955	0.063327947	0.0028579209	0	0.26893204	0.2054955	-46.454561	R0:N9:S-1:1	-46.454561	R0:N9:S1:1	2c06517	0.8561	2022-02-09@14:17
2D_AFM	-5.4154544	-0.77072727	0	0.10685261	10	1	1	1e-09	-0.80069035	1	-0.77072727	-0.81885717	0.026446717	1	-0.57099116	-0.39823894	-0.81885717	0.026446717	1	-0.57099116	-0.39823894	0.063327856	0.0026534357	0	0.27558938	0.20877928	0.063327856	0.0026534357	0	0.27558938	0.20877928	-48.546189	R0:N9:S-1:1	-48.546189	R0:N9:S1:1	2c06517	0.8962	2022-02-09@14:17
