

model	omega	E_kin	M	M_1	U	t	t_1	tperim_1	ave_M	ave_mu	ave_t	ave_M_1	ave_U_1	ave_mu_1	ave_t_1	ave_tperim_1	ave_M_2	ave_U_2	ave_mu_2	ave_t_2	ave_tperim_2	var_M_1	var_U_1	var_mu_1	var_t_1	var_tperim_1	var_M_2	var_U_2	var_mu_2	var_t_2	var_tperim_2	E0_1	sector_1	E0_2	sector_2	githash	2der_M_1	2der_t_1	2der_tperim_1	time
2D_AFM	-4.5049797	-0.93001945	0	0.17261844	8	1	1.1393556	0.010420249	-0.77976118	1	-0.93001945	-0.7928245	0.045591483	1	-0.73329717	-0.51911768	-0.7928245	0.045591483	1	-0.73329717	-0.51911768	0.06194497	0.0042404793	0	0.2233606	0.18144589	0.06194497	0.0042404793	0	0.2233606	0.18144589	-41.517179	R0:N9:S-1:1	-41.517179	R0:N9:S1:1	2c06517	0.9999	0.8501	0.4963	2022-02-09@14:57
