

model	omega	E_kin	M	M_1	U	t	t_1	tperim_1	ave_M	ave_mu	ave_t	ave_M_1	ave_U_1	ave_mu_1	ave_t_1	ave_tperim_1	ave_M_2	ave_U_2	ave_mu_2	ave_t_2	ave_tperim_2	var_M_1	var_U_1	var_mu_1	var_t_1	var_tperim_1	var_M_2	var_U_2	var_mu_2	var_t_2	var_tperim_2	E0_1	sector_1	E0_2	sector_2	githash	2der_M_1	2der_t_1	time
2D_AFM	-4.5050131	-0.93155593	0	0.17052308	8	1	1.1550741	1e-09	-0.77784577	1	-0.93155593	-0.78989035	0.046121363	1	-0.7374236	-0.52076711	-0.78989035	0.046121363	1	-0.7374236	-0.52076711	0.062823203	0.0042788432	0	0.22198313	0.18099141	0.062823203	0.0042788432	0	0.22198313	0.18099141	-41.557523	R0:N9:S-1:1	-41.557523	R0:N9:S1:1	2c06517	0.9816	0.1647	2022-02-09@14:47
