model	D	U	e	eb1_1	eb2_1	eb3_1	eb4_1	eb5_1	eb6_1	eb7_1	eb8_1	mu	sb1_1	sb2_1	sb3_1	sb4_1	sb5_1	sb6_1	sb7_1	sb8_1	tb1_1	tb2_1	tb3_1	tb4_1	tb5_1	tb6_1	tb7_1	tb8_1	tpd	tpp	tppp	ave_D_1	ave_U_1	ave_eb1_1	ave_eb2_1	ave_eb3_1	ave_eb4_1	ave_eb5_1	ave_eb6_1	ave_eb7_1	ave_eb8_1	ave_mu_1	ave_sb1_1	ave_sb2_1	ave_sb3_1	ave_sb4_1	ave_sb5_1	ave_sb6_1	ave_sb7_1	ave_sb8_1	ave_tb1_1	ave_tb2_1	ave_tb3_1	ave_tb4_1	ave_tb5_1	ave_tb6_1	ave_tb7_1	ave_tb8_1	var_D_1	var_U_1	var_eb1_1	var_eb2_1	var_eb3_1	var_eb4_1	var_eb5_1	var_eb6_1	var_eb7_1	var_eb8_1	var_mu_1	var_sb1_1	var_sb2_1	var_sb3_1	var_sb4_1	var_sb5_1	var_sb6_1	var_sb7_1	var_sb8_1	var_tb1_1	var_tb2_1	var_tb3_1	var_tb4_1	var_tb5_1	var_tb6_1	var_tb7_1	var_tb8_1	E0_1	sector_1	E0_2	sector_2	githash	distance	diff_param	diff_hybrid	time
2x2_2C_8b_C2v_L	0.1	14	2.2	0.0086839677	-3.1445289	-3.9164807	-0.13437878	-3.9164407	-0.13437791	0.17455273	-3.5797676	9.5	2.7540906e-05	-4.0887161e-07	0.0069035686	-0.19307525	0.0069033966	-0.1930765	-1.0933969e-05	2.552128e-06	-0.11908613	-1.0874005	1.7341014	0.025163995	-1.7340927	-0.025176042	0.26343251	-2.2991102	1.31	0.644	0.152	-0.043147346	0.13185934	0.13421925	1.9448554	1.7869546	1.7424987	1.7869547	1.7424904	0.014822092	1.5535603	1.1008188	-0.00021138519	4.8997281e-06	-0.089139665	1.0540974	-0.08914898	1.0541112	5.4070961e-05	1.7094806e-06	1.1156655	0.68220327	-1.63106	-0.23423063	1.6310533	0.23426454	-0.29478323	2.5541081	0.49216735	0.028620018	0.12477011	0.054151931	0.19480515	0.24591229	0.19480509	0.24591848	0.015064876	0.34634959	0.037277038	3.4589435	5.5445757	5.2979213	4.7343742	5.2979243	4.7343959	4.3935201	6.1467328	5.1373309	2.6768226	3.517	4.9129945	3.5169883	4.9129967	3.6850728	3.1699116	-73.504326	R0:S0:1	-58.4	uncorrelated	51514b8	 2.40e+01	 6.22e-01	 1.00e+06	2022-04-08@16:42
2x2_2C_8b_C2v_L	0.1	14	2.2	-0.058657815	-4.5117275	-5.3253465	-0.022309726	-5.3252762	-0.023151843	0.013721961	-4.9850874	9.5	-2.1787513e-06	-1.3995622e-06	0.0043025139	-0.0021268835	0.0043076155	-0.0020486598	0.062821272	8.8308856e-07	0.034085291	-0.7819231	1.2051205	0.050211441	-1.2050435	-0.050359804	-4.7923368e-06	-1.5290705	1.31	0.644	0.152	-0.047737896	0.056413468	1.999861	1.9783016	1.9487646	1.9996038	1.9487743	1.9996025	0.00067934984	1.902636	1.0558489	4.8214584e-06	-4.5770092e-06	-0.052364004	-0.0019470774	-0.052362714	-0.0020770598	-0.10413641	9.4074933e-06	-0.043458232	0.54340574	-0.8812615	-0.075060019	0.88115731	0.075272022	8.8769511e-06	1.2661018	0.70075543	0.013410172	0.00013912954	0.021629456	0.050606021	0.00041285781	0.050596662	0.0004130645	0.00069408798	0.094296296	0.013393786	4.5979739	4.7526031	4.5852512	4.2086161	4.5853505	4.2088451	4.1173233	4.6061598	3.4032503	3.4392021	3.8079712	3.794332	3.8078213	3.7941206	3.8869716	4.0085624	-80.85712	R0:S0:1	-58.4	uncorrelated	51514b8	 1.17e+00	 2.63e-01	 1.63e+00	2022-04-08@16:46
2x2_2C_8b_C2v_L	0.1	14	2.2	-0.060813998	-5.3112329	-5.9886003	-0.028064019	-5.9886238	-0.029073573	0.058064697	-5.3248943	9.5	-6.759406e-07	-2.5055273e-06	0.0021912602	-0.0011183632	0.0021912851	-0.00094316021	-0.0082200246	-1.9134685e-05	0.00068492917	-0.83384518	1.2687382	-0.0010605213	-1.2687416	0.0010413815	2.098398e-05	-1.573841	1.31	0.644	0.152	-0.047089082	0.055028291	1.9999999	1.9789588	1.9499586	1.9999996	1.9499588	1.9999997	1.1046034e-05	1.9036662	1.0544605	1.2162624e-06	-2.5195318e-06	-0.048948805	0.0016196875	-0.048949642	0.0013799399	0.013483093	1.3961858e-05	-0.00087087525	0.53538798	-0.8716984	0.0016920092	0.87169516	-0.0016461008	-2.0516218e-05	1.2604286	0.70227388	0.013099459	5.5682105e-08	0.020975187	0.049439097	3.9512106e-07	0.049438905	3.269684e-07	1.1046664e-05	0.093331655	0.01307856	4.593716	4.7448282	4.5715356	4.200851	4.5715457	4.2008629	4.1240484	4.5936094	3.4062845	3.4412202	3.8132565	3.7991521	3.8132463	3.7991396	3.8760217	4.015546	-85.887668	R0:S0:1	-58.4	uncorrelated	51514b8	 1.09e+00	 1.09e-04	 4.07e-02	2022-04-08@16:49
2x2_2C_8b_C2v_L	0.1	14	2.2	-0.060814005	-5.3114523	-5.9886537	-0.028064036	-5.9886774	-0.029073593	0.058069622	-5.3250258	10	-6.4520953e-07	1.784961e-07	0.002206799	-0.0011141546	0.0022074943	-0.00093987114	-0.0080188243	8.736813e-07	0.00063184341	-0.83378012	1.2684661	-0.0010606481	-1.2684678	0.0010416717	1.9971773e-05	-1.57372	1.31	0.644	0.152	-0.048578205	0.060059932	1.9999999	1.9772951	1.9456477	1.9999996	1.9456477	1.9999997	1.2795875e-05	1.894235	1.0594661	1.1051448e-06	3.4568011e-08	-0.051160964	0.0015528661	-0.051161362	0.0013248683	0.014511026	-6.7616531e-07	-0.00086801443	0.55270209	-0.90629942	0.0018539342	0.90629936	-0.0018044278	-1.8490976e-05	1.3203448	0.69845322	0.01423071	5.6024566e-08	0.022632128	0.053643733	4.1423637e-07	0.053643704	3.4987198e-07	1.2796451e-05	0.10208916	0.014197528	4.6358921	4.7974628	4.6188737	4.2186713	4.6188716	4.2186688	4.1217553	4.6596755	3.3641084	3.4043509	3.7981702	3.781332	3.7981718	3.7813339	3.878324	3.9962854	-88.001705	R0:S0:1	-62.4	uncorrelated	51514b8	 1.35e+00	 1.86e-01	 1.00e+06	2022-04-08@16:52
2x2_2C_8b_C2v_L	0.1	14	2.2	-0.062441747	-5.7652276	-6.4176097	-0.03110721	-6.4165194	-0.030900836	0.062410907	-5.8349649	10	2.6926726e-06	-3.6088469e-08	0.0023324415	-0.0001310343	0.0023347013	-0.00092245643	0.00087029658	-8.8515654e-06	-0.0026672754	-0.83584681	1.2630389	-0.00027638722	-1.2629496	-4.4041565e-05	9.284729e-06	-1.5760954	1.31	0.644	0.152	-0.048533283	0.055255502	1.999999	1.9786822	1.9497865	2	1.9497848	1.9999999	1.5190205e-07	1.9036703	1.0547086	-4.2704619e-06	-3.1610635e-06	-0.048643471	0.00018810057	-0.048646171	0.0011241871	-0.0015817613	8.6010493e-06	0.0037373235	0.53890575	-0.87305794	0.0004703443	0.87306718	-1.9901557e-05	-8.4074526e-06	1.2602906	0.70195634	0.013164122	1.0258873e-06	0.02124973	0.049605586	1.6951074e-08	0.049607314	1.0139572e-07	1.5190212e-07	0.093324944	0.013134364	4.5937272	4.7467773	4.5741559	4.202265	4.5742168	4.2023168	4.1229645	4.5946327	3.4062819	3.4416195	3.8119648	3.7977352	3.8119212	3.797684	3.8770365	4.0147147	-91.543917	R0:S0:1	-62.4	uncorrelated	51514b8	 1.32e+00	 1.80e-04	 6.75e-02	2022-04-08@16:55
2x2_2C_8b_C2v_L	0.1	14	2.2	-0.064069739	-6.2193492	-6.8467676	-0.034150384	-6.8445678	-0.032728135	0.066752192	-6.345027	10.5	5.7811286e-06	-4.7155487e-08	0.0022514091	0.00085493447	0.0022498437	-0.00088317409	0.0097536649	-1.231489e-06	-0.0055995841	-0.83690329	1.2567777	0.00051656478	-1.2565646	-0.0011278734	-1.345669e-06	-1.5780275	1.31	0.644	0.152	-0.050933546	0.055479585	1.9999944	1.9784505	1.9496497	1.9999999	1.9496502	1.9999997	2.3999539e-05	1.9036895	1.0549485	-8.3902501e-06	-5.3567064e-06	-0.049532185	-0.0010143247	-0.049533248	0.00086493704	-0.019883153	9.320146e-06	0.0087375671	0.54181687	-0.87410238	-0.0010524573	0.87407779	0.0019954631	1.2396311e-06	1.2600801	0.70157193	0.013233767	5.6068035e-06	0.021479771	0.049738371	1.4773945e-07	0.049737989	3.3760164e-07	2.4000628e-05	0.093305566	0.013197032	4.5939726	4.7486216	4.5763529	4.2036256	4.5765151	4.2037993	4.1221584	4.5952633	3.4060773	3.4417685	3.8107701	3.7963755	3.8106223	3.7962034	3.8779923	4.0141671	-97.199441	R0:S0:1	-66.4	uncorrelated	51514b8	 1.94e+00	 1.56e-03	 1.00e+06	2022-04-08@16:59
2x2_2C_8b_C2v_L	0.1	14	2.2	-0.064087552	-6.2211414	-6.8478858	-0.034150784	-6.8457021	-0.032727942	0.066864651	-6.3450708	10.5	1.3378227e-06	5.5617323e-07	0.0023217985	0.00062681209	0.00232181	-0.00061685832	0.0058880493	3.1556244e-06	0.00033469452	-0.83670933	1.2577937	0.00032514341	-1.2576018	-0.00066655179	-6.6151725e-07	-1.5775563	1.31	0.644	0.152	-0.050940178	0.055488055	2	1.9784635	1.9495901	1.9999999	1.9495877	1.9999999	8.7459216e-06	1.9037415	1.0549573	-1.8968156e-06	-2.894141e-06	-0.049612856	-0.00073750249	-0.049615035	0.00061722807	-0.012003605	3.2433522e-06	-0.0005223682	0.54168122	-0.87458786	-0.00067204146	0.87459603	0.0011684987	6.0024467e-07	1.2597388	0.70151228	0.013235728	2.0092194e-08	0.021466832	0.049796476	6.8800224e-08	0.049798914	1.2598039e-07	8.7460662e-06	0.093257129	0.01319912	4.5935852	4.7481918	4.577024	4.2038993	4.5771463	4.20401	4.1221678	4.5949236	3.406415	3.4420771	3.8105262	3.7961012	3.8104323	3.795991	3.8778871	4.0142682	-97.208514	R0:S0:1	-66.4	uncorrelated	51514b8	 1.94e+00	 0.00e+00	 8.56e-04	2022-04-08@17:02
2x2_2C_8b_C2v_L	0.1	14	2.2	-0.065751045	-6.6786744	-7.2791792	-0.037194758	-7.2759159	-0.034554827	0.071430853	-6.855159	11	-4.3356201e-06	1.6500049e-06	0.0024848823	0.0011551118	0.0024869174	-5.5878269e-05	0.0070430628	1.0877266e-05	0.009087538	-0.837883	1.2539814	0.0007309071	-1.2537246	-0.00082868108	-9.9519345e-06	-1.5787676	1.31	0.644	0.152	-0.054615334	0.055804691	1.9999812	1.9782301	1.9493041	1.9999997	1.9492956	1.9999998	1.6224813e-05	1.9038423	1.0552874	5.6696345e-06	-4.7266844e-07	-0.052244825	-0.0012901743	-0.05225022	-4.8188369e-05	-0.01634864	-4.3109096e-06	-0.016007807	0.54463874	-0.87680263	-0.0016897492	0.87686823	0.001742426	7.9321573e-06	1.2589511	0.7008231	0.013335269	1.8814205e-05	0.021698546	0.05007541	3.018925e-07	0.050083689	2.0157252e-07	1.622512e-05	0.093163099	0.013293501	4.5933987	4.7495397	4.5810219	4.2062368	4.5811403	4.2062964	4.1211826	4.5952085	3.4067691	3.442735	3.8085157	3.7937655	3.8084627	3.7937052	3.8789188	4.0138026	-102.88307	R0:S0:1	-70.4	uncorrelated	51514b8	 3.09e+00	 1.93e-03	 1.00e+06	2022-04-08@17:05
2x2_2C_8b_C2v_L	0.1	14	2.2	-0.065839134	-6.6797657	-7.2801174	-0.037195802	-7.2768706	-0.034554366	0.071453735	-6.854451	11	-5.6679331e-07	-3.246697e-06	0.0025234095	0.00091636709	0.0025243214	-3.2649766e-05	0.0064109805	-9.2025659e-06	-0.00014722548	-0.83817062	1.2536564	0.00046550815	-1.2533827	-0.00051248468	-1.1065183e-05	-1.5789348	1.31	0.644	0.152	-0.054630353	0.055794654	2	1.9782215	1.9493333	1.9999999	1.949328	1.9999999	1.34415e-05	1.9038099	1.0552771	7.3162889e-07	-3.3474254e-06	-0.052264273	-0.0010082892	-0.05226827	-3.1802012e-05	-0.014880956	1.1846534e-05	0.00025930793	0.54473604	-0.8765683	-0.0010994636	0.87659784	0.0010779255	8.8992765e-06	1.2591725	0.70085188	0.01333313	4.9629794e-09	0.021707155	0.050046907	1.4904894e-07	0.050052138	7.7137579e-08	1.3441711e-05	0.093193338	0.01329133	4.5934056	4.7497368	4.5806671	4.2060757	4.5808345	4.2062122	4.1212437	4.59538	3.4065944	3.442624	3.8086561	3.7939254	3.8085399	3.7937884	3.8788403	4.013788	-102.88745	R0:S0:1	-70.4	uncorrelated	51514b8	 3.09e+00	 0.00e+00	 4.92e-04	2022-04-08@17:08
2x2_2C_8b_C2v_L	0.1	14	2.2	-0.067696618	-7.1412734	-7.7144055	-0.040242266	-7.7101282	-0.036380137	0.076178158	-7.3631669	11.5	-3.1458884e-06	-1.134294e-05	0.0028339371	0.00073905496	0.0028362031	0.00084110306	0.0024362139	-3.7253475e-05	-0.0039296304	-0.83972557	1.25021	0.00014905257	-1.2498591	0.00041910049	-2.1897946e-05	-1.5800093	1.31	0.644	0.152	-0.06005149	0.05617453	1.9999954	1.9779817	1.9490492	1.9999999	1.9490412	1.9999999	2.6168644e-06	1.9038962	1.0556681	3.5288907e-06	-4.8117905e-06	-0.056837774	-0.00073745468	-0.0568441	-0.00074675182	-0.0065656848	3.0449074e-05	0.0079424252	0.54775221	-0.87869998	-0.00048139297	0.878749	-0.00089400925	1.6556918e-05	1.2584872	0.69991595	0.013462709	4.6306495e-06	0.021945312	0.050324293	5.2457069e-08	0.050332231	1.0041199e-07	2.6168694e-06	0.093113824	0.013416864	4.5931714	4.7511982	4.5848851	4.2088768	4.585105	4.2090486	4.1203724	4.5957404	3.4068701	3.4432672	3.8062922	3.7911236	3.8061461	3.7909521	3.8796439	4.0134462	-108.58037	R0:S0:1	-74.4	uncorrelated	51514b8	 5.12e+00	 6.17e-05	 1.00e+06	2022-04-08@17:12
2x2_2C_8b_C2v_L	0.1	14	2.2	-0.069660367	-7.6057436	-8.1508271	-0.043290204	-8.1455511	-0.038205285	0.081037831	-7.8710342	12	-5.9149057e-06	-9.9832577e-06	0.003152533	8.8788463e-05	0.0031534572	0.0019951633	-0.0059810111	6.1250602e-05	-0.010748225	-0.84110916	1.2472146	-0.00062779693	-1.2468166	0.0021130007	-3.2796388e-05	-1.5814745	1.31	0.644	0.152	-0.068073144	0.056714193	1.9999524	1.9777683	1.9487664	1.9999998	1.9487478	1.9999975	2.2419816e-05	1.9039109	1.0562163	7.2140483e-06	2.1415129e-05	-0.064034627	5.0137293e-05	-0.064046911	-0.0013763916	0.019216379	-4.7050513e-05	0.025471599	0.55035473	-0.88067766	0.0018106619	0.88084161	-0.0057508514	2.4075873e-05	1.258325	0.69853829	0.013657315	4.7644191e-05	0.022157322	0.050601393	2.1976633e-07	0.050619485	2.4587475e-06	2.2420011e-05	0.093101529	0.013608068	4.5940564	4.7533303	4.5898536	4.2128251	4.5899462	4.212772	4.1198521	4.5963176	3.4063728	3.4430981	3.8030317	3.7871767	3.8030627	3.7872473	3.8802865	4.0133348	-114.28812	R0:S0:1	-78.4	uncorrelated	51514b8	 8.71e+00	 2.01e-03	 1.00e+06	2022-04-08@17:16
2x2_2C_8b_C2v_L	0.1	14	2.2	-0.069789982	-7.606299	-8.1512373	-0.04329015	-8.1459846	-0.03820449	0.081044149	-7.869035	12	-1.7666384e-06	-1.0564342e-06	0.0031620234	6.9774487e-05	0.003170038	0.0019934194	-0.0079665889	-7.7193218e-05	-0.0014420276	-0.84082344	1.2470572	-0.00044894286	-1.2466654	0.0013170947	-5.9945449e-05	-1.5807319	1.31	0.644	0.152	-0.068081497	0.056685195	1.9999991	1.9777819	1.948779	1.9999999	1.9487641	1.999999	3.9792509e-05	1.9039533	1.0561877	1.8171322e-06	-1.8411616e-05	-0.064038897	3.0246961e-05	-0.064052417	-0.0015402152	0.025600911	5.6860749e-05	0.0034181174	0.55020683	-0.88058612	0.0012936591	0.88069869	-0.0034276548	4.2474727e-05	1.2580623	0.69855131	0.013651084	8.5780447e-07	0.022143889	0.05058903	1.1215113e-07	0.050603643	1.0229904e-06	3.9793138e-05	0.093061718	0.013601887	4.593494	4.753011	4.5896286	4.2126805	4.5898577	4.2128021	4.1199333	4.5959265	3.4065138	3.4433129	3.8031544	3.7873204	3.8030418	3.7872059	3.8803127	4.0134719	-114.28586	R0:S0:1	-78.4	uncorrelated	51514b8	 8.71e+00	 0.00e+00	 6.40e-04	2022-04-08@17:19
2x2_2C_8b_C2v_L	0.1	14	2.2	-0.072118864	-8.0747636	-8.5905357	-0.046339427	-8.5843636	-0.040027395	0.086051797	-8.3722398	12.5	3.0863998e-06	1.3863522e-05	0.0036085167	-0.0010853871	0.003629824	0.0034335361	-0.024852667	-0.0002712695	0.0070512874	-0.84172925	1.244438	-0.0013249045	-1.2440159	0.0021967009	-0.00012557111	-1.5804079	1.31	0.644	0.152	-0.080559981	0.057574585	1.99997	1.9776177	1.94852	1.9999981	1.9485019	1.9999959	0.00059427427	1.904084	1.0570843	-4.6406748e-07	-7.7311059e-05	-0.075641281	0.0013553783	-0.075666029	-0.0023459114	0.098902538	0.00020559682	-0.020192203	0.5520567	-0.88213	0.0051022923	0.88225299	-0.0068850565	8.2017804e-05	1.2571643	0.69629224	0.013986488	2.9967693e-05	0.022307337	0.050844091	1.8563976e-06	0.050861842	4.1534647e-06	0.00059432874	0.092940486	0.013934692	4.5959279	4.7564674	4.595565	4.2185328	4.5959451	4.2187285	4.1189401	4.5954093	3.4043445	3.4416021	3.7984425	3.7814818	3.7982133	3.7813039	3.8846973	4.0135551	-120.00489	R0:S0:1	-82.4	uncorrelated	51514b8	 1.55e+01	 2.35e-03	 1.00e+06	2022-04-08@17:24
2x2_2C_8b_C2v_L	0.1	14	2.2	-0.072129378	-8.0748642	-8.5905084	-0.046339513	-8.5843503	-0.040033468	0.087090024	-8.3710576	12.5	2.9380969e-06	7.38743e-06	0.0037474611	-0.0015333389	0.0037952482	0.0041424374	-0.013663705	-4.6753723e-05	0.0051428631	-0.84175327	1.2442443	-0.0013604813	-1.2438196	0.0018315711	-0.00013499314	-1.5803592	1.31	0.644	0.152	-0.080613299	0.057472237	1.999984	1.9776055	1.9485359	1.9999979	1.9485123	1.999997	0.00017953991	1.9040565	1.0569827	-2.6990996e-06	-1.3130514e-05	-0.07574394	0.0017480096	-0.075782194	-0.003050191	0.054360379	3.2110435e-05	-0.014736972	0.55231571	-0.88198328	0.0053665241	0.88218326	-0.0053521605	9.3236004e-05	1.2573781	0.69628403	0.013964123	1.5961151e-05	0.022319367	0.05082849	2.0893412e-06	0.050851576	2.978049e-06	0.00017954515	0.092967512	0.013912451	4.5944974	4.7552571	4.5955118	4.2186289	4.5956982	4.218567	4.1196622	4.5956585	3.4056477	3.4428719	3.7983559	3.7813874	3.7983342	3.7814563	3.8814379	4.0139297	-120.00153	R0:S0:1	-82.4	uncorrelated	51514b8	 1.55e+01	 0.00e+00	 1.79e-03	2022-04-08@17:28
2x2_2C_8b_C2v_L	0.1	14	2.2	-0.074714926	-8.5469952	-9.0322444	-0.049390364	-9.0252508	-0.04186708	0.094315754	-8.8691731	13	1.1129836e-05	1.8571752e-05	0.004556634	-0.0040723143	0.0046771678	0.0072850782	-0.014636723	0.00010148091	0.01591314	-0.84242672	1.2416911	-0.0025867538	-1.2412503	0.001957462	-0.00024691987	-1.5791227	1.31	0.644	0.152	-0.101884	0.058975041	1.9997552	1.9774674	1.9483772	1.9999847	1.9483413	1.9999941	0.0003552207	1.9041691	1.0584928	-1.4086885e-05	3.0599112e-05	-0.095914765	0.0048041957	-0.096003591	-0.0052617547	0.076404424	-9.4782203e-05	-0.057625837	0.55379927	-0.88203499	0.014274757	0.88236218	-0.0055572711	0.00017467979	1.2567486	0.69179704	0.014595626	0.00024480868	0.022457189	0.050988812	1.543482e-05	0.051023716	5.9317303e-06	0.00035521949	0.092866628	0.014542425	4.5987331	4.7590805	4.6042052	4.230071	4.6042898	4.2294761	4.120104	4.5950593	3.4035218	3.4408266	3.7893858	3.7700506	3.7895342	3.7705701	3.8820442	4.0154186	-125.72854	R0:S0:1	-86.4	uncorrelated	51514b8	 3.01e+01	 4.21e-03	 1.00e+06	2022-04-08@17:32
2x2_2C_8b_C2v_L	0.1	14	2.2	-0.075224724	-8.5467405	-9.0307165	-0.050809912	-9.0237937	-0.043864572	0.096270937	-8.8609236	13	8.2606019e-07	-2.0665939e-06	0.0042635361	-0.013824096	0.0042962563	0.01134895	-0.015734758	-0.00016328454	0.0016409208	-0.84219127	1.2422486	-0.0026484877	-1.2416722	-0.0027074584	-0.002299181	-1.5791773	1.31	0.644	0.152	-0.10182605	0.059001084	1.9999974	1.9774892	1.9483215	1.9999542	1.9483033	1.999961	0.00041496877	1.9039776	1.0585151	-3.9168077e-06	-1.0331415e-06	-0.095803253	0.013242949	-0.095834243	-0.011168057	0.082162774	7.1519553e-05	-0.0059422087	0.55343499	-0.88249851	0.019668907	0.88263956	0.018775631	0.0015337034	1.2581872	0.69176194	0.0146015	2.630484e-06	0.022435716	0.051043278	4.8624224e-05	0.051061087	4.1242965e-05	0.00041532375	0.093043745	0.014548404	4.5982499	4.760107	4.6046812	4.2310264	4.6049099	4.2310157	4.1212666	4.5952365	3.4017743	3.4397578	3.7893479	3.7693142	3.7892577	3.769279	3.881243	4.0159125	-125.71489	R0:S0:1	-86.4	uncorrelated	51514b8	 3.02e+01	 0.00e+00	 1.59e-03	2022-04-08@17:37
2x2_2C_8b_C2v_L	0.1	14	2.2	-0.07907602	-9.0219281	-9.4718616	-0.056701346	-9.4643147	-0.049697804	0.10858689	-9.3386329	13.5	-8.1027484e-06	-2.9418506e-05	0.0047102486	-0.036802498	0.0046730621	0.023612957	-0.014179747	-0.00042678568	-0.011947855	-0.84213746	1.2410703	-0.0043129621	-1.2402232	-0.012299994	-0.0065525091	-1.5771862	1.31	0.644	0.152	-0.14521442	0.063416121	1.999728	1.9774915	1.9484465	1.9986511	1.9483153	1.9981394	0.00075550032	1.903594	1.0629224	0.00013854496	0.0005330719	-0.13710801	0.043977523	-0.13733899	-0.03974536	0.10833003	-0.00051432455	0.058858489	0.55218234	-0.87728607	0.075060956	0.87903035	0.11745221	0.0044462327	1.2621101	0.67876296	0.016449684	0.00027210597	0.022436172	0.050939508	0.0016246884	0.051063968	0.0021408718	0.00075977125	0.093406055	0.016398909	4.6149722	4.7753796	4.6285923	4.2836789	4.6240888	4.2824364	4.1301851	4.5916612	3.3875862	3.4264957	3.7608359	3.7249303	3.7651964	3.7303089	3.8742935	4.0241101	-131.43035	R0:S0:1	-90.4	uncorrelated	51514b8	 7.22e+01	 8.19e-02	 1.00e+06	2022-04-08@17:43
2x2_2C_8b_C2v_L	0.1	14	2.2	-0.15326389	-9.0064605	-9.4338137	-0.23441229	-9.4253187	-0.22803741	0.36067334	-9.2118216	13.5	-0.026763593	-0.00054223612	0.0037323204	0.037525029	0.0039291341	0.036998493	-0.001340314	-0.00019714127	0.0021177212	-0.84388496	1.2401471	0.010311973	-1.2391448	-0.01011087	-0.054619084	-1.5729336	1.31	0.644	0.152	-0.1454612	0.06382332	1.9998908	1.977365	1.9481053	1.9991794	1.9481182	1.9992014	0.00010285939	1.9017271	1.0632996	0.027939567	0.00028148715	-0.13753424	-0.044329073	-0.13757221	-0.043717495	0.0082790214	5.4128194e-05	-0.0099647125	0.55332062	-0.88036642	-0.097043221	0.88017453	0.095768094	0.03370661	1.2743372	0.67861745	0.016545384	0.00011104767	0.022562509	0.051271848	0.00084598454	0.051259614	0.00082407684	0.00010363313	0.095148918	0.016501106	4.618781	4.7807027	4.6291222	4.2720753	4.6296917	4.2726515	4.1324575	4.6042615	3.3827139	3.4226401	3.7625195	3.7338817	3.7619446	3.7331572	3.8684323	4.0219892	-131.86314	R0:S0:1	-90.4	uncorrelated	51514b8	 7.31e+01	 0.00e+00	 7.80e-03	2022-04-08@17:46
2x2_2C_8b_C2v_L	0.1	14	2.2	-0.30624688	-9.4540242	-9.7998	-0.59714664	-9.7889255	-0.59255198	0.88029722	-9.4237518	14	-0.08029032	-0.0016131211	0.0021538138	0.15251404	0.0026938818	0.081091068	0.029519627	-0.00014832391	0.0065732644	-0.84683433	1.2379397	0.037520901	-1.2362373	-0.020378662	-0.1570947	-1.5616283	1.31	0.644	0.152	-0.3260277	0.12089347	1.986725	1.9791598	1.9522045	1.9533948	1.9539905	1.9872629	0.0049907451	1.8933548	1.1200731	0.24749588	-0.051681811	-0.32269631	-0.46256209	-0.30674557	-0.2428418	-0.25663439	0.075709509	-0.12486383	0.50574798	-0.80394688	-0.65287091	0.78015734	0.32912429	0.103684	1.3547235	0.54583592	0.035879969	0.013895485	0.020816532	0.047400315	0.048349956	0.045720574	0.01286645	0.0052077749	0.10289002	0.035948411	5.0149944	5.0735283	4.8471544	4.8854913	4.9251241	4.7610118	4.29963	4.5237343	3.1538714	3.1341825	3.4601439	3.3906203	3.4076614	3.324429	3.7288889	4.152005	-138.51574	R0:S0:1	-94.4	uncorrelated	51514b8	 3.93e+02	 1.95e-02	 1.00e+06	2022-04-08@17:49
2x2_2C_8b_C2v_L	0.1	14	2.2	-0.30820595	-9.4536622	-9.800197	-0.59663929	-9.7890568	-0.58634271	0.8800912	-9.4236113	14	-0.064767883	-0.00072545663	-0.0092048126	0.080440753	-0.0073922358	0.081323241	0.019816679	0.0060912058	0.0058298919	-0.85228972	1.2410936	0.047573259	-1.2403123	-0.042126595	-0.10600242	-1.565847	1.31	0.644	0.152	-0.28354821	0.10015159	1.996001	1.9780664	1.9509005	1.9808325	1.9512827	1.9833318	0.0014424982	1.8942662	1.0994921	0.13176953	-0.0082964772	-0.26938537	-0.24489708	-0.26611348	-0.23256304	-0.13243287	0.0098796493	-0.04392686	0.52943385	-0.82754396	-0.4663191	0.82221351	0.42872745	0.061445752	1.3398655	0.59217417	0.029523418	0.0041552753	0.021891312	0.048659303	0.019303491	0.048295862	0.016834981	0.0014700368	0.10205531	0.029525116	4.8368225	4.9610078	4.7899395	4.6340678	4.8069903	4.6373171	4.2477641	4.5687547	3.2238688	3.2524083	3.5555633	3.4973579	3.5410373	3.4789644	3.7619659	4.1045732	-138.49477	R0:S0:1	-94.4	uncorrelated	51514b8	 6.02e+02	 5.23e-03	 3.30e-02	2022-04-08@17:52
2x2_2C_8b_C2v_L	0.1	14	2.2	-0.31301179	-9.4533239	-9.8007402	-0.58975139	-9.7896344	-0.57977964	0.87448886	-9.4229903	14	-0.059837487	-0.00043996285	-0.0055374336	0.079793096	-0.0049795297	0.079099203	0.0043801332	0.0014044499	0.00050399881	-0.85095222	1.2423381	0.036689305	-1.2413603	-0.035099202	-0.10505529	-1.5654121	1.31	0.644	0.152	-0.28242066	0.097391154	1.9970139	1.9780232	1.9506176	1.9859279	1.9506569	1.9864358	0.00038467016	1.8944427	1.096742	0.1152601	-0.0010307192	-0.26828149	-0.21276677	-0.26804758	-0.20958049	-0.028697973	0.0011600305	-0.0043961469	0.53116665	-0.8312101	-0.39718664	0.83046573	0.38848094	0.059166138	1.3377402	0.59674753	0.028922688	0.0030894308	0.021932968	0.04893638	0.014236246	0.048899918	0.013732071	0.00038784118	0.10189947	0.028920481	4.8151382	4.9472294	4.7844134	4.595367	4.7878033	4.5958531	4.2430721	4.5737418	3.2324567	3.2662365	3.5668146	3.5022015	3.5640302	3.4985159	3.7606293	4.1006263	-138.47004	R0:S0:1	-94.4	uncorrelated	51514b8	 6.50e+02	 7.91e-04	 3.08e-03	2022-04-08@17:55
2x2_2C_8b_C2v_L	0.1	14	2.2	-0.55810671	-9.8870968	-10.132114	-1.1116343	-10.117373	-1.0938493	1.6330655	-9.4942382	14.5	-0.099011997	0.0013590345	-0.022547775	0.1108145	-0.023127443	0.13681346	-0.0033011299	0.0032926031	-0.0047474112	-0.86306675	1.2479788	0.074968935	-1.2477153	-0.079441712	-0.15186986	-1.5557686	1.31	0.644	0.152	-0.33456907	0.42505261	1.9507331	1.9928334	1.9811094	1.9611274	1.9829756	1.9396791	0.00057000362	1.8612654	1.4244767	0.94880401	0.02561396	-0.29174609	-0.80613992	-0.29462028	-1.0268187	0.05225652	-0.057122515	0.044413993	0.17518413	-0.3319393	-0.32516438	0.30015798	0.38090754	0.059056785	1.7223293	0.34048693	0.045551353	0.048160951	0.0072485772	0.01930692	0.038118959	0.017376813	0.058349605	0.0005746082	0.13164321	0.045703128	6.6325265	6.9722211	6.5940923	6.3314233	6.6982124	6.3093179	5.3550436	4.0088808	1.5327311	1.144457	1.6482643	1.7808363	1.4879203	1.8215663	2.653113	4.8457585	-145.84407	R0:S0:1	-98.4	uncorrelated	51514b8	 2.23e+02	 4.45e-01	 1.00e+06	2022-04-08@17:57
2x2_2C_8b_C2v_L	0.1	14	2.2	-0.24755089	-9.7908904	-10.077917	-0.1132359	-10.041032	-0.08847296	0.032405649	-9.6466122	14.5	-0.073352882	0.0014894815	-0.0036108029	0.054324996	-0.0025839942	0.051480099	0.081969621	8.1937713e-05	-0.0040919572	-0.8680344	1.2273139	0.059636747	-1.2253177	-0.059866025	-0.0036453132	-1.5315237	1.31	0.644	0.152	-0.35875543	0.45961221	1.9314916	1.9932243	1.9749868	1.7783138	1.9742146	1.7469259	0.65264094	1.906195	1.4592096	1.1331648	-0.0018107424	-0.3324281	-1.5972411	-0.3332596	-1.6172216	-2.894716	0.00017533704	0.010677931	0.16215923	-0.42918982	-0.97009555	0.44065165	1.0751673	0.10703214	1.2178969	0.32431882	0.060948849	0.065677998	0.0068123716	0.025067826	0.21030532	0.025809516	0.2432336	0.38595722	0.089404877	0.061094055	6.4976402	7.0471789	6.1390804	5.1933705	6.0954813	5.094361	2.9173832	4.417157	1.5415922	1.0170164	1.9544596	3.2756506	1.9906776	3.4253846	7.8231469	3.5896108	-141.16667	R0:S0:1	-98.4	uncorrelated	51514b8	 2.38e+02	 1.66e-02	 4.80e-02	2022-04-08@18:01
2x2_2C_8b_C2v_L	0.1	14	2.2	-0.18592098	-9.779713	-10.060146	-0.098277016	-10.024082	-0.10058923	0.037357664	-9.6070397	14.5	-0.072170567	-0.00053398678	-0.0022039315	0.057893965	-0.00197665	0.057432742	0.083957104	-2.4668202e-05	0.0012178927	-0.86508752	1.2271642	0.058100201	-1.2248256	-0.05889078	0.0011871454	-1.5274479	1.31	0.644	0.152	-0.34773251	0.45995086	1.9196057	1.9931105	1.9746435	1.756253	1.9745958	1.7567754	0.65799032	1.9062327	1.459542	1.2230453	0.00094320501	-0.32296688	-1.6657282	-0.32402954	-1.6601839	-2.8982303	-0.00057669223	-0.0036070753	0.16497056	-0.43395314	-1.0079385	0.43404072	1.0084848	-0.034083034	1.2161456	0.32465686	0.060616866	0.076522745	0.0069219111	0.02537601	0.22741995	0.025425898	0.22762283	0.38626321	0.0893458	0.060765276	6.393168	7.0280672	6.1229776	5.1104218	6.1255335	5.1132336	2.9213822	4.4203752	1.6523142	1.0327228	1.9617116	3.3982223	1.9597702	3.3915779	7.8447025	3.5774125	-140.88541	R0:S0:1	-98.4	uncorrelated	51514b8	 2.36e+02	 1.34e-03	 6.10e-03	2022-04-08@18:04
2x2_2C_8b_C2v_L	0.1	14	2.2	-0.18601676	-9.7786339	-10.058707	-0.098531825	-10.022672	-0.096325036	0.03654454	-9.603872	14.5	-0.071936452	0.00025285608	-0.0020595777	0.05681574	-0.0019243199	0.056653625	0.083870912	-4.9164648e-05	-0.00047967691	-0.86549143	1.2268386	0.05862012	-1.2247939	-0.058169913	-0.00038449143	-1.5273615	1.31	0.644	0.152	-0.34859176	0.4597494	1.9198959	1.9931001	1.9746352	1.7562623	1.9745234	1.7554729	0.65826835	1.9062177	1.459342	1.2205825	-0.00044294481	-0.32415408	-1.6562958	-0.32468804	-1.6567141	-2.8981593	0.00025978749	0.0013777939	0.16511573	-0.43404754	-1.0126622	0.43513294	1.0145165	0.011092656	1.2160472	0.32456625	0.060666923	0.07625588	0.0069325585	0.025386375	0.22855712	0.025497397	0.22933884	0.38634988	0.089359551	0.060814637	6.3954229	7.0279102	6.1226744	5.1120707	6.121463	5.1094443	2.9212932	4.4215168	1.649938	1.0330714	1.9625289	3.3939944	1.9638621	3.3982542	7.8454554	3.5763512	-140.8613	R0:S0:1	-98.4	uncorrelated	51514b8	 2.36e+02	 8.86e-05	 1.18e-03	2022-04-08@18:07
2x2_2C_8b_C2v_L	0.1	14	2.2	0.23136184	-9.9825575	-10.207002	1.2342907	-10.123701	1.2169412	-2.1484242	-9.7544513	15	-0.063321013	0.00053243143	0.013125665	-0.028737691	0.013960386	-0.029598079	0.24179515	-0.00269361	0.00083010806	-0.88779249	1.194483	0.077884369	-1.1900879	-0.077697003	0.25858772	-1.459634	1.31	0.644	0.152	-0.33898968	0.89406288	0.000157853	1.9996991	1.9977235	0.015340961	1.9922395	0.015281136	1.8871883	1.9824071	1.8939537	0.0048256932	-0.083183688	-0.21161403	0.083098202	-0.42819034	0.17977799	-1.6504505	0.50459213	0.058041175	0.0073762933	-0.039409738	-0.66472698	0.1352404	0.64291975	-0.53879263	0.2492961	0.41180458	0.036019743	0.00018972518	0.00030847664	0.0023524849	0.015209843	0.0080636708	0.015144491	0.10791072	0.018175839	0.036110879	0.051018048	7.9503622	7.7986223	0.3451846	7.3016104	0.7451115	5.984247	6.9494351	7.9497724	0.050682368	0.20268656	7.6378292	0.70995574	7.2464092	2.0011332	1.0600047	-148.81792	R0:S0:1	-102.4	uncorrelated	51514b8	 2.30e+02	 5.25e-01	 1.00e+06	2022-04-08@18:10
2x2_2C_8b_C2v_L	0.1	14	2.2	0.50229483	-9.9147591	-10.182539	0.16703768	-10.166646	0.25775071	-0.083719454	-10.007418	15	-0.095723872	-0.011530191	0.011896764	-0.083809697	-0.0024705604	-0.093247529	-0.03780896	-0.0041992632	-0.020454465	-0.81008797	1.2008913	-0.018711611	-1.2005909	-0.031534377	0.08352522	-1.5308616	1.31	0.644	0.152	-0.32398801	0.81523944	0.0021113576	1.999609	1.994876	0.001368698	1.9950582	0.045912071	1.0206822	1.9512971	1.8151519	0.0051868899	0.038028124	-0.32879472	0.015548057	-0.26419165	0.25173129	2.007795	-0.13036887	0.21588441	0.0098628608	-0.08845647	0.021844906	0.087226744	0.92298401	-2.6500507	0.64360102	0.41490264	0.037941582	0.0023303581	0.00039594018	0.0053444687	0.001742698	0.0050743302	0.05631658	0.53332344	0.047194086	0.038005141	0.083400244	7.9366779	7.5604965	0.40515185	7.5693968	0.93802299	5.3763908	5.8119535	7.9185196	0.068019629	0.46694777	7.6306825	0.44422279	7.0449661	3.883899	2.0565509	-144.97048	R0:S0:1	-102.4	uncorrelated	51514b8	 2.15e+02	 2.75e-02	 9.41e-02	2022-04-08@18:13
2x2_2C_8b_C2v_L	0.1	14	2.2	0.49195161	-9.9121685	-10.173893	0.21649692	-10.158885	0.18251685	-0.052379357	-9.9692712	15	-0.095566303	0.0054632652	-0.00059899964	-0.090205166	0.0048208662	-0.087092802	0.019898317	0.0015234189	0.0088728049	-0.80945323	1.2009217	0.020215278	-1.1989623	-0.0002095937	0.079954052	-1.530079	1.31	0.644	0.152	-0.32901386	0.81094002	0.00068871146	1.9996586	1.9949685	0.036395914	1.9949338	0.01299266	0.76083591	1.9493258	1.8108587	0.0080931522	-0.017319173	-0.28318892	0.22582215	-0.31279258	0.12711749	-1.1536692	0.060553878	-0.094326832	0.0089375515	-0.088611798	-0.77610534	0.088550053	0.41367167	-3.1619179	0.66615914	0.41289033	0.03770252	0.00074595283	0.00034547149	0.0051886548	0.047260695	0.0052655715	0.018120967	0.454893	0.048961402	0.037762706	0.066880697	7.9420722	7.5608409	0.86554084	7.5589226	0.63345078	6.8095466	5.7518388	7.9383735	0.062776816	0.45700566	7.1381444	0.46600852	7.4049146	2.6728935	2.0951852	-144.78199	R0:S0:1	-102.4	uncorrelated	51514b8	 2.15e+02	 1.90e-02	 3.14e-02	2022-04-08@18:17
2x2_2C_8b_C2v_L	0.1	14	2.2	0.4745345	-9.9074394	-10.157321	0.18409882	-10.143495	0.20095702	-0.042977903	-9.8989698	15	-0.09489412	0.0015070899	0.0022099497	-0.087121473	0.00021258471	-0.088691158	-0.0093314947	-0.00053031644	0.00047851376	-0.80897932	1.1996191	0.0084726435	-1.1994421	-0.016622369	0.08006898	-1.5253539	1.31	0.644	0.152	-0.33074567	0.81026602	0.00036097492	1.9996709	1.9948345	0.023952706	1.9948075	0.033846272	0.6604995	1.9491177	1.8101856	0.0088951173	0.0021145399	-0.30453845	0.17954688	-0.29310212	0.21924632	0.53609487	-0.025115421	-0.010516514	0.008725094	-0.09059699	-0.5853195	0.091189417	0.72842243	-3.3220137	0.66618097	0.41138832	0.03778639	0.00037916961	0.00033288373	0.0053519754	0.032964706	0.0053624637	0.04493954	0.39492378	0.049133634	0.037846445	0.063252304	7.9431714	7.5495704	0.76438181	7.548239	0.85826581	7.2980693	5.7591978	7.9428065	0.061635692	0.47299594	7.2629002	0.47139986	7.1536757	2.2068842	2.0834998	-144.5539	R0:S0:1	-102.4	uncorrelated	51514b8	 2.15e+02	 1.93e-02	 1.46e-02	2022-04-08@18:20
2x2_2C_8b_C2v_L	0.1	14	2.2	0.45646896	-9.9014632	-10.137945	0.19517454	-10.1238	0.18619201	-0.040998624	-9.8141442	15	-0.093055474	-0.00079346098	0.00062062528	-0.088173476	0.0015344862	-0.087235969	0.0037977437	0.00022984132	-0.00040729049	-0.81039752	1.1990804	0.014398856	-1.198172	-0.011411619	0.080036574	-1.5192802	1.31	0.644	0.152	-0.33109415	0.81020874	0.00035778401	1.9996691	1.9947971	0.031398882	1.9947729	0.028204543	0.63788202	1.9487239	1.8101285	0.0088503431	-0.00052438245	-0.2967347	0.21018124	-0.30188201	0.19738605	-0.21787788	0.010004075	0.0068182588	0.0087498542	-0.091319009	-0.69249213	0.091557576	0.6427983	-3.3565219	0.66827798	0.41109221	0.037804027	0.0003759801	0.00033477994	0.0053780867	0.042151635	0.0054097411	0.038489717	0.37867568	0.049495934	0.037864041	0.063190317	7.9431891	7.5472305	0.83747814	7.5460159	0.80984497	7.4072395	5.7614431	7.9428394	0.061626008	0.47324672	7.1788881	0.47562617	7.212302	2.1016041	2.0793559	-144.29119	R0:S0:1	-102.4	uncorrelated	51514b8	 2.15e+02	 1.31e-03	 6.11e-03	2022-04-08@18:23
2x2_2C_8b_C2v_L	0.1	14	2.2	0.45626799	-9.9013655	-10.137689	0.19472283	-10.123466	0.18675261	-0.040909116	-9.8129047	15	-0.093044281	-0.0004184126	0.0012581195	-0.088484196	0.00076577323	-0.086943279	-0.0015510605	-7.4876676e-05	-0.00065051032	-0.81039265	1.1984936	0.01254394	-1.1986629	-0.013555945	0.080114521	-1.5190573	1.31	0.644	0.152	-0.33107848	0.81012122	0.0003587649	1.9996686	1.9947805	0.028864847	1.9947765	0.031262905	0.63431027	1.9487219	1.8100409	0.0088507013	0.0011438779	-0.30027485	0.20101404	-0.2981348	0.20891632	0.08940457	-0.0043871053	0.0073305502	0.0087609887	-0.091559254	-0.65948337	0.091568673	0.68206154	-3.3625295	0.66831111	0.41103495	0.037814966	0.00037702797	0.00033526191	0.0053993835	0.038947387	0.0054010121	0.042410339	0.37600383	0.04949755	0.037875015	0.063248953	7.9431299	7.5457358	0.81515574	7.5463204	0.8385961	7.4260562	5.7613479	7.9427843	0.061688778	0.47554755	7.205364	0.47451117	7.1791164	2.0832837	2.0794061	-144.28724	R0:S0:1	-102.4	uncorrelated	51514b8	 2.15e+02	 5.02e-04	 2.38e-03	2022-04-08@18:26
2x2_2C_8b_C2v_L	0.1	14	2.2	1.6124157	-9.821401	-10.03764	0.29134356	-10.092019	0.27161264	0.64069579	-10.048878	15.5	-0.12303042	-0.0023278812	0.0045560391	-0.35683043	0.0030494359	-0.35231838	-0.24670258	0.00099873204	-3.9150615e-06	-0.68560187	1.1575152	-0.10071483	-1.1622084	0.099954642	0.13615099	-1.5400972	1.31	0.644	0.152	0.03902781	0.77777308	0.00017668055	1.9996722	1.9818417	1.1139836	1.9816283	1.2721402	0.16147458	1.9878632	1.7773369	0.0076432363	-0.014389872	0.076172569	2.4232954	0.015223137	2.5607255	0.46298337	0.17344367	0.012138949	0.010608596	-0.32280925	1.6544042	0.3270573	-1.5386887	-1.6512101	0.16801176	0.35288519	0.041596787	0.00017747731	0.00032953539	0.017980297	0.66666197	0.018173011	0.59334435	0.18338383	0.012237054	0.041855556	0.087845211	7.9138516	6.5331859	3.7732655	6.5127692	3.6855214	1.985453	7.3828587	7.9136363	0.089165612	1.4516612	4.5110278	1.4673399	4.5780788	6.0174	0.6476052	-148.80367	R0:S0:1	-106.4	uncorrelated	51514b8	 9.93e+01	 2.02e-01	 1.00e+06	2022-04-08@18:29
2x2_2C_8b_C2v_L	0.1	14	2.2	1.6163246	-9.8185933	-10.040587	0.7683878	-10.095128	0.79744087	0.6659064	-10.053047	15.5	-0.12351642	-0.00024917749	0.0053346753	0.084269132	0.0049609237	0.086870801	-0.095957058	-0.0006097093	-0.0014082471	-0.78504957	1.1738991	0.019290356	-1.1761731	-0.013228107	-0.0047274684	-1.4937625	1.31	0.644	0.152	-0.19466591	0.98978812	1.9291264e-06	1.9999997	1.9989847	0.0003109562	1.9990074	4.7938585e-05	0.00012906358	1.9999903	1.9897872	2.4338262e-06	0.00074809478	-0.17331539	0.0095310917	-0.17220681	0.0037837746	0.00018546061	-0.0012994288	0.0075617552	1.0259225e-05	-0.018246958	-0.095136422	0.017904351	0.037642623	0.059542753	0.00014171762	0.47496778	0.0048704731	1.9713767e-06	3.3960411e-07	0.0010661768	0.0003251254	0.0010425314	5.0103593e-05	0.00013825478	9.7087951e-06	0.004871943	0.00010224461	7.9999244	7.8985951	0.081326275	7.9001155	0.079693266	0.0019565826	7.9994812	7.9998924	8.496118e-05	0.10137942	7.9179781	0.099858651	7.9201482	7.9978496	0.00057353102	-148.05656	R0:S0:1	-106.4	uncorrelated	51514b8	 1.44e+02	 1.02e-02	 4.33e-01	2022-04-08@18:31
2x2_2C_8b_C2v_L	0.1	14	2.2	1.6140484	-9.8188207	-10.041286	0.76228251	-10.095826	0.79119808	0.65430931	-10.054598	15.5	-0.14299783	-0.00074709759	0.007970198	0.10582421	0.0088996229	0.10800591	-0.11850214	4.7011012e-05	-0.00093211387	-0.77040408	1.1657163	0.017469479	-1.1680105	-0.019004105	0.00051596369	-1.4871354	1.31	0.644	0.152	-0.19522492	0.98975549	9.7526167e-07	1.9999997	1.9989598	0.00012219528	1.9989482	0.00016977885	1.8659386e-06	1.9999989	1.9897546	5.5696147e-06	0.0010131151	-0.17617032	0.0059277266	-0.1770638	0.0069855186	8.3776242e-06	0.00038010128	0.0052088068	9.2248082e-06	-0.018431745	-0.059150458	0.018577101	0.069731828	-0.0068595818	1.8502047e-05	0.4748248	0.0048916793	1.0028123e-06	3.2425176e-07	0.0010920669	0.00013089376	0.0011038223	0.00018148631	2.0599381e-06	1.1250045e-06	0.0048931692	8.7254817e-05	7.9999291	7.8984732	0.079780447	7.8979411	0.08015992	0.000101435	7.999959	7.9999075	7.9926876e-05	0.1014784	7.9198628	0.10200427	7.9193799	7.9999133	9.5345738e-05	-148.06351	R0:S0:1	-106.4	uncorrelated	51514b8	 1.44e+02	 7.63e-05	 7.72e-03	2022-04-08@18:33
