model	E_kin	D	U	e	eb1_1	eb2_1	eb3_1	eb4_1	eb5_1	eb6_1	eb7_1	eb8_1	mu	sb1_1	sb2_1	sb3_1	sb4_1	sb5_1	sb6_1	sb7_1	sb8_1	tb1_1	tb2_1	tb3_1	tb4_1	tb5_1	tb6_1	tb7_1	tb8_1	tpd	tpp	tppp	ave_D	ave_e	ave_mu	ave_tpd	ave_tpp	ave_tppp	ave_U_1	ave_eb1_1	ave_eb2_1	ave_eb3_1	ave_eb4_1	ave_eb5_1	ave_eb6_1	ave_eb7_1	ave_eb8_1	ave_mu_1	ave_sb1_1	ave_sb2_1	ave_sb3_1	ave_sb4_1	ave_sb5_1	ave_sb6_1	ave_sb7_1	ave_sb8_1	ave_tb1_1	ave_tb2_1	ave_tb3_1	ave_tb4_1	ave_tb5_1	ave_tb6_1	ave_tb7_1	ave_tb8_1	var_U_1	var_eb1_1	var_eb2_1	var_eb3_1	var_eb4_1	var_eb5_1	var_eb6_1	var_eb7_1	var_eb8_1	var_mu_1	var_sb1_1	var_sb2_1	var_sb3_1	var_sb4_1	var_sb5_1	var_sb6_1	var_sb7_1	var_sb8_1	var_tb1_1	var_tb2_1	var_tb3_1	var_tb4_1	var_tb5_1	var_tb6_1	var_tb7_1	var_tb8_1	E0_1	sector_1	E0_2	sector_2	githash	time
2x2_2C_8b_C2v_L	4.2050614	0	14	2.3	0.0093257428	-3.1571654	-3.9347763	-0.13153369	-3.9347755	-0.13153374	0.17214312	-3.5981354	9.45	-4.7620334e-05	-1.7808676e-06	0.0074928338	-0.19107173	0.0074911496	-0.19107219	5.5569741e-06	-6.6399522e-07	-0.11848693	-1.0878633	1.7346473	0.02813701	-1.7346481	-0.028125181	0.26139589	-2.2994699	2.1	1	0.2	0.011034841	1.2519527	1.6074695	-0.61501924	-0.20312628	0.084312761	0.12949616	0.29399352	1.9358375	1.7869968	1.5375802	1.7869986	1.5375808	0.022662155	1.5299936	1.0951147	0.00042930808	-2.6963455e-06	0.11825335	1.2634051	0.11825968	1.2634257	-2.3747406e-05	1.9491597e-06	1.2468184	0.7481012	-1.6226745	-0.53228064	1.6226666	0.53222325	-0.32053262	2.6035228	0.028144182	0.26316871	0.062229985	0.19276979	0.38524381	0.19276842	0.38524697	0.023029614	0.3563409	0.037726639	4.2590223	5.3723047	5.161023	4.9590652	5.1610207	4.9590322	4.3911319	6.2464947	5.2392216	2.7345609	3.3620882	5.2950855	3.3620849	5.2951014	3.6809185	3.1101063	-73.393725	R0:S0:1	-57.2	uncorrelated	51514b8	2022-04-17@16:53
2x2_2C_8b_C2v_L	4.3207419	0	14	2.3299828	0.0077273289	-3.1573689	-3.931589	-0.13116368	-3.931593	-0.13116238	0.1712754	-3.5829172	9.4586207	-3.8375608e-05	-3.0046135e-06	0.0080660341	-0.19056512	0.0080636228	-0.19056282	-5.2170554e-07	-6.6952942e-06	-0.11848095	-1.0873776	1.7332496	0.030488825	-1.7332513	-0.030479773	0.26044095	-2.2947993	2.0948	1	0.20128621	0.011348415	1.2516936	1.6073961	-0.61546734	-0.20391915	0.08457028	0.12957202	0.30621635	1.9350872	1.7869792	1.523558	1.7869783	1.5235618	0.023003107	1.5271869	1.0950734	0.00036081982	-3.2723098e-06	0.11975054	1.2749481	0.11975506	1.2749217	1.4630342e-05	1.3935362e-05	1.2582091	0.75358049	-1.6220222	-0.54931233	1.6220316	0.54928007	-0.32121805	2.6085833	0.028157332	0.27163655	0.062895582	0.19266626	0.39067775	0.19266711	0.39068275	0.023365603	0.35758521	0.037781111	4.3212502	5.3593733	5.1520928	4.9789052	5.152095	4.9788916	4.3875102	6.2593527	5.2437143	2.7378927	3.3496878	5.3264149	3.3497085	5.3263957	3.6831254	3.1032274	-73.380336	R0:S0:1	-57.029103	uncorrelated	51514b8	2022-04-17@17:01
2x2_2C_8b_C2v_L	4.4459262	0	14	2.3599655	0.0075374058	-3.1555008	-3.9196442	-0.13086078	-3.9196574	-0.13086208	0.17128262	-3.5692083	9.4672414	-1.0329817e-05	-3.029778e-06	0.0081071091	-0.1901193	0.0081095344	-0.19011797	-6.480639e-06	-9.8990847e-07	-0.11830573	-1.0861897	1.7296	0.030822571	-1.7296005	-0.030823044	0.26014485	-2.290129	2.0896	1	0.20257241	0.011414137	1.2517055	1.6076091	-0.61502524	-0.20397351	0.084531445	0.12968861	0.30519032	1.9352049	1.7871782	1.525142	1.7871781	1.5251465	0.022875948	1.5272406	1.095417	9.8368524e-05	3.1960556e-06	0.11966537	1.2717218	0.1196624	1.2716938	4.0457717e-05	6.299362e-06	1.2563333	0.75320239	-1.6208636	-0.54990534	1.6208692	0.54991475	-0.3208035	2.6072303	0.02817925	0.27087534	0.062787862	0.19251913	0.38960958	0.19251934	0.38960911	0.023231727	0.35760534	0.037743124	4.3167137	5.359547	5.1528448	4.9805642	5.1528443	4.9805725	4.3847432	6.2597457	5.243838	2.7383983	3.3499637	5.3211424	3.3499801	5.3211201	3.685566	3.1045896	-73.324014	R0:S0:1	-56.858207	uncorrelated	51514b8	2022-04-17@17:08
2x2_2C_8b_C2v_L	4.5705618	0	14	2.3899483	0.00774416	-3.1523794	-3.9063327	-0.13040696	-3.9063336	-0.1304037	0.17088873	-3.554618	9.4758621	1.4178701e-05	2.9995375e-05	0.0080516341	-0.18986073	0.008052382	-0.18985891	-5.0713849e-06	7.042995e-06	-0.11819165	-1.0848715	1.7254901	0.03068045	-1.7254894	-0.030684593	0.26001445	-2.2849726	2.0844	1	0.20385862	0.011399205	1.2517087	1.6077549	-0.61466465	-0.20401682	0.084496534	0.12979072	0.30446969	1.9352847	1.7874151	1.5258429	1.7874129	1.5258624	0.022830374	1.5273582	1.0957551	-0.00012776664	-6.9920407e-05	0.11932089	1.2694714	0.11933177	1.2694086	3.123989e-05	6.5400131e-06	1.2542853	0.75309601	-1.6194936	-0.54821798	1.6195101	0.54824352	-0.32082318	2.6055786	0.028198505	0.27024019	0.062715137	0.19233892	0.38928499	0.19234103	0.38927722	0.023182915	0.35759704	0.037700236	4.3139522	5.3591838	5.1533798	4.9813919	5.1533873	4.9814089	4.381876	6.2599151	5.2448098	2.7392897	3.3500666	5.3179291	3.3501001	5.3178468	3.6882787	3.1063335	-73.255683	R0:S0:1	-56.68731	uncorrelated	51514b8	2022-04-17@17:16
2x2_2C_8b_C2v_L	4.6960732	0	14	2.419931	0.0077201594	-3.149704	-3.8979488	-0.13019681	-3.8979491	-0.13019703	0.17037704	-3.5406641	9.4844828	-1.1706942e-05	-2.5470627e-05	0.0080338811	-0.18974289	0.0080328436	-0.18974344	-1.5657209e-06	-7.3165354e-06	-0.11806937	-1.0835335	1.72249	0.030644784	-1.7224904	-0.030640808	0.2598056	-2.2800337	2.0792	1	0.20514483	0.011404041	1.2517319	1.6079515	-0.61420411	-0.20401731	0.084444092	0.12989888	0.3035954	1.9354071	1.7878034	1.5275779	1.7878052	1.5275549	0.022748469	1.5276254	1.0961091	0.00010633246	5.7286465e-05	0.11893445	1.2665271	0.11892339	1.2665778	1.0469057e-05	1.6289544e-06	1.2518606	0.75269457	-1.6178349	-0.54657459	1.6178229	0.54655046	-0.32068164	2.6036091	0.028218853	0.26969197	0.06260428	0.19204482	0.38834629	0.19204308	0.38835778	0.023096934	0.35752699	0.037655239	4.3090935	5.3594056	5.1539465	4.9816113	5.1539383	4.9816003	4.3789529	6.2594601	5.2454283	2.7400028	3.3508479	5.3126521	3.3508227	5.3127317	3.6910201	3.1084387	-73.212251	R0:S0:1	-56.516414	uncorrelated	51514b8	2022-04-17@17:24
2x2_2C_8b_C2v_L	4.8188912	0	14	2.4499138	0.007654771	-3.1441081	-3.8836417	-0.12956078	-3.8836356	-0.12957427	0.16992636	-3.5260676	9.4931034	1.1450916e-05	-4.3816307e-06	0.0080091507	-0.18932888	0.008012538	-0.18933319	-3.6863021e-06	-2.3132336e-06	-0.11793085	-1.0817893	1.7182281	0.030749474	-1.7182276	-0.030760505	0.25953572	-2.2749573	2.074	1	0.20643103	0.011420084	1.2516855	1.6080415	-0.6140126	-0.20419809	0.084462916	0.12999521	0.3049234	1.9353428	1.7879128	1.5256652	1.7879118	1.5256852	0.022782229	1.527246	1.0963829	-0.00010643413	9.6192694e-06	0.11890171	1.2665689	0.11889942	1.2665375	1.6312993e-05	1.3764529e-07	1.2517269	0.7534286	-1.6167788	-0.54720308	1.6167841	0.54725822	-0.32082434	2.6031506	0.028236822	0.27046523	0.062659856	0.1919445	0.38914198	0.19194544	0.38912603	0.023128086	0.35772834	0.037627714	4.3164673	5.3570629	5.1531379	4.9854019	5.1531451	4.9854202	4.3761192	6.2617295	5.2473021	2.7411754	3.3488325	5.3155806	3.3488429	5.3155249	3.6935314	3.1086834	-73.134374	R0:S0:1	-56.345517	uncorrelated	51514b8	2022-04-17@17:32
2x2_2C_8b_C2v_L	4.9449065	0	14	2.4798966	0.0076246253	-3.141349	-3.8759335	-0.1294941	-3.8759141	-0.12949351	0.16942416	-3.510726	9.5017241	5.4241519e-05	1.1063634e-05	0.0080038432	-0.18926179	0.0080069979	-0.18926373	-6.7837993e-06	7.1903863e-06	-0.11780123	-1.080392	1.7153793	0.030626476	-1.7153746	-0.030639112	0.25927513	-2.2695857	2.0688	1	0.20771724	0.0114047	1.2517232	1.6082552	-0.61350158	-0.20416015	0.084394845	0.13010402	0.3033895	1.9355137	1.7883313	1.5286165	1.7883312	1.52861	0.022654045	1.5275905	1.096754	-0.00050626424	-1.5355294e-05	0.11835913	1.2626333	0.11835371	1.2626487	2.8460162e-05	-6.567544e-06	1.2486363	0.75270161	-1.6151	-0.5446599	1.6150949	0.54470698	-0.32050516	2.6008829	0.028257385	0.26955096	0.062506015	0.19163503	0.38762147	0.19163492	0.38761798	0.022995628	0.3576264	0.037578186	4.3079147	5.3580248	5.1543078	4.9844272	5.1543076	4.984453	4.3730412	6.2609354	5.2473542	2.7417973	3.3504818	5.3078222	3.3504656	5.3078339	3.6964519	3.111175	-73.090826	R0:S0:1	-56.174621	uncorrelated	51514b8	2022-04-17@17:40
2x2_2C_8b_C2v_L	5.0690976	0	14	2.5098793	0.0075798255	-3.1378628	-3.8664113	-0.12915096	-3.8663897	-0.12915037	0.16909648	-3.497654	9.5103448	2.1340471e-05	2.5490705e-06	0.0079920282	-0.18905783	0.0079945362	-0.1890598	2.4555347e-07	1.3575675e-06	-0.11767921	-1.0790252	1.7121582	0.030758946	-1.7121532	-0.03076105	0.25914455	-2.2649664	2.0636	1	0.20900345	0.011433352	1.2517113	1.6084094	-0.61316452	-0.20425412	0.084378719	0.13021163	0.30357021	1.9355411	1.7886199	1.5285803	1.7886222	1.5285642	0.022629094	1.5275831	1.0970659	-0.00020088141	-1.995911e-07	0.1182091	1.2612206	0.11820289	1.2612777	-5.5188393e-06	-2.9802793e-06	1.2474298	0.75287438	-1.6136829	-0.54463555	1.6136645	0.54462976	-0.32057804	2.5996533	0.028277479	0.26961836	0.062480052	0.19140621	0.38748748	0.19140414	0.38749073	0.022966732	0.35767337	0.037544631	4.3089645	5.3571019	5.1540772	4.9864837	5.1540715	4.9864825	4.3702828	6.261628	5.2485533	2.7426383	3.3498937	5.3064018	3.3498601	5.3064623	3.6989798	3.1123251	-73.042833	R0:S0:1	-56.003724	uncorrelated	51514b8	2022-04-17@17:48
2x2_2C_8b_C2v_L	5.1930005	0	14	2.5398621	0.0075498709	-3.1338309	-3.8556418	-0.12885048	-3.8556252	-0.12884863	0.16862129	-3.4824176	9.5189655	-5.035707e-06	-1.2110623e-06	0.0080416388	-0.18883976	0.0080409589	-0.18884041	9.626629e-07	-4.1543325e-08	-0.11755056	-1.0775338	1.7086676	0.03087894	-1.7086652	-0.03087606	0.25885795	-2.259694	2.0584	1	0.21028966	0.011444722	1.2516933	1.6085475	-0.61285866	-0.20436159	0.084367498	0.13031555	0.30363449	1.9355716	1.7888504	1.5287272	1.7888513	1.5287169	0.022576812	1.5274326	1.0973725	4.6010243e-05	3.4389438e-06	0.11791523	1.2596518	0.11791428	1.2596842	-4.8710899e-06	-4.137353e-07	1.2462353	0.7530206	-1.6124463	-0.54450019	1.612438	0.54447907	-0.32045696	2.598587	0.028296958	0.2696104	0.062451386	0.19122452	0.38725488	0.19122366	0.38725971	0.022910498	0.35778133	0.037511217	4.309654	5.3561832	5.1540771	4.9884204	5.1540749	4.9884099	4.3673024	6.2629118	5.2494749	2.7435236	3.3493932	5.3048671	3.3493768	5.3049042	3.7016711	3.1133147	-72.983401	R0:S0:1	-55.832828	uncorrelated	51514b8	2022-04-17@17:56
2x2_2C_8b_C2v_L	5.3171726	0	14	2.5698448	0.0075392829	-3.1284692	-3.8427162	-0.12840092	-3.8427119	-0.1283997	0.16853647	-3.4699922	9.5275862	-1.5389821e-05	-5.5031435e-07	0.0080101331	-0.18853713	0.0080107854	-0.18853584	1.8451917e-06	4.3398024e-07	-0.11741426	-1.0757901	1.7046785	0.030849164	-1.7046769	-0.030844244	0.25886263	-2.2552662	2.0532	1	0.21157586	0.011445913	1.251684	1.608693	-0.61252832	-0.20444535	0.084347189	0.13042474	0.30341046	1.9356143	1.7890599	1.5291285	1.7890603	1.529128	0.022563834	1.5275225	1.0976945	0.00014363068	-2.8166297e-07	0.1176564	1.2577067	0.11765736	1.2577097	-8.4137533e-06	-2.5470737e-07	1.2445723	0.75299758	-1.6111765	-0.54349393	1.6111747	0.54347356	-0.32061456	2.5972517	0.028317352	0.26940348	0.062412175	0.19106258	0.38699099	0.19106229	0.38699322	0.022894679	0.35778442	0.037475029	4.3085231	5.3556986	5.1544477	4.9897876	5.1544475	4.9897788	4.3648219	6.2631415	5.2505607	2.7442305	3.349134	5.3023971	3.3491342	5.302401	3.7040376	3.1146062	-72.917663	R0:S0:1	-55.661931	uncorrelated	51514b8	2022-04-17@18:04
2x2_2C_8b_C2v_L	5.4414126	0	14	2.5998276	0.0075473648	-3.1246167	-3.8329637	-0.12816044	-3.8329681	-0.12816026	0.1679773	-3.4541356	9.5362069	-2.3426922e-05	-1.3475952e-06	0.0079659609	-0.1883931	0.0079654412	-0.1883922	-1.0591933e-06	-4.1426218e-06	-0.11729807	-1.0742538	1.7013909	0.030819081	-1.7013921	-0.030817855	0.25856803	-2.2497371	2.048	1	0.21286207	0.011444937	1.2516763	1.6088372	-0.61219099	-0.20452064	0.084324342	0.13052717	0.30307594	1.9356856	1.7893372	1.5299814	1.7893361	1.5299887	0.022492249	1.5274763	1.0980127	0.0002198796	-3.0842347e-06	0.11744918	1.2556341	0.1174506	1.2556021	1.3166304e-05	9.238664e-06	1.2428688	0.75289301	-1.6098532	-0.54237571	1.6098631	0.54237614	-0.32043755	2.5958667	0.028336626	0.26918213	0.062346961	0.19084997	0.38648834	0.190851	0.38648803	0.022819509	0.35784917	0.037437546	4.3068243	5.3552566	5.1547583	4.9906704	5.1547612	4.9906703	4.3617461	6.2639812	5.2512741	2.74508	3.3492638	5.2992551	3.3492836	5.2992233	3.7068596	3.116001	-72.861516	R0:S0:1	-55.491034	uncorrelated	51514b8	2022-04-17@18:11
2x2_2C_8b_C2v_L	5.5644882	0	14	2.6298103	0.0074870731	-3.119945	-3.8215813	-0.12770601	-3.8215824	-0.12770609	0.16744241	-3.4391859	9.5448276	3.9476443e-07	1.8494209e-07	0.0079681821	-0.18812911	0.0079682095	-0.18812909	-6.2231558e-07	5.0578165e-07	-0.11716549	-1.0726623	1.6977592	0.030855441	-1.6977593	-0.030855434	0.25829079	-2.2445169	2.0428	1	0.21414828	0.011442964	1.2516372	1.6089391	-0.61196385	-0.20467935	0.084334615	0.13062495	0.30407162	1.9356557	1.7895343	1.5288917	1.7895343	1.5288918	0.022500016	1.5271832	1.0982938	-3.5995645e-06	-3.4246138e-07	0.11723211	1.2551373	0.11723223	1.2551369	3.3119736e-06	-2.8019735e-07	1.2422764	0.7534335	-1.6086661	-0.54226535	1.608666	0.54226543	-0.32051596	2.5951256	0.028354858	0.26981963	0.062372352	0.1906856	0.3869018	0.19068557	0.38690174	0.02282462	0.35801623	0.037408334	4.3119779	5.3534227	5.1541689	4.9935454	5.1541687	4.9935456	4.3587832	6.2658699	5.252909	2.7462033	3.3479025	5.3006885	3.3479029	5.3006885	3.7095264	3.1165806	-72.798092	R0:S0:1	-55.320138	uncorrelated	51514b8	2022-04-17@18:19
2x2_2C_8b_C2v_L	5.6898827	0	14	2.6597931	0.0074820779	-3.1158302	-3.8116327	-0.12759155	-3.8116365	-0.12759246	0.16726251	-3.4258848	9.5534483	3.0805828e-07	-9.5207175e-07	0.0079260898	-0.18800609	0.0079252939	-0.18800623	-1.6932597e-06	-3.1643842e-06	-0.11704037	-1.071115	1.6944319	0.030745624	-1.6944332	-0.030745755	0.25821427	-2.2398172	2.0376	1	0.21543448	0.011432687	1.2516606	1.6091358	-0.61150844	-0.20467795	0.084280276	0.13074196	0.30250162	1.9357987	1.7898526	1.5317226	1.7898523	1.5317228	0.022391995	1.5275313	1.0986533	-2.1912383e-06	-8.6995028e-08	0.11687297	1.2512833	0.11687297	1.2512771	1.206524e-05	5.6415374e-06	1.2394272	0.75276447	-1.6072423	-0.53997728	1.6072451	0.53997923	-0.32032381	2.5931225	0.028376837	0.26883025	0.06224417	0.19045547	0.385451	0.19045573	0.3854515	0.022712913	0.35791294	0.037364958	4.303416	5.3545367	5.1556046	4.9925386	5.1556047	4.9925399	4.3561646	6.2650116	5.2528534	2.7466167	3.3494216	5.2928356	3.3494258	5.2928327	3.7120727	3.1187066	-72.747089	R0:S0:1	-55.149241	uncorrelated	51514b8	2022-04-17@18:28
2x2_2C_8b_C2v_L	5.8116109	0	14	2.6897759	0.0074722666	-3.1096284	-3.797318	-0.12695662	-3.7973138	-0.1269569	0.16676983	-3.4107287	9.562069	9.5847234e-06	1.4073718e-06	0.0079280172	-0.18761886	0.0079285063	-0.18761904	3.5260792e-06	6.7602505e-06	-0.11691126	-1.0693104	1.6901462	0.030870548	-1.6901452	-0.030873165	0.257989	-2.2345284	2.0324	1	0.21672069	0.011440385	1.2515873	1.6091839	-0.61141334	-0.20492387	0.084324011	0.1308345	0.30431659	1.9356885	1.7899141	1.5290284	1.7899136	1.5290345	0.022455931	1.5269573	1.0988982	-9.0804575e-05	2.3605038e-06	0.11683403	1.2520611	0.116836	1.2520576	-2.7884693e-05	-1.4189213e-05	1.2398474	0.75378232	-1.60636	-0.54101382	1.6063603	0.54102716	-0.32060545	2.5930276	0.028394021	0.26989049	0.062341223	0.1903872	0.38664069	0.19038762	0.38663574	0.022774882	0.35819875	0.037343662	4.3135447	5.3516397	5.154439	4.9970059	5.1544422	4.9970092	4.353277	6.2680417	5.2549783	2.7479112	3.3468776	5.2977922	3.346876	5.2977762	3.7146394	3.1184948	-72.666723	R0:S0:1	-54.978345	uncorrelated	51514b8	2022-04-17@18:36
2x2_2C_8b_C2v_L	5.9361457	0	14	2.7197586	0.0075282314	-3.1045039	-3.7860707	-0.12663571	-3.7860685	-0.12663621	0.16637495	-3.3965838	9.5706897	1.4072946e-06	-7.2957018e-06	0.007863871	-0.18741277	0.007863115	-0.1874132	3.6642722e-06	6.8109001e-06	-0.11678228	-1.0675814	1.6865149	0.030653426	-1.6865145	-0.030652559	0.25782226	-2.2295304	2.0272	1	0.2180069	0.011410502	1.2515896	1.6093373	-0.61104534	-0.20497105	0.084290208	0.13094275	0.30340771	1.935784	1.7901758	1.5306199	1.7901763	1.5306188	0.022388917	1.527116	1.0992338	-1.5629058e-05	2.2479079e-05	0.11645278	1.2491901	0.11645347	1.24921	-2.9580596e-05	-1.7846489e-05	1.2374586	0.75342779	-1.605052	-0.53865945	1.6050459	0.53865435	-0.32048843	2.5913721	0.028414332	0.26929148	0.062255249	0.19019305	0.3858782	0.19019258	0.38587689	0.022705208	0.35817408	0.037303058	4.3086378	5.351913	5.1553704	4.9968925	5.1553705	4.996886	4.3505521	6.2679855	5.2556003	2.7485327	3.3475966	5.2928754	3.347584	5.2928905	3.7172383	3.1202142	-72.604981	R0:S0:1	-54.807448	uncorrelated	51514b8	2022-04-17@18:44
2x2_2C_8b_C2v_L	6.0590441	0	14	2.7497414	0.0075212347	-3.0986798	-3.7725108	-0.12618556	-3.7725036	-0.12618482	0.16628626	-3.3832022	9.5793103	6.9246651e-06	2.6600443e-07	0.0078115896	-0.18715174	0.0078109401	-0.18715141	-1.4378477e-06	-4.8362329e-06	-0.1166503	-1.0658051	1.682428	0.030582596	-1.6824261	-0.030581992	0.25783432	-2.2248038	2.022	1	0.2192931	0.011399677	1.251548	1.6094342	-0.61083361	-0.20513325	0.08430183	0.13104891	0.30400829	1.9357637	1.7902922	1.529986	1.7902926	1.5299793	0.022415582	1.5269291	1.0995204	-6.4088242e-05	-2.380287e-06	0.11631867	1.2483375	0.11631694	1.2483484	1.142611e-05	8.4080397e-06	1.2365508	0.7538023	-1.6040736	-0.53791594	1.6040705	0.5379107	-0.32078046	2.5905821	0.028434087	0.26966364	0.062272832	0.19009794	0.38614436	0.19009754	0.38614781	0.022730145	0.3582966	0.03727556	4.3115826	5.3506482	5.1553807	4.9989131	5.1553788	4.9989146	4.3479891	6.2693544	5.2570466	2.749437	3.3465884	5.2930471	3.3465825	5.2930655	3.7196724	3.1208232	-72.533668	R0:S0:1	-54.636552	uncorrelated	51514b8	2022-04-17@18:52
2x2_2C_8b_C2v_L	6.1844113	0	14	2.7797241	0.0074948236	-3.0954165	-3.7655074	-0.12628559	-3.7654989	-0.12628493	0.16584534	-3.368028	9.587931	4.0805696e-06	-3.6467475e-07	0.0078286468	-0.1871688	0.0078294454	-0.18716814	-9.4657815e-07	-1.8388333e-06	-0.11653407	-1.0643815	1.6797531	0.030547008	-1.6797524	-0.0305492	0.25761637	-2.2194895	2.0168	1	0.22057931	0.011390975	1.2515709	1.6096319	-0.61037436	-0.20513152	0.084246769	0.13116355	0.30230499	1.9359257	1.7906712	1.5333055	1.7906696	1.5333075	0.022268221	1.5272041	1.0998742	-3.7505308e-05	2.2800763e-07	0.11587403	1.2442857	0.11587251	1.2442652	6.38049e-06	3.1149028e-06	1.2336469	0.75305276	-1.6026126	-0.53582212	1.6026212	0.53583687	-0.32039954	2.5885445	0.028455685	0.26864556	0.062127724	0.18982212	0.38439355	0.18982347	0.38439379	0.022578604	0.35822757	0.037232871	4.3022069	5.3519322	5.1568211	4.9975092	5.156825	4.9975173	4.3450431	6.2688087	5.2565934	2.7498838	3.3484578	5.2843537	3.3484672	5.2843345	3.7224793	3.1229933	-72.49372	R0:S0:1	-54.465655	uncorrelated	51514b8	2022-04-17@19:00
2x2_2C_8b_C2v_L	6.3059389	0	14	2.8097069	0.0074562426	-3.0895618	-3.7522852	-0.1257619	-3.7522865	-0.12576107	0.16535044	-3.3532138	9.5965517	4.8650603e-06	-7.9052889e-07	0.0078286305	-0.1868531	0.0078308299	-0.18685415	1.7417954e-06	7.9729193e-06	-0.11641445	-1.0626075	1.6757072	0.030732574	-1.6757053	-0.030733665	0.25739588	-2.2143189	2.0116	1	0.22186552	0.011412156	1.2514923	1.6096803	-0.61028892	-0.20539205	0.084295491	0.13125976	0.30408636	1.9358238	1.7907399	1.5307865	1.7907421	1.5307804	0.02231854	1.5266128	1.1001149	-4.7638027e-05	8.5919323e-06	0.11592424	1.2450391	0.11592111	1.2450754	-1.7470506e-05	-1.4685401e-05	1.2341699	0.75400673	-1.6017694	-0.53713584	1.6017548	0.53713144	-0.32063303	2.5885177	0.028473507	0.26970677	0.062217299	0.18974947	0.38547253	0.18974756	0.38547193	0.022626618	0.35852305	0.037214222	4.3120199	5.3491889	5.155675	5.0018654	5.1556701	5.0018622	4.342191	6.2718748	5.2585576	2.7510789	3.3460336	5.2889745	3.3460123	5.2890074	3.7249967	3.1226909	-72.420287	R0:S0:1	-54.294759	uncorrelated	51514b8	2022-04-17@19:08
2x2_2C_8b_C2v_L	6.4293679	0	14	2.8396897	0.0074832562	-3.0840571	-3.7409602	-0.12535949	-3.7409567	-0.12535762	0.16500765	-3.3384592	9.6051724	-1.1721809e-05	2.7696743e-06	0.0077918722	-0.18662566	0.0077929443	-0.18662657	1.0165302e-06	-4.557503e-06	-0.11627831	-1.0608295	1.6720576	0.03053885	-1.6720593	-0.030532704	0.25723037	-2.2091426	2.0064	1	0.22315172	0.01137549	1.2514659	1.609791	-0.61002303	-0.20551146	0.084290551	0.13136215	0.30414939	1.9358526	1.7909569	1.5310228	1.7909581	1.5310097	0.022296262	1.5265091	1.1004166	0.00010947137	-9.3851031e-06	0.11554219	1.2434166	0.11553973	1.2434507	1.1979151e-06	1.027233e-05	1.2325886	0.75409761	-1.6005778	-0.53538801	1.6005707	0.53535179	-0.32066892	2.5873812	0.02849262	0.26975652	0.06219082	0.18957984	0.38535439	0.1895787	0.38536283	0.022602128	0.35861007	0.03718052	4.3120864	5.3484387	5.1559082	5.0030194	5.1559031	5.003003	4.3393636	6.272912	5.2597986	2.751942	3.3457389	5.2874719	3.3457251	5.2875173	3.7276444	3.1237657	-72.355833	R0:S0:1	-54.123862	uncorrelated	51514b8	2022-04-17@19:15
2x2_2C_8b_C2v_L	6.5542064	0	14	2.8696724	0.0074841906	-3.0796842	-3.7308126	-0.12543012	-3.7308194	-0.12543013	0.16475134	-3.3242637	9.6137931	-2.0259974e-05	5.6012857e-07	0.0077358317	-0.1866065	0.0077349008	-0.18660541	9.4917677e-07	-5.0826634e-06	-0.11616912	-1.0592691	1.6687247	0.030414473	-1.6687257	-0.030409826	0.25713484	-2.204165	2.0012	1	0.22443793	0.011358648	1.251477	1.6099689	-0.6096163	-0.2055376	0.08424633	0.13148272	0.30242525	1.9359945	1.791213	1.5344033	1.7912131	1.5344067	0.022169472	1.5267654	1.1007651	0.00018985619	-7.4237192e-06	0.11529802	1.2393335	0.11530058	1.2393208	2.1489871e-06	1.0090744e-05	1.229824	0.75338613	-1.599414	-0.53298287	1.599417	0.53296572	-0.32038704	2.5855532	0.028515278	0.2687264	0.062064544	0.18940409	0.38362472	0.18940413	0.38362594	0.022472396	0.35854909	0.037141751	4.3025263	5.3498697	5.1577954	5.0012318	5.1577951	5.0012244	4.3367404	6.2724059	5.2591845	2.7522869	3.3476237	5.2784223	3.3476342	5.2784117	3.7302232	3.1256764	-72.30249	R0:S0:1	-53.952966	uncorrelated	51514b8	2022-04-17@19:23
2x2_2C_8b_C2v_L	6.6764364	0	14	2.8996552	0.0074001645	-3.0751641	-3.7202638	-0.12507199	-3.7202753	-0.12507305	0.16431714	-3.3093121	9.6224138	-8.0108048e-06	1.0717431e-06	0.0077502141	-0.18641771	0.0077495571	-0.18641759	-4.5179424e-07	-1.2650481e-06	-0.11605806	-1.0576243	1.6652503	0.030497934	-1.6652527	-0.030496804	0.25695588	-2.1989149	1.996	1	0.22572414	0.011360408	1.2514172	1.6100433	-0.60945672	-0.20574705	0.084275415	0.13157994	0.30373343	1.9359525	1.7913952	1.5330287	1.791395	1.5330335	0.022190422	1.5263557	1.1010247	7.560914e-05	-5.174237e-06	0.1151498	1.2392764	0.11515206	1.2392634	5.1951059e-06	3.6295221e-06	1.2296402	0.75400231	-1.5983274	-0.53324591	1.5983309	0.53324374	-0.32057022	2.5850504	0.02853332	0.26960204	0.06210066	0.18924902	0.38415773	0.1892492	0.38415637	0.022490996	0.35876854	0.037117946	4.3091193	5.3478197	5.1570191	5.0043294	5.157019	5.0043273	4.3337945	6.2747091	5.2608058	2.753432	3.3460489	5.2807187	3.346058	5.2807049	3.7328835	3.1259458	-72.243537	R0:S0:1	-53.782069	uncorrelated	51514b8	2022-04-17@19:31
2x2_2C_8b_C2v_L	6.800167	0	14	2.9296379	0.0074557414	-3.070877	-3.7101649	-0.12490732	-3.7101728	-0.12490683	0.16400939	-3.2948907	9.6310345	6.5652282e-07	1.4060532e-06	0.0077298875	-0.18627972	0.0077313188	-0.18627965	-1.6619039e-06	-3.9090934e-06	-0.11594614	-1.0561323	1.6618992	0.030469578	-1.6618999	-0.030469442	0.25681642	-2.1938691	1.9908	1	0.22701034	0.011351792	1.2513983	1.6101799	-0.60915125	-0.20585177	0.084262084	0.13169215	0.30302529	1.9360186	1.7916204	1.5344036	1.7916213	1.5343986	0.022113399	1.5263327	1.1013368	-5.3941279e-06	-5.3524884e-06	0.11491278	1.2367659	0.1149093	1.2367721	1.3610181e-05	8.7503396e-06	1.227872	0.75384076	-1.5972132	-0.53205488	1.5972104	0.53205178	-0.32044088	2.5837887	0.028554299	0.26910711	0.062041227	0.18908161	0.38339999	0.18908086	0.38340268	0.022410718	0.35882519	0.037085743	4.3056474	5.3479028	5.1577899	5.0046684	5.1577859	5.0046703	4.3310422	6.2753785	5.2611317	2.7540387	3.3465173	5.2763299	3.3465153	5.276344	3.7354728	3.1271592	-72.189063	R0:S0:1	-53.611172	uncorrelated	51514b8	2022-04-17@19:39
2x2_2C_8b_C2v_L	6.9219266	0	14	2.9596207	0.0074008214	-3.0647027	-3.6964331	-0.12444958	-3.6964374	-0.12444986	0.16370932	-3.2804985	9.6396552	4.0216494e-06	-6.8971852e-08	0.0077221822	-0.18599461	0.0077216761	-0.18599468	3.6211498e-06	9.243674e-06	-0.11581747	-1.0542255	1.657745	0.030474579	-1.6577456	-0.030474826	0.2567256	-2.188818	1.9856	1	0.22829655	0.011341222	1.2513282	1.6102345	-0.60903834	-0.2060868	0.084299888	0.13179262	0.30426437	1.9359613	1.7916872	1.532946	1.7916872	1.5329521	0.022156838	1.5258926	1.1015935	-3.9073295e-05	6.1095416e-06	0.11479038	1.2366637	0.11479429	1.2366651	-2.9634107e-05	-1.8503525e-05	1.2276653	0.754462	-1.5963947	-0.53202312	1.5963933	0.53202599	-0.32071646	2.5834654	0.028572917	0.26990571	0.062091532	0.18901879	0.38402388	0.18901886	0.38401932	0.022452826	0.3590559	0.037063968	4.3119577	5.3459426	5.1573491	5.0076677	5.157351	5.0076649	4.3283445	6.2777567	5.2627783	2.7550846	3.3448704	5.2787265	3.3448678	5.2787161	3.737961	3.1272199	-72.113895	R0:S0:1	-53.440276	uncorrelated	51514b8	2022-04-17@19:47
2x2_2C_8b_C2v_L	7.045215	0	14	2.9896034	0.0075093095	-3.0594727	-3.6849494	-0.12427995	-3.6849467	-0.12427895	0.16326354	-3.2646166	9.6482759	-3.0534195e-06	1.809072e-07	0.0076496785	-0.18589112	0.0076491739	-0.18589068	-1.697959e-06	-5.4919488e-06	-0.11571404	-1.0525593	1.6541022	0.030251107	-1.6541019	-0.03024836	0.25652523	-2.1832709	1.9804	1	0.22958276	0.011300928	1.2513001	1.6103427	-0.60878176	-0.20620719	0.084294453	0.13190043	0.3036804	1.9360163	1.7918524	1.5343077	1.7918527	1.534301	0.022087745	1.5257721	1.1018984	2.9292959e-05	-4.1032522e-06	0.11455903	1.234284	0.11455774	1.2342921	1.5436324e-05	1.1023175e-05	1.2258841	0.75435149	-1.595447	-0.52992176	1.5954457	0.52990769	-0.32057319	2.5822912	0.028593128	0.26954481	0.062042662	0.18890056	0.38336783	0.18890022	0.38337274	0.022381794	0.35915378	0.037031983	4.3088553	5.3459237	5.1583425	5.0074928	5.1583402	5.0074895	4.3254675	6.2788201	5.263121	2.7558076	3.3453966	5.2745744	3.3453944	5.2745924	3.7406976	3.1283752	-72.047935	R0:S0:1	-53.269379	uncorrelated	51514b8	2022-04-17@19:55
2x2_2C_8b_C2v_L	7.1670355	0	14	3.0195862	0.0074966399	-3.0532923	-3.6713522	-0.12382087	-3.6713503	-0.12382035	0.16288141	-3.2497452	9.6568966	2.2630979e-07	-2.1258367e-05	0.0075992024	-0.18562987	0.0075987206	-0.18562997	1.0068439e-07	4.5955011e-07	-0.11557275	-1.0506402	1.649985	0.030104687	-1.6499841	-0.030104062	0.25639024	-2.1780437	1.9752	1	0.23086897	0.011269269	1.2512329	1.6103931	-0.60866359	-0.20643009	0.084327784	0.13200019	0.30468422	1.9359792	1.7919233	1.5332112	1.7919244	1.5331965	0.022121364	1.5253698	1.102161	-5.4957501e-06	5.2584294e-05	0.11439868	1.2338982	0.11439062	1.2339342	-6.3831248e-06	-1.1368069e-05	1.2252632	0.75484656	-1.5946443	-0.52901355	1.594635	0.5290073	-0.3207903	2.5818253	0.028611646	0.27021813	0.062075045	0.18883783	0.38389115	0.18883675	0.38389722	0.022414497	0.35936816	0.03700814	4.3137306	5.3442435	5.1581496	5.0098091	5.1581455	5.0098066	4.3227059	6.2810361	5.2647923	2.7568332	3.3440916	5.2762341	3.3440704	5.2762855	3.7432663	3.1286334	-71.972078	R0:S0:1	-53.098483	uncorrelated	51514b8	2022-04-17@20:03
2x2_2C_8b_C2v_L	7.2902169	0	14	3.049569	0.0074766255	-3.0472467	-3.660186	-0.12362965	-3.6601827	-0.12363056	0.16279904	-3.2362496	9.6655172	7.9494132e-06	3.1712102e-06	0.007568966	-0.18549045	0.0075701994	-0.18549057	-2.5428525e-06	-4.2678594e-06	-0.11546354	-1.0488245	1.6463947	0.02999357	-1.6463939	-0.029998567	0.25640154	-2.173286	1.97	1	0.23215517	0.011246445	1.2512009	1.6105082	-0.60840705	-0.20656625	0.084326824	0.13211372	0.30443684	1.9360104	1.7921101	1.5342742	1.792109	1.5342784	0.022087277	1.5253182	1.1024628	-7.2656011e-05	-9.3654658e-06	0.1141477	1.2317676	0.11414559	1.2317438	1.7435745e-05	9.3242446e-06	1.2237484	0.75481704	-1.5935966	-0.52749571	1.5936038	0.52752086	-0.32087641	2.5807369	0.028632759	0.27011434	0.062047646	0.18869894	0.38330733	0.1886999	0.38330503	0.022378385	0.35943626	0.036978982	4.3118825	5.3440963	5.1589006	5.0102086	5.1589031	5.0102221	4.3201826	6.2817889	5.2653215	2.7574579	3.3442894	5.272736	3.3443005	5.2727116	3.7457129	3.1296159	-71.91152	R0:S0:1	-52.927586	uncorrelated	51514b8	2022-04-17@20:10
2x2_2C_8b_C2v_L	7.4132871	0	14	3.0795517	0.007559375	-3.0420874	-3.6492529	-0.12349503	-3.6492498	-0.12349388	0.16243883	-3.2213784	9.6741379	7.7173783e-06	1.6285536e-07	0.0075251091	-0.18541583	0.0075255369	-0.18541539	-3.5794011e-07	-7.5548259e-07	-0.11536795	-1.0471303	1.6428453	0.029862835	-1.6428449	-0.029866294	0.25628574	-2.1680407	1.9648	1	0.23344138	0.01122156	1.2511671	1.6106135	-0.60816451	-0.20670186	0.084326608	0.13222359	0.30391994	1.9360649	1.7922875	1.5354864	1.7922864	1.5354878	0.022025289	1.5252166	1.102762	-7.1575001e-05	3.6467769e-07	0.11393519	1.2295581	0.11393358	1.2295425	1.5850675e-06	7.9319628e-07	1.2221278	0.75469522	-1.5926273	-0.52590096	1.5926334	0.52591927	-0.32080463	2.5796161	0.028653292	0.26978675	0.061998912	0.18856959	0.38268963	0.18857057	0.38268924	0.02231422	0.35952712	0.0369492	4.30913	5.3440634	5.1597545	5.0102575	5.1597569	5.0102671	4.3174462	6.2827466	5.2656757	2.758107	3.3447112	5.2688169	3.3447177	5.2688022	3.7483179	3.1306749	-71.85066	R0:S0:1	-52.75669	uncorrelated	51514b8	2022-04-17@20:18
2x2_2C_8b_C2v_L	7.5360197	0	14	3.1095345	0.0074725547	-3.0381557	-3.6402233	-0.12339965	-3.6402155	-0.12339953	0.16207888	-3.2062804	9.6827586	7.0623575e-06	3.5862477e-07	0.0075136337	-0.18536643	0.0075131008	-0.18536657	-1.7809037e-06	-2.9638386e-06	-0.11524542	-1.0456305	1.6397088	0.02982691	-1.6397063	-0.029828245	0.25616072	-2.1627627	1.9596	1	0.23472759	0.011201033	1.2511224	1.6107108	-0.60794504	-0.20686927	0.084338412	0.13232864	0.30436185	1.9360781	1.7925192	1.5359725	1.7925197	1.5359683	0.021998077	1.5249794	1.1030436	-6.5442584e-05	-1.5704687e-06	0.11372633	1.2280892	0.11372485	1.2280977	1.1568689e-05	5.4594372e-06	1.2210552	0.75492222	-1.5915115	-0.52493213	1.5915078	0.52493466	-0.32086524	2.5787081	0.02867281	0.27021765	0.061986997	0.18838907	0.38231548	0.18838863	0.38231652	0.02228486	0.35967601	0.036922326	4.3105235	5.3432055	5.159901	5.0113979	5.1598999	5.0114021	4.314528	6.2842947	5.2665234	2.7590553	3.3444539	5.2670596	3.3444484	5.267071	3.7510573	3.1314488	-71.800337	R0:S0:1	-52.585793	uncorrelated	51514b8	2022-04-17@20:26
2x2_2C_8b_C2v_L	7.6570749	0	14	3.1395172	0.0074949021	-3.0315583	-3.6261426	-0.12288514	-3.6261363	-0.12288491	0.16190021	-3.1923352	9.6913793	2.5976583e-06	4.8124217e-08	0.0074994087	-0.18504889	0.0074998826	-0.18504887	-2.8371028e-06	-6.5766189e-06	-0.11513247	-1.0437237	1.6355009	0.029792402	-1.6354993	-0.029793191	0.25611914	-2.1578721	1.9544	1	0.23601379	0.011185098	1.2510345	1.6107455	-0.60788648	-0.20715064	0.084392789	0.13243312	0.30568274	1.9359975	1.7925315	1.5341259	1.7925317	1.5341202	0.022050688	1.5244407	1.103289	-2.3228946e-05	-3.474823e-06	0.11361813	1.2283342	0.11361454	1.2283375	2.1594934e-05	1.2800322e-05	1.2211172	0.75565659	-1.5908614	-0.52491489	1.5908604	0.52491598	-0.32119292	2.5786473	0.028692081	0.27099826	0.062058442	0.18836727	0.38317559	0.18836704	0.38317874	0.022336261	0.35994858	0.036905348	4.3176376	5.341137	5.1594141	5.0146244	5.1594124	5.014629	4.3119308	6.2870283	5.2682946	2.7600235	3.3425454	5.270413	3.3425439	5.2704248	3.7534521	3.1312023	-71.723875	R0:S0:1	-52.414897	uncorrelated	51514b8	2022-04-17@20:34
2x2_2C_8b_C2v_L	7.7803015	0	14	3.1695	0.007565047	-3.0259163	-3.6148454	-0.12284558	-3.6148478	-0.12284574	0.16160535	-3.1771	9.7	5.0432996e-06	6.1303679e-07	0.0074173788	-0.18501941	0.0074183681	-0.1850207	-2.4090215e-06	-2.9152479e-06	-0.11502012	-1.0419415	1.6318826	0.029538595	-1.6318821	-0.029540619	0.25602556	-2.1525051	1.9492	1	0.2373	0.011141048	1.2510067	1.6108539	-0.60762825	-0.20726737	0.084385095	0.13254548	0.30475546	1.9360775	1.7926963	1.536266	1.7926979	1.5362584	0.021970877	1.5244114	1.1035983	-4.6830356e-05	-1.8589685e-06	0.1134043	1.2254043	0.11339984	1.2254256	1.5771656e-05	6.5320021e-06	1.2189806	0.75532521	-1.5899624	-0.52243219	1.5899542	0.52243279	-0.32106754	2.5773495	0.028713115	0.27049109	0.061987712	0.18825571	0.38213805	0.18825435	0.38213991	0.022254847	0.36000951	0.036873641	4.3122337	5.3416962	5.1608579	5.0135294	5.1608529	5.0135323	4.3092285	6.287665	5.2682848	2.760588	3.3436434	5.2644235	3.343632	5.2644506	3.7560931	3.1324963	-71.65998	R0:S0:1	-52.244	uncorrelated	51514b8	2022-04-17@20:42
