model	D	U	e	eb1_1	eb2_1	eb3_1	eb4_1	eb5_1	eb6_1	eb7_1	eb8_1	mu	sb1_1	sb2_1	sb3_1	sb4_1	sb5_1	sb6_1	sb7_1	sb8_1	tb1_1	tb2_1	tb3_1	tb4_1	tb5_1	tb6_1	tb7_1	tb8_1	tpd	tpp	tppp	ave_D_1	ave_U_1	ave_eb1_1	ave_eb2_1	ave_eb3_1	ave_eb4_1	ave_eb5_1	ave_eb6_1	ave_eb7_1	ave_eb8_1	ave_mu_1	ave_sb1_1	ave_sb2_1	ave_sb3_1	ave_sb4_1	ave_sb5_1	ave_sb6_1	ave_sb7_1	ave_sb8_1	ave_tb1_1	ave_tb2_1	ave_tb3_1	ave_tb4_1	ave_tb5_1	ave_tb6_1	ave_tb7_1	ave_tb8_1	var_D_1	var_U_1	var_eb1_1	var_eb2_1	var_eb3_1	var_eb4_1	var_eb5_1	var_eb6_1	var_eb7_1	var_eb8_1	var_mu_1	var_sb1_1	var_sb2_1	var_sb3_1	var_sb4_1	var_sb5_1	var_sb6_1	var_sb7_1	var_sb8_1	var_tb1_1	var_tb2_1	var_tb3_1	var_tb4_1	var_tb5_1	var_tb6_1	var_tb7_1	var_tb8_1	E0_1	sector_1	E0_2	sector_2	githash	distance	diff_param	diff_hybrid	time
2x2_2C_8b_C2v_L	0.1	14	1.27	0.0086839677	-3.1445289	-3.9164807	-0.13437878	-3.9164407	-0.13437791	0.17455273	-3.5797676	9.425	2.7540906e-05	-4.0887161e-07	0.0069035686	-0.19307525	0.0069033966	-0.1930765	-1.0933969e-05	2.552128e-06	-0.11908613	-1.0874005	1.7341014	0.025163995	-1.7340927	-0.025176042	0.26343251	-2.2991102	1.29	0.638	0.14	-0.039548716	0.12995676	0.15300028	1.943568	1.7849491	1.7136812	1.7849488	1.7136734	0.015941585	1.5478547	1.0973613	-0.00021800262	5.0421372e-06	-0.0769727	1.0855552	-0.07698185	1.0855648	5.5443787e-05	1.7868262e-06	1.1405359	0.69089082	-1.6372522	-0.27309813	1.6372476	0.27313407	-0.29879129	2.5650535	0.48147878	0.028266462	0.14261398	0.055312167	0.19605289	0.26986005	0.19605314	0.26986517	0.016219615	0.34859916	0.037351388	3.5740623	5.5136309	5.2775861	4.764073	5.2775898	4.7640946	4.4012331	6.1638332	5.1337077	2.6911731	3.5014404	5.0069615	3.5014307	5.0069622	3.6776888	3.1601469	-73.174594	R0:S0:1	-65.24	uncorrelated	51514b8	 2.22e+01	 8.99e-01	 1.00e+06	2022-04-07@10:13
2x2_2C_8b_C2v_L	0.1	14	1.27	-0.082879603	-5.0066644	-6.0862734	-0.045296776	-6.0863358	-0.045340842	0.033706621	-5.810017	9.425	0.00035136024	2.7949477e-05	0.0037334064	-0.0051063567	0.0037326402	-0.0051048168	0.054002227	3.4917238e-05	0.029088869	-0.76002111	1.1892972	0.043952579	-1.1892997	-0.04396105	6.7932175e-05	-1.5114442	1.29	0.638	0.14	-0.046977828	0.047541506	1.999897	1.9809784	1.9565445	1.9996908	1.9565439	1.9996907	0.00048195283	1.9192645	1.0470651	-0.00059972332	-1.2072441e-05	-0.045974715	0.0030322279	-0.04597339	0.0030274585	-0.088679739	-3.0084311e-05	-0.037807366	0.51464638	-0.81504	-0.065326402	0.81505035	0.065339983	-8.3817151e-05	1.1529133	0.70759027	0.011412617	0.00010300354	0.018963037	0.042998211	0.00031180916	0.042998764	0.00031188747	0.00048454054	0.078683929	0.01140321	4.5190445	4.6569334	4.5004354	4.1776161	4.500396	4.1775711	4.1166387	4.4918677	3.4818567	3.5093837	3.8346757	3.8247761	3.8347152	3.8248216	3.8865157	4.0363863	-86.147481	R0:S0:1	-65.24	uncorrelated	51514b8	 8.93e-01	 3.05e-01	 1.76e+00	2022-04-07@10:16
2x2_2C_8b_C2v_L	0.1	14	1.27	-0.087015561	-5.8717195	-6.8691865	-0.054033555	-6.8691905	-0.054117625	0.059522335	-6.2990387	9.425	0.00024859368	-1.4351534e-06	0.0017650544	-0.0058161168	0.001760815	-0.0057991825	0.0099041983	-1.098361e-05	-0.00087133223	-0.81069166	1.2552224	-0.0014231267	-1.2552217	0.0015998842	2.7023816e-05	-1.5672408	1.29	0.638	0.14	-0.046534872	0.046148165	1.9999999	1.9816394	1.9578057	1.9999955	1.957806	1.9999954	1.6037901e-05	1.9205867	1.0456623	-0.00038136514	-1.0683621e-06	-0.043246018	0.0072645187	-0.043243786	0.0072594357	-0.016171716	7.64791e-06	0.0011283209	0.50576989	-0.80381045	0.0026453249	0.80380674	-0.0029071769	-2.5532487e-05	1.144609	0.70909516	0.011094318	1.0237366e-07	0.018305418	0.041762224	4.5316678e-06	0.04176196	4.6083991e-06	1.6039134e-05	0.07742858	0.011080613	4.5164601	4.6504315	4.4858062	4.1696905	4.4858142	4.1697018	4.1252146	4.4751896	3.4835407	3.5102032	3.8401791	3.8303445	3.8401701	3.8303337	3.8748906	4.0451135	-92.098899	R0:S0:1	-65.24	uncorrelated	51514b8	 8.55e-01	 4.63e-05	 2.97e-02	2022-04-07@10:19
