model	E_kin	D	U	e	eb1_1	eb2_1	eb3_1	eb4_1	eb5_1	eb6_1	eb7_1	eb8_1	mu	sb1_1	sb2_1	sb3_1	sb4_1	sb5_1	sb6_1	sb7_1	sb8_1	tb1_1	tb2_1	tb3_1	tb4_1	tb5_1	tb6_1	tb7_1	tb8_1	tpd	tpp	tppp	ave_D	ave_e	ave_mu	ave_tpd	ave_tpp	ave_tppp	ave_U_1	ave_eb1_1	ave_eb2_1	ave_eb3_1	ave_eb4_1	ave_eb5_1	ave_eb6_1	ave_eb7_1	ave_eb8_1	ave_mu_1	ave_sb1_1	ave_sb2_1	ave_sb3_1	ave_sb4_1	ave_sb5_1	ave_sb6_1	ave_sb7_1	ave_sb8_1	ave_tb1_1	ave_tb2_1	ave_tb3_1	ave_tb4_1	ave_tb5_1	ave_tb6_1	ave_tb7_1	ave_tb8_1	var_U_1	var_eb1_1	var_eb2_1	var_eb3_1	var_eb4_1	var_eb5_1	var_eb6_1	var_eb7_1	var_eb8_1	var_mu_1	var_sb1_1	var_sb2_1	var_sb3_1	var_sb4_1	var_sb5_1	var_sb6_1	var_sb7_1	var_sb8_1	var_tb1_1	var_tb2_1	var_tb3_1	var_tb4_1	var_tb5_1	var_tb6_1	var_tb7_1	var_tb8_1	E0_1	sector_1	E0_2	sector_2	githash	time
2x2_2C_8b_C2v_L	7.9548872	0	14	3.1695	0.0018966178	-3.1022638	-3.6869349	-0.10868969	-3.686944	-0.10869079	0.14780046	-3.2464716	9.8	-3.6500554e-05	-6.7538764e-06	0.0094399223	-0.17253352	0.0094394611	-0.17253362	3.636482e-06	8.7254376e-06	-0.1122816	-1.0480638	1.635789	0.042537516	-1.6357909	-0.04253608	0.24121687	-2.1549857	1.9492	1	0.2373	0.013237844	1.2557043	1.6180274	-0.59066599	-0.19598988	0.080026616	0.13396957	0.26527077	1.939942	1.8043204	1.5585986	1.8043206	1.5586046	0.018908099	1.5490036	1.1083674	0.00036189824	1.9737224e-05	0.10474189	1.1605814	0.10474469	1.1605835	-2.8421842e-05	-1.9074363e-05	1.1621379	0.73820986	-1.5518738	-0.55982036	1.5518723	0.55981661	-0.30335527	2.5243198	0.028977622	0.23770042	0.058424882	0.17898816	0.36581447	0.17898807	0.36581035	0.019049089	0.34936546	0.036155089	4.1301943	5.3685751	5.1519625	5.0536036	5.151964	5.0535964	4.2913274	6.1950073	5.2796115	2.7529111	3.3540319	5.1581494	3.3540299	5.1581423	3.7650163	3.1859676	-72.573495	R0:S0:1	-53.044	uncorrelated	51514b8	2022-04-18@10:04
2x2_2C_8b_C2v_L	7.9375578	0	14	3.1621828	0.0022656082	-3.1027656	-3.6879323	-0.10777003	-3.6879394	-0.10776824	0.14707941	-3.2531313	9.8	-3.8679064e-05	8.8297586e-08	0.0092384798	-0.17203628	0.0092378671	-0.17203547	5.2228935e-06	9.2231e-06	-0.11215575	-1.0478187	1.6353539	0.041875548	-1.6353556	-0.041871549	0.24064817	-2.1557099	1.9497966	1	0.23789655	0.013180797	1.2560199	1.6183348	-0.58966425	-0.1951497	0.079711788	0.13391349	0.26134977	1.9402651	1.8050194	1.5623144	1.8050194	1.5623198	0.01876887	1.5511928	1.1085132	0.00037889212	3.9347675e-06	0.10386242	1.155148	0.1038673	1.1551491	-3.4876323e-05	-1.6399367e-05	1.1560505	0.73635805	-1.5494979	-0.55421222	1.5494977	0.55419726	-0.30258459	2.519657	0.028967821	0.23468537	0.058130696	0.17845052	0.3643845	0.1784506	0.36438224	0.018907096	0.34832657	0.036082855	4.110408	5.3715328	5.1530713	5.0491831	5.1530729	5.0491717	4.2916129	6.1862246	5.2798467	2.752771	3.3577459	5.1465998	3.3577463	5.1465917	3.7647439	3.1913534	-72.583558	R0:S0:1	-53.102538	uncorrelated	51514b8	2022-04-18@10:12
2x2_2C_8b_C2v_L	7.9160028	0	14	3.1548655	0.0017992885	-3.103795	-3.6900589	-0.10663386	-3.6900659	-0.10663386	0.1463112	-3.2596318	9.8	-4.0389157e-05	-2.7001144e-06	0.0092845417	-0.17118885	0.0092801163	-0.17119045	-2.0384231e-07	-4.8538118e-06	-0.11204113	-1.0477926	1.6353186	0.042370363	-1.6353218	-0.042358086	0.23983049	-2.1566944	1.9503931	1	0.2384931	0.013232193	1.25621	1.6185643	-0.58899576	-0.19470085	0.079532724	0.13385023	0.26216764	1.940273	1.8054602	1.5597781	1.8054628	1.5597642	0.018780616	1.5520381	1.1085151	0.00040048575	1.4842379e-06	0.10345445	1.1549984	0.10345843	1.1550568	6.6213093e-06	7.7564323e-06	1.1556933	0.73665237	-1.547807	-0.55674762	1.547792	0.55668453	-0.30221002	2.5178427	0.02895613	0.23508425	0.058118526	0.17806588	0.3654586	0.17806358	0.36546751	0.018915156	0.34791056	0.036050482	4.1156418	5.3694834	5.1503925	5.0549489	5.1503863	5.0549201	4.2914545	6.1827246	5.2814723	2.7535639	3.3560126	5.1515121	3.3559895	5.151577	3.764466	3.1932222	-72.600467	R0:S0:1	-53.161076	uncorrelated	51514b8	2022-04-18@10:20
2x2_2C_8b_C2v_L	7.898814	0	14	3.1475483	0.0016297803	-3.1088853	-3.6977731	-0.10639257	-3.6977795	-0.10639196	0.14550999	-3.2649211	9.8	-4.6104176e-05	2.9156437e-08	0.0093177984	-0.1708108	0.0093172067	-0.17080982	-1.2124534e-06	-3.2935803e-06	-0.1118857	-1.0484384	1.6365332	0.042570502	-1.6365349	-0.042569125	0.23897949	-2.1572583	1.9509897	1	0.23908966	0.013233427	1.2565201	1.6189366	-0.58793413	-0.19390921	0.07922951	0.13381034	0.25869912	1.9405801	1.8062052	1.5645303	1.8062044	1.5645324	0.018563738	1.5539054	1.1086478	0.00045753352	-4.3182533e-06	0.10279016	1.1490181	0.10279107	1.1489998	1.2547691e-05	7.7373233e-06	1.1506664	0.73498945	-1.5455351	-0.55492223	1.5455429	0.55492019	-0.30096551	2.5137516	0.028949249	0.23257704	0.057838889	0.17749081	0.36286213	0.1774916	0.36286334	0.018694623	0.34702135	0.035990546	4.0975161	5.3724152	5.1512865	5.0516956	5.1512861	5.0516929	4.2913186	6.1753	5.280614	2.7533999	3.3596783	5.138381	3.3596915	5.1383702	3.7644165	3.1979178	-72.650283	R0:S0:1	-53.219614	uncorrelated	51514b8	2022-04-18@10:28
2x2_2C_8b_C2v_L	7.8769331	0	14	3.140231	0.0012556043	-3.1100639	-3.6995761	-0.10523163	-3.6995834	-0.10523221	0.14450995	-3.2699736	9.8	-4.4731859e-05	-9.3787625e-08	0.0093556256	-0.16990068	0.0093558947	-0.16990041	-1.8274574e-06	-5.2274579e-06	-0.11173922	-1.0485392	1.636437	0.043185506	-1.6364384	-0.043186297	0.23794756	-2.1577778	1.9515862	1	0.23968621	0.013295571	1.2567013	1.6191573	-0.58729209	-0.19348637	0.079059298	0.13374429	0.25936414	1.9405803	1.8066008	1.5617253	1.8066003	1.561727	0.018546351	1.5546132	1.1086415	0.00044797187	-4.5158088e-06	0.10250047	1.1489766	0.10249934	1.1489598	1.6695409e-05	1.0616455e-05	1.1503775	0.73536576	-1.5439993	-0.55826232	1.5440052	0.55826775	-0.30036412	2.5120989	0.028937115	0.23277935	0.057833621	0.17714027	0.36403724	0.17714074	0.36403756	0.018673027	0.3466679	0.035959768	4.1027645	5.3702427	5.1484732	5.0580823	5.148472	5.0580838	4.2909139	6.1723503	5.2821047	2.7542307	3.3577526	5.1439231	3.357764	5.1439133	3.7642841	3.1996127	-72.662617	R0:S0:1	-53.278152	uncorrelated	51514b8	2022-04-18@10:37
2x2_2C_8b_C2v_L	7.8597943	0	14	3.1329138	0.0009377671	-3.1163152	-3.7077596	-0.10493052	-3.7077628	-0.10493035	0.14404834	-3.2765884	9.8	-4.42373e-05	-3.461895e-07	0.009378694	-0.16946257	0.0093787197	-0.16946224	1.8104076e-06	4.220259e-06	-0.11161557	-1.0493011	1.6377413	0.043409341	-1.6377418	-0.043410092	0.23725606	-2.1587777	1.9521828	1	0.24028276	0.013295513	1.2570112	1.6195371	-0.58621659	-0.19269835	0.07875678	0.13370383	0.25636837	1.9408731	1.807376	1.5662018	1.8073755	1.5662072	0.018360635	1.5565133	1.1087718	0.00044437997	2.5889212e-06	0.10185246	1.1430775	0.10185414	1.1430666	-1.27594e-05	-7.3527557e-06	1.1457357	0.73383279	-1.5415961	-0.5565715	1.541599	0.55657688	-0.29932403	2.5080047	0.028930022	0.23065851	0.057566452	0.17653683	0.36152759	0.17653726	0.36152448	0.018484017	0.34575542	0.035899972	4.0866812	5.3728006	5.1491235	5.0554128	5.1491251	5.0554122	4.290886	6.1647755	5.2814	2.7541866	3.3611282	5.131485	3.3611334	5.1314693	3.7641539	3.2042283	-72.719737	R0:S0:1	-53.33669	uncorrelated	51514b8	2022-04-18@10:45
2x2_2C_8b_C2v_L	7.8395673	0	14	3.1255966	0.00059320402	-3.1207153	-3.7126251	-0.10418529	-3.7126277	-0.10418512	0.14307577	-3.2826268	9.8	-4.1874181e-05	-4.9865036e-06	0.009453871	-0.16880578	0.0094534786	-0.16880532	3.4702733e-06	4.8481018e-06	-0.11149214	-1.0498162	1.638292	0.044000122	-1.6382933	-0.043998926	0.23635453	-2.1596081	1.9527793	1	0.24087931	0.013343139	1.2572369	1.6198166	-0.58542084	-0.19214717	0.078540518	0.13364901	0.25562723	1.9409959	1.8079154	1.5660639	1.8079148	1.5660669	0.018275105	1.5576551	1.1088125	0.00042363535	1.4414291e-05	0.10142345	1.1409698	0.10142501	1.1409675	-2.4915067e-05	-1.229931e-05	1.143907	0.73344169	-1.5397553	-0.55860355	1.5397571	0.55860215	-0.29853694	2.5054933	0.028920069	0.22995444	0.057450967	0.17608937	0.36131446	0.17608982	0.36131297	0.01839464	0.34519655	0.035860259	4.083851	5.3724508	5.1475452	5.0585602	5.1475471	5.0585565	4.2906389	6.160116	5.281992	2.7546392	3.3611592	5.1304043	3.3611596	5.1303982	3.7639848	3.2069015	-72.75593	R0:S0:1	-53.395228	uncorrelated	51514b8	2022-04-18@10:53
2x2_2C_8b_C2v_L	7.8199498	0	14	3.1182793	0.00030617121	-3.1244222	-3.7168508	-0.10334823	-3.7168548	-0.10334828	0.14233566	-3.2883211	9.8	-4.3084211e-05	-8.3692099e-07	0.0094588578	-0.16808492	0.0094583528	-0.16808522	1.4382829e-08	1.0895003e-06	-0.1113416	-1.0502559	1.6387311	0.044317605	-1.6387319	-0.044317089	0.23549108	-2.160318	1.9533759	1	0.24147586	0.013360574	1.2574802	1.6201077	-0.58457273	-0.19154317	0.078305312	0.13359387	0.25444617	1.9411401	1.8084817	1.5666817	1.8084819	1.5666815	0.018182291	1.558955	1.1088749	0.00043847288	2.2347725e-06	0.10091065	1.1380635	0.10091125	1.1380677	-7.0218193e-07	-1.9311919e-06	1.1412882	0.73289107	-1.5378171	-0.55902354	1.5378157	0.55902026	-0.29774936	2.5025948	0.028910109	0.22895697	0.057316769	0.17562606	0.3608247	0.17562582	0.36082462	0.018298299	0.34455899	0.035813988	4.0784821	5.3725701	5.146466	5.0604747	5.1464654	5.0604724	4.2903881	6.1548577	5.2825552	2.7550777	3.3617944	5.1274468	3.3617928	5.1274504	3.7638921	3.2100505	-72.786481	R0:S0:1	-53.453766	uncorrelated	51514b8	2022-04-18@11:01
2x2_2C_8b_C2v_L	7.8011635	0	14	3.1109621	-0.00011063389	-3.131121	-3.7241177	-0.10295549	-3.7241156	-0.10295431	0.14151114	-3.2936293	9.8	-3.4131318e-05	3.340706e-06	0.0095015088	-0.16761087	0.0095009622	-0.16761069	1.000155e-05	6.7406666e-06	-0.11122506	-1.0510961	1.639837	0.044725288	-1.6398364	-0.044724034	0.23459908	-2.1609276	1.9539724	1	0.24207241	0.013379022	1.2577448	1.6204339	-0.58364299	-0.19087964	0.078048708	0.13354419	0.25281313	1.9413446	1.8091411	1.5690484	1.8091414	1.5690548	0.018035426	1.5604015	1.1089562	0.00035024925	-1.2842133e-06	0.10043086	1.1340478	0.10043508	1.1340564	-6.4434178e-05	-1.6175819e-05	1.1382413	0.73200164	-1.5357117	-0.55910206	1.5357066	0.55909626	-0.296729	2.4993393	0.028901228	0.22778764	0.057128364	0.1750989	0.35931085	0.17509862	0.35930581	0.018148233	0.34385271	0.035764863	4.0698947	5.3735224	5.1460428	5.060475	5.1460461	5.0604707	4.2900534	6.1490824	5.2823818	2.755426	3.3635501	5.1204687	3.3635418	5.1204581	3.7639016	3.2136411	-72.837437	R0:S0:1	-53.512303	uncorrelated	51514b8	2022-04-18@11:10
2x2_2C_8b_C2v_L	7.7811005	0	14	3.1036448	-0.0004692682	-3.1363076	-3.7291019	-0.10201941	-3.729097	-0.10201875	0.14068922	-3.2999009	9.8	-3.7636439e-05	-2.5247551e-05	0.0095465129	-0.16684019	0.0095445301	-0.16683703	1.0817307e-05	-1.3966846e-05	-0.11109656	-1.0517712	1.6404104	0.045181868	-1.6404104	-0.045176494	0.23369866	-2.1618213	1.954569	1	0.24266897	0.013405781	1.257974	1.6207177	-0.58282527	-0.1903189	0.077829257	0.13348461	0.25228536	1.9414544	1.8097108	1.5685686	1.8097094	1.5685612	0.017965497	1.5615781	1.108999	0.00038954473	5.3490133e-05	0.099889217	1.1319619	0.099884452	1.1319643	-6.1944895e-05	-6.4755946e-09	1.1363823	0.73175288	-1.5337314	-0.56054992	1.5337361	0.56054138	-0.29601314	2.4966966	0.028890352	0.22723761	0.057024441	0.17462276	0.35932488	0.17462383	0.35933243	0.018074566	0.34326891	0.035722286	4.0681831	5.3728481	5.1442738	5.0640791	5.1442753	5.0640797	4.2897149	6.1442852	5.2832543	2.7560579	3.3633416	5.1203023	3.3633381	5.120319	3.7638126	3.2163995	-72.875322	R0:S0:1	-53.570841	uncorrelated	51514b8	2022-04-18@11:18
2x2_2C_8b_C2v_L	7.7621411	0	14	3.0963276	-0.00080066899	-3.140502	-3.7335022	-0.1013366	-3.7334971	-0.10133631	0.14000304	-3.3063391	9.8	-3.4345696e-05	4.0670066e-06	0.0095195096	-0.16619695	0.0095178894	-0.16619674	-2.8204967e-06	-5.6494559e-06	-0.11096624	-1.0522238	1.6409292	0.045393373	-1.6409285	-0.045393392	0.23289881	-2.1627799	1.9551655	1	0.24326552	0.013409892	1.2582353	1.6210338	-0.58191354	-0.18966279	0.07757676	0.13343742	0.25061572	1.9416416	1.8102995	1.5704382	1.8102991	1.5704362	0.017852629	1.5630575	1.1090841	0.00035737108	-1.2989909e-05	0.099401366	1.1280888	0.099402243	1.1280831	2.1475817e-05	1.2350787e-05	1.1331833	0.73087904	-1.5317478	-0.55994803	1.5317508	0.55994761	-0.29515642	2.4934936	0.028881887	0.22596685	0.056851753	0.17415039	0.35820229	0.17415073	0.35820434	0.017958919	0.34253801	0.035672763	4.059585	5.3737706	5.143939	5.0642726	5.1439386	5.0642743	4.2896389	6.1383148	5.2834072	2.7562927	3.3648406	5.1142299	3.3648453	5.1142304	3.763625	3.2198939	-72.910129	R0:S0:1	-53.629379	uncorrelated	51514b8	2022-04-18@11:26
2x2_2C_8b_C2v_L	7.7426469	0	14	3.0890103	-0.0010682369	-3.1462718	-3.739033	-0.10061385	-3.7390291	-0.10061215	0.13897711	-3.3113095	9.8	-2.9071888e-05	1.5156291e-07	0.0095381861	-0.1655865	0.0095374656	-0.16558621	1.3449548e-06	2.9280674e-06	-0.1108327	-1.0529377	1.6416201	0.045687983	-1.6416192	-0.045685724	0.23197258	-2.1632218	1.9557621	1	0.24386207	0.013417425	1.2584819	1.6213245	-0.58105171	-0.18904203	0.07733673	0.13337812	0.24937074	1.9418068	1.8109043	1.5713377	1.8109048	1.5713343	0.017746634	1.5643816	1.1091477	0.00030452349	2.3679832e-06	0.098826243	1.1250245	0.098827336	1.1250396	-1.0980912e-05	-5.8624684e-06	1.1303977	0.73027154	-1.5297296	-0.56005783	1.5297249	0.56004697	-0.2942885	2.4904195	0.028871206	0.22495432	0.056698295	0.1736566	0.35757268	0.17365615	0.35757451	0.017849727	0.34188004	0.03562441	4.0537633	5.3739474	5.1429364	5.0656898	5.1429366	5.0656869	4.2891915	6.1329797	5.2838423	2.7568436	3.365729	5.1106708	3.3657203	5.1106832	3.7637064	3.2231899	-72.94921	R0:S0:1	-53.687917	uncorrelated	51514b8	2022-04-18@11:34
2x2_2C_8b_C2v_L	7.7225266	0	14	3.0816931	-0.0014935503	-3.148773	-3.7419251	-0.09988333	-3.7419218	-0.099883107	0.13816642	-3.3168361	9.8	-2.4820174e-05	-7.8284153e-06	0.009581831	-0.16482552	0.009581587	-0.16482558	-3.712392e-06	2.3872619e-06	-0.11067298	-1.0532479	1.6418149	0.046178147	-1.6418145	-0.046176941	0.23101303	-2.1639289	1.9563586	1	0.24445862	0.013438508	1.2587115	1.621607	-0.58024135	-0.18847838	0.07711501	0.13332767	0.24842882	1.9419185	1.8113932	1.5720401	1.8113935	1.572033	0.017649521	1.5655452	1.1092028	0.00026278254	1.940168e-05	0.098415256	1.1220021	0.098413309	1.1220171	1.7284716e-05	-5.9262662e-06	1.1282489	0.72985629	-1.5280036	-0.56133909	1.5280004	0.56133417	-0.29339163	2.4878394	0.028862076	0.22416609	0.056594026	0.17325469	0.35689656	0.17325438	0.35690061	0.017749684	0.34129686	0.035582564	4.0494452	5.3739447	5.1419865	5.0680302	5.1419857	5.0680298	4.2889778	6.1282418	5.2841028	2.7572501	3.3661989	5.1077157	3.3661907	5.107737	3.7635577	3.2259521	-72.971972	R0:S0:1	-53.746455	uncorrelated	51514b8	2022-04-18@11:43
2x2_2C_8b_C2v_L	7.7038797	0	14	3.0743759	-0.0017991075	-3.1557835	-3.7492488	-0.099290522	-3.7492485	-0.099290436	0.13722293	-3.3226392	9.8	-2.5258229e-05	-1.11183e-06	0.0095862922	-0.16430213	0.0095866923	-0.16430196	8.9717233e-07	2.9769712e-06	-0.11055607	-1.0540933	1.6428827	0.046408978	-1.6428822	-0.046410881	0.23011982	-2.1646193	1.9569552	1	0.24505517	0.013436931	1.2589804	1.6219287	-0.57929703	-0.18779381	0.076852552	0.13327242	0.24671281	1.942132	1.8120839	1.5740368	1.8120838	1.5740376	0.017515014	1.5670867	1.1092889	0.00026916025	5.6938006e-06	0.097803962	1.1180656	0.097803396	1.1180647	-9.6830855e-06	-6.8789294e-06	1.1248277	0.72893754	-1.5257631	-0.56059564	1.5257622	0.56060487	-0.29241956	2.4843444	0.028852158	0.22287243	0.056396862	0.17269825	0.35570002	0.17269828	0.35569861	0.017612204	0.34052855	0.035529157	4.0406293	5.3748192	5.1414536	5.0680115	5.1414545	5.0680167	4.2886133	6.1220579	5.2842698	2.7576474	3.3678787	5.1014055	3.3678764	5.1014017	3.7635927	3.2297096	-73.023734	R0:S0:1	-53.804993	uncorrelated	51514b8	2022-04-18@11:51
2x2_2C_8b_C2v_L	7.683101	0	14	3.0670586	-0.002320126	-3.1576261	-3.7514107	-0.098449116	-3.7514078	-0.098448393	0.13643503	-3.3280778	9.8	-2.4539177e-05	4.9527095e-07	0.0096198566	-0.16349216	0.0096198506	-0.16349222	-9.432549e-07	-3.7094534e-06	-0.11041873	-1.0542054	1.6429238	0.04689315	-1.6429235	-0.046892796	0.22918913	-2.1653167	1.9575517	1	0.24565172	0.013458781	1.259192	1.6221896	-0.57854447	-0.18728051	0.076650343	0.13321807	0.24647685	1.9422065	1.8125259	1.5737448	1.8125261	1.5737392	0.01745386	1.5680839	1.1093242	0.00026472791	-1.9335366e-06	0.097423009	1.115867	0.097421144	1.1158757	6.7213955e-06	5.6149134e-06	1.1234264	0.72876168	-1.5241377	-0.56226782	1.5241361	0.56226524	-0.29167181	2.4821103	0.028842234	0.22261898	0.056325577	0.17232676	0.3555442	0.17232655	0.35554776	0.017548386	0.34002182	0.035491319	4.0398884	5.3740721	5.1400446	5.071579	5.1400435	5.0715815	4.2883734	6.1179423	5.2848559	2.7582086	3.3676103	5.1010605	3.3676058	5.1010742	3.763441	3.2320259	-73.041401	R0:S0:1	-53.863531	uncorrelated	51514b8	2022-04-18@11:59
2x2_2C_8b_C2v_L	7.6647278	0	14	3.0597414	-0.0025798693	-3.1640827	-3.7581107	-0.097832864	-3.7581069	-0.097832274	0.13573841	-3.3345168	9.8	-1.5992203e-05	4.3023745e-07	0.0095997401	-0.16289885	0.0095996094	-0.16289898	-1.6738497e-08	7.3857526e-08	-0.11028984	-1.0550449	1.6438703	0.0471122	-1.6438698	-0.047111885	0.22840396	-2.1662462	1.9581483	1	0.24624828	0.013451982	1.2594684	1.6225231	-0.57757193	-0.18657527	0.076379938	0.13316835	0.24441164	1.9424239	1.8132125	1.5762164	1.8132127	1.5762134	0.017318375	1.5697088	1.1094234	0.0001736504	1.6773449e-07	0.096848633	1.111334	0.096848224	1.1113422	-1.2933567e-06	-7.1144869e-07	1.1196636	0.72776748	-1.5218942	-0.56130179	1.521892	0.56129948	-0.2907544	2.4784997	0.028833324	0.22103603	0.056125543	0.17177653	0.35408838	0.17177635	0.35408992	0.017410137	0.33920658	0.035436436	4.0293376	5.3753326	5.1398277	5.0710972	5.1398278	5.0710982	4.2881558	6.1114125	5.284847	2.7584793	3.3696009	5.0934111	3.3695958	5.0934192	3.7633974	3.2358928	-73.090825	R0:S0:1	-53.922069	uncorrelated	51514b8	2022-04-18@12:08
2x2_2C_8b_C2v_L	7.6444961	0	14	3.0524241	-0.0030187158	-3.1676738	-3.7622032	-0.096974357	-3.7621999	-0.096973683	0.13477511	-3.3406814	9.8	-1.0873953e-05	8.7201213e-07	0.0096360777	-0.16216435	0.0096363346	-0.16216416	2.058946e-06	2.9756754e-06	-0.11015907	-1.0554669	1.6442986	0.047495356	-1.6442973	-0.047494238	0.22746619	-2.167085	1.9587448	1	0.24684483	0.013461268	1.2596939	1.6227995	-0.57676567	-0.18601827	0.076162969	0.13311149	0.24393207	1.942523	1.8137387	1.5760937	1.8137393	1.5760928	0.017250788	1.570877	1.1094694	0.00011991779	1.0888102e-06	0.096299674	1.1089572	0.096300232	1.1089688	-1.5720681e-05	-6.2684758e-06	1.1177513	0.72750229	-1.5200407	-0.56225587	1.5200356	0.56225047	-0.29000184	2.475864	0.028822949	0.2205973	0.056031952	0.17133737	0.35392862	0.17133686	0.35392841	0.017339801	0.33861112	0.035394134	4.0272925	5.374804	5.138434	5.074134	5.1384347	5.0741336	4.2878562	6.1066163	5.2855596	2.7590709	3.3696069	5.0925122	3.3695988	5.0925176	3.7633091	3.2385882	-73.121802	R0:S0:1	-53.980607	uncorrelated	51514b8	2022-04-18@12:16
2x2_2C_8b_C2v_L	7.6256489	0	14	3.0451069	-0.0033978084	-3.1751165	-3.7695247	-0.096491339	-3.7695153	-0.096490665	0.13380456	-3.3450705	9.8	-8.3848283e-06	1.6446373e-07	0.00966202	-0.16163482	0.0096626854	-0.16163446	3.0259884e-07	-1.1639061e-06	-0.11003942	-1.0564018	1.6453727	0.047803197	-1.6453686	-0.047801304	0.2264844	-2.1673804	1.9593414	1	0.24744138	0.013455601	1.2599571	1.6231168	-0.57583375	-0.18534859	0.075906204	0.1330546	0.24237686	1.9427212	1.8144054	1.5783261	1.8144068	1.5783214	0.017103714	1.5722996	1.1095506	9.314042e-05	2.1733291e-08	0.095735912	1.1048021	0.095734584	1.1048228	-2.3028234e-06	1.0111268e-06	1.1145849	0.72669502	-1.5178799	-0.56181697	1.5178698	0.56180627	-0.28891441	2.4725039	0.028812745	0.21945527	0.0558488	0.17079959	0.35250851	0.17079833	0.35251042	0.01719014	0.33789152	0.035341802	4.0192629	5.3755154	5.1379757	5.0741434	5.1379751	5.0741445	4.2872982	6.1009484	5.2854629	2.7595943	3.3713025	5.0858809	3.3712897	5.0858972	3.7635068	3.2421873	-73.171716	R0:S0:1	-54.039145	uncorrelated	51514b8	2022-04-18@12:24
2x2_2C_8b_C2v_L	7.605688	0	14	3.0377897	-0.0040871568	-3.1813173	-3.7754621	-0.095620934	-3.7754565	-0.095620284	0.13263331	-3.3507652	9.8	-4.4169658e-06	5.7661241e-07	0.0096856877	-0.16058904	0.009685848	-0.1605887	1.4776895e-06	2.7453693e-06	-0.10983566	-1.057314	1.6463875	0.048525075	-1.6463866	-0.048525322	0.2251143	-2.1683779	1.9599379	1	0.24803793	0.013484677	1.2601849	1.6234396	-0.57497265	-0.18481089	0.075691268	0.13301289	0.2417343	1.9428355	1.8149033	1.5786665	1.814903	1.5786675	0.016972542	1.5733005	1.1096058	5.0511702e-05	1.1285977e-06	0.09545958	1.1015625	0.095460211	1.1015615	-1.1535157e-05	-5.3438372e-06	1.1128278	0.72637132	-1.5161862	-0.56444747	1.5161863	0.56444969	-0.28757686	2.4702612	0.028805114	0.21888562	0.055740628	0.1703828	0.35182283	0.17038303	0.35182204	0.017055839	0.33737707	0.035304113	4.0166179	5.3751954	5.1365949	5.0782304	5.1365966	5.0782317	4.2868191	6.0968806	5.2858347	2.7599511	3.37121	5.08416	3.3712088	5.0841555	3.7633855	3.2444813	-73.215806	R0:S0:1	-54.097683	uncorrelated	51514b8	2022-04-18@12:37
2x2_2C_8b_C2v_L	7.5871531	0	14	3.0304724	-0.0040825547	-3.185949	-3.7799634	-0.095090909	-3.7799604	-0.095090358	0.13216408	-3.357858	9.8	1.0165704e-06	5.9197006e-07	0.0096374639	-0.16034432	0.0096371048	-0.16034475	5.5459833e-07	-2.3345928e-08	-0.10978366	-1.0577196	1.6466827	0.048355472	-1.6466826	-0.048353755	0.22480102	-2.1692073	1.9605345	1	0.24863448	0.013449909	1.2604627	1.6237286	-0.57404158	-0.18406827	0.07541318	0.13295144	0.23954228	1.9430625	1.8156034	1.5812455	1.8156037	1.5812432	0.016889792	1.5751511	1.1097055	-1.1349505e-05	-1.2338558e-06	0.094707564	1.097406	0.094708015	1.0974169	-2.9513058e-06	1.2602224e-07	1.1085482	0.72525924	-1.5138281	-0.56133027	1.5138253	0.56132073	-0.28719845	2.4661369	0.028794119	0.21723117	0.055532616	0.16982524	0.35059878	0.16982491	0.3506002	0.016971347	0.33643551	0.035243249	4.0049415	5.3766475	5.1367872	5.0757437	5.1367871	5.0757399	4.2868362	6.0893774	5.2859583	2.7603556	3.3737127	5.0757854	3.3737077	5.0757947	3.763355	3.2488275	-73.253019	R0:S0:1	-54.156221	uncorrelated	51514b8	2022-04-18@12:46
2x2_2C_8b_C2v_L	7.5660483	0	14	3.0231552	-0.0048679047	-3.1907092	-3.7846653	-0.093946292	-3.7846677	-0.0939449	0.13065387	-3.3623343	9.8	1.0977413e-05	-1.3091207e-07	0.0096645611	-0.15918149	0.0096646238	-0.15918117	2.3572048e-06	4.8023281e-06	-0.1095812	-1.0584055	1.6473883	0.049023462	-1.6473884	-0.049021664	0.22325594	-2.1697951	1.961131	1	0.24923103	0.013471903	1.2606596	1.6240054	-0.57328494	-0.18361606	0.075229852	0.13289452	0.24016659	1.9430922	1.8160477	1.5795932	1.816048	1.5795953	0.016810005	1.5758544	1.1097236	-0.00012623594	2.2812264e-06	0.094340146	1.0956979	0.094341814	1.095701	-1.542004e-05	-7.5476596e-06	1.1080232	0.72553232	-1.5122081	-0.56451634	1.5122064	0.56450841	-0.28597531	2.4643813	0.028783583	0.21759716	0.055500521	0.16943644	0.35099594	0.16943625	0.35099488	0.016888354	0.33606446	0.035209722	4.0091143	5.3747583	5.1343757	5.0824353	5.1343763	5.0824298	4.2860566	6.0864722	5.287033	2.7611832	3.3721949	5.0793923	3.3721937	5.0793901	3.7634165	3.2505007	-73.284612	R0:S0:1	-54.214759	uncorrelated	51514b8	2022-04-18@13:00
2x2_2C_8b_C2v_L	7.5481297	0	14	3.0158379	-0.0048763305	-3.1955134	-3.7895793	-0.093731648	-3.7895842	-0.093731529	0.13021794	-3.3683501	9.8	7.7281414e-06	-5.1725113e-08	0.009641911	-0.15899324	0.009642071	-0.15899289	2.2660979e-06	7.4107708e-06	-0.10951432	-1.058866	1.647833	0.048956337	-1.6478344	-0.048957034	0.22282239	-2.170361	1.9617276	1	0.24982759	0.013436954	1.2609544	1.6243221	-0.57229402	-0.18282642	0.074934175	0.13284344	0.23710954	1.9433676	1.8167505	1.5840358	1.8167499	1.5840424	0.016658312	1.5777815	1.1098481	-8.8239533e-05	3.7786787e-06	0.093690104	1.0900756	0.093692575	1.0900638	-1.7561443e-05	-1.1986079e-05	1.1030487	0.72404015	-1.5099185	-0.56119999	1.5099219	0.56120552	-0.28520788	2.4600825	0.028774619	0.21533837	0.055249172	0.16888893	0.34866505	0.16888949	0.3486608	0.016735295	0.33507992	0.035146592	3.9927208	5.3773057	5.1355098	5.07786	5.1355118	5.0778577	4.2860767	6.0787477	5.2862868	2.7612917	3.3758536	5.0664434	3.3758589	5.0664257	3.7633974	3.2551585	-73.323015	R0:S0:1	-54.273297	uncorrelated	51514b8	2022-04-18@13:09
2x2_2C_8b_C2v_L	7.5266727	0	14	3.0085207	-0.0055820488	-3.1976935	-3.7921327	-0.092821055	-3.7921395	-0.092820812	0.12913013	-3.3736608	9.8	5.268954e-06	-1.4286518e-07	0.0096973833	-0.15808862	0.0096975534	-0.15808873	7.3461365e-07	-2.0637822e-06	-0.10942551	-1.0590009	1.6479576	0.049587045	-1.6479588	-0.049585812	0.22168882	-2.171015	1.9623241	1	0.25042414	0.013459773	1.2611456	1.6245695	-0.57158674	-0.18237323	0.074753601	0.13278366	0.23769974	1.9433963	1.817167	1.5827762	1.8171673	1.5827754	0.016606975	1.5785818	1.1098609	-6.2557866e-05	-1.4242654e-06	0.093333102	1.0884459	0.093332638	1.0884487	-1.5267957e-06	3.4676754e-06	1.1027455	0.72420099	-1.5083383	-0.56397296	1.5083377	0.56396685	-0.2843595	2.4582055	0.028763599	0.21572763	0.055218788	0.1685282	0.34892138	0.16852794	0.34892232	0.016681606	0.33465732	0.035112991	3.9963279	5.3756413	5.1335215	5.0833454	5.13352	5.0833422	4.2856545	6.0753631	5.2869431	2.7620791	3.3747506	5.0688426	3.3747509	5.0688472	3.7633015	3.2569526	-73.342607	R0:S0:1	-54.331834	uncorrelated	51514b8	2022-04-18@13:18
2x2_2C_8b_C2v_L	7.5086372	0	14	3.0012034	-0.0058926441	-3.2057202	-3.8002705	-0.092273061	-3.8002737	-0.092271949	0.12830673	-3.3796403	9.8	1.6606863e-05	8.362047e-08	0.0096726789	-0.15757521	0.0096726255	-0.15757414	7.1542865e-06	8.2302098e-06	-0.10928218	-1.0600137	1.6492003	0.049687111	-1.6492008	-0.049685834	0.22085733	-2.1717605	1.9629207	1	0.25102069	0.013430672	1.2614306	1.6249109	-0.57057397	-0.18163386	0.074473534	0.13273032	0.23561386	1.943631	1.817898	1.5856717	1.8178975	1.5856821	0.016463012	1.5802734	1.1099681	-0.00019586292	3.5428703e-06	0.092660839	1.083555	0.092665135	1.0835419	-4.5275352e-05	-1.4951188e-05	1.0985505	0.72313377	-1.5059756	-0.56208256	1.5059783	0.5620806	-0.28336528	2.4543238	0.028754041	0.21418544	0.055002607	0.16794118	0.34725861	0.16794172	0.34725245	0.016535551	0.33378403	0.035054053	3.9851559	5.3770101	5.1335073	5.0819296	5.1335105	5.0819225	4.2852611	6.0685992	5.2869806	2.7624471	3.3770663	5.0601971	3.3770721	5.0601715	3.7634292	3.2610128	-73.400491	R0:S0:1	-54.390372	uncorrelated	51514b8	2022-04-18@13:27
2x2_2C_8b_C2v_L	7.4890655	0	14	2.9938862	-0.0066306181	-3.2150393	-3.8088814	-0.091580532	-3.8089022	-0.091583682	0.12688489	-3.3846213	9.8	-6.1491762e-05	5.4420512e-08	0.009769753	-0.15661838	0.0097694983	-0.15661952	1.5739053e-06	-1.1328422e-06	-0.10911164	-1.0614411	1.6507369	0.050486973	-1.6507388	-0.050496347	0.21936338	-2.172498	1.9635172	1	0.25161724	0.013445245	1.2616672	1.6252493	-0.56966528	-0.18106777	0.074249721	0.13268344	0.23498849	1.9437555	1.8184756	1.5865168	1.8184773	1.5865081	0.016305974	1.5813202	1.1100266	0.00075640373	1.1514303e-05	0.092220811	1.079801	0.09221543	1.0798277	-2.9398246e-05	-1.1269617e-05	1.0967883	0.7228523	-1.5040832	-0.56470493	1.5040685	0.56474529	-0.28185268	2.4518213	0.028745472	0.21368206	0.054885283	0.16745946	0.34622715	0.1674578	0.34622659	0.01637582	0.33323653	0.035013271	3.9824837	5.3766632	5.1321611	5.085671	5.1321597	5.0857068	4.2844923	6.0644032	5.2870497	2.7630101	3.3772805	5.0574726	3.3772519	5.0574931	3.7635523	3.2635186	-73.461511	R0:S0:1	-54.44891	uncorrelated	51514b8	2022-04-18@13:40
2x2_2C_8b_C2v_L	7.4692399	0	14	2.986569	-0.0067093934	-3.2167399	-3.8103781	-0.090781388	-3.8103824	-0.090780584	0.12637117	-3.3911134	9.8	-4.3007937e-05	5.3504529e-06	0.0096479767	-0.15617305	0.009650901	-0.15617407	3.9687686e-06	-5.269963e-06	-0.10903198	-1.0614091	1.6504417	0.050311442	-1.6504421	-0.050318741	0.21893276	-2.1731924	1.9641138	1	0.25221379	0.013416467	1.2619105	1.6254965	-0.56884661	-0.18042209	0.074006343	0.13261917	0.23365119	1.9439069	1.8190343	1.5875479	1.8190353	1.5875371	0.016260941	1.582848	1.110098	0.00052980831	-4.5426362e-06	0.091681191	1.0767348	0.091672929	1.0767563	-3.3043575e-05	4.7478168e-07	1.0934877	0.72216259	-1.5020685	-0.56238502	1.5020591	0.56241397	-0.28153019	2.4483655	0.028733867	0.21261405	0.054745299	0.16700482	0.34581334	0.16700384	0.34581689	0.016329171	0.33243741	0.034959567	3.9755396	5.3770871	5.1317858	5.0852828	5.1317848	5.0853115	4.2844514	6.0581169	5.2876166	2.7635529	3.3785943	5.0530605	3.3785726	5.0530799	3.7634977	3.2670311	-73.477428	R0:S0:1	-54.507448	uncorrelated	51514b8	2022-04-18@13:49
2x2_2C_8b_C2v_L	7.4494439	0	14	2.9792517	-0.0074104333	-3.2235381	-3.8170284	-0.090200353	-3.8170072	-0.090196335	0.12534126	-3.3957312	9.8	-2.039279e-06	3.2785617e-06	0.0097010917	-0.15543652	0.0097003505	-0.1554365	2.2826974e-06	1.0980762e-06	-0.10894842	-1.0622683	1.6514141	0.050838896	-1.6514112	-0.050837587	0.21781521	-2.1736264	1.9647103	1	0.25281034	0.013413333	1.2621454	1.6257984	-0.56797868	-0.17983965	0.073779508	0.13256057	0.23328438	1.9440203	1.8196253	1.5886588	1.819625	1.588654	0.016147671	1.5839913	1.1101522	2.6886715e-05	-5.1024142e-06	0.091211641	1.0731532	0.091212113	1.0731653	-1.4117282e-05	-1.4937059e-06	1.0918369	0.72188553	-1.5000538	-0.56347082	1.5000518	0.56346247	-0.28044944	2.4455967	0.028723182	0.21240236	0.054638719	0.16651546	0.34478023	0.16651561	0.34478388	0.016214038	0.33183592	0.034914459	3.9735317	5.3766138	5.1307258	5.0877046	5.1307284	5.087704	4.2838155	6.0535133	5.2876151	2.7643363	3.3791349	5.0496167	3.3791275	5.0496251	3.7636806	3.2698259	-73.523624	R0:S0:1	-54.565986	uncorrelated	51514b8	2022-04-18@13:58
2x2_2C_8b_C2v_L	7.429542	0	14	2.9719345	-0.0077105788	-3.2254579	-3.8190863	-0.089298749	-3.8190679	-0.08929596	0.12435336	-3.402075	9.8	7.8391128e-06	1.2678593e-06	0.0096452756	-0.15466529	0.0096444583	-0.15466408	2.0542956e-07	-4.9876622e-06	-0.10878693	-1.0624554	1.6514042	0.050984029	-1.6514007	-0.050980053	0.21689323	-2.1745081	1.9653069	1	0.2534069	0.013393236	1.2623826	1.6260742	-0.56714167	-0.17923425	0.073547004	0.13250825	0.23207379	1.9441469	1.820134	1.5895056	1.8201336	1.5895028	0.016063693	1.5853218	1.1102245	-0.00010158972	-7.5464942e-06	0.090700033	1.0696869	0.090700786	1.0696867	6.496384e-06	1.0242165e-05	1.0889384	0.72134418	-1.4982168	-0.56291258	1.4982189	0.56289598	-0.27960958	2.4426194	0.028713686	0.2113921	0.054520872	0.16609661	0.3442213	0.16609697	0.3442254	0.016128168	0.33113243	0.034866193	3.9675818	5.3768806	5.1301288	5.0890469	5.1301295	5.0890405	4.283643	6.0480425	5.288093	2.7647132	3.3799388	5.0460231	3.3799422	5.0460273	3.7635507	3.2728276	-73.54247	R0:S0:1	-54.624524	uncorrelated	51514b8	2022-04-18@14:07
2x2_2C_8b_C2v_L	7.4103184	0	14	2.9646172	-0.0086868321	-3.2348213	-3.8279209	-0.08865604	-3.8279297	-0.088660527	0.12300587	-3.4069354	9.8	-1.5062161e-05	-4.3188175e-06	0.0097085464	-0.15364865	0.0097084513	-0.15365016	-8.285403e-07	-1.9131311e-07	-0.10861662	-1.0637575	1.6530064	0.05175977	-1.6530085	-0.051761972	0.21533004	-2.1752372	1.9659034	1	0.25400345	0.013396495	1.2626279	1.6264285	-0.56619194	-0.17864606	0.073315996	0.13246153	0.23161706	1.9442806	1.8207353	1.5909581	1.8207361	1.5909555	0.015897747	1.5864078	1.1102921	0.00020122514	1.3269909e-05	0.090322536	1.0652775	0.090320989	1.0652941	-4.2657574e-06	-6.3324062e-06	1.0872048	0.72098266	-1.4962314	-0.56513425	1.4962249	0.56514373	-0.27797458	2.4400202	0.028705129	0.21113163	0.054394871	0.16559734	0.34279063	0.1655966	0.34278957	0.015960193	0.3305572	0.034822686	3.9650288	5.3765781	5.1290245	5.0923329	5.1290243	5.0923413	4.2828571	6.0437194	5.28805	2.7653017	3.3804043	5.0419935	3.3803909	5.0420059	3.7636837	3.2754421	-73.604416	R0:S0:1	-54.683062	uncorrelated	51514b8	2022-04-18@14:21
2x2_2C_8b_C2v_L	7.3908911	0	14	2.9573	-0.008457219	-3.2367479	-3.829839	-0.087946596	-3.8298441	-0.087948916	0.12235108	-3.4134287	9.8	-1.8118121e-05	4.7065463e-06	0.0095908213	-0.15341808	0.0095931173	-0.15341798	1.2696255e-06	-1.1790742e-06	-0.10855858	-1.0637743	1.6527727	0.051352094	-1.6527728	-0.051362027	0.21501237	-2.1758479	1.9665	1	0.2546	0.01335104	1.262884	1.6266766	-0.56534414	-0.17794754	0.073057196	0.13239907	0.22948419	1.9444752	1.8213208	1.5926756	1.8213202	1.5926792	0.015835591	1.5881026	1.1103799	0.00023806395	-5.7396277e-06	0.08962026	1.0619126	0.089616325	1.0618903	-1.4695573e-05	-1.536464e-06	1.0829288	0.71998943	-1.4941819	-0.56131046	1.494185	0.56135615	-0.27766487	2.4361796	0.028693951	0.20940521	0.054216118	0.16512693	0.34219929	0.16512749	0.34219448	0.015896587	0.32966036	0.034764843	3.95412	5.3778046	5.1292137	5.0898791	5.1292147	5.0899045	4.2828734	6.0367716	5.28843	2.7656615	3.3825112	5.0354993	3.3825141	5.0354763	3.763658	3.2793426	-73.622865	R0:S0:1	-54.7416	uncorrelated	51514b8	2022-04-18@14:30
