model	D	U	e	eb1_1	eb2_1	eb3_1	eb4_1	eb5_1	eb6_1	eb7_1	eb8_1	mu	sb1_1	sb2_1	sb3_1	sb4_1	sb5_1	sb6_1	sb7_1	sb8_1	tb1_1	tb2_1	tb3_1	tb4_1	tb5_1	tb6_1	tb7_1	tb8_1	tpd	tpp	tppp	ave_D_1	ave_U_1	ave_eb1_1	ave_eb2_1	ave_eb3_1	ave_eb4_1	ave_eb5_1	ave_eb6_1	ave_eb7_1	ave_eb8_1	ave_mu_1	ave_sb1_1	ave_sb2_1	ave_sb3_1	ave_sb4_1	ave_sb5_1	ave_sb6_1	ave_sb7_1	ave_sb8_1	ave_tb1_1	ave_tb2_1	ave_tb3_1	ave_tb4_1	ave_tb5_1	ave_tb6_1	ave_tb7_1	ave_tb8_1	var_D_1	var_U_1	var_eb1_1	var_eb2_1	var_eb3_1	var_eb4_1	var_eb5_1	var_eb6_1	var_eb7_1	var_eb8_1	var_mu_1	var_sb1_1	var_sb2_1	var_sb3_1	var_sb4_1	var_sb5_1	var_sb6_1	var_sb7_1	var_sb8_1	var_tb1_1	var_tb2_1	var_tb3_1	var_tb4_1	var_tb5_1	var_tb6_1	var_tb7_1	var_tb8_1	E0_1	sector_1	E0_2	sector_2	githash	distance	diff_param	diff_hybrid	time
2x2_2C_8b_C2v_L	0.1	14	1.87	0.0086839677	-3.1445289	-3.9164807	-0.13437878	-3.9164407	-0.13437791	0.17455273	-3.5797676	9.5	2.7540906e-05	-4.0887161e-07	0.0069035686	-0.19307525	0.0069033966	-0.1930765	-1.0933969e-05	2.552128e-06	-0.11908613	-1.0874005	1.7341014	0.025163995	-1.7340927	-0.025176042	0.26343251	-2.2991102	1.29	0.674	0.184	-0.043147346	0.13185934	0.13421925	1.9448554	1.7869546	1.7424987	1.7869547	1.7424904	0.014822092	1.5535603	1.1008188	-0.00021138519	4.8997281e-06	-0.089139665	1.0540974	-0.08914898	1.0541112	5.4070961e-05	1.7094806e-06	1.1156655	0.68220327	-1.63106	-0.23423063	1.6310533	0.23426454	-0.29478323	2.5541081	0.49216735	0.028620018	0.12477011	0.054151931	0.19480515	0.24591229	0.19480509	0.24591848	0.015064876	0.34634959	0.037277038	3.4589435	5.5445757	5.2979213	4.7343742	5.2979243	4.7343959	4.3935201	6.1467328	5.1373309	2.6768226	3.517	4.9129945	3.5169883	4.9129967	3.6850728	3.1699116	-73.504326	R0:S0:1	-61.04	uncorrelated	51514b8	 2.26e+01	 7.67e-01	 1.00e+06	2022-04-08@19:18
2x2_2C_8b_C2v_L	0.1	14	1.87	0.06751918	-4.9655093	-5.7196738	-0.031505583	-5.7196335	-0.030753581	0.020731432	-5.2586856	9.5	-0.033679198	0.00014019061	0.0041294458	-0.0044075013	0.004102066	-0.0043901103	-0.058479566	2.4877277e-06	0.0006706508	-0.78751301	1.1999524	0.04778647	-1.2000211	-0.047688474	0.00018374176	-1.5085791	1.29	0.674	0.184	-0.047430976	0.052350554	0.00013932935	1.9795088	1.9524893	1.9996186	1.9524812	1.9996199	0.00058121427	1.9099616	1.0518404	0.043683167	-0.00011888788	-0.049207175	0.0020380301	-0.049196097	0.0020039973	0.097084245	2.6082559e-06	-0.0012538239	0.53111457	-0.85033657	-0.071670949	0.8504237	0.071540746	-0.00015447629	1.2168827	0.70396934	0.012501485	0.00013941904	0.020425975	0.046966379	0.00038753151	0.046974312	0.00038659042	0.00058783738	0.08745071	0.012489671	3.4424264	4.7059415	4.5449972	4.1942632	4.5449362	4.1941102	4.1125442	4.5601995	4.558796	3.4741259	3.8204071	3.8086515	3.8205145	3.8087918	3.8911924	4.0180333	-83.69931	R0:S0:1	-61.04	uncorrelated	51514b8	 1.05e+00	 2.19e-01	 1.70e+00	2022-04-08@19:22
2x2_2C_8b_C2v_L	0.1	14	1.87	0.072680203	-5.628084	-6.2622586	-0.036594164	-6.2622656	-0.035736742	0.048521485	-5.586685	9.5	0.00011569188	9.0858839e-07	0.0020354621	0.00022451683	0.0020361174	0.00025741421	0.003258262	-1.8408561e-05	-2.4112481e-07	-0.82622431	1.247568	6.3828371e-05	-1.2475682	-0.00061376316	2.0224322e-05	-1.5488308	1.29	0.674	0.184	-0.046936085	0.051099179	1.6255773e-09	1.9801501	1.9535171	2	1.9535175	1.9999999	1.7565393e-06	1.91093	1.0505838	-0.00014960102	-5.0131455e-06	-0.046389247	-0.00029591493	-0.04639002	-0.00039016635	-0.0053763197	1.4164901e-05	3.9808098e-07	0.52290973	-0.84173938	-0.00011712735	0.84173321	0.00094767059	-1.9420643e-05	1.2113967	0.70531416	0.012218718	1.6255773e-09	0.019788073	0.045960963	7.8056113e-09	0.045960541	6.9022032e-08	1.7565598e-06	0.086537449	0.012202613	3.4443028	4.6993659	4.5328372	4.1867702	4.5328527	4.1867903	4.1199151	4.5473905	4.5556972	3.4751884	3.825282	3.8132298	3.8252651	3.8132102	3.8800962	4.0252749	-87.9199	R0:S0:1	-61.04	uncorrelated	51514b8	 1.00e+00	 1.00e-04	 3.42e-02	2022-04-08@19:25
2x2_2C_8b_C2v_L	0.1	14	1.87	0.072680203	-5.628292	-6.2623266	-0.036594164	-6.2623337	-0.035736748	0.048521682	-5.5868598	10	0.00010609904	6.5468318e-08	0.0020291499	0.00022229148	0.0020281727	0.00025512687	0.0031944151	1.0088308e-06	-2.2502443e-07	-0.82593375	1.2473977	6.3433918e-05	-1.2473977	-0.00060870161	2.0006661e-05	-1.5487326	1.29	0.674	0.184	-0.048528264	0.055700613	1.6213252e-09	1.9786055	1.9495679	2	1.949568	1.9999999	2.0609646e-06	1.9023612	1.055163	-0.00014856937	2.0631924e-07	-0.048632251	-0.00028055127	-0.048631641	-0.0003761044	-0.0058231965	-7.4902798e-07	3.5939383e-07	0.5398102	-0.87485	-0.00012731881	0.87484958	0.00103251	-1.8240878e-05	1.2680882	0.70175764	0.013264348	1.6213252e-09	0.021326065	0.049819184	7.2038375e-09	0.049819127	7.9286683e-08	2.0609842e-06	0.09455011	0.013236558	3.4054766	4.7480952	4.5765308	4.2031544	4.5765297	4.2031543	4.1182223	4.6078016	4.5945234	3.4409855	3.8112026	3.7968456	3.8112033	3.7968463	3.8817908	4.0089517	-90.025993	R0:S0:1	-65.04	uncorrelated	51514b8	 1.26e+00	 1.35e-01	 1.00e+06	2022-04-08@19:28
2x2_2C_8b_C2v_L	0.1	14	1.87	0.072681142	-5.8090565	-6.4946439	-0.036598743	-6.4946665	-0.035739984	0.05401625	-6.1291624	10	-0.0014043675	-9.9169111e-09	0.0021409246	4.2063732e-05	0.0021347068	1.0775841e-05	0.008481893	5.8715064e-05	3.3233755e-06	-0.80948558	1.2244483	2.0429868e-05	-1.2244481	-0.00021919314	5.4020085e-05	-1.5549256	1.29	0.674	0.184	-0.048556408	0.051527786	2.9103568e-07	1.9798084	1.9530101	2	1.9530091	2	1.4657572e-05	1.9109162	1.0510227	0.0020009156	1.2976576e-05	-0.04664926	-5.1690497e-05	-0.046644868	-3.446757e-05	-0.015537587	-4.2310376e-05	-5.044764e-06	0.52713952	-0.84601099	-3.8293869e-05	0.84602591	0.00036724201	-4.872722e-05	1.211807	0.70469267	0.012329536	2.9103593e-07	0.020128031	0.046456028	1.7243806e-10	0.046456935	8.7804857e-09	1.4658414e-05	0.086544944	0.012303645	3.4409193	4.7050826	4.5391353	4.1895584	4.5390885	4.1895018	4.1217656	4.5458705	4.5590832	3.4725321	3.8228464	3.8104416	3.8228948	3.8104983	3.8783283	4.0265423	-92.283962	R0:S0:1	-65.04	uncorrelated	51514b8	 1.25e+00	 7.47e-03	 5.96e-02	2022-04-08@19:31
2x2_2C_8b_C2v_L	0.1	14	1.87	0.072725738	-5.8286177	-6.513941	-0.036598743	-6.5139631	-0.035739748	0.054522989	-6.1295663	10	-0.001542598	-8.2096038e-07	0.0021260726	-4.8283363e-05	0.0021213852	-1.3565384e-05	-0.0058095532	6.4554663e-05	-3.7527074e-07	-0.81032629	1.2260922	-2.2089424e-05	-1.2260933	0.0002326539	-2.0214891e-05	-1.5547839	1.29	0.674	0.184	-0.048550897	0.051491899	3.5118692e-07	1.9798391	1.9530509	2	1.9530496	2	6.8746437e-06	1.9109387	1.0509872	0.002198077	1.4844127e-05	-0.046607856	5.9147851e-05	-0.046604151	3.9068277e-05	0.010641112	-4.676264e-05	4.6326134e-07	0.52675861	-0.8456624	4.1676749e-05	0.84568122	-0.0003899788	1.8285655e-05	1.2116531	0.70473019	0.012321483	3.5118729e-07	0.020097533	0.046416127	4.0267611e-10	0.046417332	1.0076745e-08	6.8748249e-06	0.08652388	0.012295632	3.441171	4.7046214	4.5386979	4.1894015	4.5386439	4.1893349	4.1217649	4.545725	4.5588321	3.4727226	3.8229812	3.8105985	3.823038	3.8106652	3.8782792	4.0265805	-92.401853	R0:S0:1	-65.04	uncorrelated	51514b8	 1.25e+00	 0.00e+00	 4.12e-04	2022-04-08@19:34
2x2_2C_8b_C2v_L	0.1	14	1.87	0.072771273	-6.0289434	-6.7655553	-0.036603322	-6.7655925	-0.035742748	0.060524296	-6.6722728	10.5	-0.003191295	-1.7073891e-06	0.0022229952	-0.0003188582	0.0022145976	-0.00028225764	-0.014813521	0.0001281005	-5.2551705e-07	-0.79471883	1.2047867	-0.00010761277	-1.2047889	0.0010740094	-6.0436443e-05	-1.5608351	1.29	0.674	0.184	-0.051165068	0.051950389	1.8656472e-06	1.9794934	1.952548	2	1.9525452	1.9999997	5.6398162e-05	1.9109323	1.0514522	0.0050639806	2.9191705e-05	-0.048089913	0.00035972692	-0.048083892	0.00042643417	0.030487139	-9.0246579e-05	2.5587763e-07	0.53099652	-0.84984766	0.00023720728	0.84988807	-0.0020479517	5.180328e-05	1.2119853	0.70400261	0.012444974	1.8656552e-06	0.020441522	0.046907491	1.3686329e-08	0.046910138	2.8549473e-07	5.6405393e-05	0.086525959	0.012411186	3.4377452	4.710413	4.5449849	4.1923317	4.544873	4.192195	4.1234961	4.5442209	4.5622714	3.4700463	3.8204586	3.8076684	3.8205768	3.8078072	3.8768632	4.0278307	-96.883841	R0:S0:1	-69.04	uncorrelated	51514b8	 1.85e+00	 2.98e-03	 1.00e+06	2022-04-08@19:37
2x2_2C_8b_C2v_L	0.1	14	1.87	0.072777413	-6.0318609	-6.7692425	-0.036603454	-6.7692807	-0.035742396	0.061164573	-6.6713581	10.5	0.0015852399	-8.6398411e-07	0.0021794881	-9.1840934e-06	0.0021789067	-1.4693994e-05	-0.0032354076	6.1595676e-05	1.8459174e-07	-0.79640922	1.2074166	1.9526703e-05	-1.2074207	-0.00022673124	-6.9838398e-06	-1.5599564	1.29	0.674	0.184	-0.051129535	0.052001789	4.6066215e-07	1.9794073	1.9523989	2	1.9523975	2	2.6880764e-06	1.9110407	1.0515061	-0.0025168088	1.3986899e-05	-0.048109569	7.8578811e-06	-0.04810837	-8.9479892e-06	0.0066557045	-4.3383348e-05	-1.5776378e-07	0.53220349	-0.85112134	-3.5621443e-05	0.85114204	0.00042383819	5.9773398e-06	1.2111135	0.70385429	0.012456196	4.6066264e-07	0.020526851	0.047052983	0	0.047054371	1.1835612e-08	2.6880926e-06	0.086425282	0.01242292	3.4389621	4.7098292	4.5465484	4.1928836	4.5464936	4.1928149	4.1226371	4.5443212	4.561042	3.4713081	3.8199482	3.8071164	3.8200067	3.8071852	3.8773801	4.0273876	-96.906351	R0:S0:1	-69.04	uncorrelated	51514b8	 1.85e+00	 0.00e+00	 2.11e-03	2022-04-08@19:40
2x2_2C_8b_C2v_L	0.1	14	1.87	0.072835228	-6.2380215	-7.0282313	-0.036608297	-7.0282864	-0.035744691	0.068446434	-7.2122351	11	0.0094896128	-6.3602889e-08	0.0021893966	0.00033958929	0.0022007372	0.00025174104	0.010916852	-7.8681301e-06	1.454563e-06	-0.78418254	1.1913708	0.0001882823	-1.1913799	-0.001986857	5.9699815e-05	-1.5642502	1.29	0.674	0.184	-0.05492439	0.052657959	2.1069667e-05	1.9788592	1.951563	2	1.9515621	1.9999988	3.9756588e-05	1.9112519	1.0521708	-0.017017658	1.0767791e-07	-0.051057195	-0.00036989819	-0.051062178	-0.00051249406	-0.025596964	3.12197e-06	-1.6142838e-06	0.53912969	-0.85804883	-0.00044652862	0.85806035	0.0042832952	-4.7771603e-05	1.2096714	0.70264149	0.012632725	2.107047e-05	0.021071759	0.04786968	2.2963356e-08	0.047870547	1.2196053e-06	3.975866e-05	0.086226067	0.012593806	3.4375354	4.7151332	4.5564952	4.1973757	4.5564717	4.1973536	4.1224539	4.5430804	4.5626517	3.4707651	3.8160533	3.8026245	3.8160791	3.8026559	3.8777984	4.0276678	-101.43429	R0:S0:1	-73.04	uncorrelated	51514b8	 2.95e+00	 2.27e-03	 1.00e+06	2022-04-08@19:44
2x2_2C_8b_C2v_L	0.1	14	1.87	0.072918785	-6.2394793	-7.0303695	-0.03660847	-7.0304265	-0.035743337	0.068557599	-7.2112627	11	-0.0008365662	-3.6391833e-07	0.0023052866	0.00012497757	0.0023075076	0.00010398494	0.0097766215	-5.3555896e-06	-6.4811236e-08	-0.78454195	1.1913713	3.6002423e-05	-1.1913828	-0.00032690129	5.7181476e-05	-1.5641042	1.29	0.674	0.184	-0.054953138	0.052645161	1.6373799e-07	1.9788449	1.9515803	2	1.9515795	2	3.1881336e-05	1.9112539	1.0521581	0.0015002562	2.1708127e-07	-0.051138842	-0.00013171506	-0.051140127	-0.00014792817	-0.022922229	2.1040287e-06	6.9164373e-08	0.5393219	-0.85790447	-9.3135864e-05	0.85791382	0.00071283987	-4.5682763e-05	1.2096489	0.70265437	0.012630004	1.6373804e-07	0.021085954	0.047852801	1.8300064e-09	0.047853582	3.4538406e-08	3.1882669e-05	0.086224297	0.012591167	3.4376213	4.715115	4.5562972	4.1973015	4.5562847	4.1972826	4.1224016	4.543126	4.5623802	3.4709073	3.816117	3.8026985	3.8161332	3.8027176	3.8778008	4.0276334	-101.44358	R0:S0:1	-73.04	uncorrelated	51514b8	 2.95e+00	 0.00e+00	 4.26e-04	2022-04-08@19:47
2x2_2C_8b_C2v_L	0.1	14	1.87	0.073149855	-6.451473	-7.297322	-0.03661379	-7.2974005	-0.035742571	0.076702068	-7.7492803	11.5	-0.0088080164	6.7923698e-07	0.002503468	0.00035420162	0.0025071881	0.00034247141	0.033226534	-0.00013629913	-1.1234797e-06	-0.77472447	1.1779563	2.7337736e-05	-1.1779796	-6.7856245e-05	0.00017228106	-1.5672272	1.29	0.674	0.184	-0.06051167	0.053561929	2.3961576e-05	1.97815	1.9505865	2	1.9505872	2	0.00049717168	1.9115899	1.0530829	0.018143535	-2.5532386e-05	-0.056133068	-0.00034705677	-0.056135603	-0.00034231898	-0.090487522	8.7686653e-05	9.9994616e-07	0.54795216	-0.86601237	-0.00012509365	0.86599737	0.00022398784	-0.00013098171	1.2071596	0.70103828	0.012880941	2.3962412e-05	0.021776617	0.048823651	1.4562094e-08	0.048823018	1.6126161e-08	0.0004973478	0.085908479	0.012837941	3.435668	4.7219808	4.5682061	4.202937	4.5682756	4.2030158	4.1204882	4.5419789	4.5645455	3.470088	3.8112765	3.7970631	3.8112099	3.7969843	3.8826491	4.0269994	-106.01503	R0:S0:1	-77.04	uncorrelated	51514b8	 4.87e+00	 5.59e-03	 1.00e+06	2022-04-08@19:51
2x2_2C_8b_C2v_L	0.1	14	1.87	0.073187399	-6.4532598	-7.3000556	-0.036614016	-7.300135	-0.035742797	0.079406199	-7.747913	11.5	-0.00035055205	4.8582451e-07	0.0025675095	0.00010017398	0.0025672501	9.6616226e-05	0.0077512769	1.2499124e-05	-1.9416196e-07	-0.77380541	1.1775211	6.6741659e-06	-1.1775278	-1.1273689e-05	6.8498508e-05	-1.5674863	1.29	0.674	0.184	-0.060531628	0.05341937	3.7983499e-08	1.9781985	1.9506424	2	1.9506422	2	2.7013237e-05	1.91151	1.0529404	0.00072251905	2.9435216e-06	-0.05614885	-9.6773075e-05	-0.056148605	-9.4123131e-05	-0.021099183	-9.0136526e-06	2.1367568e-07	0.54743849	-0.86554201	-3.2670182e-05	0.86554592	4.3551047e-05	-5.1999917e-05	1.2078009	0.70107973	0.012849133	3.7983502e-08	0.021728348	0.048769106	7.3064932e-10	0.048769302	7.394636e-10	2.7013737e-05	0.085984416	0.012806065	3.4368146	4.7204813	4.5676455	4.2027704	4.56763	4.2027524	4.1216329	4.5422115	4.5631858	3.4711453	3.8114158	3.7972296	3.8114311	3.7972476	3.8785377	4.0276253	-106.02416	R0:S0:1	-77.04	uncorrelated	51514b8	 4.88e+00	 0.00e+00	 4.55e-03	2022-04-08@19:54
2x2_2C_8b_C2v_L	0.1	14	1.87	0.073583256	-6.6732024	-7.5783007	-0.036620093	-7.5784064	-0.035740776	0.093710373	-8.2813087	12	0.0030432824	1.6852444e-06	0.0029661568	-8.3594865e-05	0.0029581342	-3.6800122e-05	-0.0093114412	0.00011515982	-2.0346042e-07	-0.76419961	1.165866	-6.8458068e-05	-1.1658558	0.00072015157	2.6967255e-05	-1.5701027	1.29	0.674	0.184	-0.068790818	0.054407339	3.9577169e-06	1.9774627	1.9495864	2	1.9495864	1.9999997	5.5228275e-05	1.9118093	1.0539363	-0.0073746091	2.5098955e-05	-0.064017518	9.0412526e-05	-0.064013307	0.00018766523	0.030165389	-7.8405005e-05	6.2827209e-07	0.55654704	-0.87393185	0.00022120873	0.87394137	-0.0021474167	-1.8700665e-05	1.2055819	0.69892685	0.013146258	3.9577357e-06	0.022459417	0.049800883	3.6449856e-09	0.049800868	3.0732536e-07	5.5229037e-05	0.085705149	0.013100035	3.4361468	4.7263718	4.5809168	4.2098056	4.5808411	4.2097272	4.1203495	4.5415003	4.5638887	3.471664	3.8054431	3.7901944	3.8055108	3.7902752	3.8799973	4.0274214	-110.64863	R0:S0:1	-81.04	uncorrelated	51514b8	 8.30e+00	 2.17e-03	 1.00e+06	2022-04-08@19:58
2x2_2C_8b_C2v_L	0.1	14	1.87	0.073589044	-6.6756697	-7.5823527	-0.036620093	-7.5824578	-0.035739742	0.093795313	-8.2780928	12	-0.0025817787	-1.7679045e-06	0.0029332361	2.2806458e-05	0.0029290354	-1.7090879e-05	-0.014664087	-7.6786907e-05	-2.6348537e-07	-0.7652049	1.1660219	5.2181262e-05	-1.1660239	-0.00058939791	6.8134554e-05	-1.5694228	1.29	0.674	0.184	-0.068783909	0.054415659	2.8489092e-06	1.9774127	1.9496098	2	1.9496131	1.9999998	0.0001369211	1.9118506	1.0539458	0.0062570871	-1.9324716e-05	-0.063978213	-3.1878288e-05	-0.063975389	-0.00011083713	0.04749208	5.6048488e-05	6.5348625e-07	0.55718417	-0.87375284	-0.00015986464	0.87371189	0.0017473332	-5.0464659e-05	1.2052112	0.69894749	0.013148009	2.848919e-06	0.022508982	0.049778007	1.7041737e-09	0.049774804	2.0339189e-07	0.00013692581	0.085666737	0.013102013	3.436396	4.7264782	4.5805671	4.2096114	4.5806418	4.2097164	4.1196519	4.5417152	4.5636295	3.4719648	3.8056028	3.7903886	3.8055154	3.7902851	3.881208	4.0269967	-110.66338	R0:S0:1	-81.04	uncorrelated	51514b8	 8.30e+00	 0.00e+00	 5.84e-04	2022-04-08@20:02
2x2_2C_8b_C2v_L	0.1	14	1.87	0.07412372	-6.9067089	-7.877261	-0.036626701	-7.8773947	-0.035734172	0.11172494	-8.8018024	12.5	-0.0075302463	-7.1251053e-06	0.0034024664	-0.00010712499	0.0033928633	-0.00023713638	-0.057469469	-0.00027321368	-2.7278148e-07	-0.75874042	1.1568738	0.00017252371	-1.156871	-0.002061274	5.6089614e-05	-1.5699137	1.29	0.674	0.184	-0.081638296	0.056466749	3.5469389e-05	1.9765616	1.9484963	2	1.9485062	1.9999962	0.0031891004	1.9123334	1.0560015	0.022045796	-7.6436662e-05	-0.076532745	4.3363868e-05	-0.076522883	-0.00043906331	0.22899067	0.00020869715	5.0490118e-06	0.56676103	-0.88224924	-0.00060182799	0.88212544	0.0075239674	-6.2740246e-05	1.2013408	0.69585158	0.013748164	3.547066e-05	0.023355468	0.050867168	2.6016522e-08	0.05085769	3.8036898e-06	0.0031888207	0.085208916	0.013699816	3.426472	4.7422967	4.5957958	4.2189919	4.5960398	4.219341	4.1121028	4.5405839	4.5738483	3.4640185	3.7978756	3.7810083	3.7975949	3.7806891	3.9076456	4.0235595	-115.36748	R0:S0:1	-85.04	uncorrelated	51514b8	 1.48e+01	 1.58e-02	 1.00e+06	2022-04-08@20:06
2x2_2C_8b_C2v_L	0.1	14	1.87	0.074136552	-6.9081542	-7.8794371	-0.036626649	-7.8795707	-0.035729984	0.12691662	-8.8001174	12.5	-0.0012773726	2.2354804e-06	0.0034015345	-4.5818036e-05	0.0034014736	-3.6749017e-05	0.018016225	-9.6112925e-05	-5.0686494e-07	-0.75705008	1.1564725	3.3052457e-05	-1.1564805	-0.00042337615	-0.00035960456	-1.570299	1.29	0.674	0.184	-0.081603228	0.055742877	1.0268891e-06	1.9765915	1.9485509	2	1.9485553	1.9999998	0.00030953109	1.9121679	1.0552815	0.0037560228	-3.6817523e-05	-0.0764383	2.9577336e-05	-0.076435695	-0.0001010501	-0.071392609	8.2593516e-05	1.105881e-06	0.56713372	-0.88179858	-0.00010743495	0.88174307	0.0015495092	0.00025323015	1.2027978	0.69583414	0.013585271	1.0268902e-06	0.02332491	0.050813553	9.3494545e-10	0.050809344	1.6121788e-07	0.00030952675	0.08537167	0.013537128	3.4352903	4.7334447	4.5952259	4.2188737	4.5953387	4.2190266	4.1177386	4.5413798	4.5647189	3.4722744	3.797887	3.7811263	3.7977593	3.7809746	3.8841892	4.0266015	-115.36836	R0:S0:1	-85.04	uncorrelated	51514b8	 1.48e+01	 0.00e+00	 1.09e-02	2022-04-08@20:10
2x2_2C_8b_C2v_L	0.1	14	1.87	0.074829922	-7.1507134	-8.1913088	-0.036633684	-8.1914738	-0.035713522	0.17877013	-9.3139865	13	0.0035626664	1.2495979e-05	0.0039724046	-0.00010569951	0.0039845647	3.7641812e-05	0.10579221	-4.5478928e-05	-9.2430066e-07	-0.74934096	1.1488727	-5.0712247e-05	-1.1488976	0.00048679159	-0.0012147188	-1.5701149	1.29	0.674	0.184	-0.10384914	0.061793102	1.2427082e-05	1.9762324	1.9475067	2	1.9475242	1.9999996	0.017094349	1.9128181	1.0613121	-0.012957683	-0.00022015597	-0.098408114	0.00013654615	-0.098399244	0.00023077826	-0.52947417	0.00027832292	-2.2112105e-05	0.56673717	-0.88892205	0.00030519843	0.88868518	-0.0023496057	0.0012466726	1.1969406	0.6907391	0.015249562	1.2427218e-05	0.023688252	0.0518406	1.1023035e-08	0.051823951	3.7610885e-07	0.01701161	0.084721335	0.015197844	3.3786758	4.7913341	4.6137986	4.2337088	4.6143823	4.2344579	4.0850364	4.5369474	4.621439	3.4204185	3.7864674	3.7662912	3.7858411	3.7655451	4.0169561	4.0117841	-120.16728	R0:S0:1	-89.04	uncorrelated	51514b8	 2.90e+01	 2.82e-02	 1.00e+06	2022-04-08@20:14
2x2_2C_8b_C2v_L	0.1	14	1.87	0.074824524	-7.1521245	-8.1934745	-0.036633608	-8.1936419	-0.035713433	0.20878013	-9.3106613	13	0.00011590109	7.3109256e-06	0.0042192768	-0.00013420912	0.004222542	-7.6699413e-05	-0.029148621	9.8121928e-05	3.0806762e-06	-0.7501571	1.1489594	-3.6107004e-05	-1.1489699	7.9230873e-05	0.00082538756	-1.569221	1.29	0.674	0.184	-0.10350085	0.057997797	1.3648596e-08	1.9757141	1.9475384	2	1.9475397	2	0.0012669721	1.9125149	1.0575446	-0.0004326771	-1.049114e-05	-0.098058587	0.00013552506	-0.098060246	0.00010861001	0.14441335	-3.211055e-05	-3.2542687e-06	0.57725842	-0.88865176	0.00024656401	0.88863829	-0.00042582269	-0.00055981129	1.2002195	0.69036946	0.014395788	1.3648596e-08	0.024197193	0.051806879	5.3407128e-09	0.051805657	1.276477e-08	0.0012665308	0.085048777	0.014346494	3.4304398	4.7446136	4.6132652	4.2339198	4.6132778	4.2339428	4.1150576	4.5405707	4.5695604	3.4693654	3.7856618	3.7660802	3.7856426	3.7660573	3.8927398	4.0264833	-120.14568	R0:S0:1	-89.04	uncorrelated	51514b8	 2.87e+01	 0.00e+00	 3.00e-02	2022-04-08@20:19
2x2_2C_8b_C2v_L	0.1	14	1.87	0.07565296	-7.4075805	-8.5244648	-0.036640969	-8.5246715	-0.03569009	0.33938582	-9.8097246	13.5	0.0015980423	1.3458431e-05	0.0053864631	-0.00024236679	0.0053922408	-0.00013694207	-0.15615862	0.00050591765	1.0499138e-05	-0.74452596	1.1434826	-0.00015529712	-1.1434922	0.00091842316	0.0036231109	-1.5661889	1.29	0.674	0.184	-0.14992611	0.075970524	4.2694634e-06	1.9763553	1.9467504	1.9999998	1.94683	1.9999967	0.056836433	1.9140879	1.0754548	-0.0074460016	-0.0010983213	-0.14443957	0.00049715628	-0.14428706	0.001301525	0.96253029	0.001174537	-7.1164618e-05	0.5542913	-0.89116309	0.001412232	0.89009554	-0.0067549729	-0.0051587892	1.1845663	0.67788249	0.019291504	4.2694789e-06	0.023582209	0.052603236	1.7166827e-07	0.052527427	3.2581322e-06	0.055532974	0.083446186	0.019239915	3.2486994	4.9176843	4.6434317	4.2680995	4.646061	4.2714592	3.991577	4.531591	4.751342	3.3000701	3.7607104	3.7319019	3.7579039	3.7285682	4.3241667	3.9757655	-125.07002	R0:S0:1	-93.04	uncorrelated	51514b8	 7.06e+01	 4.28e-02	 1.00e+06	2022-04-08@20:23
2x2_2C_8b_C2v_L	0.1	14	1.87	0.075650491	-7.4077644	-8.524636	-0.036640969	-8.5248445	-0.035688826	0.37945487	-9.8105572	13.5	0.0014469253	3.4150035e-05	0.005901752	-0.00050321688	0.0059018575	-0.0005000414	0.049569435	0.00022340458	2.2827284e-05	-0.7441175	1.1433131	-0.00024659692	-1.143294	0.0011081525	-0.0012527463	-1.5647719	1.29	0.674	0.184	-0.14799945	0.063611117	3.9662869e-06	1.9749215	1.9468092	1.9999996	1.9468196	1.9999949	0.0056810019	1.9130019	1.0631639	-0.0073516298	-9.3799727e-05	-0.14237548	0.00077374613	-0.14235832	0.0017627374	-0.3058793	1.1955521e-05	-2.9866921e-05	0.58464995	-0.89067858	0.0023336992	0.89055968	-0.0084695513	0.00087293757	1.1972156	0.6769552	0.016541743	3.9663012e-06	0.024988506	0.052536394	4.0946698e-07	0.052526373	5.0879838e-06	0.0056685443	0.084589231	0.016492956	3.4076466	4.7732304	4.6420309	4.2685348	4.6422083	4.2688432	4.110905	4.5349499	4.5923907	3.4503515	3.7582265	3.7314687	3.7580036	3.7311991	3.9234996	4.0289311	-125.00165	R0:S0:1	-93.04	uncorrelated	51514b8	 6.84e+01	 2.39e-04	 4.52e-02	2022-04-08@20:28
2x2_2C_8b_C2v_L	0.1	14	1.87	0.076614452	-7.6752131	-8.8730595	-0.036648733	-8.87331	-0.035655075	0.6392691	-10.299414	14	0.0025624517	2.5148809e-05	0.0064132563	-0.0012897867	0.006397195	-0.0014871951	0.25351719	0.00052210658	6.3080429e-05	-0.7376542	1.1386412	-0.00062776271	-1.1386529	0.0027014292	-0.0067298645	-1.5572123	1.29	0.674	0.184	-0.29456284	0.1324124	1.7681676e-05	1.9796295	1.948639	1.9999798	1.9488285	1.9998418	0.18140453	1.9167955	1.1317674	-0.014006891	-0.0051105429	-0.2883792	0.0073420108	-0.28700207	0.018390538	-1.7115652	0.0063967171	-0.00056314787	0.47591095	-0.85152866	0.015069447	0.84904538	-0.043618607	0.019243512	1.161173	0.60659615	0.03651526	1.7682049e-05	0.020378434	0.050904651	2.0207949e-05	0.050722803	0.00015827486	0.16615184	0.080670023	0.036484765	2.7799397	5.356597	4.7708867	4.4666637	4.7773266	4.4751039	3.6775824	4.4922795	5.2202584	2.8561423	3.6087092	3.5335264	3.6021263	3.5263458	5.1632418	3.9061151	-130.16276	R0:S0:1	-97.04	uncorrelated	51514b8	 8.25e+02	 8.59e-02	 1.00e+06	2022-04-08@20:33
2x2_2C_8b_C2v_L	0.1	14	1.87	0.15316788	-7.6752523	-8.8743711	-0.24151432	-8.8754913	-0.24246285	0.701139	-10.273138	14	0.00030806693	9.2262712e-05	0.0026290305	-0.050918829	0.0025894363	-0.050991695	0.0053773239	-0.0022247119	0.038624335	-0.7430299	1.1445693	-0.026286646	-1.1447947	0.025975321	0.10062912	-1.5885954	1.29	0.674	0.184	-0.28909062	0.099048322	0.0029184552	1.9750833	1.9494245	1.9819248	1.9494082	1.9821272	0.00047883345	1.9071344	1.0984873	-0.0011471136	0.00075446697	-0.28165741	0.22405995	-0.28178773	0.2230922	-0.040899609	-0.00029532816	-0.098294555	0.56744761	-0.83748203	0.42131825	0.83764519	-0.41841065	-0.059156075	1.2561528	0.58768375	0.029429775	0.0030317469	0.024860817	0.050107943	0.018590453	0.05012406	0.018384939	0.0004862277	0.090090662	0.029415189	3.2488829	4.9470436	4.814188	4.659703	4.8140842	4.6582837	4.2516388	4.4769069	4.7939015	3.2938727	3.5402543	3.4711574	3.5405356	3.471344	3.7529932	4.1332054	-130.78689	R0:S0:1	-97.04	uncorrelated	51514b8	 5.68e+02	 1.09e-03	 8.48e-02	2022-04-08@20:36
2x2_2C_8b_C2v_L	0.1	14	1.87	0.15445826	-7.6754051	-8.8746312	-0.24173144	-8.8757386	-0.24266618	0.70096899	-10.272694	14	-1.4575843e-05	-1.4282339e-05	0.0011513274	-0.051824052	0.0011006177	-0.051844673	0.0042826295	-0.0017647704	0.041653589	-0.74220953	1.1446869	-0.024402524	-1.1447676	0.024493409	0.098937951	-1.5881349	1.29	0.674	0.184	-0.2886448	0.098695879	0.0034271828	1.9751346	1.9494204	1.9825896	1.9493963	1.98252	0.00042324461	1.9071702	1.098134	0.0012880483	0.00096950988	-0.28047478	0.22026023	-0.28071911	0.22067296	-0.032850395	-0.00060595604	-0.10607409	0.56691399	-0.83779006	0.40949136	0.83810933	-0.41056295	-0.058009106	1.2558793	0.58829799	0.02935728	0.003580418	0.024809411	0.050113412	0.017954772	0.050136369	0.018021541	0.00042894569	0.090056564	0.029342792	3.2522383	4.9460329	4.8127618	4.6542286	4.8118284	4.6536507	4.2513947	4.4767303	4.7978614	3.2941343	3.5425006	3.4720942	3.5433221	3.4732112	3.7528103	4.1330286	-130.78552	R0:S0:1	-97.04	uncorrelated	51514b8	 5.45e+02	 0.00e+00	 1.41e-03	2022-04-08@20:39
2x2_2C_8b_C2v_L	0.1	14	1.87	0.31124782	-7.9549075	-9.2433222	-0.65190501	-9.2461926	-0.6566466	1.1729942	-10.697462	14.5	-0.004115354	-8.0382196e-05	-0.0079962931	-0.15395977	-0.0081389524	-0.15393017	-0.16435583	-0.0061087744	0.12489102	-0.74571027	1.1539733	-0.072474543	-1.1541905	0.070196961	0.30153334	-1.6390494	1.29	0.674	0.184	-0.3905827	0.59523396	0.1316273	1.994138	1.9866999	1.8312516	1.9755912	1.8708657	0.31652619	1.9404538	1.5944611	-0.21988567	-0.13484302	-0.251982	1.8714801	-0.47665279	1.5064387	1.5142536	0.59120377	-1.7001445	0.13703361	-0.23235244	0.48655198	0.42272837	-0.7899957	-2.0326016	0.8199511	0.32816539	0.071181021	0.12323006	0.0058805787	0.013374977	0.1523209	0.024733269	0.11956781	0.26046544	0.059090475	0.071591626	1.9790157	7.1807336	6.9347443	5.5749741	6.0896323	5.5809524	3.9230034	5.1517814	6.072281	0.83662195	1.0877068	2.5113	2.0099997	2.6470556	4.7370685	2.9650692	-138.44725	R0:S0:1	-101.04	uncorrelated	51514b8	 2.48e+02	 2.90e-01	 1.00e+06	2022-04-08@20:42
2x2_2C_8b_C2v_L	0.1	14	1.87	0.22053399	-7.939948	-9.2298811	-0.035447489	-9.2774394	-0.19123942	0.052763944	-10.752939	14.5	0.027083573	-0.0095722107	0.0018024426	-0.059614322	-0.0016997053	-0.058559098	0.082047009	-0.00065233752	0.065257408	-0.75545057	1.1480216	-0.038060525	-1.1456776	0.065372933	0.034562352	-1.5717059	1.29	0.674	0.184	-0.35962818	0.48643744	0.063143909	1.9931953	1.974116	1.7568101	1.9773727	1.825681	0.74278341	1.9207277	1.4860656	-0.046519485	0.032417118	-0.3379209	1.7738406	-0.34385397	1.5468939	-2.8512841	-0.029028022	-1.0907967	0.15315854	-0.43372719	0.96071061	0.38419986	-0.80273578	-0.9868659	1.1130667	0.32398513	0.060564837	0.062594269	0.0068516659	0.02590529	0.21712788	0.022765809	0.16622209	0.42551839	0.076079899	0.060707404	1.3875349	7.1530256	6.1513141	5.0747465	6.3377405	5.4133883	3.27138	4.386763	6.6364863	0.91217797	1.9250564	3.4251014	1.7577241	2.8884907	7.5076146	3.5966827	-135.928	R0:S0:1	-101.04	uncorrelated	51514b8	 2.36e+02	 4.34e-02	 1.24e-01	2022-04-08@20:46
2x2_2C_8b_C2v_L	0.1	14	1.87	0.1280096	-7.9255942	-9.2230305	-0.10992098	-9.2574262	-0.062352753	0.039071234	-10.657943	14.5	-0.011129631	0.0041879142	-0.0012143577	-0.053038583	0.0010194279	-0.053018208	0.083320986	0.00054786411	0.059868184	-0.75421362	1.1425261	-0.058685878	-1.1464521	0.048774436	-0.010004896	-1.5634394	1.29	0.674	0.184	-0.35605611	0.47977688	0.074008604	1.9928278	1.9754495	1.7785831	1.974786	1.7543111	0.70871481	1.9204641	1.4794177	0.038267942	-0.0098005633	-0.33891855	1.6184096	-0.33527682	1.6651386	-2.9810796	0.0031351909	-1.1808392	0.16083398	-0.41408795	0.95288226	0.42430197	-1.008387	0.30156256	1.1125984	0.32312666	0.060566337	0.071709692	0.0072145245	0.024624942	0.21279997	0.025254601	0.23437996	0.39977582	0.07628956	0.060702877	1.5151865	7.1132883	6.224226	5.1850239	6.1850732	5.0895892	2.8538696	4.3957096	6.5106819	0.95078503	1.8630032	3.2144229	1.8957453	3.3628734	8.0414268	3.5754652	-135.53453	R0:S0:1	-101.04	uncorrelated	51514b8	 2.35e+02	 1.05e-02	 2.99e-02	2022-04-08@20:49
2x2_2C_8b_C2v_L	0.1	14	1.87	0.13219277	-7.9239856	-9.22202	-0.074425399	-9.2562625	-0.090804979	0.03737693	-10.650361	14.5	0.0025603143	-0.00079153671	0.00026275466	-0.052010823	-0.00068930165	-0.052167555	0.083661325	-0.00020753632	0.061244048	-0.75546672	1.1436516	-0.05189272	-1.1450746	0.055471765	0.0032285829	-1.5628372	1.29	0.674	0.184	-0.35588678	0.47953807	0.074695072	1.992777	1.9749015	1.7593943	1.9752191	1.7675081	0.70634714	1.9205548	1.4791801	-0.0075944367	0.0027219737	-0.33653231	1.6455336	-0.33712399	1.6322323	-2.9954697	-0.00095504231	-1.1947239	0.16170028	-0.42209166	0.99970731	0.41809601	-0.98275227	-0.098268143	1.1110513	0.32300527	0.060595177	0.071453574	0.0072648397	0.025148654	0.23134238	0.024841072	0.22382098	0.39689732	0.076200046	0.060731505	1.5298166	7.1099546	6.1955635	5.1099956	6.2067777	5.1410137	2.8104352	4.3995195	6.4952508	0.95386667	1.8873329	3.3261064	1.877604	3.2785187	8.0988895	3.569224	-135.49803	R0:S0:1	-101.04	uncorrelated	51514b8	 2.35e+02	 3.10e-03	 9.54e-03	2022-04-08@20:52
2x2_2C_8b_C2v_L	0.1	14	1.87	0.13331245	-7.923401	-9.2215318	-0.084683016	-9.2558411	-0.08228368	0.037286557	-10.647418	14.5	-0.0011968163	0.00049445738	-0.00014769254	-0.052073375	-0.00038884517	-0.052299294	0.083677422	-5.3510447e-05	0.061451007	-0.75538125	1.1432592	-0.054049827	-1.1453668	0.05369025	-0.0010302142	-1.5625872	1.29	0.674	0.184	-0.35615561	0.47958192	0.074730169	1.9927773	1.9750529	1.7651743	1.9750768	1.7630373	0.70607315	1.9205514	1.4792237	0.0043027598	-0.00098201748	-0.33755288	1.6360433	-0.33653117	1.6409661	-2.9973936	0.00063833735	-1.1954491	0.16171356	-0.41986906	0.98697033	0.42022952	-0.99329926	0.031727987	1.110967	0.32301478	0.060608376	0.071444841	0.0072645771	0.025004732	0.22598269	0.024977266	0.22774729	0.39659195	0.076202816	0.060744914	1.530682	7.1097806	6.2035104	5.1318495	6.1989046	5.1236839	2.8045171	4.4001032	6.494435	0.95402574	1.8807049	3.2926777	1.8843977	3.3060388	8.105556	3.568517	-135.49291	R0:S0:1	-101.04	uncorrelated	51514b8	 2.35e+02	 3.91e-04	 2.91e-03	2022-04-08@20:56
2x2_2C_8b_C2v_L	0.1	14	1.87	0.012720057	-8.151513	-9.5651711	0.43620355	-9.6649596	0.44421594	-1.6114272	-10.933149	15	-0.00071260416	0.0016670141	0.00024735939	-0.0023994942	0.0017600757	-0.0009083044	0.28772417	0.0050725652	0.059464655	-0.78320407	1.1387525	-0.088916473	-1.1448392	0.089073401	-0.29683378	-1.4880695	1.29	0.674	0.184	-0.25545762	0.85220687	0.041165065	1.9983023	1.9930998	0.045360955	1.9968183	0.052383964	1.7731729	1.977899	1.8519995	0.038214342	0.076630953	-0.33600955	-0.24191344	-0.119416	-0.086548357	-2.1749518	-0.4546862	-1.0534046	0.036930292	-0.12405828	1.0947855	0.057015336	-1.2052056	0.90806518	0.34492979	0.42766754	0.039898474	0.042024924	0.0017051672	0.0070960499	0.044454856	0.0032046263	0.050724487	0.20488717	0.022345788	0.040046452	0.61577434	7.7898444	7.3695117	0.97085462	7.726645	0.81942004	4.8364743	6.5197128	7.3520628	0.21260648	0.64300963	6.9948867	0.27548255	7.1262579	3.232841	1.4849742	-144.50294	R0:S0:1	-105.04	uncorrelated	51514b8	 1.98e+02	 3.12e-01	 1.00e+06	2022-04-08@20:59
2x2_2C_8b_C2v_L	0.1	14	1.87	0.40861066	-8.1106126	-9.5596552	0.26973967	-9.6301821	0.22552055	-0.23361107	-11.049076	15	0.073670306	0.0050189494	0.0024699703	0.08665518	0.011751742	-0.080195078	-0.033864823	0.008069732	-0.013414336	-0.72568457	1.1343494	-0.012662998	-1.1409263	0.03150865	-0.10384103	-1.5531265	1.29	0.674	0.184	-0.33611008	0.89059959	0.00072785638	1.9997578	1.9972346	0.013539297	1.994196	0.0037403892	1.6386645	1.9792266	1.8905506	0.0033372765	-0.059561456	-0.24340856	-0.1035287	-0.37985898	-0.048482705	2.1842897	0.27992699	0.13502856	0.005581446	-0.047945711	0.52748475	0.099913404	-0.25426548	1.1285825	0.29962865	0.41920996	0.031918676	0.00080325213	0.00024709072	0.002870281	0.016833938	0.006063956	0.004951833	0.36838741	0.020703416	0.031960338	0.036439502	7.9656246	7.7531239	0.41476168	7.4859397	0.38474477	4.480113	6.831285	7.9629588	0.035812798	0.2494596	7.5775783	0.52846893	7.6148084	3.5625248	1.1478101	-141.31055	R0:S0:1	-105.04	uncorrelated	51514b8	 2.22e+02	 4.32e-02	 1.38e-01	2022-04-08@21:02
2x2_2C_8b_C2v_L	0.1	14	1.87	0.39051525	-8.1087926	-9.5536248	0.15049235	-9.6264368	0.21943941	-0.093902791	-11.012665	15	0.077413113	-0.0056105909	0.0089586244	0.076991811	-4.4597965e-05	-0.084911474	0.030358483	-0.0050992182	0.012920604	-0.72195058	1.1342814	0.014503298	-1.1380403	-0.021427151	-0.08560437	-1.5583277	1.29	0.674	0.184	-0.31856664	0.83912955	0.0009790036	1.9996778	1.9951786	0.0011645269	1.9961116	0.029785825	1.0310441	1.9632208	1.8390618	-0.0026471194	0.035685654	-0.3283917	-0.024080675	-0.25484303	0.18086205	-1.9739698	-0.14186948	-0.14404103	0.0077196786	-0.083331927	0.041751358	0.068419313	0.73246905	2.5280551	0.52401354	0.42173717	0.035356867	0.0010873046	0.0003271951	0.005037122	0.0015497145	0.0040112482	0.038181221	0.58303947	0.035927124	0.035409293	0.05539217	7.9534384	7.5801337	0.40160952	7.6569788	0.6942053	4.987211	6.0672406	7.946281	0.050575794	0.44189623	7.6283824	0.35300178	7.2946497	3.8894489	1.8399579	-140.98916	R0:S0:1	-105.04	uncorrelated	51514b8	 2.08e+02	 2.01e-02	 3.28e-02	2022-04-08@21:05
2x2_2C_8b_C2v_L	0.1	14	1.87	0.38354025	-8.1077449	-9.550028	0.201901	-9.6235826	0.17641679	-0.10217453	-10.991547	15	0.07593106	0.0008047731	0.0022766172	0.082930813	0.0072297877	-0.080331447	-0.019057635	0.0038212069	-0.0037421472	-0.72300775	1.1342193	-0.011109646	-1.1383149	0.010001869	-0.087925821	-1.5552944	1.29	0.674	0.184	-0.31317774	0.83048292	0.00021731154	1.9996843	1.9965844	0.016516326	1.9951144	0.0029627497	0.92543051	1.9597486	1.830413	-0.0051232878	-0.027691153	-0.25101841	-0.12257962	-0.32290815	0.053912202	1.6388384	0.14841043	0.025137858	0.0077735747	-0.059645073	0.52705894	0.085071568	0.15307664	2.8478963	0.57226142	0.4246065	0.035647909	0.00023188588	0.00032097426	0.0035424962	0.021947431	0.0050990934	0.0040554303	0.55243471	0.039242746	0.03570054	0.051310572	7.9528102	7.7014231	0.51204873	7.5731096	0.46418953	5.7493085	5.9060457	7.9528461	0.052006083	0.31123703	7.4915558	0.45236445	7.5773996	3.3315277	1.9903635	-140.91825	R0:S0:1	-105.04	uncorrelated	51514b8	 2.06e+02	 1.43e-02	 2.56e-02	2022-04-08@21:08
2x2_2C_8b_C2v_L	0.1	14	1.87	0.37621677	-8.1066323	-9.5466601	0.17082833	-9.6201108	0.20535356	-0.10905247	-10.96891	15	0.07503889	-0.0028579226	0.0070134775	0.079277958	0.0022149129	-0.083450044	0.018091959	-0.0037305562	0.0065536609	-0.72356233	1.1344786	0.0099356132	-1.1379907	-0.01003164	-0.089132348	-1.5531807	1.29	0.674	0.184	-0.31201741	0.82956296	0.00033610303	1.9996686	1.9949842	0.0031282798	1.9967492	0.014719983	0.94555218	1.9593398	1.8294921	-0.0043384804	0.032773701	-0.32620276	-0.055557686	-0.24563553	0.11316549	-1.6577021	-0.16116358	-0.060893742	0.0080537604	-0.087029831	0.15456472	0.057022577	0.4983759	2.8362735	0.57751706	0.42509418	0.035795945	0.00036580881	0.00033714795	0.0052367329	0.0043128342	0.0033724079	0.019535401	0.55542358	0.039647746	0.035848898	0.053081562	7.951507	7.565071	0.47591165	7.7136147	0.4795572	5.7314478	5.8894036	7.9508118	0.053430233	0.46166638	7.5685273	0.2990115	7.5254115	3.3510675	2.0082984	-140.86462	R0:S0:1	-105.04	uncorrelated	51514b8	 2.06e+02	 1.11e-02	 1.87e-02	2022-04-08@21:12
2x2_2C_8b_C2v_L	0.1	14	1.87	0.37480208	-8.1063514	-9.5456625	0.18542746	-9.6194419	0.19416194	-0.1134495	-10.963675	15	0.074688084	0.0035242031	0.0024845865	0.080459542	0.0076554872	-0.08243221	-0.019110627	0.0039893629	-0.0077484755	-0.72386201	1.1352614	-0.0097946036	-1.1370266	0.01104123	-0.089839809	-1.5525822	1.29	0.674	0.184	-0.31265247	0.83120686	0.00040472541	1.9996659	1.9967732	0.015541198	1.9949417	0.0027069814	0.98380782	1.9598789	1.8311362	-0.0037780919	-0.035824835	-0.24489683	-0.11419171	-0.32895268	0.052254396	1.7429407	0.17336202	0.075161194	0.0080718782	-0.056236949	0.50121751	0.08805346	0.14203669	2.760558	0.56990955	0.42496659	0.035849142	0.00044316489	0.0003399093	0.0033482947	0.021075513	0.005279409	0.0036272917	0.56527725	0.039150833	0.035902027	0.053248	7.9514673	7.7186317	0.48431199	7.558395	0.4699626	5.5421211	5.9139986	7.9502992	0.053360628	0.29343494	7.5191663	0.46819002	7.5728961	3.4881256	1.9877675	-140.85814	R0:S0:1	-105.04	uncorrelated	51514b8	 2.06e+02	 1.13e-02	 1.85e-02	2022-04-08@21:15
2x2_2C_8b_C2v_L	0.1	14	1.87	0.37327971	-8.1060591	-9.5448347	0.17842084	-9.6185541	0.20037628	-0.11508971	-10.958243	15	0.074615421	-0.0041056477	0.0074963505	0.080004006	0.0022440722	-0.082529964	0.019968752	-0.0041477439	0.0087091182	-0.72386321	1.1339426	0.01171947	-1.1385133	-0.010756566	-0.090154721	-1.5517756	1.29	0.674	0.184	-0.31327065	0.83252972	0.00047657013	1.999664	1.9948878	0.0024241768	1.9968057	0.015695409	1.0037296	1.9603316	1.8324593	-0.0033659441	0.037773688	-0.33165618	-0.047414688	-0.24327835	0.11573216	-1.7903984	-0.17789078	-0.087160923	0.0080823803	-0.088641783	0.12252077	0.055947574	0.51437701	2.7139277	0.56359107	0.42479417	0.035845135	0.00052434452	0.00034194494	0.0053386476	0.0032864612	0.0033124051	0.020915336	0.57017517	0.038726373	0.035897957	0.053532731	7.9514594	7.5562659	0.46532874	7.7189318	0.48434308	5.4280556	5.9346697	7.9497328	0.053269434	0.47034423	7.5771124	0.29261092	7.5178328	3.5675316	1.9695114	-140.84737	R0:S0:1	-105.04	uncorrelated	51514b8	 2.06e+02	 1.60e-02	 1.94e-02	2022-04-08@21:18
2x2_2C_8b_C2v_L	0.1	14	1.87	0.36734577	-8.1047516	-9.5416356	0.21296952	-9.6146594	0.1654888	-0.1151808	-10.93604	15	0.074133771	0.0033551718	0.0021380867	0.083970507	0.0073468047	-0.078259423	-0.020758561	0.0042632808	-0.0078421149	-0.72413829	1.1332637	-0.011413146	-1.1386806	0.012016309	-0.089889275	-1.550629	1.29	0.674	0.184	-0.31395272	0.83383421	0.00040127789	1.9996715	1.9967854	0.015605541	1.9949214	0.0023046057	1.0184827	1.9606478	1.8337644	-0.0034529905	-0.037087313	-0.24418468	-0.11611419	-0.33147903	0.044749132	1.8272598	0.18026524	0.076002236	0.0079366049	-0.056138004	0.5212358	0.088363838	0.11217939	2.6753379	0.55847612	0.4246361	0.03579271	0.00044051331	0.00033427377	0.0033337415	0.020498421	0.0053026962	0.003163162	0.57347641	0.038427745	0.035845289	0.05218544	7.9521866	7.7183611	0.48216559	7.5560753	0.46344464	5.3382304	5.9536577	7.9511396	0.052446624	0.29288435	7.5191216	0.47005661	7.5787592	3.6314719	1.9518305	-140.78725	R0:S0:1	-105.04	uncorrelated	51514b8	 2.07e+02	 1.77e-02	 2.04e-02	2022-04-08@21:22
2x2_2C_8b_C2v_L	0.1	14	1.87	0.36280923	-8.103676	-9.5389728	0.16967844	-9.6112739	0.20935017	-0.11385174	-10.916735	15	0.073721778	-0.0027846768	0.0075283628	0.078860927	0.0018033841	-0.083699157	0.021110238	-0.0042619917	0.0070853148	-0.72429914	1.1340173	0.012018767	-1.1375091	-0.011709525	-0.089644625	-1.5493276	1.29	0.674	0.184	-0.31421637	0.83408806	0.0003490293	1.999676	1.9948917	0.0022801941	1.996782	0.01633595	1.016977	1.9606838	1.8340185	-0.0036568492	0.035845636	-0.33263955	-0.044840641	-0.24367838	0.11933327	-1.8296894	-0.17836386	-0.066704698	0.0078563233	-0.088513817	0.11366933	0.056438378	0.53118707	2.6724568	0.5574943	0.42448472	0.035764912	0.0003819716	0.00032961738	0.0053352761	0.003113423	0.0033357279	0.021540789	0.57377695	0.038390627	0.035817406	0.05148964	7.9525775	7.5564942	0.46161739	7.7160539	0.49341845	5.3296435	5.9586377	7.9519329	0.052031205	0.46958548	7.5797506	0.29509084	7.5073954	3.6368436	1.9466337	-140.73315	R0:S0:1	-105.04	uncorrelated	51514b8	 2.07e+02	 1.48e-02	 2.09e-02	2022-04-08@21:25
2x2_2C_8b_C2v_L	0.1	14	1.87	0.36002247	-8.1028471	-9.5367036	0.20064638	-9.6092676	0.17961283	-0.11255317	-10.903142	15	0.073946784	0.0015124288	0.0022978055	0.082568419	0.0078702931	-0.080391347	-0.020923131	0.0045027569	-0.005257446	-0.72385128	1.1335301	-0.011057089	-1.1372995	0.012199635	-0.089352254	-1.5486444	1.29	0.674	0.184	-0.31402956	0.83380338	0.00025093106	1.9996837	1.9967435	0.016178153	1.9949483	0.0022247669	1.0077415	1.9604893	1.8337339	-0.0042800085	-0.033229234	-0.24590626	-0.1183214	-0.33081025	0.044534098	1.8131985	0.17501937	0.042839472	0.0077397302	-0.056791367	0.52283128	0.087800704	0.11308045	2.6903866	0.55981562	0.42461066	0.035724062	0.00027149724	0.00032178103	0.0033773823	0.021541238	0.0052743323	0.0030047022	0.57205709	0.038571069	0.035776485	0.050674883	7.9530413	7.7153564	0.49286983	7.5591315	0.45719547	5.3704718	5.9524115	7.9531173	0.051585138	0.29601296	7.5086014	0.46670155	7.5837066	3.6093365	1.951573	-140.69315	R0:S0:1	-105.04	uncorrelated	51514b8	 2.07e+02	 1.42e-02	 2.09e-02	2022-04-08@21:28
2x2_2C_8b_C2v_L	0.1	14	1.87	0.3571075	-8.1017989	-9.5342326	0.17237157	-9.6066424	0.205037	-0.11137228	-10.887086	15	0.073572954	-0.0014778812	0.0072662137	0.079080573	0.001445192	-0.083068954	0.020348467	-0.004287178	0.005574544	-0.7239916	1.1338057	0.011622249	-1.1374382	-0.011998007	-0.089260289	-1.547301	1.29	0.674	0.184	-0.31351601	0.83288698	0.0002713726	1.9996813	1.9949427	0.0023693396	1.9967366	0.017005471	0.99280713	1.9601894	1.8328172	-0.0042591459	0.032459481	-0.33013823	-0.046265469	-0.2442067	0.12258533	-1.780345	-0.17153725	-0.047910355	0.0077985918	-0.087665887	0.11986866	0.05728235	0.53936847	2.722066	0.56365168	0.42459877	0.035748152	0.00029457304	0.0003242109	0.0052818487	0.0032286184	0.0033821104	0.022497116	0.56919904	0.03885183	0.035800708	0.051177627	7.9527304	7.5609827	0.45999986	7.7120219	0.50561715	5.4440987	5.9410719	7.9526135	0.051956406	0.46515931	7.5814336	0.2995102	7.4953316	3.5558106	1.9613302	-140.6464	R0:S0:1	-105.04	uncorrelated	51514b8	 2.07e+02	 1.37e-02	 2.05e-02	2022-04-08@21:32
2x2_2C_8b_C2v_L	0.1	14	1.87	0.35490077	-8.1009462	-9.5321936	0.19803281	-9.604656	0.18043725	-0.11130257	-10.87403	15	0.07331525	0.0025877752	0.0022822425	0.08208871	0.0077373863	-0.080480103	-0.02036698	0.0043163591	-0.0066232216	-0.72426191	1.133584	-0.011014737	-1.1369025	0.011812927	-0.089103737	-1.5466626	1.29	0.674	0.184	-0.31370963	0.8331121	0.00033108607	1.9996763	1.9967234	0.016267855	1.9949672	0.0023442255	0.99454277	1.9601591	1.8330425	-0.0039119657	-0.034422289	-0.24640668	-0.11883215	-0.32967497	0.046346409	1.7840059	0.17213308	0.062095847	0.0078604526	-0.057122932	0.52271239	0.087488262	0.12042361	2.7183037	0.56364348	0.42466569	0.035727859	0.00036236196	0.00032928097	0.0033984468	0.021707138	0.0052543326	0.003169785	0.56950896	0.038881021	0.035780347	0.05156709	7.952577	7.71392	0.49565886	7.5608572	0.45901782	5.4359332	5.9423853	7.9520358	0.052101966	0.29768114	7.506116	0.46503137	7.5822105	3.5623071	1.9599559	-140.61011	R0:S0:1	-105.04	uncorrelated	51514b8	 2.07e+02	 1.33e-02	 2.03e-02	2022-04-08@21:35
2x2_2C_8b_C2v_L	0.1	14	1.87	0.35291811	-8.1001139	-9.5302362	0.174457	-9.6024486	0.20284922	-0.11057408	-10.860528	15	0.073291328	-0.0017968821	0.0075678034	0.079491634	0.0020346704	-0.082893936	0.020103926	-0.0041994543	0.0054469038	-0.72412716	1.1331874	0.011607504	-1.1373353	-0.011119485	-0.088961205	-1.5457669	1.29	0.674	0.184	-0.31352701	0.83277463	0.00026733662	1.99968	1.9949422	0.0023874329	1.9967436	0.016140578	0.98755192	1.9599892	1.832705	-0.0043011493	0.032871961	-0.3301883	-0.046574253	-0.24544253	0.11875958	-1.7683922	-0.17049215	-0.046618412	0.0078110208	-0.087598557	0.12116702	0.057039508	0.5231354	2.7330233	0.56563805	0.4247052	0.035722621	0.00029033068	0.00032551321	0.0052822899	0.0032485879	0.0033765386	0.021437437	0.56800805	0.03904026	0.035775101	0.05116167	7.9527449	7.5615967	0.45962398	7.713434	0.49487807	5.4711464	5.9370809	7.952675	0.051958472	0.46451171	7.5818705	0.29821377	7.5071693	3.537078	1.9643983	-140.57149	R0:S0:1	-105.04	uncorrelated	51514b8	 2.07e+02	 1.53e-02	 2.01e-02	2022-04-08@21:38
2x2_2C_8b_C2v_L	0.1	14	1.87	0.35069131	-8.0988661	-9.5273736	0.20898102	-9.5995846	0.16965691	-0.10976644	-10.842264	15	0.07315014	0.0024601077	0.0022260648	0.083546181	0.00748092	-0.078943802	-0.020001556	0.0040028965	-0.006408811	-0.72413346	1.1326146	-0.010945335	-1.1376378	0.011569696	-0.088785851	-1.5444911	1.29	0.674	0.184	-0.31348981	0.8327441	0.00032331432	1.9996771	1.996725	0.015469315	1.9949874	0.0024070764	0.98293305	1.9598811	1.8326745	-0.0040238566	-0.033656562	-0.24679534	-0.11633733	-0.32873302	0.046392911	1.7589831	0.16932578	0.060005898	0.0078510677	-0.057143313	0.51561875	0.087106553	0.1202559	2.7412214	0.5666556	0.42477943	0.035698147	0.00035400319	0.00032854914	0.0033974116	0.020409273	0.0052338067	0.0032949167	0.56719035	0.039141244	0.035750587	0.051555239	7.9526347	7.7136144	0.48631096	7.5630019	0.45962824	5.4902743	5.9353576	7.9521336	0.052070311	0.29816886	7.5162139	0.46291547	7.5821964	3.5226142	1.9655548	-140.51958	R0:S0:1	-105.04	uncorrelated	51514b8	 2.07e+02	 1.57e-02	 2.01e-02	2022-04-08@21:42
2x2_2C_8b_C2v_L	0.1	14	1.87	0.34876662	-8.0975591	-9.5248442	0.17263592	-9.5964797	0.20510202	-0.10907921	-10.824296	15	0.072715097	-0.0018611236	0.0077870457	0.079162865	0.0016337979	-0.083114467	0.019918276	-0.0040332779	0.0054942834	-0.72453509	1.1331888	0.011831669	-1.1369417	-0.011597343	-0.088559214	-1.5435344	1.29	0.674	0.184	-0.31340684	0.83257613	0.00027201181	1.9996793	1.9949566	0.0022752646	1.9967188	0.016578337	0.97931591	1.9597804	1.8325065	-0.0042847121	0.032563649	-0.3298319	-0.044712418	-0.245556	0.12115304	-1.7525291	-0.16800814	-0.048024732	0.0078201051	-0.087248177	0.11402612	0.05753455	0.53195075	2.7467395	0.56749225	0.42469576	0.035702468	0.00029580207	0.00032624891	0.0052677334	0.0030953225	0.0034015109	0.021942695	0.56643443	0.03923465	0.035754917	0.05119647	7.9527548	7.5636881	0.45455331	7.7108975	0.50221899	5.503941	5.9344119	7.952612	0.05196189	0.46234545	7.586593	0.30083434	7.4995128	3.5133662	1.9658011	-140.46872	R0:S0:1	-105.04	uncorrelated	51514b8	 2.07e+02	 1.35e-02	 2.01e-02	2022-04-08@21:45
2x2_2C_8b_C2v_L	0.1	14	1.87	0.34743895	-8.0967014	-9.5228182	0.19801543	-9.5945551	0.18021465	-0.1085966	-10.811385	15	0.072712234	0.0016859117	0.0019942465	0.082115953	0.0076701144	-0.080463253	-0.01968875	0.0037967531	-0.0055045626	-0.7243273	1.1330054	-0.011028239	-1.1365866	0.011449874	-0.088545059	-1.5423621	1.29	0.674	0.184	-0.31334681	0.83235267	0.00027561465	1.9996801	1.9966955	0.016350041	1.9949958	0.0024476443	0.97386966	1.9596563	1.8322831	-0.004315965	-0.031894289	-0.24703344	-0.1197104	-0.32823164	0.047714353	1.7387378	0.16721564	0.048544766	0.0078105871	-0.057649786	0.52356772	0.086933386	0.12628397	2.7586088	0.56895386	0.42473053	0.035698546	0.00029995319	0.00032539723	0.0034274413	0.021812489	0.0052245622	0.0033152784	0.56530033	0.039351712	0.035750986	0.051243997	7.952787	7.7113285	0.49957431	7.5640549	0.45888147	5.5320319	5.9305302	7.9525953	0.051944727	0.30058789	7.5027264	0.46182363	7.5825125	3.4913736	1.9692265	-140.43205	R0:S0:1	-105.04	uncorrelated	51514b8	 2.07e+02	 1.26e-02	 1.99e-02	2022-04-08@21:48
2x2_2C_8b_C2v_L	0.1	14	1.87	0.34648501	-8.0958906	-9.5211891	0.17690638	-9.5926027	0.20041678	-0.10795281	-10.799747	15	0.072662786	-0.0014423386	0.00746956	0.079862148	0.0021034497	-0.082635298	0.019763656	-0.0038859932	0.0049235442	-0.72438898	1.1325128	0.011221769	-1.1368768	-0.010706135	-0.088402927	-1.5416537	1.29	0.674	0.184	-0.31335284	0.83244822	0.00024872745	1.999682	1.9949744	0.0024961982	1.9967234	0.015888333	0.97169112	1.959612	1.8323788	-0.0044837134	0.031382687	-0.32884654	-0.048262734	-0.24666833	0.11791973	-1.7362484	-0.16593308	-0.040870806	0.0077753819	-0.087025237	0.12898112	0.057356441	0.51684548	2.7611522	0.5692501	0.42478773	0.035666639	0.00026953355	0.00032350856	0.0052486421	0.0033935237	0.0033982764	0.02116972	0.56486257	0.039392104	0.035718986	0.050966068	7.9529697	7.5645914	0.45963531	7.711953	0.49406447	5.5377434	5.9306703	7.9529574	0.051760197	0.46136429	7.5816084	0.29992956	7.5087605	3.4875285	1.9687333	-140.39895	R0:S0:1	-105.04	uncorrelated	51514b8	 2.07e+02	 1.23e-02	 1.97e-02	2022-04-08@21:52
2x2_2C_8b_C2v_L	0.1	14	1.87	0.34560535	-8.0951114	-9.5194464	0.19698757	-9.5908938	0.18029857	-0.10716431	-10.788613	15	0.072595026	0.00072749616	0.0020681006	0.08194346	0.007391615	-0.080652666	-0.019482307	0.0039477491	-0.0040522058	-0.72436458	1.1328292	-0.010842275	-1.1363495	0.011033419	-0.088225817	-1.5410117	1.29	0.674	0.184	-0.31324469	0.83204751	0.00021939551	1.9996845	1.9966789	0.01621427	1.9950209	0.002610494	0.96401799	1.9594482	1.831978	-0.004789032	-0.02977869	-0.24791446	-0.11938384	-0.32698927	0.049866089	1.71886	0.16368609	0.029489528	0.007745141	-0.0579201	0.52050494	0.086545539	0.13515738	2.7765833	0.57119333	0.42476142	0.035668233	0.00023618561	0.00032093575	0.0034450676	0.021654797	0.0051982109	0.0035447237	0.56290636	0.039544717	0.035720586	0.050896666	7.9530494	7.7100397	0.49960418	7.5659546	0.46146438	5.5761234	5.9254505	7.9531707	0.05170311	0.30203052	7.5031199	0.4598636	7.5802402	3.4601155	1.9729912	-140.36656	R0:S0:1	-105.04	uncorrelated	51514b8	 2.06e+02	 1.27e-02	 1.95e-02	2022-04-08@21:55
2x2_2C_8b_C2v_L	0.1	14	1.87	0.34443166	-8.0941708	-9.5175047	0.17423362	-9.5887066	0.20182947	-0.1064115	-10.775114	15	0.072478922	-0.0026751569	0.0073701665	0.079437016	0.0022479715	-0.08279192	0.019096309	-0.0037735709	0.0066551278	-0.72440786	1.1324276	0.010873592	-1.1364863	-0.010419398	-0.088033324	-1.5401958	1.29	0.674	0.184	-0.31292141	0.83169671	0.00035258003	1.9996747	1.9950022	0.0026020106	1.996711	0.015444412	0.95515716	1.9592339	1.8316271	-0.0040772328	0.032534024	-0.32743776	-0.049402884	-0.24743956	0.11640025	-1.6975789	-0.16162274	-0.065211928	0.0078956124	-0.086538597	0.13363881	0.057555769	0.50986934	2.7953287	0.57374636	0.42493832	0.035646223	0.00038753885	0.00033095971	0.0052195853	0.0035523984	0.0034117997	0.020549553	0.56041975	0.039745265	0.035698615	0.052041677	7.9525013	7.5672658	0.46021597	7.7110794	0.4900889	5.6231544	5.9184641	7.9516636	0.052280362	0.45871956	7.5813937	0.3010979	7.5135881	3.4261791	1.978809	-140.32763	R0:S0:1	-105.04	uncorrelated	51514b8	 2.06e+02	 1.28e-02	 1.93e-02	2022-04-08@21:58
2x2_2C_8b_C2v_L	0.1	14	1.87	0.34347513	-8.0932215	-9.5154837	0.19739376	-9.5867027	0.17903505	-0.10612909	-10.761935	15	0.072316222	0.0022220474	0.0018695995	0.082020013	0.0075334277	-0.080287725	-0.019133947	0.003927732	-0.0059683404	-0.72454171	1.1326908	-0.010769636	-1.1360374	0.010802945	-0.087952687	-1.5394232	1.29	0.674	0.184	-0.31299457	0.83163939	0.00030901942	1.9996769	1.9966722	0.016121342	1.9950322	0.0026524098	0.95459856	1.9591915	1.8315698	-0.0042622054	-0.03168836	-0.24801037	-0.1192032	-0.32645951	0.050374574	1.6972328	0.16112276	0.056103793	0.0078604893	-0.058069486	0.51895102	0.08629341	0.13770749	2.7953571	0.57395632	0.42483263	0.035655885	0.00033803287	0.00032865698	0.0034522485	0.021522759	0.0051863417	0.0036066703	0.56030076	0.039784788	0.035708263	0.051652534	7.9526542	7.7092723	0.49953853	7.5674897	0.46119659	5.623503	5.9189985	7.952154	0.052128197	0.30297576	7.5035601	0.45829805	7.5803766	3.4262789	1.9780483	-140.29105	R0:S0:1	-105.04	uncorrelated	51514b8	 2.06e+02	 1.43e-02	 1.91e-02	2022-04-08@22:02
2x2_2C_8b_C2v_L	0.1	14	1.87	0.34237514	-8.0919549	-9.5129621	0.16595667	-9.5838139	0.20934787	-0.10518748	-10.743848	15	0.072035898	-0.00083852546	0.0074688086	0.078265279	0.0020815126	-0.083793708	0.018843654	-0.0036290684	0.0040079569	-0.72466091	1.1329378	0.011104255	-1.1357185	-0.010709225	-0.087857163	-1.5380182	1.29	0.674	0.184	-0.3127015	0.83132713	0.00022036668	1.9996826	1.9950236	0.0024897549	1.9966918	0.015349786	0.94482166	1.9589722	1.8312575	-0.0048275018	0.029180522	-0.32671751	-0.047075797	-0.2478949	0.11684105	-1.6740571	-0.15861365	-0.029852744	0.0077807852	-0.086073544	0.12398033	0.057939101	0.512482	2.8154327	0.57654633	0.42500628	0.035627204	0.00023744491	0.00032281786	0.0051979025	0.003424307	0.0034315214	0.020255944	0.55751233	0.03998987	0.035679594	0.051107055	7.9529315	7.5699876	0.45536333	7.7090814	0.49052183	5.673529	5.9121116	7.9529905	0.05188722	0.4560062	7.5864578	0.30324901	7.513326	3.3889012	1.9838376	-140.23969	R0:S0:1	-105.04	uncorrelated	51514b8	 2.06e+02	 1.37e-02	 1.91e-02	2022-04-08@22:05
2x2_2C_8b_C2v_L	0.1	14	1.87	0.34162514	-8.0909795	-9.5107384	0.19777107	-9.5820152	0.18084109	-0.10489748	-10.730512	15	0.072405306	0.0006243694	0.0021279608	0.082001318	0.0073377553	-0.080529258	-0.01865984	0.0035373932	-0.0034898752	-0.72420046	1.1323949	-0.010274897	-1.1358249	0.010445819	-0.087699682	-1.5371096	1.29	0.674	0.184	-0.31283826	0.83128379	0.00020956995	1.9996841	1.9966695	0.01547862	1.9950489	0.0027814368	0.94333144	1.9589167	1.8312143	-0.0050340865	-0.028679457	-0.24892409	-0.1166419	-0.32549821	0.052126717	1.6685512	0.15892459	0.022844013	0.0077570427	-0.058065391	0.50820637	0.086019064	0.14503549	2.8183109	0.57692684	0.42492782	0.035631681	0.00022514543	0.00032133923	0.0034561312	0.020662871	0.0051687733	0.0037799823	0.55731702	0.040042537	0.035683968	0.051070557	7.9530249	7.7093888	0.49232916	7.5689566	0.46290997	5.6810872	5.9120361	7.9531489	0.051785822	0.30305445	7.5116658	0.45684066	7.5787778	3.3821929	1.9837317	-140.20185	R0:S0:1	-105.04	uncorrelated	51514b8	 2.06e+02	 1.40e-02	 1.88e-02	2022-04-08@22:08
2x2_2C_8b_C2v_L	0.1	14	1.87	0.34071383	-8.0896	-9.5080978	0.16572509	-9.5790796	0.20905173	-0.10349975	-10.711828	15	0.072432997	-0.0024611571	0.0070163692	0.078269111	0.0021239784	-0.083807645	0.018539024	-0.0034801988	0.0066814109	-0.72450476	1.1327468	0.010363344	-1.1354498	-0.010325794	-0.087351429	-1.5360643	1.29	0.674	0.184	-0.31270668	0.83119668	0.00036562985	1.9996757	1.9950418	0.0027806595	1.9966874	0.014975961	0.9347488	1.9587797	1.8311273	-0.0041841474	0.030929087	-0.32567209	-0.050926804	-0.24855465	0.1153674	-1.6520665	-0.15551638	-0.066946037	0.0078803562	-0.085829132	0.14009036	0.058005148	0.50541809	2.8317097	0.57823179	0.42501102	0.035588916	0.00040280474	0.00032990021	0.0051784728	0.0038416438	0.0034368557	0.019780929	0.55497928	0.040167826	0.035641186	0.052164824	7.9526215	7.5710221	0.4620459	7.7087358	0.48688501	5.7147934	5.9098032	7.9515997	0.052192182	0.45484637	7.5799588	0.30373682	7.5176425	3.3577871	1.9848255	-140.1484	R0:S0:1	-105.04	uncorrelated	51514b8	 2.06e+02	 1.51e-02	 1.87e-02	2022-04-08@22:12
2x2_2C_8b_C2v_L	0.1	14	1.87	0.33980515	-8.088373	-9.5053152	0.20316661	-9.5766859	0.17368016	-0.10298684	-10.694754	15	0.072173965	0.0021931043	0.0022320852	0.082824428	0.0073581821	-0.079624232	-0.018462008	0.0035166398	-0.0057783904	-0.72427039	1.1315867	-0.010206408	-1.1358821	0.010452924	-0.087252188	-1.5348156	1.29	0.674	0.184	-0.31274393	0.83117701	0.0003062858	1.999678	1.9966506	0.015138262	1.995079	0.0027593893	0.93155455	1.9587057	1.8311077	-0.0043946156	-0.030438483	-0.25000154	-0.11587923	-0.32456949	0.051161353	1.6448689	0.15454872	0.054829183	0.0078376734	-0.058391077	0.50520313	0.085442088	0.14153191	2.8368215	0.57882233	0.4250001	0.035578552	0.0003352625	0.0003275408	0.0034761434	0.020100893	0.0051377735	0.0037800165	0.55419711	0.040236724	0.035630781	0.051599973	7.9528318	7.707734	0.48987052	7.5719948	0.46015952	5.7272888	5.9092971	7.9522907	0.051980379	0.30485216	7.5146311	0.45363104	7.5815785	3.347566	1.9849315	-140.10051	R0:S0:1	-105.04	uncorrelated	51514b8	 2.06e+02	 1.22e-02	 1.87e-02	2022-04-08@22:15
2x2_2C_8b_C2v_L	0.1	14	1.87	0.33936805	-8.0875471	-9.5038278	0.1803169	-9.5746766	0.1960288	-0.10215885	-10.683227	15	0.072594728	-0.0011385806	0.0070830343	0.08030052	0.0025784025	-0.082089543	0.018262969	-0.0034595627	0.0042354534	-0.72377332	1.1312516	0.010098061	-1.1359682	-0.0098308844	-0.087141471	-1.5340633	1.29	0.674	0.184	-0.31264562	0.83086525	0.000237754	1.9996827	1.9950683	0.0028416194	1.9966515	0.0152761	0.92387196	1.9585478	1.8307959	-0.004887251	0.028373592	-0.32449011	-0.052790469	-0.25028907	0.11619451	-1.6265564	-0.15213427	-0.033993639	0.0077741246	-0.085412621	0.14925366	0.058488065	0.50240397	2.8518522	0.58067857	0.42502011	0.035567522	0.00025726515	0.00032275602	0.0051501285	0.0038640711	0.0034747186	0.020465137	0.5516825	0.040383517	0.035619761	0.05120688	7.9530339	7.5730456	0.46029674	7.7068303	0.49349035	5.7659777	5.9044009	7.9529876	0.051797669	0.45269225	7.5808341	0.30582855	7.5114911	3.3188606	1.9889081	-140.06723	R0:S0:1	-105.04	uncorrelated	51514b8	 2.06e+02	 1.10e-02	 1.84e-02	2022-04-08@22:18
2x2_2C_8b_C2v_L	0.1	14	1.87	0.33901386	-8.0867707	-9.5022958	0.19501713	-9.5730865	0.18011249	-0.10160648	-10.672833	15	0.072170411	0.0018360136	0.0024002798	0.081746242	0.0072232945	-0.08052245	-0.017817341	0.0034608114	-0.0053172452	-0.72422737	1.1320348	-0.009920776	-1.1354428	0.01007702	-0.086963983	-1.5334558	1.29	0.674	0.184	-0.31246622	0.83038374	0.00028706603	1.9996783	1.9966156	0.015381576	1.9951053	0.0028893707	0.91521438	1.9583508	1.8303143	-0.0046104071	-0.029021703	-0.25121067	-0.11682605	-0.3230685	0.053161608	1.602906	0.14993685	0.049289308	0.0078454141	-0.058928432	0.50384016	0.085009738	0.15018062	2.8701353	0.58306462	0.42503222	0.035574897	0.00031330601	0.00032715958	0.0035127933	0.020605894	0.0051099404	0.003935114	0.54863933	0.040567578	0.035627168	0.051693102	7.9527697	7.7054529	0.49592323	7.5743247	0.46059937	5.8149728	5.897745	7.9523351	0.052096149	0.30744504	7.5091673	0.45132382	7.5810977	3.2828884	1.9944805	-140.03713	R0:S0:1	-105.04	uncorrelated	51514b8	 2.06e+02	 1.27e-02	 1.81e-02	2022-04-08@22:22
2x2_2C_8b_C2v_L	0.1	14	1.87	0.33856956	-8.085559	-9.4999054	0.16900124	-9.5704556	0.20462173	-0.1010013	-10.656035	15	0.072120279	-0.0017245839	0.0071431122	0.078831721	0.0022707744	-0.083295334	0.017681179	-0.0032654225	0.0051073983	-0.72420957	1.1319131	0.0099376557	-1.1352037	-0.0098558157	-0.086806146	-1.5323608	1.29	0.674	0.184	-0.31237411	0.83034241	0.00027694561	1.9996791	1.9950775	0.002934221	1.9966506	0.014802134	0.91111183	1.9582383	1.830273	-0.0046681212	0.028656647	-0.32393633	-0.052877974	-0.25023754	0.1149333	-1.5924116	-0.14897869	-0.046635876	0.0078321096	-0.085152425	0.14868665	0.058593543	0.49900741	2.8776041	0.58411363	0.42510399	0.035553267	0.00030185731	0.00032641844	0.0051409175	0.0040461779	0.0034758574	0.019650641	0.54731296	0.040672814	0.035605493	0.051591459	7.9528444	7.5748415	0.46184453	7.706069	0.48841844	5.8349013	5.8959444	7.9524716	0.052027944	0.45094903	7.5801909	0.30681087	7.5171998	3.2677842	1.9957073	-139.98984	R0:S0:1	-105.04	uncorrelated	51514b8	 2.06e+02	 1.65e-02	 1.79e-02	2022-04-08@22:25
2x2_2C_8b_C2v_L	0.1	14	1.87	0.33732762	-8.0833241	-9.4956807	0.20689901	-9.5653976	0.16269679	-0.10007168	-10.624613	15	0.071967934	0.0014479433	0.0022918547	0.083367621	0.0069814933	-0.078015004	-0.017503665	0.0034207451	-0.0047570798	-0.72413303	1.1307318	-0.0098767056	-1.1360857	0.0097739273	-0.086686301	-1.5299677	1.29	0.674	0.184	-0.31223065	0.83020522	0.00026232179	1.9996806	1.9966131	0.014627785	1.995135	0.003007333	0.90286582	1.958061	1.8301359	-0.004773924	-0.027694279	-0.25173437	-0.11459699	-0.3219265	0.053096157	1.5732896	0.14591168	0.042403465	0.0078063636	-0.059038409	0.49760234	0.084446261	0.14956787	2.8916202	0.58579225	0.4251673	0.035523113	0.00028527759	0.00032484426	0.0035159532	0.019353277	0.0050795951	0.0041825756	0.54461179	0.040837288	0.035575289	0.051442867	7.9529779	7.7046245	0.48735453	7.5773568	0.46229534	5.8709465	5.8931093	7.9526733	0.051905633	0.30845217	7.5184451	0.44820265	7.5800765	3.2395598	1.9975769	-139.90232	R0:S0:1	-105.04	uncorrelated	51514b8	 2.06e+02	 1.43e-02	 1.78e-02	2022-04-08@22:28
2x2_2C_8b_C2v_L	0.1	14	1.87	0.337146	-8.0822494	-9.4941195	0.17636747	-9.5628189	0.2014298	-0.098629491	-10.610923	15	0.071647532	-0.0035176482	0.0069440141	0.079938525	0.0024746926	-0.082948842	0.01723675	-0.0032314886	0.007888866	-0.72473286	1.1309958	0.0096099497	-1.1348755	-0.0096031339	-0.086383688	-1.5291993	1.29	0.674	0.184	-0.31215186	0.82991696	0.00048353886	1.999669	1.9951282	0.0030204191	1.9966104	0.0148082	0.89210299	1.9579104	1.8298476	-0.0041181672	0.030334979	-0.32187155	-0.054335216	-0.25194663	0.11531677	-1.547515	-0.14231156	-0.085862767	0.0079911872	-0.084333323	0.15633046	0.059233168	0.49660207	2.909803	0.58740795	0.42516812	0.035506095	0.00053681972	0.0003366598	0.0050876298	0.0041346419	0.0035180733	0.019731911	0.5409026	0.04097535	0.035558303	0.053603223	7.9522282	7.5788071	0.45950698	7.703145	0.49202699	5.9187031	5.8894416	7.9499734	0.052672232	0.44674846	7.5818683	0.31002323	7.5142884	3.2026661	2.0000397	-139.86229	R0:S0:1	-105.04	uncorrelated	51514b8	 2.06e+02	 1.30e-02	 1.76e-02	2022-04-08@22:32
2x2_2C_8b_C2v_L	0.1	14	1.87	0.33658059	-8.0809495	-9.4915307	0.20160822	-9.5601087	0.17103159	-0.097901762	-10.592243	15	0.072129658	-0.00030207566	0.0022583684	0.082758844	0.0066103196	-0.079453898	-0.017116409	0.0032541425	-0.001878707	-0.72374557	1.1307791	-0.0097141137	-1.1349856	0.0089023654	-0.086141584	-1.5280455	1.29	0.674	0.184	-0.31236375	0.82992152	0.0001973789	1.9996871	1.9965778	0.014879963	1.9951619	0.0034188418	0.88906294	1.957837	1.8298525	-0.0056312643	-0.02414776	-0.25302949	-0.11590295	-0.32032291	0.058327274	1.539249	0.14153169	0.0037042833	0.0077113315	-0.059632403	0.49837046	0.084080949	0.17165644	2.9140698	0.58784091	0.42504757	0.035496735	0.00021118945	0.00031815971	0.0035526768	0.019801213	0.0050504516	0.0047269264	0.54004182	0.041043486	0.035548773	0.051265957	7.9532995	7.7017657	0.4938777	7.5789574	0.46920677	5.9307915	5.8898454	7.9532097	0.051587937	0.3114912	7.5123244	0.44639796	7.5729394	3.1930787	1.9992014	-139.80991	R0:S0:1	-105.04	uncorrelated	51514b8	 2.06e+02	 1.20e-02	 1.73e-02	2022-04-08@22:35
2x2_2C_8b_C2v_L	0.1	14	1.87	0.33624702	-8.0800537	-9.490016	0.17749571	-9.5579599	0.19692597	-0.096610155	-10.579594	15	0.07185242	-0.0023622148	0.0072418164	0.080132668	0.0023955856	-0.08229586	0.016839675	-0.0032684547	0.0057620165	-0.72413009	1.1305207	0.0094038242	-1.1347983	-0.0092977304	-0.085867265	-1.5274698	1.29	0.674	0.184	-0.31201684	0.82966437	0.00032453333	1.9996772	1.9951517	0.0030731611	1.9965899	0.01476687	0.87797732	1.9576404	1.8295953	-0.0046285759	0.027668289	-0.32103499	-0.054911439	-0.25293467	0.11523587	-1.5116835	-0.1374388	-0.057534685	0.0078514344	-0.083835141	0.15970949	0.059591429	0.49289812	2.9340779	0.59009112	0.42523161	0.035452637	0.0003560402	0.00032826764	0.0050629536	0.0042038149	0.0035398421	0.019772735	0.53557223	0.041224663	0.035504698	0.051964387	7.9528961	7.5816263	0.45780876	7.7013541	0.49408612	5.985159	5.8840956	7.9520273	0.052013041	0.4437466	7.5832397	0.31202513	7.512807	3.1525311	2.0034953	-139.77347	R0:S0:1	-105.04	uncorrelated	51514b8	 2.06e+02	 1.08e-02	 1.70e-02	2022-04-08@22:38
2x2_2C_8b_C2v_L	0.1	14	1.87	0.33594819	-8.0791619	-9.4882381	0.1944202	-9.5561644	0.17858103	-0.095904948	-10.567226	15	0.071744306	0.0020919278	0.0024482464	0.081782166	0.0066250383	-0.08043488	-0.01625323	0.0029182334	-0.0054069226	-0.7241929	1.1310906	-0.0093034488	-1.1343521	0.0085614948	-0.085831001	-1.5265431	1.29	0.674	0.184	-0.31181263	0.82888573	0.00030814726	1.9996764	1.996539	0.014892779	1.9952054	0.0034852112	0.86545063	1.9573602	1.8288164	-0.0047887122	-0.026635396	-0.25446493	-0.11601368	-0.31825218	0.059485681	1.471962	0.13449291	0.053214258	0.007882462	-0.060246614	0.49352789	0.083324315	0.17798214	2.9612135	0.59359015	0.42519137	0.035478084	0.00033719248	0.00032911092	0.0035937129	0.019976129	0.0050046884	0.0047768435	0.53004948	0.041486996	0.035530256	0.052152062	7.9527086	7.6991211	0.49781631	7.5830031	0.46600747	6.0613698	5.8740166	7.9519432	0.052257426	0.31461211	7.5094354	0.44229009	7.5755792	3.0942871	2.012236	-139.73818	R0:S0:1	-105.04	uncorrelated	51514b8	 2.06e+02	 9.56e-03	 1.67e-02	2022-04-08@22:41
2x2_2C_8b_C2v_L	0.1	14	1.87	0.33585347	-8.0787546	-9.487541	0.18383517	-9.5551489	0.18946787	-0.095763818	-10.561188	15	0.07142297	-0.0035071557	0.006426205	0.080967515	0.0024942282	-0.081285144	0.016021572	-0.0027618708	0.0074534926	-0.7245688	1.1300575	0.008158066	-1.1352877	-0.0090796302	-0.085834633	-1.5259969	1.29	0.674	0.184	-0.31170899	0.82862072	0.00045894327	1.9996679	1.9951778	0.0036282905	1.9965564	0.015025723	0.86118761	1.9572696	1.8285512	-0.0044046318	0.02868417	-0.31873962	-0.06148322	-0.25380422	0.11623432	-1.4580298	-0.13363273	-0.081436457	0.008023004	-0.083583949	0.18668886	0.060119503	0.49199018	2.9702377	0.5946936	0.42518773	0.035490563	0.00050859882	0.00033774893	0.0050344699	0.0049436676	0.0035748974	0.020287321	0.52817902	0.041571882	0.035542801	0.053782389	7.9520898	7.5826217	0.4683827	7.6991662	0.50028524	6.086495	5.8709336	7.9499612	0.052897551	0.44282383	7.5728157	0.31459614	7.507319	3.0743877	2.0149052	-139.72148	R0:S0:1	-105.04	uncorrelated	51514b8	 2.06e+02	 9.15e-03	 1.63e-02	2022-04-08@22:45
