model	E_kin	D	U	e	eb1_1	eb2_1	eb3_1	eb4_1	eb5_1	eb6_1	eb7_1	eb8_1	mu	sb1_1	sb2_1	sb3_1	sb4_1	sb5_1	sb6_1	sb7_1	sb8_1	tb1_1	tb2_1	tb3_1	tb4_1	tb5_1	tb6_1	tb7_1	tb8_1	tpd	tpp	tppp	ave_D	ave_e	ave_mu	ave_tpd	ave_tpp	ave_tppp	ave_D_1	ave_U_1	ave_eb1_1	ave_eb2_1	ave_eb3_1	ave_eb4_1	ave_eb5_1	ave_eb6_1	ave_eb7_1	ave_eb8_1	ave_mu_1	ave_sb1_1	ave_sb2_1	ave_sb3_1	ave_sb4_1	ave_sb5_1	ave_sb6_1	ave_sb7_1	ave_sb8_1	ave_tb1_1	ave_tb2_1	ave_tb3_1	ave_tb4_1	ave_tb5_1	ave_tb6_1	ave_tb7_1	ave_tb8_1	var_D_1	var_U_1	var_eb1_1	var_eb2_1	var_eb3_1	var_eb4_1	var_eb5_1	var_eb6_1	var_eb7_1	var_eb8_1	var_mu_1	var_sb1_1	var_sb2_1	var_sb3_1	var_sb4_1	var_sb5_1	var_sb6_1	var_sb7_1	var_sb8_1	var_tb1_1	var_tb2_1	var_tb3_1	var_tb4_1	var_tb5_1	var_tb6_1	var_tb7_1	var_tb8_1	E0_1	sector_1	E0_2	sector_2	githash	time
2x2_2C_8b_C2v_L	7.5292335	0.1	14	2.21	0.16572639	-8.380208	-9.2518517	-0.25830386	-9.2553646	-0.25834886	0.42484576	-9.1172	13.5	0.001626204	0.00024558395	0.0032957687	-0.036025265	0.0033635541	-0.036444414	0.00020135685	6.3788791e-05	-0.025306334	-0.78972437	1.191228	-0.0098136531	-1.1915875	0.0094253275	-0.054803042	-1.5164161	1.27	0.623	0.132	-0.066006261	1.3165792	1.6698774	-0.2929243	-0.037754798	0.01697107	-0.1489547	0.061964495	9.1197601e-05	1.9771048	1.9500611	1.9992712	1.9500584	1.9992917	9.9123931e-05	1.9066029	1.0614907	-0.0079496412	-7.148096e-05	-0.13781893	0.042354491	-0.13786578	0.042404906	-0.0011317797	-0.00012299089	0.025972278	0.55888747	-0.86418785	0.093201656	0.86423729	-0.091379675	0.03390341	1.2407109	0.67905614	0.016214443	9.253494e-05	0.022818729	0.049362543	0.00074646612	0.049365056	0.00072582359	9.9611242e-05	0.090608923	0.016177145	3.4119216	4.7541194	4.6106056	4.2662627	4.6104187	4.2658682	4.1217693	4.5805877	4.5893694	3.4505304	3.7662193	3.7389891	3.7664125	3.7392223	3.8791273	4.0231434	-129.3749	R0:S0:1	-90.32	uncorrelated	51514b8	2022-04-11@05:20
2x2_2C_8b_C2v_L	7.529384	0.1	14	2.21	0.16572639	-8.380208	-9.2518517	-0.25830386	-9.2553646	-0.25834886	0.42484576	-9.1172	13.52	0.001626204	0.00024558395	0.0032957687	-0.036025265	0.0033635541	-0.036444414	0.00020135685	6.3788791e-05	-0.025306334	-0.78972437	1.191228	-0.0098136531	-1.1915875	0.0094253275	-0.054803042	-1.5164161	1.27	0.623	0.132	-0.067181385	1.3165863	1.6700634	-0.29280625	-0.037750566	0.016966697	-0.15155654	0.062459469	9.508135e-05	1.9770358	1.9499214	1.9992393	1.9499186	1.9992605	9.9633371e-05	1.9062315	1.0619844	-0.0080490706	-6.9561573e-05	-0.14048701	0.043002306	-0.14053466	0.043045448	-0.0011465998	-0.00012645263	0.026154369	0.55950543	-0.86504986	0.095253319	0.86509918	-0.093414314	0.033880629	1.2432934	0.67799831	0.01638945	9.6510179e-05	0.022887684	0.049500378	0.00077929603	0.049502895	0.00075794816	0.00010013824	0.090956584	0.016351957	3.4092054	4.7573219	4.6137696	4.2695876	4.613584	4.2691898	4.1225559	4.5826251	4.5921605	3.4481543	3.7638171	3.7359056	3.7640093	3.7361362	3.8783494	4.0232548	-129.45984	R0:S0:1	-90.48	uncorrelated	51514b8	2022-04-11@05:23
2x2_2C_8b_C2v_L	7.5292339	0.1	14	2.21	0.16587568	-8.3802532	-9.2519537	-0.25848816	-9.2554707	-0.25854596	0.42504785	-9.1172663	13.54	0.0012158634	0.00035447582	0.0034256012	-0.037031194	0.0034759661	-0.037261218	0.00016915512	2.9457615e-05	-0.025640328	-0.78869802	1.1889385	-0.0099083563	-1.1892102	0.0095937119	-0.055712082	-1.513485	1.27	0.623	0.132	-0.068514972	1.3165895	1.670177	-0.29274514	-0.037751991	0.016964086	-0.15473877	0.062853686	0.00010090226	1.9769994	1.9499488	1.9991671	1.9499642	1.999188	0.00010386211	1.9062017	1.062379	-0.0060920253	-0.00021297037	-0.14353948	0.044868969	-0.1435381	0.044794797	-0.0010212432	3.8129643e-05	0.026717812	0.55987993	-0.86449894	0.099401871	0.86433835	-0.097741993	0.034433557	1.2435415	0.67683121	0.01655761	0.00010247578	0.022924059	0.049474923	0.00085438707	0.049459946	0.00083318218	0.00010442788	0.090985555	0.016520901	3.4084156	4.7584457	4.6153711	4.2730614	4.6154998	4.2731123	4.1229282	4.5827359	4.5930668	3.4475304	3.7616245	3.7329474	3.7614286	3.7327369	3.8780221	4.0236929	-129.53812	R0:S0:1	-90.64	uncorrelated	51514b8	2022-04-11@05:27
2x2_2C_8b_C2v_L	7.5292301	0.1	14	2.21	0.16618341	-8.3803323	-9.2518773	-0.25889898	-9.2553908	-0.25897227	0.42547849	-9.11703	13.56	0.00059552045	0.00013578185	0.0031390774	-0.037996676	0.0032007624	-0.03794458	8.5679746e-05	9.2413067e-05	-0.026542981	-0.78681732	1.1887734	-0.010321715	-1.1890612	0.010165914	-0.056474339	-1.5121232	1.27	0.623	0.132	-0.069813097	1.3165945	1.6703543	-0.29265097	-0.037754925	0.016962045	-0.15758619	0.063361588	0.00011269698	1.9770313	1.9498353	1.9990592	1.9498408	1.9990736	0.00010745005	1.9059516	1.0628844	-0.0030416805	-2.4744523e-05	-0.14631687	0.047111534	-0.14634408	0.046919479	-0.00049596813	-0.00010380802	0.02793331	0.55928259	-0.86504875	0.10542622	0.86501619	-0.10444567	0.034871952	1.2454085	0.67559243	0.016745197	0.000114582	0.022892752	0.049587552	0.00096615846	0.049582051	0.00095126408	0.00010806711	0.091219198	0.016708754	3.4059477	4.7607365	4.6189165	4.2778089	4.6187577	4.2775377	4.1243608	4.5833963	4.5957344	3.4452116	3.7586228	3.7289898	3.7587356	3.7291537	3.876627	4.0244909	-129.62133	R0:S0:1	-90.8	uncorrelated	51514b8	2022-04-11@05:31
2x2_2C_8b_C2v_L	7.5291038	0.1	14	2.21	0.16664784	-8.3803524	-9.2518934	-0.25951488	-9.2554119	-0.25959948	0.42610685	-9.1166559	13.58	-0.00014998192	-9.448148e-05	0.0032827234	-0.039492244	0.0032863123	-0.039262154	7.0568758e-05	-0.00020012629	-0.027339407	-0.78613983	1.1865899	-0.01085813	-1.1866952	0.010893777	-0.057287081	-1.5106784	1.27	0.623	0.132	-0.071318863	1.3165985	1.6705233	-0.29257054	-0.037758756	0.016960392	-0.16123177	0.063920824	0.00012896753	1.9769927	1.9498618	1.9989008	1.9499006	1.998904	0.00011198095	1.9057232	1.0634414	0.00082466308	-9.3651001e-05	-0.14985857	0.050335437	-0.14978552	0.050151863	-0.00051981422	0.00027123818	0.029149348	0.55954569	-0.86442019	0.11357234	0.86401646	-0.11346499	0.035364416	1.2470844	0.67413899	0.016966089	0.00013127151	0.022931525	0.049563255	0.0011308345	0.049525655	0.0011271299	0.00011266645	0.091433294	0.016930371	3.4035276	4.7635171	4.621028	4.2827835	4.6213387	4.2833255	4.1255015	4.5842337	4.5984166	3.4430477	3.7558375	3.7251585	3.755329	3.7246006	3.8755351	4.0251835	-129.70251	R0:S0:1	-90.96	uncorrelated	51514b8	2022-04-11@05:34
2x2_2C_8b_C2v_L	7.5292852	0.1	14	2.21	0.16735532	-8.3803383	-9.2517243	-0.26048011	-9.2552332	-0.26056919	0.42703601	-9.1160424	13.6	-0.0010250175	-0.00031737286	0.0029194851	-0.04028968	0.0028795281	-0.039952926	-0.0002169836	0.00054184765	-0.028194057	-0.78609305	1.1865578	-0.011584457	-1.1866894	0.011884696	-0.058010486	-1.5095408	1.27	0.623	0.132	-0.072716427	1.3166068	1.6707473	-0.29242904	-0.037754209	0.016954705	-0.16429569	0.06453697	0.00014975308	1.9769188	1.9497613	1.9987313	1.9497629	1.9987069	0.00011637863	1.9054645	1.0640563	0.0052596197	0.00051058765	-0.1527985	0.053121559	-0.15281915	0.053117306	0.0015318204	-0.00071810039	0.030433411	0.56023446	-0.86471932	0.12185734	0.86481288	-0.12346575	0.0358068	1.2489246	0.67269959	0.017186511	0.00015261597	0.023005379	0.049663686	0.0013060104	0.049661649	0.0013304565	0.0001171293	0.091675768	0.017151306	3.4010853	4.7665708	4.62549	4.2892022	4.624588	4.2884782	4.1264052	4.5854578	4.6011674	3.4408865	3.7518237	3.7199864	3.7525935	3.7209004	3.8746768	4.025616	-129.78834	R0:S0:1	-91.12	uncorrelated	51514b8	2022-04-11@05:38
2x2_2C_8b_C2v_L	7.5293667	0.1	14	2.21	0.16832315	-8.3803178	-9.2515739	-0.2618021	-9.2550721	-0.26188903	0.42827414	-9.1152655	13.62	-0.0019241992	-0.00056063557	0.0027308635	-0.041122617	0.0026212372	-0.040809423	-8.707809e-06	-0.00075131634	-0.029146718	-0.78607362	1.1854064	-0.01238409	-1.1855376	0.012970784	-0.058831215	-1.5077047	1.27	0.623	0.132	-0.07424922	1.3166142	1.6709622	-0.29230053	-0.03775159	0.016949554	-0.16782021	0.065175308	0.00017979794	1.9768379	1.949707	1.9985208	1.9497578	1.9984658	0.00012153978	1.9052853	1.064694	0.010394955	-0.0001679404	-0.15627591	0.056353984	-0.15608236	0.056635318	-0.0002624121	0.00095635882	0.031935348	0.56102817	-0.86478439	0.13143905	0.86423427	-0.13457404	0.036321254	1.2502287	0.67109809	0.017426014	0.00018351236	0.023086121	0.049718353	0.0015235541	0.049669169	0.0015794623	0.0001223621	0.091844278	0.017391598	3.3989558	4.7694125	4.6281316	4.2945629	4.6287121	4.2959876	4.1272561	4.5862261	4.6037204	3.439012	3.7489966	3.7161663	3.7481495	3.7151688	3.8738811	4.0261893	-129.87268	R0:S0:1	-91.28	uncorrelated	51514b8	2022-04-11@05:42
2x2_2C_8b_C2v_L	7.5293991	0.1	14	2.21	0.16962489	-8.3803051	-9.251381	-0.26357774	-9.2548707	-0.2636567	0.42989292	-9.1141583	13.64	-0.0026778919	-0.00074690654	0.0026241293	-0.041537737	0.0024143791	-0.041395075	-0.00047887293	0.00064859686	-0.030129154	-0.78574123	1.1839957	-0.013209442	-1.1840684	0.014026556	-0.059251796	-1.5067828	1.27	0.623	0.132	-0.075878435	1.3166211	1.6712	-0.2921748	-0.037752946	0.016946218	-0.17160585	0.065886021	0.00021439283	1.9767876	1.9497283	1.9983042	1.9497281	1.9982019	0.00012575163	1.904973	1.065403	0.014256691	0.0008467967	-0.15981949	0.059382249	-0.15977367	0.060141956	0.0032962443	-0.00090478815	0.033524018	0.56135313	-0.86390999	0.14066761	0.86407802	-0.14591261	0.036576012	1.2525135	0.66937597	0.017691872	0.00021914221	0.02313657	0.049700405	0.0017463537	0.049699867	0.0018513192	0.00012664961	0.092136467	0.017657839	3.3956903	4.7731822	4.6325561	4.302366	4.631166	4.3018473	4.1287795	4.5873299	4.6074802	3.4360146	3.7440935	3.7099748	3.745262	3.7112645	3.8724015	4.0270437	-129.95856	R0:S0:1	-91.44	uncorrelated	51514b8	2022-04-11@05:45
2x2_2C_8b_C2v_L	7.5292052	0.1	14	2.21	0.17383217	-8.3803677	-9.2508727	-0.26866989	-9.2543449	-0.26877001	0.43387531	-9.1116329	13.66	0.0026964439	0.00077644674	0.0033634952	-0.038595415	0.0035387616	-0.039094755	0.00016355231	-0.00040395818	-0.027712297	-0.78289096	1.1819841	-0.012178424	-1.1823923	0.011283971	-0.058563351	-1.5045854	1.27	0.623	0.132	-0.077478467	1.3166248	1.6713564	-0.29210308	-0.037758974	0.016945038	-0.1753603	0.066300746	0.00018095797	1.9768731	1.9497001	1.9985413	1.9497196	1.9986337	0.00012122311	1.9047701	1.0658209	-0.01459181	-0.00069099426	-0.16372834	0.055462828	-0.16374229	0.05491151	-0.0011149099	0.0005719686	0.030883286	0.56013643	-0.86395317	0.13226947	0.8636651	-0.12695036	0.036068135	1.254091	0.66811414	0.017894987	0.00018444236	0.023052203	0.049729017	0.0014961005	0.04971048	0.0014022543	0.00012207115	0.092326099	0.017859678	3.3933115	4.7748926	4.6334689	4.3020208	4.6343611	4.3022755	4.1302869	4.587679	4.6094432	3.4338936	3.7428798	3.7086561	3.7420311	3.7076935	3.8708628	4.0280842	-130.04934	R0:S0:1	-91.6	uncorrelated	51514b8	2022-04-11@05:49
2x2_2C_8b_C2v_L	7.5294182	0.1	14	2.21	0.18000809	-8.38022	-9.2499176	-0.27599399	-9.2533935	-0.2761484	0.43960783	-9.1077276	13.68	-0.00013123113	-5.0317978e-05	0.002802044	-0.042317721	0.0027296463	-0.042305452	-2.6215544e-06	-1.9415857e-05	-0.031418805	-0.78359133	1.1817882	-0.013225864	-1.1819888	0.013587568	-0.060402941	-1.5031364	1.27	0.623	0.132	-0.079310218	1.316635	1.6716769	-0.29192083	-0.037757279	0.016939097	-0.17952708	0.067237361	0.00023603104	1.9767616	1.9496342	1.9981396	1.9496489	1.9980875	0.00013063497	1.9044646	1.066752	0.00071228155	3.9729086e-05	-0.16772665	0.062742617	-0.16766991	0.063194388	1.1887117e-05	-8.8734077e-06	0.035803357	0.5611639	-0.86369607	0.14769467	0.86359325	-0.15007965	0.037187576	1.256335	0.66588418	0.018227047	0.00024133238	0.02316352	0.049796648	0.0019134061	0.049782162	0.0019668088	0.00013160878	0.092612262	0.018193823	3.3897979	4.7794888	4.6392372	4.3125939	4.6389401	4.3128352	4.1319739	4.5886706	4.6138847	3.4306435	3.7370611	3.7009654	3.7372048	3.701115	3.8692742	4.0291058	-130.15145	R0:S0:1	-91.76	uncorrelated	51514b8	2022-04-11@05:56
2x2_2C_8b_C2v_L	7.5294801	0.1	14	2.21	0.19044045	-8.3801202	-9.248616	-0.28769087	-9.2520725	-0.28793709	0.44819244	-9.1019027	13.7	0.0011785931	0.00049979654	0.0024446013	-0.044159792	0.002630206	-0.044452604	0.00012421595	2.5143567e-05	-0.032395332	-0.78266543	1.1808722	-0.01448618	-1.1812149	0.013678956	-0.061842559	-1.5014712	1.27	0.623	0.132	-0.081205678	1.3166432	1.6719767	-0.29176739	-0.037761021	0.016935574	-0.18390408	0.068111819	0.00026907856	1.9767479	1.9495911	1.9977884	1.9496076	1.9979022	0.00013819461	1.9041276	1.0676227	-0.0064891663	-0.00035466171	-0.17195401	0.067992038	-0.17199355	0.067248914	-0.00083987316	0.00012755091	0.037498669	0.56098395	-0.86341627	0.1614466	0.86319276	-0.15636663	0.038028515	1.2588658	0.66372586	0.018555781	0.00027502236	0.023177821	0.049841518	0.0022742175	0.049825772	0.0021581345	0.0001392625	0.092927196	0.01852363	3.3858817	4.7837215	4.6433979	4.3210744	4.6439987	4.3208405	4.1341473	4.5894726	4.6183067	3.4269567	3.732514	3.6950381	3.7319531	3.6944123	3.8671823	4.0304399	-130.26375	R0:S0:1	-91.92	uncorrelated	51514b8	2022-04-11@06:03
2x2_2C_8b_C2v_L	7.5296155	0.1	14	2.21	0.20657299	-8.37995	-9.2468103	-0.30533638	-9.2502521	-0.30572098	0.46060525	-9.093433	13.72	0.00017361415	-0.00014916627	0.0022300214	-0.046069021	0.002282117	-0.046031098	9.1668208e-05	8.9595402e-07	-0.0346028	-0.78254856	1.1799526	-0.014918816	-1.1802315	0.015102268	-0.063049794	-1.4997248	1.27	0.623	0.132	-0.08319503	1.3166529	1.67231	-0.29159072	-0.037762748	0.016930846	-0.18849441	0.069070515	0.00031543076	1.9766889	1.9495706	1.9975712	1.949568	1.9975412	0.0001442796	1.9037548	1.0685777	-0.0010015408	0.00017309657	-0.17641031	0.072217352	-0.17645718	0.072436061	-0.0005804082	-0.00015604486	0.040616572	0.56132634	-0.86275845	0.16890172	0.86284163	-0.17011394	0.038710056	1.2616157	0.66139932	0.018913315	0.00032245663	0.023237109	0.049865069	0.0024948835	0.049867293	0.002525231	0.00014540441	0.09327586	0.018882432	3.3818063	4.7885479	4.6488416	4.3298181	4.6483496	4.3295304	4.1362449	4.5906233	4.6231347	3.4230977	3.7267023	3.6878405	3.7271263	3.688344	3.8651543	4.0316922	-130.39311	R0:S0:1	-92.08	uncorrelated	51514b8	2022-04-11@06:10
2x2_2C_8b_C2v_L	7.5298453	0.1	14	2.21	0.22840571	-8.3797094	-9.2445005	-0.32893054	-9.2479321	-0.32950006	0.47684626	-9.0823183	13.74	-0.0031461681	-0.0019972064	0.0021583043	-0.048045408	0.0016853793	-0.047040934	-0.00010026478	-9.2158696e-05	-0.03804121	-0.78324072	1.1790292	-0.014523772	-1.1790387	0.017857504	-0.064024646	-1.497897	1.27	0.623	0.132	-0.085280085	1.3166643	1.6726817	-0.29138591	-0.037761835	0.016924617	-0.19329317	0.070127343	0.00041272059	1.9765844	1.9495746	1.9975132	1.9495305	1.996971	0.00014994236	1.9033478	1.0696311	0.017108005	0.0016143684	-0.18108698	0.075294313	-0.18105712	0.078801436	0.00077773847	-0.00079486857	0.045170764	0.56218883	-0.86169266	0.16993518	0.86254143	-0.19102085	0.039257825	1.2645569	0.65888865	0.0193029	0.00042229093	0.023341717	0.049865706	0.0025500959	0.049906417	0.0031005676	0.00015108663	0.093656671	0.019273523	3.3776892	4.7939869	4.6556887	4.3387941	4.6519434	4.3390399	4.1381756	4.5921963	4.6286396	3.4190386	3.7195215	3.6792209	3.7227348	3.6830217	3.8632885	4.0328003	-130.53959	R0:S0:1	-92.24	uncorrelated	51514b8	2022-04-11@06:13
2x2_2C_8b_C2v_L	7.529817	0.1	14	2.21	0.2580409	-8.3796892	-9.2416313	-0.35981725	-9.245055	-0.36060067	0.49751383	-9.0680218	13.76	-0.0027640867	0.00043408451	0.0018725855	-0.050578406	0.0010188492	-0.050450778	-0.00055589562	9.9488214e-05	-0.037545053	-0.77999458	1.1785741	-0.016432514	-1.1782848	0.018582054	-0.066419979	-1.4950041	1.27	0.623	0.132	-0.087507195	1.3166721	1.6730542	-0.29122479	-0.037775551	0.01692399	-0.1984158	0.071238402	0.00039973893	1.9767163	1.949462	1.997051	1.9495569	1.9966761	0.00016155384	1.9029354	1.0707362	0.015224685	-0.00054164116	-0.18639753	0.082106312	-0.18572183	0.084819161	0.0034886728	0.00061350736	0.045048929	0.56012238	-0.86198563	0.18657297	0.86112781	-0.19991523	0.040583613	1.2678169	0.65612051	0.019720744	0.00040716066	0.023211625	0.049978352	0.0030174515	0.049886041	0.0033990157	0.00016281296	0.094040564	0.019692619	3.3720767	4.7988005	4.6599692	4.347834	4.6597098	4.3512119	4.1419937	4.5922063	4.6340943	3.4136736	3.7149372	3.6734253	3.7144232	3.6728942	3.8595934	4.0352535	-130.70486	R0:S0:1	-92.4	uncorrelated	51514b8	2022-04-11@06:17
2x2_2C_8b_C2v_L	7.5302689	0.1	14	2.21	0.29461248	-8.3793732	-9.2383825	-0.39789876	-9.241762	-0.39904502	0.52254494	-9.0504195	13.78	0.0015038934	-0.00041597452	0.0010247386	-0.052996139	0.0015440852	-0.052757253	4.8013807e-05	-0.00037624048	-0.045362852	-0.78355094	1.1774684	-0.019271332	-1.1775647	0.016934388	-0.067220456	-1.4931247	1.27	0.623	0.132	-0.089902097	1.3166879	1.6735231	-0.29094774	-0.037768064	0.01691381	-0.20399572	0.072497337	0.00055723982	1.9764477	1.9494569	1.9964434	1.9495134	1.9969068	0.00016336976	1.9024261	1.0719893	-0.0079635723	4.8812347e-05	-0.19151465	0.089694022	-0.19166912	0.08606537	-0.00020984928	0.00017237755	0.054764592	0.56290266	-0.86117171	0.20706802	0.86042913	-0.19133392	0.040968074	1.2713371	0.6531668	0.020189894	0.00056943098	0.023479348	0.049987139	0.0036287102	0.04993323	0.0031562876	0.00016456165	0.09451797	0.02016479	3.3680262	4.8059339	4.6649157	4.3594136	4.6667933	4.3579418	4.1434805	4.5949942	4.6407019	3.4094369	3.7089211	3.6662167	3.707197	3.6642769	3.8581426	4.0359879	-130.89551	R0:S0:1	-92.56	uncorrelated	51514b8	2022-04-11@06:20
2x2_2C_8b_C2v_L	7.5303153	0.1	14	2.21	0.33913623	-8.3795355	-9.2348188	-0.44286488	-9.2380515	-0.44421063	0.55147283	-9.0297318	13.8	0.0021244932	0.0010512213	4.527221e-05	-0.056114514	0.0009751269	-0.057795823	0.00017085076	0.00034483379	-0.042728954	-0.78048745	1.1761905	-0.02072598	-1.1776634	0.018505089	-0.07047524	-1.4905149	1.27	0.623	0.132	-0.092344434	1.3166976	1.6739736	-0.29075283	-0.037782702	0.016912994	-0.20962567	0.073816434	0.00048928171	1.9765832	1.9495209	1.9960934	1.9493929	1.9964308	0.00017854897	1.9018388	1.073301	-0.011271643	-0.00034376632	-0.1966486	0.096043253	-0.19732445	0.094687377	-0.0009501012	-0.00040326887	0.051836619	0.56066752	-0.85938887	0.21771235	0.86055082	-0.20631439	0.042766182	1.2758156	0.64999173	0.020682046	0.00049677012	0.023345893	0.049930511	0.0039766971	0.050055079	0.0036388719	0.00017985166	0.095064566	0.020658331	3.3605614	4.8122522	4.6724822	4.3719974	4.6727822	4.368983	4.1479053	4.5958062	4.6470851	3.4026784	3.7003377	3.655976	3.7010095	3.6563897	3.8538813	4.0386113	-131.10303	R0:S0:1	-92.72	uncorrelated	51514b8	2022-04-11@06:23
2x2_2C_8b_C2v_L	7.5306883	0.1	14	2.21	0.39054427	-8.3795837	-9.2309275	-0.49465767	-9.2341934	-0.49643971	0.58446799	-9.0060104	13.82	0.0021594741	0.0004965477	-7.1524895e-05	-0.059007503	0.0005369451	-0.058702704	0.00047986849	-3.5638336e-05	-0.04942491	-0.78185076	1.1757055	-0.021560393	-1.1760465	0.020263118	-0.070951824	-1.4870341	1.27	0.623	0.132	-0.094959343	1.3167129	1.6744864	-0.2904748	-0.037782706	0.016904903	-0.21567062	0.075204022	0.0006290872	1.9764467	1.9494578	1.9959266	1.9494624	1.9962038	0.0001792204	1.9013551	1.0746837	-0.010980848	-0.00030430618	-0.20277905	0.10079961	-0.20306519	0.098592292	-0.0031753413	-1.1524111e-05	0.060002343	0.56179795	-0.85890909	0.22280377	0.85876249	-0.21420041	0.042885519	1.2793242	0.6466394	0.021208904	0.00063920827	0.023482564	0.049996862	0.0041370905	0.049992737	0.0038552042	0.00018042314	0.095516909	0.021187879	3.355781	4.8191967	4.678915	4.3812652	4.6798053	4.3799956	4.1504659	4.5975569	4.6540609	3.3975903	3.6934093	3.6476747	3.6927312	3.6469138	3.8513382	4.0402384	-131.33216	R0:S0:1	-92.88	uncorrelated	51514b8	2022-04-11@06:27
2x2_2C_8b_C2v_L	7.5311351	0.1	14	2.21	0.44944877	-8.3798254	-9.2267316	-0.55318187	-9.2299835	-0.55529825	0.62120673	-8.9790884	13.84	0.00042449652	0.0016474825	-0.00027145187	-0.062677217	-0.00094307763	-0.062522205	0.00051874415	0.00019462603	-0.052921091	-0.78262359	1.1757745	-0.022620486	-1.175329	0.023169777	-0.073852588	-1.4842579	1.27	0.623	0.132	-0.097708512	1.3167296	1.6750811	-0.29016768	-0.037786045	0.016897748	-0.22195332	0.076824083	0.00068797405	1.9763605	1.9493551	1.995683	1.9495175	1.9956174	0.00019225199	1.9006888	1.0762952	-0.0016058054	-0.0017270994	-0.20943146	0.10690392	-0.20857642	0.1073244	-0.0040786902	0.0012438598	0.064343312	0.5621618	-0.85862754	0.22952355	0.85687871	-0.23131015	0.04444026	1.2841733	0.6428686	0.021802158	0.00069785146	0.023569541	0.050102413	0.0043762572	0.049945712	0.0044413521	0.00019350312	0.096138275	0.021784236	3.3486943	4.8276101	4.6863754	4.3920806	4.6884633	4.3956134	4.1541768	4.5996718	4.6620847	3.390743	3.6856079	3.6382329	3.6828607	3.6352782	3.8477683	4.0423468	-131.58332	R0:S0:1	-93.04	uncorrelated	51514b8	2022-04-11@06:30
2x2_2C_8b_C2v_L	7.5314499	0.1	14	2.21	0.51569387	-8.3802374	-9.2223658	-0.61854781	-9.2254972	-0.62105934	0.66190794	-8.9490676	13.86	-0.00044479368	-0.0002801751	-0.0012907649	-0.066986841	-0.001533028	-0.066092777	0.0007502877	-0.00011059071	-0.057286725	-0.78264222	1.1741026	-0.023058998	-1.174398	0.026721262	-0.07632954	-1.4811687	1.27	0.623	0.132	-0.10073126	1.3167451	1.6757207	-0.28986776	-0.037797919	0.016893634	-0.22903915	0.078616236	0.00078003735	1.9763311	1.949545	1.9955766	1.9494656	1.99491	0.00020285634	1.899957	1.0780772	0.001931819	0.00049953035	-0.21565632	0.11267528	-0.21581926	0.11680146	-0.0050054373	-0.00023473215	0.069771244	0.56173312	-0.85514798	0.23157845	0.85632828	-0.25093861	0.045676155	1.2895949	0.63863174	0.022472961	0.00079023822	0.023600315	0.049926204	0.0044777258	0.050000976	0.0051466533	0.00020410828	0.096819789	0.022458399	3.3404761	4.8369885	4.6976408	4.4078896	4.6937706	4.4082631	4.1589338	4.6014326	4.6716919	3.3825698	3.6727117	3.6228981	3.6761239	3.6272478	3.8431284	4.045188	-131.8533	R0:S0:1	-93.2	uncorrelated	51514b8	2022-04-11@06:33
2x2_2C_8b_C2v_L	7.5320501	0.1	14	2.21	0.58928589	-8.3808518	-9.2176428	-0.6905281	-9.2208312	-0.69346126	0.7062758	-8.9160541	13.88	-0.002097939	-0.0017708285	-0.00090196394	-0.070320268	-0.0036957053	-0.069419892	0.00051904115	0.00028282935	-0.060691754	-0.78271276	1.1754117	-0.024549267	-1.1734904	0.02985587	-0.078590114	-1.4775037	1.27	0.623	0.132	-0.10369027	1.3167646	1.6764137	-0.28950857	-0.037801711	0.01688543	-0.23565134	0.08040765	0.00083929109	1.9762946	1.9493489	1.9953865	1.9495697	1.9944159	0.00021031216	1.8992417	1.0798608	0.0092149614	0.0015342702	-0.22298341	0.11809431	-0.22148615	0.12450826	-0.0032118528	-0.0010031758	0.073652372	0.56142109	-0.85552159	0.23698602	0.85386851	-0.26376591	0.046759105	1.2948396	0.63448143	0.023132594	0.00084885378	0.023638076	0.050123495	0.0046614004	0.049907658	0.0056347544	0.00021150016	0.097485901	0.023121038	3.3324042	4.8460136	4.7064513	4.4192098	4.7031754	4.4241379	4.1632772	4.603432	4.6805757	3.374792	3.6641115	3.6125147	3.6651871	3.6145516	3.8388718	4.0477358	-132.14536	R0:S0:1	-93.36	uncorrelated	51514b8	2022-04-11@06:36
2x2_2C_8b_C2v_L	7.5324417	0.1	14	2.21	0.66951234	-8.3819971	-9.2135272	-0.76781599	-9.2165552	-0.77129843	0.75292928	-8.8806967	13.9	-0.00069040797	-0.0006835509	-0.00246734	-0.072678286	-0.0028641443	-0.072096294	-0.00017365546	6.169159e-05	-0.062743039	-0.78231688	1.1730405	-0.027910264	-1.172781	0.029217936	-0.079115386	-1.4731671	1.27	0.623	0.132	-0.1068335	1.316782	1.6770897	-0.28918326	-0.03781113	0.016879615	-0.24302123	0.082177416	0.000843934	1.9762903	1.9495224	1.9949555	1.9495614	1.994767	0.00020788918	1.8985476	1.0816266	0.0028116294	0.0007140891	-0.22944046	0.12472936	-0.22928397	0.12572968	0.0012976742	-0.00053288932	0.07574377	0.5607143	-0.8526886	0.24953617	0.85247033	-0.25493005	0.046765681	1.2999949	0.63016941	0.023829635	0.00085203077	0.023644004	0.049961459	0.005085925	0.049922924	0.0052736	0.00020892903	0.098132063	0.023820074	3.3237413	4.8550811	4.7134098	4.4329083	4.7122041	4.4331912	4.1678647	4.6051369	4.6892981	3.3668017	3.6547238	3.6015236	3.6554258	3.6025759	3.8342713	4.0506282	-132.45275	R0:S0:1	-93.52	uncorrelated	51514b8	2022-04-11@06:41
2x2_2C_8b_C2v_L	7.5331211	0.1	14	2.21	0.75567779	-8.3837928	-9.2100818	-0.84931423	-9.2129534	-0.85337366	0.80055812	-8.8433303	13.92	0.0020473122	0.00097608307	-0.0043042566	-0.076372482	-0.0029013174	-0.077997337	-0.00076939123	-0.00016127985	-0.067106687	-0.78303584	1.1719393	-0.032698914	-1.1733883	0.02835998	-0.082469089	-1.4696286	1.27	0.623	0.132	-0.1103115	1.3168043	1.6779515	-0.28876412	-0.037821235	0.016872508	-0.25105492	0.084412878	0.00093252356	1.976243	1.9496343	1.9941594	1.9495434	1.9948918	0.000223134	1.8976713	1.0838501	-0.0084513835	-0.00066911785	-0.23678142	0.13537963	-0.23754102	0.1309816	0.0049616328	0.00013762034	0.080926583	0.56028875	-0.85013052	0.26983757	0.85066995	-0.25015352	0.048434126	1.3064657	0.62496739	0.024664487	0.00094057121	0.02369297	0.049860544	0.0058782645	0.049950171	0.0051460077	0.00022421695	0.098946948	0.024659364	3.3131605	4.8669401	4.722077	4.4509145	4.7246343	4.447919	4.1737107	4.6072194	4.7011087	3.3565821	3.6436436	3.5885951	3.6423377	3.5864092	3.8285816	4.0541433	-132.78216	R0:S0:1	-93.68	uncorrelated	51514b8	2022-04-11@06:47
2x2_2C_8b_C2v_L	7.5338583	0.1	14	2.21	0.84453448	-8.3876266	-9.2098296	-0.9295024	-9.2127049	-0.93429421	0.84291278	-8.8074687	13.94	-0.0019073798	-0.0010518327	-0.0040966944	-0.080929819	-0.0052926629	-0.079993361	0.0005724787	0.0002018452	-0.071306884	-0.78337969	1.1722708	-0.031935395	-1.1715479	0.035476574	-0.082979053	-1.4654213	1.27	0.623	0.132	-0.11391964	1.3168279	1.6788784	-0.28832094	-0.037833519	0.016865685	-0.25940743	0.086813242	0.0010137364	1.9762338	1.9496972	1.9943468	1.9497814	1.9937907	0.00022144836	1.8968799	1.0862432	0.0074357433	0.00082060697	-0.24533143	0.13967333	-0.24470864	0.14314336	-0.0035550634	-0.00033904247	0.085975425	0.55935842	-0.84743472	0.26381077	0.84693593	-0.27822658	0.048432956	1.3125218	0.61934557	0.025560754	0.0010216321	0.023704219	0.049809573	0.0056867942	0.049726511	0.0062415252	0.0002224153	0.099681993	0.025558957	3.3018523	4.8792515	4.7355378	4.4669421	4.7332013	4.4687394	4.1803047	4.6080884	4.713542	3.3456737	3.6289965	3.570734	3.6302494	3.5727941	3.8219793	4.0584825	-133.12455	R0:S0:1	-93.84	uncorrelated	51514b8	2022-04-11@06:53
2x2_2C_8b_C2v_L	7.534714	0.1	14	2.21	0.9337818	-8.3944375	-9.2146527	-1.0045632	-9.2173421	-1.0103462	0.87533325	-8.775496	13.96	-0.00084786052	-0.00058727226	-0.0052624843	-0.083705045	-0.0055563063	-0.083982956	-0.0001942518	0.00016310865	-0.07523799	-0.78413864	1.1717723	-0.035039096	-1.1715888	0.036378376	-0.083323842	-1.4615359	1.27	0.623	0.132	-0.11773837	1.316854	1.6798971	-0.28783411	-0.037846131	0.016858171	-0.26832824	0.089363748	0.0010916275	1.9762227	1.9498935	1.9938871	1.9499178	1.9936658	0.0002197062	1.896107	1.0887868	0.0029368758	0.00077279491	-0.25362439	0.14777411	-0.25353816	0.14956928	0.0014151515	-0.00067936296	0.090830329	0.55836811	-0.84374488	0.27463349	0.84367556	-0.28013991	0.048367305	1.3185522	0.61330773	0.026528288	0.0010993509	0.023717601	0.049628042	0.0061419252	0.049603609	0.0063630058	0.00022059672	0.10039953	0.026530002	3.2895869	4.8925459	4.7466461	4.4861048	4.745324	4.4863689	4.1875433	4.6084002	4.7268955	3.3339384	3.6150412	3.5542503	3.6159026	3.5554523	3.814734	4.0634237	-133.48103	R0:S0:1	-94	uncorrelated	51514b8	2022-04-11@06:59
2x2_2C_8b_C2v_L	7.5357831	0.1	14	2.21	1.0232846	-8.4042755	-9.2246577	-1.0742904	-9.226922	-1.0813374	0.8975349	-8.7475403	13.98	0.0051902904	0.0026045896	-0.007588149	-0.084726624	-0.0040338115	-0.08962456	-0.0027920621	-0.0011883266	-0.078807497	-0.78531268	1.1704294	-0.042152335	-1.1740659	0.030923068	-0.084065613	-1.4580009	1.27	0.623	0.132	-0.12168964	1.3168836	1.6810182	-0.28728795	-0.037856173	0.016848774	-0.27748411	0.092043431	0.0011927571	1.9762079	1.9502071	1.9927602	1.9499228	1.9944724	0.00024020915	1.8953632	1.0914597	-0.01842885	-0.0021678458	-0.26156058	0.15983019	-0.26352413	0.14963422	0.017203	0.0011659945	0.095304488	0.5573516	-0.83926739	0.30090473	0.84112242	-0.25798135	0.048580791	1.3244411	0.60698297	0.02754857	0.0012003573	0.02373486	0.049331045	0.0072616757	0.049610993	0.0055559685	0.00024134471	0.10108987	0.027554014	3.2765936	4.9066359	4.7550187	4.5076591	4.7614268	4.5014997	4.1951085	4.6083124	4.741171	3.3215311	3.6022153	3.5398867	3.5992105	3.5342807	3.807312	4.0687151	-133.85207	R0:S0:1	-94.16	uncorrelated	51514b8	2022-04-11@07:02
2x2_2C_8b_C2v_L	7.5369416	0.1	14	2.21	1.1092911	-8.4187838	-9.2424962	-1.132275	-9.244793	-1.1408817	0.90145065	-8.7279481	14	-0.00076525715	-0.00040073081	-0.0065729019	-0.090669595	-0.0082063279	-0.089525164	0.0018062419	0.00039581806	-0.082506875	-0.78594468	1.1727409	-0.038682351	-1.1716552	0.043283747	-0.085717224	-1.4558168	1.27	0.623	0.132	-0.12612384	1.3169157	1.6823847	-0.2866777	-0.037881804	0.016844628	-0.28797644	0.095512698	0.0012769803	1.976291	1.9504158	1.9930886	1.9505453	1.9924036	0.00023893752	1.894509	1.09492	0.0026990801	0.00020498453	-0.27242951	0.16552841	-0.27146012	0.16991589	-0.011469601	4.1338186e-05	0.10093978	0.55477138	-0.83428641	0.2903298	0.8333804	-0.30630465	0.049354482	1.3316426	0.59898687	0.028814301	0.0012845341	0.023655546	0.049141791	0.006935227	0.049014569	0.0076163533	0.00024000721	0.10187972	0.028823646	3.2588826	4.9248946	4.7747595	4.531769	4.7724109	4.5342544	4.2067186	4.605854	4.7601273	3.3045104	3.5801885	3.5128598	3.5811603	3.5149691	3.7957485	4.0768648	-134.23519	R0:S0:1	-94.32	uncorrelated	51514b8	2022-04-11@07:08
2x2_2C_8b_C2v_L	7.5383822	0.1	14	2.21	1.1835241	-8.4414097	-9.274386	-1.1642946	-9.2770471	-1.175051	0.86715057	-8.7266843	14.02	0.00011535353	8.4557483e-05	-0.0082633074	-0.092278227	-0.0083684976	-0.092460263	0.00015224939	8.7875291e-06	-0.08662996	-0.78715129	1.1734869	-0.043034718	-1.1736989	0.043837869	-0.086428398	-1.454707	1.27	0.623	0.132	-0.13079372	1.3169527	1.6839188	-0.28598312	-0.037907179	0.016839133	-0.29902643	0.09923373	0.0014287716	1.9763913	1.9509372	1.9920251	1.9509378	1.9919601	0.00023947805	1.8938789	1.0986334	-0.00039522347	-2.0208359e-05	-0.28208663	0.17951711	-0.28207589	0.18002976	-0.0010112591	2.4489969e-05	0.10774145	0.55187444	-0.82685008	0.31160748	0.82691055	-0.31317706	0.049750611	1.3376474	0.59033715	0.030177592	0.0014368535	0.023559307	0.048645708	0.007994589	0.048644915	0.0080584704	0.0002405974	0.10246141	0.030190996	3.2402957	4.9443863	4.7905511	4.5628345	4.7899976	4.5625568	4.2197078	4.6008151	4.780861	3.2862525	3.558686	3.4883547	3.5591283	3.4890012	3.782827	4.0865892	-134.62587	R0:S0:1	-94.48	uncorrelated	51514b8	2022-04-11@07:16
2x2_2C_8b_C2v_L	7.5401382	0.1	14	2.21	1.132909	-8.5157212	-9.3954618	-0.95879283	-9.3984131	-0.97845043	0.49197842	-8.846245	14.04	0.0024449897	0.0013029068	-0.0077292731	-0.087836189	-0.0087030017	-0.087688248	0.0015378183	0.00043204127	-0.088353895	-0.79034188	1.1795339	-0.041497999	-1.1791148	0.043806165	-0.07552472	-1.4618268	1.27	0.623	0.132	-0.13614777	1.3169972	1.6858959	-0.28515586	-0.037952923	0.01684002	-0.31211515	0.10422522	0.0018041973	1.9766921	1.9520182	1.9895876	1.9521051	1.9893166	0.00025558595	1.894612	1.1036339	-0.0082158741	-0.00093541379	-0.29339684	0.20406224	-0.29278857	0.20573888	-0.014984896	0.00022641286	0.11827269	0.54609151	-0.81331796	0.35112949	0.81259771	-0.35667468	0.045275893	1.3365018	0.57846633	0.031911481	0.0018156137	0.023264367	0.04760116	0.010445607	0.04751627	0.010710551	0.00025951513	0.10177598	0.031924502	3.2169431	4.9690291	4.8126577	4.6156663	4.8120341	4.6166181	4.2411802	4.5788669	4.8098473	3.261537	3.5260154	3.4521494	3.5259517	3.4528417	3.7614782	4.1058551	-134.77823	R0:S0:1	-94.64	uncorrelated	51514b8	2022-04-11@07:22
2x2_2C_8b_C2v_L	7.5430491	0.1	14	2.21	0.85791742	-8.664065	-9.6236016	-0.31352545	-9.6288053	-0.33577143	-0.31493024	-9.0289068	14.06	0.0023385562	0.0013066872	-0.0026742134	-0.063482907	-0.0028244942	-0.064918488	0.068531523	-0.00015407508	-0.083462565	-0.79622448	1.1879504	-0.033092417	-1.1887118	0.033159803	-0.00040202874	-1.4743661	1.27	0.623	0.132	-0.14255655	1.3170629	1.6900042	-0.28392557	-0.038120104	0.016899694	-0.32611771	0.11721808	0.0033866781	1.9776139	1.9545147	1.9711568	1.9545469	1.9724138	1.9997412	1.8952364	1.1166599	-0.0092683801	-0.00082558203	-0.30495759	0.32523971	-0.30484624	0.32027514	-0.041438669	3.8493555e-05	0.14961567	0.52834992	-0.78154086	0.52784257	0.78099833	-0.51640516	0.0054517397	1.3413431	0.55321583	0.035163857	0.0034118273	0.022356122	0.045159254	0.029339212	0.045130245	0.028008342	0.00026566161	0.10116503	0.035171804	3.1468741	5.042844	4.8705146	4.8203357	4.8729864	4.8132082	3.7057861	4.5283525	4.8991185	3.1837309	3.4403124	3.3802152	3.4387283	3.3778493	4.2966426	4.1496505	-134.49469	R0:S0:1	-94.8	uncorrelated	51514b8	2022-04-11@07:31
2x2_2C_8b_C2v_L	7.547136	0.1	14	2.21	0.30327617	-8.8953954	-9.9829951	0.32602929	-9.9931762	0.34021888	-1.4063686	-9.2955534	14.08	-0.00030297653	0.00041565462	-0.0049798453	0.038614187	-0.0053246707	0.038956902	0.12245717	0.0010626853	-0.06280057	-0.7995426	1.2083136	-0.065967048	-1.2089431	0.066816751	0.0027740701	-1.5062955	1.27	0.623	0.132	-0.14886203	1.3171393	1.6940811	-0.28243006	-0.038249607	0.016939886	-0.33915395	0.12746526	0.0083923771	1.9789207	1.9570565	0.038068576	1.9571599	0.036928447	1.9996331	1.8950881	1.1268654	0.0034111781	-0.0015298959	-0.31129388	-0.59123728	-0.31030526	-0.58254619	-0.063387096	0.0013269514	0.20400112	0.50692759	-0.75109527	0.3955818	0.74994332	-0.39070812	-0.014357645	1.350308	0.53332705	0.037832972	0.0086343965	0.0210602	0.042678034	0.038339774	0.042578562	0.037162962	0.00036790125	0.10127128	0.037850919	3.1090131	5.1015264	4.9174639	3.3363559	4.9197783	3.333823	3.6529302	4.4862925	5.0049008	3.1153162	3.3716226	4.9221497	3.3699483	4.9171332	4.3507542	4.1888522	-137.93068	R0:S0:1	-94.96	uncorrelated	51514b8	2022-04-11@07:43
2x2_2C_8b_C2v_L	7.5500932	0.1	14	2.21	-0.37649609	-9.2165923	-10.497742	0.74575042	-10.515211	0.84812844	-2.7536349	-9.6436928	14.1	-0.069224555	-0.0002329224	-0.01488048	-0.053813886	-0.01615538	-0.055930551	0.19621383	0.0026166498	-0.00014697324	-0.8151679	1.2423444	0.091195488	-1.2446343	-0.096128851	0.0068375375	-1.5478958	1.27	0.623	0.132	-0.15609827	1.3172008	1.6962303	-0.28118466	-0.038256801	0.016911567	-0.36001484	0.12931874	1.9925179	1.9794682	1.9591668	0.02640088	1.9592652	0.023974777	1.9993355	1.8959873	1.1286008	0.20159409	-0.001213509	-0.3199942	0.52796406	-0.31876683	0.50396394	-0.090237363	0.00073582636	-0.0010107694	0.49955987	-0.73029325	-0.35441258	0.72895127	0.34286377	-0.019797062	1.347201	0.52525098	0.039627685	0.0077136248	0.020517517	0.040629432	0.026339243	0.040537646	0.023910621	0.00066514067	0.10044833	0.039679439	5.0138025	5.1071543	4.9201351	3.2993661	4.9249041	3.2930509	3.6340525	4.4671615	3.1012353	3.1079625	3.3583223	4.869123	3.3553873	4.858216	4.372237	4.2091967	-144.91889	R0:S0:1	-95.12	uncorrelated	51514b8	2022-04-11@07:54
2x2_2C_8b_C2v_L	7.5553745	0.1	14	2.21	-0.72533705	-9.6109062	-10.865234	0.25916456	-11.154107	0.26842608	-4.1772998	-10.102646	14.12	-0.08878179	0.00074832029	-0.005931605	-0.043485562	-0.0066996785	0.044167295	0.091379797	-0.063073689	-0.0010001866	-0.84028717	1.2567726	0.064371045	-1.273161	0.065509708	-0.42509841	-1.4111582	1.27	0.623	0.132	-0.15872689	1.3172902	1.7016744	-0.2796711	-0.038432624	0.017009781	-0.35599117	0.1493518	1.9918571	1.9807215	1.9619294	0.061223222	1.9628709	0.061156229	1.9611693	1.9200355	1.1487854	0.24183876	0.00063394675	-0.31321259	0.71187986	-0.30892467	-0.71148668	-0.039485866	0.018381387	0.0062884074	0.472782	-0.69342832	-0.54656682	0.68466798	-0.54733288	0.82437751	1.1860099	0.50109905	0.042703981	0.0081990327	0.019277741	0.037888896	0.060984062	0.036957348	0.060873532	0.038321479	0.077822241	0.042735172	5.131897	5.2372976	5.001339	3.2857179	4.999021	3.2862119	3.9072241	4.2359305	2.9636994	2.9695091	3.2460449	5.1134499	3.2429386	5.1134671	4.3339408	4.2657175	-152.2321	R0:S0:1	-95.28	uncorrelated	51514b8	2022-04-11@08:07
2x2_2C_8b_C2v_L	7.5647836	0.1	14	2.21	-0.28398584	-10.038836	-11.037459	-0.29341732	-11.822491	-0.28187765	-5.8309218	-10.718838	14.14	-0.068278268	8.4614245e-05	-0.0086469454	0.068182515	-0.010183526	0.068382726	0.2388924	-0.17817229	-0.00083718214	-0.84957104	1.2653116	0.048122486	-1.3086123	-0.050939303	-0.59367855	-1.4222029	1.27	0.623	0.132	-0.1649975	1.3174325	1.7082234	-0.2769002	-0.038554404	0.017053479	-0.36596352	0.16421768	1.9817213	1.9823917	1.9640327	1.9309096	1.966114	1.9224394	1.9578837	1.926088	1.1635049	0.34217752	0.0052902481	-0.31705061	-0.62184629	-0.30838927	-0.65505677	-0.091725939	0.046610543	0.014307333	0.44411725	-0.66147485	-0.73030834	0.64309301	0.78145186	0.86137744	1.1493679	0.47587414	0.045525621	0.018715857	0.017615044	0.035838188	0.067975102	0.033762441	0.076022703	0.041585729	0.072085966	0.045601415	5.2762324	5.3207303	5.0955926	5.2044232	5.0757841	5.2249138	3.8530099	4.1143808	2.9317397	2.8710658	3.1372853	3.2285859	3.138507	3.2572344	4.40932	4.3476356	-159.72587	R0:S0:1	-95.44	uncorrelated	51514b8	2022-04-11@08:22
2x2_2C_8b_C2v_L	7.5766101	0.1	14	2.21	0.66210982	-10.494644	-10.997608	-0.22717794	-12.408283	-0.24860798	-7.7225853	-11.458709	14.16	-0.0018121887	-0.0019523614	-0.0069023851	0.063896931	-0.01097615	0.066783362	0.47526005	-0.25947913	-0.093396552	-0.8801255	1.2612274	0.046840684	-1.3380108	-0.054523961	-0.59746071	-1.6007541	1.27	0.623	0.132	-0.17209221	1.3176029	1.7162264	-0.27347734	-0.038681043	0.017105567	-0.37317129	0.18228692	0.014771367	1.9834114	1.9655131	1.9110244	1.9690378	1.9009419	1.9730011	1.9158435	1.1812289	-0.00022117498	0.0067594176	-0.32393068	-0.75071541	-0.30702352	-0.78628421	-0.15331129	0.065360928	0.34973796	0.42068214	-0.63338071	-0.78488819	0.60179912	0.85275135	0.678815	1.2387991	0.44957342	0.048084695	0.014828378	0.016607516	0.034391743	0.086645967	0.030876171	0.095691313	0.026870348	0.08178718	0.048271127	2.7865144	5.4440554	5.2053306	5.3341899	5.175984	5.3408981	3.6215954	4.1065534	5.3645255	2.7438589	3.0107624	3.2025662	3.0126103	3.2434393	4.5509072	4.4188964	-166.45975	R0:S0:1	-95.6	uncorrelated	51514b8	2022-04-11@08:35
2x2_2C_8b_C2v_L	7.5892703	0.1	14	2.21	2.0939117	-10.982105	-10.732449	0.20432526	-12.884944	0.22547073	-9.8581127	-12.33191	14.18	0.0071886993	0.0051219389	-0.00576906	-0.046614838	-0.01142933	0.056655177	0.72880157	-0.22259662	-0.16513696	-0.92908137	1.2449878	0.062300538	-1.3619054	0.066543906	-0.44965235	-1.8288226	1.27	0.623	0.132	-0.17860275	1.3177808	1.7240273	-0.2699204	-0.038750319	0.017134888	-0.37982166	0.19988091	0.0087426725	1.9838002	1.9662553	0.10031169	1.9713303	0.1187296	1.9876128	1.9032757	1.198436	-0.020095755	0.0043555651	-0.33307795	0.80163641	-0.30731409	-0.91031159	-0.20442319	0.048706822	0.32435579	0.40599324	-0.61280827	-0.84154216	0.56720633	-0.90614187	0.41340094	1.3408588	0.42751506	0.050227442	0.0087313026	0.016231673	0.03368354	0.096858302	0.028610147	0.11324403	0.012402589	0.093547492	0.05055152	2.6256902	5.5626915	5.3136268	3.1647683	5.2726439	3.2359766	3.4043838	4.1383158	5.4521566	2.628807	2.8944473	5.4148508	2.8946145	5.423888	4.6834177	4.4644142	-173.18342	R0:S0:1	-95.76	uncorrelated	51514b8	2022-04-11@08:44
2x2_2C_8b_C2v_L	7.6049836	0.1	14	2.21	3.9672528	-11.512357	-10.215811	0.17867257	-13.201125	0.24855959	-12.251187	-13.290361	14.2	-0.017685139	-0.011590515	-0.0052552852	0.052348803	-0.012925107	-0.055172455	0.97468354	-0.077636134	-0.25722636	-0.97992851	1.2125319	-0.058800029	-1.3780703	-0.071021046	-0.14519867	-2.0288985	1.27	0.623	0.132	-0.18401275	1.3179959	1.7324997	-0.2657413	-0.038759332	0.01714678	-0.38379085	0.2191467	0.0080627543	1.9843546	1.9660478	0.12801178	1.9735543	0.11370698	1.9949648	1.8953397	1.2173492	0.025624284	-0.0024537713	-0.35033059	-0.90879498	-0.3005879	0.83739441	-0.2364998	0.029711863	0.35078892	0.38857109	-0.60204517	0.98391689	0.53038797	0.94488514	0.10300889	1.4077546	0.40705402	0.052117564	0.0080442955	0.015689304	0.033898659	0.12124275	0.026429659	0.10847526	0.0050390732	0.10086036	0.052580817	2.4950201	5.6871183	5.4040111	3.2004163	5.4073677	3.1439225	3.2515298	4.1368042	5.5669922	2.5047724	2.7862236	5.473187	2.7563379	5.4757128	4.7976326	4.5103943	-180.80588	R0:S0:1	-95.92	uncorrelated	51514b8	2022-04-11@08:54
2x2_2C_8b_C2v_L	7.6315551	0.1	14	2.21	6.2691052	-12.089862	-9.3592058	0.13557726	-13.300619	-0.19359591	-14.909515	-14.303704	14.22	-0.057789333	-0.040449034	-0.0026100431	0.046647438	-0.010954123	-0.065108538	1.2115799	0.16773846	-0.39053735	-1.0507904	1.1610174	-0.05487478	-1.3806524	0.056501658	0.31229717	-2.1628957	1.27	0.623	0.132	-0.1871317	1.3183471	1.7434639	-0.25926642	-0.038477531	0.017103762	-0.37671028	0.2402622	0.0095242964	1.9845943	1.9650996	0.13861115	1.974898	1.8572837	1.9924881	1.8953585	1.2380844	0.037817644	0.026073323	-0.35569689	-0.86936969	-0.29724089	1.0925839	-0.26014541	-0.035290735	0.41001849	0.37298497	-0.59386995	1.0715088	0.50483601	-0.90312966	-0.19736778	1.417557	0.38974207	0.052903333	0.0094916697	0.015462629	0.034879928	0.1305856	0.025091706	0.13382758	0.007522205	0.10082574	0.053525593	2.3633567	5.8306049	5.5390295	3.1964184	5.5127428	5.503411	3.1900492	4.0691628	5.6992622	2.3628262	2.6589776	5.5078992	2.6332821	3.2137563	4.8794023	4.5704259	-188.47749	R0:S0:1	-96.08	uncorrelated	51514b8	2022-04-11@09:08
2x2_2C_8b_C2v_L	7.6588645	0.1	14	2.21	8.9942473	-12.724538	-8.3219357	0.11298573	-13.152042	-0.19136936	-17.837791	-15.356937	14.24	-0.10494033	-0.069840113	-0.00075625633	-0.044416849	-0.01153194	0.065253163	1.3902948	0.48543584	-0.52996523	-1.1163633	1.0952431	0.052672961	-1.3712341	-0.059019036	0.88738416	-2.191073	1.27	0.623	0.132	-0.19001237	1.3187086	1.7539434	-0.25266396	-0.038125996	0.017013421	-0.37165731	0.26095605	0.010310744	1.9851606	1.9631392	0.14918043	1.9759926	1.8465255	1.9826142	1.9043605	1.2584341	0.045262125	0.046360852	-0.3705552	0.8549982	-0.29463584	-1.1754568	-0.26352437	-0.09681739	0.44778361	0.35343314	-0.59367483	-1.1518788	0.48082042	0.90415967	-0.47755153	1.3602924	0.37500638	0.053363292	0.010269327	0.014907905	0.036879246	0.13991338	0.024016136	0.14305452	0.017386898	0.0925469	0.054128888	2.232425	5.9656986	5.6650821	3.1870952	5.6332178	5.5161517	3.1972492	3.9184234	5.8277905	2.225942	2.5417542	5.5302701	2.5060138	3.2022159	4.9351159	4.6665478	-195.64769	R0:S0:1	-96.24	uncorrelated	51514b8	2022-04-11@09:23
2x2_2C_8b_C2v_L	7.6913678	0.1	14	2.21	12.139594	-13.414635	-7.2312701	0.080073333	-12.716414	0.15425421	-21.035281	-16.440997	14.26	-0.16200807	-0.1058086	0.0018862851	0.038758683	-0.0096150437	-0.057871139	1.5234948	0.87876676	-0.71280901	-1.2055503	1.02193	-0.0469853	-1.3475213	-0.060781087	1.5629176	-2.1217486	1.27	0.623	0.132	-0.19189244	1.319132	1.7655956	-0.24494919	-0.037629106	0.016858227	-0.36204148	0.28347745	0.011939037	1.9854124	1.9605692	0.15006084	1.9765167	0.17542652	1.9682596	1.9183121	1.2805003	0.044239746	0.076682597	-0.38413474	-0.79044084	-0.29421759	0.92836776	-0.25192322	-0.16996037	0.50068554	0.33500278	-0.59469621	1.189898	0.46214751	1.2879077	-0.72363352	1.253007	0.36215289	0.05299599	0.01188094	0.014671705	0.039529006	0.14164007	0.023502549	0.16241347	0.031586386	0.079638248	0.053942623	2.090059	6.1206192	5.8089961	3.1441581	5.7559226	3.2565084	3.2446892	3.7098218	5.9713254	2.0712631	2.4217052	5.544176	2.3750158	5.4958164	4.9758113	4.7961371	-202.55853	R0:S0:1	-96.4	uncorrelated	51514b8	2022-04-11@09:38
2x2_2C_8b_C2v_L	7.725615	0.1	14	2.21	15.70441	-14.17305	-7.4864936	0.07782734	-11.916633	0.14315033	-24.50761	-17.535478	14.28	-0.2342115	-0.14513657	0.0013250843	-0.041601245	-0.0081480639	0.056791097	1.5825775	1.2408154	-0.87384027	-1.2745017	1.0388811	0.048161094	-1.3042	0.059514947	2.1843759	-1.9975738	1.27	0.623	0.132	-0.19246746	1.3195773	1.7767514	-0.23696574	-0.037021244	0.016640587	-0.35139455	0.30339275	0.012202151	1.9862868	1.9638787	0.16485406	1.9765474	0.17713901	1.9565393	1.9327244	1.3000594	0.048065371	0.09959427	-0.36640278	0.80440477	-0.29399265	-0.88372071	-0.23103429	-0.218883	0.51977088	0.30957227	-0.55320153	-1.2734588	0.44770271	-1.3366321	-0.88809411	1.125907	0.35358044	0.05183152	0.012140587	0.013805578	0.036248391	0.15622879	0.023498907	0.16499876	0.043027562	0.066143329	0.052907093	1.9446484	6.2617547	5.9211901	3.1674873	5.8890271	3.2140462	3.2652383	3.4847811	6.1119955	1.9225101	2.292197	5.5201527	2.2474321	5.4900232	5.0231307	4.9467813	-212.51151	R0:S0:1	-96.56	uncorrelated	51514b8	2022-04-11@09:53
2x2_2C_8b_C2v_L	7.7663821	0.1	14	2.21	19.684139	-14.992581	-9.1025686	0.09314436	-10.698942	-0.10759564	-28.246117	-18.630071	14.3	-0.33426472	-0.20417462	-0.0016207768	0.047364267	-0.0045314074	0.053903891	1.6301849	1.5992864	-1.1041125	-1.3805078	1.1419739	-0.050849985	-1.23606	-0.052410771	2.7839005	-1.8754645	1.27	0.623	0.132	-0.19198488	1.3201012	1.7892591	-0.22757503	-0.03622355	0.016337146	-0.33909596	0.32489251	0.013816339	1.9865582	1.9717824	0.16896462	1.9757786	1.8173258	1.9478157	1.9430877	1.3210834	0.050015221	0.1375744	-0.32111262	-0.79306269	-0.29838859	-1.3802653	-0.20506904	-0.26381471	0.56613604	0.28752427	-0.47377611	1.3265707	0.43878071	0.84605817	-1.0010663	1.0171709	0.34727414	0.050045628	0.013737057	0.013551747	0.028347264	0.16206633	0.024304377	0.1735471	0.051459708	0.05635762	0.051290412	1.798367	6.4186294	6.042007	3.1242994	6.0346014	5.4703058	3.2535365	3.2841843	6.2589417	1.7635652	2.1384036	5.505525	2.1121257	3.1894213	5.0846474	5.0996285	-225.32707	R0:S0:1	-96.72	uncorrelated	51514b8	2022-04-11@10:09
2x2_2C_8b_C2v_L	7.8031276	0.1	14	2.21	24.083387	-15.884727	-12.038562	0.14380386	-9.0502971	-0.081979242	-32.251545	-19.73041	14.32	-0.45273817	-0.26556531	-0.0090173367	-0.058923281	-0.0014112793	-0.048615247	1.661689	1.8819808	-1.2911844	-1.455926	1.3086638	0.057917835	-1.1382588	0.048949551	3.2907271	-1.7808363	1.27	0.623	0.132	-0.19076122	1.3205746	1.7995076	-0.21922011	-0.035401241	0.016010626	-0.3314174	0.3411912	0.013719974	1.9871171	1.979556	0.16206693	1.9734145	1.8174839	1.9443355	1.9500768	1.3370847	0.052237443	0.17335784	-0.27265996	0.77923012	-0.31333229	1.3728956	-0.17796256	-0.29380441	0.57227467	0.26539737	-0.39313364	-1.3490037	0.44467837	-0.80940279	-1.052231	0.9335486	0.34453941	0.04838594	0.013643844	0.013000101	0.020544917	0.1559417	0.026734102	0.18003693	0.054785613	0.049686238	0.049724513	1.6798656	6.5288349	6.1340782	3.0116142	6.1614154	5.4785106	3.2108285	3.1320242	6.3739468	1.6464873	2.0090699	5.5389503	2.0084043	3.1248498	5.1479379	5.2246211	-240.26569	R0:S0:1	-96.88	uncorrelated	51514b8	2022-04-11@10:25
2x2_2C_8b_C2v_L	7.8415503	0.1	14	2.21	28.898472	-16.84091	-16.238736	0.20154484	-7.1705812	0.056977208	-36.512996	-20.827174	14.34	-0.60581182	-0.34753358	-0.019467826	0.071356981	0.0018364033	0.043688234	1.7653629	2.1325058	-1.5231619	-1.5522508	1.5129608	-0.063979601	-1.015642	0.042983684	3.744614	-1.7713698	1.27	0.623	0.132	-0.18916291	1.321067	1.8100415	-0.2105209	-0.034504222	0.015650624	-0.32281397	0.36024399	0.014248136	1.9872224	1.9856682	0.1506231	1.9695125	0.18330373	1.9437479	1.9517332	1.3558173	0.052509386	0.22303875	-0.22749664	-0.75214559	-0.33688494	-0.76176781	-0.15594735	-0.32053976	0.59108892	0.24423671	-0.31995383	1.3439907	0.45684308	-1.3410368	-1.0692311	0.90499971	0.34315872	0.046449565	0.014168861	0.012909795	0.014403627	0.14623007	0.030774937	0.19181472	0.055349086	0.048162036	0.047890607	1.5580553	6.6470889	6.2333265	2.8674184	6.3088171	3.0323142	3.1479238	3.0387398	6.4945463	1.5237086	1.8790425	5.6031723	1.8988186	5.5015572	5.2180271	5.3214759	-257.85707	R0:S0:1	-97.04	uncorrelated	51514b8	2022-04-11@10:41
2x2_2C_8b_C2v_L	7.8662666	0.1	14	2.21	34.132264	-17.866901	-21.651554	0.442886	-6.7540512	0.049560962	-41.026544	-21.927122	14.36	-0.77791989	-0.43270789	-0.049705987	-0.10190752	0.0023966985	-0.044446022	2.0002468	2.2888136	-1.727538	-1.6301132	1.7314192	0.078789593	-0.98617747	-0.040358241	4.0630151	-1.900042	1.27	0.623	0.132	-0.19001511	1.3213917	1.8175719	-0.20477149	-0.033970659	0.015441546	-0.32326837	0.37753871	0.013709671	1.9869215	1.9899921	0.10167032	1.9701821	0.21199534	1.9481983	1.9462838	1.3729501	0.04141019	0.28980651	-0.18484959	0.64594093	-0.34552532	0.81915611	-0.13038478	-0.35561936	0.58590675	0.22800108	-0.26191078	-1.1503878	0.43306455	1.3882661	-1.0268831	0.96215759	0.34214139	0.045325202	0.013642273	0.013223825	0.010064725	0.099642475	0.030143292	0.23033449	0.051110138	0.053486426	0.04682767	1.4432228	6.7411591	6.3065246	2.486827	6.4282058	3.0633351	3.0675311	3.0457679	6.6064342	1.4230894	1.7934252	5.8651154	1.762268	5.4443401	5.2853054	5.3484284	-281.56111	R0:S0:1	-97.2	uncorrelated	51514b8	2022-04-11@10:59
2x2_2C_8b_C2v_L	7.8882232	0.1	14	2.21	39.78219	-18.956041	-28.266422	0.94377386	-7.9692801	-0.05496188	-45.790073	-23.028373	14.38	-0.98099686	-0.53483327	-0.11019439	0.15244911	0.00090790764	0.040575722	2.4176153	2.3439761	-1.9675898	-1.7237521	1.9480632	-0.1055939	-1.0677446	-0.049865367	4.2174725	-2.1890662	1.27	0.623	0.132	-0.18983059	1.3216784	1.8242235	-0.19974118	-0.033483375	0.015250682	-0.31697513	0.3928856	0.013535115	1.9861046	1.9930137	0.068964351	1.9760446	1.7563892	1.9550097	1.9360253	1.3881958	0.031234913	0.36103922	-0.13295204	-0.55172925	-0.31598774	-1.4628659	-0.13540764	-0.37301907	0.58810099	0.21397112	-0.21469299	0.9607366	0.37520601	0.8934444	-0.94784157	1.0733914	0.34254607	0.043628973	0.013475072	0.014056846	0.0070246068	0.068090907	0.024186201	0.26785853	0.044557011	0.063377183	0.045172544	1.3294218	6.8308945	6.3629441	2.2143298	6.520063	5.342392	2.9754925	3.1195644	6.7169508	1.3241081	1.7235252	6.0876941	1.6243013	3.1179122	5.3484712	5.3301059	-311.69506	R0:S0:1	-97.36	uncorrelated	51514b8	2022-04-11@11:24
2x2_2C_8b_C2v_L	7.9097249	0.1	14	2.21	45.849464	-20.11116	-36.083789	1.9272787	-10.774922	-0.070407297	-50.807149	-24.138635	14.4	-1.2055153	-0.6462169	-0.2367561	0.2604298	-0.0029141545	0.04531653	2.9975458	2.2725643	-2.2155783	-1.8182218	2.1080007	-0.14725641	-1.2358484	-0.056014876	4.1556461	-2.6051433	1.27	0.623	0.132	-0.18820462	1.3219563	1.8300306	-0.19495213	-0.032942518	0.015033016	-0.30482269	0.4050515	0.013311459	1.9851023	1.9953786	0.051894842	1.9828685	1.7486223	1.9632189	1.9225384	1.4003532	0.025975394	0.4234235	-0.066655364	-0.49452483	-0.26527885	-1.5546811	-0.16654823	-0.36564127	0.58758058	0.20200333	-0.16919374	0.82082164	0.31012617	0.91188283	-0.8357297	1.212042	0.34456091	0.041736701	0.013258239	0.015071712	0.0046428711	0.051705565	0.01725667	0.27009658	0.036576328	0.076165496	0.04328693	1.2368655	6.8974319	6.414628	2.0507434	6.5862253	5.2992186	2.8755623	3.2401872	6.8061391	1.2476687	1.653995	6.2474935	1.5153114	3.1178575	5.4087715	5.2788314	-347.9833	R0:S0:1	-97.52	uncorrelated	51514b8	2022-04-11@11:38
2x2_2C_8b_C2v_L	7.9346174	0.1	14	2.21	52.334306	-21.333014	-45.103839	3.3461336	-15.156131	0.13854762	-56.08006	-25.263506	14.42	-1.4496096	-0.76240865	-0.45937759	0.4303521	-0.013594451	0.073519364	3.7252916	2.0728712	-2.4619578	-1.9121012	2.1881571	-0.20496048	-1.4545614	0.048667128	3.8459815	-3.1137977	1.27	0.623	0.132	-0.18681221	1.3222806	1.8358207	-0.1894055	-0.032242149	0.01473806	-0.30443491	0.4152798	0.013094791	1.9842578	1.9971523	0.045565603	1.9883673	0.19306733	1.9702173	1.9089093	1.4106101	0.032195748	0.46246341	0.0089054877	-0.45563244	-0.22909587	-0.8066687	-0.22748296	-0.29294381	0.58361243	0.19240991	-0.11927891	0.77204764	0.25118882	-1.4882708	-0.71957292	1.3494564	0.3475088	0.041223225	0.013047152	0.01592935	0.0028583018	0.045694187	0.011719159	0.20521455	0.029703594	0.088981611	0.042789499	1.1970926	6.9251587	6.5275421	1.9049061	6.6406278	2.7927004	2.7570813	3.3549246	6.8468835	1.2222011	1.520832	6.3937947	1.4436097	5.5108683	5.4888294	5.2446624	-390.36808	R0:S0:1	-97.68	uncorrelated	51514b8	2022-04-11@11:52
2x2_2C_8b_C2v_L	7.9465799	0.1	14	2.21	59.239178	-22.630553	-55.326763	5.1604697	-21.078574	0.25856803	-61.625529	-26.445068	14.44	-1.6797933	-0.86171912	-0.84902755	0.67082931	-0.030632024	-0.094863639	4.3829764	1.6639225	-2.6331587	-1.964763	2.1569425	-0.27860052	-1.6988761	-0.055982846	3.1642897	-3.5768782	1.27	0.623	0.132	-0.18752966	1.3224491	1.8388194	-0.18665531	-0.031900099	0.014593771	-0.30644413	0.42458657	0.012227918	1.9844051	1.9979602	0.043711462	1.9919609	0.13977937	1.9782411	1.8983413	1.4202148	0.041597876	0.47872173	0.10064763	-0.43233836	-0.19433269	0.69596146	-0.27335933	-0.18883271	0.56376029	0.17655404	-0.07130434	0.76737068	0.20731823	1.3653221	-0.56182615	1.4561617	0.34916714	0.041088977	0.012189313	0.015778146	0.0020456713	0.044076535	0.0080957303	0.14498054	0.021763557	0.09865805	0.042587505	1.1592138	6.9505094	6.6389901	1.7905829	6.6660465	2.4700793	2.6534051	3.4679643	6.8841433	1.1951564	1.3936097	6.5128406	1.4066667	5.7897641	5.5481188	5.1948662	-438.98388	R0:S0:1	-97.84	uncorrelated	51514b8	2022-04-11@12:09
2x2_2C_8b_C2v_L	7.9661806	0.1	14	2.21	66.558583	-23.983657	-66.751546	7.3449202	-28.516987	0.39965285	-67.42867	-27.62857	14.46	-1.9604318	-0.99267762	-1.3951084	0.95503369	-0.052607243	0.11389163	5.2501406	1.1078934	-2.896909	-2.0647354	2.0732319	-0.35248526	-1.9586408	0.064483023	2.1218522	-4.126039	1.27	0.623	0.132	-0.1873862	1.3227088	1.844013	-0.18221153	-0.031370405	0.014380168	-0.30081498	0.43968557	0.012256352	1.9838928	1.9976427	0.040238193	1.9944277	0.1066418	1.9848044	1.880362	1.4353654	0.047107263	0.51407268	0.19599107	-0.3982223	-0.15687409	-0.60394627	-0.30864852	-0.089104883	0.56761344	0.15683993	-0.031306201	0.74977781	0.16928371	-1.2439945	-0.36228035	1.6021902	0.35231631	0.039987305	0.012219312	0.016305764	0.0023623134	0.040794934	0.0056076211	0.10926257	0.015244408	0.11489889	0.041493289	1.0876019	7.0101274	6.7469523	1.6606831	6.7195745	2.2128466	2.5783684	3.6557847	6.9546174	1.1316828	1.2774107	6.6340738	1.3418996	6.0362148	5.5959131	5.0964993	-494.07641	R0:S0:1	-98	uncorrelated	51514b8	2022-04-11@12:25
2x2_2C_8b_C2v_L	7.9805629	0.1	14	2.21	74.293755	-25.396695	-79.378089	9.8604489	-37.454752	0.68178636	-73.517599	-28.891943	14.48	-2.2711534	-1.1403375	-2.1279842	1.2900169	-0.088566542	-0.14867474	5.8562596	0.35316484	-3.217859	-2.1939577	1.9456011	-0.41384505	-2.2059495	-0.072621226	0.6821247	-4.4776253	1.27	0.623	0.132	-0.1881597	1.3229026	1.8484917	-0.17887142	-0.031018944	0.014245308	-0.29351529	0.45600382	0.01276651	1.9834429	1.9963061	0.035628844	1.9960661	0.072561042	1.9890926	1.8719703	1.4517587	0.054887548	0.54737957	0.29715096	-0.35322273	-0.12162871	0.51170444	-0.3171904	0.041609417	0.58424342	0.13110136	0.0034349429	0.71981497	0.14037352	1.0351825	-0.14304067	1.6701955	0.35615167	0.037852192	0.012726216	0.016784587	0.0036970018	0.036355326	0.0039566543	0.074085487	0.010957663	0.12223942	0.039339813	1.0069979	7.0851311	6.8774349	1.4898902	6.7527024	1.941763	2.5309021	3.7451541	7.0340402	1.052653	1.1432802	6.7838302	1.3022457	6.3331995	5.627435	5.0525476	-555.39876	R0:S0:1	-98.16	uncorrelated	51514b8	2022-04-11@12:37
2x2_2C_8b_C2v_L	8.0111318	0.1	14	2.21	82.445098	-26.872006	-93.20572	12.690755	-47.891724	1.3377545	-79.887339	-30.216041	14.5	-2.6029686	-1.2978263	-3.0853312	1.6940172	-0.17282928	-0.22226089	6.3055201	-0.59402234	-3.5809293	-2.3435942	1.7786027	-0.45453029	-2.4026422	-0.093406519	-1.1654488	-4.6687644	1.27	0.623	0.132	-0.18567966	1.3232893	1.8561879	-0.17210392	-0.030156309	0.013902882	-0.27429198	0.47445481	0.013479164	1.9831046	1.9938805	0.030247183	1.99733	0.049307959	1.9896526	1.8685338	1.4700265	0.060322761	0.58335215	0.40697114	-0.30144226	-0.075374921	0.43279397	-0.3004451	0.18562683	0.60802148	0.098762462	0.029934207	0.66724468	0.11324639	0.83595875	0.097520165	1.6929261	0.36342585	0.033843597	0.013433031	0.017160994	0.0061134713	0.031120307	0.0026834027	0.050254768	0.010403304	0.12519201	0.035357096	0.89884204	7.1849621	7.0108906	1.2952928	6.7867292	1.7336211	2.5136485	3.7581097	7.1384287	0.94057089	1.0095898	6.9602079	1.2604415	6.5761462	5.651432	5.0546043	-623.22984	R0:S0:1	-98.32	uncorrelated	51514b8	2022-04-11@12:51
2x2_2C_8b_C2v_L	8.0646353	0.1	14	2.21	91.016205	-28.422625	-108.23796	15.872351	-59.82809	2.2760779	-86.550241	-31.636296	14.52	-2.9004448	-1.4288113	-4.0846124	2.1289511	-0.29663685	-0.33933485	6.3996712	-1.7001508	-3.8815324	-2.4628657	1.567478	-0.45049116	-2.4985837	-0.11386535	-3.3398347	-4.5833608	1.27	0.623	0.132	-0.17831708	1.3239539	1.8672142	-0.16057065	-0.028428455	0.013190123	-0.24833635	0.48792285	0.013344024	1.9827547	1.9914213	0.024083217	1.9982939	0.038384353	1.9854755	1.8756289	1.4830832	0.057104089	0.61708486	0.49164216	-0.25630562	-0.028052144	0.38482874	-0.25641413	0.29589257	0.61170084	0.075419855	0.043149527	0.57205958	0.086164769	0.70310452	0.36405154	1.6333585	0.37184214	0.029076563	0.013299976	0.017528413	0.0085549709	0.024955066	0.0017127465	0.039369719	0.014597422	0.11902832	0.030641139	0.79359604	7.2685542	7.0877636	1.1395464	6.8416536	1.5990915	2.5125491	3.6276599	7.2382343	0.84002421	0.9342519	7.1094587	1.1940299	6.7453623	5.6807238	5.1529549	-697.48199	R0:S0:1	-98.48	uncorrelated	51514b8	2022-04-11@13:01
2x2_2C_8b_C2v_L	8.1080175	0.1	14	2.21	100.01	-30.056793	-124.4766	19.414522	-73.265857	3.4724624	-93.528787	-33.21051	14.54	-3.1268118	-1.5132442	-5.0581488	2.5753681	-0.37669305	-0.50712224	5.8404845	-2.8614557	-4.0582883	-2.5223545	1.307753	-0.40813347	-2.3788893	-0.10170856	-5.6283111	-4.0752716	1.27	0.623	0.132	-0.173809	1.3244978	1.8762622	-0.15114211	-0.026959297	0.012570732	-0.24027638	0.50694261	0.012874021	1.9849707	1.9891803	0.015611802	1.9989045	0.03367223	1.9815276	1.8871126	1.5017157	0.067239811	0.59795465	0.56337191	-0.17571499	-0.014598588	0.40273607	-0.1368976	0.55787257	0.60781605	0.033267427	0.043277774	0.44511562	0.070691048	0.58260312	0.52433691	1.4995062	0.37976237	0.028769881	0.012829971	0.015296185	0.010771262	0.016286081	0.0010982319	0.034843509	0.01855968	0.10857521	0.030440943	0.68495523	7.3747086	7.2787889	0.8272022	6.7179883	1.6912469	2.6590368	3.5019937	7.3389032	0.70540468	0.73984454	7.3613631	1.3063064	6.7333582	5.5599402	5.1778986	-778.0381	R0:S0:1	-98.64	uncorrelated	51514b8	2022-04-11@13:14
2x2_2C_8b_C2v_L	7.705788	0.1	14	2.21	109.42318	-31.76356	-141.91817	23.287361	-88.206675	4.8144597	-100.81606	-34.916658	14.56	-3.3261464	-1.5872463	-6.1482543	3.066736	-0.5989497	-0.72813954	4.7224281	-4.155909	-4.2043077	-2.5597668	1.0101651	-0.35533317	-1.8833515	-0.11124587	-8.1157197	-3.192715	1.27	0.623	0.132	-0.30629382	1.3197855	1.8234186	-0.23153311	-0.041687949	0.01907689	-0.5472319	0.83281614	0.012108816	1.9844221	1.987853	0.01919406	1.9998848	0.041649473	1.989938	1.8759142	1.8308491	0.035734058	0.68767675	0.59668616	-0.21640051	-0.015072755	0.43964364	-0.4893207	1.8476297	0.61476512	-0.023714037	0.15467029	0.70341966	0.016158292	0.97607384	-0.0061568797	0.35355874	0.30091558	0.053145502	0.012071135	0.015852201	0.012087028	0.020052779	0.00011528565	0.043306724	0.010216728	0.11808939	0.054907683	0.29018631	7.6844739	7.2219983	0.936461	6.8269861	1.6817729	7.2082327	5.9775316	7.7092112	0.31438285	0.77906911	7.0832602	1.1739677	6.3717292	0.80025687	2.0418957	-865.58224	R0:S0:1	-98.8	uncorrelated	51514b8	2022-04-11@13:26
2x2_2C_8b_C2v_L	7.8080177	0.1	14	2.21	119.25194	-33.52931	-160.56054	27.469692	-104.65048	6.3185663	-108.44623	-36.837679	14.58	-3.564056	-1.6767075	-7.4415141	3.6460499	-0.95707784	-0.94977891	2.8694117	-5.3501236	-4.4216457	-2.6443211	0.69775087	-0.2625308	-1.0436619	-0.084182909	-10.338297	-1.8820611	1.27	0.623	0.132	-0.29506313	1.3210476	1.8447407	-0.20904618	-0.038867264	0.017928924	-0.49667949	0.87065218	0.010731899	1.9819617	1.9855166	0.015736104	1.9997069	0.02226406	1.9931522	1.8488478	1.8689108	0.011947442	0.74236706	0.65132337	-0.19645401	0.091328188	0.24627232	-0.3413349	2.077853	0.57988122	0.0015728795	0.17402428	0.6420741	-0.023453845	0.75376746	0.075416593	0.10054983	0.3330631	0.042203341	0.010708621	0.018293606	0.014391633	0.01650962	0.00029324165	0.023580357	0.0069429739	0.14016755	0.043821689	0.25033032	7.6673857	7.1959072	0.90122949	7.3105188	1.0103317	7.3340093	5.7615656	7.7491083	0.32945765	0.80458205	7.1110414	0.68955939	7.0052324	0.66741142	2.2291946	-960.25229	R0:S0:1	-98.96	uncorrelated	51514b8	2022-04-11@13:35
2x2_2C_8b_C2v_L	7.8810149	0.1	14	2.21	129.49165	-35.335257	-180.40208	31.951245	-122.5955	7.8448294	-116.48324	-39.146344	14.6	-3.9136882	-1.8346287	-8.9808116	4.3300108	-1.6170534	-1.1338748	0.24292005	-5.8907687	-4.8578657	-2.8304402	0.36872996	-0.15250573	0.10273181	-0.0073611771	-11.394117	-0.157128	1.27	0.623	0.132	-0.284485	1.3219522	1.8582201	-0.19333309	-0.036542714	0.016955951	-0.46827812	0.88193936	0.010959489	1.9803184	1.982603	0.011915982	1.9986942	0.010937275	1.9967585	1.8414042	1.8802802	0.010824672	0.77551338	0.71690861	-0.16095414	0.19706043	0.15536552	-0.0032239473	2.1359547	0.58590343	0.0036032337	0.1809264	0.5612527	-0.050947586	0.53556044	0.090055226	0.044475279	0.35131299	0.038566681	0.010935537	0.019955899	0.017257063	0.012575542	0.0013049607	0.011648885	0.0032373588	0.1453565	0.040121623	0.25654514	7.6437809	7.2283428	0.78852251	7.429649	0.73937037	7.3619579	5.6707955	7.7428359	0.3522818	0.77183827	7.2205993	0.57032482	7.2706706	0.63880517	2.3175588	-1061.6623	R0:S0:1	-99.12	uncorrelated	51514b8	2022-04-11@13:44
2x2_2C_8b_C2v_L	7.9130364	0.1	14	2.21	140.14227	-37.181552	-201.44286	36.731758	-142.04183	9.3919058	-124.92823	-41.839216	14.62	-4.3772664	-2.0564035	-10.763305	5.1240309	-2.5748638	-1.2837332	-3.1260685	-5.8131722	-5.5132474	-3.1177716	0.022971801	-0.025167058	1.544808	0.1922874	-11.263654	2.0280825	1.27	0.623	0.132	-0.2801816	1.3223609	1.8638015	-0.18647236	-0.035437017	0.016489179	-0.46194423	0.88917015	0.012068948	1.9777195	1.9794919	0.0096836244	1.9967934	0.0017856721	1.9923446	1.8649234	1.8876277	0.012835083	0.82370269	0.77952766	-0.14107193	0.30920142	0.05941866	0.39739964	1.9768241	0.61425957	0.0035318555	0.19139539	0.50506958	-0.079763573	0.21103439	0.082509355	0.016637279	0.35636089	0.036992494	0.01203826	0.022610943	0.020308201	0.010275465	0.0032018001	0.0019060212	0.0077693382	0.12669533	0.038475366	0.28282597	7.6015874	7.2190209	0.73609343	7.4422452	0.57012572	7.3744511	5.9882958	7.7165342	0.39404056	0.7810793	7.272112	0.55774564	7.4375624	0.62606032	1.9995271	-1170.414	R0:S0:1	-99.28	uncorrelated	51514b8	2022-04-11@13:54
2x2_2C_8b_C2v_L	7.961164	0.1	14	2.21	151.20374	-39.068408	-223.68299	41.81111	-162.98973	10.954435	-133.78235	-44.91384	14.64	-4.9575341	-2.3361546	-12.786015	6.0323473	-3.8153584	-1.4565259	-7.2440156	-5.1771221	-6.3879098	-3.5060851	-0.33929526	0.11990032	3.2749142	0.56795734	-9.9107344	4.6562099	1.27	0.623	0.132	-0.27327579	1.3229647	1.8721163	-0.17618032	-0.033767668	0.015781116	-0.45132391	0.89606333	0.013902311	1.9740111	1.976129	0.0078155474	1.994041	0.002260788	1.9760397	1.9077025	1.8946046	0.015339761	0.88699349	0.8425609	-0.12225324	0.42141298	-0.059082111	0.83029708	1.6273853	0.65828994	0.0045380508	0.19892641	0.45281993	-0.10784063	-0.24844048	0.070920579	-0.0022618829	0.36162401	0.035208913	0.013858635	0.026419081	0.023595195	0.008341736	0.00594538	0.0024238247	0.024084848	0.091389943	0.03664463	0.32429272	7.5405964	7.2112088	0.68174805	7.4097047	0.51185354	7.2796666	6.5615183	7.6750151	0.45446086	0.78876	7.3253245	0.59034052	7.4891107	0.72006345	1.4286063	-1287.7552	R0:S0:1	-99.44	uncorrelated	51514b8	2022-04-11@14:03
2x2_2C_8b_C2v_L	7.9346976	0.1	14	2.21	162.70973	-41.124336	-247.16049	47.418691	-185.45937	12.828091	-143.17672	-48.778736	14.66	-5.1696429	-2.4126085	-13.912666	6.6110255	-4.6112497	-1.5972785	-10.300764	-3.3859646	-6.7065661	-3.633724	-0.66727227	0.25474534	4.8542986	0.95879489	-6.4376268	6.679376	1.27	0.623	0.132	-0.27797658	1.3226627	1.8671438	-0.18187204	-0.034571413	0.016118823	-0.46947854	0.89882267	0.013215476	1.9747341	1.9766555	0.0067998622	1.9926254	0.011948988	1.9604747	1.96676	1.8975381	0.013297159	0.87526179	0.83137009	-0.11829834	0.4650876	-0.14118503	1.0992387	0.97531602	0.64212294	0.0061357223	0.20539919	0.42086581	-0.12734376	-0.57412796	0.045015251	-0.0073167756	0.3500477	0.035580161	0.013175895	0.025670551	0.02307981	0.007233306	0.0073572459	0.012711043	0.038996227	0.034882232	0.036883259	0.31082862	7.5534968	7.186447	0.70058602	7.303733	0.65118089	7.2525211	7.3573116	7.688602	0.44207101	0.81375852	7.3068872	0.69655481	7.3432316	0.74595872	0.63956081	-1411.381	R0:S0:1	-99.6	uncorrelated	51514b8	2022-04-11@14:12
2x2_2C_8b_C2v_L	7.9236243	0.1	14	2.21	174.66032	-43.348779	-271.87516	53.555499	-209.45054	15.016657	-153.11052	-53.436257	14.68	-5.0109341	-2.2925257	-14.151125	6.8426605	-4.9733651	-1.6699389	-12.315042	-0.45054038	-6.4656456	-3.5086501	-0.96222836	0.37603437	6.289427	1.3294808	-0.8390853	8.0657855	1.27	0.623	0.132	-0.28023176	1.322548	1.8648683	-0.18427347	-0.034856557	0.016236574	-0.47989721	0.90107847	0.010686285	1.9792271	1.9797641	0.0051681662	1.9925809	0.023252804	1.9516301	1.99944	1.8999444	0.0095245133	0.79698359	0.77382109	-0.10471992	0.46266681	-0.20045782	1.2244076	0.072235489	0.5786661	0.0054600723	0.19602826	0.36763926	-0.13336945	-0.80193454	0.030214737	-0.014539333	0.3429847	0.035566369	0.01066125	0.021061688	0.020036052	0.0054519442	0.0074057161	0.0243785	0.047180399	0.00058014784	0.03673221	0.2544977	7.6299539	7.2124041	0.68113864	7.2310382	0.80763126	7.2357548	7.7962132	7.745071	0.36653723	0.78790413	7.3256134	0.76946708	7.1824063	0.76184228	0.20591488	-1542.3323	R0:S0:1	-99.76	uncorrelated	51514b8	2022-04-11@14:19
2x2_2C_8b_C2v_L	8.0681426	0.1	14	2.21	187.03028	-45.642475	-297.79404	60.041825	-234.95052	17.386915	-163.62895	-59.015265	14.7	-4.9276617	-2.2210545	-14.643274	7.1758384	-5.4720529	-1.7872902	-12.755243	3.5986527	-6.4878136	-3.5148106	-1.2892512	0.51474662	7.8181009	1.7591405	6.5285472	8.346069	1.27	0.623	0.132	-0.25802201	1.324319	1.8897035	-0.1534136	-0.029833969	0.014089639	-0.4335354	0.90637638	0.0093848188	1.9822317	1.9815142	0.002777246	1.9927062	0.040542306	1.9561531	1.9685999	1.9051589	0.0068223306	0.73926581	0.74519028	-0.068952207	0.45785217	-0.23073681	1.1582457	-0.94549574	0.54318113	0.0054187847	0.16865999	0.27248103	-0.12301516	-1.0662503	0.0085933866	-0.052890383	0.3659712	0.031995229	0.0093648345	0.018003642	0.018316527	0.0029164926	0.0072861802	0.041837318	0.043144076	0.033022684	0.033207793	0.22054656	7.6819846	7.332688	0.53101071	7.2780169	0.92849344	7.2070488	7.3534436	7.7790025	0.31469702	0.66722704	7.472625	0.72230583	7.0562495	0.79120852	0.64407171	-1684.0126	R0:S0:1	-99.92	uncorrelated	51514b8	2022-04-11@14:28
2x2_2C_8b_C2v_L	8.2921885	0.1	14	2.21	199.80141	-47.938725	-324.89271	66.724065	-261.97513	20.115138	-174.97342	-66.123634	14.72	-5.1925721	-2.3445511	-16.335761	8.0015168	-5.8979536	-1.9234401	-9.6734913	7.5518399	-7.2999513	-3.8820053	-1.715462	0.70852094	9.0420297	2.1230984	13.238885	6.4120931	1.27	0.623	0.132	-0.22518842	1.3270876	1.9250769	-0.1058553	-0.021190512	0.010272772	-0.37181295	0.90799717	0.010376196	1.9819629	1.9803816	0.0013185691	1.9933831	0.052642128	1.9776933	1.9022131	1.9065658	0.0062456802	0.74406149	0.77302436	-0.041509781	0.43653309	-0.21567162	0.7992757	-1.6795072	0.57115159	0.0068853887	0.14933468	0.18757235	-0.10357302	-1.2260453	-0.036645797	-0.071680179	0.39432156	0.028741316	0.010348235	0.018314907	0.019425606	0.0013861263	0.0066151519	0.053566741	0.02248199	0.095835469	0.030081138	0.23548836	7.6755714	7.4178195	0.39973162	7.3717807	0.9929886	7.3007515	6.4715405	7.7639878	0.32093562	0.58180721	7.602142	0.62831098	6.9895222	0.69877597	1.5204831	-1836.9212	R0:S0:1	-100.08	uncorrelated	51514b8	2022-04-11@14:41
2x2_2C_8b_C2v_L	8.4546754	0.1	14	2.21	212.98723	-50.286156	-353.16708	73.594653	-290.52508	23.29561	-187.24401	-75.009055	14.74	-5.6181548	-2.5530664	-19.272365	9.3594287	-6.0444634	-2.0186165	-2.8892281	10.536979	-8.5480529	-4.4443096	-2.2494277	0.95998203	9.6968866	2.330004	17.839763	1.9625439	1.27	0.623	0.132	-0.2039817	1.3291255	1.9486836	-0.071489897	-0.014266105	0.0070899292	-0.33219307	0.90887781	0.012521969	1.9807384	1.9768016	0.00067749138	1.9944619	0.051202101	1.9961642	1.8586373	1.9073248	0.0086591523	0.76658401	0.84326374	-0.027536155	0.40097717	-0.19050968	0.20266531	-2.0286752	0.62698796	0.0063349775	0.14405235	0.13034861	-0.086019873	-1.2197381	-0.071243015	-0.050206676	0.41146349	0.026931928	0.012475199	0.019635356	0.022927737	0.00071507057	0.0055394937	0.051715519	0.003869965	0.13132087	0.028328204	0.27334103	7.6506336	7.4241212	0.33688745	7.458509	0.93624114	7.4163679	5.9067877	7.7260544	0.3457503	0.57535709	7.6644498	0.5414932	7.0478518	0.58360147	2.0844393	-2001.3007	R0:S0:1	-100.24	uncorrelated	51514b8	2022-04-11@14:50
2x2_2C_8b_C2v_L	8.4983629	0.1	14	2.21	226.61936	-52.839263	-382.65186	80.80791	-320.57546	26.599522	-200.63466	-86.080297	14.76	-5.7391473	-2.6042838	-22.608679	10.913695	-7.1674212	-2.3741073	6.5830903	11.12768	-9.3207433	-4.792044	-2.8061436	1.2237549	10.78107	2.702269	18.113017	-4.5961404	1.27	0.623	0.132	-0.19905165	1.3296827	1.9547315	-0.062252332	-0.01229382	0.0061626434	-0.32523171	0.91238167	0.013180106	1.9819585	1.9728378	0.00048348266	1.9938055	0.052882934	1.9894408	1.8817923	1.9108978	0.009814481	0.74148941	0.91253611	-0.023208723	0.42441529	-0.19198673	-0.51233654	-1.8590332	0.64347087	0.0046815373	0.14943314	0.10446076	-0.090809117	-1.2380107	-0.072327797	-0.013389635	0.41314632	0.02605426	0.013123626	0.018432508	0.026790908	0.00051163847	0.0061939419	0.053481927	0.010743895	0.11229927	0.027402336	0.27921816	7.6677642	7.382695	0.32907555	7.4425724	0.95767665	7.3920145	6.2188103	7.7201755	0.32897817	0.61674185	7.6722521	0.55741378	7.0277055	0.60783856	1.7736401	-2178.762	R0:S0:1	-100.4	uncorrelated	51514b8	2022-04-11@14:59
2x2_2C_8b_C2v_L	8.4188023	0.1	14	2.21	240.70025	-55.607312	-413.39134	88.564024	-352.16339	30.416469	-215.32648	-99.758774	14.78	-5.5308676	-2.4930519	-25.298135	12.218011	-8.2097998	-2.7456864	16.71487	8.2424425	-9.5778557	-4.9116582	-3.2641981	1.4437131	11.28914	2.9129195	12.780717	-12.00893	1.27	0.623	0.132	-0.20947055	1.3286937	1.9434015	-0.079060402	-0.015762106	0.0077876609	-0.34064785	0.91987634	0.01235394	1.9849735	1.9708877	0.00055311284	1.9934325	0.045140102	1.9542541	1.9521528	1.9186514	0.0081020918	0.67791202	0.94290238	-0.025868717	0.43901632	-0.18956901	-1.17363	-1.175508	0.62374927	0.0040930757	0.16207247	0.11057777	-0.095040306	-1.1439762	-0.051860288	0.011871857	0.40782766	0.025192241	0.012301171	0.015354067	0.028686154	0.00058662898	0.0065633319	0.045888218	0.045225014	0.049144691	0.026359317	0.25484752	7.7168932	7.3354982	0.35901061	7.4407581	0.87326906	7.1141283	7.1225832	7.7446074	0.28050449	0.66402609	7.6426499	0.55924942	7.1151976	0.88452116	0.87414373	-2370.215	R0:S0:1	-100.56	uncorrelated	51514b8	2022-04-11@15:08
2x2_2C_8b_C2v_L	8.3377638	0.1	14	2.21	255.2239	-58.5523	-445.41917	97.045035	-385.27438	34.586845	-231.82801	-117.11206	14.8	-5.0890117	-2.271994	-26.35226	12.828348	-9.7501598	-3.2834145	21.78643	1.1628403	-9.56616	-4.917534	-3.5083583	1.5642133	11.621483	3.0927193	1.722526	-16.309335	1.27	0.623	0.132	-0.2207186	1.3276966	1.9314151	-0.096211657	-0.019145155	0.0093431743	-0.35948878	0.92599651	0.010964491	1.9885763	1.9727067	0.00065886123	1.9926274	0.036773331	1.9345584	1.9990009	1.9250033	0.0050545219	0.59264298	0.91139376	-0.029372434	0.46732496	-0.18003666	-1.416785	-0.11369732	0.58852417	0.0042597244	0.16820036	0.12333031	-0.10165304	-1.0315497	-0.025359753	0.022356793	0.40173268	0.02466699	0.010920295	0.011663327	0.026919284	0.00069711352	0.0073618948	0.037677576	0.063281764	0.0010299545	0.025655364	0.2191737	7.7771377	7.3312294	0.38891873	7.4377261	0.77923292	6.9860072	7.7298693	7.7803606	0.22098042	0.66844611	7.6129802	0.56230662	7.2122457	1.0116232	0.27046647	-2575.0898	R0:S0:1	-100.72	uncorrelated	51514b8	2022-04-11@15:18
2x2_2C_8b_C2v_L	8.4606065	0.1	14	2.21	270.19034	-61.673933	-478.73514	106.25189	-419.90845	39.110625	-250.13673	-138.1521	14.82	-4.4128101	-1.9434346	-25.778301	12.728691	-11.786823	-3.9924573	22.081553	-10.529115	-9.2833403	-4.8154393	-3.5383242	1.5857518	11.779307	3.2374642	-14.73383	-17.068974	1.27	0.623	0.132	-0.20483816	1.3292323	1.9491548	-0.070225846	-0.013871659	0.006904328	-0.335359	0.92687019	0.0092185067	1.9923291	1.97719	0.00034236613	1.991702	0.031047663	1.9440257	1.9552327	1.9258201	0.0019276729	0.4872535	0.83604038	-0.019916914	0.49949799	-0.14957154	-1.2961245	1.1335866	0.54052379	0.0041380116	0.14466994	0.08722128	-0.097440119	-0.94999725	0.013551944	0.052299524	0.41444824	0.023448447	0.0091851043	0.0078199597	0.022548475	0.00035835181	0.0082792569	0.032032139	0.055096785	0.046063396	0.024464547	0.17683713	7.841913	7.4256002	0.33216427	7.4954804	0.66412707	6.9867229	7.1210008	7.8227674	0.15681847	0.57406309	7.6689926	0.50447885	7.3291842	1.0118677	0.8769726	-2800.1342	R0:S0:1	-100.88	uncorrelated	51514b8	2022-04-11@15:28
2x2_2C_8b_C2v_L	8.5005103	0.1	14	2.21	285.58184	-64.89792	-513.31426	116.07237	-456.09946	44.355056	-271.57948	-164.95447	14.84	-3.6973826	-1.6146569	-24.393219	12.263798	-12.965766	-4.5012372	12.469242	-19.424242	-9.4243764	-4.9073894	-3.4533161	1.5486056	10.942363	3.0641279	-25.883107	-10.093545	1.27	0.623	0.132	-0.20032402	1.3297387	1.9547005	-0.061781267	-0.012077477	0.0060597888	-0.32660035	0.92941136	0.0085266632	1.9952044	1.9820835	0.00020404036	1.9919352	0.0200704	1.9838716	1.8985303	1.9284174	0.0013034931	0.38581817	0.74265712	-0.014626898	0.49561888	-0.11908554	-0.6649637	1.7282497	0.52037856	0.0027850351	0.1247547	0.066690539	-0.090462989	-0.76735114	0.046455259	0.041552353	0.42149352	0.022552818	0.0084954974	0.0048895887	0.017755081	0.00021149395	0.0080429264	0.020785144	0.016466366	0.097513341	0.023510338	0.15482297	7.889794	7.5100197	0.29656385	7.5585326	0.50634087	7.3777633	6.4309373	7.8448192	0.10944954	0.48971894	7.7042834	0.4413956	7.4896601	0.62201914	1.565349	-3043.4752	R0:S0:1	-101.04	uncorrelated	51514b8	2022-04-11@15:38
2x2_2C_8b_C2v_L	8.4977008	0.1	14	2.21	301.39834	-68.224453	-549.15651	126.50638	-493.84735	50.320213	-296.15301	-197.52774	14.86	-2.9433331	-1.2843159	-22.197926	11.434231	-13.289575	-4.8066428	-6.3944153	-25.249154	-9.9927647	-5.1871117	-3.2547836	1.4498445	9.1132444	2.5656422	-31.930102	5.3919684	1.27	0.623	0.132	-0.20109448	1.3297107	1.9542398	-0.062366028	-0.01217586	0.006107047	-0.32438728	0.93321542	0.0086270852	1.9972864	1.986929	0.0001283857	1.9930917	0.0091091894	1.9944494	1.8827906	1.9323277	0.0018983502	0.29013362	0.63551026	-0.011044617	0.46093807	-0.083068776	0.33187882	1.8605659	0.52370956	0.0014677361	0.1050183	0.052961092	-0.081210081	-0.51993411	0.062922066	0.0046945029	0.42576059	0.02166946	0.0085926563	0.0027705438	0.012985114	0.00013192876	0.0068893119	0.0094292958	0.005683503	0.11057966	0.022532487	0.14847127	7.9223545	7.5884836	0.26908525	7.6228081	0.35986527	7.4758221	6.2418431	7.8511801	0.077265181	0.41134381	7.7315738	0.37711642	7.6386598	0.52421519	1.7547041	-3312.9014	R0:S0:1	-101.2	uncorrelated	51514b8	2022-04-11@15:47
2x2_2C_8b_C2v_L	8.5336604	0.1	14	2.21	317.61663	-71.39844	-586.14456	137.08399	-533.03039	55.881157	-325.03981	-237.47624	14.88	-2.4871015	-1.115128	-23.734776	12.263942	-18.701042	-6.5879552	-26.989688	-21.949152	-13.279721	-6.6576623	-3.4443005	1.5553547	7.8868155	2.3451625	-26.343688	23.66715	1.27	0.623	0.132	-0.19710375	1.3301667	1.9591768	-0.054758142	-0.010538156	0.0053292754	-0.31591467	0.93639834	0.013641179	1.9981431	1.9868833	0.00010428459	1.9892515	0.0038381824	1.9488022	1.9386626	1.9355703	0.0026186112	0.2376762	0.63708188	-0.0096866479	0.57590738	-0.051800152	1.2287	1.3362944	0.65774285	0.0021655825	0.10240018	0.04628085	-0.097584769	-0.33431277	0.048484724	-0.028063271	0.42955652	0.020710072	0.013550359	0.0019164541	0.013030257	0.0001070139	0.010693608	0.0040477217	0.051018333	0.061568271	0.021520709	0.22419309	7.9164128	7.5985954	0.25721527	7.5983015	0.29264767	6.9979844	6.9007923	7.7752924	0.083393745	0.4012392	7.7433801	0.40155605	7.7074021	1.0011392	1.0976496	-3620.7108	R0:S0:1	-101.36	uncorrelated	51514b8	2022-04-11@16:00
2x2_2C_8b_C2v_L	8.5796648	0.1	14	2.21	334.41888	-75.284082	-624.2341	147.63975	-573.87782	63.366676	-359.04086	-285.86289	14.9	-1.7608161	-0.79188255	-30.195039	15.353192	-21.175019	-7.602261	-42.913951	-7.5436868	-14.022042	-7.0192376	-4.1613539	1.9334867	5.5927465	1.7181729	-8.6294035	39.087512	1.27	0.623	0.132	-0.19208963	1.3307486	1.9654338	-0.045025009	-0.0084185344	0.0043127661	-0.30229885	0.93895952	0.013720771	1.9991387	1.9814436	0.00012889222	1.9886987	0.00054021951	1.897275	1.9937083	1.9381759	0.0014251692	0.16094222	0.75707535	-0.010964719	0.59192268	-0.017564606	1.7507936	0.37665161	0.65980633	0.0021248415	0.11841105	0.048044044	-0.093949762	-0.12305634	0.01711874	-0.048676041	0.43400514	0.019649306	0.013627177	0.00088909152	0.018383372	0.00013295244	0.011237733	0.00057011419	0.097609179	0.0065875064	0.020409811	0.22151369	7.931614	7.5273491	0.26804107	7.6278401	0.23945168	6.4388632	7.5191187	7.7779886	0.068342672	0.47243133	7.7326629	0.37200148	7.7613381	1.5593015	0.48092028	-3964.1846	R0:S0:1	-101.52	uncorrelated	51514b8	2022-04-11@16:10
2x2_2C_8b_C2v_L	8.6356479	0.1	14	2.21	351.78223	-79.77229	-663.53092	158.62064	-616.35645	72.389253	-399.52214	-344.29236	14.92	-0.80659609	-0.36061994	-38.785845	19.524003	-22.769264	-8.415249	-44.827416	15.423994	-13.173372	-6.6865334	-5.0797434	2.4111062	2.3786481	0.75421168	16.936768	42.418479	1.27	0.623	0.132	-0.18629357	1.3314568	1.9729386	-0.033175652	-0.0057925233	0.0030378305	-0.28662738	0.9408313	0.010985989	1.9998277	1.9732231	0.00017611193	1.9891928	0.00039438965	1.9089848	1.9841981	1.9400793	0.00020008111	0.070284958	0.90799004	-0.013312524	0.57988138	0.017126988	1.6483347	-0.65612805	0.59096505	0.0014813296	0.13720479	0.051008936	-0.085783266	0.10395039	-0.017727929	-0.046497625	0.43786481	0.018681287	0.010925303	0.00017664418	0.026416894	0.00018261078	0.010748602	0.00041406292	0.087421098	0.016451894	0.019399416	0.17568142	7.9531947	7.4166853	0.2879102	7.6616946	0.22696446	6.5765672	7.4204827	7.8239298	0.046841489	0.58301851	7.7129173	0.33815337	7.7738528	1.4219505	0.57934041	-4343.622	R0:S0:1	-101.68	uncorrelated	51514b8	2022-04-11@16:20
2x2_2C_8b_C2v_L	8.7373589	0.1	14	2.21	369.70674	-84.862719	-704.0354	170.02555	-660.46606	82.9509	-446.47577	-412.77889	14.94	0.38098359	0.16626364	-49.496571	24.794537	-23.497694	-8.986296	-33.590692	47.353851	-10.730391	-5.668953	-6.1990962	2.9886214	-1.7465362	-0.57356441	49.933706	32.747697	1.27	0.623	0.132	-0.16707235	1.3327018	1.9867237	-0.012157778	-0.0012421451	0.00078338684	-0.25121747	0.93723918	0.0066366837	1.9999648	1.9618525	0.00017376735	1.9904117	0.0034510331	1.9582345	1.9065711	1.9363297	-1.2370442e-05	-0.0307397	1.082728	-0.012922771	0.54751421	0.044692321	1.0870205	-1.6480485	0.45991959	0.00070243845	0.14549594	0.029475028	-0.069933172	0.32010091	-0.060095555	-0.036356908	0.44679126	0.018203411	0.0066144897	3.5733355e-05	0.03741672	0.00017777318	0.0095440246	0.0035932611	0.042601581	0.091040451	0.019012725	0.10613635	7.9727517	7.2808118	0.2930575	7.7114264	0.23561335	7.0362497	6.4735315	7.8936313	0.027267516	0.71874473	7.7076498	0.28843013	7.7645251	0.96331349	1.5252673	-4779.1376	R0:S0:1	-101.84	uncorrelated	51514b8	2022-04-11@16:31
2x2_2C_8b_C2v_L	8.7275622	0.1	14	2.21	388.12325	-90.219957	-746.68325	185.66645	-706.1296	94.242467	-504.77828	-496.19206	14.96	2.4979257	1.1073859	-43.25555	22.146208	-28.012496	-10.811537	-6.5000356	59.578012	-11.679553	-6.1274031	-5.319731	2.5834578	-7.792063	-2.6954205	61.008637	6.5427325	1.27	0.623	0.132	-0.17355629	1.3326041	1.9851805	-0.013928564	-0.0015163552	0.00092374178	-0.25347032	0.94268452	0.0071271101	1.9988099	1.9737143	0.00012207033	1.9887928	0.014855385	1.9971717	1.8956896	1.9419551	-0.00011322076	-0.19260003	0.90158838	-0.010286654	0.59008143	0.097360518	0.2014857	-1.765363	0.4764133	0.0012791648	0.12332119	0.036080521	-0.073856457	0.66153223	-0.050827059	0.0065308261	0.44514136	0.017205479	0.0071026664	0.0012107244	0.025938801	0.00012538624	0.011155239	0.015411984	0.0028946387	0.098912153	0.017871279	0.11844879	7.9524319	7.4526757	0.25265937	7.6478812	0.42798044	7.5624656	6.4285124	7.8813174	0.047439483	0.54704032	7.7479345	0.3519954	7.5712464	0.43759071	1.5700874	-5240.4108	R0:S0:1	-102	uncorrelated	51514b8	2022-04-11@16:41
2x2_2C_8b_C2v_L	8.723383	0.1	14	2.21	407.03265	-95.840193	-791.47402	205.54504	-753.34909	106.25025	-574.41207	-594.55142	14.98	5.5038439	2.5508228	-20.090947	11.522228	-36.24746	-14.062134	35.693654	51.145885	-15.990463	-8.1242807	-2.4755617	1.1198399	-15.719985	-5.7160917	51.108908	-36.919349	1.27	0.623	0.132	-0.17470132	1.332556	1.9845603	-0.014777245	-0.0016857495	0.0010073919	-0.24362109	0.94552703	0.012050282	1.9944494	1.9948173	4.0985886e-05	1.9843201	0.038388978	1.9722015	1.9436146	1.9448897	-0.0014209911	-0.41349153	0.4029504	-0.004990118	0.69338169	0.16043246	-0.90779854	-1.3039948	0.61792367	0.0040716506	0.054071613	0.032260644	-0.076460158	1.0489199	-0.013110808	0.042133388	0.44597411	0.016379571	0.011985703	0.0056874449	0.0051692061	4.1456737e-05	0.015597647	0.039758903	0.028209534	0.055536055	0.016959455	0.21289442	7.8649285	7.7773239	0.16435443	7.5145952	0.78631009	7.3647831	7.0307375	7.7867519	0.13446256	0.22261888	7.8357999	0.48530297	7.2116687	0.6348933	0.96855361	-5760.7418	R0:S0:1	-102.16	uncorrelated	51514b8	2022-04-11@16:52
2x2_2C_8b_C2v_L	8.7546344	0.1	14	2.21	426.71801	-102.87071	-838.41273	229.49328	-802.7191	123.01529	-655.97913	-708.45556	15	6.845579	3.2212589	19.354714	-11.557968	-34.425221	-13.959198	89.012881	20.541823	-16.669195	-8.5414071	2.5937083	-1.1933076	-18.690339	-7.0640469	19.937416	-93.309604	1.27	0.623	0.132	-0.15211858	1.3328626	1.9894381	-0.0092488691	-0.00085484604	0.00057329283	-0.21232538	0.93760842	0.011914098	1.992379	1.9956976	6.83895e-06	1.9875556	0.037708043	1.8707866	1.9909744	1.9366911	-0.0024805781	-0.48473121	-0.36810362	0.001542008	0.61884433	0.13919473	-1.9443527	-0.44350195	0.61409678	0.0043772819	-0.04241425	-0.009410255	-0.057976195	1.0516981	0.011204708	0.076491845	0.4564826	0.017080283	0.011854474	0.0077922996	0.0042930748	6.8859602e-06	0.012402392	0.03853406	0.12129145	0.0093796709	0.017852227	0.21857525	7.8334207	7.8275054	0.12254701	7.5872255	0.73477893	6.0735102	7.3829822	7.7810912	0.16575958	0.17243958	7.8775242	0.41267224	7.2629164	1.9254446	0.61700702	-6403.1773	R0:S0:1	-102.32	uncorrelated	51514b8	2022-04-11@17:03
2x2_2C_8b_C2v_L	8.7522144	0.1	14	2.21	447.16229	-111.24513	-888.90997	263.19113	-854.09758	143.65603	-762.29818	-849.38018	15.02	6.8477244	3.2300885	47.983871	-26.780804	-28.983351	-12.442718	89.886601	-19.427798	-14.502909	-7.650472	6.0048924	-3.1869609	-20.450438	-8.0125171	-18.5889	-95.826932	1.27	0.623	0.132	-0.15479652	1.3328435	1.98904	-0.0096226093	-0.00089517123	0.00059694917	-0.22243087	0.94238774	0.0082599194	1.9934369	1.9770336	5.7343136e-05	1.992497	0.033350605	1.8984439	1.9951303	1.9416161	-0.001861236	-0.45229121	-0.84533263	0.0045403308	0.4806018	0.13177981	-1.7419	0.32358365	0.5119683	0.0028416975	-0.10128526	-0.00077106168	-0.047922315	1.0006209	0.02473831	0.045172777	0.45166519	0.016401877	0.0082331197	0.0066612862	0.022701771	5.763464e-05	0.0074962815	0.03357106	0.096576035	0.0050151607	0.017076706	0.15712085	7.8635656	7.5333478	0.20335443	7.6629205	0.66248459	6.4602187	7.5430991	7.8426527	0.13575433	0.46641252	7.7969195	0.33702726	7.3355589	1.5388781	0.4569109	-7118.6897	R0:S0:1	-102.48	uncorrelated	51514b8	2022-04-11@17:14
