Number of OpenMP threads = 4
!!!!!!!!!!!!!!!!!!!!!!!!!!!!! - Fading to Sr2CuO2Cl2 - !!!!!!!!!!!!!!!!!!!!!!!!!!!!!
reading data file /home/theod/code_pyqcm/simulations/cdmft_max_supra_sid.tsv, line 1
111 columns read
----->  D  =  0.0
----->  U  =  14.0
----->  e  =  2.3
----->  eb1_1  =  -0.006655534
----->  eb2_1  =  -3.3502828
----->  eb3_1  =  -4.1133163
----->  eb4_1  =  -0.10235806
----->  eb5_1  =  -4.113222
----->  eb6_1  =  -0.1023468
----->  eb7_1  =  0.14108001
----->  eb8_1  =  -3.7537133
----->  mu  =  9.68
----->  sb1_1  =  -0.0001012231
----->  sb2_1  =  7.5002141e-06
----->  sb3_1  =  0.011771903
----->  sb4_1  =  -0.16264369
----->  sb5_1  =  0.011773954
----->  sb6_1  =  -0.16264057
----->  sb7_1  =  1.0013529e-05
----->  sb8_1  =  -2.0059213e-06
----->  tb1_1  =  -0.11240159
----->  tb2_1  =  -1.1061747
----->  tb3_1  =  1.7476608
----->  tb4_1  =  0.057892245
----->  tb5_1  =  -1.7476438
----->  tb6_1  =  -0.057886658
----->  tb7_1  =  0.22749261
----->  tb8_1  =  -2.3061557
----->  tpd  =  2.1
----->  tpp  =  1.0
----->  tppp  =  0.2

******************************* CDMFT procedure *******************************

minimization method =  CG
mixing state =  1
frequency grid type =  sharp
fictitious inverse temperature =  50
frequency cutoff =  2.0
--------------------------------------------------------------------------------

CDMFT iteration 1, distance =  1.66e+02, diff param =  6.34e-02
141 minimization steps, time(MIN)/time(ED)=0.00273
sb1_1     =  0.0000	sb2_1     =  0.0000	sb3_1     =  0.0101	sb4_1     = -0.1827	sb5_1     =  0.0101	
sb6_1     = -0.1827	sb7_1     = -0.0000	sb8_1     = -0.0000	eb1_1     =  0.0074	eb2_1     = -3.2284	
eb3_1     = -3.9536	eb4_1     = -0.1164	eb5_1     = -3.9535	eb6_1     = -0.1164	eb7_1     =  0.1567	
eb8_1     = -3.5868	tb1_1     = -0.1178	tb2_1     = -1.1019	tb3_1     =  1.7422	tb4_1     =  0.0429	
tb5_1     = -1.7422	tb6_1     = -0.0429	tb7_1     =  0.2522	tb8_1     = -2.3030	

CDMFT iteration 2, distance =  1.92e+02, diff param =  1.03e-02, diff hybrid =  9.65e-02
35 minimization steps, time(MIN)/time(ED)=0.00182
sb1_1     =  0.0000	sb2_1     =  0.0000	sb3_1     =  0.0065	sb4_1     = -0.1960	sb5_1     =  0.0065	
sb6_1     = -0.1960	sb7_1     = -0.0000	sb8_1     = -0.0000	eb1_1     =  0.0128	eb2_1     = -3.2263	
eb3_1     = -3.9519	eb4_1     = -0.1357	eb5_1     = -3.9519	eb6_1     = -0.1357	eb7_1     =  0.1720	
eb8_1     = -3.5944	tb1_1     = -0.1194	tb2_1     = -1.0965	tb3_1     =  1.7357	tb4_1     =  0.0236	
tb5_1     = -1.7357	tb6_1     = -0.0236	tb7_1     =  0.2659	tb8_1     = -2.2951	

CDMFT iteration 3, distance =  1.79e+02, diff param =  1.53e-02, diff hybrid =  4.46e-02
75 minimization steps, time(MIN)/time(ED)=0.00169
sb1_1     =  0.0000	sb2_1     = -0.0000	sb3_1     =  0.0080	sb4_1     = -0.1889	sb5_1     =  0.0080	
sb6_1     = -0.1889	sb7_1     = -0.0000	sb8_1     =  0.0000	eb1_1     =  0.0051	eb2_1     = -3.1601	
eb3_1     = -3.9330	eb4_1     = -0.1316	eb5_1     = -3.9330	eb6_1     = -0.1316	eb7_1     =  0.1732	
eb8_1     = -3.6017	tb1_1     = -0.1181	tb2_1     = -1.0893	tb3_1     =  1.7364	tb4_1     =  0.0303	
tb5_1     = -1.7364	tb6_1     = -0.0303	tb7_1     =  0.2588	tb8_1     = -2.3029	

CDMFT iteration 4, distance =  1.82e+02, diff param =  1.86e-03, diff hybrid =  2.65e-02
30 minimization steps, time(MIN)/time(ED)=0.00144
sb1_1     = -0.0000	sb2_1     = -0.0000	sb3_1     =  0.0079	sb4_1     = -0.1902	sb5_1     =  0.0079	
sb6_1     = -0.1902	sb7_1     =  0.0000	sb8_1     =  0.0000	eb1_1     =  0.0075	eb2_1     = -3.1606	
eb3_1     = -3.9328	eb4_1     = -0.1298	eb5_1     = -3.9328	eb6_1     = -0.1298	eb7_1     =  0.1703	
eb8_1     = -3.5958	tb1_1     = -0.1186	tb2_1     = -1.0886	tb3_1     =  1.7346	tb4_1     =  0.0299	
tb5_1     = -1.7346	tb6_1     = -0.0299	tb7_1     =  0.2604	tb8_1     = -2.2993	

CDMFT iteration 5, distance =  1.84e+02, diff param =  1.43e-03, diff hybrid =  8.77e-03
27 minimization steps, time(MIN)/time(ED)=0.00127
sb1_1     =  0.0000	sb2_1     = -0.0000	sb3_1     =  0.0074	sb4_1     = -0.1912	sb5_1     =  0.0075	
sb6_1     = -0.1912	sb7_1     =  0.0000	sb8_1     =  0.0000	eb1_1     =  0.0093	eb2_1     = -3.1637	
eb3_1     = -3.9348	eb4_1     = -0.1318	eb5_1     = -3.9348	eb6_1     = -0.1318	eb7_1     =  0.1722	
eb8_1     = -3.5983	tb1_1     = -0.1185	tb2_1     = -1.0889	tb3_1     =  1.7347	tb4_1     =  0.0280	
tb5_1     = -1.7347	tb6_1     = -0.0280	tb7_1     =  0.2614	tb8_1     = -2.2996	

CDMFT iteration 6, distance =  1.82e+02, diff param =  8.65e-04, diff hybrid =  4.05e-03
13 minimization steps, time(MIN)/time(ED)=0.00111
====================== CDMFT converged on the parameters ======================
sb1_1     =  0.0000	sb2_1     =  0.0000	sb3_1     =  0.0079	sb4_1     = -0.1902	sb5_1     =  0.0079	
sb6_1     = -0.1902	sb7_1     =  0.0000	sb8_1     = -0.0000	eb1_1     =  0.0074	eb2_1     = -3.1635	
eb3_1     = -3.9347	eb4_1     = -0.1312	eb5_1     = -3.9347	eb6_1     = -0.1312	eb7_1     =  0.1721	
eb8_1     = -3.5984	tb1_1     = -0.1185	tb2_1     = -1.0892	tb3_1     =  1.7354	tb4_1     =  0.0300	
tb5_1     = -1.7354	tb6_1     = -0.0300	tb7_1     =  0.2602	tb8_1     = -2.3005	
   <D> = 0.011014
   <e> = 1.251982
   <mu> = 1.607523
   <tpd> = -0.614898
   <tpp> = -0.203056
   <tppp> = 0.084283
************************* CDMFT completed successfully *************************

******************************* CDMFT procedure *******************************

minimization method =  CG
mixing state =  1
frequency grid type =  sharp
fictitious inverse temperature =  50
frequency cutoff =  2.0
--------------------------------------------------------------------------------

CDMFT iteration 1, distance =  1.79e+02, diff param =  1.24e-02
64 minimization steps, time(MIN)/time(ED)=0.00124
sb1_1     =  0.0000	sb2_1     =  0.0000	sb3_1     =  0.0084	sb4_1     = -0.1848	sb5_1     =  0.0084	
sb6_1     = -0.1848	sb7_1     = -0.0000	sb8_1     = -0.0000	eb1_1     =  0.0052	eb2_1     = -3.1842	
eb3_1     = -3.9614	eb4_1     = -0.1243	eb5_1     = -3.9614	eb6_1     = -0.1243	eb7_1     =  0.1658	
eb8_1     = -3.6370	tb1_1     = -0.1169	tb2_1     = -1.0865	tb3_1     =  1.7301	tb4_1     =  0.0327	
tb5_1     = -1.7301	tb6_1     = -0.0327	tb7_1     =  0.2541	tb8_1     = -2.2945	

CDMFT iteration 2, distance =  1.72e+02, diff param =  4.69e-03, diff hybrid =  3.45e-02
51 minimization steps, time(MIN)/time(ED)=0.00109
sb1_1     =  0.0000	sb2_1     =  0.0000	sb3_1     =  0.0093	sb4_1     = -0.1813	sb5_1     =  0.0093	
sb6_1     = -0.1813	sb7_1     =  0.0000	sb8_1     =  0.0000	eb1_1     =  0.0037	eb2_1     = -3.1974	
eb3_1     = -3.9709	eb4_1     = -0.1210	eb5_1     = -3.9709	eb6_1     = -0.1210	eb7_1     =  0.1629	
eb8_1     = -3.6364	tb1_1     = -0.1162	tb2_1     = -1.0898	tb3_1     =  1.7339	tb4_1     =  0.0379	
tb5_1     = -1.7339	tb6_1     = -0.0379	tb7_1     =  0.2502	tb8_1     = -2.2973	

CDMFT iteration 3, distance =  1.74e+02, diff param =  3.34e-03, diff hybrid =  1.23e-02
38 minimization steps, time(MIN)/time(ED)=0.00096
sb1_1     =  0.0000	sb2_1     = -0.0000	sb3_1     =  0.0092	sb4_1     = -0.1827	sb5_1     =  0.0092	
sb6_1     = -0.1827	sb7_1     = -0.0000	sb8_1     = -0.0000	eb1_1     =  0.0057	eb2_1     = -3.2111	
eb3_1     = -3.9759	eb4_1     = -0.1210	eb5_1     = -3.9759	eb6_1     = -0.1210	eb7_1     =  0.1620	
eb8_1     = -3.6330	tb1_1     = -0.1167	tb2_1     = -1.0914	tb3_1     =  1.7340	tb4_1     =  0.0375	
tb5_1     = -1.7340	tb6_1     = -0.0375	tb7_1     =  0.2515	tb8_1     = -2.2952	

CDMFT iteration 4, distance =  1.74e+02, diff param =  1.19e-03, diff hybrid =  5.55e-03
26 minimization steps, time(MIN)/time(ED)=0.00086
sb1_1     = -0.0000	sb2_1     = -0.0000	sb3_1     =  0.0091	sb4_1     = -0.1830	sb5_1     =  0.0091	
sb6_1     = -0.1830	sb7_1     =  0.0000	sb8_1     = -0.0000	eb1_1     =  0.0062	eb2_1     = -3.2133	
eb3_1     = -3.9771	eb4_1     = -0.1220	eb5_1     = -3.9772	eb6_1     = -0.1220	eb7_1     =  0.1635	
eb8_1     = -3.6373	tb1_1     = -0.1166	tb2_1     = -1.0917	tb3_1     =  1.7342	tb4_1     =  0.0371	
tb5_1     = -1.7342	tb6_1     = -0.0371	tb7_1     =  0.2522	tb8_1     = -2.2965	

CDMFT iteration 5, distance =  1.74e+02, diff param =  4.32e-04, diff hybrid =  1.56e-03
6 minimization steps, time(MIN)/time(ED)=0.00075
====================== CDMFT converged on the parameters ======================
sb1_1     = -0.0000	sb2_1     = -0.0000	sb3_1     =  0.0094	sb4_1     = -0.1826	sb5_1     =  0.0094	
sb6_1     = -0.1826	sb7_1     = -0.0000	sb8_1     =  0.0000	eb1_1     =  0.0054	eb2_1     = -3.2133	
eb3_1     = -3.9771	eb4_1     = -0.1220	eb5_1     = -3.9771	eb6_1     = -0.1220	eb7_1     =  0.1636	
eb8_1     = -3.6372	tb1_1     = -0.1166	tb2_1     = -1.0919	tb3_1     =  1.7345	tb4_1     =  0.0382	
tb5_1     = -1.7345	tb6_1     = -0.0382	tb7_1     =  0.2516	tb8_1     = -2.2969	
   <D> = 0.012965
   <e> = 1.254871
   <mu> = 1.611907
   <tpd> = -0.603457
   <tpp> = -0.196358
   <tppp> = 0.081565
************************* CDMFT completed successfully *************************

******************************* CDMFT procedure *******************************

minimization method =  CG
mixing state =  1
frequency grid type =  sharp
fictitious inverse temperature =  50
frequency cutoff =  2.0
--------------------------------------------------------------------------------

CDMFT iteration 1, distance =  1.70e+02, diff param =  1.37e-02
43 minimization steps, time(MIN)/time(ED)=0.00114
sb1_1     = -0.0000	sb2_1     = -0.0000	sb3_1     =  0.0097	sb4_1     = -0.1770	sb5_1     =  0.0097	
sb6_1     = -0.1770	sb7_1     = -0.0000	sb8_1     = -0.0000	eb1_1     =  0.0024	eb2_1     = -3.2370	
eb3_1     = -4.0106	eb4_1     = -0.1161	eb5_1     = -4.0106	eb6_1     = -0.1161	eb7_1     =  0.1577	
eb8_1     = -3.6743	tb1_1     = -0.1149	tb2_1     = -1.0897	tb3_1     =  1.7307	tb4_1     =  0.0413	
tb5_1     = -1.7307	tb6_1     = -0.0413	tb7_1     =  0.2450	tb8_1     = -2.2906	

CDMFT iteration 2, distance =  1.62e+02, diff param =  4.56e-03, diff hybrid =  3.37e-02
42 minimization steps, time(MIN)/time(ED)=0.00108
sb1_1     = -0.0000	sb2_1     =  0.0000	sb3_1     =  0.0106	sb4_1     = -0.1728	sb5_1     =  0.0106	
sb6_1     = -0.1728	sb7_1     =  0.0000	sb8_1     =  0.0000	eb1_1     = -0.0004	eb2_1     = -3.2499	
eb3_1     = -4.0184	eb4_1     = -0.1127	eb5_1     = -4.0184	eb6_1     = -0.1127	eb7_1     =  0.1543	
eb8_1     = -3.6750	tb1_1     = -0.1140	tb2_1     = -1.0930	tb3_1     =  1.7343	tb4_1     =  0.0466	
tb5_1     = -1.7343	tb6_1     = -0.0466	tb7_1     =  0.2402	tb8_1     = -2.2940	

CDMFT iteration 3, distance =  1.64e+02, diff param =  1.39e-03, diff hybrid =  1.41e-02
28 minimization steps, time(MIN)/time(ED)=0.00094
sb1_1     = -0.0000	sb2_1     = -0.0000	sb3_1     =  0.0103	sb4_1     = -0.1739	sb5_1     =  0.0103	
sb6_1     = -0.1739	sb7_1     = -0.0000	sb8_1     =  0.0000	eb1_1     =  0.0017	eb2_1     = -3.2536	
eb3_1     = -4.0188	eb4_1     = -0.1111	eb5_1     = -4.0188	eb6_1     = -0.1111	eb7_1     =  0.1524	
eb8_1     = -3.6721	tb1_1     = -0.1146	tb2_1     = -1.0931	tb3_1     =  1.7334	tb4_1     =  0.0456	
tb5_1     = -1.7334	tb6_1     = -0.0456	tb7_1     =  0.2414	tb8_1     = -2.2922	

CDMFT iteration 4, distance =  1.65e+02, diff param =  4.63e-03, diff hybrid =  6.18e-03
38 minimization steps, time(MIN)/time(ED)=0.00094
sb1_1     =  0.0001	sb2_1     = -0.0000	sb3_1     =  0.0101	sb4_1     = -0.1749	sb5_1     =  0.0101	
sb6_1     = -0.1749	sb7_1     = -0.0000	sb8_1     = -0.0000	eb1_1     =  0.0028	eb2_1     = -3.2744	
eb3_1     = -4.0239	eb4_1     = -0.1126	eb5_1     = -4.0239	eb6_1     = -0.1126	eb7_1     =  0.1537	
eb8_1     = -3.6740	tb1_1     = -0.1146	tb2_1     = -1.0961	tb3_1     =  1.7344	tb4_1     =  0.0441	
tb5_1     = -1.7344	tb6_1     = -0.0441	tb7_1     =  0.2423	tb8_1     = -2.2924	

CDMFT iteration 5, distance =  1.64e+02, diff param =  5.05e-04, diff hybrid =  3.16e-03
7 minimization steps, time(MIN)/time(ED)=0.00081
====================== CDMFT converged on the parameters ======================
sb1_1     =  0.0001	sb2_1     =  0.0000	sb3_1     =  0.0103	sb4_1     = -0.1742	sb5_1     =  0.0103	
sb6_1     = -0.1742	sb7_1     =  0.0000	sb8_1     = -0.0000	eb1_1     =  0.0017	eb2_1     = -3.2744	
eb3_1     = -4.0237	eb4_1     = -0.1128	eb5_1     = -4.0237	eb6_1     = -0.1128	eb7_1     =  0.1540	
eb8_1     = -3.6740	tb1_1     = -0.1145	tb2_1     = -1.0963	tb3_1     =  1.7348	tb4_1     =  0.0452	
tb5_1     = -1.7348	tb6_1     = -0.0452	tb7_1     =  0.2415	tb8_1     = -2.2930	
   <D> = 0.013941
   <e> = 1.257966
   <mu> = 1.616521
   <tpd> = -0.591192
   <tpp> = -0.188978
   <tppp> = 0.078613
************************* CDMFT completed successfully *************************

******************************* CDMFT procedure *******************************

minimization method =  CG
mixing state =  1
frequency grid type =  sharp
fictitious inverse temperature =  50
frequency cutoff =  2.0
--------------------------------------------------------------------------------

CDMFT iteration 1, distance =  1.60e+02, diff param =  1.33e-02
68 minimization steps, time(MIN)/time(ED)=0.00170
sb1_1     =  0.0000	sb2_1     = -0.0000	sb3_1     =  0.0106	sb4_1     = -0.1683	sb5_1     =  0.0106	
sb6_1     = -0.1683	sb7_1     = -0.0000	sb8_1     = -0.0000	eb1_1     = -0.0019	eb2_1     = -3.2955	
eb3_1     = -4.0552	eb4_1     = -0.1073	eb5_1     = -4.0552	eb6_1     = -0.1073	eb7_1     =  0.1482	
eb8_1     = -3.7129	tb1_1     = -0.1128	tb2_1     = -1.0936	tb3_1     =  1.7305	tb4_1     =  0.0484	
tb5_1     = -1.7305	tb6_1     = -0.0484	tb7_1     =  0.2346	tb8_1     = -2.2873	

CDMFT iteration 2, distance =  1.52e+02, diff param =  4.94e-03, diff hybrid =  3.34e-02
39 minimization steps, time(MIN)/time(ED)=0.00135
sb1_1     =  0.0000	sb2_1     =  0.0000	sb3_1     =  0.0113	sb4_1     = -0.1635	sb5_1     =  0.0113	
sb6_1     = -0.1635	sb7_1     =  0.0000	sb8_1     =  0.0000	eb1_1     = -0.0061	eb2_1     = -3.3079	
eb3_1     = -4.0648	eb4_1     = -0.1042	eb5_1     = -4.0648	eb6_1     = -0.1042	eb7_1     =  0.1438	
eb8_1     = -3.7101	tb1_1     = -0.1119	tb2_1     = -1.0966	tb3_1     =  1.7345	tb4_1     =  0.0537	
tb5_1     = -1.7345	tb6_1     = -0.0537	tb7_1     =  0.2287	tb8_1     = -2.2897	

CDMFT iteration 3, distance =  1.53e+02, diff param =  1.57e-03, diff hybrid =  1.55e-02
25 minimization steps, time(MIN)/time(ED)=0.00111
sb1_1     = -0.0000	sb2_1     = -0.0000	sb3_1     =  0.0109	sb4_1     = -0.1644	sb5_1     =  0.0109	
sb6_1     = -0.1644	sb7_1     = -0.0000	sb8_1     =  0.0000	eb1_1     = -0.0038	eb2_1     = -3.3106	
eb3_1     = -4.0643	eb4_1     = -0.1014	eb5_1     = -4.0643	eb6_1     = -0.1014	eb7_1     =  0.1407	
eb8_1     = -3.7070	tb1_1     = -0.1124	tb2_1     = -1.0967	tb3_1     =  1.7336	tb4_1     =  0.0524	
tb5_1     = -1.7336	tb6_1     = -0.0524	tb7_1     =  0.2296	tb8_1     = -2.2879	

CDMFT iteration 4, distance =  1.55e+02, diff param =  1.88e-03, diff hybrid =  6.82e-03
24 minimization steps, time(MIN)/time(ED)=0.00098
sb1_1     = -0.0000	sb2_1     =  0.0000	sb3_1     =  0.0105	sb4_1     = -0.1656	sb5_1     =  0.0105	
sb6_1     = -0.1656	sb7_1     =  0.0000	sb8_1     =  0.0000	eb1_1     = -0.0019	eb2_1     = -3.3171	
eb3_1     = -4.0643	eb4_1     = -0.1023	eb5_1     = -4.0643	eb6_1     = -0.1023	eb7_1     =  0.1422	
eb8_1     = -3.7110	tb1_1     = -0.1123	tb2_1     = -1.0976	tb3_1     =  1.7334	tb4_1     =  0.0499	
tb5_1     = -1.7334	tb6_1     = -0.0499	tb7_1     =  0.2311	tb8_1     = -2.2886	

CDMFT iteration 5, distance =  1.54e+02, diff param =  6.02e-04, diff hybrid =  4.58e-03
10 minimization steps, time(MIN)/time(ED)=0.00084
====================== CDMFT converged on the parameters ======================
sb1_1     = -0.0000	sb2_1     = -0.0000	sb3_1     =  0.0107	sb4_1     = -0.1649	sb5_1     =  0.0107	
sb6_1     = -0.1649	sb7_1     = -0.0000	sb8_1     =  0.0000	eb1_1     = -0.0031	eb2_1     = -3.3173	
eb3_1     = -4.0642	eb4_1     = -0.1031	eb5_1     = -4.0642	eb6_1     = -0.1031	eb7_1     =  0.1431	
eb8_1     = -3.7108	tb1_1     = -0.1122	tb2_1     = -1.0979	tb3_1     =  1.7338	tb4_1     =  0.0510	
tb5_1     = -1.7338	tb6_1     = -0.0510	tb7_1     =  0.2303	tb8_1     = -2.2891	
   <D> = 0.014289
   <e> = 1.261078
   <mu> = 1.621109
   <tpd> = -0.578811
   <tpp> = -0.181419
   <tppp> = 0.075621
************************* CDMFT completed successfully *************************

******************************* CDMFT procedure *******************************

minimization method =  CG
mixing state =  1
frequency grid type =  sharp
fictitious inverse temperature =  50
frequency cutoff =  2.0
--------------------------------------------------------------------------------

CDMFT iteration 1, distance =  1.50e+02, diff param =  1.53e-02
87 minimization steps, time(MIN)/time(ED)=0.00208
sb1_1     =  0.0000	sb2_1     =  0.0000	sb3_1     =  0.0110	sb4_1     = -0.1590	sb5_1     =  0.0110	
sb6_1     = -0.1590	sb7_1     = -0.0000	sb8_1     = -0.0000	eb1_1     = -0.0080	eb2_1     = -3.3521	
eb3_1     = -4.1003	eb4_1     = -0.0987	eb5_1     = -4.1003	eb6_1     = -0.0987	eb7_1     =  0.1370	
eb8_1     = -3.7488	tb1_1     = -0.1106	tb2_1     = -1.0969	tb3_1     =  1.7304	tb4_1     =  0.0546	
tb5_1     = -1.7304	tb6_1     = -0.0546	tb7_1     =  0.2228	tb8_1     = -2.2831	

CDMFT iteration 2, distance =  1.42e+02, diff param =  5.44e-03, diff hybrid =  3.32e-02
36 minimization steps, time(MIN)/time(ED)=0.00148
sb1_1     =  0.0000	sb2_1     =  0.0000	sb3_1     =  0.0115	sb4_1     = -0.1532	sb5_1     =  0.0115	
sb6_1     = -0.1532	sb7_1     =  0.0000	sb8_1     =  0.0000	eb1_1     = -0.0140	eb2_1     = -3.3658	
eb3_1     = -4.1099	eb4_1     = -0.0955	eb5_1     = -4.1099	eb6_1     = -0.0955	eb7_1     =  0.1311	
eb8_1     = -3.7441	tb1_1     = -0.1100	tb2_1     = -1.1000	tb3_1     =  1.7344	tb4_1     =  0.0600	
tb5_1     = -1.7344	tb6_1     = -0.0600	tb7_1     =  0.2155	tb8_1     = -2.2850	

CDMFT iteration 3, distance =  1.42e+02, diff param =  2.91e-03, diff hybrid =  1.73e-02
32 minimization steps, time(MIN)/time(ED)=0.00125
sb1_1     = -0.0000	sb2_1     = -0.0000	sb3_1     =  0.0110	sb4_1     = -0.1540	sb5_1     =  0.0110	
sb6_1     = -0.1540	sb7_1     = -0.0000	sb8_1     =  0.0000	eb1_1     = -0.0110	eb2_1     = -3.3730	
eb3_1     = -4.1078	eb4_1     = -0.0912	eb5_1     = -4.1079	eb6_1     = -0.0912	eb7_1     =  0.1260	
eb8_1     = -3.7371	tb1_1     = -0.1105	tb2_1     = -1.1009	tb3_1     =  1.7333	tb4_1     =  0.0580	
tb5_1     = -1.7333	tb6_1     = -0.0580	tb7_1     =  0.2158	tb8_1     = -2.2821	

CDMFT iteration 4, distance =  1.44e+02, diff param =  2.61e-03, diff hybrid =  8.51e-03
34 minimization steps, time(MIN)/time(ED)=0.00115
sb1_1     =  0.0000	sb2_1     =  0.0000	sb3_1     =  0.0104	sb4_1     = -0.1558	sb5_1     =  0.0104	
sb6_1     = -0.1558	sb7_1     = -0.0000	sb8_1     =  0.0000	eb1_1     = -0.0080	eb2_1     = -3.3816	
eb3_1     = -4.1066	eb4_1     = -0.0917	eb5_1     = -4.1066	eb6_1     = -0.0917	eb7_1     =  0.1278	
eb8_1     = -3.7426	tb1_1     = -0.1102	tb2_1     = -1.1020	tb3_1     =  1.7329	tb4_1     =  0.0544	
tb5_1     = -1.7329	tb6_1     = -0.0544	tb7_1     =  0.2181	tb8_1     = -2.2830	

CDMFT iteration 5, distance =  1.43e+02, diff param =  8.64e-04, diff hybrid =  6.83e-03
12 minimization steps, time(MIN)/time(ED)=0.00098
====================== CDMFT converged on the parameters ======================
sb1_1     =  0.0000	sb2_1     = -0.0000	sb3_1     =  0.0107	sb4_1     = -0.1551	sb5_1     =  0.0107	
sb6_1     = -0.1551	sb7_1     = -0.0000	sb8_1     =  0.0000	eb1_1     = -0.0095	eb2_1     = -3.3819	
eb3_1     = -4.1065	eb4_1     = -0.0934	eb5_1     = -4.1064	eb6_1     = -0.0934	eb7_1     =  0.1297	
eb8_1     = -3.7428	tb1_1     = -0.1100	tb2_1     = -1.1023	tb3_1     =  1.7334	tb4_1     =  0.0556	
tb5_1     = -1.7334	tb6_1     = -0.0556	tb7_1     =  0.2174	tb8_1     = -2.2837	
   <D> = 0.014167
   <e> = 1.264200
   <mu> = 1.625663
   <tpd> = -0.566282
   <tpp> = -0.173686
   <tppp> = 0.072595
************************* CDMFT completed successfully *************************

******************************* CDMFT procedure *******************************

minimization method =  CG
mixing state =  1
frequency grid type =  sharp
fictitious inverse temperature =  50
frequency cutoff =  2.0
--------------------------------------------------------------------------------

CDMFT iteration 1, distance =  1.39e+02, diff param =  1.63e-02
71 minimization steps, time(MIN)/time(ED)=0.00168
sb1_1     =  0.0000	sb2_1     =  0.0000	sb3_1     =  0.0110	sb4_1     = -0.1487	sb5_1     =  0.0110	
sb6_1     = -0.1487	sb7_1     =  0.0000	sb8_1     =  0.0000	eb1_1     = -0.0163	eb2_1     = -3.4164	
eb3_1     = -4.1471	eb4_1     = -0.0900	eb5_1     = -4.1471	eb6_1     = -0.0900	eb7_1     =  0.1233	
eb8_1     = -3.7819	tb1_1     = -0.1088	tb2_1     = -1.1010	tb3_1     =  1.7308	tb4_1     =  0.0598	
tb5_1     = -1.7308	tb6_1     = -0.0598	tb7_1     =  0.2091	tb8_1     = -2.2781	

CDMFT iteration 2, distance =  1.30e+02, diff param =  8.88e-03, diff hybrid =  3.33e-02
73 minimization steps, time(MIN)/time(ED)=0.00168
sb1_1     = -0.0000	sb2_1     =  0.0000	sb3_1     =  0.0114	sb4_1     = -0.1423	sb5_1     =  0.0114	
sb6_1     = -0.1423	sb7_1     = -0.0000	sb8_1     = -0.0000	eb1_1     = -0.0253	eb2_1     = -3.4486	
eb3_1     = -4.1605	eb4_1     = -0.0872	eb5_1     = -4.1605	eb6_1     = -0.0872	eb7_1     =  0.1150	
eb8_1     = -3.7760	tb1_1     = -0.1091	tb2_1     = -1.1062	tb3_1     =  1.7356	tb4_1     =  0.0653	
tb5_1     = -1.7356	tb6_1     = -0.0653	tb7_1     =  0.2003	tb8_1     = -2.2795	

CDMFT iteration 3, distance =  1.30e+02, diff param =  4.73e-03, diff hybrid =  1.91e-02
57 minimization steps, time(MIN)/time(ED)=0.00151
sb1_1     =  0.0000	sb2_1     =  0.0000	sb3_1     =  0.0106	sb4_1     = -0.1429	sb5_1     =  0.0106	
sb6_1     = -0.1429	sb7_1     =  0.0001	sb8_1     = -0.0000	eb1_1     = -0.0207	eb2_1     = -3.4565	
eb3_1     = -4.1527	eb4_1     = -0.0805	eb5_1     = -4.1519	eb6_1     = -0.0803	eb7_1     =  0.1065	
eb8_1     = -3.7657	tb1_1     = -0.1091	tb2_1     = -1.1074	tb3_1     =  1.7334	tb4_1     =  0.0623	
tb5_1     = -1.7332	tb6_1     = -0.0621	tb7_1     =  0.1996	tb8_1     = -2.2755	

CDMFT iteration 4, distance =  1.33e+02, diff param =  2.41e-03, diff hybrid =  1.18e-02
27 minimization steps, time(MIN)/time(ED)=0.00128
sb1_1     = -0.0004	sb2_1     =  0.0000	sb3_1     =  0.0099	sb4_1     = -0.1453	sb5_1     =  0.0099	
sb6_1     = -0.1453	sb7_1     = -0.0001	sb8_1     =  0.0000	eb1_1     = -0.0154	eb2_1     = -3.4581	
eb3_1     = -4.1514	eb4_1     = -0.0804	eb5_1     = -4.1508	eb6_1     = -0.0805	eb7_1     =  0.1097	
eb8_1     = -3.7705	tb1_1     = -0.1083	tb2_1     = -1.1078	tb3_1     =  1.7329	tb4_1     =  0.0574	
tb5_1     = -1.7328	tb6_1     = -0.0576	tb7_1     =  0.2031	tb8_1     = -2.2761	

CDMFT iteration 5, distance =  1.32e+02, diff param =  1.85e-03, diff hybrid =  9.27e-03
28 minimization steps, time(MIN)/time(ED)=0.00115
sb1_1     =  0.0002	sb2_1     = -0.0000	sb3_1     =  0.0104	sb4_1     = -0.1444	sb5_1     =  0.0103	
sb6_1     = -0.1444	sb7_1     =  0.0001	sb8_1     = -0.0000	eb1_1     = -0.0178	eb2_1     = -3.4589	
eb3_1     = -4.1514	eb4_1     = -0.0835	eb5_1     = -4.1506	eb6_1     = -0.0833	eb7_1     =  0.1136	
eb8_1     = -3.7758	tb1_1     = -0.1082	tb2_1     = -1.1081	tb3_1     =  1.7335	tb4_1     =  0.0594	
tb5_1     = -1.7334	tb6_1     = -0.0591	tb7_1     =  0.2028	tb8_1     = -2.2785	

CDMFT iteration 6, distance =  1.31e+02, diff param =  1.17e-03, diff hybrid =  6.85e-03
17 minimization steps, time(MIN)/time(ED)=0.00103
sb1_1     = -0.0004	sb2_1     =  0.0000	sb3_1     =  0.0107	sb4_1     = -0.1431	sb5_1     =  0.0107	
sb6_1     = -0.1431	sb7_1     = -0.0001	sb8_1     =  0.0000	eb1_1     = -0.0208	eb2_1     = -3.4591	
eb3_1     = -4.1514	eb4_1     = -0.0830	eb5_1     = -4.1508	eb6_1     = -0.0833	eb7_1     =  0.1120	
eb8_1     = -3.7745	tb1_1     = -0.1088	tb2_1     = -1.1080	tb3_1     =  1.7336	tb4_1     =  0.0616	
tb5_1     = -1.7335	tb6_1     = -0.0619	tb7_1     =  0.2011	tb8_1     = -2.2785	

CDMFT iteration 7, distance =  1.31e+02, diff param =  1.29e-03, diff hybrid =  4.82e-03
22 minimization steps, time(MIN)/time(ED)=0.00096
sb1_1     =  0.0007	sb2_1     = -0.0000	sb3_1     =  0.0104	sb4_1     = -0.1438	sb5_1     =  0.0104	
sb6_1     = -0.1438	sb7_1     =  0.0004	sb8_1     = -0.0001	eb1_1     = -0.0188	eb2_1     = -3.4600	
eb3_1     = -4.1512	eb4_1     = -0.0816	eb5_1     = -4.1500	eb6_1     = -0.0811	eb7_1     =  0.1096	
eb8_1     = -3.7709	tb1_1     = -0.1087	tb2_1     = -1.1081	tb3_1     =  1.7332	tb4_1     =  0.0606	
tb5_1     = -1.7330	tb6_1     = -0.0601	tb7_1     =  0.2014	tb8_1     = -2.2769	

CDMFT iteration 8, distance =  1.32e+02, diff param =  8.30e-04, diff hybrid =  4.57e-03
15 minimization steps, time(MIN)/time(ED)=0.00088
====================== CDMFT converged on the parameters ======================
sb1_1     = -0.0011	sb2_1     =  0.0000	sb3_1     =  0.0102	sb4_1     = -0.1445	sb5_1     =  0.0103	
sb6_1     = -0.1445	sb7_1     = -0.0005	sb8_1     =  0.0000	eb1_1     = -0.0175	eb2_1     = -3.4604	
eb3_1     = -4.1508	eb4_1     = -0.0814	eb5_1     = -4.1501	eb6_1     = -0.0823	eb7_1     =  0.1110	
eb8_1     = -3.7719	tb1_1     = -0.1084	tb2_1     = -1.1082	tb3_1     =  1.7332	tb4_1     =  0.0587	
tb5_1     = -1.7329	tb6_1     = -0.0596	tb7_1     =  0.2023	tb8_1     = -2.2771	
   <D> = 0.013805
   <e> = 1.267265
   <mu> = 1.630328
   <tpd> = -0.553617
   <tpp> = -0.166132
   <tppp> = 0.069648
************************* CDMFT completed successfully *************************

******************************* CDMFT procedure *******************************

minimization method =  CG
mixing state =  1
frequency grid type =  sharp
fictitious inverse temperature =  50
frequency cutoff =  2.0
--------------------------------------------------------------------------------

CDMFT iteration 1, distance =  1.28e+02, diff param =  1.78e-02
88 minimization steps, time(MIN)/time(ED)=0.00177
sb1_1     =  0.0009	sb2_1     = -0.0000	sb3_1     =  0.0106	sb4_1     = -0.1385	sb5_1     =  0.0104	
sb6_1     = -0.1384	sb7_1     =  0.0008	sb8_1     = -0.0001	eb1_1     = -0.0252	eb2_1     = -3.4992	
eb3_1     = -4.1976	eb4_1     = -0.0816	eb5_1     = -4.1916	eb6_1     = -0.0801	eb7_1     =  0.1064	
eb8_1     = -3.8151	tb1_1     = -0.1074	tb2_1     = -1.1072	tb3_1     =  1.7317	tb4_1     =  0.0634	
tb5_1     = -1.7307	tb6_1     = -0.0621	tb7_1     =  0.1942	tb8_1     = -2.2725	

CDMFT iteration 2, distance =  8.98e+01, diff param =  1.67e-01, diff hybrid =  3.35e-02
190 minimization steps, time(MIN)/time(ED)=0.00281
sb1_1     = -0.0001	sb2_1     = -0.0002	sb3_1     =  0.0186	sb4_1     = -0.0973	sb5_1     =  0.0183	
sb6_1     = -0.0989	sb7_1     = -0.0130	sb8_1     =  0.0023	eb1_1     = -0.2011	eb2_1     = -4.2291	
eb3_1     = -4.3680	eb4_1     = -0.1320	eb5_1     = -4.4007	eb6_1     = -0.1375	eb7_1     =  0.1124	
eb8_1     = -3.7879	tb1_1     = -0.1818	tb2_1     = -1.1782	tb3_1     =  1.7595	tb4_1     =  0.1277	
tb5_1     = -1.7654	tb6_1     = -0.1288	tb7_1     =  0.1563	tb8_1     = -2.2767	

CDMFT iteration 3, distance =  9.23e+01, diff param =  8.54e-02, diff hybrid =  1.20e-01
194 minimization steps, time(MIN)/time(ED)=0.00349
sb1_1     =  0.0043	sb2_1     = -0.0012	sb3_1     =  0.0150	sb4_1     = -0.1009	sb5_1     =  0.0144	
sb6_1     = -0.0991	sb7_1     = -0.0038	sb8_1     = -0.0001	eb1_1     = -0.0841	eb2_1     = -3.8600	
eb3_1     = -4.4312	eb4_1     = -0.0999	eb5_1     = -4.4332	eb6_1     = -0.0980	eb7_1     = -0.0051	
eb8_1     = -3.7794	tb1_1     = -0.1453	tb2_1     = -1.1477	tb3_1     =  1.7707	tb4_1     =  0.1317	
tb5_1     = -1.7711	tb6_1     = -0.1300	tb7_1     =  0.1277	tb8_1     = -2.2599	

CDMFT iteration 4, distance =  1.34e+02, diff param =  8.05e-02, diff hybrid =  1.00e-01
135 minimization steps, time(MIN)/time(ED)=0.00340
sb1_1     =  0.0441	sb2_1     =  0.0001	sb3_1     =  0.0094	sb4_1     = -0.1367	sb5_1     =  0.0105	
sb6_1     = -0.1387	sb7_1     = -0.0067	sb8_1     =  0.0007	eb1_1     =  0.0033	eb2_1     = -3.6286	
eb3_1     = -4.2328	eb4_1     = -0.0661	eb5_1     = -4.2896	eb6_1     = -0.0790	eb7_1     =  0.1019	
eb8_1     = -3.8126	tb1_1     = -0.1034	tb2_1     = -1.1274	tb3_1     =  1.7366	tb4_1     =  0.0643	
tb5_1     = -1.7466	tb6_1     = -0.0731	tb7_1     =  0.1888	tb8_1     = -2.2728	

CDMFT iteration 5, distance =  1.27e+02, diff param =  2.21e-02, diff hybrid =  1.58e-01
90 minimization steps, time(MIN)/time(ED)=0.00314
sb1_1     =  0.0100	sb2_1     = -0.0010	sb3_1     =  0.0119	sb4_1     = -0.1363	sb5_1     =  0.0103	
sb6_1     = -0.1346	sb7_1     =  0.0047	sb8_1     = -0.0005	eb1_1     = -0.0316	eb2_1     = -3.5789	
eb3_1     = -4.2499	eb4_1     = -0.0911	eb5_1     = -4.2185	eb6_1     = -0.0791	eb7_1     =  0.1098	
eb8_1     = -3.8277	tb1_1     = -0.1085	tb2_1     = -1.1189	tb3_1     =  1.7429	tb4_1     =  0.0740	
tb5_1     = -1.7377	tb6_1     = -0.0633	tb7_1     =  0.1908	tb8_1     = -2.2787	

CDMFT iteration 6, distance =  9.27e+01, diff param =  1.50e-01, diff hybrid =  4.37e-02
176 minimization steps, time(MIN)/time(ED)=0.00327
sb1_1     = -0.0033	sb2_1     =  0.0009	sb3_1     =  0.0180	sb4_1     = -0.0990	sb5_1     =  0.0178	
sb6_1     = -0.1032	sb7_1     = -0.0323	sb8_1     =  0.0057	eb1_1     = -0.1939	eb2_1     = -4.2397	
eb3_1     = -4.3313	eb4_1     = -0.1195	eb5_1     = -4.4192	eb6_1     = -0.1357	eb7_1     =  0.1109	
eb8_1     = -3.7932	tb1_1     = -0.1803	tb2_1     = -1.1803	tb3_1     =  1.7543	tb4_1     =  0.1211	
tb5_1     = -1.7690	tb6_1     = -0.1284	tb7_1     =  0.1557	tb8_1     = -2.2768	

CDMFT iteration 7, distance =  9.47e+01, diff param =  9.75e-02, diff hybrid =  1.07e-01
231 minimization steps, time(MIN)/time(ED)=0.00366
sb1_1     =  0.0110	sb2_1     = -0.0028	sb3_1     =  0.0155	sb4_1     = -0.1057	sb5_1     =  0.0140	
sb6_1     = -0.1003	sb7_1     =  0.0429	sb8_1     = -0.0005	eb1_1     = -0.0739	eb2_1     = -3.8134	
eb3_1     = -4.4136	eb4_1     = -0.1001	eb5_1     = -4.4081	eb6_1     = -0.0940	eb7_1     =  0.0037	
eb8_1     = -3.7675	tb1_1     = -0.1388	tb2_1     = -1.1435	tb3_1     =  1.7679	tb4_1     =  0.1283	
tb5_1     = -1.7671	tb6_1     = -0.1237	tb7_1     =  0.1196	tb8_1     = -2.2574	

CDMFT iteration 8, distance =  1.32e+02, diff param =  7.85e-02, diff hybrid =  9.45e-02
187 minimization steps, time(MIN)/time(ED)=0.00371
sb1_1     = -0.0902	sb2_1     =  0.0003	sb3_1     =  0.0084	sb4_1     = -0.1351	sb5_1     =  0.0113	
sb6_1     = -0.1403	sb7_1     = -0.0177	sb8_1     =  0.0019	eb1_1     = -0.0072	eb2_1     = -3.6197	
eb3_1     = -4.1896	eb4_1     = -0.0564	eb5_1     = -4.3336	eb6_1     = -0.0901	eb7_1     =  0.1042	
eb8_1     = -3.8157	tb1_1     = -0.0670	tb2_1     = -1.1261	tb3_1     =  1.7288	tb4_1     =  0.0557	
tb5_1     = -1.7543	tb6_1     = -0.0797	tb7_1     =  0.1889	tb8_1     = -2.2736	

CDMFT iteration 9, distance =  1.27e+02, diff param =  3.79e-02, diff hybrid =  1.48e-01
71 minimization steps, time(MIN)/time(ED)=0.00349
sb1_1     = -0.1081	sb2_1     = -0.0027	sb3_1     =  0.0132	sb4_1     = -0.1368	sb5_1     =  0.0089	
sb6_1     = -0.1330	sb7_1     =  0.0128	sb8_1     = -0.0015	eb1_1     =  0.0365	eb2_1     = -3.5910	
eb3_1     = -4.2710	eb4_1     = -0.1005	eb5_1     = -4.2019	eb6_1     = -0.0700	eb7_1     =  0.1099	
eb8_1     = -3.8284	tb1_1     = -0.0244	tb2_1     = -1.1202	tb3_1     =  1.7461	tb4_1     =  0.0825	
tb5_1     = -1.7351	tb6_1     = -0.0544	tb7_1     =  0.1901	tb8_1     = -2.2789	

CDMFT iteration 10, distance =  9.83e+01, diff param =  1.25e-01, diff hybrid =  6.42e-02
258 minimization steps, time(MIN)/time(ED)=0.00372
sb1_1     = -0.1734	sb2_1     =  0.0032	sb3_1     =  0.0162	sb4_1     = -0.1031	sb5_1     =  0.0175	
sb6_1     = -0.1095	sb7_1     = -0.0411	sb8_1     =  0.0068	eb1_1     =  0.1797	eb2_1     = -4.1279	
eb3_1     = -4.2553	eb4_1     = -0.0986	eb5_1     = -4.4120	eb6_1     = -0.1317	eb7_1     =  0.1121	
eb8_1     = -3.8047	tb1_1     =  0.0102	tb2_1     = -1.1687	tb3_1     =  1.7435	tb4_1     =  0.1037	
tb5_1     = -1.7684	tb6_1     = -0.1246	tb7_1     =  0.1598	tb8_1     = -2.2784	

CDMFT iteration 11, distance =  9.50e+01, diff param =  7.27e-02, diff hybrid =  1.04e-01
217 minimization steps, time(MIN)/time(ED)=0.00390
sb1_1     = -0.1429	sb2_1     = -0.0044	sb3_1     =  0.0162	sb4_1     = -0.1078	sb5_1     =  0.0144	
sb6_1     = -0.0989	sb7_1     =  0.0442	sb8_1     = -0.0013	eb1_1     =  0.0862	eb2_1     = -3.8727	
eb3_1     = -4.4151	eb4_1     = -0.1056	eb5_1     = -4.3838	eb6_1     = -0.0946	eb7_1     =  0.0118	
eb8_1     = -3.7599	tb1_1     = -0.0163	tb2_1     = -1.1492	tb3_1     =  1.7679	tb4_1     =  0.1289	
tb5_1     = -1.7631	tb6_1     = -0.1202	tb7_1     =  0.1180	tb8_1     = -2.2565	

CDMFT iteration 12, distance =  1.26e+02, diff param =  8.13e-02, diff hybrid =  9.19e-02
175 minimization steps, time(MIN)/time(ED)=0.00388
sb1_1     = -0.0950	sb2_1     =  0.0015	sb3_1     =  0.0089	sb4_1     = -0.1268	sb5_1     =  0.0125	
sb6_1     = -0.1355	sb7_1     = -0.0153	sb8_1     =  0.0019	eb1_1     =  0.0108	eb2_1     = -3.5943	
eb3_1     = -4.2211	eb4_1     = -0.0568	eb5_1     = -4.3275	eb6_1     = -0.0898	eb7_1     =  0.0925	
eb8_1     = -3.8022	tb1_1     =  0.0607	tb2_1     = -1.1233	tb3_1     =  1.7350	tb4_1     =  0.0682	
tb5_1     = -1.7539	tb6_1     = -0.0875	tb7_1     =  0.1776	tb8_1     = -2.2711	

CDMFT iteration 13, distance =  1.27e+02, diff param =  3.96e-02, diff hybrid =  1.27e-01
79 minimization steps, time(MIN)/time(ED)=0.00372
sb1_1     = -0.1084	sb2_1     = -0.0018	sb3_1     =  0.0128	sb4_1     = -0.1376	sb5_1     =  0.0090	
sb6_1     = -0.1325	sb7_1     =  0.0135	sb8_1     = -0.0015	eb1_1     =  0.0312	eb2_1     = -3.5768	
eb3_1     = -4.2847	eb4_1     = -0.0978	eb5_1     = -4.1854	eb6_1     = -0.0650	eb7_1     =  0.1045	
eb8_1     = -3.8217	tb1_1     = -0.0207	tb2_1     = -1.1185	tb3_1     =  1.7480	tb4_1     =  0.0815	
tb5_1     = -1.7312	tb6_1     = -0.0569	tb7_1     =  0.1892	tb8_1     = -2.2764	

CDMFT iteration 14, distance =  1.04e+02, diff param =  1.14e-01, diff hybrid =  5.70e-02
206 minimization steps, time(MIN)/time(ED)=0.00378
sb1_1     = -0.1647	sb2_1     =  0.0036	sb3_1     =  0.0131	sb4_1     = -0.1090	sb5_1     =  0.0165	
sb6_1     = -0.1153	sb7_1     = -0.0322	sb8_1     =  0.0048	eb1_1     =  0.1608	eb2_1     = -4.0547	
eb3_1     = -4.1904	eb4_1     = -0.0756	eb5_1     = -4.3838	eb6_1     = -0.1233	eb7_1     =  0.1068	
eb8_1     = -3.8050	tb1_1     =  0.0121	tb2_1     = -1.1616	tb3_1     =  1.7337	tb4_1     =  0.0852	
tb5_1     = -1.7646	tb6_1     = -0.1152	tb7_1     =  0.1653	tb8_1     = -2.2776	

CDMFT iteration 15, distance =  9.43e+01, diff param =  5.79e-02, diff hybrid =  9.29e-02
145 minimization steps, time(MIN)/time(ED)=0.00377
sb1_1     = -0.1555	sb2_1     = -0.0057	sb3_1     =  0.0169	sb4_1     = -0.1068	sb5_1     =  0.0151	
sb6_1     = -0.0988	sb7_1     =  0.0399	sb8_1     = -0.0022	eb1_1     =  0.1181	eb2_1     = -4.0084	
eb3_1     = -4.4178	eb4_1     = -0.1127	eb5_1     = -4.3638	eb6_1     = -0.0986	eb7_1     =  0.0227	
eb8_1     = -3.7512	tb1_1     = -0.0186	tb2_1     = -1.1615	tb3_1     =  1.7680	tb4_1     =  0.1318	
tb5_1     = -1.7604	tb6_1     = -0.1163	tb7_1     =  0.1199	tb8_1     = -2.2561	

CDMFT iteration 16, distance =  1.12e+02, diff param =  9.29e-02, diff hybrid =  8.71e-02
102 minimization steps, time(MIN)/time(ED)=0.00368
sb1_1     = -0.1140	sb2_1     =  0.0021	sb3_1     =  0.0112	sb4_1     = -0.1134	sb5_1     =  0.0140	
sb6_1     = -0.1244	sb7_1     = -0.0167	sb8_1     =  0.0016	eb1_1     =  0.0257	eb2_1     = -3.6074	
eb3_1     = -4.2661	eb4_1     = -0.0661	eb5_1     = -4.3565	eb6_1     = -0.0917	eb7_1     =  0.0480	
eb8_1     = -3.7628	tb1_1     =  0.0226	tb2_1     = -1.1242	tb3_1     =  1.7436	tb4_1     =  0.0927	
tb5_1     = -1.7593	tb6_1     = -0.1032	tb7_1     =  0.1465	tb8_1     = -2.2591	

CDMFT iteration 17, distance =  1.26e+02, diff param =  4.85e-02, diff hybrid =  8.44e-02
109 minimization steps, time(MIN)/time(ED)=0.00359
sb1_1     = -0.1087	sb2_1     = -0.0014	sb3_1     =  0.0124	sb4_1     = -0.1381	sb5_1     =  0.0084	
sb6_1     = -0.1316	sb7_1     =  0.0194	sb8_1     = -0.0019	eb1_1     =  0.0267	eb2_1     = -3.5825	
eb3_1     = -4.3163	eb4_1     = -0.0956	eb5_1     = -4.1625	eb6_1     = -0.0544	eb7_1     =  0.0920	
eb8_1     = -3.8070	tb1_1     = -0.0248	tb2_1     = -1.1195	tb3_1     =  1.7524	tb4_1     =  0.0850	
tb5_1     = -1.7255	tb6_1     = -0.0562	tb7_1     =  0.1849	tb8_1     = -2.2708	

CDMFT iteration 18, distance =  1.18e+02, diff param =  5.51e-02, diff hybrid =  7.78e-02
85 minimization steps, time(MIN)/time(ED)=0.00349
sb1_1     = -0.1124	sb2_1     =  0.0030	sb3_1     =  0.0082	sb4_1     = -0.1244	sb5_1     =  0.0141	
sb6_1     = -0.1300	sb7_1     = -0.0262	sb8_1     =  0.0031	eb1_1     =  0.0469	eb2_1     = -3.5928	
eb3_1     = -4.1403	eb4_1     = -0.0549	eb5_1     = -4.3278	eb6_1     = -0.1085	eb7_1     =  0.1032	
eb8_1     = -3.8194	tb1_1     =  0.0247	tb2_1     = -1.1193	tb3_1     =  1.7244	tb4_1     =  0.0528	
tb5_1     = -1.7556	tb6_1     = -0.0957	tb7_1     =  0.1800	tb8_1     = -2.2777	

CDMFT iteration 19, distance =  9.83e+01, diff param =  1.22e-01, diff hybrid =  7.58e-02
217 minimization steps, time(MIN)/time(ED)=0.00356
sb1_1     = -0.1655	sb2_1     = -0.0070	sb3_1     =  0.0176	sb4_1     = -0.1103	sb5_1     =  0.0138	
sb6_1     = -0.1017	sb7_1     =  0.0503	sb8_1     = -0.0083	eb1_1     =  0.1553	eb2_1     = -4.0730	
eb3_1     = -4.4162	eb4_1     = -0.1272	eb5_1     = -4.2349	eb6_1     = -0.0811	eb7_1     =  0.1068	
eb8_1     = -3.8080	tb1_1     = -0.0219	tb2_1     = -1.1652	tb3_1     =  1.7683	tb4_1     =  0.1295	
tb5_1     = -1.7410	tb6_1     = -0.0928	tb7_1     =  0.1567	tb8_1     = -2.2782	

CDMFT iteration 20, distance =  1.00e+02, diff param =  9.05e-02, diff hybrid =  1.06e-01
191 minimization steps, time(MIN)/time(ED)=0.00362
sb1_1     = -0.1281	sb2_1     =  0.0043	sb3_1     =  0.0132	sb4_1     = -0.1014	sb5_1     =  0.0158	
sb6_1     = -0.1147	sb7_1     = -0.0373	sb8_1     =  0.0023	eb1_1     =  0.0593	eb2_1     = -3.7253	
eb3_1     = -4.3123	eb4_1     = -0.0793	eb5_1     = -4.4025	eb6_1     = -0.1034	eb7_1     =  0.0292	
eb8_1     = -3.7565	tb1_1     =  0.0214	tb2_1     = -1.1349	tb3_1     =  1.7519	tb4_1     =  0.1069	
tb5_1     = -1.7663	tb6_1     = -0.1221	tb7_1     =  0.1276	tb8_1     = -2.2570	

CDMFT iteration 21, distance =  1.16e+02, diff param =  5.63e-02, diff hybrid =  9.48e-02
112 minimization steps, time(MIN)/time(ED)=0.00356
sb1_1     = -0.1120	sb2_1     = -0.0021	sb3_1     =  0.0142	sb4_1     = -0.1279	sb5_1     =  0.0103	
sb6_1     = -0.1158	sb7_1     =  0.0237	sb8_1     = -0.0028	eb1_1     =  0.0279	eb2_1     = -3.5949	
eb3_1     = -4.3768	eb4_1     = -0.1016	eb5_1     = -4.2113	eb6_1     = -0.0571	eb7_1     =  0.0784	
eb8_1     = -3.7866	tb1_1     = -0.0270	tb2_1     = -1.1222	tb3_1     =  1.7629	tb4_1     =  0.1031	
tb5_1     = -1.7344	tb6_1     = -0.0813	tb7_1     =  0.1626	tb8_1     = -2.2681	

CDMFT iteration 22, distance =  1.23e+02, diff param =  5.79e-02, diff hybrid =  8.53e-02
82 minimization steps, time(MIN)/time(ED)=0.00348
sb1_1     = -0.1101	sb2_1     =  0.0024	sb3_1     =  0.0082	sb4_1     = -0.1274	sb5_1     =  0.0136	
sb6_1     = -0.1344	sb7_1     = -0.0259	sb8_1     =  0.0026	eb1_1     =  0.0355	eb2_1     = -3.5870	
eb3_1     = -4.1569	eb4_1     = -0.0509	eb5_1     = -4.3362	eb6_1     = -0.1047	eb7_1     =  0.0946	
eb8_1     = -3.8087	tb1_1     =  0.0294	tb2_1     = -1.1196	tb3_1     =  1.7256	tb4_1     =  0.0545	
tb5_1     = -1.7559	tb6_1     = -0.0950	tb7_1     =  0.1807	tb8_1     = -2.2727	

CDMFT iteration 23, distance =  1.11e+02, diff param =  7.89e-02, diff hybrid =  7.71e-02
219 minimization steps, time(MIN)/time(ED)=0.00354
sb1_1     = -0.1369	sb2_1     = -0.0066	sb3_1     =  0.0160	sb4_1     = -0.1232	sb5_1     =  0.0092	
sb6_1     = -0.1155	sb7_1     =  0.0357	sb8_1     = -0.0049	eb1_1     =  0.0981	eb2_1     = -3.7928	
eb3_1     = -4.3751	eb4_1     = -0.1181	eb5_1     = -4.1546	eb6_1     = -0.0553	eb7_1     =  0.1054	
eb8_1     = -3.8155	tb1_1     = -0.0274	tb2_1     = -1.1377	tb3_1     =  1.7628	tb4_1     =  0.1116	
tb5_1     = -1.7277	tb6_1     = -0.0627	tb7_1     =  0.1716	tb8_1     = -2.2784	

CDMFT iteration 24, distance =  9.80e+01, diff param =  7.22e-02, diff hybrid =  9.64e-02
171 minimization steps, time(MIN)/time(ED)=0.00356
sb1_1     = -0.1524	sb2_1     =  0.0073	sb3_1     =  0.0138	sb4_1     = -0.1004	sb5_1     =  0.0172	
sb6_1     = -0.1120	sb7_1     = -0.0536	sb8_1     =  0.0087	eb1_1     =  0.1209	eb2_1     = -3.9218	
eb3_1     = -4.2672	eb4_1     = -0.0821	eb5_1     = -4.4217	eb6_1     = -0.1199	eb7_1     =  0.0974	
eb8_1     = -3.8012	tb1_1     =  0.0251	tb2_1     = -1.1508	tb3_1     =  1.7457	tb4_1     =  0.0984	
tb5_1     = -1.7691	tb6_1     = -0.1294	tb7_1     =  0.1515	tb8_1     = -2.2753	

CDMFT iteration 25, distance =  1.06e+02, diff param =  7.96e-02, diff hybrid =  9.91e-02
117 minimization steps, time(MIN)/time(ED)=0.00354
sb1_1     = -0.1200	sb2_1     = -0.0032	sb3_1     =  0.0153	sb4_1     = -0.1202	sb5_1     =  0.0122	
sb6_1     = -0.1060	sb7_1     =  0.0298	sb8_1     = -0.0024	eb1_1     =  0.0431	eb2_1     = -3.6339	
eb3_1     = -4.3974	eb4_1     = -0.1030	eb5_1     = -4.2678	eb6_1     = -0.0691	eb7_1     =  0.0423	
eb8_1     = -3.7577	tb1_1     = -0.0221	tb2_1     = -1.1253	tb3_1     =  1.7658	tb4_1     =  0.1150	
tb5_1     = -1.7441	tb6_1     = -0.0986	tb7_1     =  0.1376	tb8_1     = -2.2580	

CDMFT iteration 26, distance =  1.17e+02, diff param =  5.65e-02, diff hybrid =  9.18e-02
74 minimization steps, time(MIN)/time(ED)=0.00347
sb1_1     = -0.1129	sb2_1     =  0.0021	sb3_1     =  0.0098	sb4_1     = -0.1180	sb5_1     =  0.0143	
sb6_1     = -0.1286	sb7_1     = -0.0278	sb8_1     =  0.0031	eb1_1     =  0.0340	eb2_1     = -3.6030	
eb3_1     = -4.1843	eb4_1     = -0.0532	eb5_1     = -4.3770	eb6_1     = -0.1067	eb7_1     =  0.0872	
eb8_1     = -3.7958	tb1_1     =  0.0262	tb2_1     = -1.1223	tb3_1     =  1.7301	tb4_1     =  0.0736	
tb5_1     = -1.7627	tb6_1     = -0.1042	tb7_1     =  0.1683	tb8_1     = -2.2707	

CDMFT iteration 27, distance =  1.17e+02, diff param =  6.52e-02, diff hybrid =  8.01e-02
92 minimization steps, time(MIN)/time(ED)=0.00341
sb1_1     = -0.1151	sb2_1     = -0.0036	sb3_1     =  0.0149	sb4_1     = -0.1283	sb5_1     =  0.0087	
sb6_1     = -0.1203	sb7_1     =  0.0321	sb8_1     = -0.0037	eb1_1     =  0.0479	eb2_1     = -3.6112	
eb3_1     = -4.3658	eb4_1     = -0.1120	eb5_1     = -4.1546	eb6_1     = -0.0505	eb7_1     =  0.0974	
eb8_1     = -3.8118	tb1_1     = -0.0294	tb2_1     = -1.1216	tb3_1     =  1.7609	tb4_1     =  0.1062	
tb5_1     = -1.7262	tb6_1     = -0.0599	tb7_1     =  0.1740	tb8_1     = -2.2756	

CDMFT iteration 28, distance =  1.07e+02, diff param =  8.51e-02, diff hybrid =  8.33e-02
186 minimization steps, time(MIN)/time(ED)=0.00343
sb1_1     = -0.1416	sb2_1     =  0.0073	sb3_1     =  0.0105	sb4_1     = -0.1092	sb5_1     =  0.0166	
sb6_1     = -0.1194	sb7_1     = -0.0423	sb8_1     =  0.0063	eb1_1     =  0.1032	eb2_1     = -3.8378	
eb3_1     = -4.1862	eb4_1     = -0.0601	eb5_1     = -4.4032	eb6_1     = -0.1193	eb7_1     =  0.1031	
eb8_1     = -3.8102	tb1_1     =  0.0284	tb2_1     = -1.1427	tb3_1     =  1.7329	tb4_1     =  0.0748	
tb5_1     = -1.7668	tb6_1     = -0.1202	tb7_1     =  0.1646	tb8_1     = -2.2775	

CDMFT iteration 29, distance =  1.02e+02, diff param =  6.41e-02, diff hybrid =  9.87e-02
135 minimization steps, time(MIN)/time(ED)=0.00342
sb1_1     = -0.1337	sb2_1     = -0.0058	sb3_1     =  0.0164	sb4_1     = -0.1167	sb5_1     =  0.0127	
sb6_1     = -0.1033	sb7_1     =  0.0437	sb8_1     = -0.0063	eb1_1     =  0.0777	eb2_1     = -3.7826	
eb3_1     = -4.4105	eb4_1     = -0.1127	eb5_1     = -4.2531	eb6_1     = -0.0728	eb7_1     =  0.0810	
eb8_1     = -3.7868	tb1_1     = -0.0254	tb2_1     = -1.1395	tb3_1     =  1.7676	tb4_1     =  0.1227	
tb5_1     = -1.7428	tb6_1     = -0.0950	tb7_1     =  0.1500	tb8_1     = -2.2703	

CDMFT iteration 30, distance =  1.09e+02, diff param =  6.10e-02, diff hybrid =  9.16e-02
118 minimization steps, time(MIN)/time(ED)=0.00340
sb1_1     = -0.1185	sb2_1     =  0.0031	sb3_1     =  0.0115	sb4_1     = -0.1093	sb5_1     =  0.0153	
sb6_1     = -0.1226	sb7_1     = -0.0298	sb8_1     =  0.0035	eb1_1     =  0.0429	eb2_1     = -3.6417	
eb3_1     = -4.2324	eb4_1     = -0.0637	eb5_1     = -4.3987	eb6_1     = -0.1069	eb7_1     =  0.0683	
eb8_1     = -3.7754	tb1_1     =  0.0231	tb2_1     = -1.1264	tb3_1     =  1.7384	tb4_1     =  0.0905	
tb5_1     = -1.7662	tb6_1     = -0.1128	tb7_1     =  0.1516	tb8_1     = -2.2653	

CDMFT iteration 31, distance =  1.14e+02, diff param =  6.03e-02, diff hybrid =  7.98e-02
99 minimization steps, time(MIN)/time(ED)=0.00336
sb1_1     = -0.1158	sb2_1     = -0.0027	sb3_1     =  0.0149	sb4_1     = -0.1259	sb5_1     =  0.0101	
sb6_1     = -0.1156	sb7_1     =  0.0304	sb8_1     = -0.0036	eb1_1     =  0.0424	eb2_1     = -3.6157	
eb3_1     = -4.3867	eb4_1     = -0.1100	eb5_1     = -4.1829	eb6_1     = -0.0548	eb7_1     =  0.0895	
eb8_1     = -3.7971	tb1_1     = -0.0251	tb2_1     = -1.1229	tb3_1     =  1.7643	tb4_1     =  0.1089	
tb5_1     = -1.7303	tb6_1     = -0.0749	tb7_1     =  0.1667	tb8_1     = -2.2718	

CDMFT iteration 32, distance =  1.11e+02, diff param =  6.65e-02, diff hybrid =  7.48e-02
94 minimization steps, time(MIN)/time(ED)=0.00332
sb1_1     = -0.1216	sb2_1     =  0.0043	sb3_1     =  0.0100	sb4_1     = -0.1132	sb5_1     =  0.0157	
sb6_1     = -0.1229	sb7_1     = -0.0354	sb8_1     =  0.0047	eb1_1     =  0.0592	eb2_1     = -3.6484	
eb3_1     = -4.1808	eb4_1     = -0.0562	eb5_1     = -4.3905	eb6_1     = -0.1146	eb7_1     =  0.0965	
eb8_1     = -3.8051	tb1_1     =  0.0271	tb2_1     = -1.1249	tb3_1     =  1.7310	tb4_1     =  0.0728	
tb5_1     = -1.7648	tb6_1     = -0.1144	tb7_1     =  0.1666	tb8_1     = -2.2751	

CDMFT iteration 33, distance =  1.06e+02, diff param =  6.46e-02, diff hybrid =  8.34e-02
128 minimization steps, time(MIN)/time(ED)=0.00330
sb1_1     = -0.1293	sb2_1     = -0.0053	sb3_1     =  0.0162	sb4_1     = -0.1190	sb5_1     =  0.0115	
sb6_1     = -0.1075	sb7_1     =  0.0406	sb8_1     = -0.0060	eb1_1     =  0.0727	eb2_1     = -3.7036	
eb3_1     = -4.3972	eb4_1     = -0.1146	eb5_1     = -4.2174	eb6_1     = -0.0649	eb7_1     =  0.0942	
eb8_1     = -3.7990	tb1_1     = -0.0262	tb2_1     = -1.1300	tb3_1     =  1.7654	tb4_1     =  0.1199	
tb5_1     = -1.7374	tb6_1     = -0.0845	tb7_1     =  0.1598	tb8_1     = -2.2741	

CDMFT iteration 34, distance =  1.07e+02, diff param =  5.79e-02, diff hybrid =  8.77e-02
95 minimization steps, time(MIN)/time(ED)=0.00327
sb1_1     = -0.1231	sb2_1     =  0.0040	sb3_1     =  0.0119	sb4_1     = -0.1074	sb5_1     =  0.0159	
sb6_1     = -0.1202	sb7_1     = -0.0355	sb8_1     =  0.0048	eb1_1     =  0.0553	eb2_1     = -3.6726	
eb3_1     = -4.2299	eb4_1     = -0.0663	eb5_1     = -4.4016	eb6_1     = -0.1105	eb7_1     =  0.0793	
eb8_1     = -3.7825	tb1_1     =  0.0239	tb2_1     = -1.1285	tb3_1     =  1.7385	tb4_1     =  0.0903	
tb5_1     = -1.7664	tb6_1     = -0.1172	tb7_1     =  0.1541	tb8_1     = -2.2685	

CDMFT iteration 35, distance =  1.10e+02, diff param =  5.64e-02, diff hybrid =  8.17e-02
101 minimization steps, time(MIN)/time(ED)=0.00325
sb1_1     = -0.1189	sb2_1     = -0.0032	sb3_1     =  0.0153	sb4_1     = -0.1228	sb5_1     =  0.0112	
sb6_1     = -0.1112	sb7_1     =  0.0314	sb8_1     = -0.0040	eb1_1     =  0.0467	eb2_1     = -3.6395	
eb3_1     = -4.3898	eb4_1     = -0.1096	eb5_1     = -4.2150	eb6_1     = -0.0613	eb7_1     =  0.0841	
eb8_1     = -3.7890	tb1_1     = -0.0237	tb2_1     = -1.1254	tb3_1     =  1.7646	tb4_1     =  0.1129	
tb5_1     = -1.7359	tb6_1     = -0.0846	tb7_1     =  0.1601	tb8_1     = -2.2701	

CDMFT iteration 36, distance =  1.11e+02, diff param =  5.88e-02, diff hybrid =  7.48e-02
98 minimization steps, time(MIN)/time(ED)=0.00321
sb1_1     = -0.1196	sb2_1     =  0.0035	sb3_1     =  0.0107	sb4_1     = -0.1124	sb5_1     =  0.0154	
sb6_1     = -0.1229	sb7_1     = -0.0330	sb8_1     =  0.0043	eb1_1     =  0.0513	eb2_1     = -3.6376	
eb3_1     = -4.1980	eb4_1     = -0.0587	eb5_1     = -4.3887	eb6_1     = -0.1120	eb7_1     =  0.0906	
eb8_1     = -3.7968	tb1_1     =  0.0246	tb2_1     = -1.1245	tb3_1     =  1.7334	tb4_1     =  0.0792	
tb5_1     = -1.7644	tb6_1     = -0.1133	tb7_1     =  0.1637	tb8_1     = -2.2726	

CDMFT iteration 37, distance =  1.08e+02, diff param =  6.06e-02, diff hybrid =  7.59e-02
99 minimization steps, time(MIN)/time(ED)=0.00318
sb1_1     = -0.1235	sb2_1     = -0.0043	sb3_1     =  0.0159	sb4_1     = -0.1207	sb5_1     =  0.0112	
sb6_1     = -0.1099	sb7_1     =  0.0359	sb8_1     = -0.0050	eb1_1     =  0.0601	eb2_1     = -3.6619	
eb3_1     = -4.3925	eb4_1     = -0.1132	eb5_1     = -4.2091	eb6_1     = -0.0621	eb7_1     =  0.0918	
eb8_1     = -3.7962	tb1_1     = -0.0251	tb2_1     = -1.1264	tb3_1     =  1.7648	tb4_1     =  0.1168	
tb5_1     = -1.7357	tb6_1     = -0.0822	tb7_1     =  0.1615	tb8_1     = -2.2730	

CDMFT iteration 38, distance =  1.07e+02, diff param =  5.70e-02, diff hybrid =  8.01e-02
87 minimization steps, time(MIN)/time(ED)=0.00315
sb1_1     = -0.1236	sb2_1     =  0.0041	sb3_1     =  0.0117	sb4_1     = -0.1086	sb5_1     =  0.0158	
sb6_1     = -0.1201	sb7_1     = -0.0360	sb8_1     =  0.0050	eb1_1     =  0.0581	eb2_1     = -3.6663	
eb3_1     = -4.2255	eb4_1     = -0.0652	eb5_1     = -4.3925	eb6_1     = -0.1115	eb7_1     =  0.0870	
eb8_1     = -3.7926	tb1_1     =  0.0242	tb2_1     = -1.1272	tb3_1     =  1.7382	tb4_1     =  0.0870	
tb5_1     = -1.7647	tb6_1     = -0.1171	tb7_1     =  0.1583	tb8_1     = -2.2718	

CDMFT iteration 39, distance =  1.09e+02, diff param =  5.57e-02, diff hybrid =  7.94e-02
100 minimization steps, time(MIN)/time(ED)=0.00313
sb1_1     = -0.1211	sb2_1     = -0.0035	sb3_1     =  0.0157	sb4_1     = -0.1214	sb5_1     =  0.0115	
sb6_1     = -0.1097	sb7_1     =  0.0331	sb8_1     = -0.0044	eb1_1     =  0.0519	eb2_1     = -3.6494	
eb3_1     = -4.3962	eb4_1     = -0.1107	eb5_1     = -4.2199	eb6_1     = -0.0638	eb7_1     =  0.0838	
eb8_1     = -3.7874	tb1_1     = -0.0234	tb2_1     = -1.1259	tb3_1     =  1.7656	tb4_1     =  0.1152	
tb5_1     = -1.7368	tb6_1     = -0.0867	tb7_1     =  0.1582	tb8_1     = -2.2700	

CDMFT iteration 40, distance =  1.10e+02, diff param =  5.75e-02, diff hybrid =  7.58e-02
94 minimization steps, time(MIN)/time(ED)=0.00311
sb1_1     = -0.1204	sb2_1     =  0.0035	sb3_1     =  0.0112	sb4_1     = -0.1108	sb5_1     =  0.0155	
sb6_1     = -0.1219	sb7_1     = -0.0327	sb8_1     =  0.0043	eb1_1     =  0.0513	eb2_1     = -3.6427	
eb3_1     = -4.2116	eb4_1     = -0.0619	eb5_1     = -4.3938	eb6_1     = -0.1111	eb7_1     =  0.0874	
eb8_1     = -3.7919	tb1_1     =  0.0237	tb2_1     = -1.1252	tb3_1     =  1.7355	tb4_1     =  0.0838	
tb5_1     = -1.7652	tb6_1     = -0.1144	tb7_1     =  0.1608	tb8_1     = -2.2713	

CDMFT iteration 41, distance =  1.09e+02, diff param =  5.70e-02, diff hybrid =  7.44e-02
91 minimization steps, time(MIN)/time(ED)=0.00308
sb1_1     = -0.1217	sb2_1     = -0.0037	sb3_1     =  0.0156	sb4_1     = -0.1213	sb5_1     =  0.0113	
sb6_1     = -0.1105	sb7_1     =  0.0340	sb8_1     = -0.0046	eb1_1     =  0.0549	eb2_1     = -3.6492	
eb3_1     = -4.3868	eb4_1     = -0.1117	eb5_1     = -4.2159	eb6_1     = -0.0624	eb7_1     =  0.0891	
eb8_1     = -3.7944	tb1_1     = -0.0241	tb2_1     = -1.1255	tb3_1     =  1.7639	tb4_1     =  0.1153	
tb5_1     = -1.7366	tb6_1     = -0.0835	tb7_1     =  0.1610	tb8_1     = -2.2722	

CDMFT iteration 42, distance =  1.08e+02, diff param =  5.42e-02, diff hybrid =  7.60e-02
78 minimization steps, time(MIN)/time(ED)=0.00305
sb1_1     = -0.1225	sb2_1     =  0.0039	sb3_1     =  0.0116	sb4_1     = -0.1096	sb5_1     =  0.0156	
sb6_1     = -0.1206	sb7_1     = -0.0345	sb8_1     =  0.0047	eb1_1     =  0.0562	eb2_1     = -3.6550	
eb3_1     = -4.2240	eb4_1     = -0.0641	eb5_1     = -4.3851	eb6_1     = -0.1114	eb7_1     =  0.0879	
eb8_1     = -3.7920	tb1_1     =  0.0237	tb2_1     = -1.1261	tb3_1     =  1.7380	tb4_1     =  0.0856	
tb5_1     = -1.7635	tb6_1     = -0.1159	tb7_1     =  0.1596	tb8_1     = -2.2716	

CDMFT iteration 43, distance =  1.08e+02, diff param =  5.24e-02, diff hybrid =  7.66e-02
101 minimization steps, time(MIN)/time(ED)=0.00304
sb1_1     = -0.1219	sb2_1     = -0.0036	sb3_1     =  0.0155	sb4_1     = -0.1207	sb5_1     =  0.0117	
sb6_1     = -0.1096	sb7_1     =  0.0335	sb8_1     = -0.0045	eb1_1     =  0.0540	eb2_1     = -3.6528	
eb3_1     = -4.3853	eb4_1     = -0.1106	eb5_1     = -4.2264	eb6_1     = -0.0644	eb7_1     =  0.0854	
eb8_1     = -3.7895	tb1_1     = -0.0232	tb2_1     = -1.1260	tb3_1     =  1.7635	tb4_1     =  0.1154	
tb5_1     = -1.7382	tb6_1     = -0.0867	tb7_1     =  0.1586	tb8_1     = -2.2707	

CDMFT iteration 44, distance =  1.09e+02, diff param =  5.50e-02, diff hybrid =  7.51e-02
103 minimization steps, time(MIN)/time(ED)=0.00302
sb1_1     = -0.1211	sb2_1     =  0.0035	sb3_1     =  0.0114	sb4_1     = -0.1102	sb5_1     =  0.0157	
sb6_1     = -0.1213	sb7_1     = -0.0327	sb8_1     =  0.0044	eb1_1     =  0.0525	eb2_1     = -3.6469	
eb3_1     = -4.2154	eb4_1     = -0.0632	eb5_1     = -4.3968	eb6_1     = -0.1112	eb7_1     =  0.0859	
eb8_1     = -3.7899	tb1_1     =  0.0231	tb2_1     = -1.1255	tb3_1     =  1.7362	tb4_1     =  0.0855	
tb5_1     = -1.7657	tb6_1     = -0.1152	tb7_1     =  0.1595	tb8_1     = -2.2708	

CDMFT iteration 45, distance =  1.09e+02, diff param =  5.71e-02, diff hybrid =  7.40e-02
140 minimization steps, time(MIN)/time(ED)=0.00303
sb1_1     = -0.1215	sb2_1     = -0.0037	sb3_1     =  0.0156	sb4_1     = -0.1212	sb5_1     =  0.0114	
sb6_1     = -0.1104	sb7_1     =  0.0333	sb8_1     = -0.0045	eb1_1     =  0.0538	eb2_1     = -3.6490	
eb3_1     = -4.3915	eb4_1     = -0.1113	eb5_1     = -4.2171	eb6_1     = -0.0632	eb7_1     =  0.0873	
eb8_1     = -3.7917	tb1_1     = -0.0236	tb2_1     = -1.1256	tb3_1     =  1.7647	tb4_1     =  0.1154	
tb5_1     = -1.7367	tb6_1     = -0.0846	tb7_1     =  0.1601	tb8_1     = -2.2714	

CDMFT iteration 46, distance =  1.08e+02, diff param =  5.58e-02, diff hybrid =  7.46e-02
82 minimization steps, time(MIN)/time(ED)=0.00300
sb1_1     = -0.1220	sb2_1     =  0.0037	sb3_1     =  0.0115	sb4_1     = -0.1100	sb5_1     =  0.0156	
sb6_1     = -0.1210	sb7_1     = -0.0337	sb8_1     =  0.0046	eb1_1     =  0.0548	eb2_1     = -3.6520	
eb3_1     = -4.2190	eb4_1     = -0.0638	eb5_1     = -4.3899	eb6_1     = -0.1113	eb7_1     =  0.0874	
eb8_1     = -3.7917	tb1_1     =  0.0236	tb2_1     = -1.1258	tb3_1     =  1.7370	tb4_1     =  0.0853	
tb5_1     = -1.7644	tb6_1     = -0.1156	tb7_1     =  0.1598	tb8_1     = -2.2714	

CDMFT iteration 47, distance =  1.08e+02, diff param =  5.42e-02, diff hybrid =  7.53e-02
98 minimization steps, time(MIN)/time(ED)=0.00299
sb1_1     = -0.1219	sb2_1     = -0.0036	sb3_1     =  0.0156	sb4_1     = -0.1208	sb5_1     =  0.0116	
sb6_1     = -0.1099	sb7_1     =  0.0335	sb8_1     = -0.0045	eb1_1     =  0.0543	eb2_1     = -3.6521	
eb3_1     = -4.3868	eb4_1     = -0.1110	eb5_1     = -4.2242	eb6_1     = -0.0641	eb7_1     =  0.0863	
eb8_1     = -3.7908	tb1_1     = -0.0233	tb2_1     = -1.1259	tb3_1     =  1.7638	tb4_1     =  0.1154	
tb5_1     = -1.7378	tb6_1     = -0.0860	tb7_1     =  0.1592	tb8_1     = -2.2711	

CDMFT iteration 48, distance =  1.08e+02, diff param =  5.30e-02, diff hybrid =  7.49e-02
92 minimization steps, time(MIN)/time(ED)=0.00297
sb1_1     = -0.1217	sb2_1     =  0.0036	sb3_1     =  0.0116	sb4_1     = -0.1100	sb5_1     =  0.0155	
sb6_1     = -0.1209	sb7_1     = -0.0331	sb8_1     =  0.0044	eb1_1     =  0.0537	eb2_1     = -3.6505	
eb3_1     = -4.2234	eb4_1     = -0.0640	eb5_1     = -4.3865	eb6_1     = -0.1109	eb7_1     =  0.0860	
eb8_1     = -3.7901	tb1_1     =  0.0231	tb2_1     = -1.1258	tb3_1     =  1.7377	tb4_1     =  0.0860	
tb5_1     = -1.7638	tb6_1     = -0.1152	tb7_1     =  0.1592	tb8_1     = -2.2709	

CDMFT iteration 49, distance =  1.09e+02, diff param =  5.41e-02, diff hybrid =  7.42e-02
86 minimization steps, time(MIN)/time(ED)=0.00295
sb1_1     = -0.1215	sb2_1     = -0.0036	sb3_1     =  0.0156	sb4_1     = -0.1210	sb5_1     =  0.0115	
sb6_1     = -0.1101	sb7_1     =  0.0330	sb8_1     = -0.0044	eb1_1     =  0.0536	eb2_1     = -3.6497	
eb3_1     = -4.3906	eb4_1     = -0.1112	eb5_1     = -4.2198	eb6_1     = -0.0637	eb7_1     =  0.0859	
eb8_1     = -3.7903	tb1_1     = -0.0232	tb2_1     = -1.1257	tb3_1     =  1.7645	tb4_1     =  0.1154	
tb5_1     = -1.7370	tb6_1     = -0.0857	tb7_1     =  0.1592	tb8_1     = -2.2710	

CDMFT iteration 50, distance =  1.08e+02, diff param =  5.56e-02, diff hybrid =  7.40e-02
92 minimization steps, time(MIN)/time(ED)=0.00293
sb1_1     = -0.1217	sb2_1     =  0.0036	sb3_1     =  0.0115	sb4_1     = -0.1100	sb5_1     =  0.0156	
sb6_1     = -0.1209	sb7_1     = -0.0333	sb8_1     =  0.0045	eb1_1     =  0.0540	eb2_1     = -3.6507	
eb3_1     = -4.2188	eb4_1     = -0.0638	eb5_1     = -4.3927	eb6_1     = -0.1112	eb7_1     =  0.0865	
eb8_1     = -3.7900	tb1_1     =  0.0233	tb2_1     = -1.1258	tb3_1     =  1.7369	tb4_1     =  0.0855	
tb5_1     = -1.7649	tb6_1     = -0.1155	tb7_1     =  0.1594	tb8_1     = -2.2709	

CDMFT iteration 51, distance =  1.08e+02, diff param =  5.48e-02, diff hybrid =  7.43e-02
73 minimization steps, time(MIN)/time(ED)=0.00291
sb1_1     = -0.1217	sb2_1     = -0.0036	sb3_1     =  0.0156	sb4_1     = -0.1209	sb5_1     =  0.0116	
sb6_1     = -0.1101	sb7_1     =  0.0334	sb8_1     = -0.0045	eb1_1     =  0.0540	eb2_1     = -3.6508	
eb3_1     = -4.3882	eb4_1     = -0.1108	eb5_1     = -4.2237	eb6_1     = -0.0641	eb7_1     =  0.0865	
eb8_1     = -3.7906	tb1_1     = -0.0234	tb2_1     = -1.1258	tb3_1     =  1.7641	tb4_1     =  0.1154	
tb5_1     = -1.7378	tb6_1     = -0.0857	tb7_1     =  0.1594	tb8_1     = -2.2711	

CDMFT iteration 52, distance =  1.09e+02, diff param =  5.33e-02, diff hybrid =  7.44e-02
94 minimization steps, time(MIN)/time(ED)=0.00289
sb1_1     = -0.1216	sb2_1     =  0.0036	sb3_1     =  0.0116	sb4_1     = -0.1101	sb5_1     =  0.0155	
sb6_1     = -0.1210	sb7_1     = -0.0331	sb8_1     =  0.0045	eb1_1     =  0.0538	eb2_1     = -3.6501	
eb3_1     = -4.2232	eb4_1     = -0.0641	eb5_1     = -4.3863	eb6_1     = -0.1108	eb7_1     =  0.0865	
eb8_1     = -3.7907	tb1_1     =  0.0232	tb2_1     = -1.1257	tb3_1     =  1.7377	tb4_1     =  0.0858	
tb5_1     = -1.7638	tb6_1     = -0.1151	tb7_1     =  0.1595	tb8_1     = -2.2711	

CDMFT iteration 53, distance =  1.08e+02, diff param =  5.38e-02, diff hybrid =  7.41e-02
115 minimization steps, time(MIN)/time(ED)=0.00289
sb1_1     = -0.1218	sb2_1     = -0.0036	sb3_1     =  0.0156	sb4_1     = -0.1209	sb5_1     =  0.0116	
sb6_1     = -0.1100	sb7_1     =  0.0332	sb8_1     = -0.0044	eb1_1     =  0.0541	eb2_1     = -3.6508	
eb3_1     = -4.3900	eb4_1     = -0.1112	eb5_1     = -4.2214	eb6_1     = -0.0640	eb7_1     =  0.0864	
eb8_1     = -3.7903	tb1_1     = -0.0230	tb2_1     = -1.1258	tb3_1     =  1.7644	tb4_1     =  0.1154	
tb5_1     = -1.7373	tb6_1     = -0.0860	tb7_1     =  0.1593	tb8_1     = -2.2710	

CDMFT iteration 54, distance =  1.08e+02, diff param =  5.54e-02, diff hybrid =  7.39e-02
68 minimization steps, time(MIN)/time(ED)=0.00287
sb1_1     = -0.1217	sb2_1     =  0.0036	sb3_1     =  0.0116	sb4_1     = -0.1099	sb5_1     =  0.0156	
sb6_1     = -0.1208	sb7_1     = -0.0331	sb8_1     =  0.0045	eb1_1     =  0.0540	eb2_1     = -3.6512	
eb3_1     = -4.2169	eb4_1     = -0.0641	eb5_1     = -4.3916	eb6_1     = -0.1112	eb7_1     =  0.0862	
eb8_1     = -3.7898	tb1_1     =  0.0232	tb2_1     = -1.1259	tb3_1     =  1.7365	tb4_1     =  0.0859	
tb5_1     = -1.7647	tb6_1     = -0.1157	tb7_1     =  0.1592	tb8_1     = -2.2709	

CDMFT iteration 55, distance =  1.09e+02, diff param =  5.52e-02, diff hybrid =  7.39e-02
66 minimization steps, time(MIN)/time(ED)=0.00284
sb1_1     = -0.1216	sb2_1     = -0.0036	sb3_1     =  0.0156	sb4_1     = -0.1210	sb5_1     =  0.0116	
sb6_1     = -0.1101	sb7_1     =  0.0333	sb8_1     = -0.0045	eb1_1     =  0.0537	eb2_1     = -3.6503	
eb3_1     = -4.3882	eb4_1     = -0.1108	eb5_1     = -4.2213	eb6_1     = -0.0640	eb7_1     =  0.0863	
eb8_1     = -3.7917	tb1_1     = -0.0233	tb2_1     = -1.1258	tb3_1     =  1.7641	tb4_1     =  0.1154	
tb5_1     = -1.7373	tb6_1     = -0.0858	tb7_1     =  0.1594	tb8_1     = -2.2714	

CDMFT iteration 56, distance =  1.09e+02, diff param =  5.55e-02, diff hybrid =  7.41e-02
124 minimization steps, time(MIN)/time(ED)=0.00284
sb1_1     = -0.1215	sb2_1     =  0.0036	sb3_1     =  0.0115	sb4_1     = -0.1101	sb5_1     =  0.0157	
sb6_1     = -0.1212	sb7_1     = -0.0332	sb8_1     =  0.0045	eb1_1     =  0.0536	eb2_1     = -3.6494	
eb3_1     = -4.2172	eb4_1     = -0.0637	eb5_1     = -4.3945	eb6_1     = -0.1113	eb7_1     =  0.0868	
eb8_1     = -3.7909	tb1_1     =  0.0232	tb2_1     = -1.1256	tb3_1     =  1.7365	tb4_1     =  0.0855	
tb5_1     = -1.7653	tb6_1     = -0.1153	tb7_1     =  0.1597	tb8_1     = -2.2712	

CDMFT iteration 57, distance =  1.08e+02, diff param =  5.59e-02, diff hybrid =  7.43e-02
63 minimization steps, time(MIN)/time(ED)=0.00282
sb1_1     = -0.1218	sb2_1     = -0.0036	sb3_1     =  0.0156	sb4_1     = -0.1209	sb5_1     =  0.0116	
sb6_1     = -0.1100	sb7_1     =  0.0334	sb8_1     = -0.0045	eb1_1     =  0.0543	eb2_1     = -3.6509	
eb3_1     = -4.3909	eb4_1     = -0.1113	eb5_1     = -4.2216	eb6_1     = -0.0640	eb7_1     =  0.0866	
eb8_1     = -3.7901	tb1_1     = -0.0233	tb2_1     = -1.1257	tb3_1     =  1.7646	tb4_1     =  0.1156	
tb5_1     = -1.7374	tb6_1     = -0.0857	tb7_1     =  0.1594	tb8_1     = -2.2709	

CDMFT iteration 58, distance =  1.08e+02, diff param =  5.32e-02, diff hybrid =  7.45e-02
52 minimization steps, time(MIN)/time(ED)=0.00279
sb1_1     = -0.1218	sb2_1     =  0.0036	sb3_1     =  0.0117	sb4_1     = -0.1100	sb5_1     =  0.0156	
sb6_1     = -0.1209	sb7_1     = -0.0333	sb8_1     =  0.0045	eb1_1     =  0.0541	eb2_1     = -3.6511	
eb3_1     = -4.2277	eb4_1     = -0.0643	eb5_1     = -4.3855	eb6_1     = -0.1109	eb7_1     =  0.0864	
eb8_1     = -3.7900	tb1_1     =  0.0233	tb2_1     = -1.1258	tb3_1     =  1.7385	tb4_1     =  0.0861	
tb5_1     = -1.7636	tb6_1     = -0.1153	tb7_1     =  0.1593	tb8_1     = -2.2709	

CDMFT iteration 59, distance =  1.08e+02, diff param =  5.22e-02, diff hybrid =  7.43e-02
64 minimization steps, time(MIN)/time(ED)=0.00277
sb1_1     = -0.1217	sb2_1     = -0.0036	sb3_1     =  0.0155	sb4_1     = -0.1209	sb5_1     =  0.0116	
sb6_1     = -0.1100	sb7_1     =  0.0331	sb8_1     = -0.0044	eb1_1     =  0.0537	eb2_1     = -3.6503	
eb3_1     = -4.3856	eb4_1     = -0.1109	eb5_1     = -4.2236	eb6_1     = -0.0640	eb7_1     =  0.0860	
eb8_1     = -3.7892	tb1_1     = -0.0230	tb2_1     = -1.1258	tb3_1     =  1.7636	tb4_1     =  0.1152	
tb5_1     = -1.7377	tb6_1     = -0.0861	tb7_1     =  0.1592	tb8_1     = -2.2706	

CDMFT iteration 60, distance =  1.08e+02, diff param =  5.18e-02, diff hybrid =  7.39e-02
101 minimization steps, time(MIN)/time(ED)=0.00276
sb1_1     = -0.1216	sb2_1     =  0.0036	sb3_1     =  0.0116	sb4_1     = -0.1101	sb5_1     =  0.0155	
sb6_1     = -0.1208	sb7_1     = -0.0330	sb8_1     =  0.0044	eb1_1     =  0.0537	eb2_1     = -3.6498	
eb3_1     = -4.2269	eb4_1     = -0.0641	eb5_1     = -4.3820	eb6_1     = -0.1107	eb7_1     =  0.0861	
eb8_1     = -3.7902	tb1_1     =  0.0231	tb2_1     = -1.1257	tb3_1     =  1.7384	tb4_1     =  0.0860	
tb5_1     = -1.7629	tb6_1     = -0.1151	tb7_1     =  0.1593	tb8_1     = -2.2710	

CDMFT iteration 61, distance =  1.08e+02, diff param =  5.23e-02, diff hybrid =  7.37e-02
64 minimization steps, time(MIN)/time(ED)=0.00274
sb1_1     = -0.1217	sb2_1     = -0.0035	sb3_1     =  0.0155	sb4_1     = -0.1209	sb5_1     =  0.0115	
sb6_1     = -0.1100	sb7_1     =  0.0330	sb8_1     = -0.0044	eb1_1     =  0.0538	eb2_1     = -3.6496	
eb3_1     = -4.3856	eb4_1     = -0.1109	eb5_1     = -4.2199	eb6_1     = -0.0637	eb7_1     =  0.0861	
eb8_1     = -3.7906	tb1_1     = -0.0230	tb2_1     = -1.1256	tb3_1     =  1.7636	tb4_1     =  0.1151	
tb5_1     = -1.7370	tb6_1     = -0.0857	tb7_1     =  0.1593	tb8_1     = -2.2711	

CDMFT iteration 62, distance =  1.08e+02, diff param =  5.35e-02, diff hybrid =  7.37e-02
81 minimization steps, time(MIN)/time(ED)=0.00273
sb1_1     = -0.1217	sb2_1     =  0.0036	sb3_1     =  0.0115	sb4_1     = -0.1100	sb5_1     =  0.0156	
sb6_1     = -0.1208	sb7_1     = -0.0331	sb8_1     =  0.0044	eb1_1     =  0.0540	eb2_1     = -3.6502	
eb3_1     = -4.2226	eb4_1     = -0.0639	eb5_1     = -4.3862	eb6_1     = -0.1109	eb7_1     =  0.0862	
eb8_1     = -3.7903	tb1_1     =  0.0232	tb2_1     = -1.1257	tb3_1     =  1.7376	tb4_1     =  0.0857	
tb5_1     = -1.7637	tb6_1     = -0.1154	tb7_1     =  0.1593	tb8_1     = -2.2710	

CDMFT iteration 63, distance =  1.08e+02, diff param =  5.35e-02, diff hybrid =  7.40e-02
106 minimization steps, time(MIN)/time(ED)=0.00272
sb1_1     = -0.1217	sb2_1     = -0.0036	sb3_1     =  0.0156	sb4_1     = -0.1209	sb5_1     =  0.0116	
sb6_1     = -0.1101	sb7_1     =  0.0332	sb8_1     = -0.0045	eb1_1     =  0.0538	eb2_1     = -3.6501	
eb3_1     = -4.3877	eb4_1     = -0.1109	eb5_1     = -4.2224	eb6_1     = -0.0640	eb7_1     =  0.0863	
eb8_1     = -3.7904	tb1_1     = -0.0232	tb2_1     = -1.1257	tb3_1     =  1.7640	tb4_1     =  0.1153	
tb5_1     = -1.7376	tb6_1     = -0.0857	tb7_1     =  0.1594	tb8_1     = -2.2710	

CDMFT iteration 64, distance =  1.08e+02, diff param =  5.57e-02, diff hybrid =  7.41e-02
118 minimization steps, time(MIN)/time(ED)=0.00272
sb1_1     = -0.1216	sb2_1     =  0.0036	sb3_1     =  0.0115	sb4_1     = -0.1100	sb5_1     =  0.0157	
sb6_1     = -0.1211	sb7_1     = -0.0332	sb8_1     =  0.0045	eb1_1     =  0.0536	eb2_1     = -3.6503	
eb3_1     = -4.2164	eb4_1     = -0.0638	eb5_1     = -4.3966	eb6_1     = -0.1114	eb7_1     =  0.0865	
eb8_1     = -3.7906	tb1_1     =  0.0232	tb2_1     = -1.1258	tb3_1     =  1.7364	tb4_1     =  0.0856	
tb5_1     = -1.7656	tb6_1     = -0.1156	tb7_1     =  0.1595	tb8_1     = -2.2711	

CDMFT iteration 65, distance =  1.08e+02, diff param =  5.62e-02, diff hybrid =  7.43e-02
58 minimization steps, time(MIN)/time(ED)=0.00270
sb1_1     = -0.1218	sb2_1     = -0.0037	sb3_1     =  0.0157	sb4_1     = -0.1210	sb5_1     =  0.0115	
sb6_1     = -0.1100	sb7_1     =  0.0333	sb8_1     = -0.0045	eb1_1     =  0.0542	eb2_1     = -3.6510	
eb3_1     = -4.3904	eb4_1     = -0.1111	eb5_1     = -4.2213	eb6_1     = -0.0639	eb7_1     =  0.0860	
eb8_1     = -3.7887	tb1_1     = -0.0234	tb2_1     = -1.1258	tb3_1     =  1.7645	tb4_1     =  0.1155	
tb5_1     = -1.7373	tb6_1     = -0.0856	tb7_1     =  0.1592	tb8_1     = -2.2705	

CDMFT iteration 66, distance =  1.09e+02, diff param =  5.51e-02, diff hybrid =  7.44e-02
86 minimization steps, time(MIN)/time(ED)=0.00269
sb1_1     = -0.1216	sb2_1     =  0.0035	sb3_1     =  0.0115	sb4_1     = -0.1100	sb5_1     =  0.0156	
sb6_1     = -0.1210	sb7_1     = -0.0333	sb8_1     =  0.0045	eb1_1     =  0.0537	eb2_1     = -3.6503	
eb3_1     = -4.2183	eb4_1     = -0.0638	eb5_1     = -4.3901	eb6_1     = -0.1110	eb7_1     =  0.0869	
eb8_1     = -3.7909	tb1_1     =  0.0232	tb2_1     = -1.1258	tb3_1     =  1.7368	tb4_1     =  0.0857	
tb5_1     = -1.7644	tb6_1     = -0.1154	tb7_1     =  0.1597	tb8_1     = -2.2712	

CDMFT iteration 67, distance =  1.09e+02, diff param =  5.59e-02, diff hybrid =  7.44e-02
72 minimization steps, time(MIN)/time(ED)=0.00268
sb1_1     = -0.1216	sb2_1     = -0.0036	sb3_1     =  0.0156	sb4_1     = -0.1210	sb5_1     =  0.0115	
sb6_1     = -0.1100	sb7_1     =  0.0333	sb8_1     = -0.0045	eb1_1     =  0.0538	eb2_1     = -3.6503	
eb3_1     = -4.3926	eb4_1     = -0.1111	eb5_1     = -4.2178	eb6_1     = -0.0638	eb7_1     =  0.0872	
eb8_1     = -3.7912	tb1_1     = -0.0233	tb2_1     = -1.1258	tb3_1     =  1.7649	tb4_1     =  0.1154	
tb5_1     = -1.7367	tb6_1     = -0.0856	tb7_1     =  0.1598	tb8_1     = -2.2713	

CDMFT iteration 68, distance =  1.09e+02, diff param =  5.51e-02, diff hybrid =  7.44e-02
119 minimization steps, time(MIN)/time(ED)=0.00268
sb1_1     = -0.1217	sb2_1     =  0.0036	sb3_1     =  0.0115	sb4_1     = -0.1101	sb5_1     =  0.0156	
sb6_1     = -0.1210	sb7_1     = -0.0333	sb8_1     =  0.0045	eb1_1     =  0.0540	eb2_1     = -3.6506	
eb3_1     = -4.2221	eb4_1     = -0.0639	eb5_1     = -4.3883	eb6_1     = -0.1110	eb7_1     =  0.0867	
eb8_1     = -3.7909	tb1_1     =  0.0234	tb2_1     = -1.1258	tb3_1     =  1.7375	tb4_1     =  0.0856	
tb5_1     = -1.7641	tb6_1     = -0.1154	tb7_1     =  0.1596	tb8_1     = -2.2712	

CDMFT iteration 69, distance =  1.08e+02, diff param =  5.49e-02, diff hybrid =  7.45e-02
66 minimization steps, time(MIN)/time(ED)=0.00266
sb1_1     = -0.1217	sb2_1     = -0.0036	sb3_1     =  0.0157	sb4_1     = -0.1211	sb5_1     =  0.0116	
sb6_1     = -0.1100	sb7_1     =  0.0333	sb8_1     = -0.0045	eb1_1     =  0.0540	eb2_1     = -3.6507	
eb3_1     = -4.3923	eb4_1     = -0.1112	eb5_1     = -4.2193	eb6_1     = -0.0639	eb7_1     =  0.0865	
eb8_1     = -3.7904	tb1_1     = -0.0232	tb2_1     = -1.1258	tb3_1     =  1.7649	tb4_1     =  0.1154	
tb5_1     = -1.7369	tb6_1     = -0.0858	tb7_1     =  0.1594	tb8_1     = -2.2710	

CDMFT iteration 70, distance =  1.08e+02, diff param =  5.47e-02, diff hybrid =  7.44e-02
114 minimization steps, time(MIN)/time(ED)=0.00266
sb1_1     = -0.1217	sb2_1     =  0.0036	sb3_1     =  0.0116	sb4_1     = -0.1100	sb5_1     =  0.0156	
sb6_1     = -0.1209	sb7_1     = -0.0333	sb8_1     =  0.0045	eb1_1     =  0.0540	eb2_1     = -3.6510	
eb3_1     = -4.2232	eb4_1     = -0.0640	eb5_1     = -4.3879	eb6_1     = -0.1110	eb7_1     =  0.0865	
eb8_1     = -3.7906	tb1_1     =  0.0233	tb2_1     = -1.1258	tb3_1     =  1.7377	tb4_1     =  0.0858	
tb5_1     = -1.7640	tb6_1     = -0.1154	tb7_1     =  0.1594	tb8_1     = -2.2711	

CDMFT iteration 71, distance =  1.09e+02, diff param =  5.38e-02, diff hybrid =  7.43e-02
85 minimization steps, time(MIN)/time(ED)=0.00265
sb1_1     = -0.1217	sb2_1     = -0.0036	sb3_1     =  0.0156	sb4_1     = -0.1210	sb5_1     =  0.0116	
sb6_1     = -0.1101	sb7_1     =  0.0332	sb8_1     = -0.0045	eb1_1     =  0.0539	eb2_1     = -3.6505	
eb3_1     = -4.3885	eb4_1     = -0.1110	eb5_1     = -4.2219	eb6_1     = -0.0639	eb7_1     =  0.0864	
eb8_1     = -3.7906	tb1_1     = -0.0232	tb2_1     = -1.1258	tb3_1     =  1.7642	tb4_1     =  0.1153	
tb5_1     = -1.7375	tb6_1     = -0.0857	tb7_1     =  0.1594	tb8_1     = -2.2711	

CDMFT iteration 72, distance =  1.08e+02, diff param =  5.46e-02, diff hybrid =  7.42e-02
95 minimization steps, time(MIN)/time(ED)=0.00265
sb1_1     = -0.1217	sb2_1     =  0.0036	sb3_1     =  0.0116	sb4_1     = -0.1100	sb5_1     =  0.0156	
sb6_1     = -0.1209	sb7_1     = -0.0333	sb8_1     =  0.0045	eb1_1     =  0.0540	eb2_1     = -3.6508	
eb3_1     = -4.2200	eb4_1     = -0.0639	eb5_1     = -4.3905	eb6_1     = -0.1111	eb7_1     =  0.0865	
eb8_1     = -3.7906	tb1_1     =  0.0232	tb2_1     = -1.1258	tb3_1     =  1.7371	tb4_1     =  0.0857	
tb5_1     = -1.7645	tb6_1     = -0.1155	tb7_1     =  0.1594	tb8_1     = -2.2711	

CDMFT iteration 73, distance =  1.08e+02, diff param =  5.36e-02, diff hybrid =  7.42e-02
72 minimization steps, time(MIN)/time(ED)=0.00264
sb1_1     = -0.1217	sb2_1     = -0.0036	sb3_1     =  0.0155	sb4_1     = -0.1208	sb5_1     =  0.0116	
sb6_1     = -0.1100	sb7_1     =  0.0333	sb8_1     = -0.0045	eb1_1     =  0.0540	eb2_1     = -3.6509	
eb3_1     = -4.3839	eb4_1     = -0.1107	eb5_1     = -4.2242	eb6_1     = -0.0641	eb7_1     =  0.0865	
eb8_1     = -3.7908	tb1_1     = -0.0233	tb2_1     = -1.1258	tb3_1     =  1.7633	tb4_1     =  0.1152	
tb5_1     = -1.7379	tb6_1     = -0.0859	tb7_1     =  0.1594	tb8_1     = -2.2711	

CDMFT iteration 74, distance =  1.09e+02, diff param =  5.34e-02, diff hybrid =  7.42e-02
56 minimization steps, time(MIN)/time(ED)=0.00262
sb1_1     = -0.1216	sb2_1     =  0.0035	sb3_1     =  0.0115	sb4_1     = -0.1101	sb5_1     =  0.0156	
sb6_1     = -0.1210	sb7_1     = -0.0331	sb8_1     =  0.0044	eb1_1     =  0.0536	eb2_1     = -3.6500	
eb3_1     = -4.2201	eb4_1     = -0.0639	eb5_1     = -4.3892	eb6_1     = -0.1111	eb7_1     =  0.0859	
eb8_1     = -3.7897	tb1_1     =  0.0231	tb2_1     = -1.1257	tb3_1     =  1.7371	tb4_1     =  0.0858	
tb5_1     = -1.7643	tb6_1     = -0.1152	tb7_1     =  0.1592	tb8_1     = -2.2708	

CDMFT iteration 75, distance =  1.08e+02, diff param =  5.41e-02, diff hybrid =  7.40e-02
87 minimization steps, time(MIN)/time(ED)=0.00261
sb1_1     = -0.1217	sb2_1     = -0.0036	sb3_1     =  0.0156	sb4_1     = -0.1208	sb5_1     =  0.0116	
sb6_1     = -0.1101	sb7_1     =  0.0332	sb8_1     = -0.0045	eb1_1     =  0.0539	eb2_1     = -3.6505	
eb3_1     = -4.3875	eb4_1     = -0.1110	eb5_1     = -4.2224	eb6_1     = -0.0640	eb7_1     =  0.0864	
eb8_1     = -3.7903	tb1_1     = -0.0232	tb2_1     = -1.1258	tb3_1     =  1.7640	tb4_1     =  0.1154	
tb5_1     = -1.7376	tb6_1     = -0.0857	tb7_1     =  0.1594	tb8_1     = -2.2710	

CDMFT iteration 76, distance =  1.08e+02, diff param =  5.36e-02, diff hybrid =  7.40e-02
90 minimization steps, time(MIN)/time(ED)=0.00260
sb1_1     = -0.1217	sb2_1     =  0.0036	sb3_1     =  0.0116	sb4_1     = -0.1100	sb5_1     =  0.0156	
sb6_1     = -0.1208	sb7_1     = -0.0333	sb8_1     =  0.0045	eb1_1     =  0.0539	eb2_1     = -3.6506	
eb3_1     = -4.2229	eb4_1     = -0.0641	eb5_1     = -4.3881	eb6_1     = -0.1109	eb7_1     =  0.0864	
eb8_1     = -3.7905	tb1_1     =  0.0232	tb2_1     = -1.1258	tb3_1     =  1.7376	tb4_1     =  0.0859	
tb5_1     = -1.7640	tb6_1     = -0.1154	tb7_1     =  0.1594	tb8_1     = -2.2710	

CDMFT iteration 77, distance =  1.08e+02, diff param =  5.27e-02, diff hybrid =  7.41e-02
117 minimization steps, time(MIN)/time(ED)=0.00260
sb1_1     = -0.1216	sb2_1     = -0.0036	sb3_1     =  0.0155	sb4_1     = -0.1209	sb5_1     =  0.0116	
sb6_1     = -0.1101	sb7_1     =  0.0332	sb8_1     = -0.0045	eb1_1     =  0.0537	eb2_1     = -3.6503	
eb3_1     = -4.3838	eb4_1     = -0.1107	eb5_1     = -4.2258	eb6_1     = -0.0641	eb7_1     =  0.0861	
eb8_1     = -3.7905	tb1_1     = -0.0232	tb2_1     = -1.1258	tb3_1     =  1.7633	tb4_1     =  0.1152	
tb5_1     = -1.7382	tb6_1     = -0.0860	tb7_1     =  0.1592	tb8_1     = -2.2710	

CDMFT iteration 78, distance =  1.08e+02, diff param =  5.29e-02, diff hybrid =  7.40e-02
74 minimization steps, time(MIN)/time(ED)=0.00259
sb1_1     = -0.1216	sb2_1     =  0.0035	sb3_1     =  0.0116	sb4_1     = -0.1101	sb5_1     =  0.0156	
sb6_1     = -0.1209	sb7_1     = -0.0331	sb8_1     =  0.0044	eb1_1     =  0.0536	eb2_1     = -3.6499	
eb3_1     = -4.2202	eb4_1     = -0.0639	eb5_1     = -4.3875	eb6_1     = -0.1109	eb7_1     =  0.0865	
eb8_1     = -3.7904	tb1_1     =  0.0230	tb2_1     = -1.1257	tb3_1     =  1.7371	tb4_1     =  0.0858	
tb5_1     = -1.7640	tb6_1     = -0.1152	tb7_1     =  0.1595	tb8_1     = -2.2711	

CDMFT iteration 79, distance =  1.08e+02, diff param =  5.51e-02, diff hybrid =  7.38e-02
99 minimization steps, time(MIN)/time(ED)=0.00259
sb1_1     = -0.1217	sb2_1     = -0.0036	sb3_1     =  0.0156	sb4_1     = -0.1210	sb5_1     =  0.0115	
sb6_1     = -0.1100	sb7_1     =  0.0331	sb8_1     = -0.0044	eb1_1     =  0.0539	eb2_1     = -3.6503	
eb3_1     = -4.3929	eb4_1     = -0.1112	eb5_1     = -4.2189	eb6_1     = -0.0638	eb7_1     =  0.0863	
eb8_1     = -3.7903	tb1_1     = -0.0232	tb2_1     = -1.1257	tb3_1     =  1.7650	tb4_1     =  0.1155	
tb5_1     = -1.7369	tb6_1     = -0.0857	tb7_1     =  0.1594	tb8_1     = -2.2710	

CDMFT iteration 80, distance =  1.08e+02, diff param =  5.58e-02, diff hybrid =  7.40e-02
88 minimization steps, time(MIN)/time(ED)=0.00258
sb1_1     = -0.1216	sb2_1     =  0.0036	sb3_1     =  0.0115	sb4_1     = -0.1101	sb5_1     =  0.0156	
sb6_1     = -0.1210	sb7_1     = -0.0333	sb8_1     =  0.0045	eb1_1     =  0.0538	eb2_1     = -3.6507	
eb3_1     = -4.2195	eb4_1     = -0.0639	eb5_1     = -4.3916	eb6_1     = -0.1112	eb7_1     =  0.0865	
eb8_1     = -3.7906	tb1_1     =  0.0233	tb2_1     = -1.1258	tb3_1     =  1.7370	tb4_1     =  0.0856	
tb5_1     = -1.7647	tb6_1     = -0.1155	tb7_1     =  0.1594	tb8_1     = -2.2711	

CDMFT iteration 81, distance =  1.09e+02, diff param =  5.47e-02, diff hybrid =  7.43e-02
93 minimization steps, time(MIN)/time(ED)=0.00258
sb1_1     = -0.1217	sb2_1     = -0.0037	sb3_1     =  0.0156	sb4_1     = -0.1210	sb5_1     =  0.0116	
sb6_1     = -0.1101	sb7_1     =  0.0334	sb8_1     = -0.0045	eb1_1     =  0.0539	eb2_1     = -3.6506	
eb3_1     = -4.3884	eb4_1     = -0.1110	eb5_1     = -4.2223	eb6_1     = -0.0640	eb7_1     =  0.0867	
eb8_1     = -3.7909	tb1_1     = -0.0233	tb2_1     = -1.1258	tb3_1     =  1.7641	tb4_1     =  0.1153	
tb5_1     = -1.7375	tb6_1     = -0.0857	tb7_1     =  0.1596	tb8_1     = -2.2712	

CDMFT iteration 82, distance =  1.08e+02, diff param =  5.58e-02, diff hybrid =  7.44e-02
98 minimization steps, time(MIN)/time(ED)=0.00257
sb1_1     = -0.1217	sb2_1     =  0.0036	sb3_1     =  0.0115	sb4_1     = -0.1099	sb5_1     =  0.0157	
sb6_1     = -0.1211	sb7_1     = -0.0333	sb8_1     =  0.0045	eb1_1     =  0.0539	eb2_1     = -3.6506	
eb3_1     = -4.2158	eb4_1     = -0.0637	eb5_1     = -4.3957	eb6_1     = -0.1115	eb7_1     =  0.0865	
eb8_1     = -3.7907	tb1_1     =  0.0232	tb2_1     = -1.1258	tb3_1     =  1.7363	tb4_1     =  0.0856	
tb5_1     = -1.7655	tb6_1     = -0.1155	tb7_1     =  0.1595	tb8_1     = -2.2711	

CDMFT iteration 83, distance =  1.08e+02, diff param =  5.70e-02, diff hybrid =  7.44e-02
84 minimization steps, time(MIN)/time(ED)=0.00257
sb1_1     = -0.1218	sb2_1     = -0.0037	sb3_1     =  0.0157	sb4_1     = -0.1210	sb5_1     =  0.0115	
sb6_1     = -0.1100	sb7_1     =  0.0333	sb8_1     = -0.0045	eb1_1     =  0.0542	eb2_1     = -3.6514	
eb3_1     = -4.3931	eb4_1     = -0.1114	eb5_1     = -4.2181	eb6_1     = -0.0639	eb7_1     =  0.0867	
eb8_1     = -3.7908	tb1_1     = -0.0234	tb2_1     = -1.1258	tb3_1     =  1.7650	tb4_1     =  0.1157	
tb5_1     = -1.7367	tb6_1     = -0.0856	tb7_1     =  0.1595	tb8_1     = -2.2712	

CDMFT iteration 84, distance =  1.08e+02, diff param =  5.51e-02, diff hybrid =  7.45e-02
88 minimization steps, time(MIN)/time(ED)=0.00256
sb1_1     = -0.1218	sb2_1     =  0.0036	sb3_1     =  0.0116	sb4_1     = -0.1100	sb5_1     =  0.0156	
sb6_1     = -0.1210	sb7_1     = -0.0334	sb8_1     =  0.0045	eb1_1     =  0.0541	eb2_1     = -3.6514	
eb3_1     = -4.2234	eb4_1     = -0.0642	eb5_1     = -4.3891	eb6_1     = -0.1110	eb7_1     =  0.0866	
eb8_1     = -3.7907	tb1_1     =  0.0233	tb2_1     = -1.1258	tb3_1     =  1.7377	tb4_1     =  0.0859	
tb5_1     = -1.7642	tb6_1     = -0.1155	tb7_1     =  0.1594	tb8_1     = -2.2711	

CDMFT iteration 85, distance =  1.08e+02, diff param =  5.52e-02, diff hybrid =  7.45e-02
89 minimization steps, time(MIN)/time(ED)=0.00255
sb1_1     = -0.1216	sb2_1     = -0.0036	sb3_1     =  0.0156	sb4_1     = -0.1210	sb5_1     =  0.0115	
sb6_1     = -0.1099	sb7_1     =  0.0332	sb8_1     = -0.0045	eb1_1     =  0.0537	eb2_1     = -3.6506	
eb3_1     = -4.3925	eb4_1     = -0.1112	eb5_1     = -4.2162	eb6_1     = -0.0638	eb7_1     =  0.0866	
eb8_1     = -3.7904	tb1_1     = -0.0231	tb2_1     = -1.1258	tb3_1     =  1.7649	tb4_1     =  0.1154	
tb5_1     = -1.7363	tb6_1     = -0.0858	tb7_1     =  0.1595	tb8_1     = -2.2710	

CDMFT iteration 86, distance =  1.08e+02, diff param =  5.64e-02, diff hybrid =  7.43e-02
103 minimization steps, time(MIN)/time(ED)=0.00255
sb1_1     = -0.1217	sb2_1     =  0.0036	sb3_1     =  0.0115	sb4_1     = -0.1100	sb5_1     =  0.0156	
sb6_1     = -0.1210	sb7_1     = -0.0332	sb8_1     =  0.0045	eb1_1     =  0.0539	eb2_1     = -3.6505	
eb3_1     = -4.2189	eb4_1     = -0.0639	eb5_1     = -4.3935	eb6_1     = -0.1111	eb7_1     =  0.0865	
eb8_1     = -3.7905	tb1_1     =  0.0234	tb2_1     = -1.1258	tb3_1     =  1.7369	tb4_1     =  0.0856	
tb5_1     = -1.7651	tb6_1     = -0.1155	tb7_1     =  0.1594	tb8_1     = -2.2710	

CDMFT iteration 87, distance =  1.09e+02, diff param =  5.61e-02, diff hybrid =  7.43e-02
39 minimization steps, time(MIN)/time(ED)=0.00253
sb1_1     = -0.1217	sb2_1     = -0.0036	sb3_1     =  0.0157	sb4_1     = -0.1211	sb5_1     =  0.0115	
sb6_1     = -0.1101	sb7_1     =  0.0335	sb8_1     = -0.0045	eb1_1     =  0.0539	eb2_1     = -3.6505	
eb3_1     = -4.3926	eb4_1     = -0.1112	eb5_1     = -4.2191	eb6_1     = -0.0639	eb7_1     =  0.0872	
eb8_1     = -3.7930	tb1_1     = -0.0233	tb2_1     = -1.1257	tb3_1     =  1.7649	tb4_1     =  0.1155	
tb5_1     = -1.7369	tb6_1     = -0.0856	tb7_1     =  0.1598	tb8_1     = -2.2718	

CDMFT iteration 88, distance =  1.08e+02, diff param =  5.46e-02, diff hybrid =  7.45e-02
99 minimization steps, time(MIN)/time(ED)=0.00253
sb1_1     = -0.1219	sb2_1     =  0.0036	sb3_1     =  0.0116	sb4_1     = -0.1100	sb5_1     =  0.0156	
sb6_1     = -0.1209	sb7_1     = -0.0334	sb8_1     =  0.0045	eb1_1     =  0.0543	eb2_1     = -3.6516	
eb3_1     = -4.2240	eb4_1     = -0.0642	eb5_1     = -4.3876	eb6_1     = -0.1111	eb7_1     =  0.0866	
eb8_1     = -3.7907	tb1_1     =  0.0233	tb2_1     = -1.1258	tb3_1     =  1.7378	tb4_1     =  0.0859	
tb5_1     = -1.7639	tb6_1     = -0.1155	tb7_1     =  0.1594	tb8_1     = -2.2711	

CDMFT iteration 89, distance =  1.08e+02, diff param =  5.31e-02, diff hybrid =  7.45e-02
78 minimization steps, time(MIN)/time(ED)=0.00252
sb1_1     = -0.1218	sb2_1     = -0.0036	sb3_1     =  0.0156	sb4_1     = -0.1209	sb5_1     =  0.0116	
sb6_1     = -0.1099	sb7_1     =  0.0332	sb8_1     = -0.0045	eb1_1     =  0.0540	eb2_1     = -3.6512	
eb3_1     = -4.3866	eb4_1     = -0.1109	eb5_1     = -4.2238	eb6_1     = -0.0640	eb7_1     =  0.0861	
eb8_1     = -3.7901	tb1_1     = -0.0231	tb2_1     = -1.1258	tb3_1     =  1.7638	tb4_1     =  0.1153	
tb5_1     = -1.7378	tb6_1     = -0.0861	tb7_1     =  0.1591	tb8_1     = -2.2709	

CDMFT iteration 90, distance =  1.08e+02, diff param =  5.36e-02, diff hybrid =  7.41e-02
98 minimization steps, time(MIN)/time(ED)=0.00252
sb1_1     = -0.1216	sb2_1     =  0.0035	sb3_1     =  0.0115	sb4_1     = -0.1100	sb5_1     =  0.0156	
sb6_1     = -0.1210	sb7_1     = -0.0330	sb8_1     =  0.0044	eb1_1     =  0.0536	eb2_1     = -3.6500	
eb3_1     = -4.2220	eb4_1     = -0.0639	eb5_1     = -4.3891	eb6_1     = -0.1110	eb7_1     =  0.0861	
eb8_1     = -3.7900	tb1_1     =  0.0231	tb2_1     = -1.1257	tb3_1     =  1.7374	tb4_1     =  0.0859	
tb5_1     = -1.7643	tb6_1     = -0.1153	tb7_1     =  0.1593	tb8_1     = -2.2709	

CDMFT iteration 91, distance =  1.08e+02, diff param =  5.33e-02, diff hybrid =  7.38e-02
80 minimization steps, time(MIN)/time(ED)=0.00251
sb1_1     = -0.1217	sb2_1     = -0.0036	sb3_1     =  0.0155	sb4_1     = -0.1209	sb5_1     =  0.0116	
sb6_1     = -0.1102	sb7_1     =  0.0331	sb8_1     = -0.0045	eb1_1     =  0.0538	eb2_1     = -3.6502	
eb3_1     = -4.3851	eb4_1     = -0.1108	eb5_1     = -4.2240	eb6_1     = -0.0641	eb7_1     =  0.0864	
eb8_1     = -3.7911	tb1_1     = -0.0232	tb2_1     = -1.1257	tb3_1     =  1.7635	tb4_1     =  0.1152	
tb5_1     = -1.7379	tb6_1     = -0.0858	tb7_1     =  0.1594	tb8_1     = -2.2712	

CDMFT iteration 92, distance =  1.08e+02, diff param =  5.29e-02, diff hybrid =  7.38e-02
68 minimization steps, time(MIN)/time(ED)=0.00250
sb1_1     = -0.1218	sb2_1     =  0.0036	sb3_1     =  0.0116	sb4_1     = -0.1101	sb5_1     =  0.0155	
sb6_1     = -0.1208	sb7_1     = -0.0332	sb8_1     =  0.0045	eb1_1     =  0.0541	eb2_1     = -3.6507	
eb3_1     = -4.2215	eb4_1     = -0.0642	eb5_1     = -4.3852	eb6_1     = -0.1108	eb7_1     =  0.0865	
eb8_1     = -3.7903	tb1_1     =  0.0231	tb2_1     = -1.1258	tb3_1     =  1.7373	tb4_1     =  0.0859	
tb5_1     = -1.7635	tb6_1     = -0.1153	tb7_1     =  0.1594	tb8_1     = -2.2710	

CDMFT iteration 93, distance =  1.08e+02, diff param =  5.30e-02, diff hybrid =  7.39e-02
56 minimization steps, time(MIN)/time(ED)=0.00249
sb1_1     = -0.1217	sb2_1     = -0.0036	sb3_1     =  0.0155	sb4_1     = -0.1208	sb5_1     =  0.0116	
sb6_1     = -0.1100	sb7_1     =  0.0331	sb8_1     = -0.0044	eb1_1     =  0.0537	eb2_1     = -3.6502	
eb3_1     = -4.3837	eb4_1     = -0.1106	eb5_1     = -4.2218	eb6_1     = -0.0642	eb7_1     =  0.0859	
eb8_1     = -3.7902	tb1_1     = -0.0231	tb2_1     = -1.1258	tb3_1     =  1.7632	tb4_1     =  0.1152	
tb5_1     = -1.7374	tb6_1     = -0.0860	tb7_1     =  0.1591	tb8_1     = -2.2709	

CDMFT iteration 94, distance =  1.09e+02, diff param =  5.47e-02, diff hybrid =  7.37e-02
110 minimization steps, time(MIN)/time(ED)=0.00249
sb1_1     = -0.1215	sb2_1     =  0.0035	sb3_1     =  0.0115	sb4_1     = -0.1100	sb5_1     =  0.0156	
sb6_1     = -0.1211	sb7_1     = -0.0330	sb8_1     =  0.0044	eb1_1     =  0.0534	eb2_1     = -3.6490	
eb3_1     = -4.2175	eb4_1     = -0.0636	eb5_1     = -4.3937	eb6_1     = -0.1111	eb7_1     =  0.0862	
eb8_1     = -3.7903	tb1_1     =  0.0231	tb2_1     = -1.1257	tb3_1     =  1.7366	tb4_1     =  0.0856	
tb5_1     = -1.7651	tb6_1     = -0.1153	tb7_1     =  0.1594	tb8_1     = -2.2710	

CDMFT iteration 95, distance =  1.09e+02, diff param =  5.64e-02, diff hybrid =  7.38e-02
107 minimization steps, time(MIN)/time(ED)=0.00249
sb1_1     = -0.1217	sb2_1     = -0.0036	sb3_1     =  0.0157	sb4_1     = -0.1210	sb5_1     =  0.0115	
sb6_1     = -0.1101	sb7_1     =  0.0332	sb8_1     = -0.0045	eb1_1     =  0.0540	eb2_1     = -3.6502	
eb3_1     = -4.3928	eb4_1     = -0.1112	eb5_1     = -4.2184	eb6_1     = -0.0637	eb7_1     =  0.0868	
eb8_1     = -3.7908	tb1_1     = -0.0234	tb2_1     = -1.1257	tb3_1     =  1.7649	tb4_1     =  0.1155	
tb5_1     = -1.7368	tb6_1     = -0.0854	tb7_1     =  0.1596	tb8_1     = -2.2711	

CDMFT iteration 96, distance =  1.08e+02, diff param =  5.49e-02, diff hybrid =  7.43e-02
123 minimization steps, time(MIN)/time(ED)=0.00249
sb1_1     = -0.1218	sb2_1     =  0.0037	sb3_1     =  0.0116	sb4_1     = -0.1100	sb5_1     =  0.0156	
sb6_1     = -0.1209	sb7_1     = -0.0335	sb8_1     =  0.0045	eb1_1     =  0.0542	eb2_1     = -3.6513	
eb3_1     = -4.2230	eb4_1     = -0.0641	eb5_1     = -4.3877	eb6_1     = -0.1110	eb7_1     =  0.0867	
eb8_1     = -3.7909	tb1_1     =  0.0234	tb2_1     = -1.1258	tb3_1     =  1.7377	tb4_1     =  0.0857	
tb5_1     = -1.7640	tb6_1     = -0.1155	tb7_1     =  0.1595	tb8_1     = -2.2712	

CDMFT iteration 97, distance =  1.08e+02, diff param =  5.50e-02, diff hybrid =  7.45e-02
121 minimization steps, time(MIN)/time(ED)=0.00249
sb1_1     = -0.1217	sb2_1     = -0.0036	sb3_1     =  0.0157	sb4_1     = -0.1211	sb5_1     =  0.0115	
sb6_1     = -0.1099	sb7_1     =  0.0333	sb8_1     = -0.0045	eb1_1     =  0.0538	eb2_1     = -3.6505	
eb3_1     = -4.3938	eb4_1     = -0.1112	eb5_1     = -4.2184	eb6_1     = -0.0639	eb7_1     =  0.0864	
eb8_1     = -3.7906	tb1_1     = -0.0232	tb2_1     = -1.1258	tb3_1     =  1.7651	tb4_1     =  0.1155	
tb5_1     = -1.7368	tb6_1     = -0.0858	tb7_1     =  0.1594	tb8_1     = -2.2711	

CDMFT iteration 98, distance =  1.08e+02, diff param =  5.67e-02, diff hybrid =  7.44e-02
87 minimization steps, time(MIN)/time(ED)=0.00249
sb1_1     = -0.1217	sb2_1     =  0.0036	sb3_1     =  0.0115	sb4_1     = -0.1100	sb5_1     =  0.0157	
sb6_1     = -0.1210	sb7_1     = -0.0333	sb8_1     =  0.0045	eb1_1     =  0.0540	eb2_1     = -3.6508	
eb3_1     = -4.2162	eb4_1     = -0.0637	eb5_1     = -4.3937	eb6_1     = -0.1114	eb7_1     =  0.0866	
eb8_1     = -3.7905	tb1_1     =  0.0233	tb2_1     = -1.1258	tb3_1     =  1.7363	tb4_1     =  0.0856	
tb5_1     = -1.7651	tb6_1     = -0.1156	tb7_1     =  0.1594	tb8_1     = -2.2711	

CDMFT iteration 99, distance =  1.09e+02, diff param =  5.57e-02, diff hybrid =  7.44e-02
96 minimization steps, time(MIN)/time(ED)=0.00249
sb1_1     = -0.1217	sb2_1     = -0.0036	sb3_1     =  0.0156	sb4_1     = -0.1210	sb5_1     =  0.0115	
sb6_1     = -0.1101	sb7_1     =  0.0334	sb8_1     = -0.0045	eb1_1     =  0.0539	eb2_1     = -3.6506	
eb3_1     = -4.3890	eb4_1     = -0.1110	eb5_1     = -4.2216	eb6_1     = -0.0639	eb7_1     =  0.0866	
eb8_1     = -3.7907	tb1_1     = -0.0234	tb2_1     = -1.1258	tb3_1     =  1.7642	tb4_1     =  0.1155	
tb5_1     = -1.7374	tb6_1     = -0.0856	tb7_1     =  0.1595	tb8_1     = -2.2711	

CDMFT iteration 100, distance =  1.09e+02, diff param =  5.51e-02, diff hybrid =  7.46e-02
90 minimization steps, time(MIN)/time(ED)=0.00248
sb1_1     = -0.1215	sb2_1     =  0.0036	sb3_1     =  0.0115	sb4_1     = -0.1100	sb5_1     =  0.0156	
sb6_1     = -0.1210	sb7_1     = -0.0333	sb8_1     =  0.0045	eb1_1     =  0.0536	eb2_1     = -3.6502	
eb3_1     = -4.2168	eb4_1     = -0.0637	eb5_1     = -4.3900	eb6_1     = -0.1110	eb7_1     =  0.0867	
eb8_1     = -3.7910	tb1_1     =  0.0233	tb2_1     = -1.1258	tb3_1     =  1.7365	tb4_1     =  0.0856	
tb5_1     = -1.7644	tb6_1     = -0.1154	tb7_1     =  0.1596	tb8_1     = -2.2712	

CDMFT iteration 101, distance =  1.09e+02, diff param =  5.46e-02, diff hybrid =  7.45e-02
118 minimization steps, time(MIN)/time(ED)=0.00248
sb1_1     = -0.1216	sb2_1     = -0.0036	sb3_1     =  0.0156	sb4_1     = -0.1210	sb5_1     =  0.0116	
sb6_1     = -0.1101	sb7_1     =  0.0333	sb8_1     = -0.0045	eb1_1     =  0.0538	eb2_1     = -3.6500	
eb3_1     = -4.3864	eb4_1     = -0.1109	eb5_1     = -4.2226	eb6_1     = -0.0638	eb7_1     =  0.0866	
eb8_1     = -3.7908	tb1_1     = -0.0234	tb2_1     = -1.1257	tb3_1     =  1.7638	tb4_1     =  0.1153	
tb5_1     = -1.7376	tb6_1     = -0.0855	tb7_1     =  0.1596	tb8_1     = -2.2711	
Traceback (most recent call last):
  File "/home/theod/code_pyqcm/simulations/cdmft_fade_with_mu.py", line 131, in <module>
    fade(fade_func, initial_P, material_P, 20+20*int(sys.argv[1]))
  File "/home/theod/.local/lib/python3.8/site-packages/pyqcm/loop.py", line 390, in fade
    F()
  File "/home/theod/code_pyqcm/simulations/cdmft_fade_with_mu.py", line 119, in fade_func
    cdmft(
  File "/home/theod/.local/lib/python3.8/site-packages/pyqcm/cdmft.py", line 514, in cdmft
    raise pyqcm.TooManyIterationsError(maxiter)
pyqcm.TooManyIterationsError: 100
