model	D	U	e	eb1_1	eb2_1	eb3_1	eb4_1	eb5_1	eb6_1	eb7_1	eb8_1	mu	sb1_1	sb2_1	sb3_1	sb4_1	sb5_1	sb6_1	sb7_1	sb8_1	tb1_1	tb2_1	tb3_1	tb4_1	tb5_1	tb6_1	tb7_1	tb8_1	tpd	tpp	tppp	ave_D_1	ave_U_1	ave_eb1_1	ave_eb2_1	ave_eb3_1	ave_eb4_1	ave_eb5_1	ave_eb6_1	ave_eb7_1	ave_eb8_1	ave_mu_1	ave_sb1_1	ave_sb2_1	ave_sb3_1	ave_sb4_1	ave_sb5_1	ave_sb6_1	ave_sb7_1	ave_sb8_1	ave_tb1_1	ave_tb2_1	ave_tb3_1	ave_tb4_1	ave_tb5_1	ave_tb6_1	ave_tb7_1	ave_tb8_1	var_D_1	var_U_1	var_eb1_1	var_eb2_1	var_eb3_1	var_eb4_1	var_eb5_1	var_eb6_1	var_eb7_1	var_eb8_1	var_mu_1	var_sb1_1	var_sb2_1	var_sb3_1	var_sb4_1	var_sb5_1	var_sb6_1	var_sb7_1	var_sb8_1	var_tb1_1	var_tb2_1	var_tb3_1	var_tb4_1	var_tb5_1	var_tb6_1	var_tb7_1	var_tb8_1	E0_1	sector_1	E0_2	sector_2	githash	distance	diff_param	diff_hybrid	time
2x2_2C_8b_C2v_L	0.1	14	1.93	0.0086839677	-3.1445289	-3.9164807	-0.13437878	-3.9164407	-0.13437791	0.17455273	-3.5797676	9.5	2.7540906e-05	-4.0887161e-07	0.0069035686	-0.19307525	0.0069033966	-0.1930765	-1.0933969e-05	2.552128e-06	-0.11908613	-1.0874005	1.7341014	0.025163995	-1.7340927	-0.025176042	0.26343251	-2.2991102	1.28	0.663	0.187	-0.043147346	0.13185934	0.13421925	1.9448554	1.7869546	1.7424987	1.7869547	1.7424904	0.014822092	1.5535603	1.1008188	-0.00021138519	4.8997281e-06	-0.089139665	1.0540974	-0.08914898	1.0541112	5.4070961e-05	1.7094806e-06	1.1156655	0.68220327	-1.63106	-0.23423063	1.6310533	0.23426454	-0.29478323	2.5541081	0.49216735	0.028620018	0.12477011	0.054151931	0.19480515	0.24591229	0.19480509	0.24591848	0.015064876	0.34634959	0.037277038	3.4589435	5.5445757	5.2979213	4.7343742	5.2979243	4.7343959	4.3935201	6.1467328	5.1373309	2.6768226	3.517	4.9129945	3.5169883	4.9129967	3.6850728	3.1699116	-73.504326	R0:S0:1	-60.56	uncorrelated	51514b8	 2.18e+01	 7.33e-01	 1.00e+06	2022-04-08@16:42
2x2_2C_8b_C2v_L	0.1	14	1.93	-0.067020825	-4.7813062	-5.6193163	-0.029810439	-5.6193492	-0.029799885	0.022108321	-5.2694652	9.5	-0.00051289613	0.00024419172	0.0039889735	-0.0043164002	0.0039899925	-0.0043104382	-0.057782104	-7.6158102e-06	-0.031524356	-0.77033126	1.1841098	0.04635803	-1.1841131	-0.046356598	5.3369935e-05	-1.5010044	1.28	0.663	0.187	-0.047414108	0.051928596	1.9998775	1.9796069	1.9527645	1.999638	1.9527674	1.9996381	0.0005682152	1.9109175	1.0514228	0.00095467929	-0.00022106655	-0.048971352	0.0020181862	-0.048971021	0.0020002553	0.096047092	5.1826027e-05	0.041006452	0.53014877	-0.84801341	-0.06969455	0.84797141	0.069689104	-3.3329812e-05	1.2104545	0.70421875	0.012406708	0.00012259114	0.020328489	0.046697553	0.00036824069	0.046694725	0.00036808831	0.00057414797	0.086552675	0.01239499	4.5546684	4.7013282	4.54179	4.1928119	4.5418991	4.1929466	4.112854	4.553339	3.4464062	3.4778036	3.8215498	3.8099521	3.821433	3.8098156	3.8908063	4.0198629	-83.046589	R0:S0:1	-60.56	uncorrelated	51514b8	 1.02e+00	 3.10e-01	 1.71e+00	2022-04-08@16:46
2x2_2C_8b_C2v_L	0.1	14	1.93	-0.068658474	-5.8316616	-6.3539756	-0.037258056	-6.3539208	-0.037187234	0.066139919	-5.589806	9.5	-0.0012313273	5.9877917e-05	0.0021139612	-0.0020642314	0.0021206146	-0.0024108952	0.0021188883	-3.4522007e-05	-0.00039962159	-0.8366937	1.2500782	0.0057537619	-1.2500737	-0.005851353	0.00046587495	-1.5400463	1.28	0.663	0.187	-0.046922425	0.050514212	1.9999997	1.9803097	1.9540407	1.9999947	1.9540422	1.9999943	7.5570316e-07	1.9120198	1.0500133	0.0020264036	-5.6382847e-05	-0.046073241	0.0021128587	-0.046077971	0.0025482742	-0.0034830113	3.9477182e-05	0.00051911647	0.52143183	-0.8372264	-0.0084706784	0.8372046	0.0085846359	-0.00044504531	1.203485	0.70573614	0.012087101	3.1869397e-07	0.019628636	0.045448458	5.3427816e-06	0.045447043	5.6644038e-06	7.5571839e-07	0.085517216	0.012073309	4.5474064	4.6901466	4.5270743	4.1847064	4.5271367	4.1847835	4.1166367	4.5428035	3.4525958	3.482735	3.8270371	3.8153353	3.826971	3.8152608	3.8833682	4.0247229	-88.827939	R0:S0:1	-60.56	uncorrelated	51514b8	 9.60e-01	 4.89e-05	 3.46e-02	2022-04-08@16:50
2x2_2C_8b_C2v_L	0.1	14	1.93	-0.068658486	-5.8316958	-6.3539738	-0.037258694	-6.3539192	-0.03718795	0.066139924	-5.5898498	10	-0.0012183305	3.9448588e-05	0.0020656073	-0.0020600696	0.002072198	-0.002405126	0.0021139915	6.8176197e-06	-0.00039404122	-0.83662807	1.2499869	0.0057511439	-1.2499817	-0.0058464587	0.0004652597	-1.5398845	1.28	0.663	0.187	-0.048517984	0.055047649	1.9999997	1.9787928	1.9501595	1.9999937	1.9501599	1.9999934	9.1218453e-07	1.9035572	1.0545257	0.0019290977	-2.9800768e-05	-0.048278942	0.0019496742	-0.048282459	0.0023625891	-0.0038380126	3.6777482e-06	0.00055462515	0.53813999	-0.8699863	-0.0093133354	0.8699803	0.0094361504	-0.0004216195	1.2597974	0.70223133	0.013118972	2.9319356e-07	0.021138872	0.049241223	6.3242561e-06	0.049240817	6.654745e-06	9.1220946e-07	0.093439371	0.013093622	4.5856924	4.7381865	4.5700872	4.2008438	4.5701041	4.2008639	4.1149433	4.6025648	3.4143096	3.4489414	3.8131327	3.7992055	3.8131146	3.7991879	3.8850625	4.0087885	-90.932138	R0:S0:1	-64.56	uncorrelated	51514b8	 1.22e+00	 1.41e-01	 1.00e+06	2022-04-08@16:53
2x2_2C_8b_C2v_L	0.1	14	1.93	-0.068774554	-6.023693	-6.5985945	-0.040763714	-6.5976229	-0.039502998	0.066283014	-6.1524326	10	-0.00011692123	0.00010688025	0.0021936801	0.00027735441	0.0022333911	-0.00034290088	-0.0020388366	-1.2114177e-05	0.00014480997	-0.81991691	1.2275618	-0.0034268475	-1.2274904	-0.0047348923	0.00028411827	-1.5483898	1.28	0.663	0.187	-0.048565154	0.050874633	2	1.9800279	1.9536055	1.9999979	1.9536038	1.9999959	8.4780084e-07	1.9120665	1.0503828	0.00017271822	-8.394048e-05	-0.046326588	1.3482793e-05	-0.046345827	-6.6037441e-05	0.0037243018	3.0972854e-05	-0.00020728874	0.52488444	-0.84091236	0.0056964341	0.84092113	0.0078767351	-0.00025395877	1.2035883	0.70518432	0.012182775	5.2268172e-09	0.019909084	0.045873531	2.140843e-06	0.045875164	4.0909031e-06	8.4781106e-07	0.085467432	0.012158929	4.5509907	4.6956416	4.5325709	4.1871677	4.5326338	4.1872341	4.1192319	4.5402064	3.4490093	3.4797975	3.8248819	3.812849	3.8248337	3.8127977	3.8807736	4.0266478	-93.313722	R0:S0:1	-64.56	uncorrelated	51514b8	 1.21e+00	 1.55e-04	 5.93e-02	2022-04-08@16:56
2x2_2C_8b_C2v_L	0.1	14	1.93	-0.068890622	-6.2160167	-6.8434928	-0.04426885	-6.8416162	-0.041818902	0.066426047	-6.7148514	10.5	0.00099729124	-2.8902001e-05	0.0019505686	0.0025968354	0.001924429	0.0017438162	-0.0062564283	-9.4750956e-06	0.00066105387	-0.80240396	1.2046276	-0.012319814	-1.2043946	-0.0031755024	0.00011180905	-1.5566836	1.28	0.663	0.187	-0.051115159	0.051261724	1.9999998	1.9797662	1.9531704	1.999965	1.9531904	1.9999972	1.0052125e-05	1.9120969	1.0507745	-0.0013429483	-1.0501181e-05	-0.047514393	-0.0014556801	-0.047486119	-0.0022407707	0.012861858	5.1784073e-05	-0.0010538351	0.52801881	-0.84459671	0.022840341	0.84431368	0.00615122	-9.5468808e-05	1.2038295	0.70452839	0.012290224	2.1288381e-07	0.020169641	0.046298646	3.5146793e-05	0.046279522	2.8183534e-06	1.0052337e-05	0.085433962	0.012257882	4.5548857	4.701299	4.537702	4.1895184	4.5384478	4.190305	4.1221172	4.5374555	3.4451159	3.4765601	3.8229858	3.8107551	3.8222108	3.8097167	3.8779471	4.0288077	-97.800016	R0:S0:1	-68.56	uncorrelated	51514b8	 1.80e+00	 3.33e-03	 1.00e+06	2022-04-08@17:00
2x2_2C_8b_C2v_L	0.1	14	1.93	-0.068891203	-6.2179719	-6.8461199	-0.04447074	-6.8441584	-0.041822417	0.066446632	-6.7126176	10.5	0.0002192904	3.6082967e-06	0.0021306186	-0.00012052282	0.0021258395	0.00054546909	-0.0080696831	1.5971135e-06	4.2989498e-06	-0.80466191	1.2075617	0.0017552978	-1.2074247	-0.00046975802	0.00015336361	-1.5549957	1.28	0.663	0.187	-0.051136451	0.05132424	2	1.9796455	1.9530022	1.9999993	1.9529964	1.9999999	1.6695245e-05	1.9122851	1.0508405	-0.00029494961	-3.2979204e-06	-0.047733296	-6.218233e-05	-0.04773395	-0.00064196857	0.016581989	8.7250603e-07	-6.851467e-06	0.52971787	-0.84599233	-0.0032778187	0.84604108	0.00094120398	-0.00012904352	1.2023358	0.7043566	0.012304106	6.188519e-09	0.020289392	0.046463086	7.0892199e-07	0.046468712	8.6018258e-08	1.6695849e-05	0.085258519	0.012272583	4.5532408	4.700547	4.5399178	4.1904582	4.5399833	4.190481	4.120712	4.5374132	3.4467592	3.4782673	3.8220112	3.8095473	3.8219891	3.8095197	3.8793948	4.0281001	-97.814221	R0:S0:1	-68.56	uncorrelated	51514b8	 1.79e+00	 0.00e+00	 2.32e-03	2022-04-08@17:03
2x2_2C_8b_C2v_L	0.1	14	1.93	-0.069008432	-6.4140427	-7.0961335	-0.048379599	-7.0930914	-0.044144924	0.066630862	-7.2706508	11	-0.0002289004	3.4453598e-05	0.0024331995	-0.0032267868	0.0024547759	0.00022324594	-0.015881403	1.5595174e-05	-0.00078166335	-0.79206576	1.1907503	0.020870042	-1.1906913	0.0062772089	5.9747401e-05	-1.5600194	1.28	0.663	0.187	-0.054994204	0.051973653	1.9999998	1.979091	1.9521589	1.9998695	1.952169	1.9999881	8.4360514e-05	1.9126801	1.0514984	0.00028561875	-7.7716733e-05	-0.050908407	0.00059456722	-0.050898627	0.00056282134	0.03727251	9.2897304e-05	0.0014092949	0.53681526	-0.85309507	-0.044159466	0.85282062	-0.013384503	-5.5174749e-05	1.199642	0.70306717	0.012479652	1.5215895e-07	0.020840526	0.047286758	0.00013140429	0.047277731	1.1943725e-05	8.4370253e-05	0.084886244	0.01244269	4.5541793	4.7053914	4.5493829	4.1951079	4.5509088	4.1961498	4.1206385	4.5347535	3.445822	3.478221	3.8184866	3.8059063	3.8171346	3.8039434	3.8798989	4.0287741	-102.33033	R0:S0:1	-72.56	uncorrelated	51514b8	 2.87e+00	 1.07e-01	 1.00e+06	2022-04-08@17:07
2x2_2C_8b_C2v_L	0.1	14	1.93	-0.069023955	-6.6062885	-7.3931285	-0.052376024	-7.3911686	-0.0441488	0.090274549	-7.0254031	11	-0.00042348413	2.9193105e-06	0.0023060133	-0.00026725614	0.002322034	5.0508679e-05	0.0020440021	-9.9614755e-05	3.5392945e-05	-0.80297038	1.2142159	0.0029390034	-1.2141891	0.00034769018	0.0038456949	-1.5349275	1.28	0.663	0.187	-0.054995125	0.051748777	2	1.9792619	1.9529553	1.9999974	1.9529371	2	2.0928505e-06	1.9115649	1.0512866	0.0005247959	-9.4869886e-06	-0.050389234	-0.00010886042	-0.050404883	-6.0810415e-06	-0.004759931	5.1032292e-05	-6.3909376e-05	0.53479979	-0.84626468	-0.0062267785	0.84644802	-0.00073598128	-0.0030397817	1.2064305	0.70385239	0.012429807	1.8895913e-08	0.020670196	0.046508572	2.5640827e-06	0.046526272	3.5908177e-08	2.095097e-06	0.085939693	0.012395502	4.5518229	4.7019006	4.5414239	4.1919592	4.5413854	4.1917671	4.1149512	4.5477301	3.4481772	3.480143	3.8206897	3.8080609	3.8208405	3.8082331	3.8850631	4.0226814	-103.42658	R0:S0:1	-72.56	uncorrelated	51514b8	 2.86e+00	 0.00e+00	 4.51e-03	2022-04-08@17:10
2x2_2C_8b_C2v_L	0.1	14	1.93	-0.069172811	-7.1888059	-8.2397592	-0.064479622	-8.2387983	-0.046482574	0.13776674	-7.0907072	11.5	-0.0020388432	3.2063346e-06	0.0025342718	-0.000171817	0.0025868971	-0.0018155361	0.028269837	-0.00030496434	0.00022678831	-0.81444141	1.24727	0.00026678161	-1.2474815	-0.0020586359	0.011365528	-1.4880797	1.28	0.663	0.187	-0.060534184	0.052277264	1.9999994	1.9789349	1.9534904	2	1.9534406	1.9999982	0.00035396868	1.9097886	1.0518483	0.0023995991	0.00015700239	-0.054444721	0.00011935897	-0.054470788	0.0013891771	-0.075313924	-2.8689226e-05	-0.00045905121	0.53924288	-0.84144873	-0.0006280894	0.84204921	0.0048043011	-0.0085249294	1.2165885	0.70362756	0.012595343	5.7199491e-07	0.020994318	0.045985435	2.8041613e-08	0.046033554	1.7952966e-06	0.00035645397	0.087617915	0.012562473	4.5487301	4.701249	4.5373874	4.192141	4.5364632	4.1907907	4.1017606	4.5715149	3.4512741	3.4834676	3.8205115	3.8078593	3.8216592	3.8092235	3.9004712	4.0101773	-110.15219	R0:S0:1	-76.56	uncorrelated	51514b8	 4.71e+00	 3.48e-02	 1.00e+06	2022-04-08@17:14
2x2_2C_8b_C2v_L	0.1	14	1.93	-0.069211332	-7.2200308	-8.2329212	-0.06483514	-8.2324586	-0.047491734	0.1391862	-7.2537862	11.5	0.00036018236	-2.9450743e-06	0.0026794358	-0.0064383926	0.0026114394	-0.0059743842	0.0012413554	-7.9095799e-06	3.4705529e-06	-0.81386841	1.2421157	-0.00086504332	-1.2421175	0.0015113955	-0.0003648458	-1.5083883	1.28	0.663	0.187	-0.060642027	0.051921802	2	1.979129	1.9537547	1.9999967	1.953749	1.9999962	6.732475e-07	1.9101604	1.0514818	-0.00041528282	4.0119266e-06	-0.054429893	0.0061558271	-0.054404757	0.0058388136	-0.0033073313	-1.9511078e-06	-7.243606e-06	0.53660494	-0.83923934	0.0031565059	0.83930247	-0.0047017196	0.0002705885	1.2149027	0.70390287	0.012516012	1.1547992e-08	0.020801794	0.045726965	3.2928714e-06	0.045732507	3.7844376e-06	6.7325239e-07	0.087264981	0.012480638	4.5506687	4.7017699	4.5338842	4.1904293	4.5338261	4.1903518	4.1076475	4.5641507	3.4493314	3.4814027	3.8220808	3.8095954	3.8221702	3.8096765	3.8923568	4.0150761	-110.517	R0:S0:1	-76.56	uncorrelated	51514b8	 4.73e+00	 0.00e+00	 4.97e-03	2022-04-08@17:18
2x2_2C_8b_C2v_L	0.1	14	1.93	-0.069453333	-8.059199	-9.3654979	-0.08184809	-9.3680282	-0.051851221	0.21318158	-7.3977668	12	0.0025702899	-1.3984858e-05	0.0032508862	-0.018633932	0.0029940557	-0.01752921	-0.010477623	0.00027671264	-9.1468227e-05	-0.837356	1.291261	-0.0096568422	-1.2912097	0.0030213581	-0.012478258	-1.4753781	1.28	0.663	0.187	-0.069062688	0.052036786	1.9999994	1.9792535	1.9552569	1.9998985	1.9552882	1.999961	7.0635772e-05	1.9079534	1.0516142	-0.0027961668	0.00011027465	-0.060575512	0.018454138	-0.060507355	0.016208356	0.032349007	-0.00024157415	0.00022026268	0.53500515	-0.82590231	0.032243674	0.82555716	-0.012847682	0.0087144631	1.2284369	0.70411649	0.012621234	5.9545354e-07	0.020677688	0.044257934	0.00010498292	0.044227665	4.0508068e-05	7.0902405e-05	0.089343284	0.012587677	4.5505957	4.7009118	4.5191611	4.1881173	4.5194501	4.1879706	4.0989854	4.587265	3.4494089	3.4812928	3.8252672	3.8126206	3.8248468	3.8123146	3.9014656	4.0052721	-119.0869	R0:S0:1	-80.56	uncorrelated	51514b8	 8.03e+00	 9.53e-02	 1.00e+06	2022-04-08@17:22
2x2_2C_8b_C2v_L	0.1	14	1.93	-0.069725052	-8.0777476	-9.246929	-0.14997782	-9.2459026	-0.11255559	0.21554412	-7.8196535	12	0.0029520151	1.2829937e-06	0.002428138	-0.01849045	0.0027482168	-0.016116246	-0.0082606641	-0.00010013687	-7.2676346e-05	-0.83569085	1.2789319	-0.0063439025	-1.2785513	0.0041136064	-0.0010790701	-1.5167209	1.28	0.663	0.187	-0.068961886	0.051422329	1.9999993	1.9794348	1.9551815	1.9999483	1.9552146	1.9999688	3.9883997e-05	1.9103888	1.0509862	-0.0031669203	-5.1780495e-05	-0.060184787	0.017330406	-0.060302819	0.014912694	0.025493284	0.00011833992	0.00017945877	0.53275668	-0.82658547	0.02188612	0.82617618	-0.015280864	0.00074959016	1.2134675	0.70407211	0.012481809	7.0629806e-07	0.020497753	0.044331992	5.2164578e-05	0.044299911	3.1520814e-05	3.9884878e-05	0.087051308	0.012444116	4.5494256	4.6984822	4.519774	4.1873955	4.5204305	4.1881761	4.1083328	4.562103	3.4505798	3.4821762	3.8252809	3.8129791	3.8244797	3.8120507	3.8919183	4.0162095	-119.74533	R0:S0:1	-80.56	uncorrelated	51514b8	 8.07e+00	 0.00e+00	 4.61e-03	2022-04-08@17:26
2x2_2C_8b_C2v_L	0.1	14	1.93	-0.070565116	-9.1794389	-10.435152	-0.30780405	-10.431501	-0.23934038	0.31934832	-8.7230051	12.5	0.0073520142	1.5603515e-05	0.00155212	-0.036423429	0.0027323661	-0.030375077	-0.026462056	-0.00037629663	-0.00019304775	-0.86843769	1.3246645	-0.013497574	-1.3234906	0.0081543228	0.001703022	-1.5599251	1.28	0.663	0.187	-0.082103433	0.050656346	1.999995	1.9801249	1.9570934	1.9997332	1.9571931	1.9998594	0.00056402134	1.9121896	1.0502009	-0.0074767539	-0.00027868005	-0.06939011	0.033234506	-0.06980578	0.027247822	0.095902357	0.00053990507	0.00060047052	0.52366309	-0.8091513	0.054406787	0.80783506	-0.036399598	-0.0011370756	1.2024938	0.70362245	0.01245642	4.9895913e-06	0.019812138	0.042461986	0.00027014083	0.042365361	0.00014243682	0.000563944	0.085353585	0.012416148	4.5504405	4.6947124	4.5015098	4.1854787	4.5041298	4.1879882	4.1165305	4.5417606	3.4496023	3.4803745	3.8287303	3.8164324	3.8257451	3.8130155	3.8869953	4.0258719	-131.1143	R0:S0:1	-84.56	uncorrelated	51514b8	 1.45e+01	 1.68e-03	 1.00e+06	2022-04-08@17:29
2x2_2C_8b_C2v_L	0.1	14	1.93	-0.070578188	-9.1795265	-10.434978	-0.30816228	-10.431266	-0.23962492	0.3194047	-8.7232285	12.5	0.0081449954	4.2403757e-06	0.001108649	-0.036220003	0.0022813196	-0.031551254	-0.026234219	0.00012854016	-0.00018922521	-0.86544403	1.323069	-0.013182548	-1.3223436	0.0084854787	0.0018878881	-1.5527303	1.28	0.663	0.187	-0.081975692	0.050386503	1.9999939	1.9802108	1.9572023	1.9997415	1.9572428	1.9998483	0.00055657095	1.9129658	1.049938	-0.0082552114	-9.306544e-05	-0.06901143	0.032965342	-0.069457784	0.028258746	0.09521876	7.9936079e-05	0.00058274327	0.52289837	-0.80806933	0.053307358	0.80750134	-0.03786689	-0.0012393572	1.1969671	0.70368154	0.012394386	6.0772889e-06	0.019726439	0.042355516	0.00026162708	0.042316272	0.00015381556	0.00055650124	0.084625031	0.01235543	4.5455855	4.689355	4.5012284	4.1859292	4.5025739	4.1868406	4.1151755	4.5376195	3.4544666	3.4848265	3.8282396	3.8159205	3.826785	3.81424	3.8883122	4.0261528	-131.10295	R0:S0:1	-84.56	uncorrelated	51514b8	 1.45e+01	 0.00e+00	 3.80e-03	2022-04-08@17:33
2x2_2C_8b_C2v_L	0.1	14	1.93	-0.07177074	-10.525367	-11.797067	-0.53938853	-11.788549	-0.42869971	0.45076793	-9.9645113	13	0.015939123	5.9270716e-06	-0.0012790313	-0.059627052	0.0012107479	-0.052279409	-0.052679309	0.00067812151	-0.00034617605	-0.90312795	1.3745269	-0.021380979	-1.3734943	0.014627012	0.0085360288	-1.6164165	1.28	0.663	0.187	-0.10493265	0.050064942	1.9999649	1.981374	1.9596586	1.9991011	1.9597136	1.9994133	0.0032133621	1.9173334	1.0495789	-0.016151442	-0.00052510346	-0.085046314	0.054825283	-0.085933698	0.047656663	0.22884077	0.00049587051	0.0015340109	0.50709161	-0.78437411	0.10368558	0.78339293	-0.080310764	-0.0055210777	1.1685212	0.70078822	0.012653931	3.5329002e-05	0.018570831	0.039951973	0.00091020304	0.039899046	0.00059553134	0.0032113372	0.080496902	0.012616001	4.5485553	4.6840376	4.482638	4.1923402	4.4863734	4.1944053	4.1258592	4.4937618	3.4518012	3.4808452	3.8273071	3.8140242	3.8236279	3.8097244	3.8941127	4.0433406	-144.59678	R0:S0:1	-88.56	uncorrelated	51514b8	 2.84e+01	 6.97e-02	 1.00e+06	2022-04-08@17:36
2x2_2C_8b_C2v_L	0.1	14	1.93	-0.1469843	-10.498572	-11.732596	-0.67418113	-11.71723	-0.58754919	0.60786746	-9.8018558	13	0.022865299	1.9183368e-05	-0.0060123777	-0.065006694	-0.0047871942	-0.060102834	-0.0037617934	0.0010368926	-0.00012884507	-0.90321092	1.3707194	-0.031177282	-1.3689225	0.028738798	0.066155788	-1.6086614	1.28	0.663	0.187	-0.10417152	0.050000989	1.9999599	1.9812399	1.9595571	1.9986088	1.9595883	1.9987121	0.00013669792	1.9157177	1.0494862	-0.021746203	-9.3670763e-05	-0.08292193	0.061398148	-0.083346175	0.057850276	0.015193923	-0.00026929859	0.0005547067	0.50926192	-0.78498168	0.13322534	0.78447175	-0.12810946	-0.040043252	1.179931	0.70024679	0.012628155	4.0330002e-05	0.018703718	0.040052512	0.0014039202	0.040022369	0.0013014889	0.00013712769	0.082029755	0.012599462	4.543198	4.6797536	4.4866428	4.1992069	4.4883166	4.200676	4.1314286	4.5060719	3.457221	3.4860734	3.8241049	3.8107322	3.822389	3.8085585	3.8696966	4.0430125	-144.68552	R0:S0:1	-88.56	uncorrelated	51514b8	 2.85e+01	 1.18e-03	 7.28e-03	2022-04-08@17:39
2x2_2C_8b_C2v_L	0.1	14	1.93	-0.14833288	-10.498093	-11.731456	-0.67641483	-11.715986	-0.59009339	0.61009938	-9.7991111	13	0.023292064	1.7480798e-05	-0.0061277374	-0.065309136	-0.004720334	-0.060604273	-0.0027713976	0.00062382316	-7.6868008e-05	-0.90311405	1.3709095	-0.030545058	-1.3691356	0.028022824	0.06759956	-1.6088052	1.28	0.663	0.187	-0.10411481	0.049998626	1.9999587	1.9812438	1.9595366	1.9986482	1.9595683	1.9987555	0.00013524203	1.9156611	1.0494818	-0.022137066	-0.00014459267	-0.082855868	0.061315814	-0.083331337	0.057868935	0.011209764	-3.5412392e-05	0.00035862634	0.50919102	-0.78520048	0.13102859	0.78466524	-0.12555114	-0.040899036	1.1803336	0.70028033	0.012626798	4.1547608e-05	0.018699894	0.040072575	0.0013643049	0.040041914	0.0012577626	0.00013557978	0.082083055	0.012598492	4.5434265	4.6799427	4.4866076	4.1986828	4.4884644	4.2003109	4.1315378	4.5064055	3.4570049	3.485857	3.824306	3.8109602	3.8224178	3.8085941	3.86959	4.0429694	-144.68725	R0:S0:1	-88.56	uncorrelated	51514b8	 2.85e+01	 0.00e+00	 2.96e-04	2022-04-08@17:42
2x2_2C_8b_C2v_L	0.1	14	1.93	-0.30298912	-12.033448	-13.136366	-1.2547355	-13.100062	-1.163961	1.0876282	-11.047301	13.5	0.048393221	4.1004261e-05	-0.019281021	-0.10575785	-0.018256744	-0.1032753	0.0621278	0.0013857121	0.00026439527	-0.94870092	1.4224535	-0.058431432	-1.4189274	0.062725642	0.19605595	-1.6849456	1.28	0.663	0.187	-0.1555989	0.055446714	1.9996749	1.9825242	1.9630081	1.9952614	1.9618112	1.9940925	0.0061063848	1.9184277	1.0546825	-0.049533323	0.021435323	-0.11593129	0.11453776	-0.12025879	0.11607447	-0.28257871	-0.034158196	-0.01716779	0.48941319	-0.74284159	0.24729762	0.76255121	-0.28413542	-0.12051207	1.1635555	0.68159698	0.014955888	0.00033094925	0.017429263	0.036689341	0.0047627498	0.037845228	0.0059432024	0.0063391521	0.079462413	0.014985895	4.5723676	4.6972949	4.5303279	4.3000475	4.4637502	4.2334102	4.150205	4.4656409	3.431668	3.459481	3.7549026	3.732877	3.8229845	3.8074169	3.8875737	4.0645445	-160.52965	R0:S0:1	-92.56	uncorrelated	51514b8	 7.21e+01	 1.79e-02	 1.00e+06	2022-04-08@17:45
2x2_2C_8b_C2v_L	0.1	14	1.93	-0.30484711	-12.033291	-13.135894	-1.2550354	-13.099617	-1.1646367	1.0964965	-11.047652	13.5	0.045836845	-0.00019137804	-0.023827669	-0.11080624	-0.024083629	-0.10459987	0.026866411	-0.010914602	0.0015809421	-0.94660168	1.4247731	-0.05835357	-1.42064	0.060330677	0.11855703	-1.6765201	1.28	0.663	0.187	-0.15118815	0.053700119	1.9997529	1.9825676	1.9623394	1.995117	1.9622962	1.9946428	0.0011067108	1.918988	1.0530462	-0.044785481	0.00093255986	-0.11278553	0.11530524	-0.1128115	0.11381543	-0.11068187	0.0024254243	-0.0085268383	0.48988537	-0.75353924	0.25320202	0.75443166	-0.2676953	-0.066504234	1.1605601	0.68553383	0.014446799	0.00025121569	0.017385296	0.037336962	0.0049132928	0.037377927	0.0053914781	0.0011205131	0.078935315	0.014447378	4.5585794	4.6843542	4.4972806	4.2620622	4.4929478	4.26152	4.1599367	4.4596149	3.4448051	3.4718958	3.7900527	3.771772	3.7940434	3.7759723	3.8479358	4.0716756	-160.51066	R0:S0:1	-92.56	uncorrelated	51514b8	 7.15e+01	 6.11e-03	 2.91e-02	2022-04-08@17:47
2x2_2C_8b_C2v_L	0.1	14	1.93	-0.31690321	-12.03137	-13.133459	-1.2604421	-13.096915	-1.1710375	1.1061837	-11.039282	13.5	0.046287831	-0.00017353002	-0.022503044	-0.11282122	-0.020951999	-0.10804412	0.0089820278	-0.0037356282	-0.00036648526	-0.94644668	1.4270069	-0.054747719	-1.4239963	0.052430058	0.1203344	-1.6776666	1.28	0.663	0.187	-0.15140745	0.053390233	1.9997663	1.9825609	1.9621458	1.9955006	1.9621022	1.9955382	0.0004371463	1.9187539	1.0527277	-0.044685353	0.0001394594	-0.11370246	0.11406028	-0.1142525	0.11144648	-0.036671317	0.0011827777	0.0012937997	0.49007796	-0.75589316	0.24224488	0.7562782	-0.2416308	-0.067048496	1.1622813	0.68587591	0.014381354	0.00023744566	0.017391919	0.037526175	0.0045295598	0.037568785	0.0044949022	0.00043952593	0.079157939	0.014383873	4.557044	4.6830034	4.4945759	4.2551318	4.4953206	4.2558434	4.1612245	4.4613053	3.4462124	3.4732732	3.7939424	3.7758364	3.7934954	3.775015	3.8425479	4.0719222	-160.53087	R0:S0:1	-92.56	uncorrelated	51514b8	 7.16e+01	 0.00e+00	 1.60e-03	2022-04-08@17:50
2x2_2C_8b_C2v_L	0.1	14	1.93	-0.57628918	-13.779358	-14.640984	-2.060244	-14.574055	-1.9824573	1.8076575	-12.44374	14	0.077132296	-0.00056879208	-0.048017271	-0.17875625	-0.046413675	-0.17387081	0.0090260572	-0.012949814	-0.001058077	-0.99544193	1.4913612	-0.085790533	-1.4869258	0.081707181	0.16009242	-1.7593145	1.28	0.663	0.187	-0.30672846	0.086989967	1.9970989	1.984732	1.967158	1.986437	1.9671585	1.9868779	0.00056436993	1.9201485	1.0861093	-0.12435073	-0.0065246755	-0.2254776	0.26100324	-0.22383608	0.25568618	-0.028889979	0.014455217	0.01175977	0.44709639	-0.68010218	0.40610029	0.67951814	-0.39835838	-0.078612759	1.1718858	0.59341856	0.028099346	0.0029641918	0.015243938	0.03266626	0.013565523	0.032667042	0.013130755	0.00056613979	0.077822983	0.028170901	4.7495929	4.8381338	4.6654978	4.551775	4.6722697	4.5559934	4.3067449	4.3351663	3.2995928	3.3118973	3.5725646	3.5297854	3.5672525	3.5238522	3.6989611	4.2004137	-178.65884	R0:S0:1	-96.56	uncorrelated	51514b8	 6.13e+02	 1.30e-02	 1.00e+06	2022-04-08@17:53
2x2_2C_8b_C2v_L	0.1	14	1.93	-0.58151851	-13.777397	-14.640305	-2.0550233	-14.573605	-1.9771499	1.8086286	-12.434397	14	0.084875397	1.4109564e-06	-0.065826497	-0.17978495	-0.062083667	-0.17467351	0.0067867247	-0.004201787	-0.00020788555	-1.0049764	1.4870702	-0.11145196	-1.4828501	0.10636113	0.20070609	-1.7715129	1.28	0.663	0.187	-0.30634752	0.089711536	1.9964115	1.9844886	1.9678574	1.9818051	1.9677215	1.9821121	0.00086782043	1.9189158	1.0887579	-0.13926688	-2.1099725e-05	-0.21694682	0.29079894	-0.21847453	0.28722931	-0.026170872	0.0011724307	0.00070499742	0.4498372	-0.67072963	0.47320583	0.67200414	-0.46868328	-0.099167164	1.1816006	0.58952636	0.028601898	0.0036790019	0.015486976	0.031981704	0.018148463	0.032115468	0.017848565	0.00087157636	0.078987234	0.028694133	4.7656111	4.8507548	4.6817443	4.5965332	4.6840118	4.5973162	4.3150537	4.3390451	3.2943028	3.3018622	3.5519903	3.5143918	3.5506596	3.5122645	3.6937883	4.202927	-178.65689	R0:S0:1	-96.56	uncorrelated	51514b8	 5.74e+02	 0.00e+00	 8.00e-03	2022-04-08@17:56
2x2_2C_8b_C2v_L	0.1	14	1.93	-0.94217878	-15.736174	-16.251997	-3.0601586	-16.146056	-3.0084306	2.7174341	-13.984457	14.5	0.13905476	0.00054230373	-0.1360981	-0.26620034	-0.12811534	-0.26049243	-0.0093573067	-0.00077465349	0.00039893112	-1.0787031	1.5510993	-0.20065778	-1.5456969	0.18981604	0.30871463	-1.890344	1.28	0.663	0.187	-0.29196274	0.44179888	1.9496278	1.9962215	1.9915975	1.9579925	1.9905622	1.9591179	0.001509501	1.900737	1.4408764	-1.0092711	-0.012873856	-0.11440488	0.90606924	-0.13823947	0.881266	0.082136268	0.053597973	0.019174846	0.11577673	-0.19674027	0.2984477	0.21969077	-0.31837874	-0.097302439	1.4846138	0.35000814	0.036147938	0.049022158	0.0038091977	0.0085444359	0.041212139	0.0095974742	0.040109268	0.0015282165	0.095708811	0.036419828	6.7391732	7.1354381	6.8593199	6.5294908	6.742814	6.4390785	5.5693299	3.4724916	1.3795461	0.93018987	1.2840571	1.5787623	1.4163848	1.6804497	2.4557928	5.1774489	-199.47119	R0:S0:1	-100.56	uncorrelated	51514b8	 2.06e+02	 1.52e-01	 1.00e+06	2022-04-08@17:58
2x2_2C_8b_C2v_L	0.1	14	1.93	-0.86375183	-15.725596	-16.261976	-2.9638474	-16.156585	-2.908371	2.6965587	-13.952056	14.5	0.007470962	-0.0092003203	-0.17233818	-0.163986	-0.16798415	-0.16515071	0.40526459	-0.015258296	-0.13166057	-0.95638343	1.3775604	-0.32947965	-1.3820443	0.31996298	0.015009454	-1.5652203	1.28	0.663	0.187	-0.39552901	0.42999839	1.989539	1.9961913	1.9928738	1.9605287	1.9927602	1.9603655	0.10866242	1.9352046	1.4295134	-0.052532	0.0081240366	-0.14957863	0.78504797	-0.15162085	0.79070867	-1.5077439	-0.0033939385	0.21181666	0.12932285	-0.19543667	0.42289335	0.19619777	-0.41900349	-0.015877057	1.1660949	0.32823041	0.052568607	0.010849649	0.0038350869	0.0072144314	0.039375689	0.0073309397	0.039510005	0.10394182	0.063267721	0.052702679	6.9755667	6.9312357	6.6263273	6.4114772	6.6402953	6.4202461	4.8498714	3.371209	1.2367293	1.1428129	1.474252	1.750103	1.4614699	1.7376673	3.7884579	5.0216006	-198.53366	R0:S0:1	-100.56	uncorrelated	51514b8	 2.22e+02	 1.75e-03	 2.51e-02	2022-04-08@18:01
2x2_2C_8b_C2v_L	0.1	14	1.93	-0.86401794	-15.725657	-16.262051	-2.9636633	-16.156655	-2.9081798	2.6960977	-13.952046	14.5	0.0076937467	-0.0093255793	-0.17113731	-0.16681688	-0.16735989	-0.16743055	0.40598723	-0.015997228	-0.12529601	-0.95379211	1.3763456	-0.32815225	-1.380863	0.31851497	0.013456488	-1.5659898	1.28	0.663	0.187	-0.39164513	0.43269061	1.9908056	1.996299	1.9930169	1.9604675	1.9928226	1.9603232	0.10939607	1.934943	1.4321974	-0.058071674	0.00626275	-0.14638558	0.79103658	-0.14935218	0.79433956	-1.5150083	0.0023521497	0.19606979	0.1260962	-0.19167112	0.41717688	0.19459952	-0.41592009	-0.0077124383	1.1701484	0.32935167	0.051898355	0.0095086602	0.0037269217	0.007070362	0.039431287	0.0072685106	0.039545138	0.10459546	0.063511116	0.052034644	6.9900358	6.9542689	6.6510803	6.4301661	6.6509182	6.4277129	4.8572222	3.3592174	1.1980701	1.1183971	1.4487509	1.728742	1.4514853	1.7299237	3.7816491	5.0327967	-198.53694	R0:S0:1	-100.56	uncorrelated	51514b8	 2.22e+02	 6.22e-02	 3.04e-03	2022-04-08@18:03
2x2_2C_8b_C2v_L	0.1	14	1.93	-0.82620844	-15.71259	-16.263036	-2.8915236	-16.158171	-2.8328288	2.5493361	-13.96163	14.5	0.12190946	-0.0033269156	-0.17666852	-0.19740659	-0.17336727	-0.19629641	0.38849134	0.0010170606	-0.0030280257	-1.0913706	1.4354481	-0.2904184	-1.4348002	0.28400027	-0.00097628281	-1.5767351	1.28	0.663	0.187	-0.34256965	0.44320146	1.9536838	1.9955215	1.9926768	1.9589691	1.9925272	1.9584818	0.11284771	1.9335186	1.4426253	-0.94946996	0.0018127205	-0.11646284	0.83600911	-0.11963796	0.8410944	-1.5448519	0.001063698	0.0055122199	0.13442008	-0.18975655	0.38132712	0.19233172	-0.38331586	0.0022392763	1.1887356	0.34123165	0.046435607	0.045267689	0.0045141425	0.0074237257	0.040710155	0.0075762611	0.041172274	0.10766793	0.064843268	0.04661906	6.6879287	7.0202086	6.7412798	6.4791395	6.7360818	6.4710263	4.8778964	3.3205193	1.4616847	1.0570592	1.3740276	1.6689026	1.3810058	1.6778127	3.7643128	5.0670839	-198.27511	R0:S0:1	-100.56	uncorrelated	51514b8	 2.15e+02	 7.49e-04	 1.45e-02	2022-04-08@18:06
2x2_2C_8b_C2v_L	0.1	14	1.93	-1.0506455	-17.836653	-18.001611	-3.7690709	-17.850589	-3.7372452	3.3269422	-15.621098	15	0.14962838	-0.0098167472	-0.35590907	-0.16307619	-0.35507171	-0.1699286	1.1521541	0.012012021	-0.0092836502	-1.2106068	1.2736176	-0.59367718	-1.2813683	0.58719388	-0.48443193	-1.0934403	1.28	0.663	0.187	-0.19164492	0.72539064	1.9630798	1.9989737	1.9972684	1.9878081	1.9988293	1.9678164	0.44921738	1.9853102	1.7243147	-1.0043545	-0.055785271	0.25844736	0.54549172	0.068630166	0.86524783	-2.397707	0.27332633	0.075639765	0.0335279	-0.014161886	0.041054373	0.021518882	-0.24531627	1.9540693	0.4473383	0.44130398	0.048610997	0.036106192	0.00103243	0.0027757745	0.013024687	0.0011828118	0.033734494	0.36198682	0.014638236	0.049053416	7.3047821	7.7247978	7.8171246	7.7089991	7.4428725	7.0868172	3.8261003	4.6023831	0.67542033	0.28473787	0.19461	0.30025281	0.57453159	0.97187526	4.8384587	3.4157283	-221.58249	R0:S0:1	-104.56	uncorrelated	51514b8	 1.37e+02	 2.39e-01	 1.00e+06	2022-04-08@18:09
2x2_2C_8b_C2v_L	0.1	14	1.93	-1.1149562	-17.837825	-18.006841	-3.796283	-17.856265	-3.760818	3.5724886	-15.609574	15	0.0071310101	-0.0061857889	0.0027864958	0.0076843821	-0.056366516	-0.038476716	0.50982429	-0.061876841	-0.1369536	-1.0078279	1.2270734	-0.46446285	-1.2485563	0.45048656	0.053569935	-1.555519	1.28	0.663	0.187	-0.3649613	0.960908	1.9998888	1.9999924	1.9986038	1.9968786	1.9991268	1.9931799	0.002128106	1.9998902	1.9609027	-0.055823114	0.0086385515	-0.1986964	0.29451139	-0.1494168	0.43797529	-0.0052887577	0.040150156	3.8607906e-05	0.00023419822	-0.041615783	0.062163751	0.032428858	-0.090655218	-0.24586977	0.00099652416	0.41119182	0.017439216	0.00011724652	7.6677674e-06	0.0014185826	0.0032825606	0.00088710145	0.0071319449	0.0022798384	0.0001120927	0.017446892	7.9966103	7.9979633	7.6655553	7.6318119	7.6814312	7.5874202	0.036039225	7.9890064	0.0032233104	0.0021266744	0.33515846	0.37013131	0.31935386	0.41225497	7.9624505	0.01127625	-220.05519	R0:S0:1	-104.56	uncorrelated	51514b8	 2.35e+02	 5.40e-02	 5.09e-01	2022-04-08@18:11
2x2_2C_8b_C2v_L	0.1	14	1.93	-1.0976934	-17.836386	-18.009251	-3.7439274	-17.859247	-3.7066274	3.4602129	-15.618102	15	-0.0041828946	0.005983794	-0.082144262	-0.052153161	-0.10718841	-0.066025863	0.5534995	0.025792812	-0.15850529	-0.97006682	1.1558847	-0.50447513	-1.1703944	0.49458038	-0.017942633	-1.4803373	1.28	0.663	0.187	-0.37349934	0.95668462	1.9999493	1.9999936	1.9993666	1.9896554	1.9994503	1.9876745	0.00027895544	1.9999683	1.9566778	0.03436867	-0.0059562504	-0.11986038	0.53460668	-0.10504615	0.58362512	-0.0010103691	-0.019412664	0.00026904759	0.00021525254	-0.028918875	0.11755813	0.02712842	-0.13045787	0.084487619	0.00041369919	0.40489612	0.018709362	5.4182611e-05	6.4642192e-06	0.00064111695	0.010916938	0.00055602838	0.012969031	0.00030307213	3.2463445e-05	0.018718802	7.9972722	7.9979515	7.6517912	7.5022472	7.6398405	7.4630108	0.0064462802	7.9969516	0.0026811861	0.0021551982	0.34903713	0.49744486	0.36103925	0.53572261	7.9941382	0.0034057345	-219.84886	R0:S0:1	-104.56	uncorrelated	51514b8	 2.33e+02	 3.21e-04	 1.15e-02	2022-04-08@18:14
2x2_2C_8b_C2v_L	0.1	14	1.93	-1.3963092	-20.14907	-19.878991	-4.6130637	-19.676851	-4.5992396	4.5424189	-17.403707	15.5	-0.28507514	0.027805549	0.21791924	0.2545286	0.13711592	0.21247796	0.50353206	0.072179245	-0.46595245	-0.63636341	0.64689696	-0.75115012	-0.68845608	0.73697997	0.15323202	-1.4823272	1.28	0.663	0.187	0.00046166676	0.94326507	1.8215173	1.9994526	1.9992369	1.9815099	1.9996186	1.9888432	0.010993313	1.9986755	1.9432004	1.9201345	0.040143178	-0.15199165	-0.72286677	-0.10626994	-0.56325092	-0.063613062	-0.17957704	0.58058224	0.038158293	-0.0011573711	0.030647227	0.0033364108	-0.0064422665	-0.5643248	0.024110448	0.4943637	0.015516246	0.19568155	0.0005474023	0.0007657931	0.019984369	0.00038300303	0.012097291	0.011384274	0.0013533328	0.015567638	5.5727061	7.3243764	7.9172456	7.7028245	7.9496856	7.8247893	0.26008591	7.8656504	2.3797423	0.67545846	0.082466038	0.28391399	0.050242696	0.16529401	7.73325	0.13512279	-243.9878	R0:S0:1	-108.56	uncorrelated	51514b8	 1.18e+02	 2.54e-01	 1.00e+06	2022-04-08@18:16
2x2_2C_8b_C2v_L	0.1	14	1.93	-1.6867177	-20.142085	-19.873474	-4.8116585	-19.670928	-4.771603	4.5170567	-17.40257	15.5	-0.00047019883	0.00040809392	0.021338511	0.013959728	0.022490648	0.014413069	0.61978546	-0.017478352	0.17292504	-1.0151505	1.165809	-0.56222497	-1.1710977	0.55430552	0.011985842	-1.5084598	1.28	0.663	0.187	-0.18877686	0.9906025	1.9999997	1.9999999	1.9996718	1.9995956	1.9996565	1.9996127	4.3244306e-05	1.9999918	1.9906017	0.0026580803	-0.00038762311	-0.10004664	0.10900243	-0.10237347	0.10664626	-3.9002825e-05	0.015142942	-5.0732196e-06	5.2576006e-06	-0.0099189977	0.010971555	0.010156965	-0.010744978	-0.035459527	3.4196839e-05	0.47666467	0.0045330391	3.3661539e-07	1.2123725e-07	0.00033248079	0.00042480451	0.00034806743	0.00040652697	4.6216865e-05	8.4360629e-06	0.0045343511	7.9999329	7.9999434	7.9190251	7.9158195	7.9186055	7.91599	0.00073441969	7.9996726	6.3690107e-05	6.0897206e-05	0.080949422	0.084334784	0.081365577	0.084166676	7.9992575	0.00034000697	-244.75747	R0:S0:1	-108.56	uncorrelated	51514b8	 1.29e+02	 4.08e-04	 2.67e-01	2022-04-08@18:18
