model	E_kin	D	U	e	eb1_1	eb2_1	eb3_1	eb4_1	eb5_1	eb6_1	eb7_1	eb8_1	mu	sb1_1	sb2_1	sb3_1	sb4_1	sb5_1	sb6_1	sb7_1	sb8_1	tb1_1	tb2_1	tb3_1	tb4_1	tb5_1	tb6_1	tb7_1	tb8_1	tpd	tpp	tppp	ave_D	ave_e	ave_mu	ave_tpd	ave_tpp	ave_tppp	ave_D_1	ave_U_1	ave_eb1_1	ave_eb2_1	ave_eb3_1	ave_eb4_1	ave_eb5_1	ave_eb6_1	ave_eb7_1	ave_eb8_1	ave_mu_1	ave_sb1_1	ave_sb2_1	ave_sb3_1	ave_sb4_1	ave_sb5_1	ave_sb6_1	ave_sb7_1	ave_sb8_1	ave_tb1_1	ave_tb2_1	ave_tb3_1	ave_tb4_1	ave_tb5_1	ave_tb6_1	ave_tb7_1	ave_tb8_1	var_D_1	var_U_1	var_eb1_1	var_eb2_1	var_eb3_1	var_eb4_1	var_eb5_1	var_eb6_1	var_eb7_1	var_eb8_1	var_mu_1	var_sb1_1	var_sb2_1	var_sb3_1	var_sb4_1	var_sb5_1	var_sb6_1	var_sb7_1	var_sb8_1	var_tb1_1	var_tb2_1	var_tb3_1	var_tb4_1	var_tb5_1	var_tb6_1	var_tb7_1	var_tb8_1	E0_1	sector_1	E0_2	sector_2	githash	iterations	dist_function	distance	diff_hybrid	time
2x2_2C_8b_C2v_L	6.4341035	0.1	14	1.93	-0.068658474	-5.8316616	-6.3539756	-0.037258056	-6.3539208	-0.037187234	0.066139919	-5.589806	9.5	-0.0012313273	5.9877917e-05	0.0021139612	-0.0020642314	0.0021206146	-0.0024108952	0.0021188883	-3.4522007e-05	-0.00039962159	-0.8366937	1.2500782	0.0057537619	-1.2500737	-0.005851353	0.00046587495	-1.5400463	1.28	0.663	0.187	-0.021169577	1.3168643	1.6665667	-0.29163232	-0.037003034	0.016536922	-0.046922425	0.050514212	1.9999997	1.9803097	1.9540407	1.9999947	1.9540422	1.9999943	7.5570316e-07	1.9120198	1.0500133	0.0020264036	-5.6382847e-05	-0.046073241	0.0021128587	-0.046077971	0.0025482742	-0.0034830113	3.9477182e-05	0.00051911647	0.52143183	-0.8372264	-0.0084706784	0.8372046	0.0085846359	-0.00044504531	1.203485	0.70573614	0.012087101	3.1869397e-07	0.019628636	0.045448458	5.3427816e-06	0.045447043	5.6644038e-06	7.5571839e-07	0.085517216	0.012073309	4.5474064	4.6901466	4.5270743	4.1847064	4.5271367	4.1847835	4.1166367	4.5428035	3.4525958	3.482735	3.8270371	3.8153353	3.826971	3.8152608	3.8833682	4.0247229	-88.827939	R0:S0:1	-60.56	uncorrelated	51514b8	2	sharp_wc_2.0_b_50	 9.60e-01	 3.46e-02	2022-04-08@16:50
2x2_2C_8b_C2v_L	6.4334956	0.1	14	1.93	-0.068774554	-6.023693	-6.5985945	-0.040763714	-6.5976229	-0.039502998	0.066283014	-6.1524326	10	-0.00011692123	0.00010688025	0.0021936801	0.00027735441	0.0022333911	-0.00034290088	-0.0020388366	-1.2114177e-05	0.00014480997	-0.81991691	1.2275618	-0.0034268475	-1.2274904	-0.0047348923	0.00028411827	-1.5483898	1.28	0.663	0.187	-0.02187719	1.3168578	1.6665487	-0.29171715	-0.037021975	0.016546374	-0.048565154	0.050874633	2	1.9800279	1.9536055	1.9999979	1.9536038	1.9999959	8.4780084e-07	1.9120665	1.0503828	0.00017271822	-8.394048e-05	-0.046326588	1.3482793e-05	-0.046345827	-6.6037441e-05	0.0037243018	3.0972854e-05	-0.00020728874	0.52488444	-0.84091236	0.0056964341	0.84092113	0.0078767351	-0.00025395877	1.2035883	0.70518432	0.012182775	5.2268172e-09	0.019909084	0.045873531	2.140843e-06	0.045875164	4.0909031e-06	8.4781106e-07	0.085467432	0.012158929	4.5509907	4.6956416	4.5325709	4.1871677	4.5326338	4.1872341	4.1192319	4.5402064	3.4490093	3.4797975	3.8248819	3.812849	3.8248337	3.8127977	3.8807736	4.0266478	-93.313722	R0:S0:1	-64.56	uncorrelated	51514b8	1	sharp_wc_2.0_b_50	 1.21e+00	 5.93e-02	2022-04-08@16:57
2x2_2C_8b_C2v_L	6.4330734	0.1	14	1.93	-0.068891203	-6.2179719	-6.8461199	-0.04447074	-6.8441584	-0.041822417	0.066446632	-6.7126176	10.5	0.0002192904	3.6082967e-06	0.0021306186	-0.00012052282	0.0021258395	0.00054546909	-0.0080696831	1.5971135e-06	4.2989498e-06	-0.80466191	1.2075617	0.0017552978	-1.2074247	-0.00046975802	0.00015336361	-1.5549957	1.28	0.663	0.187	-0.023009257	1.3168559	1.6665763	-0.29173196	-0.037030247	0.016549956	-0.051136451	0.05132424	2	1.9796455	1.9530022	1.9999993	1.9529964	1.9999999	1.6695245e-05	1.9122851	1.0508405	-0.00029494961	-3.2979204e-06	-0.047733296	-6.218233e-05	-0.04773395	-0.00064196857	0.016581989	8.7250603e-07	-6.851467e-06	0.52971787	-0.84599233	-0.0032778187	0.84604108	0.00094120398	-0.00012904352	1.2023358	0.7043566	0.012304106	6.188519e-09	0.020289392	0.046463086	7.0892199e-07	0.046468712	8.6018258e-08	1.6695849e-05	0.085258519	0.012272583	4.5532408	4.700547	4.5399178	4.1904582	4.5399833	4.190481	4.120712	4.5374132	3.4467592	3.4782673	3.8220112	3.8095473	3.8219891	3.8095197	3.8793948	4.0281001	-97.814221	R0:S0:1	-68.56	uncorrelated	51514b8	1	sharp_wc_2.0_b_50	 1.79e+00	 2.32e-03	2022-04-08@17:03
2x2_2C_8b_C2v_L	6.4334176	0.1	14	1.93	-0.069023955	-6.6062885	-7.3931285	-0.052376024	-7.3911686	-0.0441488	0.090274549	-7.0254031	11	-0.00042348413	2.9193105e-06	0.0023060133	-0.00026725614	0.002322034	5.0508679e-05	0.0020440021	-9.9614755e-05	3.5392945e-05	-0.80297038	1.2142159	0.0029390034	-1.2141891	0.00034769018	0.0038456949	-1.5349275	1.28	0.663	0.187	-0.024698578	1.3168704	1.6666986	-0.29154762	-0.03699523	0.016531419	-0.054995125	0.051748777	2	1.9792619	1.9529553	1.9999974	1.9529371	2	2.0928505e-06	1.9115649	1.0512866	0.0005247959	-9.4869886e-06	-0.050389234	-0.00010886042	-0.050404883	-6.0810415e-06	-0.004759931	5.1032292e-05	-6.3909376e-05	0.53479979	-0.84626468	-0.0062267785	0.84644802	-0.00073598128	-0.0030397817	1.2064305	0.70385239	0.012429807	1.8895913e-08	0.020670196	0.046508572	2.5640827e-06	0.046526272	3.5908177e-08	2.095097e-06	0.085939693	0.012395502	4.5518229	4.7019006	4.5414239	4.1919592	4.5413854	4.1917671	4.1149512	4.5477301	3.4481772	3.480143	3.8206897	3.8080609	3.8208405	3.8082331	3.8850631	4.0226814	-103.42658	R0:S0:1	-72.56	uncorrelated	51514b8	1	sharp_wc_2.0_b_50	 2.86e+00	 4.51e-03	2022-04-08@17:10
2x2_2C_8b_C2v_L	6.4338269	0.1	14	1.93	-0.069211332	-7.2200308	-8.2329212	-0.06483514	-8.2324586	-0.047491734	0.1391862	-7.2537862	11.5	0.00036018236	-2.9450743e-06	0.0026794358	-0.0064383926	0.0026114394	-0.0059743842	0.0012413554	-7.9095799e-06	3.4705529e-06	-0.81386841	1.2421157	-0.00086504332	-1.2421175	0.0015113955	-0.0003648458	-1.5083883	1.28	0.663	0.187	-0.027160805	1.3168907	1.666865	-0.29130016	-0.036948099	0.016506936	-0.060642027	0.051921802	2	1.979129	1.9537547	1.9999967	1.953749	1.9999962	6.732475e-07	1.9101604	1.0514818	-0.00041528282	4.0119266e-06	-0.054429893	0.0061558271	-0.054404757	0.0058388136	-0.0033073313	-1.9511078e-06	-7.243606e-06	0.53660494	-0.83923934	0.0031565059	0.83930247	-0.0047017196	0.0002705885	1.2149027	0.70390287	0.012516012	1.1547992e-08	0.020801794	0.045726965	3.2928714e-06	0.045732507	3.7844376e-06	6.7325239e-07	0.087264981	0.012480638	4.5506687	4.7017699	4.5338842	4.1904293	4.5338261	4.1903518	4.1076475	4.5641507	3.4493314	3.4814027	3.8220808	3.8095954	3.8221702	3.8096765	3.8923568	4.0150761	-110.517	R0:S0:1	-76.56	uncorrelated	51514b8	1	sharp_wc_2.0_b_50	 4.73e+00	 4.97e-03	2022-04-08@17:18
2x2_2C_8b_C2v_L	6.4336847	0.1	14	1.93	-0.069725052	-8.0777476	-9.246929	-0.14997782	-9.2459026	-0.11255559	0.21554412	-7.8196535	12	0.0029520151	1.2829937e-06	0.002428138	-0.01849045	0.0027482168	-0.016116246	-0.0082606641	-0.00010013687	-7.2676346e-05	-0.83569085	1.2789319	-0.0063439025	-1.2785513	0.0041136064	-0.0010790701	-1.5167209	1.28	0.663	0.187	-0.030799163	1.3169074	1.6670133	-0.29109188	-0.036916692	0.016489743	-0.068961886	0.051422329	1.9999993	1.9794348	1.9551815	1.9999483	1.9552146	1.9999688	3.9883997e-05	1.9103888	1.0509862	-0.0031669203	-5.1780495e-05	-0.060184787	0.017330406	-0.060302819	0.014912694	0.025493284	0.00011833992	0.00017945877	0.53275668	-0.82658547	0.02188612	0.82617618	-0.015280864	0.00074959016	1.2134675	0.70407211	0.012481809	7.0629806e-07	0.020497753	0.044331992	5.2164578e-05	0.044299911	3.1520814e-05	3.9884878e-05	0.087051308	0.012444116	4.5494256	4.6984822	4.519774	4.1873955	4.5204305	4.1881761	4.1083328	4.562103	3.4505798	3.4821762	3.8252809	3.8129791	3.8244797	3.8120507	3.8919183	4.0162095	-119.74533	R0:S0:1	-80.56	uncorrelated	51514b8	1	sharp_wc_2.0_b_50	 8.07e+00	 4.61e-03	2022-04-08@17:26
2x2_2C_8b_C2v_L	6.4327027	0.1	14	1.93	-0.070578188	-9.1795265	-10.434978	-0.30816228	-10.431266	-0.23962492	0.3194047	-8.7232285	12.5	0.0081449954	4.2403757e-06	0.001108649	-0.036220003	0.0022813196	-0.031551254	-0.026234219	0.00012854016	-0.00018922521	-0.86544403	1.323069	-0.013182548	-1.3223436	0.0084854787	0.0018878881	-1.5527303	1.28	0.663	0.187	-0.03650375	1.3169197	1.6671314	-0.29092563	-0.036903283	0.016477802	-0.081975692	0.050386503	1.9999939	1.9802108	1.9572023	1.9997415	1.9572428	1.9998483	0.00055657095	1.9129658	1.049938	-0.0082552114	-9.306544e-05	-0.06901143	0.032965342	-0.069457784	0.028258746	0.09521876	7.9936079e-05	0.00058274327	0.52289837	-0.80806933	0.053307358	0.80750134	-0.03786689	-0.0012393572	1.1969671	0.70368154	0.012394386	6.0772889e-06	0.019726439	0.042355516	0.00026162708	0.042316272	0.00015381556	0.00055650124	0.084625031	0.01235543	4.5455855	4.689355	4.5012284	4.1859292	4.5025739	4.1868406	4.1151755	4.5376195	3.4544666	3.4848265	3.8282396	3.8159205	3.826785	3.81424	3.8883122	4.0261528	-131.10295	R0:S0:1	-84.56	uncorrelated	51514b8	1	sharp_wc_2.0_b_50	 1.45e+01	 3.80e-03	2022-04-08@17:33
2x2_2C_8b_C2v_L	6.4309612	0.1	14	1.93	-0.14833288	-10.498093	-11.731456	-0.67641483	-11.715986	-0.59009339	0.61009938	-9.7991111	13	0.023292064	1.7480798e-05	-0.0061277374	-0.065309136	-0.004720334	-0.060604273	-0.0027713976	0.00062382316	-7.6868008e-05	-0.90311405	1.3709095	-0.030545058	-1.3691356	0.028022824	0.06759956	-1.6088052	1.28	0.663	0.187	-0.046357574	1.3169347	1.6675416	-0.29062723	-0.036909219	0.016466332	-0.10411481	0.049998626	1.9999587	1.9812438	1.9595366	1.9986482	1.9595683	1.9987555	0.00013524203	1.9156611	1.0494818	-0.022137066	-0.00014459267	-0.082855868	0.061315814	-0.083331337	0.057868935	0.011209764	-3.5412392e-05	0.00035862634	0.50919102	-0.78520048	0.13102859	0.78466524	-0.12555114	-0.040899036	1.1803336	0.70028033	0.012626798	4.1547608e-05	0.018699894	0.040072575	0.0013643049	0.040041914	0.0012577626	0.00013557978	0.082083055	0.012598492	4.5434265	4.6799427	4.4866076	4.1986828	4.4884644	4.2003109	4.1315378	4.5064055	3.4570049	3.485857	3.824306	3.8109602	3.8224178	3.8085941	3.86959	4.0429694	-144.68725	R0:S0:1	-88.56	uncorrelated	51514b8	2	sharp_wc_2.0_b_50	 2.85e+01	 2.96e-04	2022-04-08@17:42
2x2_2C_8b_C2v_L	6.4287268	0.1	14	1.93	-0.31690321	-12.03137	-13.133459	-1.2604421	-13.096915	-1.1710375	1.1061837	-11.039282	13.5	0.046287831	-0.00017353002	-0.022503044	-0.11282122	-0.020951999	-0.10804412	0.0089820278	-0.0037356282	-0.00036648526	-0.94644668	1.4270069	-0.054747719	-1.4239963	0.052430058	0.1203344	-1.6776666	1.28	0.663	0.187	-0.067258465	1.3169829	1.6693098	-0.28962734	-0.036943437	0.01643968	-0.15140745	0.053390233	1.9997663	1.9825609	1.9621458	1.9955006	1.9621022	1.9955382	0.0004371463	1.9187539	1.0527277	-0.044685353	0.0001394594	-0.11370246	0.11406028	-0.1142525	0.11144648	-0.036671317	0.0011827777	0.0012937997	0.49007796	-0.75589316	0.24224488	0.7562782	-0.2416308	-0.067048496	1.1622813	0.68587591	0.014381354	0.00023744566	0.017391919	0.037526175	0.0045295598	0.037568785	0.0044949022	0.00043952593	0.079157939	0.014383873	4.557044	4.6830034	4.4945759	4.2551318	4.4953206	4.2558434	4.1612245	4.4613053	3.4462124	3.4732732	3.7939424	3.7758364	3.7934954	3.775015	3.8425479	4.0719222	-160.53087	R0:S0:1	-92.56	uncorrelated	51514b8	2	sharp_wc_2.0_b_50	 7.16e+01	 1.60e-03	2022-04-08@17:50
2x2_2C_8b_C2v_L	6.4367107	0.1	14	1.93	-0.58151851	-13.777397	-14.640305	-2.0550233	-14.573605	-1.9771499	1.8086286	-12.434397	14	0.084875397	1.4109564e-06	-0.065826497	-0.17978495	-0.062083667	-0.17467351	0.0067867247	-0.004201787	-0.00020788555	-1.0049764	1.4870702	-0.11145196	-1.4828501	0.10636113	0.20070609	-1.7715129	1.28	0.663	0.187	-0.13410444	1.3173362	1.68416	-0.28270771	-0.037210956	0.016355821	-0.30634752	0.089711536	1.9964115	1.9844886	1.9678574	1.9818051	1.9677215	1.9821121	0.00086782043	1.9189158	1.0887579	-0.13926688	-2.1099725e-05	-0.21694682	0.29079894	-0.21847453	0.28722931	-0.026170872	0.0011724307	0.00070499742	0.4498372	-0.67072963	0.47320583	0.67200414	-0.46868328	-0.099167164	1.1816006	0.58952636	0.028601898	0.0036790019	0.015486976	0.031981704	0.018148463	0.032115468	0.017848565	0.00087157636	0.078987234	0.028694133	4.7656111	4.8507548	4.6817443	4.5965332	4.6840118	4.5973162	4.3150537	4.3390451	3.2943028	3.3018622	3.5519903	3.5143918	3.5506596	3.5122645	3.6937883	4.202927	-178.65689	R0:S0:1	-96.56	uncorrelated	51514b8	1	sharp_wc_2.0_b_50	 5.74e+02	 8.00e-03	2022-04-08@17:56
2x2_2C_8b_C2v_L	6.7689288	0.1	14	1.93	-0.82620844	-15.71259	-16.263036	-2.8915236	-16.158171	-2.8328288	2.5493361	-13.96163	14.5	0.12190946	-0.0033269156	-0.17666852	-0.19740659	-0.17336727	-0.19629641	0.38849134	0.0010170606	-0.0030280257	-1.0913706	1.4354481	-0.2904184	-1.4348002	0.28400027	-0.00097628281	-1.5767351	1.28	0.663	0.187	-0.20510684	1.3219506	1.8254524	-0.19948862	-0.033201682	0.015047173	-0.34256965	0.44320146	1.9536838	1.9955215	1.9926768	1.9589691	1.9925272	1.9584818	0.11284771	1.9335186	1.4426253	-0.94946996	0.0018127205	-0.11646284	0.83600911	-0.11963796	0.8410944	-1.5448519	0.001063698	0.0055122199	0.13442008	-0.18975655	0.38132712	0.19233172	-0.38331586	0.0022392763	1.1887356	0.34123165	0.046435607	0.045267689	0.0045141425	0.0074237257	0.040710155	0.0075762611	0.041172274	0.10766793	0.064843268	0.04661906	6.6879287	7.0202086	6.7412798	6.4791395	6.7360818	6.4710263	4.8778964	3.3205193	1.4616847	1.0570592	1.3740276	1.6689026	1.3810058	1.6778127	3.7643128	5.0670839	-198.27511	R0:S0:1	-100.56	uncorrelated	51514b8	3	sharp_wc_2.0_b_50	 2.15e+02	 1.45e-02	2022-04-08@18:06
2x2_2C_8b_C2v_L	7.1168865	0.1	14	1.93	-1.0976934	-17.836386	-18.009251	-3.7439274	-17.859247	-3.7066274	3.4602129	-15.618102	15	-0.0041828946	0.005983794	-0.082144262	-0.052153161	-0.10718841	-0.066025863	0.5534995	0.025792812	-0.15850529	-0.97006682	1.1558847	-0.50447513	-1.1703944	0.49458038	-0.017942633	-1.4803373	1.28	0.663	0.187	-0.24100965	1.3266435	1.913078	-0.11807808	-0.022479928	0.010794611	-0.37349934	0.95668462	1.9999493	1.9999936	1.9993666	1.9896554	1.9994503	1.9876745	0.00027895544	1.9999683	1.9566778	0.03436867	-0.0059562504	-0.11986038	0.53460668	-0.10504615	0.58362512	-0.0010103691	-0.019412664	0.00026904759	0.00021525254	-0.028918875	0.11755813	0.02712842	-0.13045787	0.084487619	0.00041369919	0.40489612	0.018709362	5.4182611e-05	6.4642192e-06	0.00064111695	0.010916938	0.00055602838	0.012969031	0.00030307213	3.2463445e-05	0.018718802	7.9972722	7.9979515	7.6517912	7.5022472	7.6398405	7.4630108	0.0064462802	7.9969516	0.0026811861	0.0021551982	0.34903713	0.49744486	0.36103925	0.53572261	7.9941382	0.0034057345	-219.84886	R0:S0:1	-104.56	uncorrelated	51514b8	2	sharp_wc_2.0_b_50	 2.33e+02	 1.15e-02	2022-04-08@18:14
2x2_2C_8b_C2v_L	7.660779	0.1	14	1.93	-1.6867177	-20.142085	-19.873474	-4.8116585	-19.670928	-4.771603	4.5170567	-17.40257	15.5	-0.00047019883	0.00040809392	0.021338511	0.013959728	0.022490648	0.014413069	0.61978546	-0.017478352	0.17292504	-1.0151505	1.165809	-0.56222497	-1.1710977	0.55430552	0.011985842	-1.5084598	1.28	0.663	0.187	-0.12472363	1.3330913	1.9933857	-0.0051577371	-0.00038067911	0.00028633274	-0.18877686	0.9906025	1.9999997	1.9999999	1.9996718	1.9995956	1.9996565	1.9996127	4.3244306e-05	1.9999918	1.9906017	0.0026580803	-0.00038762311	-0.10004664	0.10900243	-0.10237347	0.10664626	-3.9002825e-05	0.015142942	-5.0732196e-06	5.2576006e-06	-0.0099189977	0.010971555	0.010156965	-0.010744978	-0.035459527	3.4196839e-05	0.47666467	0.0045330391	3.3661539e-07	1.2123725e-07	0.00033248079	0.00042480451	0.00034806743	0.00040652697	4.6216865e-05	8.4360629e-06	0.0045343511	7.9999329	7.9999434	7.9190251	7.9158195	7.9186055	7.91599	0.00073441969	7.9996726	6.3690107e-05	6.0897206e-05	0.080949422	0.084334784	0.081365577	0.084166676	7.9992575	0.00034000697	-244.75747	R0:S0:1	-108.56	uncorrelated	51514b8	1	sharp_wc_2.0_b_50	 1.29e+02	 2.67e-01	2022-04-08@18:18
