model	D	U	e	eb1_1	eb2_1	eb3_1	eb4_1	eb5_1	eb6_1	eb7_1	eb8_1	mu	sb1_1	sb2_1	sb3_1	sb4_1	sb5_1	sb6_1	sb7_1	sb8_1	tb1_1	tb2_1	tb3_1	tb4_1	tb5_1	tb6_1	tb7_1	tb8_1	tpd	tpp	tppp	ave_D_1	ave_U_1	ave_eb1_1	ave_eb2_1	ave_eb3_1	ave_eb4_1	ave_eb5_1	ave_eb6_1	ave_eb7_1	ave_eb8_1	ave_mu_1	ave_sb1_1	ave_sb2_1	ave_sb3_1	ave_sb4_1	ave_sb5_1	ave_sb6_1	ave_sb7_1	ave_sb8_1	ave_tb1_1	ave_tb2_1	ave_tb3_1	ave_tb4_1	ave_tb5_1	ave_tb6_1	ave_tb7_1	ave_tb8_1	var_D_1	var_U_1	var_eb1_1	var_eb2_1	var_eb3_1	var_eb4_1	var_eb5_1	var_eb6_1	var_eb7_1	var_eb8_1	var_mu_1	var_sb1_1	var_sb2_1	var_sb3_1	var_sb4_1	var_sb5_1	var_sb6_1	var_sb7_1	var_sb8_1	var_tb1_1	var_tb2_1	var_tb3_1	var_tb4_1	var_tb5_1	var_tb6_1	var_tb7_1	var_tb8_1	E0_1	sector_1	E0_2	sector_2	githash	distance	diff_param	diff_hybrid	time
2x2_2C_8b_C2v_L	0.1	14	2.1	0.0086839677	-3.1445289	-3.9164807	-0.13437878	-3.9164407	-0.13437791	0.17455273	-3.5797676	9.5	2.7540906e-05	-4.0887161e-07	0.0069035686	-0.19307525	0.0069033966	-0.1930765	-1.0933969e-05	2.552128e-06	-0.11908613	-1.0874005	1.7341014	0.025163995	-1.7340927	-0.025176042	0.26343251	-2.2991102	1.25	0.612	0.144	-0.043147346	0.13185934	0.13421925	1.9448554	1.7869546	1.7424987	1.7869547	1.7424904	0.014822092	1.5535603	1.1008188	-0.00021138519	4.8997281e-06	-0.089139665	1.0540974	-0.08914898	1.0541112	5.4070961e-05	1.7094806e-06	1.1156655	0.68220327	-1.63106	-0.23423063	1.6310533	0.23426454	-0.29478323	2.5541081	0.49216735	0.028620018	0.12477011	0.054151931	0.19480515	0.24591229	0.19480509	0.24591848	0.015064876	0.34634959	0.037277038	3.4589435	5.5445757	5.2979213	4.7343742	5.2979243	4.7343959	4.3935201	6.1467328	5.1373309	2.6768226	3.517	4.9129945	3.5169883	4.9129967	3.6850728	3.1699116	-73.504326	R0:S0:1	-59.2	uncorrelated	51514b8	 1.95e+01	 7.13e-01	 1.00e+06	2022-04-08@16:42
2x2_2C_8b_C2v_L	0.1	14	2.1	0.04752371	-4.7155821	-5.5554528	-0.035002987	-5.5554596	-0.034999991	0.025060796	-5.221291	9.5	0.028257434	9.8609927e-05	0.0038998209	-0.0047100599	0.0039017807	-0.0047069278	0.055624547	3.1585633e-05	-0.0004160259	-0.75319167	1.1597409	0.044971781	-1.1597362	-0.044983615	1.3669798e-06	-1.4676891	1.25	0.612	0.144	-0.047368156	0.050459401	0.00010091808	1.9800238	1.9539402	1.9996587	1.953941	1.9996587	0.00052832253	1.9138388	1.0499836	-0.037295842	-7.8525772e-05	-0.048148066	0.0026002942	-0.048147733	0.0025884967	-0.092603307	-1.1826198e-05	0.00077642199	0.52614355	-0.8379201	-0.067797668	0.83791166	0.067815602	-2.5192455e-05	1.1896693	0.70519267	0.012076438	0.00010099627	0.019912787	0.045547564	0.00034560985	0.045546854	0.00034565258	0.00053281965	0.083810827	0.012068637	3.4653351	4.6798672	4.5289188	4.1881406	4.5289284	4.1881557	4.1075081	4.5379995	4.5355446	3.495076	3.8255088	3.8144784	3.8254954	3.8144631	3.8959229	4.0207547	-82.370881	R0:S0:1	-59.2	uncorrelated	51514b8	 8.75e-01	 2.81e-01	 1.73e+00	2022-04-08@16:46
2x2_2C_8b_C2v_L	0.1	14	2.1	0.048335468	-5.6722018	-6.2088852	-0.039279631	-6.2087787	-0.039286823	0.058378629	-5.5535889	9.5	-0.00027887196	0.00018814753	0.0018477143	-0.0051740408	0.0018242164	-0.0049070247	0.00018508091	4.2300282e-05	-0.00011939224	-0.81250675	1.2179299	-0.00042235982	-1.217916	0.0020285467	-4.1818384e-05	-1.5078385	1.25	0.612	0.144	-0.046871661	0.049181121	1.2524552e-08	1.9806894	1.9550407	1.9999964	1.9550422	1.999996	5.8760063e-09	1.9148763	1.0487066	0.00036751542	-0.00014380055	-0.045288262	0.0066114323	-0.045269942	0.0064213078	-0.00030555054	1.0773969e-05	0.00019396979	0.51768107	-0.82850644	0.0011224891	0.8284846	-0.0035261811	4.0063414e-05	1.1831408	0.70654498	0.011786518	1.2524558e-08	0.019250156	0.044470069	3.59105e-06	0.044468577	4.024319e-06	5.8760075e-09	0.082832542	0.011776326	3.470044	4.6703981	4.5160663	4.1807214	4.5161201	4.180797	4.1121412	4.5270624	4.5299561	3.498685	3.8304358	3.8193067	3.8303776	3.8192342	3.8878588	4.0260851	-87.641875	R0:S0:1	-59.2	uncorrelated	51514b8	 8.33e-01	 8.22e-05	 3.20e-02	2022-04-08@16:49
2x2_2C_8b_C2v_L	0.1	14	2.1	0.048335468	-5.6723323	-6.2089063	-0.039280308	-6.2088009	-0.039287704	0.058378629	-5.5536076	10	-0.00026332259	1.8112939e-05	0.0018608621	-0.0051178246	0.0018353321	-0.0048520506	0.00018554886	4.9264353e-06	-0.00011417795	-0.81230499	1.217756	-0.00042171552	-1.2177333	0.0020129891	-4.1860647e-05	-1.5077923	1.25	0.612	0.144	-0.048522936	0.053652482	1.268595e-08	1.9791682	1.9511819	1.9999968	1.9511834	1.9999962	7.1572749e-09	1.9066134	1.0531585	0.00037648323	-1.3991949e-05	-0.047589091	0.006254453	-0.047572494	0.0060906631	-0.00033856079	1.8211911e-06	0.0001785289	0.53477616	-0.86148541	0.0012165821	0.86146948	-0.0038364418	3.8043582e-05	1.2390017	0.70303778	0.012807764	1.2685951e-08	0.020764576	0.048242501	3.2349106e-06	0.048241117	3.8384047e-06	7.1572769e-09	0.090588559	0.012786332	3.4325255	4.7177844	4.5588804	4.1967609	4.5588964	4.1968009	4.110465	4.5856859	4.5674746	3.4655145	3.8165509	3.8032643	3.8165278	3.8032287	3.889535	4.0109199	-89.743566	R0:S0:1	-63.2	uncorrelated	51514b8	 1.09e+00	 1.53e-01	 1.00e+06	2022-04-08@16:52
2x2_2C_8b_C2v_L	0.1	14	2.1	0.048880889	-5.9140677	-6.5348529	-0.045237449	-6.5348283	-0.045010991	0.058377375	-6.0933346	10	-2.0005086e-05	-2.6571101e-06	0.001991245	-0.0034709057	0.0020468037	-0.0039958061	0.0003957351	-2.6390143e-05	-5.2812376e-05	-0.79957025	1.2030843	-0.00066738361	-1.2031347	0.0010419557	0.00080756587	-1.5132534	1.25	0.612	0.144	-0.048574657	0.049482682	4.7863886e-10	1.9804035	1.9547366	1.9999986	1.9547304	1.999998	7.3936961e-08	1.9148958	1.0490202	2.9086758e-05	1.2450089e-06	-0.04556779	0.0040887755	-0.045595592	0.0047336801	-0.00072611097	1.1873371e-05	7.7048313e-05	0.52132152	-0.83109029	0.0014615021	0.83115896	-0.0021411071	-0.00072244727	1.1832464	0.70609807	0.011869291	4.7863886e-10	0.019534566	0.044766904	1.4070323e-06	0.044772833	1.9821776e-06	7.3940288e-08	0.082809891	0.011849877	3.4675615	4.6748588	4.5202166	4.1827633	4.5201529	4.1826553	4.1135167	4.5257476	4.5324385	3.4967629	3.8286313	3.8172475	3.8287266	3.8173599	3.8864838	4.0270822	-92.525264	R0:S0:1	-63.2	uncorrelated	51514b8	 1.08e+00	 1.53e-04	 5.79e-02	2022-04-08@16:56
2x2_2C_8b_C2v_L	0.1	14	2.1	0.04942631	-6.156158	-6.8610346	-0.051195859	-6.8611035	-0.050736218	0.058376107	-6.6329449	10.5	0.00022662807	-1.8836586e-05	0.0018779125	-0.0016235428	0.0018479836	-0.0028918989	0.00061777323	-5.6905598e-06	1.4732014e-05	-0.78579534	1.1880423	-0.00086390937	-1.1880333	-1.3778473e-05	0.0016829342	-1.5182868	1.25	0.612	0.144	-0.051199111	0.049791258	9.8041175e-09	1.9801422	1.9544331	1.9999996	1.9544357	1.9999993	2.5636689e-07	1.9149378	1.049337	-0.00036760941	1.0722063e-05	-0.046826651	0.0018298668	-0.046813145	0.003089808	-0.0012760957	2.8262396e-06	-1.9553851e-05	0.52460317	-0.83365469	0.00180374	0.8336258	-0.00029092379	-0.0014140274	1.1832089	0.70555543	0.011959553	9.804118e-09	0.019794558	0.045063488	4.4427933e-07	0.04506101	7.2169998e-07	2.5642696e-07	0.082766996	0.011932485	3.4650683	4.6791583	4.5242204	4.184758	4.5242537	4.1848095	4.1151014	4.5240963	4.5349318	3.4948145	3.8269007	3.8152453	3.8268548	3.8151961	3.8849005	4.028318	-97.408616	R0:S0:1	-67.2	uncorrelated	51514b8	 1.64e+00	 6.79e-04	 1.00e+06	2022-04-08@16:59
2x2_2C_8b_C2v_L	0.1	14	2.1	0.049971731	-6.3984942	-7.187357	-0.057154218	-7.1875084	-0.056462286	0.058374777	-7.172176	11	0.00037292237	2.416525e-05	0.002260806	0.000479652	0.002335271	-0.0012344585	0.00091516045	-5.3202474e-06	7.3846203e-05	-0.77767154	1.178896	-0.00086630504	-1.1789658	-0.0010063563	0.0028149134	-1.5211569	1.25	0.612	0.144	-0.055156168	0.050344851	3.4516311e-08	1.9795474	1.9537271	1.9999998	1.9537197	1.9999996	6.7338811e-07	1.9152939	1.049902	-0.0006849889	-1.0251923e-05	-0.050050656	-0.00036643603	-0.050085453	0.0011004814	-0.0021600529	-1.5241718e-06	-9.005002e-05	0.5324348	-0.83963199	0.0017927186	0.83971718	0.0019959434	-0.0022392361	1.1805504	0.70442518	0.012114388	3.4516329e-08	0.02038551	0.045753763	2.2812832e-07	0.045760988	3.7131993e-07	6.7399011e-07	0.082431958	0.01208264	3.4654521	4.6830197	4.532912	4.1888894	4.532815	4.1887312	4.1137381	4.5229626	4.5345482	3.4960228	3.8232705	3.8111124	3.8234037	3.8112718	3.8862668	4.0279415	-102.30307	R0:S0:1	-71.2	uncorrelated	51514b8	 2.64e+00	 2.22e-04	 1.00e+06	2022-04-08@17:02
2x2_2C_8b_C2v_L	0.1	14	2.1	0.050517151	-6.6413735	-7.5142854	-0.063112577	-7.5145354	-0.062188654	0.058373353	-7.7108427	11.5	0.000395995	-5.6677949e-07	0.0022646353	0.0025115128	0.0021916565	0.00060511544	0.0013227096	-1.4080213e-05	0.00011632422	-0.76764031	1.1683228	-0.00066618105	-1.1682722	-0.001760237	0.0043323857	-1.5244045	1.25	0.612	0.144	-0.06077902	0.050927973	5.2175576e-08	1.9790256	1.9530997	1.9999995	1.9531095	1.9999987	1.6353484e-06	1.915566	1.050493	-0.00083814089	-5.3995927e-06	-0.054699478	-0.0022429189	-0.054663294	-0.00084761656	-0.0036437544	1.5352227e-05	-0.00013154574	0.53914198	-0.84485161	0.001253351	0.84474495	0.0044714819	-0.0032726947	1.1785994	0.70314053	0.012292172	5.2175682e-08	0.020904084	0.046367489	4.9568202e-07	0.046358014	1.3485421e-06	1.6402125e-06	0.082175737	0.01225612	3.4648734	4.6873149	4.5407985	4.1929391	4.5408862	4.1931183	4.1132892	4.5216265	4.535127	3.4962523	3.8197789	3.8070649	3.8196392	3.8068922	3.8867223	4.0281594	-107.19732	R0:S0:1	-75.2	uncorrelated	51514b8	 4.37e+00	 8.21e-05	 1.00e+06	2022-04-08@17:05
2x2_2C_8b_C2v_L	0.1	14	2.1	0.051062572	-6.8845373	-7.8414808	-0.069071607	-7.8418178	-0.067915698	0.058372088	-8.2490546	12	0.00033683549	-3.8549776e-06	0.0026698495	0.0045102362	0.0026314727	0.0026431731	0.0018335542	-4.8654374e-05	0.00014699324	-0.75932981	1.1595612	-0.0003179777	-1.1595424	-0.0023410861	0.0062185834	-1.5277923	1.25	0.612	0.144	-0.069223016	0.051754556	5.3232474e-08	1.9783738	1.9523416	1.9999989	1.9523474	1.9999959	3.8085684e-06	1.915834	1.0513265	-0.00084104126	-1.1626584e-06	-0.062398169	-0.0039300536	-0.062375705	-0.0028430393	-0.0060638544	2.617175e-05	-0.00015544188	0.54740724	-0.85098243	-2.4483854e-05	0.85092374	0.0074956977	-0.0044821572	1.1765976	0.70123225	0.012556384	5.323272e-08	0.021551708	0.047109322	1.1188526e-06	0.047103677	4.1407055e-06	3.8408002e-06	0.08192467	0.012517192	3.46425	4.6926003	4.5510179	4.1988748	4.5510308	4.1989833	4.1123314	4.5208698	4.5357505	3.4966473	3.8147288	3.8011338	3.8146796	3.8010482	3.8876944	4.0280971	-112.09741	R0:S0:1	-79.2	uncorrelated	51514b8	 7.42e+00	 1.76e-03	 1.00e+06	2022-04-08@17:08
2x2_2C_8b_C2v_L	0.1	14	2.1	0.051062572	-6.8860769	-7.8433821	-0.069089307	-7.8437108	-0.067923184	0.058472764	-8.2460859	12	-7.1590373e-05	-4.2377852e-06	0.0026770218	0.001710191	0.0026718847	0.0012150708	0.0030316037	-0.00013631677	2.591575e-05	-0.75945896	1.1592903	0.00021094671	-1.1593039	-1.5162312e-05	0.012435905	-1.5274107	1.25	0.612	0.144	-0.069237864	0.051738963	2.5277319e-09	1.9783709	1.9523768	1.9999998	1.9523796	1.9999999	1.2621737e-05	1.9158321	1.0513106	0.0001791801	3.7462287e-07	-0.062391561	-0.001560691	-0.062386003	-0.0010800296	-0.010034938	6.4053077e-05	-2.7580466e-05	0.54745003	-0.85068266	-0.00099049088	0.85065253	0.0003043832	-0.0089650214	1.1765903	0.70126262	0.01255301	2.5277323e-09	0.021554592	0.047074978	2.2657602e-07	0.047072205	8.6322951e-08	1.2975812e-05	0.081926621	0.012514048	3.4643713	4.6925019	4.5506468	4.1987474	4.5506663	4.1987864	4.1122088	4.5210055	4.5356287	3.4967648	3.8148403	3.8012543	3.8148052	3.8012142	3.8878764	4.0279885	-112.10145	R0:S0:1	-79.2	uncorrelated	51514b8	 7.42e+00	 0.00e+00	 6.51e-04	2022-04-08@17:12
2x2_2C_8b_C2v_L	0.1	14	2.1	0.051607993	-7.132642	-8.1746682	-0.075083933	-8.1750711	-0.073665903	0.058672798	-8.7780264	12.5	-0.0010215692	-1.0377354e-05	0.0030950154	-0.0017962693	0.0031425448	0.00068342316	0.0060023595	-0.00034736622	-0.00019289587	-0.75248129	1.1514148	0.0017574059	-1.1514824	0.0041423372	0.026975105	-1.5293688	1.25	0.612	0.144	-0.082343111	0.052894449	8.689561e-07	1.9776	1.9516015	1.9999975	1.9515858	1.9999847	7.7159888e-05	1.9161711	1.052471	0.0031483949	0.00011579201	-0.07457455	0.0009764127	-0.074592953	0.0007098725	-0.02503576	1.9780808e-05	0.00018136531	0.55707803	-0.85659017	-0.0058674393	0.85680173	-0.014966135	-0.018696508	1.1739998	0.69832618	0.012957814	8.6896536e-07	0.022320414	0.047834709	2.47877e-06	0.047849723	1.5264113e-05	8.8902848e-05	0.081610211	0.012917662	3.4640244	4.6984183	4.5628997	4.2074289	4.5624011	4.2068753	4.1106873	4.5204217	4.5359833	3.4976437	3.807556	3.7925911	3.8080921	3.7932453	3.8897505	4.0277943	-117.0144	R0:S0:1	-83.2	uncorrelated	51514b8	 1.32e+01	 2.64e-03	 1.00e+06	2022-04-08@17:16
2x2_2C_8b_C2v_L	0.1	14	2.1	0.051607773	-7.1330728	-8.1751303	-0.075084422	-8.175541	-0.073666909	0.060489997	-8.7770954	12.5	-0.00062973549	-5.8628079e-06	0.0031444285	-0.0016335602	0.003130984	0.00051122664	0.0027109582	-0.00027565698	-0.00015684693	-0.75161271	1.1510439	0.0011720683	-1.1510246	0.0028093865	0.014820323	-1.5293002	1.25	0.612	0.144	-0.082365467	0.05286118	2.8511802e-07	1.9776597	1.9516232	1.9999989	1.9516334	1.9999931	1.6451346e-05	1.9161471	1.0524401	0.0019230451	-2.9740675e-05	-0.074593122	0.0010212596	-0.074577447	0.00044412543	-0.011222311	0.00015809539	0.00015541125	0.55632685	-0.85646554	-0.0037761268	0.85635247	-0.010124148	-0.01023916	1.174242	0.6983637	0.012950756	2.8512008e-07	0.022261147	0.047813385	1.0837635e-06	0.047803523	6.8992154e-06	1.7128162e-05	0.081632433	0.012909532	3.4637406	4.6982757	4.5622152	4.2068581	4.5623336	4.2071005	4.111156	4.520179	4.5362619	3.4973018	3.8080487	3.7931507	3.8078756	3.7929541	3.8889512	4.0281286	-117.01376	R0:S0:1	-83.2	uncorrelated	51514b8	 1.32e+01	 0.00e+00	 2.64e-03	2022-04-08@17:19
2x2_2C_8b_C2v_L	0.1	14	2.1	0.052152754	-7.382409	-8.5095903	-0.081098079	-8.5100831	-0.079419853	0.064425113	-9.3037682	13	-0.0012948865	-5.1246368e-06	0.0037590539	-0.0075703482	0.0037099912	-0.0015155184	0.00038617458	-0.00044133655	-0.00043530674	-0.74410502	1.1435528	0.0022422433	-1.1434467	0.0067687749	0.011578595	-1.5303838	1.25	0.612	0.144	-0.10477852	0.054768195	1.9275477e-06	1.9769009	1.9509001	1.9999939	1.9509181	1.9999243	5.2699227e-06	1.9164492	1.0543544	0.0050562268	-0.00011434506	-0.095698056	0.0051923427	-0.095643887	0.0048292045	-0.0021147793	0.00032751938	0.00042028216	0.56549841	-0.86121075	-0.0067523679	0.8610354	-0.033261431	-0.0077134359	1.1721804	0.6929647	0.013697413	1.9276774e-06	0.023015435	0.048525064	6.111814e-06	0.048507439	7.5682228e-05	5.300332e-06	0.081351854	0.013654519	3.4612735	4.7063443	4.577745	4.2210762	4.577728	4.2218923	4.1114995	4.5186195	4.5387439	3.4963695	3.7963169	3.778975	3.7961732	3.7787077	3.8885356	4.0297717	-121.93584	R0:S0:1	-87.2	uncorrelated	51514b8	 2.56e+01	 1.79e-03	 1.00e+06	2022-04-08@17:24
2x2_2C_8b_C2v_L	0.1	14	2.1	0.052152017	-7.3827062	-8.5098486	-0.081121346	-8.5103421	-0.079428368	0.064684545	-9.3022905	13	-0.0008128725	1.0802401e-06	0.0038189836	-0.0080187618	0.0037232067	-0.0022991558	0.00050911194	-0.00014805236	-0.0004364391	-0.74442473	1.1439967	0.00080075361	-1.1438323	0.0047136075	0.019700439	-1.5307953	1.25	0.612	0.144	-0.10479901	0.054793901	8.2278557e-07	1.9768845	1.950867	1.9999969	1.9508906	1.9999607	1.474442e-05	1.9163869	1.0543782	0.0031896293	-3.5999554e-05	-0.095774049	0.0063146072	-0.095705738	0.0044132457	-0.0028080732	0.00010714268	0.00042029348	0.56567146	-0.86149695	0.00039319739	0.86126631	-0.023828968	-0.013120729	1.1726126	0.69295148	0.01370337	8.2283655e-07	0.023031769	0.048557367	3.1090241e-06	0.048534434	3.9291014e-05	1.4953495e-05	0.081410698	0.013660874	3.4610086	4.7067145	4.5779919	4.2211986	4.5780057	4.2217487	4.111475	4.5190647	4.5389988	3.4961486	3.7963001	3.778826	3.7961194	3.7785605	3.8886224	4.0296645	-121.93608	R0:S0:1	-87.2	uncorrelated	51514b8	 2.56e+01	 0.00e+00	 1.20e-03	2022-04-08@17:28
2x2_2C_8b_C2v_L	0.1	14	2.1	0.052695305	-7.6349772	-8.8475371	-0.087200081	-8.8481139	-0.085207561	0.071056406	-9.8216714	13.5	-0.00062100139	1.6591359e-05	0.0047006871	-0.017445414	0.0044485526	-0.0072160765	-0.0035739352	0.00024649708	-0.00081286075	-0.73789504	1.1381488	-0.00090299729	-1.1377268	0.0056975007	0.027076254	-1.5318961	1.25	0.612	0.144	-0.15044764	0.059516468	1.163836e-06	1.9760974	1.9503243	1.9999274	1.9503829	1.9998257	0.00010060367	1.9164311	1.0591024	0.0034282764	-0.00026682155	-0.13913762	0.017378281	-0.13896152	0.013293772	0.029975686	0.00024152784	0.00083804493	0.57416899	-0.86219108	0.026100459	0.86159824	-0.047973969	-0.017715133	1.1734139	0.6790183	0.015693575	1.1640724e-06	0.023816351	0.049103929	7.6054389e-05	0.049047035	0.0001756893	0.00011553814	0.081376108	0.015651495	3.4484304	4.7254159	4.6063978	4.2582876	4.6066263	4.2592094	4.1190026	4.5140246	4.5515811	3.4865055	3.767885	3.7422709	3.7672541	3.7421737	3.8815062	4.0380629	-126.87171	R0:S0:1	-91.2	uncorrelated	51514b8	 6.11e+01	 6.44e-02	 1.00e+06	2022-04-08@17:33
2x2_2C_8b_C2v_L	0.1	14	2.1	0.088230584	-7.6471499	-8.8507983	-0.1528756	-8.8511355	-0.15207147	0.34276139	-9.7019574	13.5	0.00039580722	-2.6804354e-05	0.003672597	-0.024749729	0.0040448081	-0.025360841	0.00090240721	-0.00022384146	0.013977115	-0.73846302	1.1391206	-0.0064058701	-1.139376	0.0043473805	0.052322877	-1.5272305	1.25	0.612	0.144	-0.15087808	0.059993661	2.9936868e-05	1.9761657	1.9503085	1.999594	1.9502878	1.9997105	9.938652e-05	1.9150677	1.0595584	-0.0021080874	-3.1339502e-08	-0.13924677	0.030056008	-0.1394326	0.028426559	-0.0058982259	0.00010980093	-0.014212957	0.57285563	-0.86212618	0.069207053	0.86228983	-0.056410554	-0.033003685	1.1829938	0.67865941	0.015811171	3.0337496e-05	0.02374907	0.049120353	0.00041948667	0.049140516	0.00029961605	0.00010021053	0.082661779	0.015773418	3.4430382	4.7301661	4.6077814	4.2633972	4.6080762	4.2623185	4.1203312	4.5230953	4.5574543	3.4814158	3.7665734	3.7395827	3.7664975	3.7397855	3.8805724	4.0363736	-126.94203	R0:S0:1	-91.2	uncorrelated	51514b8	 6.16e+01	 2.79e-03	 4.18e-03	2022-04-08@17:36
2x2_2C_8b_C2v_L	0.1	14	2.1	0.090122517	-7.6481477	-8.8513275	-0.15651505	-8.8516814	-0.15574544	0.35189544	-9.6958586	13.5	-0.00030161661	2.0634633e-05	0.0037196021	-0.025258115	0.0034632265	-0.02485004	-0.00060951071	0.00010251618	0.017193308	-0.73839124	1.1392065	-0.0068230233	-1.1390421	0.0086899464	0.052913972	-1.5270252	1.25	0.612	0.144	-0.15100344	0.060090696	4.8388244e-05	1.9761813	1.9503193	1.9995454	1.9503329	1.9994104	0.00010106219	1.9149845	1.0596538	0.0016127674	1.2270749e-05	-0.13940993	0.031234714	-0.13927817	0.032857258	0.0039551763	-7.120725e-05	-0.017593934	0.57261189	-0.86193253	0.072450375	0.86185657	-0.084284441	-0.033357914	1.1836217	0.67849036	0.015835875	4.927372e-05	0.023733736	0.049110099	0.00046915226	0.049096636	0.00060796296	0.0001018309	0.082739989	0.015798382	3.4423879	4.7307051	4.6084745	4.264652	4.6080003	4.2656102	4.120718	4.523356	4.5583791	3.4807739	3.7658329	3.7386873	3.7660938	3.738754	3.8802053	4.0365211	-126.94888	R0:S0:1	-91.2	uncorrelated	51514b8	 6.17e+01	 0.00e+00	 6.50e-04	2022-04-08@17:40
2x2_2C_8b_C2v_L	0.1	14	2.1	0.16551927	-7.9293973	-9.1995669	-0.30126552	-9.199559	-0.30261812	0.92212268	-9.9577995	14	0.00090403217	5.2800371e-05	0.0028462839	-0.05335162	0.0023510435	-0.067141425	-0.00064490972	0.00047604866	0.052732393	-0.73351223	1.1366733	-0.021699262	-1.1366542	0.014738403	0.11446092	-1.5179899	1.25	0.612	0.144	-0.30611936	0.09983708	0.0059346072	1.9768128	1.9532099	1.9849812	1.9534697	1.9850721	0.00041673009	1.9093955	1.0992935	-0.0065970712	-0.0016709442	-0.28855836	0.21504094	-0.28586021	0.22298752	0.00467232	0.0005956868	-0.14174209	0.54807134	-0.80462409	0.38292393	0.80126426	-0.3635483	-0.064983208	1.2413634	0.57980715	0.030525459	0.006352111	0.02313827	0.046405083	0.015338683	0.046156029	0.015581669	0.00041983529	0.087983674	0.030529126	3.274792	4.9274586	4.7945662	4.6448929	4.8037277	4.6622265	4.2570562	4.4588395	4.8139353	3.2980798	3.5322094	3.4617349	3.5236963	3.4444113	3.7474969	4.1436712	-132.0857	R0:S0:1	-95.2	uncorrelated	51514b8	 4.16e+02	 5.23e-03	 1.00e+06	2022-04-08@17:44
2x2_2C_8b_C2v_L	0.1	14	2.1	0.16853411	-7.9293695	-9.1996148	-0.29999011	-9.1996377	-0.30230093	0.92180841	-9.9569611	14	1.5760824e-05	3.0336284e-05	-0.0013343854	-0.056207184	-0.001277091	-0.056223458	-0.0011391431	0.00036281282	0.044207343	-0.73709419	1.1389606	-0.028448364	-1.1390022	0.028006645	0.1033263	-1.5246892	1.25	0.612	0.144	-0.29899298	0.099692921	0.0038119005	1.9766383	1.9532436	1.9811154	1.9532756	1.9815694	0.00035167034	1.9087144	1.0991648	-0.00076444088	-0.00063814606	-0.2790804	0.23837263	-0.27884283	0.23604286	0.0076257844	0.00060668981	-0.11526284	0.55009416	-0.80418145	0.4370314	0.80371953	-0.43103633	-0.058897639	1.2457897	0.58254095	0.030087979	0.003991695	0.023311983	0.046369413	0.01928224	0.04633924	0.01881716	0.00035377916	0.088618492	0.030082948	3.2621799	4.9294865	4.798569	4.670581	4.8001689	4.6691148	4.2546321	4.4646492	4.7949807	3.2975959	3.5287084	3.4639597	3.5274651	3.4623246	3.7491653	4.13997	-132.09733	R0:S0:1	-95.2	uncorrelated	51514b8	 4.88e+02	 3.81e-04	 7.38e-03	2022-04-08@17:47
2x2_2C_8b_C2v_L	0.1	14	2.1	0.28951341	-8.2264748	-9.5549213	-0.51135686	-9.5544205	-0.51882504	1.7738002	-10.085207	14.5	0.00018332206	-2.647708e-05	-0.010719921	-0.098247657	-0.01000182	-0.094371798	-0.0010379108	0.00047771469	0.077443972	-0.74070175	1.1427549	-0.062376456	-1.1432981	0.061852626	0.17156952	-1.5240141	1.25	0.612	0.144	-0.28646591	0.42276454	0.056532588	1.9923747	1.9828232	1.9155297	1.9822531	1.9241099	0.00051975748	1.8794654	1.4222681	-0.010282387	-0.0070193942	-0.2472616	1.1800447	-0.25059427	1.1120753	0.017981792	0.01786817	-1.0061515	0.18046065	-0.3069315	0.40810887	0.31664933	-0.39724788	-0.062828722	1.6108944	0.34825729	0.040545296	0.055141838	0.0077110501	0.017463745	0.080954018	0.018054716	0.073115549	0.00052219762	0.11522464	0.040667428	1.5727504	6.9741637	6.6689754	6.1190848	6.6354575	6.1439826	5.3929552	3.8100492	6.581432	1.14252	1.523221	2.0745172	1.5726595	2.043469	2.6160033	4.9457558	-137.77778	R0:S0:1	-99.2	uncorrelated	51514b8	 1.80e+02	 1.45e-01	 1.00e+06	2022-04-08@17:50
2x2_2C_8b_C2v_L	0.1	14	2.1	0.25009421	-8.2073012	-9.559451	-0.059435147	-9.55811	-0.074805741	1.736453	-10.041972	14.5	0.0012896903	-0.00062318814	-0.00047507452	-0.033855121	-0.0018654827	-0.035860864	0.22271152	-0.0021759819	0.061808847	-0.75337268	1.1346656	-0.05190136	-1.1340919	0.053374066	0.0036053473	-1.4124054	1.25	0.612	0.144	-0.30749553	0.4085077	0.041373187	1.9910571	1.9799649	1.8214804	1.9800563	1.847345	0.077046616	1.8998639	1.4081544	-0.0050610315	1.3846358e-05	-0.27693169	1.2102364	-0.27538621	1.2005281	-1.2572737	0.0019142051	-0.83841806	0.20594727	-0.35307588	0.73225588	0.35214056	-0.68133361	-0.00050358823	1.4390324	0.34383902	0.047477554	0.040669903	0.009035789	0.020252149	0.21361585	0.020168104	0.17609499	0.074542219	0.096382253	0.047552016	1.5416149	6.8637282	6.4713953	5.5055782	6.474957	5.6169985	4.8857595	3.7480368	6.5822115	1.2666026	1.7001389	2.8237038	1.7006798	2.6957106	3.5382408	4.8145558	-135.77162	R0:S0:1	-99.2	uncorrelated	51514b8	 1.81e+02	 5.57e-03	 2.83e-02	2022-04-08@17:54
2x2_2C_8b_C2v_L	0.1	14	2.1	0.24576271	-8.2056362	-9.5552844	-0.068145019	-9.5541632	-0.061399317	1.7182781	-10.045484	14.5	-0.0014139028	0.0006826818	-0.0011654808	-0.037753356	-0.0004473233	-0.037103744	0.218978	8.8694073e-05	0.063493441	-0.7520653	1.1344005	-0.05036204	-1.134581	0.049003605	-8.5325593e-06	-1.4146413	1.25	0.612	0.144	-0.30168778	0.40976273	0.04446125	1.991192	1.980037	1.8423704	1.9800952	1.8341091	0.076068663	1.8995294	1.4094087	0.0065151951	0.00053157598	-0.27147672	1.2298156	-0.27084431	1.2361174	-1.249691	-0.0042766973	-0.8711864	0.2032127	-0.35214707	0.67714499	0.35078185	-0.68888636	-0.0039380487	1.4421412	0.34410593	0.04684963	0.043623906	0.0088977514	0.020183109	0.18050986	0.020121343	0.19238144	0.073624675	0.096690583	0.046924386	1.5535147	6.8754136	6.4773027	5.5917565	6.4835826	5.5603315	4.8939875	3.7468981	6.5723775	1.2510865	1.6979903	2.7282667	1.6892798	2.7654729	3.5250693	4.817358	-135.75396	R0:S0:1	-99.2	uncorrelated	51514b8	 1.81e+02	 2.46e-04	 2.99e-03	2022-04-08@17:58
2x2_2C_8b_C2v_L	0.1	14	2.1	0.31951438	-8.4766868	-9.917816	0.53926522	-9.9146885	0.56589433	2.7406679	-9.9620755	15	-0.0044523381	0.0021531401	0.0035097275	0.028532816	0.0052054533	0.031963965	0.65892051	-0.00098362344	0.07691287	-0.78390528	1.1265064	-0.074680686	-1.1271787	0.073977966	-0.25806984	-1.1968741	1.25	0.612	0.144	-0.24537006	0.79098219	0.029938672	1.9982969	1.9981893	0.029086009	1.9924708	0.026076153	0.23471025	1.9692387	1.7906189	-0.084863828	-0.11570551	-0.060040061	-0.042491655	-0.36693115	-0.23204781	-1.421705	0.58267797	-0.90448157	0.039852014	-0.034465119	0.89043314	0.14071638	-0.8116349	1.8623998	0.53041591	0.42970352	0.052393865	0.029553332	0.0017241607	0.0018270038	0.028772588	0.0077698341	0.025708765	0.21914264	0.030960417	0.052598786	0.54768011	7.7574587	7.8313651	0.48685947	7.2698929	0.92371556	3.577282	5.575197	7.4337259	0.25143678	0.17757015	7.4869546	0.76539177	7.0765669	4.6848558	2.4634975	-141.17429	R0:S0:1	-103.2	uncorrelated	51514b8	 1.52e+02	 1.20e-01	 1.00e+06	2022-04-08@18:01
2x2_2C_8b_C2v_L	0.1	14	2.1	0.39247009	-8.4654009	-9.9170486	0.35566266	-9.9183327	0.44469427	2.7491302	-9.9940414	15	0.064912786	-0.0032429245	0.01150577	-0.080404583	0.0029169546	0.090832194	0.29635419	-0.028545356	0.010824449	-0.72461433	1.1273323	-0.035037744	-1.1218783	0.0057173679	0.054389667	-1.3633665	1.25	0.612	0.144	-0.35117694	0.96238909	0.00076656705	1.9999698	1.9963561	0.0050736576	1.99642	0.0056578589	0.0028622194	1.999839	1.9623833	-0.00010544606	0.012320512	-0.31570075	-0.059582682	-0.30887835	-0.081408844	-0.0040304882	0.027493186	-0.14566196	0.00071440856	-0.064709274	0.34966086	0.065287106	-0.37495266	-0.28772708	0.0023954406	0.41650353	0.016505913	0.00083881812	3.0463433e-05	0.0038002406	0.0059576566	0.0037283498	0.0063576805	0.0029773187	0.00016366347	0.016513936	0.012228764	7.9955288	7.650738	0.27697274	7.642036	0.40645318	0.045354666	7.987221	7.9867517	0.0046181672	0.35069762	7.7129965	0.35930094	7.5931505	7.9515353	0.01328896	-140.68409	R0:S0:1	-103.2	uncorrelated	51514b8	 2.11e+02	 7.21e-02	 1.84e-01	2022-04-08@18:04
2x2_2C_8b_C2v_L	0.1	14	2.1	0.37902773	-8.4546004	-9.8984157	0.20173711	-9.9024289	0.1763544	2.6229776	-10.028933	15	0.077659668	0.001055599	0.0013678937	-0.083489756	0.0027825193	0.080570812	0.33522126	0.0072984493	-0.0019993469	-0.71416223	1.1226977	0.011840313	-1.1235909	0.0063539464	-0.010777009	-1.3299207	1.25	0.612	0.144	-0.37757155	0.95221968	3.8264368e-05	1.999985	1.9953285	0.025764748	1.9954857	0.02021324	0.00016342521	1.9999473	1.9522138	-0.00030939121	-0.0029478941	-0.32750871	0.19366548	-0.33092488	-0.16239602	-0.00086389738	-0.0053585312	0.027312327	0.00039128472	-0.085005046	-0.6727167	0.081869321	-0.57071849	0.062115198	0.00086303918	0.40023532	0.019862484	4.2477417e-05	1.5235282e-05	0.0048367109	0.034376961	0.0046840934	0.028155345	0.00017223284	5.4715103e-05	0.019871174	0.003004528	7.997485	7.5442576	0.78822444	7.5592323	0.71523668	0.0057813307	7.9966158	7.9968433	0.0027672777	0.45802473	7.2100447	0.44318939	7.2862611	7.9948523	0.0044689618	-140.65965	R0:S0:1	-103.2	uncorrelated	51514b8	 2.09e+02	 8.88e-03	 1.69e-02	2022-04-08@18:07
2x2_2C_8b_C2v_L	0.1	14	2.1	0.37719094	-8.4521255	-9.8928577	0.19364995	-9.8960283	0.19920761	2.5952602	-10.036716	15	0.07643116	0.00025862897	0.0022764062	-0.082526329	0.001947398	0.083270817	0.33155938	-0.0032189752	-0.00019556243	-0.71547896	1.1225379	0.0078614961	-1.122362	0.0091173096	0.0041850623	-1.3324525	1.25	0.612	0.144	-0.37740585	0.95278105	9.5738352e-06	1.9999863	1.9954742	0.020550911	1.9954425	0.02189921	4.6169535e-05	1.9999543	1.9527754	-0.0002867153	-8.7923159e-05	-0.32958039	0.16688296	-0.32862437	-0.17435525	-0.00059809716	0.0032938741	0.0031077371	0.00036218378	-0.08218579	-0.59265631	0.082855231	-0.61684849	-0.023746721	0.0007548875	0.40068685	0.019732573	9.9029318e-06	1.395085e-05	0.0046940819	0.027916607	0.0047243589	0.0294901	4.8191379e-05	4.7605926e-05	0.019741073	0.0025439004	7.9976702	7.557644	0.71712084	7.5543654	0.7350607	0.0038025563	7.997221	7.9973345	0.0025783017	0.44469688	7.2834995	0.44794066	7.2648316	7.9969278	0.003824011	-140.6451	R0:S0:1	-103.2	uncorrelated	51514b8	 2.09e+02	 1.21e-04	 2.06e-03	2022-04-08@18:09
2x2_2C_8b_C2v_L	0.1	14	2.1	0.56367112	-8.6689977	-10.212636	0.48502814	-10.225588	0.4803318	3.5534629	-9.9303647	15.5	0.23339763	-0.0015244016	0.0096921207	-0.19089852	0.0058952445	0.30397361	0.33732366	-0.0099938458	-0.14669115	-0.62656662	1.1027352	0.14806132	-1.1012103	-0.094106023	0.11560364	-1.2780633	1.25	0.612	0.144	-0.12460647	0.92917979	0.10040602	1.998782	1.9945233	0.14256516	1.9971021	0.17085107	0.0084858439	1.9988619	1.9290947	-0.22833268	0.034229746	-0.17796302	0.45604019	-0.02893222	-0.29598892	-0.049750636	-0.14194554	1.3707128	0.035586463	-0.1042361	-1.6610614	0.05706218	1.4096219	-0.49295241	0.020903746	0.44746581	0.01849726	0.12732068	0.0012178778	0.0055056362	0.16462548	0.002894191	0.24265158	0.0087020764	0.0011832811	0.018561352	1.1495129	7.7346108	7.4706151	1.8616711	7.7079992	1.3229051	0.20479547	7.8896734	6.7895511	0.2651951	0.52785262	6.0666033	0.29149431	6.6000014	7.7894865	0.11255775	-146.46051	R0:S0:1	-107.2	uncorrelated	51514b8	 1.04e+02	 1.08e-01	 1.00e+06	2022-04-08@18:12
2x2_2C_8b_C2v_L	0.1	14	2.1	0.60335538	-8.6654502	-10.210679	0.51559588	-10.224221	0.55821238	3.560383	-9.9324203	15.5	0.057538981	-0.0005507592	0.0047071656	-0.069108111	0.00492754	-0.072185746	0.29173939	-0.019847144	0.0024650868	-0.72316537	1.1240549	-0.019576581	-1.1239882	0.013427549	0.038807961	-1.3447831	1.25	0.612	0.144	-0.18473323	0.99063711	1.4608521e-05	1.9999994	1.9991939	0.00061371621	1.9992032	0.00014093448	0.00064305696	1.9999517	1.9906362	-6.3838047e-06	0.0011559023	-0.15376162	-0.012230947	-0.15453556	-0.0060459958	-0.00034237617	0.027645246	-0.020952199	1.6338727e-05	-0.015464033	0.13209201	0.015246008	-0.063677833	-0.13894293	0.00049198244	0.47743664	0.004431297	1.5107548e-05	6.1212357e-07	0.00084168706	0.00065472711	0.000832662	0.00014969773	0.00065900717	5.002865e-05	0.0044326981	0.00028256634	7.9998866	7.9104866	0.074219456	7.9116462	0.071405947	0.0099832896	7.9970611	7.9996952	0.00012160126	0.089481021	7.9245844	0.088316131	7.9282359	7.989301	0.0029576971	-146.10858	R0:S0:1	-107.2	uncorrelated	51514b8	 1.15e+02	 1.89e-03	 2.15e-01	2022-04-08@18:14
2x2_2C_8b_C2v_L	0.1	14	2.1	0.60331052	-8.665418	-10.210627	0.51552128	-10.22423	0.55795791	3.5601668	-9.9324249	15.5	0.060020367	-0.0013178169	0.0066860486	-0.073979833	0.0053563732	-0.077555726	0.29300462	-0.020857829	0.0019927973	-0.72233985	1.1229487	-0.019288528	-1.1218518	0.016561513	0.037195705	-1.3453742	1.25	0.612	0.144	-0.18474818	0.990625	9.6922211e-06	1.9999994	1.9991684	0.00054984592	1.9991976	0.00028534644	0.00058627479	1.9999492	1.9906241	-8.326548e-06	0.0021041756	-0.15652131	-0.011535173	-0.15463269	-0.0084601363	-0.00024719387	0.030087736	-0.017036806	1.3227102e-05	-0.015704639	0.12449523	0.015343049	-0.09005228	-0.13267973	0.00046619283	0.47741139	0.0044345319	1.0051362e-05	5.9952267e-07	0.00086835664	0.00059148833	0.00083811956	0.00030566719	0.00060097242	5.292185e-05	0.0044359365	0.00020924293	7.9999043	7.9100632	0.073416355	7.9112074	0.071779614	0.0091165966	7.9972005	7.9997749	0.00010374726	0.089889439	7.9254807	0.088753261	7.9275771	7.9902301	0.0028152427	-146.10867	R0:S0:1	-107.2	uncorrelated	51514b8	 1.15e+02	 0.00e+00	 1.84e-03	2022-04-08@18:16
