model	E_kin	D	U	e	eb1_1	eb2_1	eb3_1	eb4_1	eb5_1	eb6_1	eb7_1	eb8_1	mu	sb1_1	sb2_1	sb3_1	sb4_1	sb5_1	sb6_1	sb7_1	sb8_1	tb1_1	tb2_1	tb3_1	tb4_1	tb5_1	tb6_1	tb7_1	tb8_1	tpd	tpp	tppp	ave_D	ave_e	ave_mu	ave_tpd	ave_tpp	ave_tppp	ave_U_1	ave_eb1_1	ave_eb2_1	ave_eb3_1	ave_eb4_1	ave_eb5_1	ave_eb6_1	ave_eb7_1	ave_eb8_1	ave_mu_1	ave_sb1_1	ave_sb2_1	ave_sb3_1	ave_sb4_1	ave_sb5_1	ave_sb6_1	ave_sb7_1	ave_sb8_1	ave_tb1_1	ave_tb2_1	ave_tb3_1	ave_tb4_1	ave_tb5_1	ave_tb6_1	ave_tb7_1	ave_tb8_1	var_U_1	var_eb1_1	var_eb2_1	var_eb3_1	var_eb4_1	var_eb5_1	var_eb6_1	var_eb7_1	var_eb8_1	var_mu_1	var_sb1_1	var_sb2_1	var_sb3_1	var_sb4_1	var_sb5_1	var_sb6_1	var_sb7_1	var_sb8_1	var_tb1_1	var_tb2_1	var_tb3_1	var_tb4_1	var_tb5_1	var_tb6_1	var_tb7_1	var_tb8_1	E0_1	sector_1	E0_2	sector_2	githash	time
2x2_2C_8b_C2v_L	7.9548872	0	14	3.1695	0.0018966178	-3.1022638	-3.6869349	-0.10868969	-3.686944	-0.10869079	0.14780046	-3.2464716	9.8	-3.6500554e-05	-6.7538764e-06	0.0094399223	-0.17253352	0.0094394611	-0.17253362	3.636482e-06	8.7254376e-06	-0.1122816	-1.0480638	1.635789	0.042537516	-1.6357909	-0.04253608	0.24121687	-2.1549857	1.9492	1	0.2373	0.013237844	1.2557043	1.6180274	-0.59066599	-0.19598988	0.080026616	0.13396957	0.26527077	1.939942	1.8043204	1.5585986	1.8043206	1.5586046	0.018908099	1.5490036	1.1083674	0.00036189824	1.9737224e-05	0.10474189	1.1605814	0.10474469	1.1605835	-2.8421842e-05	-1.9074363e-05	1.1621379	0.73820986	-1.5518738	-0.55982036	1.5518723	0.55981661	-0.30335527	2.5243198	0.028977622	0.23770042	0.058424882	0.17898816	0.36581447	0.17898807	0.36581035	0.019049089	0.34936546	0.036155089	4.1301943	5.3685751	5.1519625	5.0536036	5.151964	5.0535964	4.2913274	6.1950073	5.2796115	2.7529111	3.3540319	5.1581494	3.3540299	5.1581423	3.7650163	3.1859676	-72.573495	R0:S0:1	-53.044	uncorrelated	51514b8	2022-04-18@10:04
2x2_2C_8b_C2v_L	7.9418262	0	14	3.1558793	0.0019096287	-3.1039684	-3.6898117	-0.10674947	-3.6898194	-0.10674796	0.14606641	-3.2580485	9.8	-3.8590982e-05	1.1037023e-07	0.00916114	-0.17116893	0.0091608403	-0.1711683	3.7559216e-06	5.404831e-06	-0.11183308	-1.0466374	1.6334386	0.041830089	-1.6334404	-0.041826724	0.23961012	-2.1537285	1.9479828	1	0.23853103	0.013128453	1.2566787	1.6190621	-0.5872884	-0.1934846	0.079073151	0.13369892	0.25645023	1.940805	1.8067465	1.569818	1.8067465	1.569821	0.018542151	1.5553213	1.10872	0.00037872105	1.8609456e-06	0.10231513	1.1438846	0.10231816	1.1438858	-2.3543991e-05	-9.4243069e-06	1.1462531	0.73370552	-1.5434699	-0.54845542	1.5434699	0.54844253	-0.30150209	2.50969	0.028929572	0.23124022	0.057636972	0.17709158	0.36034125	0.17709157	0.36034041	0.018674465	0.34634841	0.035916815	4.0845393	5.3738028	5.1530478	5.0446163	5.1530482	5.0446073	4.2907258	6.1697127	5.2793638	2.7548211	3.3642853	5.1247923	3.3642861	5.1247888	3.7655951	3.2028233	-72.582747	R0:S0:1	-53.152966	uncorrelated	51514b8	2022-04-18@10:12
2x2_2C_8b_C2v_L	7.9215493	0	14	3.1422586	0.00073524511	-3.1143097	-3.7011548	-0.10390907	-3.7011577	-0.10390752	0.1429284	-3.2681543	9.8	-3.9836852e-05	4.8356377e-08	0.0093162193	-0.16886225	0.009315473	-0.16886238	5.2205402e-06	8.4117435e-06	-0.11134935	-1.0469175	1.6333864	0.043156665	-1.6333875	-0.043152667	0.23664307	-2.1528471	1.9467655	1	0.23976207	0.013208749	1.2574322	1.6199945	-0.58444169	-0.1916777	0.078360883	0.1334205	0.25542031	1.9411842	1.8087818	1.5684995	1.8087824	1.5685004	0.018337772	1.5590625	1.1088204	0.0004007405	5.2080287e-06	0.1004777	1.1371104	0.10048141	1.1371292	-3.6295276e-05	-1.6142418e-05	1.1400248	0.73285283	-1.5362727	-0.55208668	1.5362668	0.55206783	-0.29936253	2.5003377	0.028879034	0.23010116	0.057277506	0.17539603	0.36027776	0.17539546	0.36027687	0.018457455	0.34451045	0.035751034	4.0823527	5.3700461	5.1464894	5.0557293	5.1464903	5.0557183	4.2885458	6.1546172	5.2823312	2.7581748	3.3641085	5.124162	3.3640983	5.12417	3.7664054	3.2130066	-72.643562	R0:S0:1	-53.261931	uncorrelated	51514b8	2022-04-18@10:20
2x2_2C_8b_C2v_L	7.9047379	0	14	3.1286379	-0.0012231184	-3.1347835	-3.7182075	-0.10119495	-3.7182016	-0.10119471	0.13927903	-3.2775711	9.8	-1.9119353e-05	-2.1140185e-07	0.0095046635	-0.16565057	0.0095044689	-0.16565137	1.7756998e-07	1.1563585e-06	-0.11050252	-1.0490589	1.6351581	0.045203173	-1.6351571	-0.045203862	0.23226741	-2.1526279	1.9455483	1	0.2409931	0.013290245	1.2582653	1.6211556	-0.58117899	-0.18972867	0.077581694	0.13319338	0.25190546	1.9417554	1.810862	1.5719947	1.8108625	1.5719923	0.017842777	1.562933	1.1090204	0.00020184562	2.1565887e-06	0.09890953	1.1245495	0.098909034	1.1245613	-3.0349446e-06	-2.65573e-06	1.1313517	0.73090497	-1.529223	-0.5576898	1.5292188	0.55768929	-0.29501857	2.4908203	0.028837958	0.22726763	0.056742814	0.17368397	0.35692278	0.17368356	0.35692316	0.017948449	0.34259322	0.035580073	4.0670059	5.3692143	5.1417929	5.0658979	5.1417932	5.0658987	4.2858971	6.1392473	5.2835505	2.7604603	3.366094	5.1127069	3.3660863	5.1127153	3.7671353	3.2234749	-72.750919	R0:S0:1	-53.370897	uncorrelated	51514b8	2022-04-18@10:32
2x2_2C_8b_C2v_L	7.8885642	0	14	3.1150172	-0.0011426495	-3.1408602	-3.7225791	-0.099207157	-3.7225728	-0.099207843	0.13756779	-3.2903769	9.8	-1.8093405e-05	1.5375085e-07	0.009310649	-0.16459325	0.0093108098	-0.16459386	1.2043587e-06	2.1370079e-06	-0.11019246	-1.0483399	1.6330052	0.044799598	-1.6330043	-0.044798989	0.23114201	-2.1516057	1.944331	1	0.24222414	0.013197728	1.2591554	1.6220811	-0.57805816	-0.18741221	0.076703355	0.13290276	0.24571424	1.9424434	1.8131637	1.5787607	1.8131641	1.5787605	0.017627812	1.5686754	1.1092728	0.00018908102	1.7494394e-06	0.096621373	1.1118583	0.096621945	1.1118696	-9.9336549e-06	-4.7443207e-06	1.1181716	0.72771929	-1.5211182	-0.54915506	1.5211141	0.54915068	-0.29408241	2.4772181	0.028785879	0.22253651	0.056110659	0.17184135	0.3536923	0.171841	0.35369146	0.017726345	0.33973718	0.035362143	4.0356669	5.3714291	5.140751	5.0610269	5.1407521	5.0610253	4.2850006	6.1160604	5.2842843	2.7632207	3.3732934	5.0897728	3.3732859	5.0897777	3.7679513	3.238216	-72.779278	R0:S0:1	-53.479862	uncorrelated	51514b8	2022-04-18@10:40
2x2_2C_8b_C2v_L	7.8684222	0	14	3.1013966	-0.0028557458	-3.1559475	-3.7339859	-0.096451254	-3.7339894	-0.096451169	0.13400182	-3.2977623	9.8	-1.6205112e-05	2.6829469e-07	0.0093940546	-0.16199261	0.0093946374	-0.16199328	2.1259432e-06	3.094561e-06	-0.10971899	-1.049279	1.6330506	0.0462165	-1.6330504	-0.046215589	0.22759195	-2.1499966	1.9431138	1	0.24345517	0.013225098	1.2599109	1.6230365	-0.5751479	-0.18559779	0.075987458	0.13261477	0.24531256	1.9428076	1.8151558	1.5784446	1.8151571	1.578442	0.017365023	1.5722548	1.1093714	0.00017780537	3.1288495e-06	0.094974617	1.1033155	0.094974141	1.1033381	-1.7158512e-05	-7.2107933e-06	1.1125739	0.72711057	-1.5139971	-0.5528231	1.5139876	0.55281571	-0.29126852	2.4678395	0.028733505	0.22210601	0.055764276	0.17017296	0.35279921	0.17017176	0.35279912	0.017453345	0.33791074	0.035193147	4.0359027	5.3670853	5.1346615	5.0728518	5.1346608	5.0728514	4.2821086	6.1016482	5.286243	2.7671041	3.3732294	5.0877351	3.3732152	5.0877498	3.7692502	3.2480036	-72.844432	R0:S0:1	-53.588828	uncorrelated	51514b8	2022-04-18@10:49
2x2_2C_8b_C2v_L	7.8525301	0	14	3.0877759	-0.003946213	-3.1691503	-3.7436291	-0.09427997	-3.7436251	-0.094278592	0.1311699	-3.3087789	9.8	-7.41452e-06	3.8707894e-07	0.0093947008	-0.1598207	0.0093960389	-0.15982048	-1.2842304e-07	-1.6048516e-06	-0.10912968	-1.0499446	1.6326803	0.046950464	-1.6326803	-0.046949603	0.22466279	-2.1493664	1.9418966	1	0.24468621	0.013164229	1.2607914	1.6241018	-0.57187643	-0.18339104	0.075135757	0.13236167	0.23990602	1.9434586	1.8173182	1.5853852	1.8173181	1.5853805	0.016962299	1.5772227	1.1096245	8.3345921e-05	-8.0689699e-07	0.092973977	1.0886752	0.092971616	1.0886801	1.3946298e-06	2.5593032e-06	1.1008268	0.72428011	-1.5064803	-0.55004597	1.5064809	0.55004285	-0.28821612	2.4558965	0.028687982	0.21800351	0.055161667	0.16842097	0.34844977	0.16842109	0.34845352	0.017042598	0.33536917	0.034993098	4.0088135	5.3686338	5.1330242	5.0732141	5.1330237	5.0732152	4.2803453	6.0817383	5.2863192	2.7694584	3.378894	5.0660522	3.3788919	5.0660618	3.7700419	3.2606811	-72.908252	R0:S0:1	-53.697793	uncorrelated	51514b8	2022-04-18@10:57
2x2_2C_8b_C2v_L	7.8341873	0	14	3.0741552	-0.0052539628	-3.1882185	-3.7568256	-0.091561535	-3.7568211	-0.09156012	0.12755615	-3.3183331	9.8	-5.699089e-06	-9.6675506e-07	0.0093632963	-0.15751486	0.0093635038	-0.15751474	1.863764e-06	1.4559991e-06	-0.10866234	-1.0514201	1.6329898	0.047765897	-1.63299	-0.047765931	0.22143295	-2.148228	1.9406793	1	0.24591724	0.013119721	1.2615997	1.6250906	-0.56879968	-0.18138593	0.074358835	0.13207238	0.23782927	1.9439444	1.8194555	1.5869552	1.8194551	1.5869532	0.016675738	1.5814857	1.1097762	6.771645e-05	4.5716913e-06	0.090997922	1.0783033	0.090997267	1.0783063	-1.3824924e-05	-4.6166907e-06	1.0925315	0.72292677	-1.4989477	-0.54968696	1.4989484	0.54968809	-0.28550414	2.44503	0.02863545	0.21632902	0.054705614	0.166644	0.34696918	0.16664431	0.34697074	0.016747467	0.33315172	0.034806977	3.9998901	5.3660827	5.1282908	5.0807293	5.128292	5.0807309	4.2776005	6.0645585	5.2881329	2.7731254	3.3807866	5.058436	3.3807836	5.0584389	3.7714196	3.2716635	-72.993822	R0:S0:1	-53.806759	uncorrelated	51514b8	2022-04-18@11:06
2x2_2C_8b_C2v_L	7.8165928	0	14	3.0605345	-0.006721831	-3.199934	-3.7645639	-0.088998994	-3.7645571	-0.088995218	0.12421614	-3.3283666	9.8	7.5446299e-06	-1.7355492e-06	0.0092710014	-0.15498812	0.0092714481	-0.15498666	2.2907862e-06	1.7404803e-06	-0.10809755	-1.0518224	1.6322778	0.048526563	-1.6322761	-0.048526071	0.21809862	-2.1473492	1.9394621	1	0.24714828	0.013047072	1.2624334	1.6261066	-0.56565281	-0.17930631	0.073553124	0.13180618	0.23443398	1.9444598	1.8214831	1.5914357	1.8214824	1.5914352	0.016330361	1.5859775	1.1099802	-9.1773304e-05	4.4750407e-06	0.089230762	1.0650154	0.089230127	1.0650066	-1.2479671e-05	-3.1642822e-06	1.0828905	0.72097799	-1.4916966	-0.5480839	1.4917002	0.54808442	-0.28235444	2.4339365	0.02858725	0.21374875	0.054224522	0.16497482	0.34380388	0.16497543	0.34380584	0.016395297	0.33078854	0.034615464	3.9831492	5.3654031	5.1255061	5.084921	5.1255071	5.084921	4.2754394	6.0464805	5.2888074	2.7760463	3.3843938	5.0433682	3.3843987	5.0433624	3.7723786	3.2829842	-73.042801	R0:S0:1	-53.915724	uncorrelated	51514b8	2022-04-18@11:14
2x2_2C_8b_C2v_L	7.798611	0	14	3.0469138	-0.0082490325	-3.2159037	-3.7750937	-0.086347061	-3.7750963	-0.086345186	0.12074065	-3.3381732	9.8	9.1838521e-06	-8.3833594e-07	0.009188873	-0.15251676	0.009188095	-0.15251667	2.9850388e-06	6.1776607e-06	-0.10760136	-1.0528152	1.6320293	0.049338938	-1.6320317	-0.049334181	0.21477612	-2.14631	1.9382448	1	0.24837931	0.012972767	1.2632538	1.6271124	-0.56252115	-0.17725765	0.072763152	0.13152123	0.23210423	1.9449335	1.8235652	1.5943198	1.8235648	1.5943218	0.016019877	1.5903399	1.1101505	-0.00011793914	3.6612652e-06	0.087385152	1.052863	0.087388717	1.0528676	-1.8444093e-05	-9.1865458e-06	1.0742372	0.71950811	-1.4842561	-0.54715707	1.484258	0.54713731	-0.27938999	2.4228902	0.028535454	0.21197599	0.05378023	0.16324415	0.34149128	0.16324447	0.34149145	0.016078124	0.32846534	0.034425395	3.9721644	5.363366	5.1216799	5.0912953	5.1216809	5.0912808	4.2728416	6.0288704	5.2899638	2.779558	3.3869532	5.0324903	3.3869542	5.0324909	3.7736692	3.2938802	-73.111456	R0:S0:1	-54.02469	uncorrelated	51514b8	2022-04-18@11:23
2x2_2C_8b_C2v_L	7.7817896	0	14	3.0332931	-0.010832388	-3.2403327	-3.7905668	-0.083219304	-3.7905792	-0.083221179	0.11565956	-3.3472405	9.8	-1.0385854e-05	7.5745346e-07	0.0091812476	-0.14885493	0.009181209	-0.14885566	-3.6740208e-06	-3.8688614e-06	-0.10684341	-1.0554135	1.6334281	0.050824805	-1.6334308	-0.050826114	0.20959029	-2.1458287	1.9370276	1	0.24961034	0.012881115	1.2640909	1.6282513	-0.55918622	-0.17523347	0.071968717	0.13126655	0.2305	1.9453924	1.8256546	1.5974223	1.8256551	1.597416	0.015557337	1.5943399	1.1103542	0.00015054556	-1.2580476e-06	0.085540351	1.0382397	0.085538021	1.0382502	1.8842746e-05	4.7931062e-06	1.0664108	0.71836693	-1.4768527	-0.54962453	1.4768502	0.54963017	-0.27441088	2.4126062	0.028488932	0.21085264	0.053346354	0.1614917	0.33830973	0.16149122	0.33831286	0.015608801	0.3263065	0.034240141	3.9648168	5.3606339	5.1172904	5.1023622	5.1172878	5.1023707	4.2693611	6.0129645	5.2911166	2.7829585	3.3882931	5.0226498	3.3882867	5.0226672	3.7750537	3.3038904	-73.217174	R0:S0:1	-54.133655	uncorrelated	51514b8	2022-04-18@11:37
2x2_2C_8b_C2v_L	7.7658902	0	14	3.0196724	-0.012757437	-3.2512615	-3.7970767	-0.08090852	-3.7970926	-0.080907276	0.1124527	-3.3582294	9.8	7.2244301e-06	-3.9818675e-08	0.0090591113	-0.14612165	0.0090589655	-0.14612132	1.101947e-06	1.4500449e-06	-0.10619477	-1.0557097	1.6325762	0.051555029	-1.6325794	-0.051552416	0.20601371	-2.1453067	1.9358103	1	0.25084138	0.012747071	1.2649718	1.6293389	-0.55584106	-0.17300625	0.071115526	0.1310147	0.22640566	1.9459409	1.8277125	1.6050516	1.8277122	1.6050559	0.015146017	1.5991904	1.1106149	-0.00012083484	-2.7824181e-06	0.083804875	1.0212563	0.083806684	1.0212457	1.8680867e-07	1.4910589e-06	1.0554452	0.71601302	-1.4694648	-0.54631104	1.4694702	0.54629972	-0.27064347	2.400789	0.02844334	0.20797703	0.052836057	0.159805	0.33316821	0.15980532	0.3331671	0.015193876	0.32366916	0.034037808	3.9425646	5.3613404	5.1162863	5.1028374	5.1162837	5.102824	4.267364	5.9935522	5.290775	2.7855764	3.3935901	4.9995354	3.393602	4.9995293	3.7759266	3.3156252	-73.26283	R0:S0:1	-54.242621	uncorrelated	51514b8	2022-04-18@11:50
2x2_2C_8b_C2v_L	7.7498577	0	14	3.0060517	-0.01421293	-3.2695136	-3.8089581	-0.078469331	-3.808943	-0.078474826	0.10857549	-3.3674717	9.8	-6.6674261e-06	-8.9821479e-07	0.0088975995	-0.14374061	0.0088985465	-0.14374191	-1.6427415e-06	-7.729149e-08	-0.10570365	-1.0569988	1.632629	0.051911567	-1.6326262	-0.051918766	0.2024538	-2.1440171	1.9345931	1	0.25207241	0.012595259	1.2658489	1.630397	-0.55250597	-0.17075775	0.070259995	0.13073316	0.22261579	1.9465019	1.8298939	1.6110936	1.8298941	1.6110951	0.014743581	1.6040387	1.1108456	0.00012541877	6.2135504e-06	0.081796567	1.0058156	0.081794471	1.0058157	-1.0133975e-06	-5.3409882e-06	1.0446064	0.71389684	-1.4617582	-0.54155324	1.4617536	0.54158398	-0.26699236	2.3885463	0.028392294	0.20519203	0.05231282	0.15800251	0.32922786	0.15800238	0.32922342	0.014787442	0.32100118	0.033830972	3.9231011	5.3610845	5.114371	5.1036336	5.1143751	5.1036528	4.2646467	5.9741789	5.2908424	2.7888453	3.3984378	4.9800532	3.3984277	4.9800442	3.7774107	3.327394	-73.341208	R0:S0:1	-54.351586	uncorrelated	51514b8	2022-04-18@12:03
2x2_2C_8b_C2v_L	7.7266668	0	14	2.992431	-0.013775528	-3.2902348	-3.8202465	-0.075508571	-3.8202991	-0.075513812	0.10436965	-3.3749908	9.8	-7.9135024e-07	-1.1802514e-06	0.0086173451	-0.14306354	0.0086180578	-0.1430638	-1.5844966e-05	-1.8120933e-06	-0.10568233	-1.0581466	1.631653	0.051120285	-1.6316627	-0.051126738	0.20081591	-2.141059	1.9333759	1	0.25330345	0.012489312	1.2665453	1.6310784	-0.54992657	-0.16889866	0.069558629	0.13034977	0.22209495	1.9468764	1.8318363	1.6057071	1.8318351	1.6057092	0.014712513	1.6080972	1.1108376	-1.1005967e-05	-4.4175257e-06	0.079422674	1.0029887	0.079420292	1.0029442	0.00010669514	1.4285893e-05	1.0369769	0.71346791	-1.4546913	-0.53579422	1.4547094	0.5358248	-0.26661426	2.3772005	0.028322308	0.20436313	0.051957664	0.15633797	0.33325391	0.15633914	0.33325301	0.014749853	0.31873286	0.033648389	3.924424	5.3554747	5.1078181	5.1122928	5.1078064	5.1122931	4.261175	5.957131	5.294547	2.794188	3.3982032	4.9882534	3.3982376	4.9882502	3.7799666	3.3368783	-73.413835	R0:S0:1	-54.460552	uncorrelated	51514b8	2022-04-18@12:13
2x2_2C_8b_C2v_L	7.7086678	0	14	2.9788103	-0.018237799	-3.304821	-3.8313055	-0.072436128	-3.8313214	-0.072422127	0.098398855	-3.3836282	9.8	1.2740411e-05	1.9910723e-06	0.0085996563	-0.1384425	0.0085979639	-0.13844004	2.5340815e-05	-2.8934253e-06	-0.10504988	-1.0591936	1.6323317	0.053416952	-1.6323353	-0.053398127	0.19428098	-2.1406534	1.9321586	1	0.25453448	0.012371743	1.267345	1.6322412	-0.5466041	-0.16701533	0.068818702	0.13009418	0.22458787	1.9470906	1.833762	1.6085966	1.833762	1.6086053	0.014245279	1.6114897	1.1110027	-0.00030187806	-1.2456862e-05	0.078124103	0.98607036	0.078130614	0.98608069	-0.00013212937	4.8946391e-06	1.0342001	0.71361838	-1.4474801	-0.54237613	1.447484	0.54229192	-0.26039909	2.3682136	0.028274991	0.20705537	0.051746751	0.15469344	0.32916098	0.1546935	0.32916247	0.014281872	0.31680889	0.033473889	3.9344473	5.3497471	5.1029738	5.1290229	5.1029715	5.1289707	4.2573968	5.9436026	5.2951949	2.7983055	3.3974653	4.9813269	3.3974768	4.9813217	3.7812945	3.3450083	-73.480425	R0:S0:1	-54.569517	uncorrelated	51514b8	2022-04-18@12:26
2x2_2C_8b_C2v_L	7.6865344	0	14	2.9651897	-0.020897794	-3.3254917	-3.8423307	-0.069101428	-3.8423261	-0.069111712	0.092457292	-3.3931729	9.8	5.0182657e-05	-5.5140545e-06	0.0084362281	-0.13538464	0.0084318781	-0.13537576	-1.800088e-05	2.7628172e-06	-0.10489634	-1.0607626	1.6323004	0.054447984	-1.6322955	-0.054442371	0.1896189	-2.139569	1.9309414	1	0.25576552	0.01225739	1.2680437	1.6331524	-0.54374195	-0.16531042	0.068157322	0.12976813	0.22846077	1.9472465	1.8355894	1.6042044	1.8355676	1.6044191	0.014045311	1.614712	1.1110228	-0.0025310237	-0.00013658887	0.076362658	0.97792225	0.076413886	0.97728922	0.00046329158	0.00016781919	1.0325511	0.71455638	-1.4404539	-0.5455621	1.4406874	0.54547872	-0.25689208	2.3590794	0.028214631	0.21038463	0.051588889	0.1530982	0.33055413	0.15311966	0.33044212	0.014080601	0.31496338	0.033309917	3.9541524	5.3413124	5.0957306	5.148629	5.0956736	5.1482459	4.2533473	5.9301072	5.2981021	2.803797	3.3940668	4.9912507	3.3945774	4.9908148	3.7833689	3.3522059	-73.558733	R0:S0:1	-54.678483	uncorrelated	51514b8	2022-04-18@12:45
