Number of OpenMP threads = 4
!!!!!!!!!!!!!!!!!!!!!!!!!!!!! - Fading to HgBa2Ca2Cu3O8_outer - !!!!!!!!!!!!!!!!!!!!!!!!!!!!!
reading data file /home/theod/code_pyqcm/simulations/winning_fade/Sr_starting_state.tsv, line 1
101 columns read
----->  D  =  0.0
----->  U  =  14.0
----->  e  =  3.1695
----->  eb1_1  =  0.0018966178
----->  eb2_1  =  -3.1022638
----->  eb3_1  =  -3.6869349
----->  eb4_1  =  -0.10868969
----->  eb5_1  =  -3.686944
----->  eb6_1  =  -0.10869079
----->  eb7_1  =  0.14780046
----->  eb8_1  =  -3.2464716
----->  mu  =  9.8
----->  sb1_1  =  -3.6500554e-05
----->  sb2_1  =  -6.7538764e-06
----->  sb3_1  =  0.0094399223
----->  sb4_1  =  -0.17253352
----->  sb5_1  =  0.0094394611
----->  sb6_1  =  -0.17253362
----->  sb7_1  =  3.636482e-06
----->  sb8_1  =  8.7254376e-06
----->  tb1_1  =  -0.1122816
----->  tb2_1  =  -1.0480638
----->  tb3_1  =  1.635789
----->  tb4_1  =  0.042537516
----->  tb5_1  =  -1.6357909
----->  tb6_1  =  -0.04253608
----->  tb7_1  =  0.24121687
----->  tb8_1  =  -2.1549857
----->  tpd  =  1.9492
----->  tpp  =  1.0
----->  tppp  =  0.2373

******************************* CDMFT procedure *******************************

minimization method =  CG
mixing state =  1
frequency grid type =  sharp
fictitious inverse temperature =  50
frequency cutoff =  2.0
--------------------------------------------------------------------------------

CDMFT iteration 1, distance =  1.28e+02, diff param =  2.36e-04
7 minimization steps, time(MIN)/time(ED)=0.00441
====================== CDMFT converged on the parameters ======================
sb1_1     = -0.0000	sb2_1     = -0.0000	sb3_1     =  0.0093	sb4_1     = -0.1725	sb5_1     =  0.0093	
sb6_1     = -0.1725	sb7_1     = -0.0000	sb8_1     = -0.0000	eb1_1     =  0.0023	eb2_1     = -3.1023	
eb3_1     = -3.6869	eb4_1     = -0.1083	eb5_1     = -3.6869	eb6_1     = -0.1083	eb7_1     =  0.1473	
eb8_1     = -3.2467	tb1_1     = -0.1123	tb2_1     = -1.0480	tb3_1     =  1.6357	tb4_1     =  0.0420	
tb5_1     = -1.6357	tb6_1     = -0.0420	tb7_1     =  0.2411	tb8_1     = -2.1550	
   <D> = 0.013238
   <e> = 1.255704
   <mu> = 1.618027
   <tpd> = -0.590666
   <tpp> = -0.195990
   <tppp> = 0.080027
************************* CDMFT completed successfully *************************

******************************* CDMFT procedure *******************************

minimization method =  CG
mixing state =  1
frequency grid type =  sharp
fictitious inverse temperature =  50
frequency cutoff =  2.0
--------------------------------------------------------------------------------

CDMFT iteration 1, distance =  1.28e+02, diff param =  2.70e-03
31 minimization steps, time(MIN)/time(ED)=0.00077
sb1_1     = -0.0000	sb2_1     =  0.0000	sb3_1     =  0.0092	sb4_1     = -0.1712	sb5_1     =  0.0092	
sb6_1     = -0.1712	sb7_1     =  0.0000	sb8_1     =  0.0000	eb1_1     =  0.0019	eb2_1     = -3.1040	
eb3_1     = -3.6898	eb4_1     = -0.1067	eb5_1     = -3.6898	eb6_1     = -0.1067	eb7_1     =  0.1461	
eb8_1     = -3.2580	tb1_1     = -0.1118	tb2_1     = -1.0466	tb3_1     =  1.6334	tb4_1     =  0.0418	
tb5_1     = -1.6334	tb6_1     = -0.0418	tb7_1     =  0.2396	tb8_1     = -2.1537	

CDMFT iteration 2, distance =  1.26e+02, diff param =  8.61e-04, diff hybrid =  9.60e-03
12 minimization steps, time(MIN)/time(ED)=0.00054
====================== CDMFT converged on the parameters ======================
sb1_1     = -0.0000	sb2_1     = -0.0000	sb3_1     =  0.0094	sb4_1     = -0.1698	sb5_1     =  0.0094	
sb6_1     = -0.1698	sb7_1     = -0.0000	sb8_1     =  0.0000	eb1_1     =  0.0007	eb2_1     = -3.1041	
eb3_1     = -3.6901	eb4_1     = -0.1059	eb5_1     = -3.6901	eb6_1     = -0.1059	eb7_1     =  0.1452	
eb8_1     = -3.2580	tb1_1     = -0.1115	tb2_1     = -1.0471	tb3_1     =  1.6342	tb4_1     =  0.0433	
tb5_1     = -1.6342	tb6_1     = -0.0433	tb7_1     =  0.2380	tb8_1     = -2.1547	
   <D> = 0.013128
   <e> = 1.256679
   <mu> = 1.619062
   <tpd> = -0.587288
   <tpp> = -0.193485
   <tppp> = 0.079073
************************* CDMFT completed successfully *************************

******************************* CDMFT procedure *******************************

minimization method =  CG
mixing state =  1
frequency grid type =  sharp
fictitious inverse temperature =  50
frequency cutoff =  2.0
--------------------------------------------------------------------------------

CDMFT iteration 1, distance =  1.26e+02, diff param =  4.44e-03
68 minimization steps, time(MIN)/time(ED)=0.00152
sb1_1     = -0.0000	sb2_1     =  0.0000	sb3_1     =  0.0093	sb4_1     = -0.1689	sb5_1     =  0.0093	
sb6_1     = -0.1689	sb7_1     =  0.0000	sb8_1     =  0.0000	eb1_1     =  0.0007	eb2_1     = -3.1143	
eb3_1     = -3.7012	eb4_1     = -0.1039	eb5_1     = -3.7012	eb6_1     = -0.1039	eb7_1     =  0.1429	
eb8_1     = -3.2682	tb1_1     = -0.1113	tb2_1     = -1.0469	tb3_1     =  1.6334	tb4_1     =  0.0432	
tb5_1     = -1.6334	tb6_1     = -0.0432	tb7_1     =  0.2366	tb8_1     = -2.1528	

CDMFT iteration 2, distance =  1.25e+02, diff param =  6.49e-04, diff hybrid =  1.03e-02
12 minimization steps, time(MIN)/time(ED)=0.00092
====================== CDMFT converged on the parameters ======================
sb1_1     = -0.0000	sb2_1     = -0.0000	sb3_1     =  0.0094	sb4_1     = -0.1677	sb5_1     =  0.0094	
sb6_1     = -0.1677	sb7_1     = -0.0000	sb8_1     =  0.0000	eb1_1     =  0.0000	eb2_1     = -3.1148	
eb3_1     = -3.7015	eb4_1     = -0.1033	eb5_1     = -3.7015	eb6_1     = -0.1033	eb7_1     =  0.1422	
eb8_1     = -3.2682	tb1_1     = -0.1110	tb2_1     = -1.0474	tb3_1     =  1.6341	tb4_1     =  0.0440	
tb5_1     = -1.6341	tb6_1     = -0.0440	tb7_1     =  0.2353	tb8_1     = -2.1537	
   <D> = 0.013209
   <e> = 1.257432
   <mu> = 1.619994
   <tpd> = -0.584442
   <tpp> = -0.191678
   <tppp> = 0.078361
************************* CDMFT completed successfully *************************

******************************* CDMFT procedure *******************************

minimization method =  CG
mixing state =  1
frequency grid type =  sharp
fictitious inverse temperature =  50
frequency cutoff =  2.0
--------------------------------------------------------------------------------

CDMFT iteration 1, distance =  1.24e+02, diff param =  3.28e-03
39 minimization steps, time(MIN)/time(ED)=0.00091
sb1_1     = -0.0000	sb2_1     = -0.0000	sb3_1     =  0.0093	sb4_1     = -0.1665	sb5_1     =  0.0093	
sb6_1     = -0.1665	sb7_1     =  0.0000	sb8_1     = -0.0000	eb1_1     = -0.0004	eb2_1     = -3.1207	
eb3_1     = -3.7079	eb4_1     = -0.1014	eb5_1     = -3.7079	eb6_1     = -0.1014	eb7_1     =  0.1404	
eb8_1     = -3.2790	tb1_1     = -0.1107	tb2_1     = -1.0466	tb3_1     =  1.6324	tb4_1     =  0.0440	
tb5_1     = -1.6324	tb6_1     = -0.0440	tb7_1     =  0.2338	tb8_1     = -2.1522	

CDMFT iteration 2, distance =  1.23e+02, diff param =  4.30e-03, diff hybrid =  9.74e-03
36 minimization steps, time(MIN)/time(ED)=0.00089
sb1_1     = -0.0000	sb2_1     = -0.0000	sb3_1     =  0.0095	sb4_1     = -0.1657	sb5_1     =  0.0095	
sb6_1     = -0.1657	sb7_1     =  0.0000	sb8_1     =  0.0000	eb1_1     = -0.0012	eb2_1     = -3.1348	
eb3_1     = -3.7182	eb4_1     = -0.1012	eb5_1     = -3.7182	eb6_1     = -0.1012	eb7_1     =  0.1393	
eb8_1     = -3.2776	tb1_1     = -0.1105	tb2_1     = -1.0491	tb3_1     =  1.6352	tb4_1     =  0.0452	
tb5_1     = -1.6352	tb6_1     = -0.0452	tb7_1     =  0.2323	tb8_1     = -2.1526	

CDMFT iteration 3, distance =  1.23e+02, diff param =  1.72e-04, diff hybrid =  3.92e-03
5 minimization steps, time(MIN)/time(ED)=0.00064
====================== CDMFT converged on the parameters ======================
sb1_1     = -0.0000	sb2_1     = -0.0000	sb3_1     =  0.0095	sb4_1     = -0.1657	sb5_1     =  0.0095	
sb6_1     = -0.1657	sb7_1     = -0.0000	sb8_1     =  0.0000	eb1_1     = -0.0011	eb2_1     = -3.1349	
eb3_1     = -3.7182	eb4_1     = -0.1008	eb5_1     = -3.7182	eb6_1     = -0.1008	eb7_1     =  0.1387	
eb8_1     = -3.2776	tb1_1     = -0.1106	tb2_1     = -1.0491	tb3_1     =  1.6351	tb4_1     =  0.0454	
tb5_1     = -1.6351	tb6_1     = -0.0454	tb7_1     =  0.2323	tb8_1     = -2.1526	
   <D> = 0.013290
   <e> = 1.258265
   <mu> = 1.621156
   <tpd> = -0.581179
   <tpp> = -0.189729
   <tppp> = 0.077582
************************* CDMFT completed successfully *************************

******************************* CDMFT procedure *******************************

minimization method =  CG
mixing state =  1
frequency grid type =  sharp
fictitious inverse temperature =  50
frequency cutoff =  2.0
--------------------------------------------------------------------------------

CDMFT iteration 1, distance =  1.23e+02, diff param =  3.29e-03
39 minimization steps, time(MIN)/time(ED)=0.00093
sb1_1     = -0.0000	sb2_1     =  0.0000	sb3_1     =  0.0093	sb4_1     = -0.1646	sb5_1     =  0.0093	
sb6_1     = -0.1646	sb7_1     =  0.0000	sb8_1     =  0.0000	eb1_1     = -0.0011	eb2_1     = -3.1409	
eb3_1     = -3.7226	eb4_1     = -0.0992	eb5_1     = -3.7226	eb6_1     = -0.0992	eb7_1     =  0.1376	
eb8_1     = -3.2904	tb1_1     = -0.1102	tb2_1     = -1.0483	tb3_1     =  1.6330	tb4_1     =  0.0448	
tb5_1     = -1.6330	tb6_1     = -0.0448	tb7_1     =  0.2311	tb8_1     = -2.1516	

CDMFT iteration 2, distance =  1.21e+02, diff param =  8.92e-04, diff hybrid =  1.00e-02
12 minimization steps, time(MIN)/time(ED)=0.00062
====================== CDMFT converged on the parameters ======================
sb1_1     = -0.0000	sb2_1     = -0.0000	sb3_1     =  0.0095	sb4_1     = -0.1630	sb5_1     =  0.0095	
sb6_1     = -0.1630	sb7_1     =  0.0000	sb8_1     =  0.0000	eb1_1     = -0.0025	eb2_1     = -3.1413	
eb3_1     = -3.7228	eb4_1     = -0.0985	eb5_1     = -3.7228	eb6_1     = -0.0985	eb7_1     =  0.1366	
eb8_1     = -3.2897	tb1_1     = -0.1099	tb2_1     = -1.0488	tb3_1     =  1.6338	tb4_1     =  0.0462	
tb5_1     = -1.6338	tb6_1     = -0.0462	tb7_1     =  0.2293	tb8_1     = -2.1525	
   <D> = 0.013198
   <e> = 1.259155
   <mu> = 1.622081
   <tpd> = -0.578058
   <tpp> = -0.187412
   <tppp> = 0.076703
************************* CDMFT completed successfully *************************

******************************* CDMFT procedure *******************************

minimization method =  CG
mixing state =  1
frequency grid type =  sharp
fictitious inverse temperature =  50
frequency cutoff =  2.0
--------------------------------------------------------------------------------

CDMFT iteration 1, distance =  1.20e+02, diff param =  4.83e-03
49 minimization steps, time(MIN)/time(ED)=0.00109
sb1_1     = -0.0000	sb2_1     =  0.0000	sb3_1     =  0.0094	sb4_1     = -0.1620	sb5_1     =  0.0094	
sb6_1     = -0.1620	sb7_1     =  0.0000	sb8_1     =  0.0000	eb1_1     = -0.0029	eb2_1     = -3.1559	
eb3_1     = -3.7340	eb4_1     = -0.0965	eb5_1     = -3.7340	eb6_1     = -0.0965	eb7_1     =  0.1340	
eb8_1     = -3.2978	tb1_1     = -0.1097	tb2_1     = -1.0493	tb3_1     =  1.6331	tb4_1     =  0.0462	
tb5_1     = -1.6331	tb6_1     = -0.0462	tb7_1     =  0.2276	tb8_1     = -2.1500	

CDMFT iteration 2, distance =  1.19e+02, diff param =  5.89e-04, diff hybrid =  9.97e-03
9 minimization steps, time(MIN)/time(ED)=0.00067
====================== CDMFT converged on the parameters ======================
sb1_1     = -0.0000	sb2_1     = -0.0000	sb3_1     =  0.0094	sb4_1     = -0.1610	sb5_1     =  0.0094	
sb6_1     = -0.1610	sb7_1     = -0.0000	sb8_1     =  0.0000	eb1_1     = -0.0034	eb2_1     = -3.1562	
eb3_1     = -3.7340	eb4_1     = -0.0959	eb5_1     = -3.7340	eb6_1     = -0.0959	eb7_1     =  0.1330	
eb8_1     = -3.2979	tb1_1     = -0.1093	tb2_1     = -1.0497	tb3_1     =  1.6337	tb4_1     =  0.0468	
tb5_1     = -1.6337	tb6_1     = -0.0468	tb7_1     =  0.2263	tb8_1     = -2.1508	
   <D> = 0.013225
   <e> = 1.259911
   <mu> = 1.623036
   <tpd> = -0.575148
   <tpp> = -0.185598
   <tppp> = 0.075987
************************* CDMFT completed successfully *************************

******************************* CDMFT procedure *******************************

minimization method =  CG
mixing state =  1
frequency grid type =  sharp
fictitious inverse temperature =  50
frequency cutoff =  2.0
--------------------------------------------------------------------------------

CDMFT iteration 1, distance =  1.19e+02, diff param =  4.51e-03
62 minimization steps, time(MIN)/time(ED)=0.00139
sb1_1     = -0.0000	sb2_1     =  0.0000	sb3_1     =  0.0094	sb4_1     = -0.1598	sb5_1     =  0.0094	
sb6_1     = -0.1598	sb7_1     = -0.0000	sb8_1     = -0.0000	eb1_1     = -0.0039	eb2_1     = -3.1692	
eb3_1     = -3.7436	eb4_1     = -0.0943	eb5_1     = -3.7436	eb6_1     = -0.0943	eb7_1     =  0.1312	
eb8_1     = -3.3088	tb1_1     = -0.1091	tb2_1     = -1.0499	tb3_1     =  1.6327	tb4_1     =  0.0470	
tb5_1     = -1.6327	tb6_1     = -0.0469	tb7_1     =  0.2247	tb8_1     = -2.1494	

CDMFT iteration 2, distance =  1.17e+02, diff param =  8.34e-04, diff hybrid =  9.58e-03
14 minimization steps, time(MIN)/time(ED)=0.00087
====================== CDMFT converged on the parameters ======================
sb1_1     = -0.0000	sb2_1     =  0.0000	sb3_1     =  0.0095	sb4_1     = -0.1583	sb5_1     =  0.0095	
sb6_1     = -0.1583	sb7_1     =  0.0000	sb8_1     =  0.0000	eb1_1     = -0.0051	eb2_1     = -3.1698	
eb3_1     = -3.7439	eb4_1     = -0.0933	eb5_1     = -3.7439	eb6_1     = -0.0933	eb7_1     =  0.1300	
eb8_1     = -3.3086	tb1_1     = -0.1088	tb2_1     = -1.0503	tb3_1     =  1.6333	tb4_1     =  0.0480	
tb5_1     = -1.6333	tb6_1     = -0.0480	tb7_1     =  0.2230	tb8_1     = -2.1502	
   <D> = 0.013164
   <e> = 1.260791
   <mu> = 1.624102
   <tpd> = -0.571876
   <tpp> = -0.183391
   <tppp> = 0.075136
************************* CDMFT completed successfully *************************

******************************* CDMFT procedure *******************************

minimization method =  CG
mixing state =  1
frequency grid type =  sharp
fictitious inverse temperature =  50
frequency cutoff =  2.0
--------------------------------------------------------------------------------

CDMFT iteration 1, distance =  1.17e+02, diff param =  5.73e-03
47 minimization steps, time(MIN)/time(ED)=0.00107
sb1_1     = -0.0000	sb2_1     = -0.0000	sb3_1     =  0.0094	sb4_1     = -0.1575	sb5_1     =  0.0094	
sb6_1     = -0.1575	sb7_1     =  0.0000	sb8_1     =  0.0000	eb1_1     = -0.0053	eb2_1     = -3.1882	
eb3_1     = -3.7568	eb4_1     = -0.0916	eb5_1     = -3.7568	eb6_1     = -0.0916	eb7_1     =  0.1276	
eb8_1     = -3.3183	tb1_1     = -0.1087	tb2_1     = -1.0514	tb3_1     =  1.6330	tb4_1     =  0.0478	
tb5_1     = -1.6330	tb6_1     = -0.0478	tb7_1     =  0.2214	tb8_1     = -2.1482	

CDMFT iteration 2, distance =  1.15e+02, diff param =  7.42e-04, diff hybrid =  9.89e-03
13 minimization steps, time(MIN)/time(ED)=0.00071
====================== CDMFT converged on the parameters ======================
sb1_1     = -0.0000	sb2_1     =  0.0000	sb3_1     =  0.0094	sb4_1     = -0.1561	sb5_1     =  0.0094	
sb6_1     = -0.1561	sb7_1     = -0.0000	sb8_1     = -0.0000	eb1_1     = -0.0063	eb2_1     = -3.1888	
eb3_1     = -3.7569	eb4_1     = -0.0908	eb5_1     = -3.7569	eb6_1     = -0.0908	eb7_1     =  0.1267	
eb8_1     = -3.3183	tb1_1     = -0.1083	tb2_1     = -1.0518	tb3_1     =  1.6337	tb4_1     =  0.0486	
tb5_1     = -1.6337	tb6_1     = -0.0486	tb7_1     =  0.2198	tb8_1     = -2.1491	
   <D> = 0.013120
   <e> = 1.261600
   <mu> = 1.625091
   <tpd> = -0.568800
   <tpp> = -0.181386
   <tppp> = 0.074359
************************* CDMFT completed successfully *************************

******************************* CDMFT procedure *******************************

minimization method =  CG
mixing state =  1
frequency grid type =  sharp
fictitious inverse temperature =  50
frequency cutoff =  2.0
--------------------------------------------------------------------------------

CDMFT iteration 1, distance =  1.15e+02, diff param =  3.92e-03
45 minimization steps, time(MIN)/time(ED)=0.00098
sb1_1     =  0.0000	sb2_1     = -0.0000	sb3_1     =  0.0093	sb4_1     = -0.1550	sb5_1     =  0.0093	
sb6_1     = -0.1550	sb7_1     =  0.0000	sb8_1     =  0.0000	eb1_1     = -0.0067	eb2_1     = -3.1999	
eb3_1     = -3.7646	eb4_1     = -0.0890	eb5_1     = -3.7646	eb6_1     = -0.0890	eb7_1     =  0.1242	
eb8_1     = -3.3284	tb1_1     = -0.1081	tb2_1     = -1.0518	tb3_1     =  1.6323	tb4_1     =  0.0485	
tb5_1     = -1.6323	tb6_1     = -0.0485	tb7_1     =  0.2181	tb8_1     = -2.1473	

CDMFT iteration 2, distance =  1.13e+02, diff param =  7.31e-04, diff hybrid =  9.57e-03
10 minimization steps, time(MIN)/time(ED)=0.00062
====================== CDMFT converged on the parameters ======================
sb1_1     =  0.0000	sb2_1     = -0.0000	sb3_1     =  0.0093	sb4_1     = -0.1536	sb5_1     =  0.0093	
sb6_1     = -0.1536	sb7_1     = -0.0000	sb8_1     = -0.0000	eb1_1     = -0.0078	eb2_1     = -3.2002	
eb3_1     = -3.7647	eb4_1     = -0.0883	eb5_1     = -3.7647	eb6_1     = -0.0883	eb7_1     =  0.1232	
eb8_1     = -3.3283	tb1_1     = -0.1077	tb2_1     = -1.0523	tb3_1     =  1.6329	tb4_1     =  0.0494	
tb5_1     = -1.6329	tb6_1     = -0.0494	tb7_1     =  0.2165	tb8_1     = -2.1482	
   <D> = 0.013047
   <e> = 1.262433
   <mu> = 1.626107
   <tpd> = -0.565653
   <tpp> = -0.179306
   <tppp> = 0.073553
************************* CDMFT completed successfully *************************

******************************* CDMFT procedure *******************************

minimization method =  CG
mixing state =  1
frequency grid type =  sharp
fictitious inverse temperature =  50
frequency cutoff =  2.0
--------------------------------------------------------------------------------

CDMFT iteration 1, distance =  1.13e+02, diff param =  4.94e-03
69 minimization steps, time(MIN)/time(ED)=0.00151
sb1_1     =  0.0000	sb2_1     = -0.0000	sb3_1     =  0.0092	sb4_1     = -0.1525	sb5_1     =  0.0092	
sb6_1     = -0.1525	sb7_1     =  0.0000	sb8_1     =  0.0000	eb1_1     = -0.0082	eb2_1     = -3.2159	
eb3_1     = -3.7751	eb4_1     = -0.0863	eb5_1     = -3.7751	eb6_1     = -0.0863	eb7_1     =  0.1207	
eb8_1     = -3.3382	tb1_1     = -0.1076	tb2_1     = -1.0528	tb3_1     =  1.6320	tb4_1     =  0.0493	
tb5_1     = -1.6320	tb6_1     = -0.0493	tb7_1     =  0.2148	tb8_1     = -2.1463	

CDMFT iteration 2, distance =  1.11e+02, diff param =  7.28e-04, diff hybrid =  9.65e-03
9 minimization steps, time(MIN)/time(ED)=0.00087
====================== CDMFT converged on the parameters ======================
sb1_1     =  0.0000	sb2_1     = -0.0000	sb3_1     =  0.0092	sb4_1     = -0.1512	sb5_1     =  0.0092	
sb6_1     = -0.1512	sb7_1     = -0.0000	sb8_1     =  0.0000	eb1_1     = -0.0092	eb2_1     = -3.2162	
eb3_1     = -3.7752	eb4_1     = -0.0857	eb5_1     = -3.7752	eb6_1     = -0.0857	eb7_1     =  0.1195	
eb8_1     = -3.3381	tb1_1     = -0.1072	tb2_1     = -1.0532	tb3_1     =  1.6327	tb4_1     =  0.0501	
tb5_1     = -1.6327	tb6_1     = -0.0501	tb7_1     =  0.2131	tb8_1     = -2.1471	
   <D> = 0.012973
   <e> = 1.263254
   <mu> = 1.627112
   <tpd> = -0.562521
   <tpp> = -0.177258
   <tppp> = 0.072763
************************* CDMFT completed successfully *************************

******************************* CDMFT procedure *******************************

minimization method =  CG
mixing state =  1
frequency grid type =  sharp
fictitious inverse temperature =  50
frequency cutoff =  2.0
--------------------------------------------------------------------------------

CDMFT iteration 1, distance =  1.11e+02, diff param =  3.48e-03
37 minimization steps, time(MIN)/time(ED)=0.00082
sb1_1     =  0.0000	sb2_1     =  0.0000	sb3_1     =  0.0091	sb4_1     = -0.1499	sb5_1     =  0.0091	
sb6_1     = -0.1499	sb7_1     =  0.0000	sb8_1     = -0.0000	eb1_1     = -0.0097	eb2_1     = -3.2242	
eb3_1     = -3.7821	eb4_1     = -0.0836	eb5_1     = -3.7821	eb6_1     = -0.0836	eb7_1     =  0.1171	
eb8_1     = -3.3481	tb1_1     = -0.1070	tb2_1     = -1.0527	tb3_1     =  1.6311	tb4_1     =  0.0501	
tb5_1     = -1.6311	tb6_1     = -0.0501	tb7_1     =  0.2113	tb8_1     = -2.1453	

CDMFT iteration 2, distance =  1.09e+02, diff param =  4.26e-03, diff hybrid =  9.54e-03
39 minimization steps, time(MIN)/time(ED)=0.00086
sb1_1     = -0.0000	sb2_1     =  0.0000	sb3_1     =  0.0092	sb4_1     = -0.1489	sb5_1     =  0.0092	
sb6_1     = -0.1489	sb7_1     = -0.0000	sb8_1     = -0.0000	eb1_1     = -0.0108	eb2_1     = -3.2403	
eb3_1     = -3.7906	eb4_1     = -0.0832	eb5_1     = -3.7906	eb6_1     = -0.0832	eb7_1     =  0.1157	
eb8_1     = -3.3472	tb1_1     = -0.1068	tb2_1     = -1.0554	tb3_1     =  1.6334	tb4_1     =  0.0508	
tb5_1     = -1.6334	tb6_1     = -0.0508	tb7_1     =  0.2096	tb8_1     = -2.1458	

CDMFT iteration 3, distance =  1.09e+02, diff param =  3.56e-04, diff hybrid =  3.86e-03
10 minimization steps, time(MIN)/time(ED)=0.00066
====================== CDMFT converged on the parameters ======================
sb1_1     = -0.0000	sb2_1     =  0.0000	sb3_1     =  0.0091	sb4_1     = -0.1487	sb5_1     =  0.0091	
sb6_1     = -0.1487	sb7_1     = -0.0000	sb8_1     =  0.0000	eb1_1     = -0.0108	eb2_1     = -3.2407	
eb3_1     = -3.7904	eb4_1     = -0.0823	eb5_1     = -3.7904	eb6_1     = -0.0823	eb7_1     =  0.1148	
eb8_1     = -3.3468	tb1_1     = -0.1069	tb2_1     = -1.0555	tb3_1     =  1.6334	tb4_1     =  0.0508	
tb5_1     = -1.6334	tb6_1     = -0.0508	tb7_1     =  0.2094	tb8_1     = -2.1457	
   <D> = 0.012881
   <e> = 1.264091
   <mu> = 1.628251
   <tpd> = -0.559186
   <tpp> = -0.175233
   <tppp> = 0.071969
************************* CDMFT completed successfully *************************

******************************* CDMFT procedure *******************************

minimization method =  CG
mixing state =  1
frequency grid type =  sharp
fictitious inverse temperature =  50
frequency cutoff =  2.0
--------------------------------------------------------------------------------

CDMFT iteration 1, distance =  1.09e+02, diff param =  3.83e-03
32 minimization steps, time(MIN)/time(ED)=0.00077
sb1_1     =  0.0000	sb2_1     = -0.0000	sb3_1     =  0.0089	sb4_1     = -0.1480	sb5_1     =  0.0089	
sb6_1     = -0.1480	sb7_1     = -0.0000	sb8_1     = -0.0000	eb1_1     = -0.0105	eb2_1     = -3.2511	
eb3_1     = -3.7971	eb4_1     = -0.0811	eb5_1     = -3.7971	eb6_1     = -0.0811	eb7_1     =  0.1133	
eb8_1     = -3.3585	tb1_1     = -0.1065	tb2_1     = -1.0553	tb3_1     =  1.6317	tb4_1     =  0.0499	
tb5_1     = -1.6317	tb6_1     = -0.0499	tb7_1     =  0.2083	tb8_1     = -2.1443	

CDMFT iteration 2, distance =  1.07e+02, diff param =  1.06e-03, diff hybrid =  1.00e-02
10 minimization steps, time(MIN)/time(ED)=0.00051
sb1_1     =  0.0000	sb2_1     = -0.0000	sb3_1     =  0.0091	sb4_1     = -0.1461	sb5_1     =  0.0091	
sb6_1     = -0.1461	sb7_1     =  0.0000	sb8_1     =  0.0000	eb1_1     = -0.0128	eb2_1     = -3.2513	
eb3_1     = -3.7971	eb4_1     = -0.0809	eb5_1     = -3.7971	eb6_1     = -0.0809	eb7_1     =  0.1125	
eb8_1     = -3.3582	tb1_1     = -0.1062	tb2_1     = -1.0557	tb3_1     =  1.6326	tb4_1     =  0.0516	
tb5_1     = -1.6326	tb6_1     = -0.0516	tb7_1     =  0.2060	tb8_1     = -2.1453	

CDMFT iteration 3, distance =  1.07e+02, diff param =  9.58e-04, diff hybrid =  6.14e-03
19 minimization steps, time(MIN)/time(ED)=0.00050
====================== CDMFT converged on the parameters ======================
sb1_1     = -0.0000	sb2_1     = -0.0000	sb3_1     =  0.0091	sb4_1     = -0.1459	sb5_1     =  0.0091	
sb6_1     = -0.1459	sb7_1     =  0.0000	sb8_1     =  0.0000	eb1_1     = -0.0130	eb2_1     = -3.2529	
eb3_1     = -3.7974	eb4_1     = -0.0796	eb5_1     = -3.7974	eb6_1     = -0.0796	eb7_1     =  0.1104	
eb8_1     = -3.3552	tb1_1     = -0.1065	tb2_1     = -1.0559	tb3_1     =  1.6325	tb4_1     =  0.0519	
tb5_1     = -1.6325	tb6_1     = -0.0519	tb7_1     =  0.2054	tb8_1     = -2.1443	
   <D> = 0.012747
   <e> = 1.264972
   <mu> = 1.629339
   <tpd> = -0.555841
   <tpp> = -0.173006
   <tppp> = 0.071116
************************* CDMFT completed successfully *************************

******************************* CDMFT procedure *******************************

minimization method =  CG
mixing state =  1
frequency grid type =  sharp
fictitious inverse temperature =  50
frequency cutoff =  2.0
--------------------------------------------------------------------------------

CDMFT iteration 1, distance =  1.07e+02, diff param =  5.44e-03
51 minimization steps, time(MIN)/time(ED)=0.00112
sb1_1     =  0.0000	sb2_1     = -0.0000	sb3_1     =  0.0087	sb4_1     = -0.1457	sb5_1     =  0.0087	
sb6_1     = -0.1457	sb7_1     =  0.0000	sb8_1     =  0.0000	eb1_1     = -0.0118	eb2_1     = -3.2693	
eb3_1     = -3.8090	eb4_1     = -0.0783	eb5_1     = -3.8090	eb6_1     = -0.0783	eb7_1     =  0.1090	
eb8_1     = -3.3676	tb1_1     = -0.1061	tb2_1     = -1.0565	tb3_1     =  1.6317	tb4_1     =  0.0503	
tb5_1     = -1.6317	tb6_1     = -0.0503	tb7_1     =  0.2048	tb8_1     = -2.1428	

CDMFT iteration 2, distance =  1.05e+02, diff param =  1.08e-03, diff hybrid =  1.08e-02
11 minimization steps, time(MIN)/time(ED)=0.00069
sb1_1     = -0.0000	sb2_1     = -0.0000	sb3_1     =  0.0089	sb4_1     = -0.1437	sb5_1     =  0.0089	
sb6_1     = -0.1437	sb7_1     = -0.0000	sb8_1     = -0.0000	eb1_1     = -0.0142	eb2_1     = -3.2695	
eb3_1     = -3.8090	eb4_1     = -0.0785	eb5_1     = -3.8089	eb6_1     = -0.0785	eb7_1     =  0.1086	
eb8_1     = -3.3675	tb1_1     = -0.1057	tb2_1     = -1.0570	tb3_1     =  1.6326	tb4_1     =  0.0519	
tb5_1     = -1.6326	tb6_1     = -0.0519	tb7_1     =  0.2025	tb8_1     = -2.1440	

CDMFT iteration 3, distance =  1.04e+02, diff param =  9.09e-04, diff hybrid =  6.57e-03
19 minimization steps, time(MIN)/time(ED)=0.00061
====================== CDMFT converged on the parameters ======================
sb1_1     =  0.0000	sb2_1     = -0.0000	sb3_1     =  0.0090	sb4_1     = -0.1431	sb5_1     =  0.0090	
sb6_1     = -0.1431	sb7_1     = -0.0000	sb8_1     = -0.0000	eb1_1     = -0.0151	eb2_1     = -3.2708	
eb3_1     = -3.8090	eb4_1     = -0.0771	eb5_1     = -3.8090	eb6_1     = -0.0771	eb7_1     =  0.1064	
eb8_1     = -3.3651	tb1_1     = -0.1061	tb2_1     = -1.0571	tb3_1     =  1.6326	tb4_1     =  0.0528	
tb5_1     = -1.6326	tb6_1     = -0.0528	tb7_1     =  0.2015	tb8_1     = -2.1434	
   <D> = 0.012595
   <e> = 1.265849
   <mu> = 1.630397
   <tpd> = -0.552506
   <tpp> = -0.170758
   <tppp> = 0.070260
************************* CDMFT completed successfully *************************

******************************* CDMFT procedure *******************************

minimization method =  CG
mixing state =  1
frequency grid type =  sharp
fictitious inverse temperature =  50
frequency cutoff =  2.0
--------------------------------------------------------------------------------

CDMFT iteration 1, distance =  1.05e+02, diff param =  5.61e-03
62 minimization steps, time(MIN)/time(ED)=0.00128
sb1_1     = -0.0000	sb2_1     = -0.0000	sb3_1     =  0.0086	sb4_1     = -0.1431	sb5_1     =  0.0086	
sb6_1     = -0.1431	sb7_1     = -0.0000	sb8_1     = -0.0000	eb1_1     = -0.0138	eb2_1     = -3.2902	
eb3_1     = -3.8202	eb4_1     = -0.0755	eb5_1     = -3.8203	eb6_1     = -0.0755	eb7_1     =  0.1044	
eb8_1     = -3.3750	tb1_1     = -0.1057	tb2_1     = -1.0581	tb3_1     =  1.6317	tb4_1     =  0.0511	
tb5_1     = -1.6317	tb6_1     = -0.0511	tb7_1     =  0.2008	tb8_1     = -2.1411	

CDMFT iteration 2, distance =  1.03e+02, diff param =  9.74e-04, diff hybrid =  1.10e-02
20 minimization steps, time(MIN)/time(ED)=0.00086
====================== CDMFT converged on the parameters ======================
sb1_1     =  0.0000	sb2_1     = -0.0000	sb3_1     =  0.0087	sb4_1     = -0.1414	sb5_1     =  0.0087	
sb6_1     = -0.1414	sb7_1     =  0.0000	sb8_1     = -0.0000	eb1_1     = -0.0157	eb2_1     = -3.2909	
eb3_1     = -3.8204	eb4_1     = -0.0757	eb5_1     = -3.8205	eb6_1     = -0.0757	eb7_1     =  0.1043	
eb8_1     = -3.3763	tb1_1     = -0.1053	tb2_1     = -1.0587	tb3_1     =  1.6326	tb4_1     =  0.0522	
tb5_1     = -1.6326	tb6_1     = -0.0522	tb7_1     =  0.1988	tb8_1     = -2.1426	
   <D> = 0.012489
   <e> = 1.266545
   <mu> = 1.631078
   <tpd> = -0.549927
   <tpp> = -0.168899
   <tppp> = 0.069559
************************* CDMFT completed successfully *************************

******************************* CDMFT procedure *******************************

minimization method =  CG
mixing state =  1
frequency grid type =  sharp
fictitious inverse temperature =  50
frequency cutoff =  2.0
--------------------------------------------------------------------------------

CDMFT iteration 1, distance =  1.02e+02, diff param =  2.97e-03
30 minimization steps, time(MIN)/time(ED)=0.00066
sb1_1     =  0.0000	sb2_1     = -0.0000	sb3_1     =  0.0087	sb4_1     = -0.1395	sb5_1     =  0.0087	
sb6_1     = -0.1395	sb7_1     = -0.0000	sb8_1     = -0.0000	eb1_1     = -0.0174	eb2_1     = -3.2953	
eb3_1     = -3.8252	eb4_1     = -0.0736	eb5_1     = -3.8253	eb6_1     = -0.0736	eb7_1     =  0.1010	
eb8_1     = -3.3862	tb1_1     = -0.1052	tb2_1     = -1.0577	tb3_1     =  1.6307	tb4_1     =  0.0530	
tb5_1     = -1.6307	tb6_1     = -0.0531	tb7_1     =  0.1962	tb8_1     = -2.1409	

CDMFT iteration 2, distance =  1.01e+02, diff param =  2.84e-03, diff hybrid =  9.18e-03
28 minimization steps, time(MIN)/time(ED)=0.00065
sb1_1     =  0.0000	sb2_1     =  0.0000	sb3_1     =  0.0086	sb4_1     = -0.1384	sb5_1     =  0.0086	
sb6_1     = -0.1384	sb7_1     =  0.0000	sb8_1     = -0.0000	eb1_1     = -0.0182	eb2_1     = -3.3048	
eb3_1     = -3.8313	eb4_1     = -0.0724	eb5_1     = -3.8313	eb6_1     = -0.0724	eb7_1     =  0.0984	
eb8_1     = -3.3836	tb1_1     = -0.1050	tb2_1     = -1.0592	tb3_1     =  1.6323	tb4_1     =  0.0534	
tb5_1     = -1.6323	tb6_1     = -0.0534	tb7_1     =  0.1943	tb8_1     = -2.1407	

CDMFT iteration 3, distance =  1.01e+02, diff param =  3.97e-04, diff hybrid =  3.40e-03
9 minimization steps, time(MIN)/time(ED)=0.00050
====================== CDMFT converged on the parameters ======================
sb1_1     = -0.0000	sb2_1     =  0.0000	sb3_1     =  0.0085	sb4_1     = -0.1386	sb5_1     =  0.0085	
sb6_1     = -0.1386	sb7_1     = -0.0000	sb8_1     = -0.0000	eb1_1     = -0.0174	eb2_1     = -3.3052	
eb3_1     = -3.8313	eb4_1     = -0.0716	eb5_1     = -3.8314	eb6_1     = -0.0716	eb7_1     =  0.0976	
eb8_1     = -3.3837	tb1_1     = -0.1050	tb2_1     = -1.0593	tb3_1     =  1.6323	tb4_1     =  0.0528	
tb5_1     = -1.6323	tb6_1     = -0.0528	tb7_1     =  0.1944	tb8_1     = -2.1406	
   <D> = 0.012372
   <e> = 1.267345
   <mu> = 1.632241
   <tpd> = -0.546604
   <tpp> = -0.167015
   <tppp> = 0.068819
************************* CDMFT completed successfully *************************

******************************* CDMFT procedure *******************************

minimization method =  CG
mixing state =  1
frequency grid type =  sharp
fictitious inverse temperature =  50
frequency cutoff =  2.0
--------------------------------------------------------------------------------

CDMFT iteration 1, distance =  1.01e+02, diff param =  5.63e-03
70 minimization steps, time(MIN)/time(ED)=0.00146
sb1_1     =  0.0000	sb2_1     =  0.0000	sb3_1     =  0.0083	sb4_1     = -0.1380	sb5_1     =  0.0083	
sb6_1     = -0.1380	sb7_1     = -0.0000	sb8_1     =  0.0000	eb1_1     = -0.0174	eb2_1     = -3.3241	
eb3_1     = -3.8423	eb4_1     = -0.0710	eb5_1     = -3.8422	eb6_1     = -0.0710	eb7_1     =  0.0969	
eb8_1     = -3.3964	tb1_1     = -0.1047	tb2_1     = -1.0603	tb3_1     =  1.6315	tb4_1     =  0.0522	
tb5_1     = -1.6315	tb6_1     = -0.0522	tb7_1     =  0.1934	tb8_1     = -2.1395	

CDMFT iteration 2, distance =  9.83e+01, diff param =  1.37e-03, diff hybrid =  9.60e-03
11 minimization steps, time(MIN)/time(ED)=0.00086
sb1_1     =  0.0000	sb2_1     = -0.0000	sb3_1     =  0.0085	sb4_1     = -0.1357	sb5_1     =  0.0085	
sb6_1     = -0.1357	sb7_1     = -0.0000	sb8_1     =  0.0000	eb1_1     = -0.0208	eb2_1     = -3.3242	
eb3_1     = -3.8423	eb4_1     = -0.0709	eb5_1     = -3.8422	eb6_1     = -0.0709	eb7_1     =  0.0955	
eb8_1     = -3.3963	tb1_1     = -0.1045	tb2_1     = -1.0607	tb3_1     =  1.6324	tb4_1     =  0.0543	
tb5_1     = -1.6324	tb6_1     = -0.0543	tb7_1     =  0.1905	tb8_1     = -2.1406	

CDMFT iteration 3, distance =  9.79e+01, diff param =  1.11e-03, diff hybrid =  7.30e-03
19 minimization steps, time(MIN)/time(ED)=0.00070
sb1_1     =  0.0001	sb2_1     = -0.0000	sb3_1     =  0.0084	sb4_1     = -0.1354	sb5_1     =  0.0084	
sb6_1     = -0.1354	sb7_1     = -0.0000	sb8_1     =  0.0000	eb1_1     = -0.0209	eb2_1     = -3.3255	
eb3_1     = -3.8423	eb4_1     = -0.0691	eb5_1     = -3.8423	eb6_1     = -0.0691	eb7_1     =  0.0925	
eb8_1     = -3.3932	tb1_1     = -0.1049	tb2_1     = -1.0608	tb3_1     =  1.6323	tb4_1     =  0.0544	
tb5_1     = -1.6323	tb6_1     = -0.0544	tb7_1     =  0.1896	tb8_1     = -2.1396	

CDMFT iteration 4, distance =  9.87e+01, diff param =  9.60e-04, diff hybrid =  3.25e-03
7 minimization steps, time(MIN)/time(ED)=0.00057
====================== CDMFT converged on the parameters ======================
sb1_1     =  0.0000	sb2_1     = -0.0000	sb3_1     =  0.0081	sb4_1     = -0.1367	sb5_1     =  0.0081	
sb6_1     = -0.1366	sb7_1     = -0.0001	sb8_1     =  0.0000	eb1_1     = -0.0182	eb2_1     = -3.3257	
eb3_1     = -3.8424	eb4_1     = -0.0686	eb5_1     = -3.8424	eb6_1     = -0.0687	eb7_1     =  0.0927	
eb8_1     = -3.3932	tb1_1     = -0.1045	tb2_1     = -1.0608	tb3_1     =  1.6320	tb4_1     =  0.0523	
tb5_1     = -1.6320	tb6_1     = -0.0524	tb7_1     =  0.1910	tb8_1     = -2.1391	
   <D> = 0.012257
   <e> = 1.268044
   <mu> = 1.633152
   <tpd> = -0.543742
   <tpp> = -0.165310
   <tppp> = 0.068157
************************* CDMFT completed successfully *************************

******************************* CDMFT procedure *******************************

minimization method =  CG
mixing state =  1
frequency grid type =  sharp
fictitious inverse temperature =  50
frequency cutoff =  2.0
--------------------------------------------------------------------------------

CDMFT iteration 1, distance =  9.86e+01, diff param =  3.30e-03
23 minimization steps, time(MIN)/time(ED)=0.00051
sb1_1     =  0.0001	sb2_1     = -0.0000	sb3_1     =  0.0081	sb4_1     = -0.1355	sb5_1     =  0.0081	
sb6_1     = -0.1355	sb7_1     =  0.0000	sb8_1     = -0.0000	eb1_1     = -0.0188	eb2_1     = -3.3293	
eb3_1     = -3.8464	eb4_1     = -0.0688	eb5_1     = -3.8465	eb6_1     = -0.0688	eb7_1     =  0.0934	
eb8_1     = -3.4074	tb1_1     = -0.1040	tb2_1     = -1.0598	tb3_1     =  1.6301	tb4_1     =  0.0524	
tb5_1     = -1.6302	tb6_1     = -0.0523	tb7_1     =  0.1899	tb8_1     = -2.1388	

CDMFT iteration 2, distance =  9.60e+01, diff param =  4.04e-03, diff hybrid =  9.32e-03
50 minimization steps, time(MIN)/time(ED)=0.00076
sb1_1     = -0.0000	sb2_1     =  0.0000	sb3_1     =  0.0085	sb4_1     = -0.1326	sb5_1     =  0.0085	
sb6_1     = -0.1326	sb7_1     = -0.0001	sb8_1     =  0.0000	eb1_1     = -0.0241	eb2_1     = -3.3409	
eb3_1     = -3.8548	eb4_1     = -0.0688	eb5_1     = -3.8554	eb6_1     = -0.0689	eb7_1     =  0.0912	
eb8_1     = -3.4056	tb1_1     = -0.1044	tb2_1     = -1.0616	tb3_1     =  1.6327	tb4_1     =  0.0556	
tb5_1     = -1.6328	tb6_1     = -0.0557	tb7_1     =  0.1860	tb8_1     = -2.1395	

CDMFT iteration 3, distance =  9.55e+01, diff param =  3.46e-03, diff hybrid =  9.37e-03
48 minimization steps, time(MIN)/time(ED)=0.00082
sb1_1     =  0.0004	sb2_1     =  0.0001	sb3_1     =  0.0083	sb4_1     = -0.1324	sb5_1     =  0.0081	
sb6_1     = -0.1325	sb7_1     =  0.0020	sb8_1     = -0.0002	eb1_1     = -0.0235	eb2_1     = -3.3487	
eb3_1     = -3.8619	eb4_1     = -0.0677	eb5_1     = -3.8461	eb6_1     = -0.0644	eb7_1     =  0.0867	
eb8_1     = -3.4003	tb1_1     = -0.1047	tb2_1     = -1.0626	tb3_1     =  1.6337	tb4_1     =  0.0566	
tb5_1     = -1.6308	tb6_1     = -0.0541	tb7_1     =  0.1849	tb8_1     = -2.1376	

CDMFT iteration 4, distance =  9.68e+01, diff param =  2.77e-03, diff hybrid =  5.97e-03
41 minimization steps, time(MIN)/time(ED)=0.00083
sb1_1     = -0.0044	sb2_1     =  0.0003	sb3_1     =  0.0075	sb4_1     = -0.1343	sb5_1     =  0.0081	
sb6_1     = -0.1345	sb7_1     = -0.0011	sb8_1     =  0.0001	eb1_1     = -0.0195	eb2_1     = -3.3533	
eb3_1     = -3.8569	eb4_1     = -0.0646	eb5_1     = -3.8501	eb6_1     = -0.0665	eb7_1     =  0.0879	
eb8_1     = -3.4028	tb1_1     = -0.1040	tb2_1     = -1.0633	tb3_1     =  1.6325	tb4_1     =  0.0506	
tb5_1     = -1.6311	tb6_1     = -0.0537	tb7_1     =  0.1874	tb8_1     = -2.1377	

CDMFT iteration 5, distance =  9.65e+01, diff param =  4.59e-03, diff hybrid =  8.49e-03
63 minimization steps, time(MIN)/time(ED)=0.00093
sb1_1     =  0.0024	sb2_1     =  0.0000	sb3_1     =  0.0084	sb4_1     = -0.1337	sb5_1     =  0.0078	
sb6_1     = -0.1335	sb7_1     =  0.0042	sb8_1     = -0.0004	eb1_1     = -0.0208	eb2_1     = -3.3559	
eb3_1     = -3.8706	eb4_1     = -0.0708	eb5_1     = -3.8392	eb6_1     = -0.0643	eb7_1     =  0.0910	
eb8_1     = -3.4055	tb1_1     = -0.1041	tb2_1     = -1.0638	tb3_1     =  1.6353	tb4_1     =  0.0562	
tb5_1     = -1.6298	tb6_1     = -0.0504	tb7_1     =  0.1871	tb8_1     = -2.1391	

CDMFT iteration 6, distance =  9.58e+01, diff param =  8.45e-03, diff hybrid =  9.84e-03
69 minimization steps, time(MIN)/time(ED)=0.00099
sb1_1     = -0.0086	sb2_1     =  0.0006	sb3_1     =  0.0077	sb4_1     = -0.1325	sb5_1     =  0.0089	
sb6_1     = -0.1328	sb7_1     = -0.0049	sb8_1     =  0.0005	eb1_1     = -0.0238	eb2_1     = -3.3581	
eb3_1     = -3.8463	eb4_1     = -0.0632	eb5_1     = -3.8640	eb6_1     = -0.0716	eb7_1     =  0.0892	
eb8_1     = -3.4033	tb1_1     = -0.1044	tb2_1     = -1.0640	tb3_1     =  1.6312	tb4_1     =  0.0502	
tb5_1     = -1.6341	tb6_1     = -0.0598	tb7_1     =  0.1856	tb8_1     = -2.1387	

CDMFT iteration 7, distance =  9.00e+01, diff param =  2.34e-02, diff hybrid =  1.48e-02
82 minimization steps, time(MIN)/time(ED)=0.00109
sb1_1     =  0.0063	sb2_1     = -0.0002	sb3_1     =  0.0111	sb4_1     = -0.1238	sb5_1     =  0.0084	
sb6_1     = -0.1218	sb7_1     =  0.0167	sb8_1     = -0.0018	eb1_1     = -0.0375	eb2_1     = -3.3708	
eb3_1     = -3.9230	eb4_1     = -0.0840	eb5_1     = -3.8008	eb6_1     = -0.0539	eb7_1     =  0.0872	
eb8_1     = -3.3964	tb1_1     = -0.1093	tb2_1     = -1.0645	tb3_1     =  1.6452	tb4_1     =  0.0779	
tb5_1     = -1.6238	tb6_1     = -0.0566	tb7_1     =  0.1745	tb8_1     = -2.1394	

CDMFT iteration 8, distance =  7.53e+01, diff param =  8.62e-02, diff hybrid =  4.13e-02
194 minimization steps, time(MIN)/time(ED)=0.00142
sb1_1     = -0.0159	sb2_1     =  0.0049	sb3_1     =  0.0134	sb4_1     = -0.0997	sb5_1     =  0.0166	
sb6_1     = -0.1034	sb7_1     = -0.0249	sb8_1     =  0.0034	eb1_1     = -0.1231	eb2_1     = -3.7100	
eb3_1     = -3.9237	eb4_1     = -0.0814	eb5_1     = -3.9979	eb6_1     = -0.1077	eb7_1     =  0.0618	
eb8_1     = -3.3644	tb1_1     = -0.1517	tb2_1     = -1.0948	tb3_1     =  1.6449	tb4_1     =  0.0964	
tb5_1     = -1.6546	tb6_1     = -0.1213	tb7_1     =  0.1420	tb8_1     = -2.1332	

CDMFT iteration 9, distance =  8.17e+01, diff param =  6.29e-02, diff hybrid =  8.52e-02
152 minimization steps, time(MIN)/time(ED)=0.00163
sb1_1     =  0.0147	sb2_1     = -0.0021	sb3_1     =  0.0140	sb4_1     = -0.1136	sb5_1     =  0.0121	
sb6_1     = -0.1049	sb7_1     =  0.0253	sb8_1     = -0.0016	eb1_1     = -0.0385	eb2_1     = -3.4470	
eb3_1     = -4.0081	eb4_1     = -0.0871	eb5_1     = -3.9440	eb6_1     = -0.0693	eb7_1     =  0.0292	
eb8_1     = -3.3628	tb1_1     = -0.1192	tb2_1     = -1.0741	tb3_1     =  1.6568	tb4_1     =  0.1109	
tb5_1     = -1.6465	tb6_1     = -0.0997	tb7_1     =  0.1354	tb8_1     = -2.1263	

CDMFT iteration 10, distance =  9.61e+01, diff param =  4.58e-02, diff hybrid =  7.05e-02
120 minimization steps, time(MIN)/time(ED)=0.00171
sb1_1     = -0.0357	sb2_1     =  0.0016	sb3_1     =  0.0077	sb4_1     = -0.1252	sb5_1     =  0.0121	
sb6_1     = -0.1322	sb7_1     = -0.0259	sb8_1     =  0.0025	eb1_1     = -0.0214	eb2_1     = -3.4053	
eb3_1     = -3.8387	eb4_1     = -0.0454	eb5_1     = -3.9923	eb6_1     = -0.0916	eb7_1     =  0.0770	
eb8_1     = -3.3949	tb1_1     = -0.1053	tb2_1     = -1.0707	tb3_1     =  1.6278	tb4_1     =  0.0573	
tb5_1     = -1.6547	tb6_1     = -0.0895	tb7_1     =  0.1724	tb8_1     = -2.1358	

CDMFT iteration 11, distance =  1.00e+02, diff param =  4.92e-02, diff hybrid =  9.04e-02
71 minimization steps, time(MIN)/time(ED)=0.00169
sb1_1     =  0.0451	sb2_1     = -0.0029	sb3_1     =  0.0117	sb4_1     = -0.1393	sb5_1     =  0.0052	
sb6_1     = -0.1350	sb7_1     =  0.0262	sb8_1     = -0.0027	eb1_1     = -0.0270	eb2_1     = -3.3947	
eb3_1     = -3.9463	eb4_1     = -0.0950	eb5_1     = -3.8307	eb6_1     = -0.0496	eb7_1     =  0.0951	
eb8_1     = -3.4181	tb1_1     = -0.0993	tb2_1     = -1.0685	tb3_1     =  1.6467	tb4_1     =  0.0797	
tb5_1     = -1.6269	tb6_1     = -0.0299	tb7_1     =  0.1895	tb8_1     = -2.1412	

CDMFT iteration 12, distance =  9.34e+01, diff param =  5.01e-02, diff hybrid =  8.72e-02
82 minimization steps, time(MIN)/time(ED)=0.00171
sb1_1     = -0.0326	sb2_1     =  0.0045	sb3_1     =  0.0059	sb4_1     = -0.1248	sb5_1     =  0.0139	
sb6_1     = -0.1291	sb7_1     = -0.0317	sb8_1     =  0.0040	eb1_1     = -0.0483	eb2_1     = -3.4034	
eb3_1     = -3.8086	eb4_1     = -0.0506	eb5_1     = -3.9677	eb6_1     = -0.1048	eb7_1     =  0.1017	
eb8_1     = -3.4181	tb1_1     = -0.1093	tb2_1     = -1.0682	tb3_1     =  1.6262	tb4_1     =  0.0368	
tb5_1     = -1.6517	tb6_1     = -0.0930	tb7_1     =  0.1802	tb8_1     = -2.1451	

CDMFT iteration 13, distance =  8.09e+01, diff param =  9.03e-02, diff hybrid =  9.73e-02
214 minimization steps, time(MIN)/time(ED)=0.00191
sb1_1     =  0.0267	sb2_1     = -0.0078	sb3_1     =  0.0168	sb4_1     = -0.1126	sb5_1     =  0.0092	
sb6_1     = -0.1015	sb7_1     =  0.0520	sb8_1     = -0.0079	eb1_1     = -0.1240	eb2_1     = -3.6998	
eb3_1     = -4.0370	eb4_1     = -0.1166	eb5_1     = -3.8313	eb6_1     = -0.0524	eb7_1     =  0.0977	
eb8_1     = -3.4044	tb1_1     = -0.1497	tb2_1     = -1.0947	tb3_1     =  1.6615	tb4_1     =  0.1216	
tb5_1     = -1.6303	tb6_1     = -0.0709	tb7_1     =  0.1582	tb8_1     = -2.1438	

CDMFT iteration 14, distance =  8.24e+01, diff param =  7.97e-02, diff hybrid =  1.13e-01
208 minimization steps, time(MIN)/time(ED)=0.00210
sb1_1     = -0.0310	sb2_1     =  0.0045	sb3_1     =  0.0099	sb4_1     = -0.1035	sb5_1     =  0.0150	
sb6_1     = -0.1176	sb7_1     = -0.0384	sb8_1     =  0.0038	eb1_1     = -0.0427	eb2_1     = -3.4540	
eb3_1     = -3.8891	eb4_1     = -0.0547	eb5_1     = -4.0209	eb6_1     = -0.0968	eb7_1     =  0.0515	
eb8_1     = -3.3725	tb1_1     = -0.1163	tb2_1     = -1.0752	tb3_1     =  1.6384	tb4_1     =  0.0835	
tb5_1     = -1.6589	tb6_1     = -0.1136	tb7_1     =  0.1424	tb8_1     = -2.1313	

CDMFT iteration 15, distance =  9.73e+01, diff param =  5.95e-02, diff hybrid =  1.05e-01
83 minimization steps, time(MIN)/time(ED)=0.00208
sb1_1     =  0.0435	sb2_1     = -0.0027	sb3_1     =  0.0128	sb4_1     = -0.1344	sb5_1     =  0.0068	
sb6_1     = -0.1259	sb7_1     =  0.0326	sb8_1     = -0.0034	eb1_1     = -0.0257	eb2_1     = -3.4067	
eb3_1     = -4.0104	eb4_1     = -0.0983	eb5_1     = -3.8166	eb6_1     = -0.0415	eb7_1     =  0.0838	
eb8_1     = -3.4037	tb1_1     = -0.1035	tb2_1     = -1.0706	tb3_1     =  1.6576	tb4_1     =  0.0927	
tb5_1     = -1.6240	tb6_1     = -0.0490	tb7_1     =  0.1757	tb8_1     = -2.1383	

CDMFT iteration 16, distance =  9.92e+01, diff param =  6.00e-02, diff hybrid =  1.04e-01
98 minimization steps, time(MIN)/time(ED)=0.00208
sb1_1     = -0.0477	sb2_1     =  0.0038	sb3_1     =  0.0049	sb4_1     = -0.1329	sb5_1     =  0.0127	
sb6_1     = -0.1380	sb7_1     = -0.0315	sb8_1     =  0.0034	eb1_1     = -0.0323	eb2_1     = -3.3961	
eb3_1     = -3.8218	eb4_1     = -0.0475	eb5_1     = -3.9702	eb6_1     = -0.1019	eb7_1     =  0.0979	
eb8_1     = -3.4198	tb1_1     = -0.0999	tb2_1     = -1.0687	tb3_1     =  1.6259	tb4_1     =  0.0269	
tb5_1     = -1.6509	tb6_1     = -0.0865	tb7_1     =  0.1875	tb8_1     = -2.1424	

CDMFT iteration 17, distance =  9.20e+01, diff param =  5.95e-02, diff hybrid =  1.02e-01
110 minimization steps, time(MIN)/time(ED)=0.00210
sb1_1     =  0.0347	sb2_1     = -0.0061	sb3_1     =  0.0149	sb4_1     = -0.1265	sb5_1     =  0.0058	
sb6_1     = -0.1216	sb7_1     =  0.0375	sb8_1     = -0.0049	eb1_1     = -0.0631	eb2_1     = -3.4414	
eb3_1     = -3.9869	eb4_1     = -0.1099	eb5_1     = -3.8091	eb6_1     = -0.0485	eb7_1     =  0.1031	
eb8_1     = -3.4185	tb1_1     = -0.1161	tb2_1     = -1.0713	tb3_1     =  1.6545	tb4_1     =  0.1014	
tb5_1     = -1.6268	tb6_1     = -0.0377	tb7_1     =  0.1770	tb8_1     = -2.1458	

CDMFT iteration 18, distance =  8.08e+01, diff param =  8.07e-02, diff hybrid =  1.11e-01
185 minimization steps, time(MIN)/time(ED)=0.00220
sb1_1     = -0.0298	sb2_1     =  0.0081	sb3_1     =  0.0093	sb4_1     = -0.1006	sb5_1     =  0.0167	
sb6_1     = -0.1135	sb7_1     = -0.0561	sb8_1     =  0.0086	eb1_1     = -0.1083	eb2_1     = -3.6537	
eb3_1     = -3.8400	eb4_1     = -0.0526	eb5_1     = -4.0419	eb6_1     = -0.1146	eb7_1     =  0.0977	
eb8_1     = -3.4064	tb1_1     = -0.1434	tb2_1     = -1.0912	tb3_1     =  1.6316	tb4_1     =  0.0724	
tb5_1     = -1.6621	tb6_1     = -0.1226	tb7_1     =  0.1570	tb8_1     = -2.1439	

CDMFT iteration 19, distance =  8.48e+01, diff param =  7.69e-02, diff hybrid =  1.17e-01
118 minimization steps, time(MIN)/time(ED)=0.00224
sb1_1     =  0.0329	sb2_1     = -0.0042	sb3_1     =  0.0148	sb4_1     = -0.1207	sb5_1     =  0.0093	
sb6_1     = -0.1061	sb7_1     =  0.0380	sb8_1     = -0.0041	eb1_1     = -0.0380	eb2_1     = -3.4354	
eb3_1     = -4.0233	eb4_1     = -0.0977	eb5_1     = -3.8759	eb6_1     = -0.0506	eb7_1     =  0.0595	
eb8_1     = -3.3787	tb1_1     = -0.1136	tb2_1     = -1.0734	tb3_1     =  1.6594	tb4_1     =  0.1104	
tb5_1     = -1.6359	tb6_1     = -0.0792	tb7_1     =  0.1484	tb8_1     = -2.1332	

CDMFT iteration 20, distance =  9.82e+01, diff param =  6.07e-02, diff hybrid =  1.08e-01
77 minimization steps, time(MIN)/time(ED)=0.00221
sb1_1     = -0.0454	sb2_1     =  0.0029	sb3_1     =  0.0062	sb4_1     = -0.1284	sb5_1     =  0.0127	
sb6_1     = -0.1358	sb7_1     = -0.0329	sb8_1     =  0.0033	eb1_1     = -0.0270	eb2_1     = -3.4096	
eb3_1     = -3.8106	eb4_1     = -0.0413	eb5_1     = -4.0004	eb6_1     = -0.0992	eb7_1     =  0.0865	
eb8_1     = -3.4064	tb1_1     = -0.1025	tb2_1     = -1.0708	tb3_1     =  1.6228	tb4_1     =  0.0425	
tb5_1     = -1.6557	tb6_1     = -0.0911	tb7_1     =  0.1789	tb8_1     = -2.1386	

CDMFT iteration 21, distance =  9.83e+01, diff param =  5.94e-02, diff hybrid =  1.05e-01
99 minimization steps, time(MIN)/time(ED)=0.00220
sb1_1     =  0.0467	sb2_1     = -0.0041	sb3_1     =  0.0130	sb4_1     = -0.1366	sb5_1     =  0.0048	
sb6_1     = -0.1318	sb7_1     =  0.0328	sb8_1     = -0.0036	eb1_1     = -0.0349	eb2_1     = -3.3985	
eb3_1     = -3.9688	eb4_1     = -0.1035	eb5_1     = -3.8230	eb6_1     = -0.0478	eb7_1     =  0.0997	
eb8_1     = -3.4221	tb1_1     = -0.1009	tb2_1     = -1.0689	tb3_1     =  1.6508	tb4_1     =  0.0886	
tb5_1     = -1.6267	tb6_1     = -0.0265	tb7_1     =  0.1865	tb8_1     = -2.1436	

CDMFT iteration 22, distance =  9.04e+01, diff param =  6.56e-02, diff hybrid =  1.04e-01
167 minimization steps, time(MIN)/time(ED)=0.00227
sb1_1     = -0.0342	sb2_1     =  0.0075	sb3_1     =  0.0061	sb4_1     = -0.1188	sb5_1     =  0.0155	
sb6_1     = -0.1244	sb7_1     = -0.0401	sb8_1     =  0.0054	eb1_1     = -0.0813	eb2_1     = -3.5198	
eb3_1     = -3.8108	eb4_1     = -0.0477	eb5_1     = -3.9989	eb6_1     = -0.1118	eb7_1     =  0.1030	
eb8_1     = -3.4171	tb1_1     = -0.1254	tb2_1     = -1.0787	tb3_1     =  1.6274	tb4_1     =  0.0409	
tb5_1     = -1.6563	tb6_1     = -0.1056	tb7_1     =  0.1744	tb8_1     = -2.1459	

CDMFT iteration 23, distance =  7.99e+01, diff param =  7.22e-02, diff hybrid =  1.15e-01
127 minimization steps, time(MIN)/time(ED)=0.00230
sb1_1     =  0.0303	sb2_1     = -0.0080	sb3_1     =  0.0168	sb4_1     = -0.1135	sb5_1     =  0.0097	
sb6_1     = -0.0992	sb7_1     =  0.0575	sb8_1     = -0.0088	eb1_1     = -0.0971	eb2_1     = -3.6203	
eb3_1     = -4.0557	eb4_1     = -0.1135	eb5_1     = -3.8507	eb6_1     = -0.0549	eb7_1     =  0.0952	
eb8_1     = -3.4051	tb1_1     = -0.1389	tb2_1     = -1.0887	tb3_1     =  1.6645	tb4_1     =  0.1236	
tb5_1     = -1.6331	tb6_1     = -0.0765	tb7_1     =  0.1547	tb8_1     = -2.1434	

CDMFT iteration 24, distance =  8.66e+01, diff param =  7.43e-02, diff hybrid =  1.16e-01
155 minimization steps, time(MIN)/time(ED)=0.00235
sb1_1     = -0.0339	sb2_1     =  0.0039	sb3_1     =  0.0090	sb4_1     = -0.1083	sb5_1     =  0.0145	
sb6_1     = -0.1228	sb7_1     = -0.0364	sb8_1     =  0.0039	eb1_1     = -0.0348	eb2_1     = -3.4316	
eb3_1     = -3.8680	eb4_1     = -0.0489	eb5_1     = -4.0251	eb6_1     = -0.0976	eb7_1     =  0.0615	
eb8_1     = -3.3804	tb1_1     = -0.1122	tb2_1     = -1.0733	tb3_1     =  1.6343	tb4_1     =  0.0772	
tb5_1     = -1.6599	tb6_1     = -0.1080	tb7_1     =  0.1511	tb8_1     = -2.1334	

CDMFT iteration 25, distance =  9.90e+01, diff param =  6.12e-02, diff hybrid =  1.08e-01
115 minimization steps, time(MIN)/time(ED)=0.00235
sb1_1     =  0.0466	sb2_1     = -0.0029	sb3_1     =  0.0126	sb4_1     = -0.1371	sb5_1     =  0.0059	
sb6_1     = -0.1303	sb7_1     =  0.0324	sb8_1     = -0.0033	eb1_1     = -0.0271	eb2_1     = -3.4004	
eb3_1     = -3.9979	eb4_1     = -0.0992	eb5_1     = -3.8137	eb6_1     = -0.0420	eb7_1     =  0.0884	
eb8_1     = -3.4097	tb1_1     = -0.1015	tb2_1     = -1.0695	tb3_1     =  1.6553	tb4_1     =  0.0893	
tb5_1     = -1.6233	tb6_1     = -0.0384	tb7_1     =  0.1817	tb8_1     = -2.1392	

CDMFT iteration 26, distance =  9.77e+01, diff param =  5.90e-02, diff hybrid =  1.06e-01
115 minimization steps, time(MIN)/time(ED)=0.00236
sb1_1     = -0.0454	sb2_1     =  0.0043	sb3_1     =  0.0049	sb4_1     = -0.1310	sb5_1     =  0.0132	
sb6_1     = -0.1357	sb7_1     = -0.0329	sb8_1     =  0.0037	eb1_1     = -0.0365	eb2_1     = -3.3949	
eb3_1     = -3.8217	eb4_1     = -0.0485	eb5_1     = -3.9699	eb6_1     = -0.1044	eb7_1     =  0.1009	
eb8_1     = -3.4228	tb1_1     = -0.1017	tb2_1     = -1.0684	tb3_1     =  1.6269	tb4_1     =  0.0270	
tb5_1     = -1.6512	tb6_1     = -0.0896	tb7_1     =  0.1860	tb8_1     = -2.1442	

CDMFT iteration 27, distance =  8.91e+01, diff param =  7.30e-02, diff hybrid =  1.05e-01
159 minimization steps, time(MIN)/time(ED)=0.00239
sb1_1     =  0.0331	sb2_1     = -0.0081	sb3_1     =  0.0158	sb4_1     = -0.1225	sb5_1     =  0.0064	
sb6_1     = -0.1164	sb7_1     =  0.0420	sb8_1     = -0.0058	eb1_1     = -0.0963	eb2_1     = -3.5755	
eb3_1     = -4.0050	eb4_1     = -0.1131	eb5_1     = -3.8077	eb6_1     = -0.0474	eb7_1     =  0.1028	
eb8_1     = -3.4156	tb1_1     = -0.1329	tb2_1     = -1.0835	tb3_1     =  1.6572	tb4_1     =  0.1085	
tb5_1     = -1.6269	tb6_1     = -0.0444	tb7_1     =  0.1721	tb8_1     = -2.1458	

CDMFT iteration 28, distance =  7.95e+01, diff param =  6.53e-02, diff hybrid =  1.17e-01
116 minimization steps, time(MIN)/time(ED)=0.00240
sb1_1     = -0.0304	sb2_1     =  0.0074	sb3_1     =  0.0100	sb4_1     = -0.0987	sb5_1     =  0.0163	
sb6_1     = -0.1132	sb7_1     = -0.0567	sb8_1     =  0.0085	eb1_1     = -0.0861	eb2_1     = -3.5866	
eb3_1     = -3.8652	eb4_1     = -0.0563	eb5_1     = -4.0339	eb6_1     = -0.1098	eb7_1     =  0.0908	
eb8_1     = -3.4015	tb1_1     = -0.1343	tb2_1     = -1.0860	tb3_1     =  1.6355	tb4_1     =  0.0794	
tb5_1     = -1.6606	tb6_1     = -0.1223	tb7_1     =  0.1528	tb8_1     = -2.1422	

CDMFT iteration 29, distance =  8.83e+01, diff param =  6.87e-02, diff hybrid =  1.14e-01
131 minimization steps, time(MIN)/time(ED)=0.00242
sb1_1     =  0.0344	sb2_1     = -0.0035	sb3_1     =  0.0143	sb4_1     = -0.1244	sb5_1     =  0.0088	
sb6_1     = -0.1104	sb7_1     =  0.0350	sb8_1     = -0.0037	eb1_1     = -0.0320	eb2_1     = -3.4177	
eb3_1     = -4.0256	eb4_1     = -0.0976	eb5_1     = -3.8594	eb6_1     = -0.0471	eb7_1     =  0.0641	
eb8_1     = -3.3815	tb1_1     = -0.1109	tb2_1     = -1.0717	tb3_1     =  1.6601	tb4_1     =  0.1056	
tb5_1     = -1.6325	tb6_1     = -0.0749	tb7_1     =  0.1542	tb8_1     = -2.1336	

CDMFT iteration 30, distance =  9.95e+01, diff param =  6.06e-02, diff hybrid =  1.06e-01
100 minimization steps, time(MIN)/time(ED)=0.00241
sb1_1     = -0.0477	sb2_1     =  0.0030	sb3_1     =  0.0056	sb4_1     = -0.1319	sb5_1     =  0.0124	
sb6_1     = -0.1380	sb7_1     = -0.0319	sb8_1     =  0.0032	eb1_1     = -0.0275	eb2_1     = -3.3996	
eb3_1     = -3.8161	eb4_1     = -0.0427	eb5_1     = -3.9882	eb6_1     = -0.0989	eb7_1     =  0.0895	
eb8_1     = -3.4106	tb1_1     = -0.1007	tb2_1     = -1.0693	tb3_1     =  1.6237	tb4_1     =  0.0348	
tb5_1     = -1.6535	tb6_1     = -0.0877	tb7_1     =  0.1836	tb8_1     = -2.1391	

CDMFT iteration 31, distance =  9.72e+01, diff param =  5.83e-02, diff hybrid =  1.05e-01
93 minimization steps, time(MIN)/time(ED)=0.00240
sb1_1     =  0.0443	sb2_1     = -0.0044	sb3_1     =  0.0135	sb4_1     = -0.1350	sb5_1     =  0.0049	
sb6_1     = -0.1303	sb7_1     =  0.0331	sb8_1     = -0.0038	eb1_1     = -0.0379	eb2_1     = -3.3947	
eb3_1     = -3.9737	eb4_1     = -0.1052	eb5_1     = -3.8189	eb6_1     = -0.0489	eb7_1     =  0.1017	
eb8_1     = -3.4220	tb1_1     = -0.1023	tb2_1     = -1.0684	tb3_1     =  1.6520	tb4_1     =  0.0905	
tb5_1     = -1.6267	tb6_1     = -0.0272	tb7_1     =  0.1854	tb8_1     = -2.1443	

CDMFT iteration 32, distance =  8.80e+01, diff param =  8.04e-02, diff hybrid =  1.05e-01
203 minimization steps, time(MIN)/time(ED)=0.00246
sb1_1     = -0.0322	sb2_1     =  0.0085	sb3_1     =  0.0067	sb4_1     = -0.1143	sb5_1     =  0.0160	
sb6_1     = -0.1210	sb7_1     = -0.0437	sb8_1     =  0.0062	eb1_1     = -0.1077	eb2_1     = -3.6262	
eb3_1     = -3.8081	eb4_1     = -0.0472	eb5_1     = -4.0101	eb6_1     = -0.1139	eb7_1     =  0.1026	
eb8_1     = -3.4144	tb1_1     = -0.1388	tb2_1     = -1.0883	tb3_1     =  1.6270	tb4_1     =  0.0473	
tb5_1     = -1.6579	tb6_1     = -0.1109	tb7_1     =  0.1703	tb8_1     = -2.1457	

CDMFT iteration 33, distance =  7.95e+01, diff param =  6.61e-02, diff hybrid =  1.18e-01
129 minimization steps, time(MIN)/time(ED)=0.00248
sb1_1     =  0.0306	sb2_1     = -0.0073	sb3_1     =  0.0162	sb4_1     = -0.1136	sb5_1     =  0.0102	
sb6_1     = -0.0988	sb7_1     =  0.0551	sb8_1     = -0.0081	eb1_1     = -0.0795	eb2_1     = -3.5898	
eb3_1     = -4.0366	eb4_1     = -0.1080	eb5_1     = -3.8699	eb6_1     = -0.0568	eb7_1     =  0.0858	
eb8_1     = -3.3974	tb1_1     = -0.1318	tb2_1     = -1.0875	tb3_1     =  1.6611	tb4_1     =  0.1217	
tb5_1     = -1.6361	tb6_1     = -0.0808	tb7_1     =  0.1510	tb8_1     = -2.1409	

CDMFT iteration 34, distance =  8.94e+01, diff param =  6.95e-02, diff hybrid =  1.12e-01
150 minimization steps, time(MIN)/time(ED)=0.00250
sb1_1     = -0.0351	sb2_1     =  0.0033	sb3_1     =  0.0086	sb4_1     = -0.1121	sb5_1     =  0.0141	
sb6_1     = -0.1256	sb7_1     = -0.0344	sb8_1     =  0.0037	eb1_1     = -0.0307	eb2_1     = -3.4164	
eb3_1     = -3.8525	eb4_1     = -0.0461	eb5_1     = -4.0273	eb6_1     = -0.0979	eb7_1     =  0.0672	
eb8_1     = -3.3844	tb1_1     = -0.1100	tb2_1     = -1.0716	tb3_1     =  1.6312	tb4_1     =  0.0725	
tb5_1     = -1.6605	tb6_1     = -0.1041	tb7_1     =  0.1569	tb8_1     = -2.1344	

CDMFT iteration 35, distance =  9.96e+01, diff param =  6.08e-02, diff hybrid =  1.05e-01
91 minimization steps, time(MIN)/time(ED)=0.00249
sb1_1     =  0.0477	sb2_1     = -0.0031	sb3_1     =  0.0124	sb4_1     = -0.1382	sb5_1     =  0.0055	
sb6_1     = -0.1323	sb7_1     =  0.0317	sb8_1     = -0.0032	eb1_1     = -0.0280	eb2_1     = -3.4006	
eb3_1     = -3.9830	eb4_1     = -0.0990	eb5_1     = -3.8166	eb6_1     = -0.0433	eb7_1     =  0.0904	
eb8_1     = -3.4128	tb1_1     = -0.1006	tb2_1     = -1.0693	tb3_1     =  1.6526	tb4_1     =  0.0872	
tb5_1     = -1.6239	tb6_1     = -0.0336	tb7_1     =  0.1845	tb8_1     = -2.1398	

CDMFT iteration 36, distance =  9.66e+01, diff param =  5.71e-02, diff hybrid =  1.04e-01
114 minimization steps, time(MIN)/time(ED)=0.00249
sb1_1     = -0.0430	sb2_1     =  0.0045	sb3_1     =  0.0050	sb4_1     = -0.1295	sb5_1     =  0.0135	
sb6_1     = -0.1340	sb7_1     = -0.0334	sb8_1     =  0.0039	eb1_1     = -0.0393	eb2_1     = -3.3961	
eb3_1     = -3.8196	eb4_1     = -0.0490	eb5_1     = -3.9709	eb6_1     = -0.1054	eb7_1     =  0.1020	
eb8_1     = -3.4230	tb1_1     = -0.1033	tb2_1     = -1.0684	tb3_1     =  1.6271	tb4_1     =  0.0283	
tb5_1     = -1.6515	tb6_1     = -0.0913	tb7_1     =  0.1846	tb8_1     = -2.1449	

CDMFT iteration 37, distance =  8.71e+01, diff param =  8.04e-02, diff hybrid =  1.05e-01
197 minimization steps, time(MIN)/time(ED)=0.00254
sb1_1     =  0.0317	sb2_1     = -0.0084	sb3_1     =  0.0161	sb4_1     = -0.1199	sb5_1     =  0.0069	
sb6_1     = -0.1128	sb7_1     =  0.0449	sb8_1     = -0.0064	eb1_1     = -0.1089	eb2_1     = -3.6264	
eb3_1     = -4.0145	eb4_1     = -0.1143	eb5_1     = -3.8086	eb6_1     = -0.0470	eb7_1     =  0.1022	
eb8_1     = -3.4132	tb1_1     = -0.1397	tb2_1     = -1.0881	tb3_1     =  1.6586	tb4_1     =  0.1124	
tb5_1     = -1.6271	tb6_1     = -0.0498	tb7_1     =  0.1688	tb8_1     = -2.1455	

CDMFT iteration 38, distance =  8.00e+01, diff param =  6.81e-02, diff hybrid =  1.18e-01
140 minimization steps, time(MIN)/time(ED)=0.00255
sb1_1     = -0.0309	sb2_1     =  0.0067	sb3_1     =  0.0100	sb4_1     = -0.0995	sb5_1     =  0.0162	
sb6_1     = -0.1143	sb7_1     = -0.0531	sb8_1     =  0.0076	eb1_1     = -0.0705	eb2_1     = -3.5476	
eb3_1     = -3.8710	eb4_1     = -0.0561	eb5_1     = -4.0381	eb6_1     = -0.1069	eb7_1     =  0.0820	
eb8_1     = -3.3948	tb1_1     = -0.1276	tb2_1     = -1.0835	tb3_1     =  1.6362	tb4_1     =  0.0807	
tb5_1     = -1.6614	tb6_1     = -0.1209	tb7_1     =  0.1504	tb8_1     = -2.1400	

CDMFT iteration 39, distance =  9.06e+01, diff param =  6.62e-02, diff hybrid =  1.11e-01
110 minimization steps, time(MIN)/time(ED)=0.00256
sb1_1     =  0.0362	sb2_1     = -0.0033	sb3_1     =  0.0141	sb4_1     = -0.1267	sb5_1     =  0.0083	
sb6_1     = -0.1138	sb7_1     =  0.0347	sb8_1     = -0.0038	eb1_1     = -0.0302	eb2_1     = -3.4103	
eb3_1     = -4.0266	eb4_1     = -0.0986	eb5_1     = -3.8477	eb6_1     = -0.0450	eb7_1     =  0.0711	
eb8_1     = -3.3878	tb1_1     = -0.1092	tb2_1     = -1.0709	tb3_1     =  1.6604	tb4_1     =  0.1031	
tb5_1     = -1.6303	tb6_1     = -0.0695	tb7_1     =  0.1599	tb8_1     = -2.1353	

CDMFT iteration 40, distance =  9.95e+01, diff param =  6.10e-02, diff hybrid =  1.04e-01
101 minimization steps, time(MIN)/time(ED)=0.00254
sb1_1     = -0.0477	sb2_1     =  0.0032	sb3_1     =  0.0054	sb4_1     = -0.1322	sb5_1     =  0.0125	
sb6_1     = -0.1380	sb7_1     = -0.0320	sb8_1     =  0.0033	eb1_1     = -0.0288	eb2_1     = -3.3976	
eb3_1     = -3.8179	eb4_1     = -0.0436	eb5_1     = -3.9839	eb6_1     = -0.0997	eb7_1     =  0.0914	
eb8_1     = -3.4135	tb1_1     = -0.1006	tb2_1     = -1.0689	tb3_1     =  1.6243	tb4_1     =  0.0329	
tb5_1     = -1.6528	tb6_1     = -0.0876	tb7_1     =  0.1846	tb8_1     = -2.1401	

CDMFT iteration 41, distance =  9.61e+01, diff param =  5.69e-02, diff hybrid =  1.04e-01
77 minimization steps, time(MIN)/time(ED)=0.00252
sb1_1     =  0.0419	sb2_1     = -0.0046	sb3_1     =  0.0136	sb4_1     = -0.1330	sb5_1     =  0.0051	
sb6_1     = -0.1285	sb7_1     =  0.0339	sb8_1     = -0.0040	eb1_1     = -0.0411	eb2_1     = -3.3971	
eb3_1     = -3.9691	eb4_1     = -0.1057	eb5_1     = -3.8194	eb6_1     = -0.0488	eb7_1     =  0.1020	
eb8_1     = -3.4215	tb1_1     = -0.1044	tb2_1     = -1.0684	tb3_1     =  1.6512	tb4_1     =  0.0925	
tb5_1     = -1.6273	tb6_1     = -0.0294	tb7_1     =  0.1835	tb8_1     = -2.1447	

CDMFT iteration 42, distance =  8.66e+01, diff param =  8.25e-02, diff hybrid =  1.06e-01
159 minimization steps, time(MIN)/time(ED)=0.00255
sb1_1     = -0.0315	sb2_1     =  0.0084	sb3_1     =  0.0070	sb4_1     = -0.1115	sb5_1     =  0.0162	
sb6_1     = -0.1193	sb7_1     = -0.0459	sb8_1     =  0.0066	eb1_1     = -0.1098	eb2_1     = -3.6407	
eb3_1     = -3.8055	eb4_1     = -0.0466	eb5_1     = -4.0181	eb6_1     = -0.1144	eb7_1     =  0.1017	
eb8_1     = -3.4123	tb1_1     = -0.1407	tb2_1     = -1.0897	tb3_1     =  1.6263	tb4_1     =  0.0518	
tb5_1     = -1.6590	tb6_1     = -0.1135	tb7_1     =  0.1677	tb8_1     = -2.1453	

CDMFT iteration 43, distance =  8.05e+01, diff param =  7.00e-02, diff hybrid =  1.18e-01
162 minimization steps, time(MIN)/time(ED)=0.00257
sb1_1     =  0.0313	sb2_1     = -0.0064	sb3_1     =  0.0160	sb4_1     = -0.1151	sb5_1     =  0.0099	
sb6_1     = -0.1005	sb7_1     =  0.0510	sb8_1     = -0.0071	eb1_1     = -0.0650	eb2_1     = -3.5341	
eb3_1     = -4.0342	eb4_1     = -0.1056	eb5_1     = -3.8704	eb6_1     = -0.0550	eb7_1     =  0.0791	
eb8_1     = -3.3918	tb1_1     = -0.1250	tb2_1     = -1.0826	tb3_1     =  1.6609	tb4_1     =  0.1196	
tb5_1     = -1.6360	tb6_1     = -0.0797	tb7_1     =  0.1503	tb8_1     = -2.1389	

CDMFT iteration 44, distance =  9.13e+01, diff param =  6.50e-02, diff hybrid =  1.11e-01
118 minimization steps, time(MIN)/time(ED)=0.00258
sb1_1     = -0.0368	sb2_1     =  0.0032	sb3_1     =  0.0081	sb4_1     = -0.1151	sb5_1     =  0.0140	
sb6_1     = -0.1275	sb7_1     = -0.0349	sb8_1     =  0.0039	eb1_1     = -0.0302	eb2_1     = -3.4136	
eb3_1     = -3.8408	eb4_1     = -0.0441	eb5_1     = -4.0257	eb6_1     = -0.0991	eb7_1     =  0.0742	
eb8_1     = -3.3910	tb1_1     = -0.1088	tb2_1     = -1.0713	tb3_1     =  1.6291	tb4_1     =  0.0668	
tb5_1     = -1.6602	tb6_1     = -0.1023	tb7_1     =  0.1623	tb8_1     = -2.1363	

CDMFT iteration 45, distance =  9.92e+01, diff param =  6.16e-02, diff hybrid =  1.04e-01
115 minimization steps, time(MIN)/time(ED)=0.00257
sb1_1     =  0.0473	sb2_1     = -0.0033	sb3_1     =  0.0126	sb4_1     = -0.1377	sb5_1     =  0.0054	
sb6_1     = -0.1319	sb7_1     =  0.0323	sb8_1     = -0.0033	eb1_1     = -0.0297	eb2_1     = -3.3985	
eb3_1     = -3.9840	eb4_1     = -0.1003	eb5_1     = -3.8177	eb6_1     = -0.0438	eb7_1     =  0.0921	
eb8_1     = -3.4142	tb1_1     = -0.1009	tb2_1     = -1.0690	tb3_1     =  1.6529	tb4_1     =  0.0883	
tb5_1     = -1.6245	tb6_1     = -0.0325	tb7_1     =  0.1844	tb8_1     = -2.1405	

CDMFT iteration 46, distance =  9.56e+01, diff param =  5.87e-02, diff hybrid =  1.04e-01
73 minimization steps, time(MIN)/time(ED)=0.00255
sb1_1     = -0.0412	sb2_1     =  0.0049	sb3_1     =  0.0051	sb4_1     = -0.1276	sb5_1     =  0.0139	
sb6_1     = -0.1322	sb7_1     = -0.0347	sb8_1     =  0.0041	eb1_1     = -0.0429	eb2_1     = -3.4000	
eb3_1     = -3.8125	eb4_1     = -0.0484	eb5_1     = -3.9759	eb6_1     = -0.1064	eb7_1     =  0.1020	
eb8_1     = -3.4219	tb1_1     = -0.1055	tb2_1     = -1.0686	tb3_1     =  1.6261	tb4_1     =  0.0303	
tb5_1     = -1.6524	tb6_1     = -0.0942	tb7_1     =  0.1827	tb8_1     = -2.1451	

CDMFT iteration 47, distance =  8.62e+01, diff param =  8.16e-02, diff hybrid =  1.07e-01
226 minimization steps, time(MIN)/time(ED)=0.00260
sb1_1     =  0.0318	sb2_1     = -0.0084	sb3_1     =  0.0162	sb4_1     = -0.1190	sb5_1     =  0.0072	
sb6_1     = -0.1108	sb7_1     =  0.0471	sb8_1     = -0.0068	eb1_1     = -0.1071	eb2_1     = -3.6287	
eb3_1     = -4.0208	eb4_1     = -0.1143	eb5_1     = -3.8123	eb6_1     = -0.0468	eb7_1     =  0.1016	
eb8_1     = -3.4127	tb1_1     = -0.1397	tb2_1     = -1.0885	tb3_1     =  1.6594	tb4_1     =  0.1145	
tb5_1     = -1.6275	tb6_1     = -0.0533	tb7_1     =  0.1670	tb8_1     = -2.1454	

CDMFT iteration 48, distance =  8.11e+01, diff param =  7.00e-02, diff hybrid =  1.18e-01
133 minimization steps, time(MIN)/time(ED)=0.00261
sb1_1     = -0.0315	sb2_1     =  0.0061	sb3_1     =  0.0097	sb4_1     = -0.1012	sb5_1     =  0.0159	
sb6_1     = -0.1160	sb7_1     = -0.0498	sb8_1     =  0.0069	eb1_1     = -0.0608	eb2_1     = -3.5137	
eb3_1     = -3.8686	eb4_1     = -0.0539	eb5_1     = -4.0339	eb6_1     = -0.1050	eb7_1     =  0.0784	
eb8_1     = -3.3915	tb1_1     = -0.1229	tb2_1     = -1.0806	tb3_1     =  1.6356	tb4_1     =  0.0791	
tb5_1     = -1.6609	tb6_1     = -0.1185	tb7_1     =  0.1509	tb8_1     = -2.1388	

CDMFT iteration 49, distance =  9.19e+01, diff param =  6.44e-02, diff hybrid =  1.10e-01
121 minimization steps, time(MIN)/time(ED)=0.00262
sb1_1     =  0.0376	sb2_1     = -0.0033	sb3_1     =  0.0140	sb4_1     = -0.1281	sb5_1     =  0.0079	
sb6_1     = -0.1162	sb7_1     =  0.0351	sb8_1     = -0.0039	eb1_1     = -0.0303	eb2_1     = -3.4114	
eb3_1     = -4.0254	eb4_1     = -0.0998	eb5_1     = -3.8364	eb6_1     = -0.0434	eb7_1     =  0.0764	
eb8_1     = -3.3931	tb1_1     = -0.1083	tb2_1     = -1.0710	tb3_1     =  1.6602	tb4_1     =  0.1018	
tb5_1     = -1.6283	tb6_1     = -0.0645	tb7_1     =  0.1640	tb8_1     = -2.1369	

CDMFT iteration 50, distance =  9.89e+01, diff param =  6.24e-02, diff hybrid =  1.04e-01
132 minimization steps, time(MIN)/time(ED)=0.00262
sb1_1     = -0.0472	sb2_1     =  0.0034	sb3_1     =  0.0054	sb4_1     = -0.1316	sb5_1     =  0.0128	
sb6_1     = -0.1373	sb7_1     = -0.0327	sb8_1     =  0.0034	eb1_1     = -0.0305	eb2_1     = -3.3973	
eb3_1     = -3.8170	eb4_1     = -0.0439	eb5_1     = -3.9863	eb6_1     = -0.1010	eb7_1     =  0.0927	
eb8_1     = -3.4148	tb1_1     = -0.1011	tb2_1     = -1.0688	tb3_1     =  1.6245	tb4_1     =  0.0322	
tb5_1     = -1.6534	tb6_1     = -0.0891	tb7_1     =  0.1843	tb8_1     = -2.1408	

CDMFT iteration 51, distance =  9.52e+01, diff param =  5.89e-02, diff hybrid =  1.04e-01
93 minimization steps, time(MIN)/time(ED)=0.00260
sb1_1     =  0.0405	sb2_1     = -0.0049	sb3_1     =  0.0141	sb4_1     = -0.1315	sb5_1     =  0.0052	
sb6_1     = -0.1268	sb7_1     =  0.0353	sb8_1     = -0.0043	eb1_1     = -0.0445	eb2_1     = -3.4025	
eb3_1     = -3.9777	eb4_1     = -0.1069	eb5_1     = -3.8169	eb6_1     = -0.0482	eb7_1     =  0.1021	
eb8_1     = -3.4219	tb1_1     = -0.1065	tb2_1     = -1.0687	tb3_1     =  1.6527	tb4_1     =  0.0955	
tb5_1     = -1.6271	tb6_1     = -0.0313	tb7_1     =  0.1819	tb8_1     = -2.1453	

CDMFT iteration 52, distance =  8.58e+01, diff param =  8.10e-02, diff hybrid =  1.08e-01
201 minimization steps, time(MIN)/time(ED)=0.00264
sb1_1     = -0.0318	sb2_1     =  0.0084	sb3_1     =  0.0074	sb4_1     = -0.1100	sb5_1     =  0.0162	
sb6_1     = -0.1187	sb7_1     = -0.0477	sb8_1     =  0.0069	eb1_1     = -0.1060	eb2_1     = -3.6289	
eb3_1     = -3.8137	eb4_1     = -0.0467	eb5_1     = -4.0227	eb6_1     = -0.1142	eb7_1     =  0.1010	
eb8_1     = -3.4110	tb1_1     = -0.1396	tb2_1     = -1.0887	tb3_1     =  1.6277	tb4_1     =  0.0548	
tb5_1     = -1.6596	tb6_1     = -0.1151	tb7_1     =  0.1661	tb8_1     = -2.1450	

CDMFT iteration 53, distance =  8.16e+01, diff param =  7.10e-02, diff hybrid =  1.18e-01
164 minimization steps, time(MIN)/time(ED)=0.00266
sb1_1     =  0.0317	sb2_1     = -0.0058	sb3_1     =  0.0158	sb4_1     = -0.1166	sb5_1     =  0.0096	
sb6_1     = -0.1019	sb7_1     =  0.0483	sb8_1     = -0.0065	eb1_1     = -0.0573	eb2_1     = -3.4988	
eb3_1     = -4.0326	eb4_1     = -0.1044	eb5_1     = -3.8674	eb6_1     = -0.0531	eb7_1     =  0.0771	
eb8_1     = -3.3904	tb1_1     = -0.1213	tb2_1     = -1.0792	tb3_1     =  1.6607	tb4_1     =  0.1176	
tb5_1     = -1.6354	tb6_1     = -0.0784	tb7_1     =  0.1511	tb8_1     = -2.1383	

CDMFT iteration 54, distance =  9.25e+01, diff param =  6.49e-02, diff hybrid =  1.10e-01
143 minimization steps, time(MIN)/time(ED)=0.00267
sb1_1     = -0.0382	sb2_1     =  0.0032	sb3_1     =  0.0077	sb4_1     = -0.1173	sb5_1     =  0.0139	
sb6_1     = -0.1287	sb7_1     = -0.0352	sb8_1     =  0.0039	eb1_1     = -0.0301	eb2_1     = -3.3981	
eb3_1     = -3.8326	eb4_1     = -0.0429	eb5_1     = -4.0266	eb6_1     = -0.1002	eb7_1     =  0.0782	
eb8_1     = -3.3950	tb1_1     = -0.1077	tb2_1     = -1.0692	tb3_1     =  1.6276	tb4_1     =  0.0622	
tb5_1     = -1.6604	tb6_1     = -0.1013	tb7_1     =  0.1657	tb8_1     = -2.1373	

CDMFT iteration 55, distance =  9.88e+01, diff param =  6.26e-02, diff hybrid =  1.04e-01
83 minimization steps, time(MIN)/time(ED)=0.00265
sb1_1     =  0.0470	sb2_1     = -0.0035	sb3_1     =  0.0128	sb4_1     = -0.1370	sb5_1     =  0.0054	
sb6_1     = -0.1313	sb7_1     =  0.0330	sb8_1     = -0.0034	eb1_1     = -0.0312	eb2_1     = -3.3946	
eb3_1     = -3.9832	eb4_1     = -0.1014	eb5_1     = -3.8176	eb6_1     = -0.0441	eb7_1     =  0.0934	
eb8_1     = -3.4154	tb1_1     = -0.1013	tb2_1     = -1.0684	tb3_1     =  1.6528	tb4_1     =  0.0896	
tb5_1     = -1.6248	tb6_1     = -0.0320	tb7_1     =  0.1842	tb8_1     = -2.1411	

CDMFT iteration 56, distance =  9.47e+01, diff param =  5.91e-02, diff hybrid =  1.04e-01
81 minimization steps, time(MIN)/time(ED)=0.00264
sb1_1     = -0.0400	sb2_1     =  0.0050	sb3_1     =  0.0053	sb4_1     = -0.1260	sb5_1     =  0.0141	
sb6_1     = -0.1308	sb7_1     = -0.0358	sb8_1     =  0.0044	eb1_1     = -0.0459	eb2_1     = -3.4028	
eb3_1     = -3.8118	eb4_1     = -0.0479	eb5_1     = -3.9773	eb6_1     = -0.1071	eb7_1     =  0.1020	
eb8_1     = -3.4213	tb1_1     = -0.1073	tb2_1     = -1.0686	tb3_1     =  1.6262	tb4_1     =  0.0322	
tb5_1     = -1.6525	tb6_1     = -0.0964	tb7_1     =  0.1811	tb8_1     = -2.1453	

CDMFT iteration 57, distance =  8.55e+01, diff param =  7.83e-02, diff hybrid =  1.08e-01
184 minimization steps, time(MIN)/time(ED)=0.00266
sb1_1     =  0.0319	sb2_1     = -0.0081	sb3_1     =  0.0163	sb4_1     = -0.1185	sb5_1     =  0.0075	
sb6_1     = -0.1094	sb7_1     =  0.0483	sb8_1     = -0.0070	eb1_1     = -0.1008	eb2_1     = -3.6010	
eb3_1     = -4.0249	eb4_1     = -0.1141	eb5_1     = -3.8152	eb6_1     = -0.0467	eb7_1     =  0.1007	
eb8_1     = -3.4111	tb1_1     = -0.1373	tb2_1     = -1.0859	tb3_1     =  1.6599	tb4_1     =  0.1156	
tb5_1     = -1.6279	tb6_1     = -0.0560	tb7_1     =  0.1656	tb8_1     = -2.1449	

CDMFT iteration 58, distance =  8.22e+01, diff param =  7.04e-02, diff hybrid =  1.17e-01
148 minimization steps, time(MIN)/time(ED)=0.00267
sb1_1     = -0.0321	sb2_1     =  0.0056	sb3_1     =  0.0094	sb4_1     = -0.1028	sb5_1     =  0.0157	
sb6_1     = -0.1173	sb7_1     = -0.0474	sb8_1     =  0.0064	eb1_1     = -0.0544	eb2_1     = -3.4788	
eb3_1     = -3.8648	eb4_1     = -0.0522	eb5_1     = -4.0316	eb6_1     = -0.1040	eb7_1     =  0.0770	
eb8_1     = -3.3915	tb1_1     = -0.1198	tb2_1     = -1.0770	tb3_1     =  1.6348	tb4_1     =  0.0774	
tb5_1     = -1.6606	tb6_1     = -0.1167	tb7_1     =  0.1519	tb8_1     = -2.1385	

CDMFT iteration 59, distance =  9.30e+01, diff param =  6.26e-02, diff hybrid =  1.09e-01
63 minimization steps, time(MIN)/time(ED)=0.00265
sb1_1     =  0.0386	sb2_1     = -0.0033	sb3_1     =  0.0139	sb4_1     = -0.1292	sb5_1     =  0.0076	
sb6_1     = -0.1182	sb7_1     =  0.0354	sb8_1     = -0.0040	eb1_1     = -0.0307	eb2_1     = -3.4169	
eb3_1     = -4.0238	eb4_1     = -0.1006	eb5_1     = -3.8328	eb6_1     = -0.0426	eb7_1     =  0.0800	
eb8_1     = -3.3977	tb1_1     = -0.1077	tb2_1     = -1.0717	tb3_1     =  1.6599	tb4_1     =  0.1008	
tb5_1     = -1.6277	tb6_1     = -0.0603	tb7_1     =  0.1671	tb8_1     = -2.1381	

CDMFT iteration 60, distance =  9.84e+01, diff param =  6.28e-02, diff hybrid =  1.04e-01
82 minimization steps, time(MIN)/time(ED)=0.00264
sb1_1     = -0.0464	sb2_1     =  0.0036	sb3_1     =  0.0053	sb4_1     = -0.1308	sb5_1     =  0.0130	
sb6_1     = -0.1365	sb7_1     = -0.0334	sb8_1     =  0.0035	eb1_1     = -0.0321	eb2_1     = -3.4030	
eb3_1     = -3.8136	eb4_1     = -0.0440	eb5_1     = -3.9837	eb6_1     = -0.1019	eb7_1     =  0.0938	
eb8_1     = -3.4165	tb1_1     = -0.1018	tb2_1     = -1.0695	tb3_1     =  1.6242	tb4_1     =  0.0320	
tb5_1     = -1.6530	tb6_1     = -0.0903	tb7_1     =  0.1838	tb8_1     = -2.1416	

CDMFT iteration 61, distance =  9.43e+01, diff param =  6.05e-02, diff hybrid =  1.04e-01
92 minimization steps, time(MIN)/time(ED)=0.00263
sb1_1     =  0.0396	sb2_1     = -0.0053	sb3_1     =  0.0144	sb4_1     = -0.1302	sb5_1     =  0.0054	
sb6_1     = -0.1253	sb7_1     =  0.0365	sb8_1     = -0.0045	eb1_1     = -0.0478	eb2_1     = -3.4114	
eb3_1     = -3.9858	eb4_1     = -0.1079	eb5_1     = -3.8139	eb6_1     = -0.0475	eb7_1     =  0.1017	
eb8_1     = -3.4199	tb1_1     = -0.1084	tb2_1     = -1.0695	tb3_1     =  1.6540	tb4_1     =  0.0981	
tb5_1     = -1.6267	tb6_1     = -0.0331	tb7_1     =  0.1801	tb8_1     = -2.1451	

CDMFT iteration 62, distance =  8.53e+01, diff param =  8.21e-02, diff hybrid =  1.09e-01
221 minimization steps, time(MIN)/time(ED)=0.00266
sb1_1     = -0.0323	sb2_1     =  0.0085	sb3_1     =  0.0076	sb4_1     = -0.1089	sb5_1     =  0.0163	
sb6_1     = -0.1184	sb7_1     = -0.0490	sb8_1     =  0.0072	eb1_1     = -0.1035	eb2_1     = -3.6398	
eb3_1     = -3.8176	eb4_1     = -0.0468	eb5_1     = -4.0248	eb6_1     = -0.1138	eb7_1     =  0.1005	
eb8_1     = -3.4115	tb1_1     = -0.1391	tb2_1     = -1.0904	tb3_1     =  1.6282	tb4_1     =  0.0570	
tb5_1     = -1.6598	tb6_1     = -0.1161	tb7_1     =  0.1651	tb8_1     = -2.1451	

CDMFT iteration 63, distance =  8.25e+01, diff param =  7.33e-02, diff hybrid =  1.18e-01
151 minimization steps, time(MIN)/time(ED)=0.00268
sb1_1     =  0.0322	sb2_1     = -0.0055	sb3_1     =  0.0156	sb4_1     = -0.1179	sb5_1     =  0.0094	
sb6_1     = -0.1033	sb7_1     =  0.0464	sb8_1     = -0.0062	eb1_1     = -0.0525	eb2_1     = -3.4806	
eb3_1     = -4.0312	eb4_1     = -0.1036	eb5_1     = -3.8645	eb6_1     = -0.0517	eb7_1     =  0.0767	
eb8_1     = -3.3905	tb1_1     = -0.1189	tb2_1     = -1.0775	tb3_1     =  1.6606	tb4_1     =  0.1158	
tb5_1     = -1.6348	tb6_1     = -0.0770	tb7_1     =  0.1524	tb8_1     = -2.1382	

CDMFT iteration 64, distance =  9.33e+01, diff param =  6.34e-02, diff hybrid =  1.10e-01
99 minimization steps, time(MIN)/time(ED)=0.00267
sb1_1     = -0.0389	sb2_1     =  0.0033	sb3_1     =  0.0074	sb4_1     = -0.1189	sb5_1     =  0.0138	
sb6_1     = -0.1295	sb7_1     = -0.0354	sb8_1     =  0.0039	eb1_1     = -0.0308	eb2_1     = -3.4165	
eb3_1     = -3.8255	eb4_1     = -0.0421	eb5_1     = -4.0214	eb6_1     = -0.1008	eb7_1     =  0.0808	
eb8_1     = -3.3979	tb1_1     = -0.1075	tb2_1     = -1.0716	tb3_1     =  1.6264	tb4_1     =  0.0587	
tb5_1     = -1.6595	tb6_1     = -0.1003	tb7_1     =  0.1680	tb8_1     = -2.1380	

CDMFT iteration 65, distance =  9.83e+01, diff param =  6.31e-02, diff hybrid =  1.03e-01
94 minimization steps, time(MIN)/time(ED)=0.00266
sb1_1     =  0.0466	sb2_1     = -0.0037	sb3_1     =  0.0130	sb4_1     = -0.1363	sb5_1     =  0.0053	
sb6_1     = -0.1307	sb7_1     =  0.0337	sb8_1     = -0.0036	eb1_1     = -0.0326	eb2_1     = -3.4009	
eb3_1     = -3.9858	eb4_1     = -0.1023	eb5_1     = -3.8173	eb6_1     = -0.0441	eb7_1     =  0.0943	
eb8_1     = -3.4168	tb1_1     = -0.1018	tb2_1     = -1.0693	tb3_1     =  1.6534	tb4_1     =  0.0908	
tb5_1     = -1.6250	tb6_1     = -0.0315	tb7_1     =  0.1838	tb8_1     = -2.1418	

CDMFT iteration 66, distance =  9.40e+01, diff param =  5.98e-02, diff hybrid =  1.05e-01
96 minimization steps, time(MIN)/time(ED)=0.00265
sb1_1     = -0.0393	sb2_1     =  0.0053	sb3_1     =  0.0054	sb4_1     = -0.1248	sb5_1     =  0.0144	
sb6_1     = -0.1297	sb7_1     = -0.0369	sb8_1     =  0.0046	eb1_1     = -0.0489	eb2_1     = -3.4118	
eb3_1     = -3.8155	eb4_1     = -0.0474	eb5_1     = -3.9817	eb6_1     = -0.1079	eb7_1     =  0.1019	
eb8_1     = -3.4203	tb1_1     = -0.1091	tb2_1     = -1.0694	tb3_1     =  1.6272	tb4_1     =  0.0337	
tb5_1     = -1.6532	tb6_1     = -0.0986	tb7_1     =  0.1797	tb8_1     = -2.1453	

CDMFT iteration 67, distance =  8.50e+01, diff param =  7.82e-02, diff hybrid =  1.10e-01
215 minimization steps, time(MIN)/time(ED)=0.00268
sb1_1     =  0.0320	sb2_1     = -0.0081	sb3_1     =  0.0163	sb4_1     = -0.1182	sb5_1     =  0.0077	
sb6_1     = -0.1084	sb7_1     =  0.0495	sb8_1     = -0.0072	eb1_1     = -0.0993	eb2_1     = -3.6093	
eb3_1     = -4.0282	eb4_1     = -0.1138	eb5_1     = -3.8183	eb6_1     = -0.0468	eb7_1     =  0.1001	
eb8_1     = -3.4110	tb1_1     = -0.1372	tb2_1     = -1.0871	tb3_1     =  1.6603	tb4_1     =  0.1165	
tb5_1     = -1.6283	tb6_1     = -0.0582	tb7_1     =  0.1646	tb8_1     = -2.1449	

CDMFT iteration 68, distance =  8.29e+01, diff param =  7.18e-02, diff hybrid =  1.17e-01
166 minimization steps, time(MIN)/time(ED)=0.00270
sb1_1     = -0.0325	sb2_1     =  0.0053	sb3_1     =  0.0093	sb4_1     = -0.1038	sb5_1     =  0.0155	
sb6_1     = -0.1183	sb7_1     = -0.0457	sb8_1     =  0.0060	eb1_1     = -0.0508	eb2_1     = -3.4682	
eb3_1     = -3.8638	eb4_1     = -0.0512	eb5_1     = -4.0306	eb6_1     = -0.1033	eb7_1     =  0.0758	
eb8_1     = -3.3887	tb1_1     = -0.1181	tb2_1     = -1.0761	tb3_1     =  1.6346	tb4_1     =  0.0766	
tb5_1     = -1.6605	tb6_1     = -0.1154	tb7_1     =  0.1525	tb8_1     = -2.1376	

CDMFT iteration 69, distance =  9.38e+01, diff param =  6.31e-02, diff hybrid =  1.09e-01
80 minimization steps, time(MIN)/time(ED)=0.00268
sb1_1     =  0.0395	sb2_1     = -0.0033	sb3_1     =  0.0138	sb4_1     = -0.1301	sb5_1     =  0.0073	
sb6_1     = -0.1198	sb7_1     =  0.0353	sb8_1     = -0.0039	eb1_1     = -0.0306	eb2_1     = -3.4133	
eb3_1     = -4.0208	eb4_1     = -0.1009	eb5_1     = -3.8252	eb6_1     = -0.0419	eb7_1     =  0.0818	
eb8_1     = -3.3986	tb1_1     = -0.1071	tb2_1     = -1.0712	tb3_1     =  1.6594	tb4_1     =  0.0998	
tb5_1     = -1.6263	tb6_1     = -0.0571	tb7_1     =  0.1691	tb8_1     = -2.1381	

CDMFT iteration 70, distance =  9.82e+01, diff param =  6.38e-02, diff hybrid =  1.04e-01
85 minimization steps, time(MIN)/time(ED)=0.00267
sb1_1     = -0.0464	sb2_1     =  0.0038	sb3_1     =  0.0053	sb4_1     = -0.1306	sb5_1     =  0.0131	
sb6_1     = -0.1363	sb7_1     = -0.0337	sb8_1     =  0.0036	eb1_1     = -0.0330	eb2_1     = -3.3991	
eb3_1     = -3.8154	eb4_1     = -0.0444	eb5_1     = -3.9897	eb6_1     = -0.1028	eb7_1     =  0.0948	
eb8_1     = -3.4172	tb1_1     = -0.1019	tb2_1     = -1.0690	tb3_1     =  1.6247	tb4_1     =  0.0313	
tb5_1     = -1.6542	tb6_1     = -0.0911	tb7_1     =  0.1838	tb8_1     = -2.1420	

CDMFT iteration 71, distance =  9.37e+01, diff param =  6.02e-02, diff hybrid =  1.05e-01
100 minimization steps, time(MIN)/time(ED)=0.00266
sb1_1     =  0.0388	sb2_1     = -0.0055	sb3_1     =  0.0145	sb4_1     = -0.1290	sb5_1     =  0.0055	
sb6_1     = -0.1242	sb7_1     =  0.0374	sb8_1     = -0.0047	eb1_1     = -0.0505	eb2_1     = -3.4135	
eb3_1     = -3.9803	eb4_1     = -0.1081	eb5_1     = -3.8170	eb6_1     = -0.0474	eb7_1     =  0.1019	
eb8_1     = -3.4198	tb1_1     = -0.1099	tb2_1     = -1.0694	tb3_1     =  1.6529	tb4_1     =  0.0993	
tb5_1     = -1.6276	tb6_1     = -0.0345	tb7_1     =  0.1790	tb8_1     = -2.1453	

CDMFT iteration 72, distance =  8.47e+01, diff param =  7.66e-02, diff hybrid =  1.10e-01
137 minimization steps, time(MIN)/time(ED)=0.00267
sb1_1     = -0.0319	sb2_1     =  0.0081	sb3_1     =  0.0078	sb4_1     = -0.1076	sb5_1     =  0.0163	
sb6_1     = -0.1178	sb7_1     = -0.0500	sb8_1     =  0.0073	eb1_1     = -0.0978	eb2_1     = -3.5992	
eb3_1     = -3.8213	eb4_1     = -0.0471	eb5_1     = -4.0313	eb6_1     = -0.1136	eb7_1     =  0.0997	
eb8_1     = -3.4103	tb1_1     = -0.1368	tb2_1     = -1.0860	tb3_1     =  1.6287	tb4_1     =  0.0597	
tb5_1     = -1.6608	tb6_1     = -0.1170	tb7_1     =  0.1639	tb8_1     = -2.1448	

CDMFT iteration 73, distance =  8.34e+01, diff param =  7.22e-02, diff hybrid =  1.17e-01
154 minimization steps, time(MIN)/time(ED)=0.00268
sb1_1     =  0.0327	sb2_1     = -0.0051	sb3_1     =  0.0154	sb4_1     = -0.1188	sb5_1     =  0.0092	
sb6_1     = -0.1044	sb7_1     =  0.0446	sb8_1     = -0.0058	eb1_1     = -0.0485	eb2_1     = -3.4519	
eb3_1     = -4.0298	eb4_1     = -0.1028	eb5_1     = -3.8624	eb6_1     = -0.0508	eb7_1     =  0.0745	
eb8_1     = -3.3882	tb1_1     = -0.1170	tb2_1     = -1.0743	tb3_1     =  1.6604	tb4_1     =  0.1146	
tb5_1     = -1.6342	tb6_1     = -0.0762	tb7_1     =  0.1526	tb8_1     = -2.1373	

CDMFT iteration 74, distance =  9.44e+01, diff param =  6.26e-02, diff hybrid =  1.09e-01
92 minimization steps, time(MIN)/time(ED)=0.00267
sb1_1     = -0.0402	sb2_1     =  0.0032	sb3_1     =  0.0072	sb4_1     = -0.1208	sb5_1     =  0.0136	
sb6_1     = -0.1306	sb7_1     = -0.0352	sb8_1     =  0.0039	eb1_1     = -0.0305	eb2_1     = -3.4083	
eb3_1     = -3.8238	eb4_1     = -0.0417	eb5_1     = -4.0173	eb6_1     = -0.1009	eb7_1     =  0.0829	
eb8_1     = -3.4003	tb1_1     = -0.1065	tb2_1     = -1.0705	tb3_1     =  1.6260	tb4_1     =  0.0551	
tb5_1     = -1.6587	tb6_1     = -0.0990	tb7_1     =  0.1704	tb8_1     = -2.1385	

CDMFT iteration 75, distance =  9.80e+01, diff param =  6.22e-02, diff hybrid =  1.04e-01
108 minimization steps, time(MIN)/time(ED)=0.00267
sb1_1     =  0.0463	sb2_1     = -0.0038	sb3_1     =  0.0131	sb4_1     = -0.1360	sb5_1     =  0.0053	
sb6_1     = -0.1306	sb7_1     =  0.0338	sb8_1     = -0.0036	eb1_1     = -0.0335	eb2_1     = -3.3984	
eb3_1     = -3.9827	eb4_1     = -0.1028	eb5_1     = -3.8182	eb6_1     = -0.0447	eb7_1     =  0.0954	
eb8_1     = -3.4175	tb1_1     = -0.1020	tb2_1     = -1.0689	tb3_1     =  1.6529	tb4_1     =  0.0911	
tb5_1     = -1.6254	tb6_1     = -0.0311	tb7_1     =  0.1839	tb8_1     = -2.1422	

CDMFT iteration 76, distance =  9.32e+01, diff param =  6.09e-02, diff hybrid =  1.05e-01
94 minimization steps, time(MIN)/time(ED)=0.00266
sb1_1     = -0.0381	sb2_1     =  0.0056	sb3_1     =  0.0056	sb4_1     = -0.1234	sb5_1     =  0.0147	
sb6_1     = -0.1286	sb7_1     = -0.0377	sb8_1     =  0.0048	eb1_1     = -0.0524	eb2_1     = -3.4200	
eb3_1     = -3.8129	eb4_1     = -0.0473	eb5_1     = -3.9910	eb6_1     = -0.1089	eb7_1     =  0.1019	
eb8_1     = -3.4194	tb1_1     = -0.1111	tb2_1     = -1.0700	tb3_1     =  1.6269	tb4_1     =  0.0356	
tb5_1     = -1.6549	tb6_1     = -0.1005	tb7_1     =  0.1784	tb8_1     = -2.1454	

CDMFT iteration 77, distance =  8.42e+01, diff param =  7.61e-02, diff hybrid =  1.11e-01
154 minimization steps, time(MIN)/time(ED)=0.00267
sb1_1     =  0.0320	sb2_1     = -0.0080	sb3_1     =  0.0163	sb4_1     = -0.1175	sb5_1     =  0.0079	
sb6_1     = -0.1069	sb7_1     =  0.0507	sb8_1     = -0.0075	eb1_1     = -0.0954	eb2_1     = -3.5877	
eb3_1     = -4.0321	eb4_1     = -0.1135	eb5_1     = -3.8243	eb6_1     = -0.0475	eb7_1     =  0.0993	
eb8_1     = -3.4097	tb1_1     = -0.1358	tb2_1     = -1.0849	tb3_1     =  1.6609	tb4_1     =  0.1177	
tb5_1     = -1.6292	tb6_1     = -0.0612	tb7_1     =  0.1631	tb8_1     = -2.1446	

CDMFT iteration 78, distance =  8.39e+01, diff param =  7.03e-02, diff hybrid =  1.17e-01
121 minimization steps, time(MIN)/time(ED)=0.00267
sb1_1     = -0.0328	sb2_1     =  0.0050	sb3_1     =  0.0092	sb4_1     = -0.1050	sb5_1     =  0.0153	
sb6_1     = -0.1194	sb7_1     = -0.0437	sb8_1     =  0.0056	eb1_1     = -0.0470	eb2_1     = -3.4592	
eb3_1     = -3.8625	eb4_1     = -0.0503	eb5_1     = -4.0298	eb6_1     = -0.1024	eb7_1     =  0.0739	
eb8_1     = -3.3868	tb1_1     = -0.1165	tb2_1     = -1.0755	tb3_1     =  1.6342	tb4_1     =  0.0759	
tb5_1     = -1.6604	tb6_1     = -0.1138	tb7_1     =  0.1529	tb8_1     = -2.1367	

CDMFT iteration 79, distance =  9.48e+01, diff param =  6.31e-02, diff hybrid =  1.08e-01
108 minimization steps, time(MIN)/time(ED)=0.00267
sb1_1     =  0.0410	sb2_1     = -0.0033	sb3_1     =  0.0135	sb4_1     = -0.1312	sb5_1     =  0.0070	
sb6_1     = -0.1218	sb7_1     =  0.0352	sb8_1     = -0.0038	eb1_1     = -0.0303	eb2_1     = -3.4100	
eb3_1     = -4.0155	eb4_1     = -0.1011	eb5_1     = -3.8210	eb6_1     = -0.0415	eb7_1     =  0.0839	
eb8_1     = -3.4017	tb1_1     = -0.1061	tb2_1     = -1.0708	tb3_1     =  1.6584	tb4_1     =  0.0982	
tb5_1     = -1.6255	tb6_1     = -0.0531	tb7_1     =  0.1716	tb8_1     = -2.1388	

CDMFT iteration 80, distance =  9.79e+01, diff param =  6.24e-02, diff hybrid =  1.04e-01
105 minimization steps, time(MIN)/time(ED)=0.00266
sb1_1     = -0.0461	sb2_1     =  0.0039	sb3_1     =  0.0052	sb4_1     = -0.1304	sb5_1     =  0.0132	
sb6_1     = -0.1358	sb7_1     = -0.0339	sb8_1     =  0.0037	eb1_1     = -0.0342	eb2_1     = -3.3994	
eb3_1     = -3.8182	eb4_1     = -0.0450	eb5_1     = -3.9828	eb6_1     = -0.1032	eb7_1     =  0.0959	
eb8_1     = -3.4178	tb1_1     = -0.1022	tb2_1     = -1.0690	tb3_1     =  1.6255	tb4_1     =  0.0307	
tb5_1     = -1.6529	tb6_1     = -0.0913	tb7_1     =  0.1839	tb8_1     = -2.1423	

CDMFT iteration 81, distance =  9.28e+01, diff param =  6.08e-02, diff hybrid =  1.05e-01
76 minimization steps, time(MIN)/time(ED)=0.00265
sb1_1     =  0.0376	sb2_1     = -0.0057	sb3_1     =  0.0148	sb4_1     = -0.1279	sb5_1     =  0.0057	
sb6_1     = -0.1227	sb7_1     =  0.0383	sb8_1     = -0.0049	eb1_1     = -0.0544	eb2_1     = -3.4207	
eb3_1     = -3.9889	eb4_1     = -0.1092	eb5_1     = -3.8126	eb6_1     = -0.0471	eb7_1     =  0.1020	
eb8_1     = -3.4195	tb1_1     = -0.1121	tb2_1     = -1.0698	tb3_1     =  1.6545	tb4_1     =  0.1014	
tb5_1     = -1.6269	tb6_1     = -0.0364	tb7_1     =  0.1777	tb8_1     = -2.1456	

CDMFT iteration 82, distance =  8.39e+01, diff param =  7.71e-02, diff hybrid =  1.11e-01
139 minimization steps, time(MIN)/time(ED)=0.00265
sb1_1     = -0.0319	sb2_1     =  0.0080	sb3_1     =  0.0081	sb4_1     = -0.1061	sb5_1     =  0.0163	
sb6_1     = -0.1172	sb7_1     = -0.0513	sb8_1     =  0.0076	eb1_1     = -0.0953	eb2_1     = -3.6003	
eb3_1     = -3.8247	eb4_1     = -0.0478	eb5_1     = -4.0332	eb6_1     = -0.1133	eb7_1     =  0.0988	
eb8_1     = -3.4098	tb1_1     = -0.1362	tb2_1     = -1.0865	tb3_1     =  1.6292	tb4_1     =  0.0628	
tb5_1     = -1.6610	tb6_1     = -0.1181	tb7_1     =  0.1623	tb8_1     = -2.1446	

CDMFT iteration 83, distance =  8.43e+01, diff param =  7.25e-02, diff hybrid =  1.17e-01
130 minimization steps, time(MIN)/time(ED)=0.00266
sb1_1     =  0.0331	sb2_1     = -0.0048	sb3_1     =  0.0152	sb4_1     = -0.1200	sb5_1     =  0.0091	
sb6_1     = -0.1056	sb7_1     =  0.0428	sb8_1     = -0.0054	eb1_1     = -0.0449	eb2_1     = -3.4459	
eb3_1     = -4.0297	eb4_1     = -0.1019	eb5_1     = -3.8630	eb6_1     = -0.0498	eb7_1     =  0.0732	
eb8_1     = -3.3881	tb1_1     = -0.1154	tb2_1     = -1.0740	tb3_1     =  1.6605	tb4_1     =  0.1129	
tb5_1     = -1.6342	tb6_1     = -0.0755	tb7_1     =  0.1533	tb8_1     = -2.1370	

CDMFT iteration 84, distance =  9.53e+01, diff param =  6.29e-02, diff hybrid =  1.08e-01
108 minimization steps, time(MIN)/time(ED)=0.00266
sb1_1     = -0.0413	sb2_1     =  0.0032	sb3_1     =  0.0069	sb4_1     = -0.1229	sb5_1     =  0.0135	
sb6_1     = -0.1319	sb7_1     = -0.0350	sb8_1     =  0.0038	eb1_1     = -0.0301	eb2_1     = -3.4035	
eb3_1     = -3.8200	eb4_1     = -0.0413	eb5_1     = -4.0154	eb6_1     = -0.1012	eb7_1     =  0.0848	
eb8_1     = -3.4037	tb1_1     = -0.1056	tb2_1     = -1.0699	tb3_1     =  1.6253	tb4_1     =  0.0510	
tb5_1     = -1.6584	tb6_1     = -0.0975	tb7_1     =  0.1730	tb8_1     = -2.1392	

CDMFT iteration 85, distance =  9.78e+01, diff param =  6.20e-02, diff hybrid =  1.04e-01
107 minimization steps, time(MIN)/time(ED)=0.00265
sb1_1     =  0.0461	sb2_1     = -0.0040	sb3_1     =  0.0132	sb4_1     = -0.1355	sb5_1     =  0.0052	
sb6_1     = -0.1303	sb7_1     =  0.0341	sb8_1     = -0.0037	eb1_1     = -0.0348	eb2_1     = -3.3976	
eb3_1     = -3.9801	eb4_1     = -0.1034	eb5_1     = -3.8194	eb6_1     = -0.0453	eb7_1     =  0.0965	
eb8_1     = -3.4183	tb1_1     = -0.1022	tb2_1     = -1.0688	tb3_1     =  1.6525	tb4_1     =  0.0916	
tb5_1     = -1.6259	tb6_1     = -0.0304	tb7_1     =  0.1839	tb8_1     = -2.1426	

CDMFT iteration 86, distance =  9.24e+01, diff param =  5.95e-02, diff hybrid =  1.05e-01
82 minimization steps, time(MIN)/time(ED)=0.00264
sb1_1     = -0.0370	sb2_1     =  0.0058	sb3_1     =  0.0058	sb4_1     = -0.1219	sb5_1     =  0.0148	
sb6_1     = -0.1271	sb7_1     = -0.0389	sb8_1     =  0.0050	eb1_1     = -0.0560	eb2_1     = -3.4223	
eb3_1     = -3.8152	eb4_1     = -0.0471	eb5_1     = -3.9840	eb6_1     = -0.1091	eb7_1     =  0.1020	
eb8_1     = -3.4185	tb1_1     = -0.1131	tb2_1     = -1.0698	tb3_1     =  1.6276	tb4_1     =  0.0377	
tb5_1     = -1.6535	tb6_1     = -0.1021	tb7_1     =  0.1769	tb8_1     = -2.1454	

CDMFT iteration 87, distance =  8.37e+01, diff param =  7.31e-02, diff hybrid =  1.12e-01
183 minimization steps, time(MIN)/time(ED)=0.00266
sb1_1     =  0.0317	sb2_1     = -0.0076	sb3_1     =  0.0163	sb4_1     = -0.1170	sb5_1     =  0.0083	
sb6_1     = -0.1055	sb7_1     =  0.0514	sb8_1     = -0.0076	eb1_1     = -0.0896	eb2_1     = -3.5712	
eb3_1     = -4.0341	eb4_1     = -0.1128	eb5_1     = -3.8272	eb6_1     = -0.0480	eb7_1     =  0.0978	
eb8_1     = -3.4083	tb1_1     = -0.1337	tb2_1     = -1.0836	tb3_1     =  1.6611	tb4_1     =  0.1182	
tb5_1     = -1.6295	tb6_1     = -0.0643	tb7_1     =  0.1616	tb8_1     = -2.1442	

CDMFT iteration 88, distance =  8.50e+01, diff param =  6.88e-02, diff hybrid =  1.16e-01
115 minimization steps, time(MIN)/time(ED)=0.00266
sb1_1     = -0.0335	sb2_1     =  0.0047	sb3_1     =  0.0090	sb4_1     = -0.1066	sb5_1     =  0.0151	
sb6_1     = -0.1206	sb7_1     = -0.0418	sb8_1     =  0.0052	eb1_1     = -0.0437	eb2_1     = -3.4544	
eb3_1     = -3.8620	eb4_1     = -0.0491	eb5_1     = -4.0280	eb6_1     = -0.1016	eb7_1     =  0.0729	
eb8_1     = -3.3876	tb1_1     = -0.1150	tb2_1     = -1.0753	tb3_1     =  1.6340	tb4_1     =  0.0747	
tb5_1     = -1.6602	tb6_1     = -0.1121	tb7_1     =  0.1540	tb8_1     = -2.1367	

CDMFT iteration 89, distance =  9.56e+01, diff param =  6.33e-02, diff hybrid =  1.07e-01
107 minimization steps, time(MIN)/time(ED)=0.00266
sb1_1     =  0.0418	sb2_1     = -0.0032	sb3_1     =  0.0135	sb4_1     = -0.1324	sb5_1     =  0.0067	
sb6_1     = -0.1237	sb7_1     =  0.0349	sb8_1     = -0.0038	eb1_1     = -0.0302	eb2_1     = -3.4044	
eb3_1     = -4.0149	eb4_1     = -0.1014	eb5_1     = -3.8185	eb6_1     = -0.0413	eb7_1     =  0.0857	
eb8_1     = -3.4045	tb1_1     = -0.1053	tb2_1     = -1.0700	tb3_1     =  1.6584	tb4_1     =  0.0969	
tb5_1     = -1.6250	tb6_1     = -0.0491	tb7_1     =  0.1740	tb8_1     = -2.1393	

CDMFT iteration 90, distance =  9.75e+01, diff param =  6.28e-02, diff hybrid =  1.04e-01
94 minimization steps, time(MIN)/time(ED)=0.00265
sb1_1     = -0.0456	sb2_1     =  0.0041	sb3_1     =  0.0052	sb4_1     = -0.1300	sb5_1     =  0.0134	
sb6_1     = -0.1353	sb7_1     = -0.0343	sb8_1     =  0.0038	eb1_1     = -0.0356	eb2_1     = -3.3980	
eb3_1     = -3.8174	eb4_1     = -0.0455	eb5_1     = -3.9832	eb6_1     = -0.1040	eb7_1     =  0.0971	
eb8_1     = -3.4189	tb1_1     = -0.1026	tb2_1     = -1.0688	tb3_1     =  1.6256	tb4_1     =  0.0303	
tb5_1     = -1.6531	tb6_1     = -0.0921	tb7_1     =  0.1837	tb8_1     = -2.1429	

CDMFT iteration 91, distance =  9.18e+01, diff param =  6.26e-02, diff hybrid =  1.06e-01
123 minimization steps, time(MIN)/time(ED)=0.00265
sb1_1     =  0.0366	sb2_1     = -0.0062	sb3_1     =  0.0151	sb4_1     = -0.1265	sb5_1     =  0.0059	
sb6_1     = -0.1210	sb7_1     =  0.0395	sb8_1     = -0.0052	eb1_1     = -0.0598	eb2_1     = -3.4391	
eb3_1     = -3.9964	eb4_1     = -0.1101	eb5_1     = -3.8113	eb6_1     = -0.0469	eb7_1     =  0.1019	
eb8_1     = -3.4179	tb1_1     = -0.1151	tb2_1     = -1.0715	tb3_1     =  1.6557	tb4_1     =  0.1037	
tb5_1     = -1.6269	tb6_1     = -0.0387	tb7_1     =  0.1760	tb8_1     = -2.1455	

CDMFT iteration 92, distance =  8.32e+01, diff param =  7.22e-02, diff hybrid =  1.13e-01
152 minimization steps, time(MIN)/time(ED)=0.00266
sb1_1     = -0.0319	sb2_1     =  0.0077	sb3_1     =  0.0084	sb4_1     = -0.1047	sb5_1     =  0.0163	
sb6_1     = -0.1167	sb7_1     = -0.0523	sb8_1     =  0.0078	eb1_1     = -0.0880	eb2_1     = -3.5604	
eb3_1     = -3.8323	eb4_1     = -0.0488	eb5_1     = -4.0351	eb6_1     = -0.1124	eb7_1     =  0.0974	
eb8_1     = -3.4080	tb1_1     = -0.1331	tb2_1     = -1.0824	tb3_1     =  1.6303	tb4_1     =  0.0660	
tb5_1     = -1.6612	tb6_1     = -0.1189	tb7_1     =  0.1607	tb8_1     = -2.1441	

CDMFT iteration 93, distance =  8.56e+01, diff param =  7.07e-02, diff hybrid =  1.16e-01
152 minimization steps, time(MIN)/time(ED)=0.00267
sb1_1     =  0.0336	sb2_1     = -0.0044	sb3_1     =  0.0151	sb4_1     = -0.1214	sb5_1     =  0.0089	
sb6_1     = -0.1072	sb7_1     =  0.0410	sb8_1     = -0.0050	eb1_1     = -0.0413	eb2_1     = -3.4277	
eb3_1     = -4.0327	eb4_1     = -0.1015	eb5_1     = -3.8566	eb6_1     = -0.0486	eb7_1     =  0.0723	
eb8_1     = -3.3874	tb1_1     = -0.1138	tb2_1     = -1.0720	tb3_1     =  1.6611	tb4_1     =  0.1113	
tb5_1     = -1.6328	tb6_1     = -0.0743	tb7_1     =  0.1544	tb8_1     = -2.1365	

CDMFT iteration 94, distance =  9.63e+01, diff param =  6.41e-02, diff hybrid =  1.07e-01
98 minimization steps, time(MIN)/time(ED)=0.00266
sb1_1     = -0.0429	sb2_1     =  0.0032	sb3_1     =  0.0066	sb4_1     = -0.1249	sb5_1     =  0.0134	
sb6_1     = -0.1331	sb7_1     = -0.0347	sb8_1     =  0.0037	eb1_1     = -0.0301	eb2_1     = -3.3994	
eb3_1     = -3.8160	eb4_1     = -0.0413	eb5_1     = -4.0119	eb6_1     = -0.1014	eb7_1     =  0.0866	
eb8_1     = -3.4055	tb1_1     = -0.1046	tb2_1     = -1.0693	tb3_1     =  1.6244	tb4_1     =  0.0468	
tb5_1     = -1.6578	tb6_1     = -0.0960	tb7_1     =  0.1755	tb8_1     = -2.1393	

CDMFT iteration 95, distance =  9.74e+01, diff param =  6.23e-02, diff hybrid =  1.04e-01
97 minimization steps, time(MIN)/time(ED)=0.00265
sb1_1     =  0.0454	sb2_1     = -0.0042	sb3_1     =  0.0134	sb4_1     = -0.1351	sb5_1     =  0.0052	
sb6_1     = -0.1299	sb7_1     =  0.0343	sb8_1     = -0.0038	eb1_1     = -0.0362	eb2_1     = -3.3966	
eb3_1     = -3.9817	eb4_1     = -0.1043	eb5_1     = -3.8192	eb6_1     = -0.0459	eb7_1     =  0.0979	
eb8_1     = -3.4196	tb1_1     = -0.1026	tb2_1     = -1.0686	tb3_1     =  1.6529	tb4_1     =  0.0923	
tb5_1     = -1.6261	tb6_1     = -0.0300	tb7_1     =  0.1839	tb8_1     = -2.1432	

CDMFT iteration 96, distance =  9.13e+01, diff param =  6.45e-02, diff hybrid =  1.06e-01
127 minimization steps, time(MIN)/time(ED)=0.00266
sb1_1     = -0.0358	sb2_1     =  0.0064	sb3_1     =  0.0060	sb4_1     = -0.1199	sb5_1     =  0.0154	
sb6_1     = -0.1258	sb7_1     = -0.0401	sb8_1     =  0.0053	eb1_1     = -0.0641	eb2_1     = -3.4648	
eb3_1     = -3.8111	eb4_1     = -0.0468	eb5_1     = -4.0055	eb6_1     = -0.1110	eb7_1     =  0.1020	
eb8_1     = -3.4171	tb1_1     = -0.1175	tb2_1     = -1.0742	tb3_1     =  1.6269	tb4_1     =  0.0402	
tb5_1     = -1.6574	tb6_1     = -0.1051	tb7_1     =  0.1751	tb8_1     = -2.1455	

CDMFT iteration 97, distance =  8.25e+01, diff param =  7.12e-02, diff hybrid =  1.13e-01
151 minimization steps, time(MIN)/time(ED)=0.00266
sb1_1     =  0.0317	sb2_1     = -0.0075	sb3_1     =  0.0163	sb4_1     = -0.1163	sb5_1     =  0.0087	
sb6_1     = -0.1036	sb7_1     =  0.0530	sb8_1     = -0.0079	eb1_1     = -0.0858	eb2_1     = -3.5593	
eb3_1     = -4.0375	eb4_1     = -0.1122	eb5_1     = -3.8368	eb6_1     = -0.0497	eb7_1     =  0.0963	
eb8_1     = -3.4069	tb1_1     = -0.1325	tb2_1     = -1.0827	tb3_1     =  1.6616	tb4_1     =  0.1195	
tb5_1     = -1.6310	tb6_1     = -0.0683	tb7_1     =  0.1594	tb8_1     = -2.1438	

CDMFT iteration 98, distance =  8.62e+01, diff param =  6.91e-02, diff hybrid =  1.15e-01
131 minimization steps, time(MIN)/time(ED)=0.00266
sb1_1     = -0.0340	sb2_1     =  0.0043	sb3_1     =  0.0088	sb4_1     = -0.1080	sb5_1     =  0.0149	
sb6_1     = -0.1221	sb7_1     = -0.0398	sb8_1     =  0.0048	eb1_1     = -0.0397	eb2_1     = -3.4323	
eb3_1     = -3.8575	eb4_1     = -0.0481	eb5_1     = -4.0279	eb6_1     = -0.1009	eb7_1     =  0.0713	
eb8_1     = -3.3866	tb1_1     = -0.1132	tb2_1     = -1.0728	tb3_1     =  1.6328	tb4_1     =  0.0740	
tb5_1     = -1.6603	tb6_1     = -0.1100	tb7_1     =  0.1548	tb8_1     = -2.1361	

CDMFT iteration 99, distance =  9.68e+01, diff param =  6.28e-02, diff hybrid =  1.07e-01
115 minimization steps, time(MIN)/time(ED)=0.00266
sb1_1     =  0.0436	sb2_1     = -0.0032	sb3_1     =  0.0132	sb4_1     = -0.1339	sb5_1     =  0.0064	
sb6_1     = -0.1262	sb7_1     =  0.0344	sb8_1     = -0.0037	eb1_1     = -0.0298	eb2_1     = -3.4012	
eb3_1     = -4.0068	eb4_1     = -0.1012	eb5_1     = -3.8167	eb6_1     = -0.0413	eb7_1     =  0.0875	
eb8_1     = -3.4078	tb1_1     = -0.1040	tb2_1     = -1.0695	tb3_1     =  1.6569	tb4_1     =  0.0946	
tb5_1     = -1.6245	tb6_1     = -0.0443	tb7_1     =  0.1770	tb8_1     = -2.1398	

CDMFT iteration 100, distance =  9.73e+01, diff param =  6.13e-02, diff hybrid =  1.05e-01
88 minimization steps, time(MIN)/time(ED)=0.00266
sb1_1     = -0.0452	sb2_1     =  0.0043	sb3_1     =  0.0051	sb4_1     = -0.1298	sb5_1     =  0.0134	
sb6_1     = -0.1348	sb7_1     = -0.0343	sb8_1     =  0.0039	eb1_1     = -0.0369	eb2_1     = -3.3976	
eb3_1     = -3.8195	eb4_1     = -0.0463	eb5_1     = -3.9794	eb6_1     = -0.1046	eb7_1     =  0.0986	
eb8_1     = -3.4203	tb1_1     = -0.1028	tb2_1     = -1.0687	tb3_1     =  1.6263	tb4_1     =  0.0295	
tb5_1     = -1.6526	tb6_1     = -0.0923	tb7_1     =  0.1840	tb8_1     = -2.1436	

CDMFT iteration 101, distance =  9.06e+01, diff param =  6.41e-02, diff hybrid =  1.06e-01
145 minimization steps, time(MIN)/time(ED)=0.00266
sb1_1     =  0.0352	sb2_1     = -0.0067	sb3_1     =  0.0154	sb4_1     = -0.1248	sb5_1     =  0.0061	
sb6_1     = -0.1188	sb7_1     =  0.0409	sb8_1     = -0.0055	eb1_1     = -0.0687	eb2_1     = -3.4668	
eb3_1     = -4.0021	eb4_1     = -0.1112	eb5_1     = -3.8106	eb6_1     = -0.0467	eb7_1     =  0.1021	
eb8_1     = -3.4168	tb1_1     = -0.1197	tb2_1     = -1.0737	tb3_1     =  1.6566	tb4_1     =  0.1062	
tb5_1     = -1.6270	tb6_1     = -0.0415	tb7_1     =  0.1741	tb8_1     = -2.1456	
Traceback (most recent call last):
  File "/home/theod/code_pyqcm/simulations/cdmft_fade_from_Sr.py", line 129, in <module>
    fade(fade_func, initial_P, material_P, 30)
  File "/home/theod/.local/lib/python3.8/site-packages/pyqcm/loop.py", line 390, in fade
    F()
  File "/home/theod/code_pyqcm/simulations/cdmft_fade_from_Sr.py", line 118, in fade_func
    cdmft(
  File "/home/theod/.local/lib/python3.8/site-packages/pyqcm/cdmft.py", line 514, in cdmft
    raise pyqcm.TooManyIterationsError(maxiter)
pyqcm.TooManyIterationsError: 100
