model	D	U	e	eb1_1	eb2_1	eb3_1	eb4_1	eb5_1	eb6_1	eb7_1	eb8_1	mu	sb1_1	sb2_1	sb3_1	sb4_1	sb5_1	sb6_1	sb7_1	sb8_1	tb1_1	tb2_1	tb3_1	tb4_1	tb5_1	tb6_1	tb7_1	tb8_1	tpd	tpp	tppp	ave_D_1	ave_U_1	ave_eb1_1	ave_eb2_1	ave_eb3_1	ave_eb4_1	ave_eb5_1	ave_eb6_1	ave_eb7_1	ave_eb8_1	ave_mu_1	ave_sb1_1	ave_sb2_1	ave_sb3_1	ave_sb4_1	ave_sb5_1	ave_sb6_1	ave_sb7_1	ave_sb8_1	ave_tb1_1	ave_tb2_1	ave_tb3_1	ave_tb4_1	ave_tb5_1	ave_tb6_1	ave_tb7_1	ave_tb8_1	var_D_1	var_U_1	var_eb1_1	var_eb2_1	var_eb3_1	var_eb4_1	var_eb5_1	var_eb6_1	var_eb7_1	var_eb8_1	var_mu_1	var_sb1_1	var_sb2_1	var_sb3_1	var_sb4_1	var_sb5_1	var_sb6_1	var_sb7_1	var_sb8_1	var_tb1_1	var_tb2_1	var_tb3_1	var_tb4_1	var_tb5_1	var_tb6_1	var_tb7_1	var_tb8_1	E0_1	sector_1	E0_2	sector_2	githash	distance	diff_param	diff_hybrid	time
2x2_2C_8b_C2v_L	0.1	14	1.93	0.0086839677	-3.1445289	-3.9164807	-0.13437878	-3.9164407	-0.13437791	0.17455273	-3.5797676	9.5	2.7540906e-05	-4.0887161e-07	0.0069035686	-0.19307525	0.0069033966	-0.1930765	-1.0933969e-05	2.552128e-06	-0.11908613	-1.0874005	1.7341014	0.025163995	-1.7340927	-0.025176042	0.26343251	-2.2991102	1.25	0.649	0.161	-0.043147346	0.13185934	0.13421925	1.9448554	1.7869546	1.7424987	1.7869547	1.7424904	0.014822092	1.5535603	1.1008188	-0.00021138519	4.8997281e-06	-0.089139665	1.0540974	-0.08914898	1.0541112	5.4070961e-05	1.7094806e-06	1.1156655	0.68220327	-1.63106	-0.23423063	1.6310533	0.23426454	-0.29478323	2.5541081	0.49216735	0.028620018	0.12477011	0.054151931	0.19480515	0.24591229	0.19480509	0.24591848	0.015064876	0.34634959	0.037277038	3.4589435	5.5445757	5.2979213	4.7343742	5.2979243	4.7343959	4.3935201	6.1467328	5.1373309	2.6768226	3.517	4.9129945	3.5169883	4.9129967	3.6850728	3.1699116	-73.504326	R0:S0:1	-60.56	uncorrelated	51514b8	 1.98e+01	 7.64e-01	 1.00e+06	2022-04-08@16:42
2x2_2C_8b_C2v_L	0.1	14	1.93	0.048615657	-4.8995823	-5.6985267	-0.037383834	-5.6984801	-0.037685601	0.02562518	-5.2800442	9.5	0.028544836	3.3915496e-07	0.0038910306	0.0048900496	0.0038907391	0.0048961054	0.05523653	4.4040036e-06	-0.00058623662	-0.75994427	1.16348	-0.045136464	-1.1634523	0.045172896	-2.0929307e-05	-1.4661747	1.25	0.649	0.161	-0.047335675	0.049655785	0.00010352476	1.9803425	1.9548095	1.9996566	1.9548116	1.9996564	0.00052128883	1.9149783	1.049188	-0.037772738	2.1340692e-06	-0.047485851	-0.0027773664	-0.047486738	-0.0027706379	-0.091976166	-1.6884561e-05	0.0010751786	0.52241252	-0.83036443	0.068104559	0.83034325	-0.068154592	-1.430531e-05	1.1817088	0.70596595	0.011895166	0.00010360464	0.01959548	0.044696827	0.00034738757	0.044694834	0.00034755401	0.00052548739	0.082738132	0.011888016	3.4717092	4.6713911	4.5194641	4.1847457	4.5194687	4.1847708	4.1069962	4.5305543	4.5291928	3.5006177	3.8284945	3.8178944	3.828477	3.8178709	3.8963969	4.0222286	-83.424943	R0:S0:1	-60.56	uncorrelated	51514b8	 8.95e-01	 1.96e-01	 1.74e+00	2022-04-08@16:46
2x2_2C_8b_C2v_L	0.1	14	1.93	0.05395332	-5.441589	-6.1895254	-0.043238584	-6.189528	-0.04357882	0.059372874	-5.6405122	9.5	-0.00067605431	-8.0190389e-06	0.0018768778	-0.0022240021	0.0018755048	-0.0022809564	0.0031366502	-5.0511473e-06	0.00038903363	-0.78891259	1.2052163	-0.0055467642	-1.2052176	0.0055383389	0.00057876296	-1.5093378	1.25	0.649	0.161	-0.046900715	0.048526263	8.6105197e-08	1.9809704	1.9557159	1.9999943	1.9557157	1.9999943	1.6673751e-06	1.9159083	1.0480485	0.00089123965	6.4952664e-06	-0.04493711	0.0033229313	-0.044936393	0.0033935994	-0.0051887223	1.0794849e-06	-0.00062517477	0.51401254	-0.82254163	0.0086103828	0.8225438	-0.0086022368	-0.00055383131	1.1764872	0.70716869	0.011638369	8.6105448e-08	0.018971229	0.043809517	5.6762493e-06	0.043809676	5.6993044e-06	1.6674443e-06	0.081855624	0.011626423	3.4715551	4.6669167	4.5087806	4.1781409	4.5087766	4.1781355	4.1158681	4.5165056	4.5284456	3.4997905	3.8327776	3.8219028	3.8327823	3.8219084	3.8841428	4.0305058	-87.261217	R0:S0:1	-60.56	uncorrelated	51514b8	 8.61e-01	 1.61e-02	 3.02e-02	2022-04-08@16:49
2x2_2C_8b_C2v_L	0.1	14	1.93	0.054095151	-5.5085622	-6.217292	-0.043551986	-6.2172964	-0.043894447	0.059488254	-5.6320815	9.5	-7.1473131e-05	-9.2230539e-05	0.0018564795	0.00048448553	0.0018563527	0.00048848619	0.0060157242	7.0351191e-06	-8.1381352e-05	-0.79368448	1.2077184	2.9705857e-05	-1.2077193	-3.4736511e-05	0.00035533785	-1.5081155	1.25	0.649	0.161	-0.046886425	0.048493831	1.8959257e-09	1.980973	1.9557576	2	1.9557562	2	6.0289543e-06	1.9159387	1.0480187	9.4239391e-05	7.8745142e-05	-0.044873025	-0.00061310047	-0.044873489	-0.00061852352	-0.0099469986	-2.6895071e-05	0.00013073602	0.51405004	-0.82217281	-8.9890966e-05	0.82219382	9.7863451e-05	-0.00033990042	1.1761525	0.70720584	0.011631024	1.8959258e-09	0.018968469	0.043768535	3.0491502e-08	0.04376991	3.1085091e-08	6.0292062e-06	0.081827802	0.011619456	3.4725288	4.665948	4.5083394	4.1779557	4.5082819	4.1778844	4.115007	4.5170676	4.5274712	3.5006926	3.8328961	3.8220445	3.8329575	3.8221158	3.8850323	4.0299163	-87.492701	R0:S0:1	-60.56	uncorrelated	51514b8	 8.60e-01	 0.00e+00	 6.88e-04	2022-04-08@16:53
2x2_2C_8b_C2v_L	0.1	14	1.93	0.054095151	-5.5085622	-6.217292	-0.043551986	-6.2172964	-0.043894447	0.059488254	-5.6320815	10	-7.1473131e-05	-9.2230539e-05	0.0018564795	0.00048448553	0.0018563527	0.00048848619	0.0060157242	7.0351191e-06	-8.1381352e-05	-0.79368448	1.2077184	2.9705857e-05	-1.2077193	-3.4736511e-05	0.00035533785	-1.5081155	1.25	0.649	0.161	-0.048559373	0.052911211	1.9247308e-09	1.9794292	1.9519417	2	1.9519401	2	7.3658297e-06	1.9078296	1.0524168	0.00010226755	7.7911414e-05	-0.047183698	-0.00058631085	-0.047184358	-0.00059155388	-0.01099596	-2.757382e-05	0.00012581593	0.53165254	-0.85508906	-9.7908897e-05	0.85511131	0.00010667251	-0.00032270922	1.2313347	0.70372592	0.012641634	1.9247308e-09	0.020505339	0.047500506	2.8130855e-08	0.047502026	2.8700437e-08	7.3661474e-06	0.089446487	0.012618957	3.435591	4.7129508	4.550725	4.1938036	4.5506681	4.1937317	4.1132692	4.5748212	4.564409	3.468071	3.819145	3.8061966	3.8192061	3.8062685	3.8867778	4.0150126	-89.593045	R0:S0:1	-64.56	uncorrelated	51514b8	 1.11e+00	 1.39e-01	 1.00e+06	2022-04-08@16:56
2x2_2C_8b_C2v_L	0.1	14	1.93	0.054095548	-5.7190402	-6.4742876	-0.043576361	-6.4742928	-0.043919836	0.062594355	-6.1687603	10	-3.9746957e-05	3.7289925e-06	0.00196943	-0.0037043334	0.0019696694	-0.003749582	-0.00010539328	-6.6890726e-06	-0.00010784945	-0.77990889	1.187833	-0.00014231589	-1.1878341	0.00014291285	7.3694519e-06	-1.5131108	1.25	0.649	0.161	-0.048608081	0.048894768	1.9453045e-09	1.9806157	1.9552813	1.9999986	1.9552814	1.9999985	2.2912452e-09	1.9159566	1.0484311	5.7844753e-05	-4.3125136e-06	-0.045273979	0.0042891495	-0.045274194	0.0043411917	0.00019361757	5.5665954e-06	0.00015592617	0.51867863	-0.8263122	0.00060428269	0.82630994	-0.00060968906	-6.5895811e-06	1.1762175	0.70659386	0.011736453	1.9453045e-09	0.019323789	0.044234122	1.435194e-06	0.044233981	1.4700902e-06	2.2912453e-09	0.081807126	0.011716116	3.4700872	4.6708772	4.5142132	4.1805321	4.5142203	4.1805407	4.1160798	4.5160415	4.5299128	3.4989055	3.8306194	3.819479	3.8306121	3.8194707	3.8839203	4.0306965	-92.005507	R0:S0:1	-64.56	uncorrelated	51514b8	 1.10e+00	 3.94e-02	 5.62e-02	2022-04-08@16:59
2x2_2C_8b_C2v_L	0.1	14	1.93	0.054103212	-5.8356321	-6.5780055	-0.044731579	-6.5780181	-0.045054371	0.062594334	-6.1257028	10	0.00067701904	-3.3268544e-06	0.0019610323	-0.0020840222	0.0019616149	-0.0024087781	-0.0022331416	-6.6470288e-05	0.00066056308	-0.78704854	1.1968465	-0.00011386769	-1.1968481	0.00013134249	0.00015785368	-1.5077967	1.25	0.649	0.161	-0.048597287	0.04879727	1.3433288e-07	1.9806771	1.9554619	1.9999995	1.9554634	1.9999994	1.0256896e-06	1.915904	1.0483387	-0.00098611347	-1.1980316e-05	-0.045140369	0.0024110211	-0.045141995	0.0027867061	0.0041001651	4.7785468e-05	-0.0009549391	0.51799228	-0.82473122	0.00039633386	0.82471004	-0.00045759896	-0.00014089706	1.1763352	0.70675362	0.011714507	1.3433288e-07	0.019262573	0.044057127	4.548196e-07	0.044055734	6.0753835e-07	1.0256963e-06	0.081858475	0.011695054	3.4718798	4.6686944	4.5122005	4.1797765	4.5122589	4.1798495	4.1143234	4.5179973	4.5281212	3.5004892	3.8312571	3.820227	3.8311947	3.8201552	3.8856833	4.0293026	-92.576473	R0:S0:1	-64.56	uncorrelated	51514b8	 1.10e+00	 0.00e+00	 1.47e-03	2022-04-08@17:02
2x2_2C_8b_C2v_L	0.1	14	1.93	0.054111274	-6.162702	-6.938719	-0.045911173	-6.9387397	-0.046214295	0.065700415	-6.619324	10.5	0.0014255112	8.557683e-05	0.0020655851	-0.0046525299	0.0020668771	-0.0053060424	-0.010482007	-0.00013997569	0.0014025075	-0.7804126	1.1859746	-0.00025744124	-1.185977	0.00029742149	-3.9630492e-05	-1.507478	1.25	0.649	0.161	-0.051297001	0.04914136	6.4963583e-07	1.98037	1.9551574	1.999998	1.955162	1.9999974	2.8659363e-05	1.9158637	1.0486951	-0.0023190228	-9.2092894e-05	-0.046610497	0.0049810932	-0.046611434	0.0056817583	0.021639915	0.00011812023	-0.0018534586	0.5220328	-0.82733077	0.0009984442	0.82726431	-0.0011454072	3.1495259e-05	1.1765449	0.70618321	0.011813294	6.4965174e-07	0.019567778	0.044354737	1.9718289e-06	0.044350292	2.5645905e-06	2.866099e-05	0.08189532	0.0117877	3.4710201	4.671732	4.5162006	4.1817976	4.5163791	4.1820227	4.113637	4.5189389	4.5289851	3.5001127	3.8294821	3.8182176	3.8292906	3.817997	3.8865482	4.028727	-97.660652	R0:S0:1	-68.56	uncorrelated	51514b8	 1.65e+00	 1.83e-03	 1.00e+06	2022-04-08@17:06
2x2_2C_8b_C2v_L	0.1	14	1.93	0.054113229	-6.1651786	-6.9410553	-0.045933641	-6.9410808	-0.046245437	0.065852246	-6.6193063	10.5	-0.00028692418	-8.5172418e-06	0.0020299561	-0.0013547111	0.0020297196	-0.001406235	-0.0053236574	-1.8700865e-05	3.3772691e-05	-0.78174477	1.1873379	-7.1447373e-05	-1.1873414	7.3892408e-05	-2.2105932e-05	-1.5075781	1.25	0.649	0.161	-0.051276023	0.049183843	1.5837096e-08	1.9803111	1.9550884	1.9999998	1.9550885	1.9999998	7.3421591e-06	1.9158699	1.0487391	0.0004666906	2.5193086e-06	-0.046609641	0.001449665	-0.046609936	0.0015047055	0.010985182	1.0952853e-05	-4.4535687e-05	0.52283954	-0.82792673	0.00028360985	0.82792451	-0.00029385888	1.8516324e-05	1.1764394	0.70611555	0.011822695	1.5837097e-08	0.019626226	0.044422235	1.6217805e-07	0.044422107	1.7469682e-07	7.3422672e-06	0.081889946	0.011797108	3.4713355	4.6718397	4.5170653	4.1821848	4.517073	4.182194	4.1132104	4.5193111	4.5286646	3.5004872	3.8291261	3.8178165	3.8291182	3.8178073	3.886837	4.028419	-97.67773	R0:S0:1	-68.56	uncorrelated	51514b8	 1.64e+00	 0.00e+00	 1.00e-03	2022-04-08@17:09
2x2_2C_8b_C2v_L	0.1	14	1.93	0.054125202	-6.4972017	-7.3064414	-0.047158171	-7.3064846	-0.047467644	0.069261988	-7.1128921	11	-0.0029633028	-0.0001078017	0.002063251	0.0026724187	0.0020606669	0.0034961156	-0.0032558232	0.00015034339	-0.0019617525	-0.77777318	1.1791925	0.00015696681	-1.1791991	-0.00020708675	-0.00018454098	-1.5074595	1.25	0.649	0.161	-0.055194881	0.049666754	2.5358428e-06	1.9798695	1.9546358	1.9999995	1.9546314	1.9999991	3.5890766e-06	1.915838	1.0492336	0.0054574418	0.00010474184	-0.049444222	-0.0026717233	-0.049442526	-0.0034946588	0.0076682189	-0.00012017781	0.0023812644	0.52864683	-0.83174962	-0.00068334089	0.83181346	0.00089718733	0.00014595514	1.1764569	0.70523858	0.011962159	2.536412e-06	0.020064979	0.044865012	5.4666071e-07	0.044869216	9.3401135e-07	3.5891161e-06	0.081920685	0.011931908	3.4709804	4.6753512	4.5230271	4.1853015	4.5228556	4.1850904	4.1116669	4.5210403	4.5290413	3.5007666	3.8264046	3.8147027	3.8265876	3.8149167	3.8883562	4.0272681	-102.79651	R0:S0:1	-72.56	uncorrelated	51514b8	 2.64e+00	 2.69e-04	 1.00e+06	2022-04-08@17:12
2x2_2C_8b_C2v_L	0.1	14	1.93	0.05414145	-6.8324268	-7.6747306	-0.048407693	-7.6747959	-0.048725669	0.072823509	-7.6063531	11.5	-0.0059929125	-3.5361143e-05	0.0026276639	0.0094484261	0.002627983	0.01154076	0.0039589715	4.1250959e-05	-0.0047213478	-0.77194654	1.172692	0.00054467047	-1.1727253	-0.00067381538	-0.00033672268	-1.5070756	1.25	0.649	0.161	-0.061009084	0.050257223	1.3849092e-05	1.979521	1.9540793	1.9999937	1.9540793	1.9999907	7.3777445e-06	1.9157987	1.0498303	0.012729686	2.0894063e-05	-0.054501141	-0.0089008412	-0.05449681	-0.010870797	-0.010876953	-8.264168e-07	0.0053284275	0.53313578	-0.83640638	-0.0029064115	0.8364039	0.0035605603	0.00025741073	1.1766339	0.70399435	0.012143542	1.3882906e-05	0.020411362	0.045409479	6.3690772e-06	0.045409575	9.4029673e-06	7.377951e-06	0.081958281	0.012110009	3.4701111	4.6787393	4.5301953	4.1891925	4.5302402	4.1892683	4.1109404	4.5221206	4.530008	3.500443	3.823104	3.8108553	3.8230632	3.8108019	3.889107	4.0267841	-107.93502	R0:S0:1	-76.56	uncorrelated	51514b8	 4.37e+00	 3.28e-03	 1.00e+06	2022-04-08@17:16
2x2_2C_8b_C2v_L	0.1	14	1.93	0.054192806	-6.8339467	-7.6766475	-0.0485726	-7.6767312	-0.049014806	0.0728233	-7.6054355	11.5	0.00063089076	-5.151329e-05	0.0024331528	0.0014877693	0.0024338217	0.00065242074	0.004401035	-3.4074923e-05	-0.00044243334	-0.77319463	1.1723653	0.0001184754	-1.1723636	-6.8770605e-05	-0.00050222681	-1.5069173	1.25	0.649	0.161	-0.060956569	0.0502426	1.4617642e-07	1.9794592	1.9541203	1.9999998	1.9541216	2	8.8822344e-06	1.9158216	1.0498192	-0.0013391319	2.4918325e-05	-0.054322794	-0.0014057488	-0.054323611	-0.00061914874	-0.012073511	1.4370963e-05	0.00049911827	0.53397116	-0.83605686	-0.00053647113	0.83604256	0.00027732246	0.00037710028	1.1764077	0.70404057	0.01213984	1.461797e-07	0.02047273	0.045369462	1.5658718e-07	0.045368231	3.156793e-08	8.8827551e-06	0.081937191	0.012105762	3.4704538	4.6788114	4.5297811	4.1889916	4.5297948	4.1890144	4.1104344	4.5224183	4.5295475	3.500878	3.8232212	3.8110096	3.8232007	3.8109858	3.8896225	4.02644	-107.94443	R0:S0:1	-76.56	uncorrelated	51514b8	 4.36e+00	 0.00e+00	 9.58e-04	2022-04-08@17:20
2x2_2C_8b_C2v_L	0.1	14	1.93	0.054313722	-7.1746883	-8.0511068	-0.050174404	-8.0512542	-0.050882248	0.076536233	-8.0970435	12	0.0091364522	-0.0001054711	0.0025729146	-0.004359718	0.0025756578	-0.0091798061	0.017658307	-0.00017254429	0.0039870654	-0.77119637	1.1665747	-0.00016021721	-1.1665309	0.00045106123	-0.00096789222	-1.5063167	1.25	0.649	0.161	-0.069389264	0.05105552	4.0362932e-05	1.9789115	1.9535639	1.9999985	1.9535826	1.9999935	0.00020727197	1.9158346	1.0506408	-0.022892409	-1.6654956e-05	-0.061669994	0.0039040953	-0.061656412	0.0082447088	-0.058013052	0.00018431171	-0.0042870713	0.54097811	-0.84058472	0.0014279667	0.84034992	-0.0033340878	0.00073684851	1.1760004	0.70233071	0.012402021	4.0479338e-05	0.021016858	0.045914301	1.4669734e-06	0.045896312	6.5724014e-06	0.00020733207	0.081927105	0.012365442	3.4696865	4.6835909	4.5374807	4.1937321	4.5379313	4.194411	4.1079956	4.5244981	4.5306687	3.5008764	3.8192045	3.8062789	3.8186794	3.8056381	3.8933266	4.0248885	-113.1205	R0:S0:1	-80.56	uncorrelated	51514b8	 7.42e+00	 2.78e-03	 1.00e+06	2022-04-08@17:24
2x2_2C_8b_C2v_L	0.1	14	1.93	0.054390186	-7.1754498	-8.0519007	-0.050190407	-8.0520591	-0.051002222	0.077124666	-8.0964548	12	0.0014153784	-3.8856522e-06	0.0028112231	-0.0031139143	0.0027974996	-0.00461595	0.008106241	-3.9022085e-05	0.0015121414	-0.7695688	1.1664348	-0.00018794976	-1.1665421	0.00033614202	-0.00064563715	-1.5062881	1.25	0.649	0.161	-0.069455936	0.050991401	1.1063809e-06	1.9790013	1.9535886	1.9999994	1.9535785	1.9999985	4.3274072e-05	1.9157964	1.0505763	-0.0035455585	-2.2930289e-06	-0.061826787	0.0027922048	-0.06182756	0.0041505865	-0.026626186	1.9409557e-05	-0.0016021905	0.53983237	-0.84032216	0.0012360847	0.84043253	-0.0020033801	0.00046355086	1.1763983	0.702337	0.012388288	1.106786e-06	0.0209277	0.045890365	6.5034456e-07	0.045900131	1.4725046e-06	4.3278759e-05	0.081962773	0.012351313	3.4696914	4.6828752	4.537655	4.1940985	4.5375645	4.1939414	4.1090544	4.5240362	4.5303182	3.5008546	3.8188914	3.8059064	3.8190364	3.8060696	3.8912213	4.0255961	-113.12273	R0:S0:1	-80.56	uncorrelated	51514b8	 7.43e+00	 0.00e+00	 1.36e-03	2022-04-08@17:28
2x2_2C_8b_C2v_L	0.1	14	1.93	0.054718113	-7.5219529	-8.43239	-0.052012433	-8.432657	-0.053431449	0.08216607	-8.5859143	12.5	-0.00015677187	0.00012368758	0.0033863775	-0.011315613	0.0033428759	-0.012561501	0.0078559982	2.3647299e-06	0.0041035265	-0.76583327	1.1614949	-0.00077121013	-1.1618358	0.0010202443	-0.00061719572	-1.5054503	1.25	0.649	0.161	-0.082738645	0.052048945	1.4117747e-06	1.9785554	1.953051	1.99999	1.9530131	1.9999871	6.4154948e-05	1.9157493	1.0516388	0.00047929248	-4.5885524e-05	-0.073906694	0.0098497655	-0.07391658	0.010979591	-0.032186334	-2.0383896e-05	-0.0041178199	0.54541786	-0.84431229	0.0065141469	0.84473063	-0.0078336806	0.00042337972	1.1766352	0.69960054	0.012775113	1.4123699e-06	0.021370906	0.04641817	1.0225657e-05	0.046454876	1.327369e-05	6.4160892e-05	0.082009672	0.012736342	3.4682191	4.6876094	4.5473654	4.2020198	4.5469755	4.201397	4.1083795	4.5253724	4.5317934	3.5002235	3.8124615	3.7980541	3.8130496	3.7986977	3.8920269	4.0254434	-118.33241	R0:S0:1	-84.56	uncorrelated	51514b8	 1.32e+01	 3.26e-03	 1.00e+06	2022-04-08@17:32
2x2_2C_8b_C2v_L	0.1	14	1.93	0.054747379	-7.5231199	-8.4337627	-0.052467783	-8.4340598	-0.054001037	0.082248998	-8.5830673	12.5	3.3373151e-05	-3.6607477e-05	0.0032352678	-0.0018905595	0.0032375694	-0.0010875615	0.011393766	8.0068965e-05	0.0016531875	-0.76666982	1.1615111	-0.00058832248	-1.1615482	0.00048143214	-0.0018148478	-1.5053423	1.25	0.649	0.161	-0.082671281	0.052064902	2.654726e-07	1.978516	1.9530564	1.9999993	1.9530543	1.9999996	0.00013250936	1.9157325	1.0516576	-0.00010376289	2.5020435e-05	-0.073764663	0.0017914318	-0.073769386	0.0010760734	-0.046600009	-4.7174063e-05	-0.0016661517	0.5459113	-0.84431564	0.0027825467	0.84434324	-0.0021299638	0.0012488164	1.1767017	0.69964232	0.012777993	2.6548669e-07	0.021410066	0.046412775	7.1149129e-07	0.046414785	3.6942823e-07	0.00013260449	0.082025655	0.012738631	3.4680919	4.6880088	4.5469567	4.2013931	4.5468957	4.2013041	4.1079204	4.5257972	4.5319104	3.5001568	3.8128103	3.7986123	3.8128782	3.7986987	3.8929164	4.0250871	-118.33683	R0:S0:1	-84.56	uncorrelated	51514b8	 1.32e+01	 0.00e+00	 1.09e-03	2022-04-08@17:36
2x2_2C_8b_C2v_L	0.1	14	1.93	0.055264386	-7.876957	-8.8222334	-0.055404727	-8.8227333	-0.058011252	0.088196294	-9.065273	13	-0.0035151249	-0.00014967877	0.003705287	0.0051578337	0.0037540312	0.011237586	0.01426361	0.00032319823	-1.9294886e-05	-0.76449769	1.1575942	-0.0010826428	-1.1573819	0.00036709974	-0.0040098588	-1.5040797	1.25	0.649	0.161	-0.10522361	0.05394226	1.3770571e-05	1.978014	1.9525707	1.9999981	1.9526048	1.9999915	0.00036801237	1.9156073	1.0535405	0.013740598	6.6652744e-05	-0.094380214	-0.0037516866	-0.094360949	-0.0092531378	-0.077344513	-0.00013507681	3.3496538e-05	0.55192639	-0.84722974	0.0025190914	0.84686155	0.0042661936	0.0026981833	1.1776265	0.6944825	0.013523857	1.3770833e-05	0.021909504	0.046892428	1.9182347e-06	0.046859394	8.6485039e-06	0.00036919546	0.082147611	0.013483098	3.4640167	4.6958648	4.559612	4.214193	4.5599296	4.2150116	4.1079855	4.5271129	4.5361083	3.497307	3.8022767	3.7858228	3.8017767	3.7850545	3.8943048	4.0259042	-123.58788	R0:S0:1	-88.56	uncorrelated	51514b8	 2.57e+01	 2.23e-04	 1.00e+06	2022-04-08@17:41
2x2_2C_8b_C2v_L	0.1	14	1.93	0.055939091	-8.2371229	-9.2173888	-0.059006884	-9.2180338	-0.063117523	0.095056856	-9.5427238	13.5	-0.0087772061	6.1065519e-06	0.0052470294	0.018571653	0.0051288948	0.031914344	0.01675669	0.00027449302	-0.0035162406	-0.76101114	1.1540354	-0.0013809637	-1.1554299	-0.00054018807	-0.0080172656	-1.5018746	1.25	0.649	0.161	-0.15200443	0.058795886	0.00018197751	1.9776768	1.9524277	1.9999411	1.9523111	1.9997071	0.0011934471	1.9153375	1.0583896	0.04783464	-0.00021672601	-0.13779081	-0.016315785	-0.13779628	-0.031386291	-0.13600292	0.00023848683	0.0038828398	0.55487021	-0.84445993	-0.01303024	0.84563043	0.042835422	0.0057379008	1.1806552	0.68041293	0.015580557	0.00018271888	0.022247358	0.047048239	6.1727795e-05	0.047161632	0.00035480075	0.0012067607	0.082407121	0.015541468	3.4487228	4.7144733	4.5860543	4.2516426	4.5857628	4.2567779	4.1151412	4.5237388	4.5529701	3.4839302	3.7731473	3.7488403	3.7740632	3.7451663	3.8921069	4.0336356	-128.87859	R0:S0:1	-92.56	uncorrelated	51514b8	 6.17e+01	 8.37e-02	 1.00e+06	2022-04-08@17:48
2x2_2C_8b_C2v_L	0.1	14	1.93	0.12271629	-8.238242	-9.1996294	-0.20790101	-9.2006445	-0.20912282	0.40704901	-9.4044082	13.5	-0.002327976	0.0002184822	0.0033574496	0.03094233	0.0034188708	0.031084417	-0.0022458078	-0.00052264575	0.020879568	-0.76224112	1.1551721	0.0089982124	-1.1552924	-0.0085886909	-0.051530516	-1.4978381	1.25	0.649	0.161	-0.15225404	0.05929685	7.8335184e-05	1.9776439	1.9522342	1.9993335	1.9522232	1.9993622	0.00010369331	1.9135048	1.0588662	0.012283187	3.3737623e-05	-0.1376316	-0.038115145	-0.13769388	-0.037839184	0.014149453	-3.2135433e-05	-0.021315556	0.5548721	-0.84589466	-0.089416478	0.84603817	0.086969093	0.032041056	1.1936431	0.67975969	0.015698778	7.9794332e-05	0.022280453	0.047238397	0.00068492781	0.047249031	0.0006554221	0.00010449115	0.084135367	0.015664349	3.4439119	4.71908	4.5894016	4.260035	4.5891002	4.2593429	4.1191586	4.5351427	4.557214	3.4798518	3.7710412	3.7448021	3.7713932	3.7452813	3.8817609	4.0330435	-129.13441	R0:S0:1	-92.56	uncorrelated	51514b8	 6.23e+01	 3.42e-04	 5.94e-03	2022-04-08@17:53
2x2_2C_8b_C2v_L	0.1	14	1.93	0.25767648	-8.6068684	-9.5658832	-0.51071837	-9.5678498	-0.50800567	1.0393926	-9.6000899	14	0.0054717797	0.0018931965	0.0015731478	0.073916413	0.001968064	0.057891952	-0.037241752	-0.0016983981	0.063512323	-0.76173034	1.1543116	0.028895338	-1.1532599	-0.02586966	-0.1468644	-1.4875055	1.25	0.649	0.161	-0.31161647	0.10039014	0.0050964822	1.9784942	1.9553513	1.9860343	1.9552719	1.9895897	0.0041981685	1.9068161	1.0998038	-0.016882813	0.016904753	-0.28355134	-0.22181816	-0.2879734	-0.18992894	0.23924285	-0.026175367	-0.14345299	0.52730415	-0.78575763	-0.38936954	0.78630307	0.33722559	0.088737222	1.25776	0.5796531	0.030982776	0.0053818089	0.021464376	0.04430675	0.014165257	0.044386897	0.010489092	0.0043138529	0.090400495	0.031002809	3.2697714	4.9212529	4.7853586	4.6366893	4.7859183	4.6120491	4.2451312	4.4815597	4.8119249	3.2892114	3.5288712	3.4583371	3.5289792	3.4603045	3.7823755	4.1328098	-135.02367	R0:S0:1	-96.56	uncorrelated	51514b8	 4.73e+02	 1.16e-02	 1.00e+06	2022-04-08@17:58
2x2_2C_8b_C2v_L	0.1	14	1.93	0.2613469	-8.6069652	-9.5668317	-0.50397809	-9.5685161	-0.50012389	1.0383086	-9.6001259	14	-0.00014376295	-0.00022996297	-0.0040837585	0.067418334	-0.0050346458	0.067486727	-0.013280568	-0.0049482234	0.052189388	-0.76552163	1.1567839	0.033060491	-1.1572669	-0.034888758	-0.10211738	-1.4906933	1.25	0.649	0.161	-0.30344417	0.098686141	0.003261219	1.9782678	1.9552275	1.9854904	1.9550966	1.984383	0.00069768177	1.9064345	1.0981511	0.0041938619	0.0028474951	-0.27543791	-0.21946781	-0.27622543	-0.22586018	0.079288729	-0.0017368347	-0.11553949	0.53094011	-0.78741057	-0.40075906	0.78925888	0.41782313	0.0574967	1.2606009	0.58373487	0.03018242	0.003382182	0.021688582	0.044427038	0.014653557	0.044552531	0.015764592	0.00070513204	0.090758738	0.030183763	3.2669169	4.9140931	4.7845496	4.6333586	4.7786916	4.6343584	4.2497668	4.4852953	4.7857186	3.2981706	3.5320619	3.4671728	3.537105	3.4735377	3.7559466	4.1331571	-135.00268	R0:S0:1	-96.56	uncorrelated	51514b8	 5.46e+02	 2.45e-04	 1.55e-02	2022-04-08@18:02
2x2_2C_8b_C2v_L	0.1	14	1.93	0.47089924	-8.983113	-9.9238451	-0.94238585	-9.926492	-0.92985195	1.981075	-9.653029	14.5	0.0010282271	-0.0020806475	-0.019580085	0.11460905	-0.021742683	0.12022401	-0.019348767	-0.012417676	0.093434355	-0.77470579	1.1639584	0.071536532	-1.1631528	-0.077445964	-0.15199521	-1.4821622	1.25	0.649	0.161	-0.2985863	0.43634806	0.052890454	1.9935013	1.9846953	1.9497063	1.9845954	1.9426002	0.00079539428	1.8747488	1.4358563	-0.0019385988	0.0024157623	-0.24075218	-0.94015516	-0.2494571	-1.0008551	0.094865646	0.017977639	-0.9965438	0.16057413	-0.28143271	-0.31937226	0.28414466	0.35436393	0.053222754	1.6477662	0.34860514	0.039919771	0.051552622	0.006574153	0.015623849	0.049008264	0.015716077	0.055731713	0.00080206128	0.11950505	0.040050743	1.485987	7.0465922	6.7534295	6.389652	6.7308547	6.3311659	5.4274419	3.8314697	6.6574178	1.0603555	1.4519884	1.7292901	1.4665982	1.8011338	2.5818309	4.9579607	-141.57779	R0:S0:1	-100.56	uncorrelated	51514b8	 1.88e+02	 2.62e-01	 1.00e+06	2022-04-08@18:06
2x2_2C_8b_C2v_L	0.1	14	1.93	0.26119784	-8.9672647	-9.9549886	-0.082060971	-9.9571947	-0.080997661	1.7943443	-9.6853792	14.5	0.068627161	-0.0056641244	-0.0029730886	0.039661776	-0.002634693	0.038882359	-0.21804909	0.0015718116	0.0091525825	-0.745605	1.1508853	0.05475454	-1.1509982	-0.055111581	0.0018064128	-1.387445	1.25	0.649	0.161	-0.32617409	0.40491197	0.013743521	1.9923537	1.9807729	1.8380375	1.9803854	1.8430126	0.06920249	1.8967452	1.4045715	-0.24665118	-0.000325719	-0.28458205	-1.2709883	-0.28561793	-1.2377636	1.1885876	0.014064482	-0.13351507	0.19287949	-0.34738455	-0.74350821	0.35457133	0.73408572	-0.013670742	1.4563273	0.34283106	0.048833306	0.014556863	0.0077205582	0.019413399	0.17853131	0.019810346	0.17475217	0.06720408	0.099305142	0.048897436	1.3802205	6.831905	6.4462966	5.5885489	6.4187398	5.5908701	4.888369	3.8121928	6.8320727	1.2912233	1.7040233	2.7660346	1.7417158	2.7650543	3.500826	4.783054	-138.19493	R0:S0:1	-100.56	uncorrelated	51514b8	 1.85e+02	 2.08e-02	 3.16e-02	2022-04-08@18:12
2x2_2C_8b_C2v_L	0.1	14	1.93	0.2560193	-8.9631195	-9.9470338	-0.074721338	-9.9492522	-0.077696072	1.7626944	-9.6936091	14.5	0.002366026	-0.0013784619	-0.0023831959	0.041652429	-0.0025917101	0.042386246	-0.21254586	-0.0011676563	0.0665508	-0.78106961	1.1517154	0.04935874	-1.1518868	-0.04876247	-0.0021773541	-1.3906023	1.25	0.649	0.161	-0.29523327	0.41171221	0.047029261	1.9920809	1.9812438	1.8491287	1.9812714	1.8543045	0.068881045	1.8952983	1.4113588	-0.0086581188	0.0011100283	-0.25812327	-1.2650482	-0.25650879	-1.2624547	1.1916645	-0.00060429686	-0.9010248	0.19133407	-0.33902041	-0.64695383	0.33866677	0.62957494	0.0017770676	1.4751251	0.34499654	0.04597403	0.046064305	0.0079921636	0.018955645	0.16716529	0.018929675	0.15977001	0.066883504	0.10059108	0.04604967	1.5610282	6.8866203	6.4981702	5.6310116	6.5002895	5.6573267	4.9395031	3.7701376	6.5666435	1.226707	1.6688865	2.6840491	1.6683188	2.6566449	3.4411381	4.8192737	-138.17916	R0:S0:1	-100.56	uncorrelated	51514b8	 1.82e+02	 2.07e-03	 1.33e-02	2022-04-08@18:18
2x2_2C_8b_C2v_L	0.1	14	1.93	0.25622896	-8.9626966	-9.946349	-0.072660751	-9.9485736	-0.074272271	1.7598676	-9.6943629	14.5	0.0021596931	-0.0012576825	-0.0018706831	0.037029321	-0.0020850663	0.03728815	-0.21143134	-0.0010339914	0.064682399	-0.78230002	1.1504874	0.052055126	-1.1505363	-0.052167172	-0.0015738609	-1.3905906	1.25	0.649	0.161	-0.30343489	0.41053923	0.044384187	1.9919432	1.9812446	1.8465053	1.9812226	1.849008	0.068373322	1.8953296	1.4101897	-0.0084416349	0.00067588803	-0.26534332	-1.2173057	-0.26482809	-1.2145893	1.1872182	0.0013812328	-0.87290456	0.19424037	-0.33909098	-0.67153176	0.3396376	0.66552554	-0.00021020193	1.4746581	0.34446082	0.046684784	0.04355988	0.0081329049	0.018960763	0.17662521	0.018983958	0.17311409	0.066404555	0.10056694	0.046759399	1.5543945	6.8736051	6.4958109	5.6193395	6.4935453	5.6296342	4.9398755	3.7723584	6.574924	1.2437394	1.6716344	2.6855858	1.6752173	2.6753065	3.4382689	4.8190023	-138.15564	R0:S0:1	-100.56	uncorrelated	51514b8	 1.83e+02	 3.65e-01	 2.97e-03	2022-04-08@18:23
2x2_2C_8b_C2v_L	0.1	14	1.93	0.2526212	-8.858759	-9.7231396	-0.065560914	-9.723887	-0.06471916	0.024945392	-9.9335795	14.5	-0.0030946777	0.0017581752	-0.0010540126	0.036574474	-0.00095731198	0.036576632	-0.073731172	-4.2750407e-05	0.064499313	-0.77748621	1.1381429	0.050466904	-1.1382195	-0.050233793	9.8266982e-05	-1.4671114	1.25	0.649	0.161	-0.38975896	0.50167762	0.056669043	1.9945344	1.9786901	1.7810072	1.9786919	1.7808597	0.73800647	1.9205351	1.501384	0.0087437649	-0.0014642187	-0.34938427	-1.4717575	-0.34985924	-1.4712639	3.0667587	-0.00070949848	-1.0698357	0.13210755	-0.37799387	-0.98264731	0.37791347	0.98387716	-0.0027171783	1.1024012	0.3192674	0.061522562	0.054720286	0.0054996796	0.021425699	0.23462704	0.021423715	0.23490267	0.40002695	0.076173614	0.061643682	1.2913901	7.2147154	6.2875235	5.1789709	6.2877008	5.1783555	2.6955643	4.4428331	6.7150103	0.83885594	1.7956323	3.1381995	1.7950382	3.1380804	8.3037993	3.5092995	-137.64959	R0:S0:1	-100.56	uncorrelated	51514b8	 2.24e+02	 1.60e-02	 3.06e-02	2022-04-08@18:29
2x2_2C_8b_C2v_L	0.1	14	1.93	0.19061591	-8.8532738	-9.7139938	-0.08609154	-9.7148185	-0.086732871	0.036627329	-9.911269	14.5	0.00027341703	-0.00014288346	-0.0012618595	0.051908005	-0.0013151459	0.051870869	-0.081525727	-1.488734e-05	0.068831854	-0.77672434	1.1385535	0.053302353	-1.1385605	-0.053514659	-0.00012958114	-1.4637626	1.25	0.649	0.161	-0.36380035	0.50247815	0.074852874	1.9942955	1.9786611	1.7754525	1.9786678	1.7754965	0.7644084	1.9219188	1.5021585	-0.00083157552	0.00019785212	-0.32553598	-1.6442524	-0.32554335	-1.6435588	3.0898877	2.5482504e-05	-1.2254438	0.13782237	-0.37884597	-0.95842695	0.378771	0.95872117	0.0042257991	1.0844574	0.32237423	0.061018884	0.071458432	0.0057326402	0.021408351	0.21890144	0.021401838	0.21894648	0.40582588	0.07485646	0.061153208	1.4786371	7.1778713	6.284762	5.1552323	6.2849119	5.1556087	2.6544583	4.4775579	6.5303633	0.87086394	1.7867583	3.198841	1.7866506	3.1981893	8.3364759	3.4569051	-137.70975	R0:S0:1	-100.56	uncorrelated	51514b8	 2.17e+02	 7.85e-04	 1.21e-02	2022-04-08@18:34
2x2_2C_8b_C2v_L	0.1	14	1.93	-0.089504606	-8.976914	-9.6407797	1.0453049	-9.639038	1.0310626	-2.6033344	-10.336655	15	-0.00069927808	0.00040099458	0.012042047	-0.020561658	0.013724521	-0.020388667	-0.20567116	0.013489103	0.06687583	-0.79571409	1.0991292	0.071005078	-1.1002749	-0.066630518	0.25311877	-1.4189823	1.25	0.649	0.161	-0.32808124	0.93095205	1.9996029	1.9998555	1.9942526	0.014864676	1.997624	0.013872872	1.9449944	1.9925415	1.9308984	-0.061603007	0.059842832	-0.374638	0.15630488	-0.22692973	0.08574816	1.220235	-0.35658482	-0.0040004663	0.0036183821	-0.10341596	-0.64561929	0.041680518	0.63632423	-0.25669642	0.11296112	0.42000791	0.025836128	0.00066223469	0.00014819017	0.0059643203	0.014732603	0.0024583091	0.013761655	0.054461001	0.0077358767	0.025885697	7.966606	7.974935	7.4480134	0.6207141	7.7827817	0.34047313	6.911469	7.482605	0.033799465	0.025325739	0.55622919	7.3668183	0.21802962	7.6430366	1.0557332	0.52027939	-146.83897	R0:S0:1	-104.56	uncorrelated	51514b8	 1.99e+02	 5.65e-01	 1.00e+06	2022-04-08@18:38
2x2_2C_8b_C2v_L	0.1	14	1.93	-0.43704953	-8.8770949	-9.6414272	0.24604624	-9.522504	0.18664553	-0.1660933	-10.676648	15	0.012880364	0.0070008899	0.0020054338	-0.08437625	0.010110539	-0.076539943	0.026970601	0.0060836365	0.078233892	-0.72897214	1.1038624	0.011327548	-1.0994922	0.022409691	0.093870504	-1.4830804	1.25	0.649	0.161	-0.32973903	0.90542095	1.9993062	1.9998424	1.9973787	0.012765157	1.9953427	0.0010470847	1.5978549	1.9827467	1.9053862	-0.13284153	-0.047125515	-0.24235718	0.10158154	-0.34846392	-0.020349504	-2.0857835	0.21284425	0.0021824564	0.0037698507	-0.047258661	-0.50481092	0.082344082	-0.11938971	-1.1137353	0.25107521	0.42357677	0.028183472	0.00076547601	0.00016012939	0.0027175192	0.016231578	0.0048634422	0.0014274223	0.43762541	0.017168729	0.028215147	7.9717398	7.9757836	7.7484364	0.41653794	7.5638756	0.33640929	4.5521868	7.0163727	0.027629517	0.025059439	0.25365673	7.5770942	0.44543189	7.668371	3.425318	0.96404157	-142.76608	R0:S0:1	-104.56	uncorrelated	51514b8	 1.97e+02	 2.08e-02	 7.26e-02	2022-04-08@18:42
2x2_2C_8b_C2v_L	0.1	14	1.93	-0.43495129	-8.8750515	-9.6386404	0.19161932	-9.5194295	0.21764926	-0.13489128	-10.660957	15	-0.0098296674	-0.0050706716	0.0090192574	-0.078272069	0.0027468633	-0.081159181	-0.022336971	-0.0049868823	0.078669504	-0.72834582	1.1049852	-0.017068762	-1.0980345	-0.0090190352	0.089439022	-1.4837095	1.25	0.649	0.161	-0.32544271	0.8924859	1.9996125	1.99984	1.9954279	0.00041715386	1.997418	0.011325411	1.4296887	1.9785451	1.8924472	0.094005493	0.042281843	-0.3412519	0.0081935744	-0.24074066	0.092623295	2.1204994	-0.2101564	0.00060570921	0.0039921215	-0.081587492	-0.0063495142	0.046156421	0.4614813	-1.5093273	0.31071196	0.42503167	0.029866713	0.00042557031	0.00016248923	0.0047710115	0.00053326258	0.0026799055	0.014804939	0.5618118	0.021257488	0.029901186	7.972721	7.9739473	7.5676538	0.37677005	7.7561319	0.3930986	4.202974	6.7994041	0.027606231	0.027291387	0.44388566	7.6372726	0.24684292	7.6025693	3.8908097	1.1688828	-142.6503	R0:S0:1	-104.56	uncorrelated	51514b8	 1.95e+02	 1.38e-02	 2.28e-02	2022-04-08@18:47
2x2_2C_8b_C2v_L	0.1	14	1.93	-0.43462371	-8.8743299	-9.6372801	0.20748674	-9.518595	0.20240196	-0.14474265	-10.655558	15	0.011635626	0.0065555259	0.0027260482	-0.079862609	0.0087753381	-0.07884047	0.020877625	0.0045914389	0.077847256	-0.72922553	1.1052817	0.0078810788	-1.0978666	0.017194868	0.090782571	-1.4827024	1.25	0.649	0.161	-0.32899876	0.90032141	1.9994414	1.9998412	1.9974846	0.010765103	1.9953123	0.00034932769	1.5118829	1.980954	1.9002861	-0.11741466	-0.045691464	-0.24070942	0.089215079	-0.34802293	0.0082906589	-2.078577	0.21821314	0.0015725752	0.0038357309	-0.045183646	-0.44591326	0.083220455	0.011074262	-1.314569	0.27589842	0.42402866	0.028942681	0.00061520638	0.00016132351	0.0026113868	0.014249538	0.0048946995	0.0004421177	0.51416614	0.018923511	0.028974734	7.9725595	7.9753202	7.7594711	0.38441405	7.5590264	0.3818139	4.3588372	6.9266765	0.027202069	0.025663805	0.24292496	7.6114656	0.45144481	7.6304918	3.6597226	1.0491783	-142.64588	R0:S0:1	-104.56	uncorrelated	51514b8	 1.96e+02	 1.34e-02	 2.00e-02	2022-04-08@18:52
2x2_2C_8b_C2v_L	0.1	14	1.93	-0.43417706	-8.8736662	-9.6361095	0.19571482	-9.517568	0.21071617	-0.13700977	-10.650142	15	-0.011481718	-0.0064039965	0.0092897768	-0.07861816	0.0020927972	-0.080280019	-0.021453012	-0.0045916502	0.078114183	-0.72884814	1.1046734	-0.017263151	-1.0984038	-0.0091367421	0.089828716	-1.4826741	1.25	0.649	0.161	-0.3261355	0.89419957	1.9994499	1.9998329	1.9953913	0.00040191046	1.9974351	0.011769329	1.447205	1.9790795	1.8941616	0.11528897	0.044764177	-0.34320919	0.007797261	-0.23958098	0.094238036	2.1075833	-0.21410719	0.001212522	0.0040779716	-0.082160217	-0.0054045564	0.045946196	0.46746172	-1.4685704	0.30280704	0.42477201	0.029697455	0.00060562281	0.00016973703	0.0048092854	0.00051229429	0.0026618342	0.0154898	0.55367657	0.0207429	0.029731409	7.9710068	7.9737024	7.5646057	0.3782611	7.7568561	0.39849569	4.2318836	6.8284758	0.028951458	0.027474612	0.44671228	7.6354005	0.24597123	7.5968049	3.842382	1.1417322	-142.61755	R0:S0:1	-104.56	uncorrelated	51514b8	 1.95e+02	 1.37e-02	 1.97e-02	2022-04-08@18:56
2x2_2C_8b_C2v_L	0.1	14	1.93	-0.4337986	-8.8728804	-9.6347034	0.21032344	-9.5165052	0.19620883	-0.14271997	-10.644221	15	0.011492087	0.0063647503	0.0026622537	-0.080470025	0.009125441	-0.07803137	0.020811945	0.0044832487	0.077659136	-0.7292975	1.1049581	0.0079348217	-1.0982298	0.017542097	0.090717469	-1.4816088	1.25	0.649	0.161	-0.3280693	0.89864454	1.9994554	1.9998394	1.9974926	0.010722881	1.9953066	0.00035363776	1.4929941	1.9804093	1.8986084	-0.11555658	-0.045366493	-0.23987222	0.088969803	-0.34774456	0.005786008	-2.0862227	0.21811856	0.0014700354	0.0038981887	-0.045060547	-0.44576007	0.083193835	-0.00092794738	-1.3601506	0.28364084	0.42432873	0.029158923	0.00059951269	0.00016316495	0.0026028893	0.014163961	0.00490072	0.00044895459	0.52691164	0.019454114	0.029191549	7.9722472	7.9748766	7.7602037	0.38298541	7.5599656	0.37762796	4.3171636	6.8984499	0.027583925	0.026162251	0.24229512	7.6129679	0.450798	7.6347275	3.7158814	1.0759213	-142.60615	R0:S0:1	-104.56	uncorrelated	51514b8	 1.96e+02	 1.33e-02	 1.98e-02	2022-04-08@19:00
2x2_2C_8b_C2v_L	0.1	14	1.93	-0.43326095	-8.8721972	-9.6335714	0.19813601	-9.515388	0.20735703	-0.13887381	-10.638874	15	-0.010257635	-0.005540039	0.0094540061	-0.078902516	0.0023166154	-0.079816007	-0.021315132	-0.0045097073	0.078217515	-0.72851652	1.1045434	-0.017481383	-1.0985042	-0.0085396986	0.089973155	-1.4817466	1.25	0.649	0.161	-0.32692969	0.8959778	1.9995778	1.9998421	1.9953719	0.000383546	1.997447	0.011330716	1.465487	1.9795789	1.8959407	0.09961026	0.043633546	-0.34456185	0.0070379028	-0.24033265	0.091915588	2.1010419	-0.21568905	0.00094043199	0.0038941824	-0.082442483	-0.002987619	0.045672768	0.45711591	-1.4253147	0.29546494	0.42459877	0.029480177	0.00046431108	0.00016035961	0.004829808	0.0004874666	0.0026503903	0.014976407	0.54327491	0.020259326	0.029513544	7.9732027	7.9747009	7.5629988	0.37801684	7.7581624	0.39213933	4.2617825	6.8557216	0.026940817	0.026420652	0.44804811	7.6351383	0.24454434	7.6034713	3.7958573	1.116091	-142.58308	R0:S0:1	-104.56	uncorrelated	51514b8	 1.95e+02	 1.27e-02	 1.96e-02	2022-04-08@19:04
2x2_2C_8b_C2v_L	0.1	14	1.93	-0.43294283	-8.87171	-9.6326529	0.20716518	-9.514724	0.19836496	-0.14037842	-10.635069	15	0.0072258371	0.0033360948	0.00287636	-0.080081687	0.0087545	-0.078589524	0.021136516	0.004730239	0.078432591	-0.72818814	1.1049759	0.0081572592	-1.0978416	0.017251349	0.090223061	-1.4812114	1.25	0.649	0.161	-0.32758125	0.89724581	1.9998129	1.9998575	1.9974651	0.01108932	1.9953396	0.00037398237	1.4772521	1.9799506	1.8972092	-0.060275271	-0.040580458	-0.2405394	0.090808818	-0.34597634	0.0077232609	-2.0955793	0.21578868	7.261949e-06	0.0036314645	-0.045500935	-0.45162829	0.08272687	0.0068074927	-1.3962434	0.29013443	0.42444706	0.029316472	0.00020384432	0.00014478113	0.0026310607	0.014687866	0.0048661385	0.00047495857	0.53650316	0.019897897	0.029349407	7.9763945	7.9758977	7.7582803	0.3895731	7.5622775	0.37893692	4.2844026	6.8752653	0.024203891	0.025189722	0.24431777	7.6062477	0.44868189	7.634005	3.7622303	1.0976341	-142.57216	R0:S0:1	-104.56	uncorrelated	51514b8	 1.96e+02	 1.31e-02	 1.97e-02	2022-04-08@19:07
2x2_2C_8b_C2v_L	0.1	14	1.93	-0.43226976	-8.8708101	-9.6311704	0.19403754	-9.5134307	0.21030277	-0.1391135	-10.62838	15	-0.010672065	-0.0057886512	0.0093886448	-0.07815925	0.002195453	-0.080194454	-0.021420032	-0.0047456276	0.077858432	-0.72888672	1.1046997	-0.017560335	-1.0982917	-0.0086421487	0.090090525	-1.4809813	1.25	0.649	0.161	-0.32671601	0.89586965	1.9995357	1.9998398	1.9953783	0.00037939227	1.9974497	0.011301978	1.464659	1.9795254	1.8958324	0.1051842	0.044011439	-0.3442979	0.0057635876	-0.24007111	0.09191133	2.1028715	-0.2152154	0.0010722406	0.0039347273	-0.082322069	0.0026099827	0.045651293	0.45798085	-1.4273465	0.29614127	0.42468086	0.029484727	0.00051079915	0.00016268119	0.0048232532	0.00048303812	0.002647578	0.014892059	0.54349593	0.020310918	0.029518152	7.9726095	7.9745057	7.5636643	0.37561389	7.7582105	0.39151302	4.2592693	6.8536213	0.027452401	0.02662148	0.4473961	7.6373349	0.24450576	7.6040706	3.7995796	1.1180355	-142.54937	R0:S0:1	-104.56	uncorrelated	51514b8	 1.95e+02	 1.40e-02	 1.97e-02	2022-04-08@19:11
2x2_2C_8b_C2v_L	0.1	14	1.93	-0.43194495	-8.8698851	-9.6296021	0.21078783	-9.512239	0.19415555	-0.1404383	-10.621867	15	0.012644027	0.0068987639	0.0023161925	-0.080483582	0.0089417645	-0.077966334	0.021239074	0.0046837034	0.077086624	-0.72980938	1.1045212	0.0087165663	-1.0979923	0.017440343	0.09022078	-1.480468	1.25	0.649	0.161	-0.32731442	0.89709738	1.9993118	1.9998321	1.9974695	0.011462564	1.9953322	0.00036705662	1.4774491	1.979918	1.8970606	-0.13101427	-0.045788438	-0.23932543	0.092755712	-0.34627468	0.0061089026	-2.0966449	0.21568006	0.001710288	0.0040501665	-0.045536645	-0.46126419	0.082781953	-0.00028859045	-1.3955119	0.29039402	0.42447427	0.029333724	0.00075794434	0.00017050603	0.0026256903	0.015111535	0.0048740424	0.00046692192	0.53617199	0.019929515	0.029366833	7.9699509	7.9740222	7.7578671	0.39432447	7.5622693	0.37651271	4.2839556	6.8750172	0.029664452	0.027062712	0.24473515	7.6011219	0.44869888	7.6361849	3.7627171	1.0977968	-142.53027	R0:S0:1	-104.56	uncorrelated	51514b8	 1.96e+02	 1.41e-02	 1.99e-02	2022-04-08@19:14
2x2_2C_8b_C2v_L	0.1	14	1.93	-0.43102295	-8.8687136	-9.6274953	0.19213863	-9.5104151	0.21175635	-0.13925012	-10.61256	15	-0.0094657583	-0.0051087632	0.0091315009	-0.078061229	0.0027428491	-0.080381339	-0.021391491	-0.0047240905	0.078960201	-0.72720929	1.1046206	-0.017589203	-1.0979523	-0.0081916573	0.090020856	-1.4799702	1.25	0.649	0.161	-0.32686055	0.89626636	1.999649	1.9998461	1.9953877	0.00037986896	1.9974497	0.010795148	1.4674571	1.9795808	1.8962293	0.089262144	0.043020844	-0.34403522	0.0054718531	-0.24112581	0.089520986	2.1018342	-0.21537232	0.00068667495	0.0038237042	-0.082204806	0.003808299	0.045543371	0.44814552	-1.4202779	0.29510399	0.4247162	0.029424204	0.00038623577	0.00015631895	0.004813663	0.00048471622	0.0026483352	0.014213234	0.54186949	0.020257348	0.029457492	7.9742243	7.9750329	7.5640253	0.37492578	7.7589507	0.38431724	4.2643875	6.8582051	0.026073754	0.026080219	0.4469808	7.6380118	0.24374329	7.6116327	3.7918658	1.1136476	-142.49742	R0:S0:1	-104.56	uncorrelated	51514b8	 1.95e+02	 1.49e-02	 1.99e-02	2022-04-08@19:17
2x2_2C_8b_C2v_L	0.1	14	1.93	-0.43023657	-8.8671813	-9.6250151	0.21762741	-9.508294	0.18599628	-0.13939931	-10.601445	15	0.011385667	0.0063446493	0.00266719	-0.081333049	0.0086112952	-0.076927506	0.021115367	0.0045002083	0.077594621	-0.72882243	1.1038376	0.0080857261	-1.0982024	0.016845847	0.089904884	-1.4792115	1.25	0.649	0.161	-0.32731635	0.89698081	1.9994587	1.9998377	1.9974889	0.010525749	1.9953347	0.00038240322	1.4736485	1.9797887	1.8969441	-0.11476189	-0.044939176	-0.23975233	0.088420623	-0.34604982	0.0079732957	-2.0961611	0.21610651	0.0013394819	0.0039495454	-0.045139344	-0.44488509	0.082775794	0.0078248668	-1.404257	0.29190938	0.42457321	0.029340089	0.00059638773	0.00016490627	0.0026066689	0.013795544	0.0048716337	0.000491066	0.53881895	0.020056039	0.029373122	7.9719342	7.9745405	7.7598693	0.38022675	7.5622005	0.37969813	4.27833	6.8705107	0.027957082	0.026550048	0.24275304	7.615868	0.44881749	7.6335678	3.7709304	1.1019946	-142.46091	R0:S0:1	-104.56	uncorrelated	51514b8	 1.96e+02	 1.68e-02	 1.98e-02	2022-04-08@19:20
2x2_2C_8b_C2v_L	0.1	14	1.93	-0.4289715	-8.8650575	-9.6215029	0.18051303	-9.5049846	0.22277248	-0.13803669	-10.585295	15	-0.0083564337	-0.0041837613	0.0088641792	-0.076404442	0.0025860289	-0.081595403	-0.021252939	-0.0045810918	0.07812689	-0.72812482	1.105017	-0.017287086	-1.0969672	-0.0082521759	0.089767613	-1.4782206	1.25	0.649	0.161	-0.32648309	0.8957881	1.9997347	1.9998504	1.9953943	0.00038966731	1.9974658	0.010347868	1.4601183	1.9793444	1.8957509	0.075406591	0.041612876	-0.34358167	0.0051094144	-0.24053411	0.08776232	2.1022572	-0.21554156	0.00033655533	0.0037640109	-0.082089938	0.0056913248	0.045313903	0.4437793	-1.4372011	0.29806689	0.42487908	0.02947136	0.00029071893	0.00015190889	0.0048071651	0.00050245679	0.0026318291	0.013471129	0.54655344	0.020487674	0.029504725	7.9751328	7.9752502	7.5647176	0.37404728	7.7599213	0.37690743	4.2533584	6.8487259	0.025341509	0.025886767	0.44638724	7.639161	0.24281094	7.6192455	3.8083745	1.1224901	-142.40606	R0:S0:1	-104.56	uncorrelated	51514b8	 1.95e+02	 1.72e-02	 1.97e-02	2022-04-08@19:24
2x2_2C_8b_C2v_L	0.1	14	1.93	-0.42785039	-8.8631021	-9.6179844	0.2212743	-9.5023742	0.18373145	-0.1389484	-10.5705	15	0.0093046974	0.0049022934	0.0023397511	-0.081815523	0.0089435797	-0.076686569	0.021188199	0.0047785037	0.077921345	-0.72816924	1.103387	0.0081069631	-1.0982665	0.01700855	0.089807039	-1.4772485	1.25	0.649	0.161	-0.32713705	0.89663928	1.9996594	1.9998477	1.9974971	0.010411187	1.9953201	0.00038204766	1.4696925	1.9796075	1.8966026	-0.087991217	-0.042642764	-0.23925342	0.087995246	-0.34651656	0.0069206596	-2.0985945	0.21571625	0.00068120941	0.0037891244	-0.045050274	-0.4439186	0.08288528	0.0029134233	-1.4137015	0.29409919	0.42463331	0.029375547	0.0003744399	0.00015474001	0.002598231	0.013598645	0.0048870749	0.00049108551	0.54099293	0.020232196	0.029408605	7.9744922	7.9752564	7.760142	0.3783277	7.5622378	0.37796559	4.2705669	6.8638897	0.025796529	0.025848542	0.24251231	7.6178367	0.44885291	7.6352671	3.7825861	1.1081462	-142.35933	R0:S0:1	-104.56	uncorrelated	51514b8	 1.96e+02	 1.43e-02	 1.97e-02	2022-04-08@19:27
2x2_2C_8b_C2v_L	0.1	14	1.93	-0.42758611	-8.8620057	-9.6165382	0.19946951	-9.5006538	0.20698177	-0.13745621	-10.562908	15	-0.012084214	-0.0067910695	0.009125098	-0.078913441	0.002652174	-0.079585986	-0.021127997	-0.00444185	0.07681893	-0.72957373	1.1034322	-0.017330131	-1.0978018	-0.0081075413	0.089489828	-1.4768798	1.25	0.649	0.161	-0.32669004	0.89594408	1.9993716	1.9998322	1.9953881	0.00038463682	1.99745	0.010838872	1.4611811	1.979379	1.895907	0.12445858	0.045450149	-0.3438946	0.0076305886	-0.24103495	0.089498185	2.0998883	-0.21547831	0.0015016588	0.0040565807	-0.082186525	-0.0056931892	0.04552119	0.44710111	-1.4328079	0.29718835	0.42476786	0.029454396	0.00069242784	0.00017047125	0.0048132168	0.00048865588	0.0026481783	0.014330223	0.54641022	0.020454124	0.029487719	7.9705069	7.9739789	7.564222	0.37786661	7.7591501	0.38498695	4.2570099	6.8532174	0.029250167	0.027146817	0.44681868	7.6353141	0.24357577	7.6109887	3.8023335	1.1181062	-142.33288	R0:S0:1	-104.56	uncorrelated	51514b8	 1.95e+02	 1.31e-02	 1.96e-02	2022-04-08@19:30
2x2_2C_8b_C2v_L	0.1	14	1.93	-0.42740329	-8.8614375	-9.6154747	0.2095645	-9.4998578	0.19596	-0.13837953	-10.558343	15	0.0099628812	0.0057305352	0.0025572476	-0.080096734	0.0087334209	-0.07806522	0.021259038	0.0046115376	0.077503163	-0.72863603	1.1039711	0.0082246176	-1.0972073	0.016921171	0.089723029	-1.4763339	1.25	0.649	0.161	-0.3269398	0.89623446	1.9996006	1.9998414	1.9974759	0.010915873	1.9953399	0.00038579836	1.4657889	1.9794728	1.8961975	-0.096541851	-0.044095398	-0.23977284	0.090042419	-0.34560322	0.0087250959	-2.1000157	0.2157348	0.00089119926	0.0038933079	-0.045345772	-0.4497168	0.082647939	0.010849291	-1.4229113	0.29585816	0.42466592	0.029427089	0.00043938917	0.00016115435	0.0026199633	0.014403899	0.0048660689	0.00049122084	0.54330425	0.020363354	0.029460281	7.9735365	7.9747877	7.75903	0.38641793	7.5631542	0.37979831	4.2636827	6.8580157	0.026640692	0.026330944	0.24364895	7.6094861	0.44797228	7.633432	3.7928277	1.1136514	-142.32002	R0:S0:1	-104.56	uncorrelated	51514b8	 1.95e+02	 1.27e-02	 1.97e-02	2022-04-08@19:33
2x2_2C_8b_C2v_L	0.1	14	1.93	-0.42710785	-8.8608679	-9.6145666	0.19945843	-9.4989453	0.20546035	-0.13809369	-10.553913	15	-0.0082507903	-0.0040890065	0.0090760882	-0.078996354	0.002754255	-0.07949368	-0.021126123	-0.0046168061	0.077869058	-0.72812612	1.1033253	-0.017450955	-1.0976453	-0.0082598026	0.089603644	-1.4760619	1.25	0.649	0.161	-0.32705191	0.89643383	1.9997413	1.9998521	1.99539	0.00037992738	1.9974316	0.011131269	1.4660796	1.9795184	1.896397	0.074352277	0.041448298	-0.34397895	0.0071027169	-0.24173303	0.090992136	2.0983717	-0.21535246	0.0003309448	0.0037251504	-0.082159019	-0.0035473176	0.045819424	0.45221483	-1.420718	0.29512663	0.42462336	0.029395136	0.00028346348	0.00015026604	0.0048113851	0.00048245041	0.0026671075	0.014742296	0.5435486	0.020318469	0.029428262	7.97542	7.9754914	7.5642509	0.37698734	7.75772	0.39011705	4.265654	6.861005	0.025042784	0.025621673	0.44671097	7.6360458	0.24497	7.6056759	3.7893315	1.1107381	-142.30487	R0:S0:1	-104.56	uncorrelated	51514b8	 1.96e+02	 1.28e-02	 1.96e-02	2022-04-08@19:37
2x2_2C_8b_C2v_L	0.1	14	1.93	-0.42689718	-8.8602209	-9.6134716	0.20962485	-9.4981052	0.19463474	-0.13760251	-10.549302	15	0.010321113	0.0058519926	0.0025572531	-0.080118365	0.0087576145	-0.077874004	0.021211678	0.0045991997	0.077492347	-0.72859277	1.1038563	0.0082489377	-1.0972342	0.016935668	0.089572682	-1.4757622	1.25	0.649	0.161	-0.32676451	0.895891	1.9995646	1.9998399	1.9974742	0.010935166	1.9953414	0.00038687719	1.4609718	1.9793458	1.8958539	-0.10133121	-0.044133455	-0.23973853	0.090142781	-0.34544399	0.0084373113	-2.1007191	0.21527269	0.00097629592	0.0039244446	-0.045374219	-0.45008144	0.082601137	0.0094031358	-1.4334014	0.29753801	0.42471756	0.029463044	0.00047941809	0.00016262892	0.0026217452	0.01442825	0.0048646262	0.00049299787	0.54638644	0.020486364	0.029496338	7.9730184	7.9746124	7.7589307	0.38674356	7.5635417	0.37910939	4.2563026	6.8523971	0.027103029	0.026516446	0.24377537	7.6091662	0.44763722	7.6341587	3.8036521	1.1188671	-142.28962	R0:S0:1	-104.56	uncorrelated	51514b8	 1.95e+02	 1.28e-02	 1.96e-02	2022-04-08@19:40
2x2_2C_8b_C2v_L	0.1	14	1.93	-0.42664421	-8.8595926	-9.6125163	0.19925403	-9.4971241	0.20516884	-0.13796409	-10.544782	15	-0.0097041284	-0.0052883326	0.0089351226	-0.078703172	0.0026064238	-0.079199203	-0.02062956	-0.0041178819	0.077740897	-0.7282319	1.1034038	-0.017052428	-1.0978153	-0.0081042882	0.089667156	-1.4752419	1.25	0.649	0.161	-0.32711844	0.89651578	1.9996239	1.9998445	1.9953744	0.00039046987	1.9974511	0.010877255	1.4656982	1.9795234	1.896479	0.093184818	0.04341441	-0.3445087	0.0088937148	-0.24108407	0.089600291	2.0924524	-0.21766182	0.00081493501	0.0038425044	-0.082447413	-0.011483135	0.045490306	0.44736932	-1.422485	0.29486172	0.4246087	0.029407351	0.00041382392	0.00015795747	0.0048276856	0.00049712007	0.0026471583	0.0143995	0.54468043	0.020316515	0.029440439	7.9739636	7.9750093	7.5626995	0.38097675	7.7593062	0.38538529	4.2686756	6.8622389	0.026260479	0.026098777	0.44830333	7.6323649	0.24337429	7.6105386	3.7849033	1.1097237	-142.27432	R0:S0:1	-104.56	uncorrelated	51514b8	 1.96e+02	 1.52e-02	 1.95e-02	2022-04-08@19:43
2x2_2C_8b_C2v_L	0.1	14	1.93	-0.42558583	-8.8573268	-9.6091364	0.22559912	-9.4936628	0.17446205	-0.13677326	-10.528393	15	0.0079708879	0.0037856423	0.0024190435	-0.082120169	0.0088636085	-0.075363752	0.02135836	0.0046595206	0.077932308	-0.72816254	1.1025448	0.0081033883	-1.0984725	0.017174162	0.089387915	-1.4744776	1.25	0.649	0.161	-0.32620408	0.89544549	1.9997581	1.9998524	1.9975027	0.010138833	1.9953376	0.00039320556	1.4545372	1.9791024	1.8954083	-0.070958136	-0.040755694	-0.23897843	0.086784962	-0.34547914	0.0044594675	-2.1043273	0.21477167	0.00018749449	0.0037364076	-0.044940048	-0.44009792	0.082527475	-0.00869289	-1.448761	0.30071613	0.42499221	0.029489658	0.00026490244	0.00014993046	0.0025926652	0.01317711	0.0048692675	0.00050943634	0.54981385	0.020722576	0.029523049	7.9754117	7.9753625	7.7608205	0.37378807	7.5645205	0.3724819	4.2447028	6.8418579	0.025129547	0.02578918	0.24192772	7.6225546	0.44675989	7.6406876	3.8214922	1.1286956	-142.22043	R0:S0:1	-104.56	uncorrelated	51514b8	 1.95e+02	 1.46e-02	 1.95e-02	2022-04-08@19:46
2x2_2C_8b_C2v_L	0.1	14	1.93	-0.42509399	-8.8562211	-9.6076328	0.2016687	-9.4917351	0.20291623	-0.13760335	-10.520229	15	-0.0089052954	-0.0046148091	0.0089151849	-0.079338283	0.0027060913	-0.079114711	-0.021358882	-0.0047151525	0.077465002	-0.72835975	1.1024913	-0.016888537	-1.0977084	-0.0081100658	0.08934177	-1.4740364	1.25	0.649	0.161	-0.32714847	0.89629412	1.9996888	1.9998489	1.9953925	0.00040230025	1.9974285	0.011085261	1.4653775	1.9794106	1.8962573	0.083317106	0.042087378	-0.34377322	0.010196973	-0.24199848	0.090683515	2.1008845	-0.21487649	0.00054290816	0.0037737374	-0.082149821	-0.017202351	0.045851971	0.45003116	-1.4220087	0.29616992	0.42458276	0.029407953	0.00034178848	0.00015352856	0.0048086618	0.00051212185	0.0026706161	0.014719701	0.54354229	0.020423088	0.029441061	7.9747894	7.9753161	7.5641987	0.38163017	7.7576044	0.38986431	4.263272	6.8589185	0.02556175	0.025800745	0.44676893	7.6318535	0.24510919	7.6060156	3.7933073	1.1125558	-142.19529	R0:S0:1	-104.56	uncorrelated	51514b8	 1.96e+02	 1.29e-02	 1.97e-02	2022-04-08@19:49
2x2_2C_8b_C2v_L	0.1	14	1.93	-0.42494752	-8.8554899	-9.6064196	0.21189543	-9.4907313	0.19121051	-0.13643462	-10.514836	15	0.010932155	0.0056401135	0.0024754101	-0.080712454	0.0086025552	-0.077758811	0.020858944	0.0043123957	0.076976374	-0.72906259	1.1032469	0.0083281966	-1.0968095	0.016653847	0.089321788	-1.4737193	1.25	0.649	0.161	-0.32666683	0.89539497	1.9994976	1.9998391	1.9974736	0.011006913	1.9953364	0.00041217381	1.454016	1.979122	1.8953577	-0.10980277	-0.043588335	-0.23945315	0.090525929	-0.34538325	0.0098912572	-2.0987863	0.21595733	0.0011373094	0.0039594009	-0.045393859	-0.45199089	0.082700766	0.015265522	-1.4489606	0.30012603	0.42470671	0.029531304	0.00055356491	0.00016346476	0.0026222481	0.01450515	0.0048698171	0.00052925567	0.5511147	0.020705022	0.029564758	7.9720736	7.9743567	7.7588817	0.38758209	7.5630883	0.38201891	4.2480169	6.8448393	0.027932422	0.026787859	0.24385755	7.608326	0.44819792	7.6318526	3.8164771	1.1258809	-142.17588	R0:S0:1	-104.56	uncorrelated	51514b8	 1.95e+02	 1.28e-02	 1.95e-02	2022-04-08@19:53
2x2_2C_8b_C2v_L	0.1	14	1.93	-0.42477992	-8.8549617	-9.6056119	0.20148275	-9.4897784	0.20258156	-0.13760695	-10.510668	15	-0.0090061335	-0.0047479588	0.0087392569	-0.079280892	0.0027731946	-0.07904631	-0.021132811	-0.0045872256	0.077510959	-0.72825187	1.1025505	-0.017009866	-1.0974795	-0.0081766064	0.089356824	-1.4731944	1.25	0.649	0.161	-0.32720049	0.89656855	1.9996811	1.9998483	1.9953982	0.00039451006	1.9974242	0.011166095	1.466699	1.979478	1.8965319	0.084563738	0.042399129	-0.34363152	0.0095160059	-0.24216981	0.091080704	2.0976229	-0.215303	0.00058937616	0.0037774495	-0.082081319	-0.014320255	0.045911115	0.45160234	-1.4179806	0.29507374	0.42457138	0.029372479	0.00035037292	0.00015405658	0.004802908	0.00050181998	0.002674972	0.014829635	0.54332124	0.020358065	0.029405504	7.9747472	7.975322	7.564385	0.38046527	7.7573555	0.39108924	4.2677201	6.8632921	0.02558288	0.02578575	0.44654702	7.6328879	0.24533531	7.6047197	3.7862368	1.1084119	-142.16459	R0:S0:1	-104.56	uncorrelated	51514b8	 1.96e+02	 1.27e-02	 1.95e-02	2022-04-08@19:56
2x2_2C_8b_C2v_L	0.1	14	1.93	-0.42467508	-8.8543639	-9.6045984	0.21032226	-9.488979	0.19285403	-0.1361681	-10.506287	15	0.0099781651	0.0056385681	0.0025433623	-0.080245045	0.008755777	-0.077651654	0.021138023	0.0045527361	0.077343763	-0.72840531	1.1033008	0.0082219443	-1.0968678	0.016896672	0.089233617	-1.4729606	1.25	0.649	0.161	-0.32648152	0.89535663	1.999594	1.9998407	1.997472	0.010882295	1.9953439	0.00039208091	1.4530256	1.9790773	1.8953194	-0.097214336	-0.043693668	-0.23977692	0.089932042	-0.34516232	0.008358187	-2.1015752	0.21485565	0.00084519544	0.0039190083	-0.045402969	-0.44915902	0.082508928	0.0087491497	-1.4507063	0.30072888	0.42481553	0.029515899	0.00044697234	0.00016185886	0.0026241403	0.014350128	0.0048621924	0.00050050153	0.55134348	0.020747211	0.029549301	7.9732824	7.9746119	7.7588533	0.38610741	7.5643019	0.37843827	4.2449215	6.8429362	0.026913533	0.026535768	0.24389903	7.6098788	0.44696413	7.6349593	3.8208839	1.1275774	-142.14872	R0:S0:1	-104.56	uncorrelated	51514b8	 1.95e+02	 1.26e-02	 1.96e-02	2022-04-08@19:59
2x2_2C_8b_C2v_L	0.1	14	1.93	-0.42456165	-8.8538837	-9.6038323	0.20097438	-9.4881579	0.20277682	-0.13712653	-10.502428	15	-0.008472884	-0.0043393743	0.0088619288	-0.079103566	0.0029851737	-0.079071772	-0.020985521	-0.0045034333	0.077729315	-0.7278811	1.1025919	-0.017204801	-1.0972927	-0.0079331534	0.089299095	-1.4725995	1.25	0.649	0.161	-0.3270221	0.89640581	1.9997229	1.9998507	1.9953958	0.00038629987	1.9974302	0.010889854	1.4632022	1.9793862	1.8963691	0.077547189	0.041769581	-0.34369549	0.0083611283	-0.24232596	0.089678895	2.0970288	-0.21549978	0.00040296364	0.0037433521	-0.082075477	-0.0091391489	0.045765657	0.44597965	-1.4259524	0.29625613	0.42467425	0.029386479	0.00030416108	0.00015164633	0.0048054393	0.00049068649	0.0026691382	0.014464984	0.5457299	0.020447688	0.029419553	7.9752277	7.9754431	7.5646214	0.37852837	7.7581809	0.38681701	4.2628133	6.8593625	0.025201767	0.025671464	0.44634664	7.6346708	0.24452312	7.6092027	3.7932678	1.1120947	-142.13756	R0:S0:1	-104.56	uncorrelated	51514b8	 1.96e+02	 1.27e-02	 1.95e-02	2022-04-08@20:02
2x2_2C_8b_C2v_L	0.1	14	1.93	-0.42440736	-8.8532706	-9.6027736	0.210131	-9.4873085	0.1929151	-0.13606408	-10.498019	15	0.010582422	0.0061896783	0.0026797783	-0.080399595	0.0087985926	-0.077691721	0.021132665	0.0046806953	0.077460833	-0.72810701	1.1032696	0.0081059062	-1.0968834	0.017069203	0.08919854	-1.4722595	1.25	0.649	0.161	-0.32658054	0.8954997	1.9995343	1.9998375	1.9974651	0.01084996	1.9953454	0.00038618118	1.4534407	1.9791124	1.8954626	-0.10507366	-0.044502486	-0.24029137	0.089800947	-0.34518103	0.0075040393	-2.1011161	0.21418041	0.0010248805	0.0039654005	-0.045490176	-0.44801952	0.082458052	0.0050416874	-1.4483255	0.3001523	0.42479477	0.029491818	0.00051336639	0.00016510961	0.00263139	0.014322505	0.0048607844	0.00049253228	0.55132296	0.020712287	0.029525181	7.9725687	7.9744263	7.7584824	0.38612724	7.5646207	0.37681754	4.2461668	6.8453976	0.027514991	0.026713907	0.24426551	7.6099234	0.44661049	7.6364084	3.8184453	1.1251736	-142.1223	R0:S0:1	-104.56	uncorrelated	51514b8	 1.95e+02	 1.37e-02	 1.95e-02	2022-04-08@20:06
2x2_2C_8b_C2v_L	0.1	14	1.93	-0.42392125	-8.8521073	-9.6009777	0.19234436	-9.4856334	0.21011211	-0.13657714	-10.489713	15	-0.010657588	-0.0057307882	0.0090564518	-0.078008449	0.0026851741	-0.080200628	-0.020984164	-0.0045188109	0.077231873	-0.7284205	1.1029232	-0.017234477	-1.0965601	-0.0080064247	0.089228699	-1.4719621	1.25	0.649	0.161	-0.32662721	0.89587455	1.9995256	1.9998403	1.9953864	0.00038780999	1.9974478	0.010679834	1.4576475	1.9791888	1.8958375	0.1063067	0.043711808	-0.34391214	0.0071004325	-0.24132355	0.08887677	2.0990118	-0.21542752	0.0010672653	0.0039227416	-0.082147125	-0.0032438093	0.045538707	0.44479352	-1.4393558	0.29885572	0.42480859	0.029447861	0.00052294093	0.00016223187	0.004815419	0.00049564798	0.0026507652	0.014088777	0.5488847	0.020639667	0.02948114	7.9726133	7.9746067	7.5646915	0.37677456	7.7591022	0.38285894	4.2531905	6.8505968	0.027438983	0.026523368	0.44637431	7.6365068	0.24363906	7.6132557	3.8079216	1.1203076	-142.09603	R0:S0:1	-104.56	uncorrelated	51514b8	 1.95e+02	 1.60e-02	 1.96e-02	2022-04-08@20:09
2x2_2C_8b_C2v_L	0.1	14	1.93	-0.42324924	-8.8499692	-9.5974904	0.22448398	-9.4826398	0.17614688	-0.13581059	-10.474399	15	0.0078856698	0.0038652938	0.0025772457	-0.082059452	0.0086149641	-0.075482544	0.021013568	0.0045077581	0.077609386	-0.72775297	1.1020144	0.0081619826	-1.0976083	0.017045341	0.089039778	-1.4707772	1.25	0.649	0.161	-0.32646558	0.89575863	1.999763	1.9998525	1.9974825	0.010291879	1.9953476	0.00038857108	1.4540903	1.9790944	1.8957216	-0.07011306	-0.040925912	-0.23991173	0.087658403	-0.34517782	0.0051576249	-2.0996849	0.21477599	0.00018055563	0.0037268878	-0.045233848	-0.44283581	0.082390988	-0.0053469573	-1.4464574	0.30000824	0.42489509	0.029443782	0.00025959083	0.00014983278	0.0026136416	0.013392036	0.0048590716	0.00050269568	0.55115145	0.020730627	0.029477024	7.9755482	7.9754502	7.7595211	0.3769979	7.5650175	0.37313263	4.2480733	6.8471342	0.024990238	0.025689583	0.24321233	7.6192666	0.44619495	7.640037	3.8153256	1.1234501	-142.0451	R0:S0:1	-104.56	uncorrelated	51514b8	 1.95e+02	 1.73e-02	 1.96e-02	2022-04-08@20:12
2x2_2C_8b_C2v_L	0.1	14	1.93	-0.42240158	-8.8477917	-9.5941413	0.18449859	-9.4792988	0.21855916	-0.13555894	-10.458679	15	-0.0069103367	-0.0032035896	0.0087777241	-0.076868717	0.0024620419	-0.080843127	-0.020872616	-0.0043229104	0.077678014	-0.72757553	1.1034162	-0.017105114	-1.0959386	-0.0082454472	0.089041293	-1.4698261	1.25	0.649	0.161	-0.32630076	0.89538653	1.9998226	1.9998555	1.9953913	0.0003946669	1.9974555	0.010437244	1.4507389	1.9789402	1.8953494	0.057360204	0.039984551	-0.343499	0.0064979611	-0.24083153	0.088125799	2.0991512	-0.21604029	-0.00017065863	0.0036865858	-0.082052753	-0.00023269007	0.045449494	0.4442365	-1.4559355	0.30192372	0.42492981	0.02950309	0.00019333884	0.0001467377	0.0048107889	0.00050764254	0.0026427473	0.013627845	0.553099	0.020882337	0.029536414	7.9761253	7.9755621	7.5653256	0.37557892	7.7594282	0.37869758	4.2434792	6.840883	0.024569014	0.025590857	0.4458585	7.6378764	0.24335093	7.6174525	3.8232348	1.1294061	-141.99358	R0:S0:1	-104.56	uncorrelated	51514b8	 1.95e+02	 1.57e-02	 1.96e-02	2022-04-08@20:15
2x2_2C_8b_C2v_L	0.1	14	1.93	-0.42193392	-8.8461079	-9.5913207	0.21782261	-9.4772554	0.18498371	-0.13544813	-10.446615	15	0.0083191819	0.0040848566	0.0026122869	-0.081293348	0.0087570333	-0.076678828	0.02094462	0.0043255311	0.077277966	-0.7279791	1.1018601	0.007946488	-1.0966157	0.016966908	0.088879782	-1.4690462	1.25	0.649	0.161	-0.3264658	0.89573463	1.9997309	1.999851	1.9974849	0.010340369	1.9953401	0.00038775735	1.4536147	1.9790215	1.8956977	-0.076052113	-0.041195474	-0.23989763	0.0875393	-0.34544161	0.0069226566	-2.0988069	0.2155189	0.00033127194	0.0037501183	-0.045163149	-0.44090398	0.082500654	0.0025073401	-1.4477011	0.30058223	0.42489564	0.029448019	0.00029522326	0.00015135028	0.0026113823	0.013546779	0.0048666422	0.0004979858	0.55151195	0.020802705	0.029481245	7.9751873	7.9753659	7.7599785	0.37770293	7.5645347	0.37610418	4.2480425	6.8464521	0.02527756	0.025775157	0.24275831	7.6186188	0.44668211	7.6371905	3.8156381	1.1240336	-141.95523	R0:S0:1	-104.56	uncorrelated	51514b8	 1.95e+02	 1.35e-02	 1.95e-02	2022-04-08@20:19
2x2_2C_8b_C2v_L	0.1	14	1.93	-0.42159407	-8.8451586	-9.5899989	0.19891336	-9.4757658	0.2045925	-0.13498811	-10.439887	15	-0.01021152	-0.0054840572	0.0091319962	-0.07879678	0.0027953433	-0.079320767	-0.020849257	-0.0042882673	0.077141519	-0.72812858	1.1021797	-0.017060586	-1.0965389	-0.0075526933	0.088760035	-1.4686989	1.25	0.649	0.161	-0.32651366	0.89555864	1.9995664	1.999842	1.9953781	0.00039781016	1.997454	0.010387655	1.4514121	1.9789567	1.8955216	0.10091496	0.043166015	-0.3440849	0.0088038177	-0.24159233	0.087121738	2.0981274	-0.2156965	0.0009112554	0.0038930593	-0.082227844	-0.010605674	0.045370166	0.43620211	-1.4527424	0.30137374	0.42488203	0.029476053	0.00047800301	0.00016043681	0.0048242388	0.00050672228	0.0026450637	0.013779526	0.55298818	0.020865952	0.029509313	7.9731352	7.9747585	7.5645873	0.3792191	7.7600894	0.37863924	4.2454815	6.8439703	0.027008322	0.026383016	0.44654237	7.6342653	0.24269107	7.6177815	3.8197028	1.1263594	-141.93277	R0:S0:1	-104.56	uncorrelated	51514b8	 1.95e+02	 1.46e-02	 1.94e-02	2022-04-08@20:22
2x2_2C_8b_C2v_L	0.1	14	1.93	-0.42110947	-8.8431847	-9.587074	0.22244739	-9.4728394	0.17693804	-0.13435119	-10.425616	15	0.0087006555	0.0044171342	0.002474307	-0.081856713	0.0083572311	-0.075672533	0.020895443	0.0045026369	0.077342865	-0.72761093	1.1015713	0.0082230456	-1.0968506	0.016555397	0.088745539	-1.4674751	1.25	0.649	0.161	-0.32626757	0.89509614	1.9996998	1.9998482	1.9974759	0.010433012	1.9953543	0.00040368037	1.445063	1.9787961	1.8950589	-0.081131844	-0.04155076	-0.23986501	0.088306408	-0.34461898	0.0078800156	-2.0998959	0.21433249	0.00041644007	0.0038037313	-0.045344969	-0.44485407	0.082310663	0.0063685132	-1.466063	0.30353852	0.42492473	0.029519997	0.00032987418	0.0001541659	0.0026203804	0.013601485	0.0048520712	0.00052316902	0.55675447	0.021020437	0.029553379	7.974657	7.9750921	7.7590576	0.37938303	7.5654385	0.3772679	4.236316	6.8367187	0.025767697	0.026067078	0.24373137	7.6168537	0.44588578	7.636534	3.8337752	1.1330556	-141.88649	R0:S0:1	-104.56	uncorrelated	51514b8	 1.95e+02	 1.47e-02	 1.94e-02	2022-04-08@20:25
2x2_2C_8b_C2v_L	0.1	14	1.93	-0.42094745	-8.8421514	-9.5858601	0.19990391	-9.4710757	0.20463236	-0.13482891	-10.418553	15	-0.014373378	-0.0084549048	0.0090639171	-0.079077238	0.0027493287	-0.079324399	-0.021019281	-0.0045201021	0.076391407	-0.72893379	1.1015218	-0.017128722	-1.0963018	-0.0079371957	0.088630432	-1.4674022	1.25	0.649	0.161	-0.32650638	0.89558098	1.9990427	1.9998183	1.9953927	0.00039480871	1.9974335	0.010793127	1.4523675	1.9789687	1.8955439	0.15557241	0.0475488	-0.34358001	0.0086403286	-0.24193132	0.08927247	2.0996591	-0.21423535	0.0020180452	0.0042901563	-0.082003767	-0.010000919	0.045725442	0.44479076	-1.4482366	0.30090505	0.42484132	0.029463356	0.0010583527	0.00018453432	0.0048089693	0.00050249038	0.0026657789	0.014308462	0.55232957	0.020852631	0.029496699	7.9661314	7.9728438	7.5656005	0.37810845	7.758391	0.38528697	4.246435	6.8468837	0.03310274	0.028287337	0.44546639	7.6352806	0.24438804	7.6108223	3.8176167	1.1233841	-141.86586	R0:S0:1	-104.56	uncorrelated	51514b8	 1.95e+02	 1.31e-02	 1.96e-02	2022-04-08@20:28
