model	E_kin	D	U	e	eb1_1	eb2_1	eb3_1	eb4_1	eb5_1	eb6_1	eb7_1	eb8_1	mu	sb1_1	sb2_1	sb3_1	sb4_1	sb5_1	sb6_1	sb7_1	sb8_1	tb1_1	tb2_1	tb3_1	tb4_1	tb5_1	tb6_1	tb7_1	tb8_1	tpd	tpp	tppp	ave_D	ave_e	ave_mu	ave_tpd	ave_tpp	ave_tppp	ave_U_1	ave_eb1_1	ave_eb2_1	ave_eb3_1	ave_eb4_1	ave_eb5_1	ave_eb6_1	ave_eb7_1	ave_eb8_1	ave_mu_1	ave_sb1_1	ave_sb2_1	ave_sb3_1	ave_sb4_1	ave_sb5_1	ave_sb6_1	ave_sb7_1	ave_sb8_1	ave_tb1_1	ave_tb2_1	ave_tb3_1	ave_tb4_1	ave_tb5_1	ave_tb6_1	ave_tb7_1	ave_tb8_1	var_U_1	var_eb1_1	var_eb2_1	var_eb3_1	var_eb4_1	var_eb5_1	var_eb6_1	var_eb7_1	var_eb8_1	var_mu_1	var_sb1_1	var_sb2_1	var_sb3_1	var_sb4_1	var_sb5_1	var_sb6_1	var_sb7_1	var_sb8_1	var_tb1_1	var_tb2_1	var_tb3_1	var_tb4_1	var_tb5_1	var_tb6_1	var_tb7_1	var_tb8_1	E0_1	sector_1	E0_2	sector_2	githash	iterations	dist_function	distance	diff_hybrid	time
2x2_2C_8b_C2v_L	7.9548872	0	14	3.1695	0.0018966178	-3.1022638	-3.6869349	-0.10868969	-3.686944	-0.10869079	0.14780046	-3.2464716	9.8	-3.6500554e-05	-6.7538764e-06	0.0094399223	-0.17253352	0.0094394611	-0.17253362	3.636482e-06	8.7254376e-06	-0.1122816	-1.0480638	1.635789	0.042537516	-1.6357909	-0.04253608	0.24121687	-2.1549857	1.9492	1	0.2373	0.013237844	1.2557043	1.6180274	-0.59066599	-0.19598988	0.080026616	0.13396957	0.26527077	1.939942	1.8043204	1.5585986	1.8043206	1.5586046	0.018908099	1.5490036	1.1083674	0.00036189824	1.9737224e-05	0.10474189	1.1605814	0.10474469	1.1605835	-2.8421842e-05	-1.9074363e-05	1.1621379	0.73820986	-1.5518738	-0.55982036	1.5518723	0.55981661	-0.30335527	2.5243198	0.028977622	0.23770042	0.058424882	0.17898816	0.36581447	0.17898807	0.36581035	0.019049089	0.34936546	0.036155089	4.1301943	5.3685751	5.1519625	5.0536036	5.151964	5.0535964	4.2913274	6.1950073	5.2796115	2.7529111	3.3540319	5.1581494	3.3540299	5.1581423	3.7650163	3.1859676	-72.573495	R0:S0:1	-53.044	uncorrelated	51514b8	0	sharp_wc_2.0_b_50	 1.28e+02	 1.00e+06	2022-04-18@10:00
2x2_2C_8b_C2v_L	7.9552467	0	14	3.1695	0.0022994036	-3.1022811	-3.6869311	-0.10832852	-3.6869398	-0.10833067	0.1472806	-3.24671	9.8	-3.5726089e-05	-2.2372358e-06	0.009323063	-0.17254708	0.0093237462	-0.17254765	-3.8670945e-06	-5.38024e-06	-0.11228237	-1.0479805	1.6356999	0.042019759	-1.6357014	-0.042022932	0.24113291	-2.1549613	1.9492	1	0.2373	0.013201333	1.2557174	1.6180096	-0.59065312	-0.19593274	0.080010174	0.13396188	0.26464821	1.9399958	1.8043869	1.5581395	1.8043864	1.558143	0.018910754	1.5492158	1.108383	0.0003520301	-3.6351061e-07	0.10448425	1.1608711	0.10448188	1.1608499	2.8556095e-05	1.1395157e-05	1.1610261	0.73791482	-1.5516518	-0.55740403	1.5516582	0.55741866	-0.30332652	2.5238426	0.028976264	0.23710594	0.058375253	0.17893435	0.36645254	0.17893479	0.36645111	0.019051625	0.34926433	0.036146507	4.1276037	5.3688948	5.1519419	5.0525832	5.1519407	5.0525877	4.2912956	6.1941666	5.280407	2.7528222	3.3542752	5.1588013	3.3542885	5.1587863	3.7650338	3.186514	-72.571718	R0:S0:1	-53.044	uncorrelated	51514b8	0	sharp_wc_2.0_b_50	 1.28e+02	 1.00e+06	2022-04-18@10:04
2x2_2C_8b_C2v_L	7.9558277	0	14	3.1695	0.0023114928	-3.1022816	-3.6869213	-0.10835313	-3.6869299	-0.10835516	0.14733471	-3.2467158	9.8	-3.5764366e-05	-9.8411051e-07	0.0093236162	-0.17249029	0.0093251607	-0.17249033	2.9042985e-08	1.087851e-06	-0.11226252	-1.0479781	1.6357309	0.041993619	-1.6357324	-0.041994338	0.2410703	-2.1549876	1.9492	1	0.2373	0.013193517	1.2557334	1.6180307	-0.59059922	-0.19589075	0.079992263	0.13396668	0.2639812	1.940038	1.8044051	1.5591194	1.8044047	1.5591263	0.01887362	1.5493498	1.1084038	0.00035173447	9.3536442e-07	0.10443335	1.1598825	0.10443342	1.1598661	8.0728251e-07	-9.1780783e-07	1.160356	0.7376155	-1.5516241	-0.55692779	1.5516283	0.55693401	-0.30313277	2.5235831	0.028977207	0.23662837	0.058337351	0.17892684	0.36594861	0.17892719	0.36594497	0.019014345	0.34920185	0.036142496	4.1241419	5.3696104	5.1524705	5.0516246	5.152471	5.0516237	4.2913452	6.1936438	5.2800502	2.7526219	3.3549591	5.1563444	3.3549687	5.1563255	3.764993	3.1868571	-72.571721	R0:S0:1	-53.044	uncorrelated	51514b8	0	sharp_wc_2.0_b_50	 1.28e+02	 1.00e+06	2022-04-18@10:09
2x2_2C_8b_C2v_L	7.9556573	0	14	3.1695	0.0022624512	-3.102276	-3.6869074	-0.10835309	-3.686916	-0.10835482	0.14736461	-3.2467191	9.8	-3.5785601e-05	-7.6062097e-07	0.0093096966	-0.17246818	0.0093099788	-0.17246882	-1.9688062e-07	-2.1548346e-07	-0.11227228	-1.0480065	1.6357701	0.042018488	-1.6357718	-0.042019279	0.24104449	-2.1550295	1.9492	1	0.2373	0.013198315	1.2557281	1.6180306	-0.59061103	-0.19590904	0.079998593	0.13396899	0.26418638	1.9400218	1.8043813	1.5589667	1.8043813	1.5589716	0.018876045	1.5492792	1.1083992	0.00035237978	-1.8191635e-07	0.10451769	1.1600399	0.10451819	1.1600304	3.103444e-06	1.281993e-06	1.1606601	0.73771245	-1.5516967	-0.55716206	1.5516989	0.5571655	-0.30311704	2.5237491	0.028977605	0.23678886	0.058352026	0.17894476	0.36599851	0.17894482	0.36599566	0.019016821	0.34923476	0.036145013	4.1251484	5.3694502	5.1524065	5.051914	5.1524063	5.051912	4.2913437	6.1939317	5.2800278	2.7526339	3.3547766	5.1567903	3.3547831	5.1567787	3.7649755	3.1866706	-72.571909	R0:S0:1	-53.044	uncorrelated	51514b8	0	sharp_wc_2.0_b_50	 1.28e+02	 1.00e+06	2022-04-18@10:13
2x2_2C_8b_C2v_L	7.9555496	0	14	3.1695	0.0022615668	-3.1022763	-3.6869076	-0.10834582	-3.6869161	-0.10834752	0.14735779	-3.2467272	9.8	-3.5818356e-05	-6.9511153e-07	0.0093125135	-0.17248167	0.0093128284	-0.17248222	-6.5861734e-08	7.930903e-08	-0.11227238	-1.0480027	1.6357584	0.042020093	-1.6357602	-0.042020753	0.24107148	-2.1550177	1.9492	1	0.2373	0.01319868	1.2557252	1.6180255	-0.59062173	-0.19591573	0.080001299	0.13396743	0.26431251	1.9400145	1.8043813	1.558772	1.8043812	1.5587772	0.018886063	1.5492632	1.1083953	0.00035273479	-1.9188857e-07	0.10451118	1.1602296	0.10451186	1.160219	2.148708e-06	7.7194628e-07	1.160749	0.73776778	-1.5516903	-0.55722515	1.551693	0.55722851	-0.30317735	2.5237725	0.02897731	0.2368806	0.058358619	0.17894336	0.36610161	0.17894349	0.36609868	0.019026891	0.34924216	0.036145436	4.1257842	5.3693096	5.1522977	5.0520889	5.1522976	5.0520867	4.2913332	6.1939908	5.2801231	2.7526844	3.3546491	5.1572721	3.3546561	5.1572594	3.764992	3.1866306	-72.571872	R0:S0:1	-53.044	uncorrelated	51514b8	0	sharp_wc_2.0_b_50	 1.28e+02	 1.00e+06	2022-04-18@10:17
2x2_2C_8b_C2v_L	7.9555496	0	14	3.1695	0.0022615668	-3.1022763	-3.6869076	-0.10834582	-3.6869161	-0.10834752	0.14735779	-3.2467272	9.8	-3.5818356e-05	-6.9511153e-07	0.0093125135	-0.17248167	0.0093128284	-0.17248222	-6.5861734e-08	7.930903e-08	-0.11227238	-1.0480027	1.6357584	0.042020093	-1.6357602	-0.042020753	0.24107148	-2.1550177	1.9492	1	0.2373	0.01319868	1.2557252	1.6180255	-0.59062173	-0.19591573	0.080001299	0.13396743	0.26431251	1.9400145	1.8043813	1.558772	1.8043812	1.5587772	0.018886063	1.5492632	1.1083953	0.00035273479	-1.9188857e-07	0.10451118	1.1602296	0.10451186	1.160219	2.148708e-06	7.7194628e-07	1.160749	0.73776778	-1.5516903	-0.55722515	1.551693	0.55722851	-0.30317735	2.5237725	0.02897731	0.2368806	0.058358619	0.17894336	0.36610161	0.17894349	0.36609868	0.019026891	0.34924216	0.036145436	4.1257842	5.3693096	5.1522977	5.0520889	5.1522976	5.0520867	4.2913332	6.1939908	5.2801231	2.7526844	3.3546491	5.1572721	3.3546561	5.1572594	3.764992	3.1866306	-72.571872	R0:S0:1	-53.044	uncorrelated	51514b8	0	sharp_wc_2.0_b_50	 1.28e+02	 1.00e+06	2022-04-18@10:21
2x2_2C_8b_C2v_L	7.9555496	0	14	3.1695	0.0022615668	-3.1022763	-3.6869076	-0.10834582	-3.6869161	-0.10834752	0.14735779	-3.2467272	9.8	-3.5818356e-05	-6.9511153e-07	0.0093125135	-0.17248167	0.0093128284	-0.17248222	-6.5861734e-08	7.930903e-08	-0.11227238	-1.0480027	1.6357584	0.042020093	-1.6357602	-0.042020753	0.24107148	-2.1550177	1.9492	1	0.2373	0.01319868	1.2557252	1.6180255	-0.59062173	-0.19591573	0.080001299	0.13396743	0.26431251	1.9400145	1.8043813	1.558772	1.8043812	1.5587772	0.018886063	1.5492632	1.1083953	0.00035273479	-1.9188857e-07	0.10451118	1.1602296	0.10451186	1.160219	2.148708e-06	7.7194628e-07	1.160749	0.73776778	-1.5516903	-0.55722515	1.551693	0.55722851	-0.30317735	2.5237725	0.02897731	0.2368806	0.058358619	0.17894336	0.36610161	0.17894349	0.36609868	0.019026891	0.34924216	0.036145436	4.1257842	5.3693096	5.1522977	5.0520889	5.1522976	5.0520867	4.2913332	6.1939908	5.2801231	2.7526844	3.3546491	5.1572721	3.3546561	5.1572594	3.764992	3.1866306	-72.571872	R0:S0:1	-53.044	uncorrelated	51514b8	0	sharp_wc_2.0_b_50	 1.28e+02	 1.00e+06	2022-04-18@10:25
2x2_2C_8b_C2v_L	7.9555496	0	14	3.1695	0.0022615668	-3.1022763	-3.6869076	-0.10834582	-3.6869161	-0.10834752	0.14735779	-3.2467272	9.8	-3.5818356e-05	-6.9511153e-07	0.0093125135	-0.17248167	0.0093128284	-0.17248222	-6.5861734e-08	7.930903e-08	-0.11227238	-1.0480027	1.6357584	0.042020093	-1.6357602	-0.042020753	0.24107148	-2.1550177	1.9492	1	0.2373	0.01319868	1.2557252	1.6180255	-0.59062173	-0.19591573	0.080001299	0.13396743	0.26431251	1.9400145	1.8043813	1.558772	1.8043812	1.5587772	0.018886063	1.5492632	1.1083953	0.00035273479	-1.9188857e-07	0.10451118	1.1602296	0.10451186	1.160219	2.148708e-06	7.7194628e-07	1.160749	0.73776778	-1.5516903	-0.55722515	1.551693	0.55722851	-0.30317735	2.5237725	0.02897731	0.2368806	0.058358619	0.17894336	0.36610161	0.17894349	0.36609868	0.019026891	0.34924216	0.036145436	4.1257842	5.3693096	5.1522977	5.0520889	5.1522976	5.0520867	4.2913332	6.1939908	5.2801231	2.7526844	3.3546491	5.1572721	3.3546561	5.1572594	3.764992	3.1866306	-72.571872	R0:S0:1	-53.044	uncorrelated	51514b8	0	sharp_wc_2.0_b_50	 1.28e+02	 1.00e+06	2022-04-18@10:29
2x2_2C_8b_C2v_L	7.9555496	0	14	3.1695	0.0022615668	-3.1022763	-3.6869076	-0.10834582	-3.6869161	-0.10834752	0.14735779	-3.2467272	9.8	-3.5818356e-05	-6.9511153e-07	0.0093125135	-0.17248167	0.0093128284	-0.17248222	-6.5861734e-08	7.930903e-08	-0.11227238	-1.0480027	1.6357584	0.042020093	-1.6357602	-0.042020753	0.24107148	-2.1550177	1.9492	1	0.2373	0.01319868	1.2557252	1.6180255	-0.59062173	-0.19591573	0.080001299	0.13396743	0.26431251	1.9400145	1.8043813	1.558772	1.8043812	1.5587772	0.018886063	1.5492632	1.1083953	0.00035273479	-1.9188857e-07	0.10451118	1.1602296	0.10451186	1.160219	2.148708e-06	7.7194628e-07	1.160749	0.73776778	-1.5516903	-0.55722515	1.551693	0.55722851	-0.30317735	2.5237725	0.02897731	0.2368806	0.058358619	0.17894336	0.36610161	0.17894349	0.36609868	0.019026891	0.34924216	0.036145436	4.1257842	5.3693096	5.1522977	5.0520889	5.1522976	5.0520867	4.2913332	6.1939908	5.2801231	2.7526844	3.3546491	5.1572721	3.3546561	5.1572594	3.764992	3.1866306	-72.571872	R0:S0:1	-53.044	uncorrelated	51514b8	0	sharp_wc_2.0_b_50	 1.28e+02	 1.00e+06	2022-04-18@10:34
2x2_2C_8b_C2v_L	7.9555496	0	14	3.1695	0.0022615668	-3.1022763	-3.6869076	-0.10834582	-3.6869161	-0.10834752	0.14735779	-3.2467272	9.8	-3.5818356e-05	-6.9511153e-07	0.0093125135	-0.17248167	0.0093128284	-0.17248222	-6.5861734e-08	7.930903e-08	-0.11227238	-1.0480027	1.6357584	0.042020093	-1.6357602	-0.042020753	0.24107148	-2.1550177	1.9492	1	0.2373	0.01319868	1.2557252	1.6180255	-0.59062173	-0.19591573	0.080001299	0.13396743	0.26431251	1.9400145	1.8043813	1.558772	1.8043812	1.5587772	0.018886063	1.5492632	1.1083953	0.00035273479	-1.9188857e-07	0.10451118	1.1602296	0.10451186	1.160219	2.148708e-06	7.7194628e-07	1.160749	0.73776778	-1.5516903	-0.55722515	1.551693	0.55722851	-0.30317735	2.5237725	0.02897731	0.2368806	0.058358619	0.17894336	0.36610161	0.17894349	0.36609868	0.019026891	0.34924216	0.036145436	4.1257842	5.3693096	5.1522977	5.0520889	5.1522976	5.0520867	4.2913332	6.1939908	5.2801231	2.7526844	3.3546491	5.1572721	3.3546561	5.1572594	3.764992	3.1866306	-72.571872	R0:S0:1	-53.044	uncorrelated	51514b8	0	sharp_wc_2.0_b_50	 1.28e+02	 1.00e+06	2022-04-18@10:38
2x2_2C_8b_C2v_L	7.9555496	0	14	3.1695	0.0022615668	-3.1022763	-3.6869076	-0.10834582	-3.6869161	-0.10834752	0.14735779	-3.2467272	9.8	-3.5818356e-05	-6.9511153e-07	0.0093125135	-0.17248167	0.0093128284	-0.17248222	-6.5861734e-08	7.930903e-08	-0.11227238	-1.0480027	1.6357584	0.042020093	-1.6357602	-0.042020753	0.24107148	-2.1550177	1.9492	1	0.2373	0.01319868	1.2557252	1.6180255	-0.59062173	-0.19591573	0.080001299	0.13396743	0.26431251	1.9400145	1.8043813	1.558772	1.8043812	1.5587772	0.018886063	1.5492632	1.1083953	0.00035273479	-1.9188857e-07	0.10451118	1.1602296	0.10451186	1.160219	2.148708e-06	7.7194628e-07	1.160749	0.73776778	-1.5516903	-0.55722515	1.551693	0.55722851	-0.30317735	2.5237725	0.02897731	0.2368806	0.058358619	0.17894336	0.36610161	0.17894349	0.36609868	0.019026891	0.34924216	0.036145436	4.1257842	5.3693096	5.1522977	5.0520889	5.1522976	5.0520867	4.2913332	6.1939908	5.2801231	2.7526844	3.3546491	5.1572721	3.3546561	5.1572594	3.764992	3.1866306	-72.571872	R0:S0:1	-53.044	uncorrelated	51514b8	0	sharp_wc_2.0_b_50	 1.28e+02	 1.00e+06	2022-04-18@10:42
2x2_2C_8b_C2v_L	7.9555496	0	14	3.1695	0.0022615668	-3.1022763	-3.6869076	-0.10834582	-3.6869161	-0.10834752	0.14735779	-3.2467272	9.8	-3.5818356e-05	-6.9511153e-07	0.0093125135	-0.17248167	0.0093128284	-0.17248222	-6.5861734e-08	7.930903e-08	-0.11227238	-1.0480027	1.6357584	0.042020093	-1.6357602	-0.042020753	0.24107148	-2.1550177	1.9492	1	0.2373	0.01319868	1.2557252	1.6180255	-0.59062173	-0.19591573	0.080001299	0.13396743	0.26431251	1.9400145	1.8043813	1.558772	1.8043812	1.5587772	0.018886063	1.5492632	1.1083953	0.00035273479	-1.9188857e-07	0.10451118	1.1602296	0.10451186	1.160219	2.148708e-06	7.7194628e-07	1.160749	0.73776778	-1.5516903	-0.55722515	1.551693	0.55722851	-0.30317735	2.5237725	0.02897731	0.2368806	0.058358619	0.17894336	0.36610161	0.17894349	0.36609868	0.019026891	0.34924216	0.036145436	4.1257842	5.3693096	5.1522977	5.0520889	5.1522976	5.0520867	4.2913332	6.1939908	5.2801231	2.7526844	3.3546491	5.1572721	3.3546561	5.1572594	3.764992	3.1866306	-72.571872	R0:S0:1	-53.044	uncorrelated	51514b8	0	sharp_wc_2.0_b_50	 1.28e+02	 1.00e+06	2022-04-18@10:46
2x2_2C_8b_C2v_L	7.9555496	0	14	3.1695	0.0022615668	-3.1022763	-3.6869076	-0.10834582	-3.6869161	-0.10834752	0.14735779	-3.2467272	9.8	-3.5818356e-05	-6.9511153e-07	0.0093125135	-0.17248167	0.0093128284	-0.17248222	-6.5861734e-08	7.930903e-08	-0.11227238	-1.0480027	1.6357584	0.042020093	-1.6357602	-0.042020753	0.24107148	-2.1550177	1.9492	1	0.2373	0.01319868	1.2557252	1.6180255	-0.59062173	-0.19591573	0.080001299	0.13396743	0.26431251	1.9400145	1.8043813	1.558772	1.8043812	1.5587772	0.018886063	1.5492632	1.1083953	0.00035273479	-1.9188857e-07	0.10451118	1.1602296	0.10451186	1.160219	2.148708e-06	7.7194628e-07	1.160749	0.73776778	-1.5516903	-0.55722515	1.551693	0.55722851	-0.30317735	2.5237725	0.02897731	0.2368806	0.058358619	0.17894336	0.36610161	0.17894349	0.36609868	0.019026891	0.34924216	0.036145436	4.1257842	5.3693096	5.1522977	5.0520889	5.1522976	5.0520867	4.2913332	6.1939908	5.2801231	2.7526844	3.3546491	5.1572721	3.3546561	5.1572594	3.764992	3.1866306	-72.571872	R0:S0:1	-53.044	uncorrelated	51514b8	0	sharp_wc_2.0_b_50	 1.28e+02	 1.00e+06	2022-04-18@10:50
2x2_2C_8b_C2v_L	7.9555496	0	14	3.1695	0.0022615668	-3.1022763	-3.6869076	-0.10834582	-3.6869161	-0.10834752	0.14735779	-3.2467272	9.8	-3.5818356e-05	-6.9511153e-07	0.0093125135	-0.17248167	0.0093128284	-0.17248222	-6.5861734e-08	7.930903e-08	-0.11227238	-1.0480027	1.6357584	0.042020093	-1.6357602	-0.042020753	0.24107148	-2.1550177	1.9492	1	0.2373	0.01319868	1.2557252	1.6180255	-0.59062173	-0.19591573	0.080001299	0.13396743	0.26431251	1.9400145	1.8043813	1.558772	1.8043812	1.5587772	0.018886063	1.5492632	1.1083953	0.00035273479	-1.9188857e-07	0.10451118	1.1602296	0.10451186	1.160219	2.148708e-06	7.7194628e-07	1.160749	0.73776778	-1.5516903	-0.55722515	1.551693	0.55722851	-0.30317735	2.5237725	0.02897731	0.2368806	0.058358619	0.17894336	0.36610161	0.17894349	0.36609868	0.019026891	0.34924216	0.036145436	4.1257842	5.3693096	5.1522977	5.0520889	5.1522976	5.0520867	4.2913332	6.1939908	5.2801231	2.7526844	3.3546491	5.1572721	3.3546561	5.1572594	3.764992	3.1866306	-72.571872	R0:S0:1	-53.044	uncorrelated	51514b8	0	sharp_wc_2.0_b_50	 1.28e+02	 1.00e+06	2022-04-18@10:54
2x2_2C_8b_C2v_L	7.9555496	0	14	3.1695	0.0022615668	-3.1022763	-3.6869076	-0.10834582	-3.6869161	-0.10834752	0.14735779	-3.2467272	9.8	-3.5818356e-05	-6.9511153e-07	0.0093125135	-0.17248167	0.0093128284	-0.17248222	-6.5861734e-08	7.930903e-08	-0.11227238	-1.0480027	1.6357584	0.042020093	-1.6357602	-0.042020753	0.24107148	-2.1550177	1.9492	1	0.2373	0.01319868	1.2557252	1.6180255	-0.59062173	-0.19591573	0.080001299	0.13396743	0.26431251	1.9400145	1.8043813	1.558772	1.8043812	1.5587772	0.018886063	1.5492632	1.1083953	0.00035273479	-1.9188857e-07	0.10451118	1.1602296	0.10451186	1.160219	2.148708e-06	7.7194628e-07	1.160749	0.73776778	-1.5516903	-0.55722515	1.551693	0.55722851	-0.30317735	2.5237725	0.02897731	0.2368806	0.058358619	0.17894336	0.36610161	0.17894349	0.36609868	0.019026891	0.34924216	0.036145436	4.1257842	5.3693096	5.1522977	5.0520889	5.1522976	5.0520867	4.2913332	6.1939908	5.2801231	2.7526844	3.3546491	5.1572721	3.3546561	5.1572594	3.764992	3.1866306	-72.571872	R0:S0:1	-53.044	uncorrelated	51514b8	0	sharp_wc_2.0_b_50	 1.28e+02	 1.00e+06	2022-04-18@10:58
2x2_2C_8b_C2v_L	7.9555496	0	14	3.1695	0.0022615668	-3.1022763	-3.6869076	-0.10834582	-3.6869161	-0.10834752	0.14735779	-3.2467272	9.8	-3.5818356e-05	-6.9511153e-07	0.0093125135	-0.17248167	0.0093128284	-0.17248222	-6.5861734e-08	7.930903e-08	-0.11227238	-1.0480027	1.6357584	0.042020093	-1.6357602	-0.042020753	0.24107148	-2.1550177	1.9492	1	0.2373	0.01319868	1.2557252	1.6180255	-0.59062173	-0.19591573	0.080001299	0.13396743	0.26431251	1.9400145	1.8043813	1.558772	1.8043812	1.5587772	0.018886063	1.5492632	1.1083953	0.00035273479	-1.9188857e-07	0.10451118	1.1602296	0.10451186	1.160219	2.148708e-06	7.7194628e-07	1.160749	0.73776778	-1.5516903	-0.55722515	1.551693	0.55722851	-0.30317735	2.5237725	0.02897731	0.2368806	0.058358619	0.17894336	0.36610161	0.17894349	0.36609868	0.019026891	0.34924216	0.036145436	4.1257842	5.3693096	5.1522977	5.0520889	5.1522976	5.0520867	4.2913332	6.1939908	5.2801231	2.7526844	3.3546491	5.1572721	3.3546561	5.1572594	3.764992	3.1866306	-72.571872	R0:S0:1	-53.044	uncorrelated	51514b8	0	sharp_wc_2.0_b_50	 1.28e+02	 1.00e+06	2022-04-18@11:03
2x2_2C_8b_C2v_L	7.9555496	0	14	3.1695	0.0022615668	-3.1022763	-3.6869076	-0.10834582	-3.6869161	-0.10834752	0.14735779	-3.2467272	9.8	-3.5818356e-05	-6.9511153e-07	0.0093125135	-0.17248167	0.0093128284	-0.17248222	-6.5861734e-08	7.930903e-08	-0.11227238	-1.0480027	1.6357584	0.042020093	-1.6357602	-0.042020753	0.24107148	-2.1550177	1.9492	1	0.2373	0.01319868	1.2557252	1.6180255	-0.59062173	-0.19591573	0.080001299	0.13396743	0.26431251	1.9400145	1.8043813	1.558772	1.8043812	1.5587772	0.018886063	1.5492632	1.1083953	0.00035273479	-1.9188857e-07	0.10451118	1.1602296	0.10451186	1.160219	2.148708e-06	7.7194628e-07	1.160749	0.73776778	-1.5516903	-0.55722515	1.551693	0.55722851	-0.30317735	2.5237725	0.02897731	0.2368806	0.058358619	0.17894336	0.36610161	0.17894349	0.36609868	0.019026891	0.34924216	0.036145436	4.1257842	5.3693096	5.1522977	5.0520889	5.1522976	5.0520867	4.2913332	6.1939908	5.2801231	2.7526844	3.3546491	5.1572721	3.3546561	5.1572594	3.764992	3.1866306	-72.571872	R0:S0:1	-53.044	uncorrelated	51514b8	0	sharp_wc_2.0_b_50	 1.28e+02	 1.00e+06	2022-04-18@11:07
2x2_2C_8b_C2v_L	7.9555496	0	14	3.1695	0.0022615668	-3.1022763	-3.6869076	-0.10834582	-3.6869161	-0.10834752	0.14735779	-3.2467272	9.8	-3.5818356e-05	-6.9511153e-07	0.0093125135	-0.17248167	0.0093128284	-0.17248222	-6.5861734e-08	7.930903e-08	-0.11227238	-1.0480027	1.6357584	0.042020093	-1.6357602	-0.042020753	0.24107148	-2.1550177	1.9492	1	0.2373	0.01319868	1.2557252	1.6180255	-0.59062173	-0.19591573	0.080001299	0.13396743	0.26431251	1.9400145	1.8043813	1.558772	1.8043812	1.5587772	0.018886063	1.5492632	1.1083953	0.00035273479	-1.9188857e-07	0.10451118	1.1602296	0.10451186	1.160219	2.148708e-06	7.7194628e-07	1.160749	0.73776778	-1.5516903	-0.55722515	1.551693	0.55722851	-0.30317735	2.5237725	0.02897731	0.2368806	0.058358619	0.17894336	0.36610161	0.17894349	0.36609868	0.019026891	0.34924216	0.036145436	4.1257842	5.3693096	5.1522977	5.0520889	5.1522976	5.0520867	4.2913332	6.1939908	5.2801231	2.7526844	3.3546491	5.1572721	3.3546561	5.1572594	3.764992	3.1866306	-72.571872	R0:S0:1	-53.044	uncorrelated	51514b8	0	sharp_wc_2.0_b_50	 1.28e+02	 1.00e+06	2022-04-18@11:11
2x2_2C_8b_C2v_L	7.9555496	0	14	3.1695	0.0022615668	-3.1022763	-3.6869076	-0.10834582	-3.6869161	-0.10834752	0.14735779	-3.2467272	9.8	-3.5818356e-05	-6.9511153e-07	0.0093125135	-0.17248167	0.0093128284	-0.17248222	-6.5861734e-08	7.930903e-08	-0.11227238	-1.0480027	1.6357584	0.042020093	-1.6357602	-0.042020753	0.24107148	-2.1550177	1.9492	1	0.2373	0.01319868	1.2557252	1.6180255	-0.59062173	-0.19591573	0.080001299	0.13396743	0.26431251	1.9400145	1.8043813	1.558772	1.8043812	1.5587772	0.018886063	1.5492632	1.1083953	0.00035273479	-1.9188857e-07	0.10451118	1.1602296	0.10451186	1.160219	2.148708e-06	7.7194628e-07	1.160749	0.73776778	-1.5516903	-0.55722515	1.551693	0.55722851	-0.30317735	2.5237725	0.02897731	0.2368806	0.058358619	0.17894336	0.36610161	0.17894349	0.36609868	0.019026891	0.34924216	0.036145436	4.1257842	5.3693096	5.1522977	5.0520889	5.1522976	5.0520867	4.2913332	6.1939908	5.2801231	2.7526844	3.3546491	5.1572721	3.3546561	5.1572594	3.764992	3.1866306	-72.571872	R0:S0:1	-53.044	uncorrelated	51514b8	0	sharp_wc_2.0_b_50	 1.28e+02	 1.00e+06	2022-04-18@11:15
2x2_2C_8b_C2v_L	7.9555496	0	14	3.1695	0.0022615668	-3.1022763	-3.6869076	-0.10834582	-3.6869161	-0.10834752	0.14735779	-3.2467272	9.8	-3.5818356e-05	-6.9511153e-07	0.0093125135	-0.17248167	0.0093128284	-0.17248222	-6.5861734e-08	7.930903e-08	-0.11227238	-1.0480027	1.6357584	0.042020093	-1.6357602	-0.042020753	0.24107148	-2.1550177	1.9492	1	0.2373	0.01319868	1.2557252	1.6180255	-0.59062173	-0.19591573	0.080001299	0.13396743	0.26431251	1.9400145	1.8043813	1.558772	1.8043812	1.5587772	0.018886063	1.5492632	1.1083953	0.00035273479	-1.9188857e-07	0.10451118	1.1602296	0.10451186	1.160219	2.148708e-06	7.7194628e-07	1.160749	0.73776778	-1.5516903	-0.55722515	1.551693	0.55722851	-0.30317735	2.5237725	0.02897731	0.2368806	0.058358619	0.17894336	0.36610161	0.17894349	0.36609868	0.019026891	0.34924216	0.036145436	4.1257842	5.3693096	5.1522977	5.0520889	5.1522976	5.0520867	4.2913332	6.1939908	5.2801231	2.7526844	3.3546491	5.1572721	3.3546561	5.1572594	3.764992	3.1866306	-72.571872	R0:S0:1	-53.044	uncorrelated	51514b8	0	sharp_wc_2.0_b_50	 1.28e+02	 1.00e+06	2022-04-18@11:19
2x2_2C_8b_C2v_L	7.9555496	0	14	3.1695	0.0022615668	-3.1022763	-3.6869076	-0.10834582	-3.6869161	-0.10834752	0.14735779	-3.2467272	9.8	-3.5818356e-05	-6.9511153e-07	0.0093125135	-0.17248167	0.0093128284	-0.17248222	-6.5861734e-08	7.930903e-08	-0.11227238	-1.0480027	1.6357584	0.042020093	-1.6357602	-0.042020753	0.24107148	-2.1550177	1.9492	1	0.2373	0.01319868	1.2557252	1.6180255	-0.59062173	-0.19591573	0.080001299	0.13396743	0.26431251	1.9400145	1.8043813	1.558772	1.8043812	1.5587772	0.018886063	1.5492632	1.1083953	0.00035273479	-1.9188857e-07	0.10451118	1.1602296	0.10451186	1.160219	2.148708e-06	7.7194628e-07	1.160749	0.73776778	-1.5516903	-0.55722515	1.551693	0.55722851	-0.30317735	2.5237725	0.02897731	0.2368806	0.058358619	0.17894336	0.36610161	0.17894349	0.36609868	0.019026891	0.34924216	0.036145436	4.1257842	5.3693096	5.1522977	5.0520889	5.1522976	5.0520867	4.2913332	6.1939908	5.2801231	2.7526844	3.3546491	5.1572721	3.3546561	5.1572594	3.764992	3.1866306	-72.571872	R0:S0:1	-53.044	uncorrelated	51514b8	0	sharp_wc_2.0_b_50	 1.28e+02	 1.00e+06	2022-04-18@11:23
2x2_2C_8b_C2v_L	7.9555496	0	14	3.1695	0.0022615668	-3.1022763	-3.6869076	-0.10834582	-3.6869161	-0.10834752	0.14735779	-3.2467272	9.8	-3.5818356e-05	-6.9511153e-07	0.0093125135	-0.17248167	0.0093128284	-0.17248222	-6.5861734e-08	7.930903e-08	-0.11227238	-1.0480027	1.6357584	0.042020093	-1.6357602	-0.042020753	0.24107148	-2.1550177	1.9492	1	0.2373	0.01319868	1.2557252	1.6180255	-0.59062173	-0.19591573	0.080001299	0.13396743	0.26431251	1.9400145	1.8043813	1.558772	1.8043812	1.5587772	0.018886063	1.5492632	1.1083953	0.00035273479	-1.9188857e-07	0.10451118	1.1602296	0.10451186	1.160219	2.148708e-06	7.7194628e-07	1.160749	0.73776778	-1.5516903	-0.55722515	1.551693	0.55722851	-0.30317735	2.5237725	0.02897731	0.2368806	0.058358619	0.17894336	0.36610161	0.17894349	0.36609868	0.019026891	0.34924216	0.036145436	4.1257842	5.3693096	5.1522977	5.0520889	5.1522976	5.0520867	4.2913332	6.1939908	5.2801231	2.7526844	3.3546491	5.1572721	3.3546561	5.1572594	3.764992	3.1866306	-72.571872	R0:S0:1	-53.044	uncorrelated	51514b8	0	sharp_wc_2.0_b_50	 1.28e+02	 1.00e+06	2022-04-18@11:27
2x2_2C_8b_C2v_L	7.9555496	0	14	3.1695	0.0022615668	-3.1022763	-3.6869076	-0.10834582	-3.6869161	-0.10834752	0.14735779	-3.2467272	9.8	-3.5818356e-05	-6.9511153e-07	0.0093125135	-0.17248167	0.0093128284	-0.17248222	-6.5861734e-08	7.930903e-08	-0.11227238	-1.0480027	1.6357584	0.042020093	-1.6357602	-0.042020753	0.24107148	-2.1550177	1.9492	1	0.2373	0.01319868	1.2557252	1.6180255	-0.59062173	-0.19591573	0.080001299	0.13396743	0.26431251	1.9400145	1.8043813	1.558772	1.8043812	1.5587772	0.018886063	1.5492632	1.1083953	0.00035273479	-1.9188857e-07	0.10451118	1.1602296	0.10451186	1.160219	2.148708e-06	7.7194628e-07	1.160749	0.73776778	-1.5516903	-0.55722515	1.551693	0.55722851	-0.30317735	2.5237725	0.02897731	0.2368806	0.058358619	0.17894336	0.36610161	0.17894349	0.36609868	0.019026891	0.34924216	0.036145436	4.1257842	5.3693096	5.1522977	5.0520889	5.1522976	5.0520867	4.2913332	6.1939908	5.2801231	2.7526844	3.3546491	5.1572721	3.3546561	5.1572594	3.764992	3.1866306	-72.571872	R0:S0:1	-53.044	uncorrelated	51514b8	0	sharp_wc_2.0_b_50	 1.28e+02	 1.00e+06	2022-04-18@11:32
2x2_2C_8b_C2v_L	7.9555496	0	14	3.1695	0.0022615668	-3.1022763	-3.6869076	-0.10834582	-3.6869161	-0.10834752	0.14735779	-3.2467272	9.8	-3.5818356e-05	-6.9511153e-07	0.0093125135	-0.17248167	0.0093128284	-0.17248222	-6.5861734e-08	7.930903e-08	-0.11227238	-1.0480027	1.6357584	0.042020093	-1.6357602	-0.042020753	0.24107148	-2.1550177	1.9492	1	0.2373	0.01319868	1.2557252	1.6180255	-0.59062173	-0.19591573	0.080001299	0.13396743	0.26431251	1.9400145	1.8043813	1.558772	1.8043812	1.5587772	0.018886063	1.5492632	1.1083953	0.00035273479	-1.9188857e-07	0.10451118	1.1602296	0.10451186	1.160219	2.148708e-06	7.7194628e-07	1.160749	0.73776778	-1.5516903	-0.55722515	1.551693	0.55722851	-0.30317735	2.5237725	0.02897731	0.2368806	0.058358619	0.17894336	0.36610161	0.17894349	0.36609868	0.019026891	0.34924216	0.036145436	4.1257842	5.3693096	5.1522977	5.0520889	5.1522976	5.0520867	4.2913332	6.1939908	5.2801231	2.7526844	3.3546491	5.1572721	3.3546561	5.1572594	3.764992	3.1866306	-72.571872	R0:S0:1	-53.044	uncorrelated	51514b8	0	sharp_wc_2.0_b_50	 1.28e+02	 1.00e+06	2022-04-18@11:36
2x2_2C_8b_C2v_L	7.9555496	0	14	3.1695	0.0022615668	-3.1022763	-3.6869076	-0.10834582	-3.6869161	-0.10834752	0.14735779	-3.2467272	9.8	-3.5818356e-05	-6.9511153e-07	0.0093125135	-0.17248167	0.0093128284	-0.17248222	-6.5861734e-08	7.930903e-08	-0.11227238	-1.0480027	1.6357584	0.042020093	-1.6357602	-0.042020753	0.24107148	-2.1550177	1.9492	1	0.2373	0.01319868	1.2557252	1.6180255	-0.59062173	-0.19591573	0.080001299	0.13396743	0.26431251	1.9400145	1.8043813	1.558772	1.8043812	1.5587772	0.018886063	1.5492632	1.1083953	0.00035273479	-1.9188857e-07	0.10451118	1.1602296	0.10451186	1.160219	2.148708e-06	7.7194628e-07	1.160749	0.73776778	-1.5516903	-0.55722515	1.551693	0.55722851	-0.30317735	2.5237725	0.02897731	0.2368806	0.058358619	0.17894336	0.36610161	0.17894349	0.36609868	0.019026891	0.34924216	0.036145436	4.1257842	5.3693096	5.1522977	5.0520889	5.1522976	5.0520867	4.2913332	6.1939908	5.2801231	2.7526844	3.3546491	5.1572721	3.3546561	5.1572594	3.764992	3.1866306	-72.571872	R0:S0:1	-53.044	uncorrelated	51514b8	0	sharp_wc_2.0_b_50	 1.28e+02	 1.00e+06	2022-04-18@11:40
2x2_2C_8b_C2v_L	7.9555496	0	14	3.1695	0.0022615668	-3.1022763	-3.6869076	-0.10834582	-3.6869161	-0.10834752	0.14735779	-3.2467272	9.8	-3.5818356e-05	-6.9511153e-07	0.0093125135	-0.17248167	0.0093128284	-0.17248222	-6.5861734e-08	7.930903e-08	-0.11227238	-1.0480027	1.6357584	0.042020093	-1.6357602	-0.042020753	0.24107148	-2.1550177	1.9492	1	0.2373	0.01319868	1.2557252	1.6180255	-0.59062173	-0.19591573	0.080001299	0.13396743	0.26431251	1.9400145	1.8043813	1.558772	1.8043812	1.5587772	0.018886063	1.5492632	1.1083953	0.00035273479	-1.9188857e-07	0.10451118	1.1602296	0.10451186	1.160219	2.148708e-06	7.7194628e-07	1.160749	0.73776778	-1.5516903	-0.55722515	1.551693	0.55722851	-0.30317735	2.5237725	0.02897731	0.2368806	0.058358619	0.17894336	0.36610161	0.17894349	0.36609868	0.019026891	0.34924216	0.036145436	4.1257842	5.3693096	5.1522977	5.0520889	5.1522976	5.0520867	4.2913332	6.1939908	5.2801231	2.7526844	3.3546491	5.1572721	3.3546561	5.1572594	3.764992	3.1866306	-72.571872	R0:S0:1	-53.044	uncorrelated	51514b8	0	sharp_wc_2.0_b_50	 1.28e+02	 1.00e+06	2022-04-18@11:44
2x2_2C_8b_C2v_L	7.9555496	0	14	3.1695	0.0022615668	-3.1022763	-3.6869076	-0.10834582	-3.6869161	-0.10834752	0.14735779	-3.2467272	9.8	-3.5818356e-05	-6.9511153e-07	0.0093125135	-0.17248167	0.0093128284	-0.17248222	-6.5861734e-08	7.930903e-08	-0.11227238	-1.0480027	1.6357584	0.042020093	-1.6357602	-0.042020753	0.24107148	-2.1550177	1.9492	1	0.2373	0.01319868	1.2557252	1.6180255	-0.59062173	-0.19591573	0.080001299	0.13396743	0.26431251	1.9400145	1.8043813	1.558772	1.8043812	1.5587772	0.018886063	1.5492632	1.1083953	0.00035273479	-1.9188857e-07	0.10451118	1.1602296	0.10451186	1.160219	2.148708e-06	7.7194628e-07	1.160749	0.73776778	-1.5516903	-0.55722515	1.551693	0.55722851	-0.30317735	2.5237725	0.02897731	0.2368806	0.058358619	0.17894336	0.36610161	0.17894349	0.36609868	0.019026891	0.34924216	0.036145436	4.1257842	5.3693096	5.1522977	5.0520889	5.1522976	5.0520867	4.2913332	6.1939908	5.2801231	2.7526844	3.3546491	5.1572721	3.3546561	5.1572594	3.764992	3.1866306	-72.571872	R0:S0:1	-53.044	uncorrelated	51514b8	0	sharp_wc_2.0_b_50	 1.28e+02	 1.00e+06	2022-04-18@11:48
2x2_2C_8b_C2v_L	7.9555496	0	14	3.1695	0.0022615668	-3.1022763	-3.6869076	-0.10834582	-3.6869161	-0.10834752	0.14735779	-3.2467272	9.8	-3.5818356e-05	-6.9511153e-07	0.0093125135	-0.17248167	0.0093128284	-0.17248222	-6.5861734e-08	7.930903e-08	-0.11227238	-1.0480027	1.6357584	0.042020093	-1.6357602	-0.042020753	0.24107148	-2.1550177	1.9492	1	0.2373	0.01319868	1.2557252	1.6180255	-0.59062173	-0.19591573	0.080001299	0.13396743	0.26431251	1.9400145	1.8043813	1.558772	1.8043812	1.5587772	0.018886063	1.5492632	1.1083953	0.00035273479	-1.9188857e-07	0.10451118	1.1602296	0.10451186	1.160219	2.148708e-06	7.7194628e-07	1.160749	0.73776778	-1.5516903	-0.55722515	1.551693	0.55722851	-0.30317735	2.5237725	0.02897731	0.2368806	0.058358619	0.17894336	0.36610161	0.17894349	0.36609868	0.019026891	0.34924216	0.036145436	4.1257842	5.3693096	5.1522977	5.0520889	5.1522976	5.0520867	4.2913332	6.1939908	5.2801231	2.7526844	3.3546491	5.1572721	3.3546561	5.1572594	3.764992	3.1866306	-72.571872	R0:S0:1	-53.044	uncorrelated	51514b8	0	sharp_wc_2.0_b_50	 1.28e+02	 1.00e+06	2022-04-18@11:52
2x2_2C_8b_C2v_L	7.9555496	0	14	3.1695	0.0022615668	-3.1022763	-3.6869076	-0.10834582	-3.6869161	-0.10834752	0.14735779	-3.2467272	9.8	-3.5818356e-05	-6.9511153e-07	0.0093125135	-0.17248167	0.0093128284	-0.17248222	-6.5861734e-08	7.930903e-08	-0.11227238	-1.0480027	1.6357584	0.042020093	-1.6357602	-0.042020753	0.24107148	-2.1550177	1.9492	1	0.2373	0.01319868	1.2557252	1.6180255	-0.59062173	-0.19591573	0.080001299	0.13396743	0.26431251	1.9400145	1.8043813	1.558772	1.8043812	1.5587772	0.018886063	1.5492632	1.1083953	0.00035273479	-1.9188857e-07	0.10451118	1.1602296	0.10451186	1.160219	2.148708e-06	7.7194628e-07	1.160749	0.73776778	-1.5516903	-0.55722515	1.551693	0.55722851	-0.30317735	2.5237725	0.02897731	0.2368806	0.058358619	0.17894336	0.36610161	0.17894349	0.36609868	0.019026891	0.34924216	0.036145436	4.1257842	5.3693096	5.1522977	5.0520889	5.1522976	5.0520867	4.2913332	6.1939908	5.2801231	2.7526844	3.3546491	5.1572721	3.3546561	5.1572594	3.764992	3.1866306	-72.571872	R0:S0:1	-53.044	uncorrelated	51514b8	0	sharp_wc_2.0_b_50	 1.28e+02	 1.00e+06	2022-04-18@11:56
2x2_2C_8b_C2v_L	7.9555496	0	14	3.1695	0.0022615668	-3.1022763	-3.6869076	-0.10834582	-3.6869161	-0.10834752	0.14735779	-3.2467272	9.8	-3.5818356e-05	-6.9511153e-07	0.0093125135	-0.17248167	0.0093128284	-0.17248222	-6.5861734e-08	7.930903e-08	-0.11227238	-1.0480027	1.6357584	0.042020093	-1.6357602	-0.042020753	0.24107148	-2.1550177	1.9492	1	0.2373	0.01319868	1.2557252	1.6180255	-0.59062173	-0.19591573	0.080001299	0.13396743	0.26431251	1.9400145	1.8043813	1.558772	1.8043812	1.5587772	0.018886063	1.5492632	1.1083953	0.00035273479	-1.9188857e-07	0.10451118	1.1602296	0.10451186	1.160219	2.148708e-06	7.7194628e-07	1.160749	0.73776778	-1.5516903	-0.55722515	1.551693	0.55722851	-0.30317735	2.5237725	0.02897731	0.2368806	0.058358619	0.17894336	0.36610161	0.17894349	0.36609868	0.019026891	0.34924216	0.036145436	4.1257842	5.3693096	5.1522977	5.0520889	5.1522976	5.0520867	4.2913332	6.1939908	5.2801231	2.7526844	3.3546491	5.1572721	3.3546561	5.1572594	3.764992	3.1866306	-72.571872	R0:S0:1	-53.044	uncorrelated	51514b8	0	sharp_wc_2.0_b_50	 1.28e+02	 1.00e+06	2022-04-18@12:01
