model	E_kin	D	U	e	eb1_1	eb2_1	eb3_1	eb4_1	eb5_1	eb6_1	eb7_1	eb8_1	mu	sb1_1	sb2_1	sb3_1	sb4_1	sb5_1	sb6_1	sb7_1	sb8_1	tb1_1	tb2_1	tb3_1	tb4_1	tb5_1	tb6_1	tb7_1	tb8_1	tpd	tpp	tppp	ave_D	ave_e	ave_mu	ave_tpd	ave_tpp	ave_tppp	ave_U_1	ave_eb1_1	ave_eb2_1	ave_eb3_1	ave_eb4_1	ave_eb5_1	ave_eb6_1	ave_eb7_1	ave_eb8_1	ave_mu_1	ave_sb1_1	ave_sb2_1	ave_sb3_1	ave_sb4_1	ave_sb5_1	ave_sb6_1	ave_sb7_1	ave_sb8_1	ave_tb1_1	ave_tb2_1	ave_tb3_1	ave_tb4_1	ave_tb5_1	ave_tb6_1	ave_tb7_1	ave_tb8_1	var_U_1	var_eb1_1	var_eb2_1	var_eb3_1	var_eb4_1	var_eb5_1	var_eb6_1	var_eb7_1	var_eb8_1	var_mu_1	var_sb1_1	var_sb2_1	var_sb3_1	var_sb4_1	var_sb5_1	var_sb6_1	var_sb7_1	var_sb8_1	var_tb1_1	var_tb2_1	var_tb3_1	var_tb4_1	var_tb5_1	var_tb6_1	var_tb7_1	var_tb8_1	E0_1	sector_1	E0_2	sector_2	githash	iterations	dist_function	distance	diff_hybrid	time
2x2_2C_8b_C2v_L	7.9548872	0	14	3.1695	0.0018966178	-3.1022638	-3.6869349	-0.10868969	-3.686944	-0.10869079	0.14780046	-3.2464716	9.8	-3.6500554e-05	-6.7538764e-06	0.0094399223	-0.17253352	0.0094394611	-0.17253362	3.636482e-06	8.7254376e-06	-0.1122816	-1.0480638	1.635789	0.042537516	-1.6357909	-0.04253608	0.24121687	-2.1549857	1.9492	1	0.2373	0.013237844	1.2557043	1.6180274	-0.59066599	-0.19598988	0.080026616	0.13396957	0.26527077	1.939942	1.8043204	1.5585986	1.8043206	1.5586046	0.018908099	1.5490036	1.1083674	0.00036189824	1.9737224e-05	0.10474189	1.1605814	0.10474469	1.1605835	-2.8421842e-05	-1.9074363e-05	1.1621379	0.73820986	-1.5518738	-0.55982036	1.5518723	0.55981661	-0.30335527	2.5243198	0.028977622	0.23770042	0.058424882	0.17898816	0.36581447	0.17898807	0.36581035	0.019049089	0.34936546	0.036155089	4.1301943	5.3685751	5.1519625	5.0536036	5.151964	5.0535964	4.2913274	6.1950073	5.2796115	2.7529111	3.3540319	5.1581494	3.3540299	5.1581423	3.7650163	3.1859676	-72.573495	R0:S0:1	-53.044	uncorrelated	51514b8	0	sharp_wc_2.0_b_50	 1.28e+02	 1.00e+06	2022-04-18@10:00
2x2_2C_8b_C2v_L	7.9799252	0	14	3.1790793	0.0024535154	-3.1011179	-3.68379	-0.10906247	-3.6837943	-0.10905947	0.14799378	-3.2402329	9.8	-3.4767484e-05	-3.5527245e-07	0.0093720405	-0.17306457	0.0093716503	-0.1730644	2.0023032e-06	-2.9757357e-07	-0.1124225	-1.048236	1.6359083	0.042030252	-1.6359087	-0.04202713	0.24176284	-2.1546305	1.9485931	1	0.23731379	0.013205096	1.2553687	1.6176456	-0.59180064	-0.19682897	0.080341012	0.13404624	0.26712962	1.9397375	1.8035473	1.5552247	1.8035482	1.5552202	0.019017305	1.547067	1.1082727	0.0003419396	-1.2008406e-07	0.10526962	1.1657836	0.10526934	1.1657977	-8.5597086e-06	9.6992245e-07	1.1657644	0.73921322	-1.5545281	-0.55986014	1.5545238	0.55984264	-0.30393971	2.5286348	0.028991301	0.23892083	0.05861155	0.17959744	0.36791726	0.17959666	0.36792079	0.019161706	0.35027945	0.036221336	4.1405578	5.3675274	5.1521587	5.0540676	5.1521562	5.0540599	4.291343	6.2028128	5.280204	2.7522348	3.3515551	5.1680068	3.3515501	5.1680234	3.7650678	3.1810438	-72.55187	R0:S0:1	-52.967366	uncorrelated	51514b8	1	sharp_wc_2.0_b_50	 1.29e+02	 3.41e-03	2022-04-18@10:08
2x2_2C_8b_C2v_L	8.0046656	0	14	3.1886586	0.0027583501	-3.0963369	-3.6752542	-0.10970794	-3.6752501	-0.10970758	0.14901691	-3.234209	9.8	-2.6001519e-05	-3.1610637e-06	0.009278624	-0.17369588	0.0092781205	-0.17369553	-2.5287959e-07	4.0823379e-06	-0.11258535	-1.0477731	1.6347831	0.041497113	-1.6347827	-0.041494493	0.24279625	-2.1541401	1.9479862	1	0.23732759	0.013159294	1.2550292	1.6172362	-0.59297621	-0.19767052	0.080656837	0.13411651	0.2695102	1.9394804	1.8026823	1.5527762	1.8026821	1.552777	0.019193938	1.5452243	1.1081751	0.00025466522	7.8594009e-06	0.10601101	1.1704264	0.10601292	1.1704284	-3.0690411e-07	-6.6511081e-06	1.16975	0.7404039	-1.5572851	-0.55937804	1.5572852	0.55936782	-0.30507854	2.5327718	0.029003848	0.24074989	0.058848192	0.18028834	0.36943891	0.18028846	0.36943918	0.01934393	0.35114444	0.036285526	4.1520783	5.3663566	5.1530981	5.0534296	5.1530993	5.0534224	4.2917154	6.2101933	5.2801897	2.7518732	3.3494758	5.1757218	3.3494759	5.1757225	3.7650806	3.1763346	-72.500711	R0:S0:1	-52.890731	uncorrelated	51514b8	1	sharp_wc_2.0_b_50	 1.29e+02	 3.56e-03	2022-04-18@10:16
2x2_2C_8b_C2v_L	8.0315383	0	14	3.1982379	0.0032304761	-3.0941793	-3.6722607	-0.11093405	-3.6722605	-0.11093378	0.14999503	-3.2267658	9.8	-2.2738956e-05	-3.7659189e-07	0.0092322109	-0.17471405	0.0092318823	-0.17471365	-3.555575e-06	-9.4809176e-06	-0.11279947	-1.0477486	1.6347976	0.040870143	-1.6347975	-0.040869436	0.24383835	-2.1531378	1.9473793	1	0.23734138	0.013089634	1.2547477	1.616893	-0.59395976	-0.19834116	0.080911745	0.13419177	0.27002901	1.9393591	1.8020606	1.5538253	1.8020603	1.5538224	0.019251275	1.543857	1.1081339	0.00022185178	-6.7204369e-06	0.10651104	1.1724415	0.10650901	1.1724305	3.0606606e-05	1.8995234e-05	1.1718543	0.7407573	-1.5595353	-0.55695405	1.5595401	0.55695134	-0.30583186	2.5357071	0.02901755	0.24137268	0.058963804	0.18080891	0.36921021	0.18080921	0.36921401	0.019406532	0.35179422	0.036335672	4.153425	5.3673406	5.155464	5.0486274	5.1554622	5.0486278	4.291868	6.2157541	5.2787795	2.7512326	3.3500528	5.1750516	3.3500623	5.1750526	3.7654122	3.1730807	-72.477663	R0:S0:1	-52.814097	uncorrelated	51514b8	1	sharp_wc_2.0_b_50	 1.30e+02	 3.61e-03	2022-04-18@10:24
2x2_2C_8b_C2v_L	8.0545049	0	14	3.2078172	0.0035983172	-3.083843	-3.6605983	-0.11136766	-3.6606182	-0.11137371	0.15086069	-3.2195184	9.8	2.2721587e-05	-1.4455535e-05	0.0091408281	-0.17524967	0.0091421059	-0.17525133	-2.8218704e-07	6.8876779e-06	-0.11295898	-1.0464939	1.6329911	0.040367948	-1.6329943	-0.040376468	0.2448034	-2.1522325	1.9467724	1	0.23735517	0.013046379	1.2543628	1.616414	-0.5953046	-0.19929922	0.081271033	0.13425638	0.27338668	1.9389848	1.8010242	1.5494236	1.801024	1.5494321	0.019482688	1.5416097	1.1079966	-0.00022132082	3.9427115e-05	0.10734921	1.1787125	0.10734557	1.1787009	-1.1487158e-05	-2.0980825e-05	1.1770257	0.74252617	-1.5627184	-0.55746723	1.562719	0.55750897	-0.30712035	2.5406557	0.029028986	0.24377603	0.059306515	0.18162316	0.37174628	0.18162328	0.37173715	0.019644216	0.35283185	0.036409038	4.1705835	5.3649487	5.1557224	5.049902	5.1557235	5.0499165	4.2922045	6.224695	5.279267	2.7510043	3.3466105	5.1875025	3.3466104	5.1874833	3.7654226	3.167404	-72.398038	R0:S0:1	-52.737462	uncorrelated	51514b8	1	sharp_wc_2.0_b_50	 1.30e+02	 3.57e-03	2022-04-18@10:32
2x2_2C_8b_C2v_L	8.0821217	0	14	3.2173966	0.0039767829	-3.0815609	-3.6583189	-0.11265266	-3.6583281	-0.11265439	0.15185423	-3.2135984	9.8	2.1764802e-05	1.8625981e-06	0.0090781141	-0.17626405	0.009079353	-0.17626525	-7.4823025e-07	5.8548841e-06	-0.11315209	-1.0464668	1.6331676	0.039717937	-1.6331687	-0.039722133	0.24586315	-2.1517207	1.9461655	1	0.23736897	0.01296696	1.2541006	1.616103	-0.59621132	-0.19991952	0.081506673	0.13433825	0.27348885	1.9388926	1.8004586	1.5514533	1.8004592	1.5514562	0.019525646	1.5404694	1.1079782	-0.00020955171	5.8732206e-07	0.1078107	1.1797637	0.10781004	1.1797666	-2.4102225e-06	-9.6009094e-06	1.1785101	0.74263783	-1.5648113	-0.55448463	1.5648078	0.55450072	-0.3078122	2.5432316	0.029043875	0.24418074	0.059396419	0.18210488	0.3710046	0.18210438	0.37100011	0.019692794	0.35337187	0.036455129	4.1690941	5.3666114	5.1585533	5.044238	5.1585526	5.0442446	4.2925574	6.2293264	5.2776438	2.7501735	3.3478468	5.18444	3.3478424	5.1844358	3.7656105	3.1645142	-72.381578	R0:S0:1	-52.660828	uncorrelated	51514b8	1	sharp_wc_2.0_b_50	 1.31e+02	 3.66e-03	2022-04-18@10:40
2x2_2C_8b_C2v_L	8.1063051	0	14	3.2269759	0.0042528131	-3.0748114	-3.6508766	-0.11343104	-3.6508715	-0.11343174	0.15265372	-3.206647	9.8	1.8024296e-05	1.7687181e-06	0.0090400389	-0.17699431	0.0090399155	-0.17699572	-1.1953867e-07	-2.7602175e-07	-0.11333334	-1.0457041	1.6322677	0.039304139	-1.6322672	-0.039303414	0.24680233	-2.1509224	1.9455586	1	0.23738276	0.012918845	1.2537463	1.6156753	-0.59743252	-0.20079354	0.081835255	0.13440802	0.276155	1.9386002	1.799576	1.5487901	1.7995772	1.5487838	0.019696509	1.5384766	1.1078685	-0.00017304213	-2.3754481e-06	0.10853923	1.1847025	0.1085385	1.1847305	-9.8141588e-07	1.5678111e-08	1.182894	0.74396255	-1.5676636	-0.55461225	1.5676546	0.55460244	-0.3088661	2.5476017	0.02905631	0.24621623	0.059665074	0.18280569	0.37256881	0.18280458	0.37257035	0.01986982	0.35428827	0.036522742	4.1819404	5.3652076	5.1593627	5.043875	5.1593606	5.0438719	4.2927989	6.2372779	5.2774724	2.7498065	3.3455951	5.1928397	3.3455794	5.1928663	3.7657145	3.1594588	-72.32965	R0:S0:1	-52.584193	uncorrelated	51514b8	1	sharp_wc_2.0_b_50	 1.31e+02	 3.53e-03	2022-04-18@10:48
2x2_2C_8b_C2v_L	8.131499	0	14	3.2365552	0.0047248377	-3.0677426	-3.6435998	-0.11424292	-3.6435917	-0.11424191	0.15356229	-3.1993968	9.8	6.6077029e-06	-1.3261148e-06	0.0089627138	-0.17773839	0.0089625337	-0.17773817	2.3298481e-06	4.3004246e-06	-0.11351834	-1.0449935	1.6313616	0.038679468	-1.6313597	-0.038678511	0.24777654	-2.14999	1.9449517	1	0.23739655	0.012841128	1.2534209	1.6152717	-0.5985667	-0.20158109	0.08213275	0.13447911	0.27773439	1.9383576	1.7987653	1.5476094	1.7987655	1.5476078	0.019825395	1.5367591	1.1077919	-6.3818741e-05	6.8687351e-06	0.10912137	1.1882286	0.10912206	1.1882413	-1.8241476e-05	-9.8103355e-06	1.1861229	0.74493514	-1.5703174	-0.55312713	1.570313	0.55312205	-0.30980647	2.5513379	0.029069097	0.24745465	0.05989004	0.18346028	0.37349529	0.18346001	0.37349539	0.020004905	0.35507647	0.03658116	4.1893584	5.3648583	5.1609896	5.0415973	5.1609906	5.0415952	4.2930566	6.2441488	5.2768101	2.7492914	3.34455	5.1974986	3.3445413	5.1975068	3.7658952	3.1551773	-72.276829	R0:S0:1	-52.507559	uncorrelated	51514b8	1	sharp_wc_2.0_b_50	 1.31e+02	 3.66e-03	2022-04-18@10:56
2x2_2C_8b_C2v_L	8.1567082	0	14	3.2461345	0.0049842353	-3.0614286	-3.6375632	-0.11516369	-3.6375661	-0.11516284	0.1545107	-3.1929126	9.8	-3.8748355e-06	-1.4784156e-05	0.0088841726	-0.17850228	0.008883921	-0.17850303	-3.2902537e-06	-1.2421882e-06	-0.11372275	-1.044326	1.630749	0.03821653	-1.6307494	-0.038215849	0.24874516	-2.1493356	1.9443448	1	0.23741034	0.01278125	1.2530938	1.6148829	-0.5996868	-0.20238107	0.082433854	0.13455341	0.27968928	1.9381092	1.797973	1.5464949	1.7979743	1.546481	0.019954615	1.5350173	1.1077111	3.5577321e-05	3.4286251e-05	0.1098757	1.1917696	0.109869	1.1917997	1.7290041e-05	-2.5343297e-06	1.1897971	0.74594399	-1.5729342	-0.55240106	1.5729263	0.55239311	-0.3107236	2.5551912	0.029082409	0.24904725	0.060119741	0.1840989	0.37425607	0.18409773	0.37426299	0.020140431	0.35587227	0.036642205	4.1981091	5.3643546	5.1624793	5.0397345	5.1624745	5.0397324	4.2933655	6.2511042	5.275982	2.7487713	3.3433791	5.2021133	3.3433636	5.2021584	3.7659937	3.1507083	-72.233476	R0:S0:1	-52.430924	uncorrelated	51514b8	1	sharp_wc_2.0_b_50	 1.32e+02	 3.63e-03	2022-04-18@11:03
2x2_2C_8b_C2v_L	8.1825298	0	14	3.2557138	0.0054257702	-3.053327	-3.6302788	-0.11611979	-3.6302861	-0.11612535	0.15544333	-3.1865871	9.8	-3.8954653e-07	-2.4284733e-06	0.0087823519	-0.17934483	0.0087831623	-0.17934634	-2.5230219e-07	2.7976826e-06	-0.11387623	-1.0433502	1.6298717	0.037500819	-1.6298727	-0.03750189	0.24981374	-2.1486909	1.9437379	1	0.23742414	0.01269008	1.2527865	1.6145011	-0.6007641	-0.20311444	0.082712425	0.13463387	0.28049503	1.9379248	1.7971671	1.5466243	1.7971679	1.5466312	0.02006401	1.5335302	1.10766	3.3795189e-06	6.7111169e-06	0.11043444	1.1942587	0.11043559	1.1942613	-2.8135063e-06	-6.5789164e-06	1.1920162	0.74642691	-1.5756204	-0.54993978	1.5756163	0.5499447	-0.31162216	2.5585546	0.029096973	0.24983343	0.060292796	0.18476007	0.37457586	0.18475945	0.37456942	0.020256844	0.3565516	0.036697107	4.200675	5.3651277	5.1649678	5.0356868	5.1649677	5.0356853	4.2938739	6.2569997	5.2749913	2.7479093	3.3433514	5.2034954	3.3433487	5.2034879	3.766034	3.1468141	-72.181337	R0:S0:1	-52.35429	uncorrelated	51514b8	1	sharp_wc_2.0_b_50	 1.32e+02	 3.66e-03	2022-04-18@11:11
2x2_2C_8b_C2v_L	8.2080877	0	14	3.2652931	0.0056408269	-3.0508076	-3.6274305	-0.11713505	-3.627432	-0.11713458	0.15627465	-3.1794764	9.8	6.0263504e-06	2.2177088e-07	0.0087537435	-0.1802131	0.0087539593	-0.18021314	-4.1465139e-07	2.8936552e-06	-0.11408408	-1.0432524	1.6299375	0.03704135	-1.629938	-0.037044939	0.25072935	-2.1478184	1.943131	1	0.23743793	0.012614628	1.2524669	1.6141246	-0.60184309	-0.20389091	0.083005693	0.13470197	0.28260941	1.9377018	1.7964871	1.5455616	1.7964862	1.5455649	0.020182964	1.5318199	1.1075794	-5.6944883e-05	1.7076324e-06	0.110984	1.1978286	0.11098373	1.1978151	-5.4143018e-07	-4.8325748e-06	1.1955451	0.74745541	-1.5779693	-0.54902281	1.577974	0.54904022	-0.31250705	2.5621608	0.029109147	0.25160484	0.060499026	0.18530634	0.37527916	0.18530706	0.375277	0.020381957	0.35732726	0.036755457	4.2099582	5.3644482	5.1661766	5.0338505	5.1661785	5.0338575	4.2938495	6.2638602	5.2742776	2.7476309	3.3422206	5.2083263	3.3422262	5.2083106	3.7664044	3.142566	-72.158375	R0:S0:1	-52.277655	uncorrelated	51514b8	1	sharp_wc_2.0_b_50	 1.33e+02	 3.57e-03	2022-04-18@11:19
2x2_2C_8b_C2v_L	8.2322894	0	14	3.2748724	0.0058945073	-3.0447626	-3.6204885	-0.11776106	-3.6204844	-0.11776111	0.1571802	-3.1726609	9.8	5.8431727e-06	2.6637848e-06	0.0086719203	-0.18081146	0.0086712261	-0.18081205	2.0756981e-06	5.2888268e-06	-0.11425987	-1.0426223	1.6291285	0.036555641	-1.6291286	-0.036556026	0.25167174	-2.1471019	1.9425241	1	0.23745172	0.01253817	1.2521123	1.6136968	-0.60304968	-0.20476038	0.083331875	0.13476874	0.28547289	1.9373928	1.7956321	1.5426998	1.7956318	1.5427027	0.020367352	1.52983	1.1074726	-5.5576043e-05	-2.4157416e-06	0.11168201	1.2026038	0.11168508	1.2026071	-1.6708972e-05	-9.5632014e-06	1.1998659	0.74891346	-1.5806976	-0.5487802	1.580697	0.54878095	-0.31360141	2.5664595	0.029120961	0.25375218	0.060782214	0.18597924	0.37693302	0.18597946	0.37693048	0.020573247	0.3582166	0.036820668	4.2237414	5.3627829	5.166841	5.0338525	5.1668432	5.0338503	4.2939979	6.2717917	5.2742868	2.7473914	3.3397942	5.2172472	3.3397911	5.2172419	3.7665888	3.1374739	-72.109687	R0:S0:1	-52.201021	uncorrelated	51514b8	1	sharp_wc_2.0_b_50	 1.33e+02	 3.66e-03	2022-04-18@11:27
2x2_2C_8b_C2v_L	8.257148	0	14	3.2844517	0.0061014714	-3.035065	-3.6118015	-0.11862652	-3.6118059	-0.11862566	0.15803504	-3.165484	9.8	-5.0374727e-06	8.4932939e-06	0.0085864657	-0.18148682	0.0085859109	-0.18148757	-5.9363577e-06	-4.7431669e-06	-0.11439691	-1.04144	1.6279648	0.035990081	-1.6279659	-0.035988558	0.25255542	-2.1462373	1.9419172	1	0.23746552	0.012445149	1.2517779	1.61329	-0.60420127	-0.20557378	0.083637932	0.13484365	0.28742701	1.9371137	1.7947373	1.5417828	1.7947382	1.5417773	0.020506569	1.5280252	1.1073941	4.93528e-05	-2.4851285e-05	0.11237304	1.2058103	0.11237344	1.205817	4.2214381e-05	1.7441744e-05	1.2032402	0.74995441	-1.5835598	-0.54747295	1.583558	0.5474597	-0.31446667	2.5704175	0.029134387	0.25538812	0.061040522	0.18669962	0.37761384	0.18669889	0.37761772	0.020720183	0.35902035	0.036881251	4.2319461	5.3623841	5.1687727	5.0316903	5.1687685	5.0316865	4.2943421	6.2789542	5.273438	2.746824	3.3387076	5.2215615	3.3387088	5.221577	3.7666967	3.1328385	-72.046024	R0:S0:1	-52.124386	uncorrelated	51514b8	1	sharp_wc_2.0_b_50	 1.33e+02	 3.90e-03	2022-04-18@11:35
2x2_2C_8b_C2v_L	8.2842552	0	14	3.294031	0.0065737795	-3.0318828	-3.6083012	-0.1198757	-3.6083055	-0.1198759	0.1588759	-3.1589751	9.8	-4.0439147e-06	-4.9657125e-08	0.0085089408	-0.18250658	0.0085083256	-0.18250659	-7.6051591e-07	-2.6680512e-06	-0.1146155	-1.0412674	1.6279022	0.035270171	-1.6279036	-0.035269235	0.25355947	-2.145504	1.9413103	1	0.23747931	0.012331235	1.2515031	1.6129599	-0.60514575	-0.20621648	0.08388332	0.13492632	0.28729774	1.9370195	1.7940835	1.5437416	1.7940833	1.5437413	0.020539763	1.5268136	1.1073725	3.8218268e-05	-2.2437057e-06	0.11276788	1.2067565	0.11276825	1.206753	7.2757251e-06	5.3177992e-06	1.2046526	0.75002257	-1.5859174	-0.5441883	1.5859195	0.54418478	-0.31508721	2.5730636	0.029149461	0.25560965	0.061132714	0.18725076	0.37698453	0.18725089	0.37698562	0.020760177	0.35957016	0.036928761	4.2295141	5.3641928	5.1719596	5.0259767	5.171959	5.0259749	4.2946232	6.2837527	5.2714854	2.7459393	3.3400254	5.218723	3.3400289	5.2187231	3.7669515	3.1297139	-72.021116	R0:S0:1	-52.047752	uncorrelated	51514b8	1	sharp_wc_2.0_b_50	 1.34e+02	 3.76e-03	2022-04-18@11:42
2x2_2C_8b_C2v_L	8.3070775	0	14	3.3036103	0.0068226043	-3.0208228	-3.5977624	-0.12027986	-3.5977593	-0.12028018	0.15970232	-3.152374	9.8	8.3661925e-06	1.2059715e-06	0.0083985585	-0.18299023	0.0083992552	-0.18298935	-4.4238797e-06	-9.0455119e-06	-0.11476176	-1.0398979	1.6262811	0.034759346	-1.6262803	-0.034761875	0.25449364	-2.1448277	1.9407034	1	0.2374931	0.012244474	1.2511138	1.6124762	-0.60648251	-0.20717104	0.084243507	0.13498981	0.29111271	1.9365981	1.7930767	1.5392962	1.7930756	1.5392951	0.020791392	1.5245727	1.1072383	-7.5927941e-05	-7.9629792e-06	0.11358866	1.2128005	0.1135853	1.2127786	3.214803e-05	1.7921804e-05	1.209794	0.75199338	-1.5889463	-0.54441711	1.5889544	0.54443256	-0.31637602	2.5779631	0.029160552	0.25834519	0.061517413	0.1880317	0.37945898	0.18803264	0.37946107	0.021020225	0.36054958	0.03700026	4.2481649	5.3615214	5.1721663	5.0273291	5.172167	5.0273411	4.294932	6.2926434	5.2721277	2.7457893	3.3364378	5.2313455	3.3364496	5.2313339	3.7669928	3.1238451	-71.946154	R0:S0:1	-51.971117	uncorrelated	51514b8	1	sharp_wc_2.0_b_50	 1.34e+02	 3.72e-03	2022-04-18@11:50
2x2_2C_8b_C2v_L	8.3336328	0	14	3.3131897	0.0070457087	-3.016471	-3.5936721	-0.12136898	-3.5936728	-0.12136931	0.16065435	-3.1451533	9.8	1.2504326e-05	4.8678537e-06	0.0082875712	-0.18383378	0.0082898127	-0.18383341	7.841748e-06	4.390688e-06	-0.11494364	-1.0394594	1.6261005	0.034036003	-1.6260995	-0.034043491	0.25543337	-2.1439295	1.9400966	1	0.2375069	0.012116619	1.2508232	1.6121295	-0.60746762	-0.20786146	0.08450517	0.13506508	0.29201471	1.9364438	1.7923912	1.5403857	1.7923896	1.5404011	0.020866274	1.5231502	1.1071986	-0.00011716046	-5.6723701e-06	0.11405378	1.2143033	0.11405446	1.2142703	-5.0871477e-05	-1.2421734e-05	1.2118531	0.7524325	-1.5913306	-0.54141268	1.5913381	0.54145202	-0.31708627	2.5809661	0.029174156	0.2593874	0.0616633	0.18859838	0.37918226	0.18859976	0.37917232	0.021102709	0.36118057	0.037049656	4.2502977	5.3623535	5.1748089	5.0230297	5.1748153	5.0230457	4.2950615	6.2982815	5.2706072	2.745197	3.3369293	5.2310569	3.3369405	5.2310035	3.7673486	3.1202663	-71.913921	R0:S0:1	-51.894483	uncorrelated	51514b8	1	sharp_wc_2.0_b_50	 1.35e+02	 3.88e-03	2022-04-18@11:58
2x2_2C_8b_C2v_L	8.3593869	0	14	3.322769	0.0073847217	-3.012645	-3.5890919	-0.12238369	-3.5890881	-0.12238182	0.16147314	-3.1386654	9.8	4.5771252e-07	5.3743461e-07	0.0082111997	-0.18469329	0.0082112433	-0.18469345	-9.7994588e-07	-3.713395e-06	-0.11514825	-1.0392484	1.6258026	0.033423489	-1.6258019	-0.033422704	0.25641436	-2.1432499	1.9394897	1	0.23752069	0.011998744	1.2505106	1.611756	-0.60852474	-0.20860682	0.084787779	0.13514043	0.2933937	1.9362365	1.7916559	1.5402639	1.7916565	1.5402558	0.020975224	1.5215944	1.1071387	-4.0397189e-06	-2.7442543e-06	0.11454831	1.2168496	0.11454563	1.2168642	9.2550529e-06	7.534809e-06	1.2146094	0.75324147	-1.5938224	-0.53939441	1.5938187	0.53938611	-0.31795435	2.5843015	0.029187695	0.26063006	0.061856683	0.18919544	0.37950511	0.18919486	0.37950972	0.021219351	0.36186569	0.037105112	4.2556484	5.3625163	5.1769127	5.0199117	5.1769099	5.0199106	4.2952311	6.3044442	5.269446	2.7447051	3.3365782	5.233439	3.3365714	5.2334616	3.7676412	3.1162227	-71.882357	R0:S0:1	-51.817848	uncorrelated	51514b8	1	sharp_wc_2.0_b_50	 1.35e+02	 3.70e-03	2022-04-18@12:05
2x2_2C_8b_C2v_L	8.3838763	0	14	3.3323483	0.0076241615	-3.0053666	-3.5807922	-0.12319735	-3.5807978	-0.12319669	0.16220606	-3.1313997	9.8	-2.280021e-06	2.542109e-07	0.008107078	-0.18536358	0.0081052129	-0.18536562	-1.4719089e-06	-3.4152168e-06	-0.11531497	-1.0384441	1.6247336	0.032842801	-1.624735	-0.032839068	0.25723254	-2.1423649	1.9388828	1	0.23753448	0.011882817	1.2501654	1.611338	-0.60969894	-0.20944127	0.085102876	0.13521354	0.2955822	1.935952	1.7907357	1.5388725	1.7907386	1.5388576	0.021116335	1.519706	1.107052	2.0753463e-05	-2.1685387e-06	0.11524484	1.2203492	0.11524346	1.2203995	1.2077262e-05	7.4188764e-06	1.2182101	0.75440887	-1.5967522	-0.53813476	1.5967364	0.53810383	-0.31878001	2.5883571	0.029200764	0.26240066	0.0621191	0.18992975	0.38044122	0.18992725	0.38044751	0.021368972	0.36268431	0.03716741	4.2652155	5.3617971	5.1787079	5.0181794	5.1786991	5.0181663	4.2954191	6.3119114	5.2686396	2.744271	3.3351948	5.2388999	3.3351715	5.2389603	3.767841	3.1113409	-71.825115	R0:S0:1	-51.741214	uncorrelated	51514b8	1	sharp_wc_2.0_b_50	 1.35e+02	 3.82e-03	2022-04-18@12:13
2x2_2C_8b_C2v_L	8.4090594	0	14	3.3419276	0.0079226912	-2.9988007	-3.5742615	-0.12396391	-3.5742648	-0.12396353	0.16295097	-3.1238977	9.8	-1.7030434e-05	-4.4052468e-06	0.0079734667	-0.18605782	0.0079718242	-0.18605715	-7.2318953e-06	-5.9923579e-06	-0.1154775	-1.037679	1.6240011	0.032085553	-1.6240021	-0.032082377	0.25811295	-2.1413497	1.9382759	1	0.23754828	0.011736343	1.2498392	1.6109347	-0.61081062	-0.21021911	0.085398665	0.13528121	0.29740285	1.9357111	1.7899253	1.5379505	1.7899252	1.5379461	0.021255034	1.5179947	1.1069804	0.00015879226	2.7235915e-06	0.11574087	1.2233907	0.11574028	1.2233824	4.939251e-05	1.5369957e-05	1.2210477	0.75535158	-1.5993874	-0.5356837	1.5993917	0.5356709	-0.31966354	2.5919352	0.029212878	0.26394502	0.062342169	0.19057931	0.38122768	0.19057946	0.38123309	0.021516467	0.36342332	0.037222601	4.2726264	5.3614263	5.180591	5.015689	5.1805892	5.0156848	4.295499	6.3186651	5.2679904	2.7438773	3.3342945	5.2433387	3.3343039	5.243346	3.7681915	3.1070074	-71.775718	R0:S0:1	-51.664579	uncorrelated	51514b8	1	sharp_wc_2.0_b_50	 1.36e+02	 3.83e-03	2022-04-18@12:21
2x2_2C_8b_C2v_L	8.4350274	0	14	3.3515069	0.0080472899	-2.9960458	-3.5712655	-0.12502992	-3.5712721	-0.12503043	0.163842	-3.1172984	9.8	-5.4366724e-06	-7.5521911e-08	0.0078982499	-0.18687683	0.0078987053	-0.18687644	-1.2799838e-06	-3.6362512e-07	-0.11566931	-1.0376045	1.624068	0.031529237	-1.6240691	-0.031530515	0.25903939	-2.1407024	1.937669	1	0.23756207	0.011605045	1.2495302	1.610579	-0.61183127	-0.21096057	0.085677948	0.13535579	0.29912702	1.935499	1.7892444	1.5380807	1.7892437	1.5380862	0.021360394	1.5164196	1.1069219	5.0823756e-05	-1.5293104e-06	0.11622965	1.2256554	0.11622992	1.2256342	8.6713589e-06	2.1151961e-06	1.2239039	0.75622746	-1.6017349	-0.53374916	1.6017414	0.53375908	-0.32048002	2.5952486	0.029226207	0.26555965	0.062539811	0.19113138	0.38130626	0.19113207	0.38130435	0.021629796	0.36410519	0.037277234	4.2788928	5.3614337	5.1825933	5.0129	5.182595	5.0129038	4.2955353	6.324897	5.2666776	2.7435134	3.333938	5.2455549	3.33395	5.2455329	3.7685813	3.1029198	-71.753321	R0:S0:1	-51.587945	uncorrelated	51514b8	1	sharp_wc_2.0_b_50	 1.36e+02	 3.83e-03	2022-04-18@12:28
2x2_2C_8b_C2v_L	8.4591928	0	14	3.3610862	0.0082893167	-2.9871811	-3.562003	-0.12571436	-3.5620015	-0.12571552	0.16468773	-3.1108626	9.8	1.3509138e-05	-1.4984547e-07	0.0077785799	-0.18747532	0.0077800506	-0.18747567	-6.3373818e-07	-3.1381325e-07	-0.11582299	-1.0365254	1.6227617	0.030913513	-1.6227603	-0.030915948	0.25995671	-2.1400892	1.9370621	1	0.23757586	0.011470471	1.249177	1.6101473	-0.61303212	-0.21181089	0.085999511	0.1354294	0.30150075	1.9351876	1.7882877	1.5362476	1.7882883	1.5362449	0.021533201	1.5145269	1.1068324	-0.00012458968	2.4909211e-06	0.11690423	1.2293719	0.11690109	1.2293815	1.0992478e-06	-7.9366656e-07	1.2275155	0.75747822	-1.6047137	-0.53240727	1.6047091	0.53241637	-0.32145435	2.599389	0.029239297	0.26742423	0.062826396	0.19188961	0.38249155	0.19188904	0.38249081	0.021812099	0.36491039	0.037340255	4.289264	5.3605495	5.1843142	5.0115081	5.1843125	5.0115145	4.2958799	6.3323349	5.2661438	2.7430436	3.3322708	5.2519596	3.3322631	5.2519696	3.7686686	3.0978388	-71.689998	R0:S0:1	-51.51131	uncorrelated	51514b8	1	sharp_wc_2.0_b_50	 1.36e+02	 3.89e-03	2022-04-18@12:36
2x2_2C_8b_C2v_L	8.4842473	0	14	3.3706655	0.0084979053	-2.9800052	-3.5552432	-0.12651717	-3.5552322	-0.12651571	0.16540801	-3.1035272	9.8	9.061988e-06	2.8776437e-07	0.0076669581	-0.18813742	0.0076637221	-0.18813801	-1.0365508e-06	-9.0836876e-07	-0.11597998	-1.0357133	1.6219938	0.030237299	-1.6219922	-0.030231475	0.26076601	-2.1391493	1.9364552	1	0.23758966	0.011314216	1.2488466	1.6097477	-0.61414469	-0.21260183	0.086299435	0.13549929	0.30346752	1.9349223	1.7874476	1.5354444	1.7874497	1.5354273	0.021666728	1.5127741	1.1067595	-8.3999716e-05	3.5043207e-07	0.1174101	1.2321963	0.11741142	1.2322507	5.6432853e-06	1.5874619e-06	1.2305167	0.75851667	-1.6074292	-0.53028599	1.6074135	0.53024897	-0.32225801	2.6030669	0.029251778	0.26910716	0.063071829	0.19256155	0.38314723	0.19255959	0.3831548	0.021954882	0.36565363	0.03739682	4.2970982	5.3601363	5.1863068	5.0092581	5.1863003	5.009244	4.2959701	6.3392274	5.2652525	2.7426463	3.3313546	5.2562207	3.331327	5.2562859	3.7689929	3.0933225	-71.639064	R0:S0:1	-51.434676	uncorrelated	51514b8	1	sharp_wc_2.0_b_50	 1.37e+02	 3.99e-03	2022-04-18@12:44
2x2_2C_8b_C2v_L	8.5106601	0	14	3.3802448	0.0087282206	-2.9772243	-3.5522275	-0.12760125	-3.5522185	-0.12760042	0.16621788	-3.0962506	9.8	1.7003791e-06	1.2506556e-07	0.0075417696	-0.18900154	0.0075423558	-0.1890011	-2.5742811e-06	-9.2424137e-06	-0.11616864	-1.0356079	1.6220284	0.029504243	-1.6220268	-0.029505279	0.26166254	-2.1382356	1.9358483	1	0.23760345	0.011143848	1.248551	1.6093987	-0.61512632	-0.21329795	0.086563506	0.13557241	0.30448356	1.9347577	1.7867838	1.5364446	1.7867833	1.5364395	0.021741893	1.5113302	1.1067175	-1.4050013e-05	-5.1249531e-06	0.1177886	1.2336552	0.11778443	1.2336491	2.2227214e-05	1.740541e-05	1.2325395	0.75908091	-1.6097527	-0.52711397	1.6097561	0.52711846	-0.32296343	2.6060035	0.029264942	0.27025922	0.06322729	0.1931069	0.38289162	0.1931073	0.38289562	0.022038564	0.3662708	0.037445955	4.2996273	5.3608462	5.1889073	5.0052722	5.1889072	5.0052787	4.2959246	6.3448824	5.2636412	2.7422035	3.3317873	5.2564188	3.3317908	5.2564228	3.7695005	3.0896571	-71.614709	R0:S0:1	-51.358041	uncorrelated	51514b8	1	sharp_wc_2.0_b_50	 1.37e+02	 3.98e-03	2022-04-18@12:51
2x2_2C_8b_C2v_L	8.5355501	0	14	3.3898241	0.0090171416	-2.9683399	-3.543516	-0.12841279	-3.5435176	-0.12841345	0.1670765	-3.0900337	9.8	8.6059987e-06	-2.350749e-06	0.007392104	-0.18968467	0.0073930114	-0.18968483	-7.0941722e-06	-6.3497005e-07	-0.11632517	-1.0345941	1.620881	0.028761217	-1.6208814	-0.028765488	0.26262217	-2.1376825	1.9352414	1	0.23761724	0.01097345	1.2482173	1.6089966	-0.61625448	-0.21409337	0.086865268	0.13565334	0.30599456	1.9344899	1.7858393	1.5360087	1.7858386	1.5360069	0.021881813	1.5096404	1.1066525	-7.7701217e-05	5.1954076e-06	0.11835519	1.2361819	0.11835136	1.2361699	3.9423528e-05	4.2153504e-06	1.2352555	0.75998583	-1.6127517	-0.52457269	1.6127566	0.52459327	-0.32385169	2.609719	0.029279454	0.27160452	0.063476199	0.19386588	0.3834372	0.19386646	0.38343773	0.022188814	0.36698161	0.037505179	4.305106	5.3610346	5.1915533	5.0022636	5.1915537	5.002275	4.296343	6.3514535	5.2624786	2.7415299	3.3311975	5.2595548	3.3312031	5.2595507	3.7696112	3.0850148	-71.554956	R0:S0:1	-51.281407	uncorrelated	51514b8	1	sharp_wc_2.0_b_50	 1.37e+02	 3.92e-03	2022-04-18@12:59
2x2_2C_8b_C2v_L	8.5605551	0	14	3.3994034	0.0092660757	-2.9599397	-3.5350913	-0.12913537	-3.5350749	-0.12913873	0.16789966	-3.0831977	9.8	1.5762932e-05	-1.0096719e-06	0.0072138362	-0.19030869	0.007215928	-0.19030945	2.1801593e-08	5.0936117e-06	-0.11647505	-1.0335591	1.6197434	0.027925494	-1.6197392	-0.027931422	0.26354008	-2.136915	1.9346345	1	0.23763103	0.010779872	1.247887	1.608591	-0.61737194	-0.2148766	0.08716283	0.13572632	0.30767312	1.9342309	1.7849342	1.535504	1.7849334	1.5355106	0.022029186	1.5079547	1.1065874	-0.00014497696	7.9486841e-06	0.11884665	1.2386296	0.11884543	1.2386233	-8.9455887e-06	-1.2007035e-05	1.2378294	0.76089105	-1.6156142	-0.52151709	1.6156141	0.52154593	-0.32474278	2.6133187	0.029292506	0.2731091	0.063716709	0.19459157	0.38403355	0.19459219	0.38402654	0.022347019	0.36768506	0.037560652	4.3111453	5.3610126	5.1940523	4.9993819	5.1940572	4.9993935	4.2966127	6.3580107	5.2615163	2.7410212	3.330587	5.2630565	3.3305843	5.2630366	3.7698506	3.0805132	-71.495132	R0:S0:1	-51.204772	uncorrelated	51514b8	1	sharp_wc_2.0_b_50	 1.38e+02	 3.98e-03	2022-04-18@13:07
2x2_2C_8b_C2v_L	8.5860444	0	14	3.4089828	0.0094850257	-2.9539517	-3.5292721	-0.13001369	-3.5292564	-0.13001407	0.16847555	-3.0755312	9.8	1.6069333e-05	2.0599746e-07	0.0070554374	-0.19103205	0.0070564019	-0.19103313	-3.0652154e-06	-2.3117833e-06	-0.11663741	-1.0329474	1.6191781	0.027122136	-1.6191747	-0.027127252	0.26430116	-2.1358621	1.9340276	1	0.23764483	0.010573484	1.2475683	1.6082051	-0.61843786	-0.21562969	0.087448039	0.13579674	0.30916881	1.9340035	1.7841273	1.5356331	1.7841275	1.5356262	0.022137061	1.5063171	1.1065294	-0.00014658724	1.354687e-06	0.11925891	1.2406196	0.11925399	1.240633	1.6060277e-05	4.0153894e-06	1.2401899	0.76171073	-1.6182728	-0.5183226	1.6182689	0.5183396	-0.32543624	2.6166614	0.029305137	0.27456041	0.06392881	0.19524285	0.38425768	0.19524263	0.38425841	0.022465165	0.36836687	0.037613189	4.3160414	5.3612018	5.1965945	4.9961395	5.1965939	4.99615	4.2965951	6.3643905	5.2602223	2.7406129	3.3304052	5.2653488	3.3303945	5.2653657	3.7703102	3.0763216	-71.45024	R0:S0:1	-51.128138	uncorrelated	51514b8	1	sharp_wc_2.0_b_50	 1.38e+02	 3.97e-03	2022-04-18@13:14
2x2_2C_8b_C2v_L	8.6120109	0	14	3.4185621	0.0095929487	-2.9491805	-3.5244224	-0.13100466	-3.5244107	-0.13100479	0.1694084	-3.0691386	9.8	1.4553358e-05	9.8571403e-07	0.0069300835	-0.19180589	0.0069314577	-0.19180608	-5.2272204e-07	8.739782e-07	-0.11679117	-1.0325273	1.618864	0.026374848	-1.6188599	-0.02637681	0.26524035	-2.1352707	1.9334207	1	0.23765862	0.010368156	1.2472605	1.6078487	-0.61944915	-0.21635968	0.087723593	0.13587458	0.31048598	1.9338011	1.7833549	1.5363776	1.7833561	1.5363707	0.022243408	1.5048168	1.1064825	-0.00013338069	1.2231706e-06	0.11958543	1.2421257	0.11958203	1.2421501	-4.8591191e-07	-2.4320719e-06	1.2422685	0.76238116	-1.6208648	-0.51507378	1.6208548	0.51507699	-0.32623222	2.6198245	0.029319087	0.27599589	0.064119006	0.19587075	0.38411095	0.19586964	0.38411147	0.022581645	0.36899162	0.037665679	4.3193299	5.3618331	5.1994135	4.992508	5.1994105	4.992513	4.296748	6.3701941	5.2586543	2.7401133	3.3305812	5.2662999	3.330565	5.2663253	3.770671	3.0722621	-71.41587	R0:S0:1	-51.051503	uncorrelated	51514b8	1	sharp_wc_2.0_b_50	 1.38e+02	 3.93e-03	2022-04-18@13:22
2x2_2C_8b_C2v_L	8.6362613	0	14	3.4281414	0.0098007819	-2.9415435	-3.5161092	-0.13170309	-3.5161022	-0.13170286	0.17008749	-3.0611988	9.8	8.4944483e-06	-9.836967e-07	0.0067844372	-0.19238587	0.0067848304	-0.19238606	9.1101991e-07	4.2888395e-06	-0.11695991	-1.0316756	1.6177942	0.025647995	-1.6177929	-0.025649484	0.26602144	-2.1341733	1.9328138	1	0.23767241	0.010155672	1.2469087	1.6074228	-0.62062376	-0.21720059	0.088042634	0.135944	0.31285854	1.9334876	1.782391	1.5350125	1.7823909	1.5350111	0.022401738	1.5028619	1.1063957	-7.868784e-05	6.7184918e-06	0.12012097	1.2452855	0.12012041	1.2452941	-1.0731518e-05	-9.5803056e-06	1.2456103	0.76367568	-1.6238865	-0.51285036	1.6238844	0.51285611	-0.32707947	2.6238405	0.029331447	0.27795452	0.064408003	0.19663317	0.38506353	0.19663323	0.3850628	0.022751424	0.3697905	0.037726306	4.3290749	5.3610169	5.2015016	4.9907577	5.2015024	4.9907596	4.2967499	6.3778116	5.2577168	2.7398379	3.329222	5.2720513	3.3292149	5.2720573	3.7710808	3.067202	-71.355794	R0:S0:1	-50.974869	uncorrelated	51514b8	1	sharp_wc_2.0_b_50	 1.39e+02	 4.07e-03	2022-04-18@13:30
2x2_2C_8b_C2v_L	8.6622863	0	14	3.4377207	0.0098314231	-2.9366518	-3.5115573	-0.13268333	-3.5115495	-0.13268378	0.17093594	-3.0553753	9.8	-2.1033887e-06	2.2171155e-08	0.0066457527	-0.19312629	0.0066466778	-0.19312673	2.8627821e-06	6.0148349e-06	-0.11713672	-1.0311958	1.6175387	0.024942165	-1.6175368	-0.024942221	0.26689035	-2.1337937	1.9322069	1	0.23768621	0.0099480145	1.2466014	1.6070776	-0.62161953	-0.2179334	0.088319615	0.13602364	0.31428121	1.933282	1.7816247	1.5357837	1.7816249	1.5357867	0.022500669	1.5013666	1.1063491	1.7551894e-05	3.7320996e-06	0.12049986	1.2467138	0.12050109	1.2467208	-2.1258187e-05	-1.2190464e-05	1.2478731	0.76433654	-1.6264489	-0.50977122	1.6264453	0.50977031	-0.32778186	2.6270555	0.029345679	0.27949321	0.06460086	0.19725516	0.38486543	0.19725497	0.3848626	0.022860673	0.37040559	0.037779336	4.3326379	5.3616374	5.2043132	4.9873391	5.2043147	4.9873357	4.2969564	6.3835763	5.255941	2.7392914	3.3293714	5.2729688	3.3293662	5.2729658	3.7713497	3.0630272	-71.323814	R0:S0:1	-50.898234	uncorrelated	51514b8	1	sharp_wc_2.0_b_50	 1.39e+02	 4.09e-03	2022-04-18@13:37
2x2_2C_8b_C2v_L	8.6877663	0	14	3.4473	0.010012764	-2.9296385	-3.504184	-0.13366713	-3.5041817	-0.13366729	0.17148457	-3.0475399	9.8	-5.2371681e-06	-6.8034261e-07	0.0065030098	-0.19386459	0.0065038511	-0.19386373	-3.0754407e-06	-3.7588623e-06	-0.11727248	-1.0304832	1.616684	0.024197304	-1.6166824	-0.02419947	0.26762357	-2.1327062	1.9316	1	0.2377	0.0097174783	1.2462822	1.6067045	-0.62267405	-0.21869096	0.088605915	0.13610148	0.31526812	1.9330599	1.7807015	1.5366848	1.7807005	1.5366902	0.022582715	1.4997143	1.1062969	4.9278769e-05	-2.2227745e-06	0.12089194	1.2479871	0.12089043	1.2479595	2.1442122e-05	8.9702809e-06	1.2499262	0.7650024	-1.6294576	-0.50652442	1.629465	0.50653895	-0.32835491	2.6304384	0.02935973	0.28065331	0.06480971	0.1980033	0.38465864	0.19800417	0.38465724	0.022953754	0.37107948	0.037833737	4.334695	5.3624763	5.2076759	4.9835147	5.2076792	4.9835233	4.2970105	6.3899011	5.2538917	2.7387012	3.3296913	5.2735337	3.329706	5.2735063	3.7717797	3.0586816	-71.270538	R0:S0:1	-50.8216	uncorrelated	51514b8	1	sharp_wc_2.0_b_50	 1.39e+02	 4.19e-03	2022-04-18@13:45
