model	E_kin	D	U	e	eb1_1	eb2_1	eb3_1	eb4_1	eb5_1	eb6_1	eb7_1	eb8_1	mu	sb1_1	sb2_1	sb3_1	sb4_1	sb5_1	sb6_1	sb7_1	sb8_1	tb1_1	tb2_1	tb3_1	tb4_1	tb5_1	tb6_1	tb7_1	tb8_1	tpd	tpp	tppp	ave_D	ave_e	ave_mu	ave_tpd	ave_tpp	ave_tppp	ave_U_1	ave_eb1_1	ave_eb2_1	ave_eb3_1	ave_eb4_1	ave_eb5_1	ave_eb6_1	ave_eb7_1	ave_eb8_1	ave_mu_1	ave_sb1_1	ave_sb2_1	ave_sb3_1	ave_sb4_1	ave_sb5_1	ave_sb6_1	ave_sb7_1	ave_sb8_1	ave_tb1_1	ave_tb2_1	ave_tb3_1	ave_tb4_1	ave_tb5_1	ave_tb6_1	ave_tb7_1	ave_tb8_1	var_U_1	var_eb1_1	var_eb2_1	var_eb3_1	var_eb4_1	var_eb5_1	var_eb6_1	var_eb7_1	var_eb8_1	var_mu_1	var_sb1_1	var_sb2_1	var_sb3_1	var_sb4_1	var_sb5_1	var_sb6_1	var_sb7_1	var_sb8_1	var_tb1_1	var_tb2_1	var_tb3_1	var_tb4_1	var_tb5_1	var_tb6_1	var_tb7_1	var_tb8_1	E0_1	sector_1	E0_2	sector_2	githash	time
2x2_2C_8b_C2v_L	4.2064206	0	14	2.3	0.0091560067	-3.1680207	-3.9362307	-0.13185004	-3.9362488	-0.13185712	0.1722452	-3.5984456	9.45	8.051885e-05	-1.1411606e-05	0.0074657568	-0.19118742	0.0074700682	-0.19118829	-1.2453127e-05	-4.6839186e-06	-0.1185329	-1.0895407	1.7350606	0.028041679	-1.735062	-0.028064232	0.26140273	-2.2996728	2.1	1	0.2	0.011011394	1.2519852	1.6075364	-0.61487148	-0.20305195	0.084281592	0.12950266	0.29334307	1.9359729	1.7870728	1.539634	1.7870706	1.5396335	0.02260344	1.5302303	1.0951476	-0.00072736493	3.5566028e-05	0.11819872	1.2617997	0.11818151	1.2617652	5.7382926e-05	-5.660282e-08	1.2461621	0.74767056	-1.6224924	-0.53093286	1.6225039	0.53104431	-0.32034994	2.6029086	0.028145475	0.26295956	0.062107678	0.19272379	0.38411006	0.19272546	0.38410236	0.022970947	0.35624193	0.037720941	4.2548564	5.3732251	5.1619432	4.9573885	5.1619443	4.9574489	4.3909227	6.2455543	5.238167	2.7347546	3.363304	5.2909778	3.3633088	5.2909569	3.6811455	3.110837	-73.424878	R0:S0:1	-57.2	uncorrelated	51514b8	2022-04-17@16:52
2x2_2C_8b_C2v_L	4.332723	0	14	2.3299828	0.0073940847	-3.166248	-3.9327774	-0.13022345	-3.9327722	-0.13022936	0.17060586	-3.5877516	9.4655172	9.2186433e-05	3.9512538e-06	0.0080892864	-0.18986244	0.0080956841	-0.18986678	-1.3273117e-05	-2.4239406e-06	-0.11834351	-1.0882726	1.7326653	0.030753892	-1.732663	-0.030782366	0.25977569	-2.2948411	2.0948	1	0.20128621	0.011487995	1.2520167	1.607875	-0.61425855	-0.20314814	0.084261461	0.12966359	0.30368937	1.9354117	1.7878228	1.5259683	1.7878215	1.525967	0.02285435	1.529071	1.0954634	-0.00086293259	7.9254372e-07	0.1190217	1.2703412	0.11900463	1.2703228	6.5238141e-05	5.1666593e-06	1.2538421	0.75229627	-1.6189631	-0.54849728	1.6189675	0.54861993	-0.32058083	2.6041185	0.02817448	0.26977787	0.062598721	0.19201117	0.38936865	0.19201212	0.38935786	0.023207164	0.35679628	0.037714026	4.3084954	5.3611387	5.151963	4.9797026	5.151964	4.9797663	4.3861321	6.2520431	5.2448819	2.7379472	3.3510338	5.3176697	3.3510287	5.3176492	3.6841482	3.1085257	-73.433635	R0:S0:1	-57.084276	uncorrelated	51514b8	2022-04-17@17:00
2x2_2C_8b_C2v_L	4.4712916	0	14	2.3599655	0.0070224235	-3.1655801	-3.9301572	-0.12963287	-3.9301368	-0.12963522	0.16988358	-3.5793126	9.4810345	7.4069765e-05	5.3207814e-06	0.0083725917	-0.18897474	0.0083747316	-0.18897829	-3.5440714e-06	1.4556985e-07	-0.11801258	-1.0870431	1.730258	0.032126126	-1.7302527	-0.032137393	0.25865502	-2.2905179	2.0896	1	0.20257241	0.011816089	1.2523851	1.6086679	-0.61245454	-0.20236168	0.083879018	0.12990838	0.29729432	1.935922	1.7889954	1.5329747	1.7889977	1.5329561	0.022353719	1.5312117	1.09624	-0.00069549458	-1.688077e-06	0.11829693	1.2600278	0.11828783	1.2600906	9.707074e-06	-2.7512782e-06	1.2465289	0.74962629	-1.6148249	-0.55123635	1.6148043	0.55126901	-0.31867667	2.5980794	0.02822045	0.26491901	0.062134822	0.19112643	0.3852287	0.19112429	0.3852282	0.022683331	0.35594527	0.037612762	4.2783218	5.3660633	5.153605	4.9805392	5.1535983	4.9805593	4.3822287	6.244152	5.2440791	2.7369438	3.3548632	5.2958768	3.3548207	5.2959424	3.6872621	3.1154021	-73.454821	R0:S0:1	-56.968552	uncorrelated	51514b8	2022-04-17@17:08
2x2_2C_8b_C2v_L	4.6056249	0	14	2.3899483	0.0070253679	-3.1652443	-3.9210056	-0.12805059	-3.9209746	-0.12804941	0.16862789	-3.5696278	9.4965517	3.8211845e-05	-1.3572493e-06	0.0085324729	-0.18792293	0.0085349469	-0.18792419	-6.8700527e-06	-8.3124877e-06	-0.11771242	-1.0856771	1.7261647	0.033164744	-1.7261581	-0.03317432	0.25776372	-2.2854955	2.0844	1	0.20385862	0.012062903	1.2526485	1.6092277	-0.61111131	-0.20179945	0.083601808	0.13010124	0.29513361	1.936181	1.7899748	1.5322526	1.7899748	1.5322358	0.022181409	1.5325934	1.0968784	-0.00035726728	4.5363653e-06	0.11767234	1.25629	0.11765994	1.2563099	4.0876673e-05	1.4013735e-05	1.242123	0.74889237	-1.610852	-0.55498857	1.6108475	0.55502195	-0.31804352	2.593543	0.028256518	0.26263782	0.061892836	0.1903395	0.38523341	0.19033931	0.38523847	0.022494544	0.35540864	0.037526945	4.2711243	5.3657722	5.1517675	4.9867996	5.1517658	4.9868234	4.3780682	6.2395675	5.2473419	2.737487	3.3536963	5.2913943	3.3536794	5.2914282	3.6905616	3.1202884	-73.440333	R0:S0:1	-56.852828	uncorrelated	51514b8	2022-04-17@17:15
2x2_2C_8b_C2v_L	4.7423297	0	14	2.419931	0.006605831	-3.1654053	-3.919019	-0.12704539	-3.9189954	-0.12704607	0.16755561	-3.5609656	9.512069	3.9469146e-05	1.2746089e-06	0.0087302322	-0.18703273	0.0087314519	-0.18703385	-2.1361046e-06	5.7355823e-06	-0.11740892	-1.0844489	1.7237884	0.034309857	-1.7237832	-0.034319598	0.25667258	-2.28097	2.0792	1	0.20514483	0.012311335	1.252969	1.609917	-0.60950961	-0.20111196	0.083269313	0.13031888	0.29161938	1.936544	1.7911679	1.5353381	1.7911671	1.5353381	0.021865653	1.5343709	1.0975775	-0.00037135051	5.3671317e-06	0.11693065	1.2494928	0.11692749	1.2494948	1.8381416e-06	-1.1200392e-05	1.2364193	0.74734705	-1.6065235	-0.55769219	1.606522	0.55773243	-0.31676955	2.5882278	0.028297188	0.25980049	0.061559437	0.18940694	0.38313124	0.18940749	0.38312636	0.022160753	0.35469957	0.037434545	4.254645	5.367771	5.1513156	4.9903828	5.1513195	4.9904028	4.3739431	6.2333295	5.2487693	2.7374172	3.3549156	5.2789886	3.3549062	5.2789818	3.6938394	3.1260852	-73.463418	R0:S0:1	-56.737103	uncorrelated	51514b8	2022-04-17@17:23
2x2_2C_8b_C2v_L	4.8766441	0	14	2.4499138	0.0063386546	-3.165895	-3.9124713	-0.12550829	-3.912441	-0.12550746	0.16613586	-3.5501223	9.5275862	3.470045e-05	8.9982833e-07	0.0089250714	-0.18586738	0.0089282805	-0.18586862	-3.933332e-06	-2.7919998e-06	-0.11709826	-1.0833197	1.7203247	0.035515152	-1.7203193	-0.035520713	0.25547408	-2.2757253	2.074	1	0.20643103	0.012538284	1.2532283	1.610496	-0.60815479	-0.20057394	0.082999401	0.13051085	0.29008192	1.9367584	1.7921679	1.5345767	1.7921681	1.5345626	0.021669461	1.5355517	1.0981951	-0.00032684999	1.5123293e-06	0.11630279	1.2456113	0.11629384	1.2456373	2.0675542e-05	4.9024749e-06	1.2326108	0.74691769	-1.6025811	-0.56223499	1.602575	0.5622519	-0.31583579	2.5840693	0.028332996	0.25808381	0.061357897	0.18859801	0.38296276	0.18859771	0.38296715	0.021948414	0.3542431	0.037353911	4.2499882	5.3670238	5.1491873	4.9977701	5.1491865	4.9977832	4.3695131	6.2296301	5.2516697	2.7381206	3.3534365	5.2753185	3.3534175	5.2753519	3.697257	3.1303901	-73.459889	R0:S0:1	-56.621379	uncorrelated	51514b8	2022-04-17@17:31
2x2_2C_8b_C2v_L	5.0127614	0	14	2.4798966	0.0060228733	-3.166684	-3.9048981	-0.12432372	-3.904875	-0.12432359	0.16502214	-3.5406547	9.5431034	1.2902769e-05	-3.1794247e-07	0.0090722492	-0.18484919	0.0090727583	-0.18484799	-8.223667e-07	-6.949101e-07	-0.11678496	-1.0821662	1.7167364	0.03642689	-1.7167325	-0.036427623	0.25439816	-2.2709433	2.0688	1	0.20771724	0.012715819	1.2535372	1.611146	-0.60662779	-0.19990472	0.082680024	0.130723	0.28667536	1.9371084	1.7931797	1.5373433	1.7931781	1.5373442	0.021392742	1.5372358	1.0988776	-0.0001213919	1.406869e-06	0.11549073	1.2388417	0.11549042	1.2388286	3.4076896e-06	2.6645974e-07	1.2268305	0.7454973	-1.5986759	-0.56387941	1.5986816	0.56388833	-0.31464125	2.5789718	0.028372666	0.25530748	0.061036546	0.187807	0.38113574	0.18780827	0.38113606	0.021656967	0.35356355	0.037263344	4.234124	5.3688121	5.1492569	5.001165	5.1492619	5.0011716	4.365463	6.2237819	5.2531672	2.7382526	3.3544411	5.2637372	3.354445	5.2637236	3.7005352	3.1358273	-73.457436	R0:S0:1	-56.505655	uncorrelated	51514b8	2022-04-17@17:39
2x2_2C_8b_C2v_L	5.1498967	0	14	2.5098793	0.0057735298	-3.1674329	-3.9022571	-0.12339016	-3.9022437	-0.1233904	0.1636523	-3.5309746	9.5586207	1.7487502e-05	8.0671515e-07	0.0092201751	-0.18405739	0.0092215258	-0.18405706	-9.679789e-07	3.0736542e-06	-0.11647389	-1.0809891	1.7141684	0.037313855	-1.714165	-0.037319295	0.25327072	-2.2660043	2.0636	1	0.20900345	0.012880886	1.2538733	1.6118271	-0.60500685	-0.19915356	0.082330112	0.13093745	0.28239696	1.9375256	1.7943684	1.54149	1.7943674	1.5414944	0.021061763	1.5391887	1.0995859	-0.00016500989	1.674581e-06	0.11454754	1.2310605	0.11454612	1.2310442	8.4822511e-07	-5.4745143e-06	1.2199766	0.74361434	-1.5944173	-0.56468056	1.5944212	0.56470724	-0.31325732	2.5732101	0.028412831	0.25196639	0.060655017	0.18688403	0.37864347	0.18688492	0.37863967	0.021310968	0.35276271	0.037165993	4.2132403	5.371664	5.1496706	5.0028819	5.1496747	5.0028956	4.3612799	6.216843	5.2543116	2.7381426	3.356642	5.2489585	3.3566458	5.248936	3.7039719	3.1420089	-73.476476	R0:S0:1	-56.389931	uncorrelated	51514b8	2022-04-17@17:46
2x2_2C_8b_C2v_L	5.2841891	0	14	2.5398621	0.0053460158	-3.168625	-3.893933	-0.12173723	-3.893931	-0.12173752	0.1626072	-3.5228703	9.5741379	9.5703513e-06	2.0455799e-06	0.0093583892	-0.18277582	0.0093585178	-0.18277541	-1.5444063e-06	-1.8776801e-06	-0.11617008	-1.0799921	1.710385	0.038413723	-1.7103833	-0.038414968	0.25224413	-2.2616513	2.0584	1	0.21028966	0.013055841	1.2541317	1.6124117	-0.60365534	-0.19861805	0.08206326	0.13113579	0.28119025	1.9377173	1.795296	1.5406956	1.7952961	1.5406957	0.020912505	1.5404618	1.100193	-9.0215005e-05	-5.4302938e-06	0.11390126	1.2269821	0.11390077	1.2269785	9.831106e-06	4.2819662e-06	1.2162334	0.74329585	-1.5906462	-0.5685814	1.5906456	0.5685873	-0.31251009	2.5691383	0.028449657	0.25060472	0.060474706	0.18613007	0.3785054	0.18612996	0.3785049	0.021148486	0.35225254	0.037089913	4.2092309	5.37095	5.1478918	5.0103614	5.1478915	5.0103669	4.3572833	6.2127246	5.2571576	2.7388374	3.3550095	5.2455744	3.3550105	5.2455714	3.7070774	3.1459899	-73.473154	R0:S0:1	-56.274207	uncorrelated	51514b8	2022-04-17@17:54
2x2_2C_8b_C2v_L	5.4211245	0	14	2.5698448	0.004972881	-3.1691812	-3.8898603	-0.12072974	-3.8898553	-0.12073006	0.16129881	-3.5125232	9.5896552	1.8160575e-05	4.0444891e-07	0.0094837867	-0.1818205	0.0094838965	-0.18182031	-3.3745883e-06	-5.741777e-06	-0.11584625	-1.0788177	1.7075346	0.039291681	-1.7075335	-0.039295977	0.25100673	-2.2565775	2.0532	1	0.21157586	0.013187505	1.2544627	1.6130871	-0.6020559	-0.19788206	0.08172108	0.13134815	0.27728703	1.9380985	1.7964199	1.5447736	1.796419	1.5447727	0.020589875	1.5422954	1.1008861	-0.00017179904	-3.0428192e-06	0.1130084	1.2190051	0.11300541	1.2189895	2.2213059e-05	1.017246e-05	1.209671	0.74162743	-1.5865528	-0.56937241	1.5865581	0.56939294	-0.31102867	2.5636545	0.028489374	0.24756891	0.060125886	0.18525507	0.37597504	0.18525579	0.37597553	0.020812415	0.35149277	0.036995415	4.1899565	5.3734837	5.1484094	5.0125281	5.1484103	5.0125414	4.3530771	6.206322	5.2581558	2.7388621	3.3569756	5.2312243	3.3569821	5.2312142	3.7105124	3.1517436	-73.48389	R0:S0:1	-56.158483	uncorrelated	51514b8	2022-04-17@18:02
2x2_2C_8b_C2v_L	5.5571528	0	14	2.5998276	0.0045270161	-3.1697419	-3.8860503	-0.11963869	-3.8860488	-0.11963985	0.16001073	-3.5021958	9.6051724	3.7727634e-05	-1.3855129e-06	0.0096555619	-0.18086256	0.0096579145	-0.18086301	-7.6122886e-06	-6.1862479e-06	-0.11552824	-1.0776103	1.7047096	0.040284812	-1.704708	-0.04029756	0.24982112	-2.2514935	2.048	1	0.21286207	0.01254953	1.2547693	1.6137266	-0.60054736	-0.19720642	0.081403753	0.13155314	0.27438666	1.9384171	1.797514	1.5473459	1.7975127	1.5473461	0.020320973	1.5439226	1.1015419	-0.00035948908	2.3754258e-06	0.11210141	1.2123338	0.11209253	1.212301	4.4896789e-05	1.1669351e-05	1.204007	0.7403927	-1.5825326	-0.57121676	1.5825416	0.57127386	-0.3097604	2.5586322	0.028527622	0.2452222	0.059832784	0.18439077	0.37414603	0.18439187	0.37414411	0.020530836	0.35082037	0.036907988	4.175857	5.3749409	5.1481192	5.0162904	5.14812	5.0163226	4.3488336	6.200779	5.2596976	2.7391405	3.3578521	5.2204828	3.3578641	5.2204578	3.7139396	3.1568293	-73.495632	R0:S0:1	-56.042759	uncorrelated	51514b8	2022-04-17@18:10
2x2_2C_8b_C2v_L	5.6924089	0	14	2.6298103	0.0041318876	-3.1710574	-3.8792718	-0.11819993	-3.8792794	-0.11820516	0.15870449	-3.4936367	9.6206897	2.80089e-05	-6.6873813e-07	0.009769079	-0.17970708	0.0097706072	-0.17970759	-6.5529094e-06	-4.2244236e-06	-0.11522643	-1.0765587	1.7012955	0.04121123	-1.7012949	-0.041220942	0.24866032	-2.2469812	2.0428	1	0.21414828	0.013439237	1.2550552	1.6143403	-0.59911418	-0.19658641	0.081109229	0.13175855	0.27206217	1.9386913	1.7984823	1.5484501	1.7984816	1.5484584	0.020107018	1.5454347	1.1021729	-0.0002677858	-3.6615393e-07	0.11127594	1.2066448	0.1112722	1.2066091	3.7663475e-05	8.2149455e-06	1.1989733	0.7394768	-1.5787889	-0.57338238	1.5787958	0.57342908	-0.30865263	2.554056	0.028565834	0.24317941	0.059579001	0.18361658	0.37313514	0.18361726	0.37312827	0.020305326	0.35019237	0.036827346	4.1652334	5.3756816	5.1474743	5.0214032	5.1474752	5.0214274	4.3448458	6.1956829	5.2617919	2.7394912	3.3576995	5.2129083	3.3577143	5.2128721	3.7170903	3.1612891	-73.499092	R0:S0:1	-55.927034	uncorrelated	51514b8	2022-04-17@18:18
2x2_2C_8b_C2v_L	5.8279008	0	14	2.6597931	0.0036218601	-3.171618	-3.8708869	-0.11678727	-3.8708828	-0.11679002	0.15747966	-3.4841894	9.6362069	7.6195104e-05	-1.3813644e-06	0.0098407456	-0.17847814	0.0098433108	-0.17848057	-3.0386217e-06	9.4351845e-06	-0.11487966	-1.0754058	1.6975125	0.042048033	-1.6975113	-0.042060551	0.24742568	-2.2421966	2.0376	1	0.21543448	0.013533779	1.2553487	1.6149567	-0.59766285	-0.19594533	0.080807996	0.13196051	0.26974339	1.938958	1.7994353	1.5501957	1.7994352	1.5501962	0.019887163	1.5469715	1.1028089	-0.00073754156	1.4508201e-05	0.11048093	1.2002509	0.1104755	1.200255	2.1236723e-06	-1.8489042e-05	1.1936942	0.7385826	-1.5750544	-0.57486007	1.5750505	0.57491049	-0.30745897	2.5493727	0.028603418	0.24123877	0.059332692	0.18285795	0.37176614	0.18285789	0.3717596	0.02007475	0.34954795	0.036743516	4.154062	5.3765115	5.1471973	5.02607	5.147199	5.0260941	4.3408001	6.1905218	5.2636844	2.7399635	3.3578821	5.2041216	3.3578702	5.2041161	3.7203317	3.1658724	-73.491797	R0:S0:1	-55.81131	uncorrelated	51514b8	2022-04-17@18:25
2x2_2C_8b_C2v_L	5.9640737	0	14	2.6897759	0.0032278615	-3.1723426	-3.8647492	-0.11559666	-3.8647375	-0.11559704	0.15605623	-3.4742434	9.6517241	5.0387325e-05	8.2671676e-06	0.0099261004	-0.17746377	0.0099268842	-0.17746544	-3.611241e-06	-8.4125382e-06	-0.114567	-1.0741908	1.6942084	0.042738933	-1.6942061	-0.042740156	0.24620317	-2.2372028	2.0324	1	0.21672069	0.013601555	1.2556624	1.6155847	-0.5961586	-0.19523545	0.080482935	0.13216589	0.26659254	1.9392924	1.8004709	1.5532731	1.8004723	1.5532611	0.019628147	1.5487188	1.1034669	-0.0004883073	-2.0913576e-05	0.10948804	1.1929527	0.10948415	1.1929822	2.5417235e-05	1.7394592e-05	1.1874638	0.73722314	-1.5711873	-0.57495371	1.5711778	0.57494941	-0.30613036	2.5441909	0.028641725	0.23875161	0.059025778	0.18204312	0.36981524	0.18204181	0.3698201	0.019805651	0.34880454	0.036654573	4.138134	5.3783722	5.1476104	5.0286447	5.1476063	5.0286494	4.3367232	6.1845183	5.2651407	2.7402118	3.3592035	5.1922315	3.3591873	5.1922668	3.7236735	3.1710147	-73.494186	R0:S0:1	-55.695586	uncorrelated	51514b8	2022-04-17@18:33
2x2_2C_8b_C2v_L	6.1002752	0	14	2.7197586	0.0027759321	-3.1728597	-3.8611997	-0.11447537	-3.8611904	-0.11447644	0.15461053	-3.4634417	9.6672414	4.3789127e-05	4.4231809e-09	0.010032713	-0.17644602	0.010033606	-0.17644667	7.7358114e-07	5.132914e-06	-0.11423268	-1.073002	1.6914547	0.043597552	-1.6914528	-0.043601707	0.24489575	-2.2319701	2.0272	1	0.2180069	0.01367825	1.2559753	1.6162209	-0.59464747	-0.19453063	0.080159794	0.13236974	0.26354405	1.9396112	1.8015517	1.5562795	1.8015516	1.5562808	0.019353352	1.5503858	1.1041147	-0.00042801988	5.9116493e-06	0.10855433	1.1856653	0.10855344	1.1856691	-1.2434463e-05	-1.1038511e-05	1.1813574	0.73595665	-1.567268	-0.57585729	1.5672654	0.57587452	-0.30469702	2.5391152	0.028679728	0.23632637	0.058732946	0.18118866	0.36779075	0.18118872	0.36778738	0.01952052	0.34809468	0.036567743	4.1227988	5.3801063	5.1477234	5.0317429	5.1477258	5.0317514	4.3324691	6.1788739	5.2665363	2.7404764	3.3604221	5.1806187	3.3604149	5.1806144	3.7271293	3.1759641	-73.505775	R0:S0:1	-55.579862	uncorrelated	51514b8	2022-04-17@18:41
2x2_2C_8b_C2v_L	6.2363062	0	14	2.7497414	0.0021539566	-3.1738244	-3.8565676	-0.11325368	-3.8565586	-0.1132547	0.15333034	-3.4549455	9.6827586	4.2977332e-05	5.0333725e-07	0.010129908	-0.17533089	0.010130071	-0.17533138	-7.3422363e-07	7.895502e-07	-0.11389986	-1.0719066	1.6884891	0.044500624	-1.6884864	-0.044503828	0.24367096	-2.2274821	2.022	1	0.2192931	0.013751528	1.2562823	1.6168604	-0.5931483	-0.19384654	0.079845661	0.13257669	0.26106431	1.9398935	1.802597	1.5587554	1.8025973	1.5587549	0.019119296	1.5520609	1.1047507	-0.00042394232	1.2984919e-06	0.10767425	1.178679	0.10767322	1.1786838	6.606572e-07	-2.4780025e-06	1.1757476	0.73491402	-1.563387	-0.57713964	1.5633834	0.57715159	-0.30341777	2.5342387	0.02871815	0.2343495	0.058472893	0.18035732	0.36597924	0.18035707	0.36597749	0.019277018	0.34737406	0.036485042	4.1099664	5.3814395	5.1476569	5.0356799	5.1476578	5.0356876	4.3285144	6.1731779	5.2681691	2.7407814	3.3611124	5.1702565	3.3611062	5.1702571	3.7303122	3.1805783	-73.518849	R0:S0:1	-55.464138	uncorrelated	51514b8	2022-04-17@18:49
2x2_2C_8b_C2v_L	6.3724821	0	14	2.7797241	0.0017388672	-3.1749918	-3.8509989	-0.1120182	-3.8509904	-0.11201748	0.15179009	-3.4446699	9.6982759	3.7401621e-05	-6.080863e-08	0.010187444	-0.17428498	0.010185983	-0.17428437	1.7005399e-06	5.416775e-06	-0.11357315	-1.0707368	1.685302	0.045113442	-1.6853009	-0.045115381	0.24235556	-2.2223882	2.0168	1	0.22057931	0.013787142	1.2565969	1.617482	-0.59165402	-0.19312493	0.079521297	0.13277904	0.25802531	1.9402222	1.8036311	1.5617459	1.80363	1.56175	0.018862245	1.5537929	1.105395	-0.00037114333	4.6672616e-06	0.10664092	1.1713143	0.10664368	1.1713044	-1.6084816e-05	-1.1090774e-05	1.1693795	0.73359704	-1.5595672	-0.57678627	1.5595709	0.57679775	-0.30198797	2.5291153	0.028755847	0.23194671	0.058170835	0.17953975	0.3640804	0.17954068	0.36407755	0.01901123	0.34662188	0.036397762	4.0943523	5.3832391	5.1481027	5.0381382	5.1481068	5.0381427	4.3243991	6.1672954	5.2697215	2.7410672	3.3624099	5.1586781	3.3624119	5.1586621	3.7336688	3.1854872	-73.523693	R0:S0:1	-55.348414	uncorrelated	51514b8	2022-04-17@18:57
2x2_2C_8b_C2v_L	6.5066843	0	14	2.8097069	0.0011607415	-3.1761651	-3.8428832	-0.10999019	-3.8428768	-0.10998884	0.14981837	-3.4352482	9.7137931	3.2529473e-05	1.5897248e-06	0.010184203	-0.17267166	0.010183529	-0.17267163	-3.1942207e-06	-9.2705495e-06	-0.11318817	-1.0696045	1.6816684	0.045898021	-1.6816675	-0.045896636	0.24060857	-2.2177522	2.0116	1	0.22186552	0.013846522	1.256855	1.6180558	-0.59032961	-0.19257698	0.079258682	0.13297536	0.25679436	1.940426	1.8044675	1.560806	1.8044677	1.5607967	0.018673238	1.5549429	1.1059722	-0.00032606778	-8.6340991e-06	0.10583415	1.1665659	0.10583155	1.1665753	2.5722183e-05	1.7176712e-05	1.1650272	0.73315859	-1.5562176	-0.57915932	1.5562168	0.57915073	-0.30047441	2.5253984	0.028792162	0.2306566	0.057978713	0.17884977	0.3641532	0.17884952	0.36415981	0.018812957	0.34613272	0.036326841	4.089411	5.3826957	5.1466828	5.045973	5.1466802	5.0459737	4.3202113	6.1637254	5.2726857	2.741607	3.3607382	5.1565194	3.3607355	5.156541	3.7367485	3.1886158	-73.516818	R0:S0:1	-55.23269	uncorrelated	51514b8	2022-04-17@19:09
2x2_2C_8b_C2v_L	6.6435733	0	14	2.8396897	0.00043547581	-3.1761694	-3.8340013	-0.10932798	-3.833999	-0.10932689	0.14920244	-3.4258917	9.7293103	2.8542295e-05	5.3415492e-07	0.010267778	-0.1717904	0.010267387	-0.17178972	-1.165996e-06	-3.7846536e-06	-0.11289659	-1.0683028	1.6777814	0.046561631	-1.6777814	-0.046562987	0.23974344	-2.2128475	2.0064	1	0.22315172	0.013856665	1.2571913	1.6186989	-0.58877929	-0.19179139	0.078912548	0.13318544	0.25350211	1.9407494	1.8054685	1.5664199	1.8054675	1.5664194	0.01842667	1.5569481	1.1066355	-0.00028994063	-3.3954617e-06	0.10494794	1.1571682	0.10494699	1.157154	9.9247445e-06	6.9603524e-06	1.1584271	0.73172758	-1.5524489	-0.5778822	1.5524551	0.57789028	-0.29931766	2.5198252	0.028831317	0.22834957	0.057684723	0.17807683	0.36069484	0.17807764	0.36069637	0.018560275	0.34524382	0.036237089	4.0706701	5.3854473	5.1486886	5.0457429	5.1486891	5.0457478	4.3165582	6.1567644	5.2728554	2.7419286	3.3634917	5.1388574	3.3634996	5.1388496	3.7399956	3.1940172	-73.509703	R0:S0:1	-55.116966	uncorrelated	51514b8	2022-04-17@19:17
2x2_2C_8b_C2v_L	6.779288	0	14	2.8696724	-1.6921569e-06	-3.1765262	-3.8308128	-0.10792855	-3.8308091	-0.10792624	0.14735261	-3.4152463	9.7448276	2.8342129e-05	3.7499068e-07	0.010307126	-0.17069456	0.010306855	-0.17069399	-2.3914768e-06	-7.6590611e-06	-0.11259653	-1.0670801	1.6750263	0.047190471	-1.6750256	-0.047187977	0.23831669	-2.207589	2.0012	1	0.22443793	0.013876514	1.2574931	1.6192981	-0.58733526	-0.19109654	0.078601718	0.13337635	0.25127294	1.9410087	1.8065481	1.5681885	1.8065483	1.5681799	0.01820265	1.5585476	1.1072448	-0.000290182	-5.5678251e-06	0.10387106	1.1506203	0.10386855	1.1506282	2.0804828e-05	1.4359538e-05	1.1527775	0.73086691	-1.5485268	-0.57797991	1.5485266	0.57796806	-0.29793424	2.5149505	0.028866772	0.22649602	0.05744522	0.17720917	0.35941441	0.17720896	0.35942133	0.018328324	0.34453883	0.036153914	4.0594014	5.3862863	5.1483199	5.0497135	5.1483171	5.0497121	4.3122723	6.1514627	5.2747895	2.7424881	3.3639817	5.1303728	3.3639806	5.1303931	3.743451	3.1984204	-73.521494	R0:S0:1	-55.001241	uncorrelated	51514b8	2022-04-17@19:25
2x2_2C_8b_C2v_L	6.9144474	0	14	2.8996552	-0.00074617855	-3.1768454	-3.8228912	-0.10667436	-3.8228982	-0.10667696	0.14590613	-3.404606	9.7603448	2.6766431e-05	-2.2140776e-08	0.010363243	-0.16941491	0.010363619	-0.1694157	1.0009101e-06	3.1637971e-06	-0.11226537	-1.0658432	1.6714348	0.048036767	-1.671436	-0.048038153	0.23681957	-2.2024925	1.996	1	0.22572414	0.013905349	1.2577799	1.6198972	-0.58593775	-0.19045669	0.078309049	0.13358044	0.24922862	1.941248	1.8074191	1.5704956	1.8074193	1.5705015	0.0179654	1.5599487	1.1078445	-0.00027846756	1.4470222e-06	0.10311142	1.1434979	0.1031128	1.1434939	-8.3826835e-06	-5.7242492e-06	1.1477495	0.73005787	-1.5451868	-0.57918198	1.5451861	0.57918762	-0.29635844	2.5106757	0.028904644	0.22487109	0.057224184	0.17651324	0.35763497	0.1765131	0.35763019	0.018084173	0.34392457	0.036079704	4.0486834	5.3872235	5.1486141	5.0538968	5.1486147	5.0538962	4.3082326	6.1469587	5.2760474	2.7429182	3.3643823	5.1207953	3.3643834	5.1207838	3.7466583	3.2021677	-73.514333	R0:S0:1	-54.885517	uncorrelated	51514b8	2022-04-17@19:33
2x2_2C_8b_C2v_L	7.0504925	0	14	2.9296379	-0.0013013922	-3.1773648	-3.8182337	-0.10537008	-3.8182369	-0.10537021	0.14425013	-3.393855	9.7758621	2.7920495e-05	-3.3835529e-07	0.010381965	-0.16832483	0.010382302	-0.168325	1.224844e-06	2.714026e-06	-0.11193299	-1.0645948	1.6684035	0.048521085	-1.6684042	-0.048521452	0.2354012	-2.197201	1.9908	1	0.22701034	0.01389473	1.2580922	1.6205014	-0.58447255	-0.18972678	0.077988579	0.13377318	0.24683935	1.9415239	1.8084685	1.5731502	1.8084685	1.573153	0.017734787	1.5616399	1.1084596	-0.00029377018	1.8592474e-06	0.10200236	1.1361808	0.10200298	1.1361778	-8.2346336e-06	-4.5256192e-06	1.141643	0.72906206	-1.5413554	-0.57817387	1.5413558	0.57817538	-0.2949019	2.5056542	0.028940444	0.22300977	0.056970163	0.17567489	0.3558974	0.17567494	0.35589547	0.017846891	0.34316643	0.035995137	4.0357847	5.388478	5.1489096	5.0566072	5.1489101	5.0566058	4.3040453	6.141338	5.2777694	2.7434579	3.3654168	5.1103601	3.3654183	5.1103536	3.7500856	3.2066877	-73.520289	R0:S0:1	-54.769793	uncorrelated	51514b8	2022-04-17@19:42
2x2_2C_8b_C2v_L	7.1858623	0	14	2.9596207	-0.0020486816	-3.1780055	-3.8093923	-0.10407356	-3.8093876	-0.10407186	0.14280736	-3.3846038	9.7913793	2.1450229e-05	4.0280518e-06	0.010388681	-0.16706686	0.010388484	-0.16706625	3.8955036e-06	7.5227826e-06	-0.1116123	-1.0633458	1.6645969	0.049185043	-1.6645962	-0.049182777	0.23401719	-2.1924692	1.9856	1	0.22829655	0.013897629	1.2583865	1.621096	-0.58306822	-0.18905486	0.077687149	0.13397723	0.24473551	1.9417749	1.8093448	1.5756995	1.8093446	1.5757045	0.017520685	1.563204	1.1090615	-0.00022941886	-5.344124e-06	0.10118993	1.1287886	0.10119412	1.1287885	-2.5822829e-05	-1.1101529e-05	1.1362684	0.7281637	-1.5379775	-0.57828849	1.537977	0.57827947	-0.29344733	2.5011601	0.028978261	0.22137823	0.056738638	0.17497605	0.35407409	0.17497624	0.35407124	0.017627032	0.34246386	0.035919366	4.0242529	5.3896382	5.1495196	5.0599819	5.1495223	5.0599752	4.3002413	6.1361796	5.2791417	2.7438616	3.3660747	5.1000758	3.3660744	5.1000652	3.7531506	3.2105744	-73.512685	R0:S0:1	-54.654069	uncorrelated	51514b8	2022-04-17@19:51
2x2_2C_8b_C2v_L	7.3215355	0	14	2.9896034	-0.0026674764	-3.1786283	-3.8026948	-0.10279561	-3.8026938	-0.10279479	0.14106507	-3.3738731	9.8068966	2.5936567e-05	1.2719155e-07	0.01038164	-0.16590914	0.010380694	-0.16590907	3.4356784e-06	4.429805e-06	-0.11128597	-1.0621355	1.6611856	0.049707674	-1.661186	-0.04970424	0.23251826	-2.1872042	1.9804	1	0.22958276	0.013882692	1.2586899	1.621688	-0.58164442	-0.18834739	0.07737601	0.13417307	0.24246378	1.9420335	1.8102993	1.5784139	1.8102994	1.5784168	0.01729035	1.5648136	1.1096635	-0.0002815385	1.1782478e-06	0.10024444	1.1213197	0.10024807	1.1213256	-2.1126531e-05	-7.6853604e-06	1.1304693	0.72725117	-1.5344255	-0.5775457	1.5344241	0.57753088	-0.29188438	2.4964066	0.029014617	0.21961166	0.056500463	0.17421402	0.3522478	0.17421395	0.35224639	0.017390963	0.34173545	0.035839733	4.0119233	5.3908578	5.1500828	5.0627151	5.1500843	5.0627051	4.2961632	6.1309094	5.280597	2.7443812	3.3670289	5.0894803	3.367027	5.0894789	3.7564668	3.2147234	-73.51056	R0:S0:1	-54.538345	uncorrelated	51514b8	2022-04-17@20:00
2x2_2C_8b_C2v_L	7.4573017	0	14	3.0195862	-0.0033516139	-3.179277	-3.7968617	-0.10148765	-3.7968543	-0.10148625	0.13935809	-3.3638177	9.8224138	1.6275238e-05	-2.625286e-07	0.010408632	-0.16471107	0.010408442	-0.16471069	6.1921451e-07	1.5600297e-06	-0.11096831	-1.0608605	1.6579395	0.050272049	-1.6579376	-0.050270659	0.2310224	-2.1821806	1.9752	1	0.23086897	0.013862101	1.2589953	1.6222852	-0.58021231	-0.18763376	0.077062708	0.13436969	0.24024499	1.9422959	1.8112797	1.5810701	1.8112798	1.5810703	0.017060793	1.5664464	1.1102629	-0.00017987874	4.5466673e-07	0.099199094	1.1137555	0.099199948	1.1137582	-2.7391923e-06	-1.641733e-06	1.1247153	0.72629793	-1.5308102	-0.57694969	1.5308086	0.57694293	-0.29029804	2.4916848	0.029051046	0.21788365	0.056258425	0.17342877	0.35041942	0.17342864	0.35041966	0.017155859	0.34099032	0.035760666	3.9997654	5.3920741	5.1505559	5.0657042	5.1505567	5.0657008	4.2921696	6.1255391	5.2820945	2.7448258	3.3679254	5.0790647	3.3679244	5.0790648	3.7596825	3.2187636	-73.513661	R0:S0:1	-54.422621	uncorrelated	51514b8	2022-04-17@20:09
2x2_2C_8b_C2v_L	7.5906621	0	14	3.049569	-0.0040529272	-3.1819512	-3.7859955	-0.09912122	-3.7860137	-0.099125739	0.13690902	-3.3536805	9.837931	-8.932548e-06	-5.2461348e-07	0.010282684	-0.16288088	0.01028341	-0.16288216	-4.2586491e-06	-2.7337169e-06	-0.11061794	-1.0599023	1.6537369	0.050726841	-1.6537405	-0.05073009	0.22901281	-2.1772921	1.97	1	0.23215517	0.013849284	1.2592338	1.6228098	-0.5789915	-0.18712087	0.076821992	0.13455312	0.24003027	1.9424331	1.8120051	1.5789061	1.8120053	1.5789082	0.016917525	1.5674213	1.1107894	9.9959359e-05	-8.8031448e-07	0.098341947	1.1094583	0.09834035	1.1094498	2.5345778e-05	5.6194385e-06	1.121235	0.72636649	-1.5277695	-0.57832109	1.5277716	0.57833473	-0.28869456	2.4883674	0.029084831	0.21741628	0.056126423	0.17281459	0.35127504	0.17281448	0.35127267	0.017006213	0.3405578	0.035697138	3.9998629	5.3904122	5.1489254	5.0749952	5.1489226	5.0749996	4.2878503	6.1227033	5.2851786	2.7458241	3.3653617	5.080566	3.3653669	5.0805622	3.7628477	3.2210187	-73.495114	R0:S0:1	-54.306897	uncorrelated	51514b8	2022-04-17@20:23
2x2_2C_8b_C2v_L	7.7288539	0	14	3.0795517	-0.0047509521	-3.1818754	-3.7809048	-0.098799504	-3.7809128	-0.09880074	0.13615504	-3.3436259	9.8534483	-1.6065245e-05	1.4815127e-05	0.010327817	-0.16220519	0.010327984	-0.16220603	-2.1488328e-06	-3.4254905e-07	-0.11032417	-1.0585601	1.6506361	0.051108796	-1.6506382	-0.051112189	0.22806368	-2.1720839	1.9648	1	0.23344138	0.013787832	1.2596093	1.6234698	-0.57736182	-0.18618977	0.076434746	0.134764	0.23583308	1.9428107	1.8131251	1.5868828	1.8131248	1.5868872	0.016619578	1.5697515	1.1114582	0.00018285819	-3.3189701e-05	0.097298021	1.0980467	0.097300163	1.0980333	1.4204786e-05	8.2678695e-06	1.113054	0.72447672	-1.5238687	-0.5742929	1.5238725	0.5743044	-0.28715232	2.4822228	0.029124129	0.21450346	0.055784149	0.17195531	0.34655698	0.1719556	0.34655358	0.016705084	0.33946504	0.035603622	3.9752042	5.3946101	5.1522519	5.0705315	5.1522513	5.070536	4.2843193	6.1147276	5.2848881	2.7458607	3.3699769	5.056938	3.3699844	5.0569229	3.7660738	3.2267905	-73.503799	R0:S0:1	-54.191172	uncorrelated	51514b8	2022-04-17@20:31
2x2_2C_8b_C2v_L	7.8629537	0	14	3.1095345	-0.0056186834	-3.1820983	-3.7741745	-0.097360427	-3.7741728	-0.097360125	0.13409416	-3.3324715	9.8689655	-4.7090506e-06	-6.8368249e-06	0.010351898	-0.16088733	0.010351883	-0.16088744	-1.6818079e-06	-6.1456562e-06	-0.11004958	-1.0572341	1.6471889	0.05189683	-1.6471884	-0.051896425	0.22636621	-2.1667211	1.9596	1	0.23472759	0.01378148	1.2598691	1.6240154	-0.57608559	-0.1856038	0.076170446	0.13494978	0.23511109	1.942965	1.8139766	1.5874142	1.8139769	1.5874064	0.016435324	1.5709235	1.1119924	5.5644413e-05	1.2800896e-05	0.096474068	1.092132	0.096470078	1.0921431	1.1609736e-05	6.2992325e-06	1.1092762	0.72425708	-1.5206258	-0.57580045	1.5206236	0.57579864	-0.2855842	2.4784486	0.029158434	0.2138831	0.055639392	0.17125575	0.34573979	0.1712554	0.34574507	0.016515973	0.33893462	0.035538637	3.9712408	5.3941128	5.1516405	5.0767185	5.1516385	5.0767217	4.2801131	6.111179	5.286622	2.7467236	3.3691858	5.0521223	3.3691803	5.0521424	3.7693618	3.2295617	-73.499419	R0:S0:1	-54.075448	uncorrelated	51514b8	2022-04-17@20:40
