model	E_kin	D	U	e	eb1_1	eb2_1	eb3_1	eb4_1	eb5_1	eb6_1	eb7_1	eb8_1	mu	sb1_1	sb2_1	sb3_1	sb4_1	sb5_1	sb6_1	sb7_1	sb8_1	tb1_1	tb2_1	tb3_1	tb4_1	tb5_1	tb6_1	tb7_1	tb8_1	tpd	tpp	tppp	ave_D	ave_e	ave_mu	ave_tpd	ave_tpp	ave_tppp	ave_D_1	ave_U_1	ave_eb1_1	ave_eb2_1	ave_eb3_1	ave_eb4_1	ave_eb5_1	ave_eb6_1	ave_eb7_1	ave_eb8_1	ave_mu_1	ave_sb1_1	ave_sb2_1	ave_sb3_1	ave_sb4_1	ave_sb5_1	ave_sb6_1	ave_sb7_1	ave_sb8_1	ave_tb1_1	ave_tb2_1	ave_tb3_1	ave_tb4_1	ave_tb5_1	ave_tb6_1	ave_tb7_1	ave_tb8_1	var_D_1	var_U_1	var_eb1_1	var_eb2_1	var_eb3_1	var_eb4_1	var_eb5_1	var_eb6_1	var_eb7_1	var_eb8_1	var_mu_1	var_sb1_1	var_sb2_1	var_sb3_1	var_sb4_1	var_sb5_1	var_sb6_1	var_sb7_1	var_sb8_1	var_tb1_1	var_tb2_1	var_tb3_1	var_tb4_1	var_tb5_1	var_tb6_1	var_tb7_1	var_tb8_1	E0_1	sector_1	E0_2	sector_2	githash	time
2x2_2C_8b_C2v_L	6.8831451	0.1	14	2.05	-0.062374117	-5.4912062	-6.0821831	-0.033134051	-6.0821746	-0.033150531	0.041747861	-5.4149247	9.5	-0.00011229108	6.8830714e-05	0.0021131433	-0.00050337763	0.0021138699	-0.00053855809	-0.0080588305	-1.2308532e-05	0.0014545742	-0.82043547	1.2396861	0.0059453871	-1.2396856	-0.0059464195	-0.00021968537	-1.542641	1.28	0.673	0.15	-0.021232122	1.3163537	1.666497	-0.29596007	-0.038285195	0.017164658	-0.047015966	0.052128503	1.9999997	1.9800038	1.9526558	1.9999948	1.9526569	1.9999948	1.0770798e-05	1.9087242	1.0516027	0.00019116946	-6.0564749e-05	-0.047131807	9.6022037e-05	-0.047131817	0.0001422983	0.01331011	2.559706e-05	-0.0018771835	0.52409089	-0.84910383	-0.0088922968	0.84908803	0.0088902355	0.00021222652	1.2263324	0.70457593	0.012451106	2.5942198e-07	0.019934287	0.046803505	5.2323999e-06	0.046802454	5.2340483e-06	1.0771864e-05	0.088606073	0.012434291	4.5654075	4.7098754	4.5422234	4.1902075	4.5422662	4.1902608	4.1201678	4.5623807	3.4345948	3.4662742	3.8223789	3.8098332	3.8223334	3.8097799	3.8799015	4.0216643	-86.706259	R0:S0:1	-59.6	uncorrelated	51514b8	2022-04-08@16:49
2x2_2C_8b_C2v_L	6.8828204	0.1	14	2.05	-0.062683487	-5.7312866	-6.373184	-0.033765948	-6.3731991	-0.03379227	0.046420942	-5.9066191	10	-4.8788587e-05	6.9800435e-07	0.0022019001	7.4686836e-06	0.0022018731	1.0560313e-05	0.0040400548	9.8276586e-06	-0.00074459923	-0.8076553	1.2215409	-8.4881683e-05	-1.2215426	0.00010642907	2.4564991e-06	-1.542174	1.28	0.673	0.15	-0.02190979	1.3163522	1.666492	-0.29598773	-0.038288493	0.017166276	-0.04859574	0.052512747	1.9999999	1.9796606	1.9522484	2	1.9522481	2	3.332194e-06	1.90864	1.0520031	7.4281278e-05	1.7363603e-06	-0.047210545	-4.4959865e-07	-0.047210292	-1.9927074e-06	-0.0074067148	-7.2007776e-06	0.0010598972	0.52845414	-0.85249489	0.00014090729	0.85249853	-0.00017655749	-2.2342444e-06	1.2269266	0.70404138	0.012551777	8.2308436e-08	0.020275497	0.047200773	1.3746639e-09	0.047201017	2.1246551e-09	3.3322485e-06	0.088681145	0.012526038	4.5670105	4.7138627	4.5474116	4.1925525	4.547402	4.1925404	4.120051	4.5631481	3.4329902	3.4652876	3.8202827	3.8074475	3.820293	3.8074596	3.8799703	4.0213625	-91.32495	R0:S0:1	-63.6	uncorrelated	51514b8	2022-04-08@16:55
2x2_2C_8b_C2v_L	6.8829622	0.1	14	2.05	-0.062997682	-6.0975907	-6.812786	-0.03495932	-6.8127996	-0.034976718	0.05165555	-6.3929492	10.5	5.3988986e-06	9.490876e-06	0.0023027874	-4.9487249e-05	0.0023051062	-3.7385649e-05	-0.00096527943	-3.6448283e-05	0.00013816222	-0.80338546	1.2182339	0.00087186963	-1.2182314	-0.00072247337	0.00030904737	-1.5408132	1.28	0.673	0.15	-0.023016929	1.3163603	1.666572	-0.29588573	-0.038270584	0.017157132	-0.051144972	0.052811155	2	1.9793537	1.952012	1.9999998	1.9520134	1.9999999	2.4529111e-07	1.908607	1.0523169	-7.4377152e-06	-1.5520452e-05	-0.048435551	-4.1945847e-05	-0.048436928	-3.8735031e-05	0.0019872678	2.8719645e-05	-0.00021937266	0.53242262	-0.85441337	-0.0016273328	0.8543939	0.0013488433	-0.00026114106	1.2269934	0.70354541	0.012638922	3.611988e-09	0.020580414	0.047431103	1.7492731e-07	0.047429681	1.2019415e-07	2.4529739e-07	0.08871123	0.01260682	4.5671455	4.7161708	4.5507045	4.1943424	4.5507467	4.1943978	4.118814	4.564571	3.4328545	3.465618	3.8186984	3.8056589	3.8186511	3.8056031	3.8811875	4.0203989	-96.794703	R0:S0:1	-67.6	uncorrelated	51514b8	2022-04-08@17:04
2x2_2C_8b_C2v_L	6.8834071	0.1	14	2.05	-0.063320057	-6.5925116	-7.4022988	-0.036743389	-7.4022814	-0.036726222	0.058477375	-6.8739818	11	3.4153256e-06	4.378414e-06	0.0024115569	-9.5333549e-05	0.0024107771	-0.00011177741	-0.0023808959	-1.4764877e-05	-0.00026499314	-0.80824148	1.2277379	0.0015645887	-1.2277326	-0.0016122103	0.00017072665	-1.5391478	1.28	0.673	0.15	-0.024669376	1.3163764	1.6667115	-0.29568354	-0.0382341	0.017138864	-0.054928698	0.052972406	2	1.9790789	1.9521125	1.9999993	1.9521134	1.9999992	1.8954752e-06	1.9085661	1.0524937	-4.3172268e-06	-6.8740885e-06	-0.050887202	-0.0001047427	-0.050886805	-9.4202383e-05	0.0055831579	1.2116664e-05	0.00047578809	0.53604198	-0.85344513	-0.0033232916	0.85343351	0.0034226606	-0.00013553074	1.2269391	0.70319908	0.01270457	1.6442482e-08	0.020853179	0.047332516	7.2998604e-07	0.047331639	7.744811e-07	1.8954958e-06	0.088751069	0.012668011	4.5660911	4.7171069	4.550519	4.1951303	4.5505418	4.1951614	4.1164741	4.5670507	3.433909	3.467007	3.8180091	3.8048754	3.8179828	3.8048447	3.8835379	4.0186826	-103.12314	R0:S0:1	-71.6	uncorrelated	51514b8	2022-04-08@17:11
2x2_2C_8b_C2v_L	6.8840727	0.1	14	2.05	-0.063650623	-7.2162395	-8.1418942	-0.039118156	-8.141816	-0.039040783	0.066886593	-7.3497487	11.5	-5.19071e-05	-1.5140383e-05	0.0024300909	-0.00013031896	0.0024207904	-0.00021295744	-0.00022545621	6.505121e-05	-0.0018932211	-0.82178815	1.2496822	0.0019966284	-1.2496748	-0.0025669846	-0.00041261419	-1.5369455	1.28	0.673	0.15	-0.027071795	1.3164001	1.6669092	-0.29538558	-0.038180332	0.017111732	-0.060387215	0.053001397	1.9999989	1.9788688	1.9525671	1.9999984	1.9525651	1.9999974	3.0169955e-08	1.9085376	1.0525391	6.0572425e-05	2.4970323e-05	-0.054810332	-0.00019448204	-0.054806909	-0.00020722845	0.00061350764	-5.0236798e-05	0.0039115632	0.53891142	-0.84941076	-0.0049149898	0.84943895	0.0063122807	0.00030873003	1.2266598	0.70292869	0.012756359	1.1137507e-06	0.021061486	0.04688835	1.5993282e-06	0.046890254	2.6389962e-06	3.0170897e-08	0.088781311	0.012716851	4.5638109	4.7164067	4.5468512	4.1950812	4.5467771	4.1949935	4.1132288	4.5703018	3.4361991	3.4694533	3.8180824	3.8049314	3.8181611	3.8050272	3.8867714	4.0164031	-110.31028	R0:S0:1	-75.6	uncorrelated	51514b8	2022-04-08@17:14
2x2_2C_8b_C2v_L	6.8837059	0.1	14	2.05	-0.063989235	-7.9694933	-9.0319494	-0.042081861	-9.0317827	-0.041917584	0.076883204	-7.8199891	12	-0.00015362712	-3.5909452e-06	0.003311415	-0.00014719353	0.0033199427	-0.00033665113	0.0054972108	1.8378278e-05	-0.0040994257	-0.83629292	1.2769102	0.0022342585	-1.2768891	-0.0036499647	-0.0014988599	-1.5350308	1.28	0.673	0.15	-0.030729095	1.3164135	1.667025	-0.29522776	-0.038156371	0.017097492	-0.068824252	0.052734289	1.9999928	1.9791384	1.9537833	1.9999972	1.9537827	1.9999924	1.9432205e-05	1.9082897	1.0522821	0.00016540954	2.5343971e-06	-0.061421286	-0.00034373206	-0.061425464	-0.00047722641	-0.017832711	-1.0957651e-05	0.009964205	0.53550855	-0.83870114	-0.0065510597	0.83871111	0.010682609	0.001059385	1.2282438	0.70290384	0.012775329	7.2282743e-06	0.020793461	0.0457002	2.8471962e-06	0.045700772	7.5754308e-06	1.9441586e-05	0.089015198	0.012732892	4.5633034	4.7140593	4.5355591	4.1929896	4.5355228	4.1929724	4.1126271	4.5727448	3.4367615	3.4696246	3.8200685	3.8070328	3.8201017	3.8070873	3.8874946	4.0157728	-118.34379	R0:S0:1	-79.6	uncorrelated	51514b8	2022-04-08@17:18
2x2_2C_8b_C2v_L	6.8825551	0.1	14	2.05	-0.06437654	-8.8509536	-10.064127	-0.047894815	-10.063931	-0.048236489	0.08974255	-8.2788791	12.5	-0.0013255249	5.748121e-05	0.003500279	0.0041204888	0.0035472536	0.0037361949	0.0023754039	0.00015700821	-0.0057184166	-0.85526809	1.3075572	0.014558739	-1.3074876	-0.01463973	-0.014548569	-1.5320154	1.28	0.673	0.15	-0.036398395	1.3164239	1.6671453	-0.29510592	-0.038144814	0.017086634	-0.081823682	0.052447019	1.9999782	1.9796555	1.9557099	1.9997962	1.9557142	1.9997949	1.5293251e-05	1.9079356	1.0520025	0.0013564403	-2.7588827e-05	-0.071046325	-0.0081294791	-0.071063146	-0.0078420629	-0.0095416572	-6.8309855e-05	0.016922444	0.52883068	-0.8212689	-0.054409805	0.82122015	0.054582933	0.0097852836	1.2307016	0.70241228	0.012857088	2.1784906e-05	0.020279617	0.043817191	0.00020448114	0.043813014	0.00020560952	1.5509816e-05	0.089348851	0.012812545	4.5633725	4.7105282	4.5187395	4.1928319	4.5187853	4.192865	4.1132489	4.575075	3.4368238	3.4690009	3.822042	3.808777	3.821971	3.8087561	3.8868561	4.0160141	-127.18667	R0:S0:1	-83.6	uncorrelated	51514b8	2022-04-08@17:27
2x2_2C_8b_C2v_L	6.8809356	0.1	14	2.05	-0.13263046	-9.8327819	-11.113789	-0.35266339	-11.11371	-0.35214103	0.21353352	-8.6217842	13	0.019993271	9.3402252e-05	0.00040461399	0.045451993	0.00026607783	0.045278341	0.00030217427	2.8975663e-05	0.0001038436	-0.87849475	1.3423571	0.016668607	-1.3423685	-0.01674317	-0.028645692	-1.5203114	1.28	0.673	0.15	-0.04616164	1.316442	1.6676421	-0.29479246	-0.038144626	0.01707314	-0.10399018	0.053310625	1.9999667	1.9803124	1.9574068	1.9993491	1.9574067	1.9993464	2.6571023e-05	1.9064519	1.0528401	-0.019682151	-5.4265619e-05	-0.08725076	-0.043927275	-0.087206074	-0.043830773	-0.0015027024	1.1782463e-05	-0.00037258016	0.51981067	-0.8048251	-0.088125083	0.80482487	0.088381482	0.01813498	1.2408009	0.69909172	0.013372344	3.3438974e-05	0.019627383	0.042160208	0.00066239636	0.042160386	0.00066501266	2.6641375e-05	0.090741213	0.013335411	4.568643	4.7112669	4.50901	4.2017449	4.509026	4.201782	4.1152073	4.5844478	3.4316977	3.4633609	3.8180753	3.802911	3.8180634	3.802895	3.8850043	4.0157698	-137.40723	R0:S0:1	-87.6	uncorrelated	51514b8	2022-04-08@17:36
2x2_2C_8b_C2v_L	6.8791074	0.1	14	2.05	-0.2780291	-10.913733	-12.178573	-0.96207759	-12.17877	-0.9594071	0.4497033	-8.8474873	13.5	0.041960523	-0.0015155583	-0.010103796	0.097733087	-0.010800753	0.097332279	-0.00068512096	-6.5822407e-05	-0.0024465163	-0.90557496	1.3841763	0.033766297	-1.3838067	-0.035514275	-0.054089626	-1.5028665	1.28	0.673	0.15	-0.066591371	1.3164961	1.6695586	-0.2937423	-0.038170429	0.017044757	-0.15045079	0.05829918	1.9997826	1.9811679	1.9590684	1.9971345	1.959074	1.9969652	9.1521244e-05	1.9030964	1.0577324	-0.042549655	0.00089537365	-0.12153968	-0.097847543	-0.12130024	-0.098545266	0.0040889228	-0.00037257908	0.010881921	0.50658753	-0.78534631	-0.18860071	0.78544997	0.19529789	0.032433482	1.26456	0.685105	0.015466703	0.00022088893	0.018779387	0.040546359	0.002895938	0.040540521	0.0030667994	9.1958118e-05	0.093880382	0.015455979	4.5939531	4.7292052	4.5225921	4.2511322	4.5210697	4.2509556	4.1277238	4.5992452	3.4089865	3.4403356	3.7890652	3.768452	3.7903439	3.7698503	3.8731077	4.0214853	-149.05024	R0:S0:1	-91.6	uncorrelated	51514b8	2022-04-08@17:42
2x2_2C_8b_C2v_L	6.886424	0.1	14	2.05	-0.50645239	-12.091474	-13.257351	-1.8703596	-13.258129	-1.8641509	0.77806687	-8.9604075	14	0.077540198	-0.00015900929	-0.049455141	0.16502034	-0.049469085	0.16481492	-0.00075463422	-0.00028281297	0.00064052916	-0.9434066	1.4241092	0.094178732	-1.4239657	-0.093933175	-0.090438917	-1.4856606	1.28	0.673	0.15	-0.12993102	1.3168327	1.683311	-0.28728664	-0.038419927	0.016962169	-0.29682842	0.093715516	1.9968204	1.9826912	1.9639463	1.984388	1.9639478	1.9843469	0.00025704735	1.8946182	1.0929486	-0.13103384	0.00056557353	-0.22632992	-0.26539602	-0.22650713	-0.2656413	0.0058015291	-0.0007545462	-0.003879448	0.47270867	-0.7120184	-0.43805987	0.71204679	0.43867408	0.050459566	1.3368731	0.59642808	0.029057384	0.0032662556	0.017280081	0.035839629	0.015600029	0.035838049	0.015641284	0.00025883636	0.10174902	0.029115433	4.797841	4.897659	4.6916586	4.5699167	4.6911498	4.5697867	4.2454283	4.5721754	3.2551597	3.2723138	3.5704547	3.5266615	3.5708155	3.5270018	3.7573143	4.1054803	-162.14512	R0:S0:1	-95.6	uncorrelated	51514b8	2022-04-08@17:50
2x2_2C_8b_C2v_L	7.1048393	0.1	14	2.05	-0.24872284	-13.309427	-14.380586	-2.6879213	-14.384194	-2.6678556	0.040730563	-8.9191095	14.5	-0.082752411	0.00055088142	-0.1519733	0.20606786	-0.15041408	0.20767413	0.084655538	0.00010955703	-0.00054567269	-0.98526522	1.3904913	0.25759056	-1.3956284	-0.25271169	0.00018987988	-1.4360108	1.28	0.673	0.15	-0.24374601	1.3201541	1.8090795	-0.22691529	-0.038358911	0.017371147	-0.45188411	0.51300417	1.9119944	1.9957025	1.9906742	1.9469014	1.9905753	1.9464506	0.62022439	1.9005484	1.5124782	1.3358316	-0.00021962523	-0.22804237	-0.98170999	-0.23028532	-0.98733978	-3.0117162	-0.0009243566	0.0020476589	0.12159496	-0.22884662	-0.48131622	0.23017004	0.48196477	-0.0063746807	1.2706443	0.31339499	0.064052738	0.083744325	0.0043162794	0.0094488542	0.052097784	0.0095495227	0.052498024	0.38635044	0.09475354	0.064287857	6.4323304	7.1504681	6.5571514	6.2407274	6.5564923	6.237192	2.5649261	4.3984106	1.6511845	0.89206468	1.5263332	1.8811712	1.5272791	1.8838441	7.7386737	3.6969516	-174.3585	R0:S0:1	-99.6	uncorrelated	51514b8	2022-04-08@18:03
2x2_2C_8b_C2v_L	7.751729	0.1	14	2.05	1.0461415	-14.515877	-15.577368	-3.1825437	-15.584485	-3.1271169	-0.051647774	-9.4015636	15	0.1443627	0.00051021701	-0.03808126	0.029883249	-0.04507493	0.035412885	-0.0020928941	-5.9106459e-05	-0.00020020152	-0.90301244	1.1813464	0.41747963	-1.1907625	-0.4094667	0.077294409	-1.449252	1.28	0.673	0.15	-0.20087829	1.32841	1.9368212	-0.085405277	-0.016546002	0.0080742806	-0.30659081	0.83593886	0.0002410905	1.9998579	1.9988397	1.9936567	1.9989117	1.9931638	0.58223503	1.9527552	1.8358763	-0.0062742152	0.00060189056	-0.14646079	-0.38970812	-0.13874877	-0.40742237	0.1547642	-0.010041825	0.0032017557	0.0048451289	-0.036426527	-0.084700233	0.034803273	0.086630296	-3.3088693	0.61695603	0.42901175	0.033648501	0.00024989434	0.00014320698	0.0011803115	0.0066747382	0.0011070216	0.007188788	0.36206444	0.045707007	0.033696517	0.044977172	7.9592741	7.6989889	7.6272946	7.7066381	7.626881	7.0119928	5.9149604	7.9596916	0.043037176	0.30824151	0.3885027	0.30042336	0.38767921	2.2211206	1.9401653	-187.07256	R0:S0:1	-103.6	uncorrelated	51514b8	2022-04-08@18:14
2x2_2C_8b_C2v_L	8.13962	0.1	14	2.05	3.4458202	-15.709959	-16.841519	-3.5007312	-16.852383	-3.3871095	0.68407706	-10.413282	15.5	0.3158481	-0.0011392475	0.044652081	-0.03396789	0.034871752	-0.027321447	0.1155056	-0.0003529629	0.00071439705	-0.78084664	1.2425724	0.4001994	-1.2506149	-0.38866784	0.00053460354	-1.4733517	1.28	0.673	0.15	-0.12548919	1.3330791	1.9932718	-0.0053355309	-0.00040468722	0.00030201999	-0.19170479	0.99034156	3.5179295e-07	1.9999999	1.9993133	1.9999838	1.9993852	1.9999428	1.6235912e-06	1.9999992	1.9903406	-6.3115032e-06	0.0010443887	-0.14547931	-0.020182477	-0.13746673	-0.040000048	-6.098826e-06	0.00030182476	-0.0024309978	5.1146435e-06	-0.014558912	-0.0021418506	0.013753788	0.0041230569	-0.0064861148	1.4750765e-05	0.47595752	0.0046653947	3.6060721e-07	1.4324634e-07	0.0007007499	1.6849637e-05	0.00062754595	5.9860213e-05	1.7742802e-06	8.5952412e-07	0.0046668794	6.6519482e-05	7.9999405	7.9104411	7.9217512	7.9118616	7.9207796	8.5422481e-05	7.9999648	7.999934	6.3524812e-05	0.089441252	0.078449451	0.088052901	0.079447263	7.9999268	7.8891693e-05	-201.45375	R0:S0:1	-107.6	uncorrelated	51514b8	2022-04-08@18:21
