model	E_kin	D	U	e	eb1_1	eb2_1	eb3_1	eb4_1	eb5_1	eb6_1	eb7_1	eb8_1	mu	sb1_1	sb2_1	sb3_1	sb4_1	sb5_1	sb6_1	sb7_1	sb8_1	tb1_1	tb2_1	tb3_1	tb4_1	tb5_1	tb6_1	tb7_1	tb8_1	tpd	tpp	tppp	ave_D	ave_e	ave_mu	ave_tpd	ave_tpp	ave_tppp	ave_U_1	ave_eb1_1	ave_eb2_1	ave_eb3_1	ave_eb4_1	ave_eb5_1	ave_eb6_1	ave_eb7_1	ave_eb8_1	ave_mu_1	ave_sb1_1	ave_sb2_1	ave_sb3_1	ave_sb4_1	ave_sb5_1	ave_sb6_1	ave_sb7_1	ave_sb8_1	ave_tb1_1	ave_tb2_1	ave_tb3_1	ave_tb4_1	ave_tb5_1	ave_tb6_1	ave_tb7_1	ave_tb8_1	var_U_1	var_eb1_1	var_eb2_1	var_eb3_1	var_eb4_1	var_eb5_1	var_eb6_1	var_eb7_1	var_eb8_1	var_mu_1	var_sb1_1	var_sb2_1	var_sb3_1	var_sb4_1	var_sb5_1	var_sb6_1	var_sb7_1	var_sb8_1	var_tb1_1	var_tb2_1	var_tb3_1	var_tb4_1	var_tb5_1	var_tb6_1	var_tb7_1	var_tb8_1	E0_1	sector_1	E0_2	sector_2	githash	time
2x2_2C_8b_C2v_L	4.1876753	0	14	2.3	0.0075118774	-3.159581	-3.9329203	-0.12976376	-3.9329034	-0.1297653	0.17025118	-3.5958579	9.45	2.7727277e-05	-2.322554e-08	0.0079017019	-0.19023849	0.0079038275	-0.19023878	-8.3645149e-06	-6.4749573e-06	-0.11863448	-1.0884168	1.7346441	0.029830622	-1.7346398	-0.029842435	0.26035561	-2.2992855	2.1	1	0.2	0.011157979	1.2514747	1.6068295	-0.6167099	-0.20437455	0.084826088	0.1293876	0.31712955	1.934386	1.786303	1.5079291	1.786301	1.5079318	0.023706842	1.5252722	1.0944629	-0.00026081015	-1.026169e-06	0.12016968	1.2899822	0.12016244	1.2899467	5.0203413e-05	1.3238047e-05	1.2672138	0.75813228	-1.6238655	-0.55177401	1.623876	0.55183225	-0.32315027	2.6140973	0.028121972	0.27890875	0.063519643	0.193085	0.39846003	0.19308662	0.39845659	0.024088422	0.3583305	0.037863551	4.3754622	5.3487043	5.1448697	4.9889038	5.1448746	4.9889384	4.3899745	6.2671433	5.2506348	2.740079	3.3391803	5.3647678	3.3391928	5.3647326	3.6804962	3.096621	-73.382861	R0:S0:1	-57.2	uncorrelated	51514b8	2022-04-17@16:49
2x2_2C_8b_C2v_L	4.3157951	0	14	2.3299828	0.0073899691	-3.1576333	-3.9270387	-0.13152342	-3.9270246	-0.1315245	0.17208568	-3.5813017	9.4551724	5.8653797e-05	-6.1181737e-07	0.0079819934	-0.19046375	0.0079846611	-0.19046445	-7.421212e-06	1.1962704e-06	-0.11848789	-1.0877172	1.7330209	0.030102836	-1.733017	-0.030119339	0.26048095	-2.2953847	2.0948	1	0.20128621	0.011224705	1.2515548	1.6072369	-0.61593925	-0.20428379	0.084708331	0.12954294	0.30725806	1.9349802	1.7863842	1.524309	1.7863821	1.5243091	0.023023477	1.5262618	1.0949081	-0.00055227248	9.2931649e-06	0.12010144	1.2751163	0.1200925	1.2750936	3.3088216e-05	-3.1527454e-06	1.2598745	0.75398494	-1.62399	-0.54788808	1.6239978	0.54796494	-0.32103845	2.6109304	0.028151832	0.27278771	0.062995085	0.1931423	0.39027864	0.19314393	0.3902731	0.02339179	0.35796335	0.037813812	4.3245999	5.3593092	5.1536714	4.977693	5.1536759	4.9777345	4.3883448	6.2629409	5.2421495	2.7378205	3.3497295	5.327368	3.3497308	5.3273446	3.6824298	3.1004639	-73.34858	R0:S0:1	-57.001517	uncorrelated	51514b8	2022-04-17@16:57
2x2_2C_8b_C2v_L	4.4348943	0	14	2.3599655	0.008079194	-3.1535111	-3.9132218	-0.13156292	-3.9131866	-0.13156323	0.17193121	-3.5643042	9.4603448	4.3980938e-05	1.3212943e-06	0.0078594862	-0.19080498	0.0078635908	-0.19080684	-9.0779134e-06	-8.4419353e-06	-0.11846596	-1.0862764	1.7289837	0.029645277	-1.7289754	-0.029659967	0.26101341	-2.2898989	2.0896	1	0.20257241	0.01111718	1.2514124	1.6071204	-0.61616049	-0.20464239	0.084806095	0.1295841	0.30718255	1.9349925	1.7863267	1.5239492	1.7863265	1.5239355	0.023085182	1.5257689	1.0950706	-0.00040915674	-6.6317508e-07	0.11999362	1.2751153	0.11997903	1.2751267	5.2795356e-05	1.6063191e-05	1.2590066	0.75415793	-1.6237273	-0.54540349	1.6237239	0.54545961	-0.32178505	2.6105895	0.028159838	0.27257688	0.062984594	0.19319229	0.39073062	0.19319233	0.39073159	0.023456118	0.35820877	0.037792198	4.325556	5.3583335	5.1542295	4.97694	5.1542289	4.9769748	4.3860327	6.265369	5.2430171	2.7389339	3.3497509	5.327639	3.349736	5.3276603	3.6849241	3.1006797	-73.259845	R0:S0:1	-56.803034	uncorrelated	51514b8	2022-04-17@17:05
2x2_2C_8b_C2v_L	4.5535869	0	14	2.3899483	0.0080590131	-3.1479027	-3.9002413	-0.13160386	-3.9002265	-0.13160707	0.17197204	-3.5480354	9.4655172	3.2298683e-05	2.6257694e-05	0.0077625177	-0.19090653	0.0077646062	-0.19090937	4.3299491e-07	9.7551229e-06	-0.11842717	-1.084702	1.7253933	0.029240915	-1.72539	-0.029249766	0.26122168	-2.2849446	2.0844	1	0.20385862	0.010993337	1.2512526	1.6070304	-0.6163889	-0.20507933	0.084929655	0.12963342	0.30918535	1.9348705	1.7862146	1.5231042	1.7862144	1.5231199	0.023183206	1.5249369	1.0952065	-0.00029986589	-5.388692e-05	0.11996726	1.2756304	0.11997529	1.2756223	-1.0493779e-05	-7.5056167e-06	1.2596596	0.75506321	-1.623587	-0.54336007	1.6235848	0.54339387	-0.32234775	2.6111546	0.028169078	0.27421648	0.063095924	0.19327739	0.39113552	0.19327761	0.39112147	0.023558178	0.35859121	0.037781657	4.3341976	5.3561483	5.1543978	4.9778405	5.1544026	4.9778527	4.3837903	6.2692796	5.2437717	2.7403184	3.3486864	5.3304015	3.3486854	5.3303593	3.6872268	3.0997778	-73.174718	R0:S0:1	-56.604552	uncorrelated	51514b8	2022-04-17@17:13
2x2_2C_8b_C2v_L	4.6734477	0	14	2.419931	0.0081550635	-3.1418922	-3.8874647	-0.13185486	-3.8874423	-0.13185443	0.17193475	-3.5317415	9.4706897	1.0713097e-07	5.0326307e-07	0.0076728833	-0.19107963	0.0076702006	-0.19108164	3.1904131e-06	-2.1884259e-06	-0.11838014	-1.0830696	1.7218843	0.028782733	-1.7218808	-0.028773832	0.26140617	-2.2799903	2.0792	1	0.20514483	0.010869801	1.2511246	1.6069923	-0.6164983	-0.2054372	0.085018522	0.12969625	0.30924027	1.9348642	1.7861058	1.5247656	1.7861096	1.5247414	0.023181935	1.5244027	1.0953895	-2.8671738e-06	-2.3068806e-07	0.1198137	1.2739164	0.11981434	1.2740089	-1.7123433e-05	1.52989e-06	1.2588313	0.7551286	-1.6235606	-0.54020219	1.6235333	0.5401416	-0.32256208	2.6110773	0.028181002	0.27453375	0.063104564	0.1933798	0.39037894	0.19337644	0.39038824	0.023559923	0.35884982	0.03776387	4.3331321	5.3560014	5.1560292	4.9763676	5.1560188	4.9763375	4.3816493	6.2718475	5.2433296	2.7411288	3.3495028	5.3272692	3.3494567	5.3273735	3.6895113	3.0996978	-73.090375	R0:S0:1	-56.406069	uncorrelated	51514b8	2022-04-17@17:21
2x2_2C_8b_C2v_L	4.7919055	0	14	2.4499138	0.0082284396	-3.1350088	-3.8737683	-0.1318541	-3.8737602	-0.13185541	0.1718682	-3.5145743	9.4758621	-6.3898897e-06	1.2584431e-05	0.0075291052	-0.1911756	0.0075271292	-0.19117639	3.895719e-06	3.8738341e-06	-0.11832843	-1.0812884	1.7181397	0.028257921	-1.7181393	-0.028251914	0.26157175	-2.2747454	2.074	1	0.20643103	0.010726413	1.25096	1.6068884	-0.61674878	-0.20588221	0.085145835	0.12974484	0.31101153	1.9347468	1.7859536	1.524015	1.7859543	1.5240203	0.023273571	1.5235246	1.0955263	6.0275885e-05	-2.954287e-05	0.11980341	1.2743692	0.11981392	1.2743834	-2.2338111e-05	-2.6743759e-06	1.2592078	0.75595206	-1.6235468	-0.53756653	1.6235411	0.53753589	-0.32307466	2.6116699	0.028190148	0.27599021	0.063212079	0.19349831	0.39081804	0.19349774	0.39081537	0.023656133	0.35925015	0.037752786	4.3406849	5.3540077	5.1564089	4.9768423	5.1564098	4.9768237	4.3793463	6.2759155	5.2441476	2.7424485	3.3485947	5.3298572	3.3485898	5.3298567	3.6918845	3.0987927	-72.997145	R0:S0:1	-56.207586	uncorrelated	51514b8	2022-04-17@17:29
2x2_2C_8b_C2v_L	4.9102709	0	14	2.4798966	0.0082818841	-3.1266116	-3.8585925	-0.13186317	-3.8585877	-0.13186062	0.17176222	-3.4969594	9.4810345	-1.9667772e-05	7.473467e-06	0.0073919222	-0.19124378	0.0073907694	-0.19124268	-1.0996006e-06	-9.2424897e-06	-0.11826061	-1.0792772	1.7141102	0.027662018	-1.7141098	-0.027655693	0.261702	-2.2693598	2.0688	1	0.20771724	0.010562425	1.2507939	1.6067815	-0.61700673	-0.20633197	0.085274279	0.12979495	0.3126471	1.9346246	1.7857365	1.5236418	1.7857368	1.5236378	0.023363612	1.522626	1.0956662	0.00018587731	-2.6482546e-05	0.1197275	1.274459	0.11972978	1.2744562	2.0097956e-05	2.2326027e-05	1.2593875	0.75672354	-1.6237164	-0.53444857	1.6237176	0.53441794	-0.32354183	2.6122925	0.028199603	0.2774032	0.063324688	0.19367125	0.39109226	0.19367103	0.39109862	0.023751674	0.35965692	0.037741528	4.3471998	5.3522475	5.157206	4.9768949	5.1572044	4.9768853	4.3770785	6.2800331	5.2447696	2.7437144	3.347917	5.331737	3.347924	5.3317425	3.6942647	3.0978717	-72.893397	R0:S0:1	-56.009103	uncorrelated	51514b8	2022-04-17@17:37
2x2_2C_8b_C2v_L	5.0294484	0	14	2.5098793	0.0083573979	-3.1194063	-3.845661	-0.13201545	-3.8456674	-0.13201422	0.17174302	-3.4804892	9.4862069	-1.9816668e-05	-1.8723597e-05	0.0072646039	-0.19141664	0.0072624142	-0.19141606	4.8751538e-06	8.8170361e-06	-0.11820581	-1.0774136	1.7105418	0.027067406	-1.7105427	-0.027059541	0.26193888	-2.2643372	2.0636	1	0.20900345	0.010406184	1.2506487	1.6067103	-0.61717913	-0.20672822	0.085379861	0.12985227	0.31342908	1.934574	1.7856184	1.5244765	1.7856201	1.5244669	0.023414103	1.5219753	1.0958329	0.00018000745	4.8644607e-05	0.11954512	1.2735439	0.11954491	1.2735866	-3.6658345e-05	-2.4602255e-05	1.2588232	0.75704653	-1.6236795	-0.53083568	1.6236675	0.53079765	-0.32395759	2.6124282	0.028210421	0.27827287	0.063373198	0.1937751	0.39078747	0.19377359	0.39079247	0.023806806	0.35996131	0.037725653	4.3491835	5.3514775	5.1584403	4.9758367	5.1584356	4.9758131	4.3749166	6.2830752	5.2449366	2.7447174	3.3481942	5.3307673	3.3481734	5.3308187	3.6965984	3.0975337	-72.805063	R0:S0:1	-55.810621	uncorrelated	51514b8	2022-04-17@17:45
2x2_2C_8b_C2v_L	5.1478063	0	14	2.5398621	0.0084350493	-3.1117418	-3.8314196	-0.13207654	-3.8314166	-0.13207538	0.17178539	-3.4639039	9.4913793	-9.4578812e-06	4.2750138e-06	0.0071145792	-0.19153367	0.007113412	-0.19153332	1.4660226e-06	-3.7390626e-07	-0.11815377	-1.0755463	1.7067128	0.026497362	-1.7067146	-0.026492692	0.2621559	-2.2592878	2.0584	1	0.21028966	0.010249649	1.2504816	1.6066093	-0.61742917	-0.20718068	0.085508275	0.12990719	0.31491186	1.9344628	1.7854233	1.5242665	1.7854226	1.5242675	0.023496244	1.5211301	1.0959761	8.8794724e-05	-1.2232883e-05	0.11952137	1.2735692	0.11952577	1.2735651	-5.1621521e-06	2.9227969e-06	1.2589652	0.75775046	-1.6238072	-0.52780803	1.6238114	0.5277886	-0.32445305	2.6130034	0.028220733	0.27957153	0.063476011	0.19393222	0.39098055	0.19393282	0.39098299	0.02389401	0.36034558	0.037715497	4.3549307	5.3499452	5.1592778	4.9757053	5.1592798	4.975695	4.3727624	6.2869412	5.245474	2.7458769	3.3476537	5.3321705	3.3476588	5.3321657	3.6988842	3.0966611	-72.709659	R0:S0:1	-55.612138	uncorrelated	51514b8	2022-04-17@17:53
2x2_2C_8b_C2v_L	5.2661972	0	14	2.5698448	0.0085093109	-3.1039058	-3.8174975	-0.13213443	-3.8175081	-0.13213573	0.17176856	-3.4469297	9.4965517	-8.9373654e-06	-2.053435e-06	0.0069820927	-0.19164278	0.0069834709	-0.19164207	1.9768704e-07	-5.767149e-06	-0.11809828	-1.0736397	1.7029288	0.025904372	-1.7029314	-0.025905522	0.26236195	-2.2541067	2.0532	1	0.21157586	0.010080038	1.2503156	1.6065075	-0.61767313	-0.20762983	0.08563499	0.12995958	0.31639624	1.9343527	1.7852508	1.524161	1.7852493	1.5241702	0.023580753	1.5202864	1.0961212	8.4551354e-05	4.3530136e-08	0.11940345	1.2734648	0.11940198	1.273426	4.1501726e-06	9.0331528e-06	1.2590008	0.7584503	-1.6238709	-0.52457451	1.623883	0.52458944	-0.32495859	2.6135141	0.028230574	0.28088915	0.063577941	0.19407175	0.39111708	0.19407308	0.39111521	0.023983892	0.36072762	0.037703628	4.3605568	5.3484035	5.1601011	4.9755458	5.160105	4.9755536	4.370539	6.2907924	5.2460212	2.7470879	3.3471921	5.333473	3.3472132	5.3334326	3.7012484	3.0958788	-72.614248	R0:S0:1	-55.413655	uncorrelated	51514b8	2022-04-17@18:01
2x2_2C_8b_C2v_L	5.3847281	0	14	2.5998276	0.0085831631	-3.0959817	-3.803658	-0.13230254	-3.8036645	-0.13230212	0.17163478	-3.4289859	9.5017241	7.520514e-06	9.4495613e-06	0.0068259061	-0.19181552	0.0068266714	-0.19181518	-1.652873e-06	6.6638321e-07	-0.11804147	-1.0716999	1.6991895	0.025246358	-1.6991904	-0.025249756	0.26247813	-2.2486266	2.048	1	0.21286207	0.0098966982	1.2501538	1.6064117	-0.61790145	-0.20806722	0.085756656	0.13001398	0.31748389	1.9342716	1.7850599	1.5248073	1.7850589	1.5248158	0.023630512	1.5194469	1.0962745	-6.8048725e-05	-2.2496336e-05	0.11928385	1.2727929	0.11928623	1.2727645	1.0436544e-05	3.9718396e-06	1.2586864	0.75894275	-1.6240453	-0.52078429	1.624053	0.52080361	-0.32529263	2.6139324	0.028240861	0.28201136	0.063654361	0.19423216	0.39091042	0.19423306	0.39090656	0.024039156	0.3611082	0.037690539	4.3638547	5.3473626	5.1613987	4.9745579	5.1614015	4.9745686	4.3682128	6.2945939	5.2461479	2.7482118	3.3472972	5.3332115	3.3473118	5.3331759	3.7037136	3.0952333	-72.517213	R0:S0:1	-55.215172	uncorrelated	51514b8	2022-04-17@18:09
2x2_2C_8b_C2v_L	5.5048066	0	14	2.6298103	0.0086134432	-3.0913126	-3.794296	-0.13267894	-3.7942949	-0.13267908	0.17167294	-3.4124547	9.5068966	1.2056797e-06	6.0895568e-07	0.0066490288	-0.19212681	0.0066487296	-0.19212767	1.8906195e-06	1.1535996e-06	-0.11799363	-1.0702852	1.6963944	0.024568852	-1.6963949	-0.024568865	0.26275552	-2.243587	2.0428	1	0.21414828	0.0097184209	1.2500305	1.6063856	-0.61796502	-0.20841108	0.085839927	0.13007525	0.31758664	1.9342887	1.7850761	1.5272847	1.7850764	1.5272832	0.02363436	1.5189979	1.096468	-1.1945887e-05	1.0024063e-07	0.1190392	1.2706208	0.11903969	1.2706328	-1.2301131e-05	-3.2344448e-06	1.2572833	0.75891497	-1.623731	-0.51610801	1.623728	0.51610468	-0.32562619	2.6134994	0.028252457	0.28260629	0.063643253	0.19424166	0.38976625	0.19424137	0.38976603	0.024047328	0.36132918	0.037668914	4.3614439	5.3475485	5.1631487	4.972091	5.163148	4.9720872	4.3659025	6.2967515	5.2456449	2.7491767	3.3487418	5.3288384	3.3487352	5.3288483	3.7062628	3.095595	-72.450289	R0:S0:1	-55.01669	uncorrelated	51514b8	2022-04-17@18:17
2x2_2C_8b_C2v_L	5.6221697	0	14	2.6597931	0.0085675481	-3.0844691	-3.7805325	-0.13281646	-3.7805343	-0.13281608	0.17165716	-3.3958572	9.512069	-4.6043984e-06	1.3867009e-06	0.0066135118	-0.19226226	0.0066132071	-0.19226256	2.1169121e-06	2.9294287e-06	-0.11794277	-1.068553	1.6927245	0.024183734	-1.692725	-0.024181161	0.2629631	-2.2385791	2.0376	1	0.21543448	0.0095624355	1.2498353	1.6062591	-0.61829248	-0.20894056	0.085996624	0.13012992	0.32001712	1.9341246	1.7848335	1.5261777	1.7848343	1.5261762	0.023754551	1.5179068	1.0965832	4.2178836e-05	-1.9491269e-06	0.11896842	1.2715292	0.11897034	1.2715438	-1.346158e-05	-4.9783203e-06	1.2582502	0.75999034	-1.624011	-0.51430618	1.6240062	0.51429141	-0.32623211	2.6145875	0.028262603	0.28459941	0.06379326	0.19442815	0.39026917	0.19442749	0.39026972	0.024173467	0.36181191	0.03766668	4.3715065	5.3452183	5.1634831	4.9731584	5.1634812	4.9731496	4.3636964	6.3016103	5.2463918	2.7505208	3.3473829	5.332595	3.3473763	5.3326078	3.7085553	3.0940711	-72.359474	R0:S0:1	-54.818207	uncorrelated	51514b8	2022-04-17@18:25
2x2_2C_8b_C2v_L	5.738285	0	14	2.6897759	0.0086594688	-3.0736769	-3.7622957	-0.13254688	-3.7622933	-0.13254571	0.1718592	-3.3790164	9.5172414	-5.8682627e-06	-1.8859311e-06	0.0064136492	-0.19218043	0.0064118994	-0.1921811	2.1957253e-06	9.7375454e-07	-0.11787928	-1.0661741	1.688007	0.023529101	-1.6880065	-0.023524204	0.26326108	-2.2334648	2.0324	1	0.21672069	0.0093574368	1.2496108	1.6060625	-0.61875386	-0.20953305	0.086180986	0.13017454	0.32332367	1.9338693	1.7844518	1.5233888	1.7844539	1.5233769	0.023959509	1.5166124	1.0966741	5.3094006e-05	5.4658548e-06	0.11914296	1.2736277	0.11914334	1.2736729	-1.2661116e-05	-3.0920054e-06	1.2596985	0.76152582	-1.6245096	-0.51184432	1.6244958	0.51181138	-0.32713156	2.6161441	0.028270794	0.28704393	0.064025009	0.19471382	0.39176555	0.19471194	0.39177045	0.024386719	0.3623718	0.037666525	4.3862866	5.341814	5.1633762	4.9751744	5.1633696	4.975158	4.3616343	6.3073155	5.2482974	2.7520782	3.3449652	5.3400036	3.3449433	5.3400562	3.7107515	3.0920256	-72.238454	R0:S0:1	-54.619724	uncorrelated	51514b8	2022-04-17@18:33
2x2_2C_8b_C2v_L	5.8561412	0	14	2.7197586	0.008699651	-3.0645098	-3.7470693	-0.13256368	-3.7470748	-0.13256404	0.17179741	-3.3619891	9.5224138	-1.828985e-05	-1.713726e-06	0.0062281297	-0.19225369	0.0062254142	-0.19225339	2.4342827e-06	-1.7749352e-07	-0.11781751	-1.0640417	1.6839678	0.022737244	-1.6839699	-0.022730145	0.26343722	-2.2282757	2.0272	1	0.2180069	0.0091253339	1.2494314	1.6059406	-0.61903518	-0.21001462	0.086318134	0.13022796	0.32498435	1.9337448	1.7842057	1.5234785	1.7842063	1.5234794	0.02406341	1.5157057	1.0968176	0.00017047502	9.4817683e-07	0.11896612	1.2733667	0.11897152	1.2733729	-1.1266832e-05	-3.5794143e-07	1.2595273	0.76223497	-1.6247609	-0.50750277	1.6247591	0.50747113	-0.32764655	2.6167684	0.028280785	0.28860564	0.064140879	0.19491356	0.39186475	0.19491314	0.3918667	0.024498492	0.36277243	0.037655383	4.3917135	5.3403824	5.1645788	4.974553	5.164578	4.974536	4.3594751	6.3113487	5.248882	2.7532999	3.3446253	5.3412382	3.3446259	5.3412443	3.7131155	3.0911392	-72.1344	R0:S0:1	-54.421241	uncorrelated	51514b8	2022-04-17@18:42
2x2_2C_8b_C2v_L	5.9757252	0	14	2.7497414	0.0086895829	-3.0583672	-3.7362122	-0.13311107	-3.736215	-0.13311149	0.17160889	-3.3437633	9.5275862	-1.1801492e-05	-6.5370171e-07	0.0060595966	-0.19261631	0.0060591664	-0.19261388	1.6719618e-06	7.0316481e-07	-0.11779016	-1.0624123	1.6808971	0.022056344	-1.6808983	-0.022053413	0.26352717	-2.222713	2.022	1	0.2192931	0.0089215162	1.249296	1.605903	-0.61913455	-0.21039173	0.086410577	0.13029225	0.32476639	1.9337622	1.7841086	1.5268229	1.784106	1.5268395	0.024017549	1.5151068	1.0970081	0.00011142804	-1.5279211e-06	0.11874617	1.2706055	0.11875202	1.2705515	-8.633699e-06	-1.7374651e-06	1.2581748	0.76209515	-1.6248172	-0.50261647	1.6248343	0.50262098	-0.32768164	2.6165453	0.028293027	0.28910305	0.064130965	0.19502029	0.39026356	0.19502264	0.39026015	0.024457645	0.36305357	0.037636332	4.3873133	5.3410426	5.1670933	4.9713349	5.1671026	4.9713363	4.3570611	6.3140228	5.2473687	2.7541656	3.3465977	5.3351762	3.3466272	5.3351119	3.7157487	3.0912922	-72.055019	R0:S0:1	-54.222759	uncorrelated	51514b8	2022-04-17@18:50
2x2_2C_8b_C2v_L	6.092628	0	14	2.7797241	0.0087811443	-3.0504242	-3.7218665	-0.13299197	-3.7218707	-0.13299302	0.17162635	-3.3278586	9.5327586	-1.2047773e-06	-2.3712841e-06	0.0059106251	-0.19266945	0.0059115486	-0.19266761	8.4687541e-07	3.0224341e-06	-0.11771722	-1.0604835	1.677009	0.021374837	-1.6770072	-0.021376492	0.26384149	-2.2178618	2.0168	1	0.22057931	0.0086982442	1.2490904	1.6057421	-0.61950203	-0.21093539	0.086573087	0.13034022	0.32748643	1.9335808	1.7838855	1.5250701	1.7838844	1.5250838	0.024197236	1.5140562	1.0971232	1.1566207e-05	6.1965465e-06	0.11862017	1.2719105	0.11862197	1.2718738	-8.3190345e-06	-7.0951919e-06	1.2587169	0.76326887	-1.624957	-0.49944419	1.6249644	0.49946366	-0.32854466	2.6175251	0.028301838	0.29124824	0.064296458	0.19518707	0.39124274	0.1951881	0.39123668	0.024645629	0.36351083	0.037630571	4.3984261	5.3384187	5.1671491	4.9724265	5.1671544	4.972436	4.35493	6.318687	5.2491642	2.7556319	3.3449761	5.3404661	3.3449934	5.3404185	3.7180504	3.0899374	-71.959388	R0:S0:1	-54.024276	uncorrelated	51514b8	2022-04-17@18:58
2x2_2C_8b_C2v_L	6.2096864	0	14	2.8097069	0.008723051	-3.0406174	-3.7067218	-0.13320213	-3.7067172	-0.13320305	0.17167181	-3.3100675	9.537931	2.7597345e-06	-2.6331228e-06	0.0057584568	-0.1928154	0.0057594141	-0.1928157	-3.0834368e-06	-2.2296921e-06	-0.11765723	-1.0582831	1.673055	0.020755182	-1.6730538	-0.020759658	0.26404228	-2.212504	2.0116	1	0.22186552	0.0084745607	1.2488889	1.6056041	-0.61984529	-0.21147858	0.086732479	0.1303982	0.32959804	1.9334143	1.7835574	1.5250654	1.7835565	1.525068	0.024302749	1.5129142	1.0972482	-2.5311595e-05	5.2078616e-06	0.11863595	1.2719384	0.11863275	1.271922	1.8246336e-05	4.0419479e-06	1.2591485	0.76417541	-1.6255032	-0.49612685	1.6255081	0.49614942	-0.32907473	2.6186085	0.028312636	0.29319603	0.064450744	0.19545088	0.39126641	0.19545161	0.39126451	0.024759187	0.36400671	0.037627101	4.4055885	5.3367649	5.1683699	4.972176	5.1683726	4.972187	4.3527247	6.3236247	5.2493369	2.7568748	3.3444135	5.3421039	3.3444206	5.3420873	3.7204556	3.0884717	-71.854041	R0:S0:1	-53.825793	uncorrelated	51514b8	2022-04-17@19:06
2x2_2C_8b_C2v_L	6.3261876	0	14	2.8396897	0.0087484209	-3.0310878	-3.6919836	-0.13311399	-3.6919846	-0.13311542	0.17174937	-3.293128	9.5431034	8.0760804e-06	5.9073262e-07	0.0055630778	-0.19287582	0.005564499	-0.19287697	-4.2488522e-06	-4.3615136e-06	-0.11757986	-1.0560734	1.6691037	0.019975729	-1.6691038	-0.019980594	0.26433222	-2.2073472	2.0064	1	0.22315172	0.0082111763	1.248673	1.6054282	-0.6202449	-0.21204858	0.086906754	0.13044427	0.33279225	1.9332	1.7832937	1.5232621	1.7832937	1.5232601	0.024500077	1.5117268	1.0973554	-7.4604245e-05	-2.8522724e-06	0.11856958	1.2733916	0.11856492	1.2733889	2.6751633e-05	9.5908996e-06	1.2597954	0.76548481	-1.6257581	-0.49245926	1.6257588	0.49247881	-0.32996795	2.619783	0.028321068	0.29578158	0.064646582	0.19564945	0.39226454	0.1956494	0.39226381	0.02496627	0.36451547	0.037622843	4.4180105	5.3339201	5.1684797	4.9731916	5.1684786	4.9732024	4.3505016	6.3288207	5.2511715	2.7584604	3.3427022	5.347915	3.3427027	5.3479166	3.7228764	3.0869025	-71.751253	R0:S0:1	-53.62731	uncorrelated	51514b8	2022-04-17@19:15
2x2_2C_8b_C2v_L	6.4420982	0	14	2.8696724	0.0083989199	-3.0222827	-3.6782772	-0.13336581	-3.6782753	-0.13336842	0.1716164	-3.275632	9.5482759	3.2642724e-07	-4.7205032e-07	0.0054533308	-0.19303879	0.0054532345	-0.19304037	-1.07275e-05	-6.8775669e-06	-0.11756495	-1.0540076	1.6655169	0.019423216	-1.6655168	-0.019422928	0.26438179	-2.2021139	2.0012	1	0.22443793	0.0079607265	1.2484382	1.605251	-0.6206835	-0.21267965	0.087101621	0.1304947	0.33739008	1.9329122	1.7830012	1.5214875	1.783003	1.5214746	0.024699603	1.5102753	1.0974408	-1.2126347e-06	-4.3056215e-06	0.1186549	1.2752472	0.11865022	1.2752716	6.8425643e-05	1.9394123e-05	1.2617767	0.76725156	-1.626122	-0.48993942	1.626114	0.48992818	-0.33068717	2.6215023	0.02833019	0.29962892	0.064909305	0.19586908	0.39297656	0.19586758	0.39298142	0.025176569	0.36512865	0.037627253	4.4353122	5.3303409	5.1684476	4.974895	5.1684407	4.9748943	4.3481418	6.3351279	5.2521018	2.7603419	3.3405397	5.3544587	3.3405297	5.3545015	3.7253542	3.0846502	-71.655436	R0:S0:1	-53.428828	uncorrelated	51514b8	2022-04-17@19:23
2x2_2C_8b_C2v_L	6.5600859	0	14	2.8996552	0.0079141898	-3.0133041	-3.6640905	-0.13329804	-3.6640877	-0.13329996	0.17166285	-3.2590791	9.5534483	2.4574749e-06	-4.5164704e-07	0.0051044366	-0.19299461	0.0051073737	-0.19299581	-1.0079264e-06	6.3149065e-06	-0.11753714	-1.0518374	1.6618376	0.01791048	-1.6618362	-0.017919842	0.2643854	-2.1971989	1.996	1	0.22572414	0.007489203	1.2482586	1.6051444	-0.62091347	-0.2131744	0.087245449	0.13054309	0.34134569	1.9327185	1.7828132	1.5221134	1.7828113	1.5221299	0.024910701	1.509327	1.0975859	-2.3690985e-05	4.5835878e-06	0.11806843	1.2747089	0.11806745	1.2746695	-1.1051017e-06	-1.1158605e-05	1.2613014	0.76841072	-1.6261065	-0.48124967	1.6261169	0.48129956	-0.33135739	2.62212	0.028338951	0.30362179	0.065090598	0.19602445	0.39282047	0.19602614	0.39281027	0.025404139	0.36552615	0.037612855	4.4453527	5.3282549	5.16989	4.9735812	5.1698983	4.9735981	4.3459097	6.3393312	5.2529826	2.7623278	3.3401673	5.3567705	3.3401845	5.3567109	3.7279702	3.0837846	-71.557115	R0:S0:1	-53.230345	uncorrelated	51514b8	2022-04-17@19:39
