model	E_kin	D	U	e	eb1_1	eb2_1	eb3_1	eb4_1	eb5_1	eb6_1	eb7_1	eb8_1	mu	sb1_1	sb2_1	sb3_1	sb4_1	sb5_1	sb6_1	sb7_1	sb8_1	tb1_1	tb2_1	tb3_1	tb4_1	tb5_1	tb6_1	tb7_1	tb8_1	tpd	tpp	tppp	ave_D	ave_e	ave_mu	ave_tpd	ave_tpp	ave_tppp	ave_D_1	ave_U_1	ave_eb1_1	ave_eb2_1	ave_eb3_1	ave_eb4_1	ave_eb5_1	ave_eb6_1	ave_eb7_1	ave_eb8_1	ave_mu_1	ave_sb1_1	ave_sb2_1	ave_sb3_1	ave_sb4_1	ave_sb5_1	ave_sb6_1	ave_sb7_1	ave_sb8_1	ave_tb1_1	ave_tb2_1	ave_tb3_1	ave_tb4_1	ave_tb5_1	ave_tb6_1	ave_tb7_1	ave_tb8_1	var_D_1	var_U_1	var_eb1_1	var_eb2_1	var_eb3_1	var_eb4_1	var_eb5_1	var_eb6_1	var_eb7_1	var_eb8_1	var_mu_1	var_sb1_1	var_sb2_1	var_sb3_1	var_sb4_1	var_sb5_1	var_sb6_1	var_sb7_1	var_sb8_1	var_tb1_1	var_tb2_1	var_tb3_1	var_tb4_1	var_tb5_1	var_tb6_1	var_tb7_1	var_tb8_1	E0_1	sector_1	E0_2	sector_2	githash	iterations	dist_function	distance	diff_hybrid	time
2x2_2C_8b_C2v_L	6.8791074	0.1	14	2.05	-0.2780291	-10.913733	-12.178573	-0.96207759	-12.17877	-0.9594071	0.4497033	-8.8474873	13.5	0.041960523	-0.0015155583	-0.010103796	0.097733087	-0.010800753	0.097332279	-0.00068512096	-6.5822407e-05	-0.0024465163	-0.90557496	1.3841763	0.033766297	-1.3838067	-0.035514275	-0.054089626	-1.5028665	1.28	0.673	0.15	-0.066591371	1.3164961	1.6695586	-0.2937423	-0.038170429	0.017044757	-0.15045079	0.058299179	1.9997826	1.9811679	1.9590685	1.9971345	1.959074	1.9969652	9.1521247e-05	1.9030964	1.0577324	-0.042549654	0.00089538223	-0.12153968	-0.097847544	-0.12130024	-0.098545264	0.0040889262	-0.00037259146	0.010881917	0.50658753	-0.78534626	-0.18860071	0.78544998	0.19529789	0.032433482	1.26456	0.685105	0.015466703	0.00022088893	0.018779386	0.040546355	0.0028959379	0.040540522	0.0030667995	9.1958121e-05	0.093880381	0.015455978	4.5939531	4.7292052	4.5225921	4.2511322	4.5210696	4.2509555	4.1277238	4.5992452	3.4089865	3.4403356	3.7890652	3.768452	3.790344	3.7698504	3.8731077	4.0214853	-149.05024	R0:S0:1	-91.6	uncorrelated	51514b8	0	sharp_wc_2.0_b_50	 7.06e+01	 1.00e+06	2022-04-11@05:44
2x2_2C_8b_C2v_L	6.8792766	0.1	14	2.05	-0.27853222	-10.913619	-12.178455	-0.96244386	-12.178663	-0.95979004	0.44986738	-8.8474546	13.52	0.040983874	-0.00061062782	-0.0099630265	0.096546518	-0.010755165	0.096056388	-0.00052534981	-2.670918e-05	-0.0021964095	-0.90630543	1.3839009	0.033931442	-1.383366	-0.035368985	-0.05355624	-1.502735	1.28	0.673	0.15	-0.067749692	1.3165038	1.6697384	-0.29362299	-0.038163655	0.01703949	-0.15301836	0.058762617	1.9997873	1.9810945	1.9589867	1.9970731	1.9590285	1.996937	8.9703107e-05	1.9027316	1.058199	-0.041800025	0.00026633092	-0.12392445	-0.097952806	-0.12356335	-0.09845313	0.0030677075	5.8766234e-05	0.0099719174	0.50738932	-0.78592562	-0.19119882	0.78552237	0.19652353	0.032091281	1.2670298	0.68410467	0.01563644	0.0002160436	0.018852628	0.040627142	0.0029572181	0.040586323	0.0030944354	9.0126011e-05	0.094221135	0.01562457	4.5964664	4.7322308	4.5245691	4.2536593	4.5242872	4.2547473	4.1282685	4.6014424	3.4064589	3.4381347	3.7874094	3.7663551	3.7873519	3.7662685	3.8725518	4.0214122	-149.13601	R0:S0:1	-91.76	uncorrelated	51514b8	0	sharp_wc_2.0_b_50	 7.36e+01	 1.00e+06	2022-04-11@05:47
2x2_2C_8b_C2v_L	6.8790062	0.1	14	2.05	-0.27886609	-10.913626	-12.178509	-0.96266176	-12.178709	-0.96001282	0.44996154	-8.8476385	13.54	0.041870283	-0.00081321366	-0.0098703506	0.097578064	-0.010364416	0.097042431	-0.00038152058	-0.00018276309	-0.0017190941	-0.90456299	1.3810727	0.033805994	-1.3806866	-0.035265152	-0.054129953	-1.5001079	1.28	0.673	0.15	-0.069181284	1.3165053	1.6698569	-0.29357999	-0.038171197	0.017039563	-0.1565302	0.059203673	1.9997703	1.9811107	1.9590692	1.9969569	1.9590897	1.9968134	9.2164449e-05	1.9026347	1.0586381	-0.043053272	0.00038966494	-0.12685252	-0.10006254	-0.1266334	-0.1005654	0.0022733861	3.2997831e-05	0.007897542	0.50705454	-0.78476411	-0.19484206	0.78462655	0.20035021	0.032418511	1.2678111	0.68279783	0.015826467	0.00023356555	0.018836748	0.040547499	0.0030754359	0.040527272	0.0032199958	9.2620867e-05	0.094312013	0.015815599	4.5982263	4.7337115	4.5267	4.2580967	4.525986	4.2586499	4.1292955	4.6014563	3.4050052	3.4367072	3.7843946	3.7626701	3.7848511	3.763162	3.8715546	4.0222289	-149.21452	R0:S0:1	-91.92	uncorrelated	51514b8	0	sharp_wc_2.0_b_50	 7.73e+01	 1.00e+06	2022-04-11@05:50
2x2_2C_8b_C2v_L	6.8790074	0.1	14	2.05	-0.27931333	-10.913596	-12.178403	-0.96296462	-12.178609	-0.96032005	0.45007485	-8.8477726	13.56	0.042579398	-0.0007129142	-0.0099641673	0.097315307	-0.010623104	0.096799161	-0.00035376429	0.00022207171	-0.0012961233	-0.90325594	1.3805907	0.034085977	-1.3800755	-0.035276593	-0.054771996	-1.497963	1.28	0.673	0.15	-0.070492528	1.3165107	1.6700198	-0.29348541	-0.038171224	0.017036181	-0.15944589	0.059665021	1.9997549	1.981111	1.9590209	1.9968442	1.959048	1.9967223	9.4972342e-05	1.902487	1.0591001	-0.044093504	0.00051496988	-0.12939445	-0.10122379	-0.12913912	-0.10162226	0.0022402192	-0.0004223249	0.0059470078	0.50692398	-0.78487933	-0.19873651	0.78468756	0.20333517	0.032783129	1.2689075	0.68158189	0.016008209	0.00024950492	0.018836676	0.040595997	0.003189053	0.040569279	0.0033118608	9.5468057e-05	0.094450142	0.015997466	4.6001041	4.7354276	4.5296416	4.2623204	4.5288018	4.262617	4.130199	4.6018932	3.4034051	3.435164	3.7815528	3.7592165	3.7820965	3.7598123	3.8706816	4.0228229	-149.2969	R0:S0:1	-92.08	uncorrelated	51514b8	0	sharp_wc_2.0_b_50	 8.12e+01	 1.00e+06	2022-04-11@05:53
2x2_2C_8b_C2v_L	6.8789265	0.1	14	2.05	-0.27996334	-10.913524	-12.178289	-0.96337049	-12.178491	-0.96073028	0.45023641	-8.8477262	13.58	0.043226576	-0.0004404972	-0.010060592	0.097461329	-0.010661429	0.096950979	-7.5003265e-05	-0.00033929876	-0.00080274086	-0.90212232	1.3792423	0.034444847	-1.3787519	-0.03545298	-0.055134999	-1.4978073	1.28	0.673	0.15	-0.071953976	1.3165152	1.6702172	-0.29339637	-0.038177065	0.017035743	-0.16284675	0.060255059	1.9997361	1.9811212	1.9590142	1.9966921	1.9590594	1.9965892	9.6635402e-05	1.9020708	1.0596872	-0.045214069	4.8362546e-05	-0.13233828	-0.10303373	-0.13203065	-0.10335631	0.00036215558	0.00036669101	0.0038605969	0.50650975	-0.78461283	-0.20372985	0.78412569	0.20748463	0.032968956	1.2718867	0.68018312	0.016233963	0.00026893485	0.018826851	0.040603765	0.0033427155	0.040559618	0.0034463478	9.7155998e-05	0.094837665	0.016223132	4.6040307	4.7390508	4.5320154	4.2666607	4.5321852	4.2679624	4.1320047	4.6034075	3.3998155	3.431719	3.7788887	3.7559138	3.7784115	3.7553756	3.8688976	4.0236163	-149.38119	R0:S0:1	-92.24	uncorrelated	51514b8	0	sharp_wc_2.0_b_50	 8.55e+01	 1.00e+06	2022-04-11@05:57
2x2_2C_8b_C2v_L	6.8788633	0.1	14	2.05	-0.28091682	-10.913388	-12.178119	-0.96393471	-12.178314	-0.96129886	0.4504543	-8.8478645	13.6	0.04374265	6.4021527e-06	-0.010237342	0.097827391	-0.010624906	0.097343379	-3.0055538e-05	0.00028983191	-0.00020785046	-0.90132491	1.3774207	0.035029762	-1.3770351	-0.035874104	-0.056266571	-1.495159	1.28	0.673	0.15	-0.073491417	1.3165204	1.6703939	-0.29330012	-0.038178153	0.017032256	-0.16648488	0.060811973	1.9997163	1.9810979	1.9590572	1.9965006	1.9590782	1.9964064	0.00010179939	1.901986	1.0602442	-0.046203961	0.00014066316	-0.13534534	-0.1053403	-0.13518598	-0.10560948	0.00024440389	-0.00033404657	0.00091849464	0.50669981	-0.78372639	-0.20979084	0.78356606	0.21312791	0.033643967	1.2725713	0.67863013	0.01645999	0.00028932949	0.018850277	0.040563092	0.0035362956	0.040542407	0.0036311247	0.00010239103	0.094917648	0.016449979	4.605894	4.7408896	4.5352916	4.2726494	4.5347504	4.2729855	4.1329264	4.6034754	3.3983073	3.4302937	3.774984	3.7512226	3.7753014	3.7515797	3.868031	4.0244047	-149.46325	R0:S0:1	-92.4	uncorrelated	51514b8	0	sharp_wc_2.0_b_50	 9.01e+01	 1.00e+06	2022-04-11@06:00
2x2_2C_8b_C2v_L	6.8788274	0.1	14	2.05	-0.28222969	-10.913178	-12.17785	-0.96468599	-12.178035	-0.96205394	0.4507535	-8.8477703	13.62	0.044158321	0.00050895519	-0.010631873	0.098158296	-0.010780144	0.097728116	0.00028459714	-0.00012068479	0.00051749287	-0.90088769	1.3756748	0.035929597	-1.3754387	-0.036561898	-0.056997443	-1.4950875	1.28	0.673	0.15	-0.075111627	1.3165262	1.670628	-0.29318951	-0.038182858	0.017030848	-0.17030266	0.061520231	1.9996932	1.9810808	1.9590885	1.9962533	1.9591119	1.9961804	0.00010582898	1.9015583	1.0609495	-0.047222874	-0.00037379521	-0.13850293	-0.10806541	-0.13838023	-0.10826134	-0.0019292237	0.00032243014	-0.0024272675	0.50662517	-0.78299013	-0.21743656	0.78272471	0.21987222	0.034063936	1.2756346	0.67694276	0.016728537	0.00031313184	0.018867716	0.040533911	0.0037860371	0.040511055	0.0038593441	0.00010648393	0.095316023	0.016718707	4.6102161	4.7450668	4.5382341	4.2786776	4.5384412	4.279622	4.1348417	4.6050288	3.3943905	3.4265705	3.7714245	3.7468945	3.7710537	3.7464922	3.8661591	4.0252983	-149.54952	R0:S0:1	-92.56	uncorrelated	51514b8	0	sharp_wc_2.0_b_50	 9.53e+01	 1.00e+06	2022-04-11@06:03
2x2_2C_8b_C2v_L	6.8789018	0.1	14	2.05	-0.28399259	-10.912885	-12.177436	-0.96566363	-12.177614	-0.96303647	0.45114234	-8.8478377	13.64	0.044591436	0.00092747787	-0.011297508	0.098344198	-0.011308431	0.098027591	0.00041623562	0.00026043602	0.001374484	-0.90070043	1.3744073	0.037306342	-1.3742627	-0.037587944	-0.058324947	-1.4928241	1.28	0.673	0.15	-0.076731324	1.3165338	1.670857	-0.29305614	-0.038181081	0.017025661	-0.17401061	0.062197892	1.9996659	1.9810354	1.9591104	1.9959439	1.9591198	1.9959025	0.00011261085	1.9014249	1.0616274	-0.048249347	-0.00038617591	-0.14146073	-0.1111084	-0.14143989	-0.11119483	-0.0026948092	-0.00011786742	-0.0067574706	0.50706813	-0.78225199	-0.22673904	0.78215771	0.22800224	0.034865907	1.2766585	0.67517371	0.016989041	0.00034115146	0.01891307	0.040514025	0.0040981635	0.040504776	0.0041397245	0.00011336667	0.095441306	0.016979979	4.6126766	4.7475958	4.5420647	4.2860074	4.5420272	4.2863567	4.1359339	4.6053097	3.3923801	3.4246761	3.7670585	3.7417031	3.767008	3.7416616	3.8651374	4.0261398	-149.63537	R0:S0:1	-92.72	uncorrelated	51514b8	0	sharp_wc_2.0_b_50	 1.01e+02	 1.00e+06	2022-04-11@06:06
2x2_2C_8b_C2v_L	6.8789851	0.1	14	2.05	-0.28626368	-10.912512	-12.17688	-0.96688763	-12.17705	-0.96426473	0.45165431	-8.8477118	13.66	0.045287939	0.0011776509	-0.012240395	0.098608555	-0.012168415	0.098449483	0.00068500096	7.4589266e-06	0.0023015307	-0.90038698	1.3732904	0.039144519	-1.3732464	-0.038978049	-0.059065505	-1.4926872	1.28	0.673	0.15	-0.078447218	1.3165417	1.6711433	-0.29291106	-0.038184151	0.017022868	-0.17790361	0.063032912	1.9996271	1.9810147	1.9591259	1.9955401	1.9591378	1.9955495	0.00011791618	1.9009954	1.0624594	-0.049715286	-0.00064887466	-0.14453503	-0.1148838	-0.14453083	-0.11481103	-0.0045700648	0.00019316511	-0.01134275	0.50700963	-0.78155829	-0.23831272	0.78137742	0.23785645	0.035301858	1.2797671	0.67322628	0.017294079	0.0003811396	0.018934144	0.040500689	0.0045051988	0.040489188	0.0044957832	0.00011876439	0.095841047	0.0172853	4.6175325	4.7522042	4.5460228	4.294161	4.5465617	4.2947163	4.1381179	4.606667	3.3881374	3.4205772	3.7625606	3.736366	3.7619969	3.7357508	3.8630069	4.0272417	-149.72523	R0:S0:1	-92.88	uncorrelated	51514b8	0	sharp_wc_2.0_b_50	 1.07e+02	 1.00e+06	2022-04-11@06:09
2x2_2C_8b_C2v_L	6.87906	0.1	14	2.05	-0.28912248	-10.91206	-12.176188	-0.96838291	-12.176346	-0.96576452	0.45229246	-8.8477735	13.68	0.046389154	0.0012815736	-0.013418439	0.099190278	-0.013203749	0.099223096	0.00073472107	0.00036634212	0.0031362691	-0.89964586	1.3719041	0.041407359	-1.3720258	-0.040777394	-0.060133429	-1.4901153	1.28	0.673	0.15	-0.080257281	1.3165498	1.6714197	-0.29276186	-0.038185616	0.017018257	-0.18202713	0.063874798	1.9995735	1.9809949	1.9591791	1.9950309	1.9591659	1.9950902	0.00012452677	1.9008766	1.0633002	-0.051716179	-0.00040999343	-0.14764402	-0.11960365	-0.1477966	-0.11939125	-0.0047561912	-0.00046074118	-0.015848944	0.50706019	-0.78036588	-0.25202898	0.78049822	0.25008031	0.035957178	1.2807939	0.67104635	0.017609592	0.00043635955	0.018954154	0.040450661	0.0050184879	0.040463568	0.0049590418	0.00012547835	0.095952429	0.017601989	4.6208745	4.7552073	4.5508865	4.304334	4.5509216	4.3038252	4.1398654	4.606324	3.3856152	3.4180329	3.7568649	3.7297325	3.7569325	3.7298004	3.8613298	4.028634	-149.81367	R0:S0:1	-93.04	uncorrelated	51514b8	0	sharp_wc_2.0_b_50	 1.14e+02	 1.00e+06	2022-04-11@06:12
2x2_2C_8b_C2v_L	6.8790763	0.1	14	2.05	-0.29264476	-10.91152	-12.17535	-0.9701818	-12.175492	-0.96756794	0.45308643	-8.8476099	13.7	0.047793981	0.0013401376	-0.014844353	0.10000777	-0.014390242	0.10025576	0.00085712068	7.7124982e-05	0.0036766887	-0.89848586	1.3701786	0.043999859	-1.3705667	-0.042944295	-0.060204762	-1.490152	1.28	0.673	0.15	-0.082241753	1.3165574	1.6717655	-0.2926093	-0.038195885	0.017017813	-0.18660396	0.06493727	1.9995067	1.9810185	1.9592578	1.9943989	1.9592283	1.9945162	0.00012746539	1.9003832	1.0643572	-0.054326992	-0.00053436643	-0.15107013	-0.12538584	-0.15133752	-0.12503148	-0.0056980123	-0.00021939618	-0.018683015	0.506298	-0.77886925	-0.26793348	0.77914092	0.26443402	0.035989903	1.2844893	0.66855562	0.017993491	0.00050521619	0.018931222	0.040375876	0.0056553012	0.040404848	0.0055379632	0.00012847296	0.096410565	0.017986493	4.6274567	4.7609637	4.5559743	4.3158945	4.5562868	4.3151226	4.1432243	4.6071561	3.3800796	3.4124873	3.7506901	3.7225821	3.7506316	3.722478	3.8580035	4.0305371	-149.90644	R0:S0:1	-93.2	uncorrelated	51514b8	0	sharp_wc_2.0_b_50	 1.22e+02	 1.00e+06	2022-04-11@06:16
2x2_2C_8b_C2v_L	6.8790314	0.1	14	2.05	-0.30088804	-10.910389	-12.173644	-0.97386369	-12.173776	-0.97127048	0.4544934	-8.8478221	13.72	0.048088315	-0.00093176502	-0.014731979	0.098393819	-0.014570064	0.098562272	-0.00068170781	-0.00040105124	-0.0020107883	-0.89617817	1.3678757	0.045599231	-1.3680666	-0.044683624	-0.058740891	-1.487296	1.28	0.673	0.15	-0.084217006	1.3165646	1.6720488	-0.29247446	-0.038202573	0.017015163	-0.1912371	0.065804971	1.9994962	1.9810665	1.9593298	1.9940191	1.959338	1.9941564	0.0001217734	1.9002739	1.0652298	-0.055409891	0.00014920532	-0.1550866	-0.12813147	-0.15506871	-0.12749623	0.0045900123	0.0005877273	0.010422015	0.50540197	-0.77755478	-0.27744827	0.77735777	0.27389951	0.035089034	1.2856036	0.66620296	0.018338587	0.00051575502	0.018883882	0.040307115	0.0060342113	0.040299451	0.0058968937	0.00012269777	0.096512289	0.018330677	4.6310605	4.7641122	4.5600888	4.324569	4.5611732	4.3247526	4.1457981	4.6060404	3.3768173	3.4092738	3.7454526	3.7165777	3.744497	3.7154343	3.8553856	4.0326187	-150.00613	R0:S0:1	-93.36	uncorrelated	51514b8	0	sharp_wc_2.0_b_50	 1.31e+02	 1.00e+06	2022-04-11@06:19
2x2_2C_8b_C2v_L	6.8792241	0.1	14	2.05	-0.31481293	-10.908287	-12.170678	-0.979323	-12.170791	-0.97676654	0.45617203	-8.8480254	13.74	0.049687218	-0.00033711167	-0.015697373	0.10038721	-0.01553196	0.10034601	-0.00011081909	-0.00015205907	-0.0014089657	-0.89718861	1.3668547	0.046136095	-1.3669459	-0.04576089	-0.060941652	-1.4866893	1.28	0.673	0.15	-0.086357147	1.3165756	1.6724338	-0.29227315	-0.038204169	0.017010008	-0.1961653	0.066893206	1.9994379	1.9809853	1.9593568	1.9936251	1.9593663	1.9936843	0.0001316056	1.8999024	1.0663121	-0.058143492	-0.00011527794	-0.1590747	-0.13337814	-0.15904476	-0.13303075	0.00053626461	0.0005320743	0.0073999179	0.5061091	-0.77650209	-0.28585373	0.77632219	0.28439732	0.036402661	1.2883621	0.66353923	0.018746629	0.00057539025	0.0189652	0.040283295	0.0064324755	0.040274276	0.0063733293	0.00013267317	0.096858562	0.018740765	4.6365307	4.7696655	4.5658773	4.334808	4.5666671	4.3352727	4.1482979	4.6068993	3.3723281	3.404856	3.7389683	3.7089184	3.7382289	3.7080604	3.8529962	4.0341725	-150.12451	R0:S0:1	-93.52	uncorrelated	51514b8	1	sharp_wc_2.0_b_50	 1.41e+02	 7.21e-04	2022-04-11@06:25
2x2_2C_8b_C2v_L	6.8793335	0.1	14	2.05	-0.33262757	-10.905721	-12.166964	-0.98617365	-12.16705	-0.98365587	0.45834225	-8.8484775	13.76	0.050173827	0.0012203969	-0.015850406	0.10178093	-0.015913654	0.1015598	0.0010168392	-8.1224616e-05	0.0007255162	-0.89658197	1.3658694	0.045811512	-1.3657763	-0.046130586	-0.060056703	-1.4852124	1.28	0.673	0.15	-0.088577296	1.3165857	1.6728105	-0.29208449	-0.038208898	0.017005859	-0.2013429	0.067939895	1.9994075	1.9809685	1.9593615	1.9934117	1.9593921	1.9933575	0.00013277858	1.899626	1.0673566	-0.059472855	-0.0010579951	-0.16360564	-0.13722633	-0.16340937	-0.13742872	-0.0077866968	0.00094754874	-0.0033454537	0.50596718	-0.77571049	-0.29006012	0.77527958	0.29126625	0.035852711	1.2905768	0.66083493	0.019159297	0.00060566772	0.018982431	0.040281212	0.0066482611	0.040251602	0.0067026758	0.00013392356	0.097115946	0.019154394	4.6416128	4.7746725	4.5713292	4.3433636	4.5724205	4.3450596	4.1511037	4.606809	3.3677978	3.4004435	3.7329345	3.7016666	3.7317412	3.7003959	3.850196	4.0361919	-150.25043	R0:S0:1	-93.68	uncorrelated	51514b8	0	sharp_wc_2.0_b_50	 1.52e+02	 1.00e+06	2022-04-11@06:28
2x2_2C_8b_C2v_L	6.8795147	0.1	14	2.05	-0.35857235	-10.90191	-12.16153	-0.99565981	-12.161583	-0.9932037	0.46052859	-8.8493063	13.78	0.05527415	-6.5741845e-05	-0.015388342	0.10342858	-0.015775716	0.10313533	-0.00095322873	-0.00024043453	-0.00076252069	-0.89694104	1.3654551	0.044959605	-1.365198	-0.045882688	-0.063817045	-1.4847204	1.28	0.673	0.15	-0.091101723	1.3165976	1.6732728	-0.291855	-0.038215775	0.017001635	-0.20728692	0.069186805	1.9992551	1.980916	1.9593496	1.9932599	1.9593634	1.9930992	0.00015025539	1.8992123	1.0685938	-0.066386005	5.2356426e-05	-0.16902113	-0.14125613	-0.16883706	-0.14190692	0.007091558	0.00011998355	0.003789421	0.50619921	-0.77482476	-0.29222465	0.77475023	0.29621271	0.038056798	1.29374	0.65767532	0.019647766	0.00076264962	0.019035392	0.040296192	0.0068019249	0.040282505	0.0069634378	0.00015171623	0.09750097	0.019645869	4.6489823	4.7811743	4.5789494	4.3537457	4.5783055	4.3543862	4.1546139	4.6072193	3.3628439	3.3949181	3.7248832	3.692116	3.7253124	3.6926424	3.8468718	4.0384821	-150.39781	R0:S0:1	-93.84	uncorrelated	51514b8	1	sharp_wc_2.0_b_50	 1.68e+02	 1.20e-03	2022-04-11@06:34
2x2_2C_8b_C2v_L	6.8797045	0.1	14	2.05	-0.39443899	-10.896728	-12.154095	-1.0079578	-12.154086	-1.0056482	0.46277234	-8.8509981	13.8	0.057444039	-0.00010033867	-0.015761217	0.1050134	-0.015860768	0.10455906	0.00077790889	0.00024124479	0.000404549	-0.89629402	1.36455	0.045506547	-1.3642311	-0.045720018	-0.064501404	-1.4836142	1.28	0.673	0.15	-0.093627263	1.3166098	1.673745	-0.29162347	-0.03822304	0.016997374	-0.21317074	0.070470193	1.9991866	1.9809005	1.9593527	1.9928923	1.9593709	1.9928536	0.00015396838	1.8988858	1.069872	-0.069593573	0.00011729886	-0.17410233	-0.14641547	-0.17406042	-0.1463905	-0.0058650572	-0.00024631271	-0.0020220317	0.50593864	-0.77387229	-0.29975183	0.77370082	0.30069967	0.038429308	1.2964042	0.65439752	0.020149589	0.00083103297	0.019051493	0.040296233	0.0071719739	0.040278418	0.0072103695	0.00015549641	0.097804508	0.020149476	4.6555193	4.7874638	4.5856891	4.3649201	4.5855404	4.3651796	4.1583651	4.6067933	3.3573802	3.3893133	3.7174238	3.6832923	3.7174177	3.6833213	3.8431727	4.0411582	-150.56548	R0:S0:1	-94	uncorrelated	51514b8	1	sharp_wc_2.0_b_50	 1.84e+02	 1.59e-03	2022-04-11@06:40
2x2_2C_8b_C2v_L	6.8800356	0.1	14	2.05	-0.44097478	-10.889855	-12.144399	-1.0233741	-12.144245	-1.0211901	0.46469849	-8.8536077	13.82	0.061936723	0.00098925798	-0.016632336	0.10589315	-0.016282811	0.10629719	0.0023417031	0.00068073103	0.0018943084	-0.89725089	1.362597	0.0472972	-1.3630311	-0.046508739	-0.065810056	-1.4827574	1.28	0.673	0.15	-0.096350186	1.3166247	1.6742987	-0.29134491	-0.038228294	0.016991468	-0.21952773	0.07199719	1.9990468	1.9808166	1.9594304	1.9923197	1.9594022	1.9924101	0.00018103302	1.8985483	1.0713927	-0.075595644	-0.00052675239	-0.1793478	-0.15269656	-0.17955123	-0.15256191	-0.018159227	-0.00016402396	-0.0090656704	0.50652299	-0.77202665	-0.31158761	0.7722574	0.3092273	0.039206897	1.2991587	0.65060648	0.020728484	0.00097274036	0.019135667	0.040223718	0.0077452865	0.040251465	0.0076556668	0.00018335777	0.098118713	0.020730995	4.6632827	4.7949766	4.5933794	4.3790904	4.59392	4.3788032	4.1622952	4.6063442	3.3517064	3.383146	3.7083768	3.672916	3.7080926	3.6725055	3.8394446	4.0440299	-150.7572	R0:S0:1	-94.16	uncorrelated	51514b8	1	sharp_wc_2.0_b_50	 2.05e+02	 1.09e-03	2022-04-11@06:46
2x2_2C_8b_C2v_L	6.8803547	0.1	14	2.05	-0.49893924	-10.881331	-12.132197	-1.0419061	-12.131889	-1.0399284	0.46607543	-8.8573458	13.84	0.065088939	0.0014789958	-0.018279909	0.10699297	-0.017303421	0.10759835	0.0015375581	0.00042838328	0.0019272962	-0.89667677	1.360364	0.050492207	-1.3612281	-0.048280105	-0.066374953	-1.4818247	1.28	0.673	0.15	-0.099160372	1.3166396	1.6748961	-0.2910603	-0.038238465	0.016987204	-0.22599968	0.073673448	1.9989649	1.9807976	1.9595263	1.9914507	1.9594879	1.9918226	0.00017499966	1.8982088	1.0730637	-0.079762949	-0.0010434164	-0.18445797	-0.1610093	-0.18482297	-0.15951907	-0.012293584	0.00038411274	-0.0087655639	0.50617582	-0.76993574	-0.32909107	0.7701014	0.32063987	0.039528167	1.3021004	0.64647977	0.021352855	0.0010537167	0.019155482	0.040133503	0.0086146085	0.040171683	0.0082433508	0.00017706189	0.098433741	0.021357332	4.671425	4.8030008	4.6014535	4.3957985	4.6036223	4.3951121	4.1673407	4.6050233	3.3447302	3.3759702	3.6986625	3.6619927	3.6971089	3.6600487	3.8343977	4.0477149	-150.9723	R0:S0:1	-94.32	uncorrelated	51514b8	1	sharp_wc_2.0_b_50	 2.30e+02	 9.29e-04	2022-04-11@06:52
2x2_2C_8b_C2v_L	6.8806773	0.1	14	2.05	-0.56833236	-10.871158	-12.117488	-1.0635539	-12.11702	-1.0618632	0.46690316	-8.8622122	13.86	0.066900688	0.0013688749	-0.020703935	0.10831284	-0.018922598	0.10846254	-0.0016345261	-0.00051579846	0.00050351234	-0.89457166	1.3578511	0.055091568	-1.3588221	-0.051034114	-0.066196092	-1.4808161	1.28	0.673	0.15	-0.10205579	1.3166547	1.6755451	-0.29076611	-0.038253487	0.016984574	-0.23256601	0.075522259	1.9989446	1.9808449	1.9596422	1.9902474	1.9596312	1.9910851	0.0001779111	1.8978685	1.0749084	-0.082089586	-0.0014349356	-0.18942014	-0.17148161	-0.18983343	-0.16730397	0.01283739	0.0013821584	-0.0017826002	0.5048669	-0.76757892	-0.35212099	0.76719009	0.3347125	0.039385854	1.3052234	0.64199973	0.022027112	0.0010709848	0.019109411	0.040023947	0.0098168413	0.040036172	0.0089790313	0.00018003322	0.09874837	0.022032863	4.6801735	4.8117118	4.6099345	4.415243	4.6147827	4.4142289	4.1734465	4.6027963	3.3361634	3.3675995	3.6882284	3.6505444	3.6843293	3.6458764	3.8283271	4.0521877	-151.21088	R0:S0:1	-94.48	uncorrelated	51514b8	0	sharp_wc_2.0_b_50	 2.59e+02	 1.00e+06	2022-04-11@06:55
2x2_2C_8b_C2v_L	6.881358	0.1	14	2.05	-0.64928186	-10.85877	-12.09978	-1.0884004	-12.099086	-1.0868237	0.46576192	-8.8686721	13.88	0.074463813	-0.00098652801	-0.02144978	0.10911724	-0.0203951	0.11001441	-0.0014702797	-0.00052054926	-0.0011238478	-0.89799692	1.3551311	0.056814078	-1.356247	-0.054634743	-0.067642533	-1.4803586	1.28	0.673	0.15	-0.10529871	1.3166764	1.6763216	-0.29036772	-0.038256127	0.016975336	-0.2401612	0.077627654	1.9987382	1.9806504	1.959807	1.989676	1.9597245	1.9900626	0.00018762351	1.8975417	1.0770063	-0.091307522	0.00048595953	-0.19557308	-0.17884141	-0.19613889	-0.17735626	0.012195257	8.2853131e-05	0.0047955824	0.50673837	-0.76420865	-0.36143406	0.76497083	0.35372879	0.04028733	1.3080743	0.63690041	0.022803318	0.0012794948	0.019303921	0.039867896	0.010383313	0.039948951	0.0099994458	0.00018998544	0.099053228	0.022813115	4.6901414	4.8220512	4.6229246	4.435304	4.6237235	4.4330376	4.1785568	4.6015449	3.3291485	3.3598154	3.6734071	3.634121	3.6733656	3.6336543	3.8233322	4.0561667	-151.47539	R0:S0:1	-94.64	uncorrelated	51514b8	1	sharp_wc_2.0_b_50	 3.00e+02	 8.67e-04	2022-04-11@07:00
2x2_2C_8b_C2v_L	6.881951	0.1	14	2.05	-0.74181527	-10.84473	-12.079343	-1.1162459	-12.078437	-1.1148363	0.46368189	-8.8765063	13.9	0.079555049	-0.0022199782	-0.022466237	0.11089528	-0.021999529	0.11174221	-0.0002312178	-0.00050747363	-0.0037315705	-0.89828344	1.3526793	0.058339957	-1.3534018	-0.05889228	-0.065800531	-1.4795393	1.28	0.673	0.15	-0.10869303	1.3166971	1.6771528	-0.28997407	-0.038268717	0.016969838	-0.2481285	0.079910334	1.9986079	1.9805939	1.9599425	1.9890707	1.9598614	1.9888844	0.00017184919	1.8972296	1.0792829	-0.097285307	0.00079699623	-0.20222719	-0.18736482	-0.20250952	-0.1886136	0.0014497962	0.00075249144	0.015610717	0.50666376	-0.76107611	-0.37083127	0.7620722	0.37438008	0.039185678	1.3111199	0.63134927	0.023646031	0.0014090201	0.019361405	0.039740968	0.0109847	0.039819826	0.011173234	0.000173757	0.09934266	0.023658781	4.7011533	4.8331178	4.6362399	4.455837	4.6346433	4.4550934	4.185356	4.5987607	3.3197838	3.3502091	3.6583013	3.6172784	3.6601621	3.6192005	3.8164238	4.0614822	-151.76193	R0:S0:1	-94.8	uncorrelated	51514b8	0	sharp_wc_2.0_b_50	 3.53e+02	 1.00e+06	2022-04-11@07:03
2x2_2C_8b_C2v_L	6.882671	0.1	14	2.05	-0.84572949	-10.828786	-12.055774	-1.146871	-12.054794	-1.1457289	0.45896085	-8.8857044	13.92	0.08606089	-0.002879605	-0.022287916	0.11378216	-0.024228685	0.11280582	0.0028261361	0.0011347132	-0.0050009013	-0.89907134	1.3522459	0.058382815	-1.3505004	-0.061268021	-0.073739091	-1.4808394	1.28	0.673	0.15	-0.1122849	1.3167199	1.6780856	-0.28953416	-0.038283093	0.016964377	-0.25632008	0.082277875	1.9984491	1.9805209	1.9598872	1.9887227	1.9600298	1.9881787	0.00026327261	1.8966604	1.0816346	-0.10461776	0.00076425493	-0.2100159	-0.19498624	-0.20875599	-0.19711557	-0.025680364	0.00057498768	0.020231441	0.50665859	-0.76000134	-0.37542096	0.75861746	0.38556266	0.043956923	1.3158479	0.62572892	0.024528979	0.0015676911	0.019435466	0.039800931	0.011331083	0.039661227	0.011871518	0.00026829489	0.099870186	0.02454687	4.7139451	4.8459442	4.6482975	4.4723611	4.6477063	4.4761447	4.1927728	4.5973608	3.3090266	3.3390883	3.6455289	3.6024129	3.6450529	3.6025256	3.8097543	4.0666285	-152.07359	R0:S0:1	-94.96	uncorrelated	51514b8	0	sharp_wc_2.0_b_50	 4.25e+02	 1.00e+06	2022-04-11@07:06
2x2_2C_8b_C2v_L	6.8834776	0.1	14	2.05	-0.96024418	-10.810927	-12.029041	-1.1793768	-12.027845	-1.1784629	0.45126332	-8.8971246	13.94	0.091745751	-0.0015751931	-0.022403681	0.11705351	-0.024095091	0.11597756	-0.0009677363	-0.00032026804	-0.0022459274	-0.90006253	1.3510295	0.057914592	-1.3492194	-0.061401421	-0.070735344	-1.4797268	1.28	0.673	0.15	-0.11610211	1.3167451	1.6790748	-0.28905902	-0.038295289	0.016956891	-0.26544173	0.084766028	1.9983703	1.9804262	1.9599291	1.9884768	1.9600251	1.987772	0.00020988775	1.8964408	1.0841149	-0.11061641	0.0011552797	-0.21812812	-0.20269721	-0.21735916	-0.20572311	0.008826068	-0.00040530227	0.0078796215	0.50698633	-0.75757975	-0.37773271	0.75690234	0.39080599	0.04207912	1.3184446	0.61946142	0.025492144	0.0016451686	0.019531255	0.03976698	0.011575776	0.039672081	0.012276142	0.00021300658	0.10007448	0.025514383	4.7255807	4.8584228	4.6632941	4.4920521	4.6604341	4.4943741	4.20047	4.5934235	3.2984469	3.3286462	3.6293043	3.5836666	3.6309799	3.5861907	3.8017003	4.0730226	-152.39858	R0:S0:1	-95.12	uncorrelated	51514b8	1	sharp_wc_2.0_b_50	 5.15e+02	 1.05e-03	2022-04-11@07:12
2x2_2C_8b_C2v_L	6.8844492	0.1	14	2.05	-1.0846878	-10.791171	-11.999066	-1.2129667	-11.997582	-1.2123012	0.43865647	-8.9104951	13.96	0.098587663	0.0013234473	-0.023310061	0.12026467	-0.023412481	0.11911746	0.0010337104	0.00023449859	0.0020820741	-0.90126767	1.3492282	0.058999443	-1.3483634	-0.059872392	-0.071960759	-1.4800129	1.28	0.673	0.15	-0.12020369	1.3167733	1.680224	-0.28852112	-0.038312015	0.016950422	-0.27517416	0.087616747	1.9982262	1.9803341	1.9599857	1.9878428	1.9600328	1.9877326	0.00022266289	1.8960482	1.0869526	-0.11804747	-0.00074866299	-0.226738	-0.21290987	-0.22658879	-0.21289336	-0.009705425	0.00013082299	-0.007050271	0.50705567	-0.75505016	-0.38689316	0.75456342	0.38905322	0.042795305	1.3223397	0.61251461	0.026576526	0.0017888447	0.019624639	0.039718801	0.012206911	0.039672497	0.012313936	0.0002263956	0.10043853	0.026604371	4.7402391	4.8735363	4.6773732	4.513738	4.6774336	4.5147161	4.2095553	4.5896314	3.2856003	3.3157265	3.613355	3.5654157	3.6129338	3.5652354	3.7927489	4.0801374	-152.73721	R0:S0:1	-95.28	uncorrelated	51514b8	1	sharp_wc_2.0_b_50	 6.20e+02	 1.55e-03	2022-04-11@07:17
2x2_2C_8b_C2v_L	6.8855545	0.1	14	2.05	-1.2182413	-10.76965	-11.965759	-1.2464609	-11.96388	-1.2457625	0.41946877	-8.9263005	13.98	0.10454487	0.0036214978	-0.024622483	0.12118248	-0.023940749	0.12302276	-0.00052173153	-0.00014584119	0.0050313843	-0.90103803	1.3455059	0.062150291	-1.3472282	-0.060023348	-0.072004143	-1.4801164	1.28	0.673	0.15	-0.12445866	1.3168037	1.6815102	-0.28793723	-0.038334451	0.01694568	-0.28519921	0.090871421	1.9980971	1.9803114	1.9602036	1.9869192	1.9600731	1.9871965	0.00022588462	1.8956832	1.0901971	-0.12444593	-0.001513763	-0.23505754	-0.22415494	-0.23577076	-0.22383524	0.0056473327	-0.00030100482	-0.01651867	0.50605343	-0.75051486	-0.40069285	0.75174853	0.39534671	0.042850534	1.3263535	0.60478101	0.027775462	0.001916932	0.019649397	0.039513255	0.013119273	0.039641626	0.012848003	0.00022997598	0.10077571	0.027808021	4.7569622	4.8903662	4.6945979	4.5411759	4.6953363	4.5395276	4.2204231	4.584209	3.2703023	3.3006301	3.5932071	3.543428	3.5934263	3.5430184	3.7819279	4.0887011	-153.07928	R0:S0:1	-95.44	uncorrelated	51514b8	1	sharp_wc_2.0_b_50	 7.06e+02	 1.51e-03	2022-04-11@07:23
2x2_2C_8b_C2v_L	6.8869705	0.1	14	2.05	-1.3604713	-10.746273	-11.929001	-1.2791579	-11.926829	-1.2784827	0.39300608	-8.9445228	14	0.11066601	0.003955922	-0.027635811	0.12219927	-0.02468727	0.12484851	-0.0026686321	-0.00076256303	0.0065174839	-0.90185107	1.3411303	0.06791565	-1.3439416	-0.061936054	-0.071534261	-1.4803653	1.28	0.673	0.15	-0.1288309	1.3168389	1.6829668	-0.28727155	-0.038355564	0.016939841	-0.29543048	0.094598558	1.9979682	1.9802502	1.9605004	1.9853196	1.96028	1.986413	0.00028643793	1.8953387	1.0939173	-0.13110953	-0.0011392885	-0.24281167	-0.23998381	-0.24473084	-0.23574061	0.02924278	-0.0012032049	-0.020471601	0.50538597	-0.74499842	-0.42424828	0.74689094	0.40556628	0.042750188	1.330409	0.59623514	0.029094349	0.0020447217	0.019712617	0.039230963	0.014701253	0.03944808	0.013622132	0.00029425982	0.10109354	0.029131261	4.7755554	4.9094401	4.7132223	4.5743255	4.7162321	4.5697286	4.2322214	4.5778286	3.2530582	3.2838173	3.5708347	3.5199677	3.5697884	3.5171232	3.7704705	4.0981593	-153.42308	R0:S0:1	-95.6	uncorrelated	51514b8	1	sharp_wc_2.0_b_50	 7.28e+02	 9.37e-04	2022-04-11@07:28
2x2_2C_8b_C2v_L	6.8886943	0.1	14	2.05	-1.5108136	-10.721169	-11.888815	-1.3103468	-11.886295	-1.3094181	0.35850795	-8.9650902	14.02	0.11908883	0.0033137219	-0.029952946	0.12225092	-0.02746779	0.12586032	-0.00119429	-0.00028160304	0.0046400045	-0.90291444	1.33569	0.073590113	-1.3395982	-0.06721839	-0.070194942	-1.4806773	1.28	0.673	0.15	-0.13346393	1.316879	1.6846527	-0.28651035	-0.038381955	0.016935103	-0.30615869	0.098891618	1.9977823	1.9801919	1.9608859	1.9837126	1.9606198	1.9848577	0.0002469801	1.8949729	1.0982031	-0.14061832	-0.0015893619	-0.25129005	-0.25640512	-0.25296829	-0.25245524	0.014001503	-0.00023093723	-0.013220661	0.5044385	-0.73811945	-0.44595564	0.74040938	0.42716163	0.042011834	1.3349759	0.58662383	0.030569172	0.0022305059	0.019773333	0.038862472	0.016284154	0.039125143	0.015158752	0.00025338255	0.10143014	0.030610914	4.797254	4.9314566	4.7356846	4.6115395	4.7393818	4.6072655	4.2465569	4.5697663	3.2335663	3.2642744	3.5439869	3.492308	3.5427637	3.4888533	3.7558885	4.109528	-153.76384	R0:S0:1	-95.76	uncorrelated	51514b8	1	sharp_wc_2.0_b_50	 6.74e+02	 1.20e-03	2022-04-11@07:34
2x2_2C_8b_C2v_L	6.8907581	0.1	14	2.05	-1.6688364	-10.694459	-11.845075	-1.3388702	-11.842419	-1.3376169	0.31556037	-8.9877483	14.04	0.12760543	0.00026137363	-0.032279231	0.12377777	-0.030373713	0.12514318	0.0013236409	0.00033288871	0.00018641518	-0.90447517	1.331452	0.078152206	-1.3330817	-0.074080147	-0.068887351	-1.4809901	1.28	0.673	0.15	-0.1382997	1.3169243	1.6865585	-0.28565247	-0.038409878	0.016930407	-0.31742213	0.10371767	1.9975808	1.9801246	1.9612232	1.9820867	1.961128	1.9829958	0.00026145163	1.8946222	1.1030227	-0.1504193	-0.0013361602	-0.26056836	-0.27481308	-0.26112771	-0.2707044	-0.017427896	0.0014482479	0.00048078195	0.50337784	-0.73135235	-0.46571382	0.73190316	0.45184752	0.041438065	1.3397008	0.576062	0.032189906	0.0024318171	0.019843557	0.038542564	0.01788594	0.038637288	0.016990749	0.0002702176	0.10175247	0.032236918	4.8216616	4.9563043	4.761137	4.6513094	4.7652017	4.6496329	4.2623227	4.5604074	3.2114441	3.2422484	3.5143585	3.4616835	3.5118085	3.4575941	3.7401312	4.1222381	-154.09673	R0:S0:1	-95.92	uncorrelated	51514b8	1	sharp_wc_2.0_b_50	 5.84e+02	 1.05e-03	2022-04-11@07:39
2x2_2C_8b_C2v_L	6.893104	0.1	14	2.05	-1.8339792	-10.666337	-11.79786	-1.3635577	-11.795038	-1.3616189	0.26544991	-9.0118852	14.06	0.13542443	-0.0041230536	-0.032161051	0.12507131	-0.033543595	0.12514679	0.00054146447	-1.5212865e-05	-0.0062087702	-0.90504599	1.3280079	0.078668654	-1.3272563	-0.080726446	-0.066033421	-1.4814028	1.28	0.673	0.15	-0.14336128	1.3169741	1.6886825	-0.28470839	-0.038442553	0.016927417	-0.32940586	0.10894619	1.9973678	1.9801181	1.961533	1.9814567	1.961567	1.9808851	0.0002451756	1.8942398	1.1082456	-0.15952085	0.0017481375	-0.27119115	-0.28845264	-0.2704709	-0.2914166	-0.0084150029	0.00068146708	0.015573546	0.5012705	-0.72422057	-0.47005819	0.72411696	0.47810158	0.039888554	1.3449614	0.56474543	0.033946498	0.0026443729	0.019853641	0.03825134	0.018501427	0.03821756	0.019066318	0.00025474045	0.10210332	0.03399867	4.849411	4.9840294	4.7922905	4.6907993	4.7901103	4.6919215	4.280083	4.5497526	3.1859668	3.217069	3.4798784	3.424856	3.4815131	3.4273664	3.7221001	4.1365819	-154.41418	R0:S0:1	-96.08	uncorrelated	51514b8	1	sharp_wc_2.0_b_50	 4.96e+02	 1.21e-03	2022-04-11@07:45
2x2_2C_8b_C2v_L	6.8958152	0.1	14	2.05	-2.0020878	-10.637333	-11.747251	-1.3731918	-11.744038	-1.3704207	0.23628211	-9.0305456	14.08	0.144522	-0.0027578054	-0.031437742	0.12698893	-0.030261861	0.13108526	0.00050988899	0.00024372775	-0.0034115242	-0.90667192	1.3254891	0.077286589	-1.3294714	-0.072670773	-0.064703119	-1.4815361	1.28	0.673	0.15	-0.14915995	1.3170312	1.6912242	-0.2836168	-0.038488376	0.016928887	-0.34396524	0.11499838	1.9970985	1.9801079	1.9617826	1.9807558	1.9614976	1.9813453	0.00024419642	1.8936907	1.1142828	-0.17112028	0.0013597884	-0.28495072	-0.30422902	-0.28637999	-0.30325416	-0.0079415899	-0.00014050587	0.0079168543	0.49866472	-0.71746943	-0.47443923	0.72022363	0.46505746	0.038960009	1.3518276	0.55151763	0.036040045	0.0029136667	0.019868393	0.038020977	0.019191011	0.038302329	0.018621411	0.00025549319	0.10260865	0.036101645	4.8838945	5.0185199	4.8238146	4.7321156	4.8246279	4.7288963	4.3014481	4.5378109	3.1546087	3.1858285	3.4443499	3.386058	3.445644	3.3851921	3.7005559	4.1537066	-154.65514	R0:S0:1	-96.24	uncorrelated	51514b8	1	sharp_wc_2.0_b_50	 4.21e+02	 1.60e-03	2022-04-11@07:51
2x2_2C_8b_C2v_L	6.8991574	0.1	14	2.05	-2.1708342	-10.608229	-11.693812	-1.3592938	-11.690757	-1.3562183	0.23592983	-9.0398056	14.1	0.1522352	0.0033189733	-0.033150826	0.12793525	-0.032170261	0.12723334	0.0011849497	0.00045725483	0.0042172361	-0.90657953	1.3214236	0.079968266	-1.3212873	-0.078634878	-0.066358777	-1.4817729	1.28	0.673	0.15	-0.15472676	1.3170956	1.6941322	-0.28238723	-0.038542148	0.016935332	-0.35725955	0.12236334	1.9968393	1.980223	1.9622554	1.9784796	1.9622598	1.9789349	0.00028024606	1.8928254	1.1216426	-0.18208538	-0.0029357076	-0.29649482	-0.33074587	-0.29641282	-0.32773843	-0.020063902	0.0014871365	-0.0081395733	0.49390748	-0.70774308	-0.49707494	0.70745522	0.49106014	0.039718215	1.3614113	0.53694455	0.038300974	0.0031722475	0.019758974	0.037571979	0.021431979	0.037568057	0.020982847	0.00029553631	0.10340176	0.038368307	4.9251888	5.0591293	4.8619984	4.7882155	4.8645225	4.7882469	4.3274421	4.524402	3.1159121	3.1475629	3.4005032	3.3420857	3.398555	3.3395352	3.6747219	4.1732279	-154.77161	R0:S0:1	-96.4	uncorrelated	51514b8	1	sharp_wc_2.0_b_50	 3.69e+02	 2.61e-03	2022-04-11@07:57
2x2_2C_8b_C2v_L	6.9032269	0.1	14	2.05	-2.3380739	-10.579424	-11.638013	-1.3139486	-11.635011	-1.3112066	0.26130106	-9.0367883	14.12	0.16093757	0.0086760622	-0.033453674	0.12548694	-0.031948184	0.12539686	0.0006101175	0.0001049102	0.012415783	-0.90771032	1.31616	0.08101218	-1.3166655	-0.079060711	-0.069365566	-1.4812546	1.28	0.673	0.15	-0.16049603	1.3171705	1.6974895	-0.28096761	-0.038599489	0.016944451	-0.37125852	0.13078999	1.9964507	1.980337	1.9628673	1.9761918	1.9628131	1.9767291	0.00026886742	1.8917202	1.130064	-0.19543486	-0.0052941643	-0.30861851	-0.35742257	-0.30924	-0.35448015	-0.0098384999	0.00086666309	-0.024437274	0.48857348	-0.69583755	-0.51673215	0.69610616	0.50988064	0.04089516	1.3730441	0.52091719	0.040791858	0.0035604388	0.01965163	0.036987023	0.023675706	0.037040887	0.02314878	0.00028024824	0.10441517	0.040866275	4.9739446	5.1068127	4.9069039	4.8507713	4.9094558	4.8505238	4.3572149	4.5103217	3.0711237	3.1027302	3.3491146	3.2916892	3.3473372	3.2887375	3.6450282	4.1949794	-154.7293	R0:S0:1	-96.56	uncorrelated	51514b8	1	sharp_wc_2.0_b_50	 3.31e+02	 2.09e-03	2022-04-11@08:03
2x2_2C_8b_C2v_L	6.9079974	0.1	14	2.05	-2.4968459	-10.552937	-11.581223	-1.2006156	-11.578465	-1.1989217	0.26750534	-9.0132671	14.14	0.1688993	0.0043692879	-0.031642019	0.11987795	-0.03121674	0.12020469	-0.001693259	-0.00061968661	0.0068280775	-0.90901502	1.3100868	0.079392064	-1.3106116	-0.078548624	-0.070745658	-1.4788124	1.28	0.673	0.15	-0.16638414	1.3172553	1.7014308	-0.27936318	-0.038676063	0.01696498	-0.38551438	0.14117814	1.996076	1.9805459	1.9636414	1.9728555	1.9635804	1.9729251	0.00032692841	1.8902564	1.140455	-0.21059388	-0.00091874897	-0.32143297	-0.39254314	-0.32240411	-0.39278323	0.029873198	-0.0020535957	-0.013931136	0.48105481	-0.68096215	-0.54206227	0.68145851	0.54104264	0.041261284	1.3880691	0.50246441	0.043603054	0.0039342921	0.019451016	0.03624271	0.026946914	0.036303057	0.026880545	0.00034433433	0.10575389	0.043683035	5.03451	5.1664459	4.9634153	4.9292048	4.9639516	4.9296143	4.3937163	4.4933117	3.0139486	3.0457814	3.2847628	3.2315965	3.2842737	3.2305061	3.6087942	4.2211369	-154.35821	R0:S0:1	-96.72	uncorrelated	51514b8	1	sharp_wc_2.0_b_50	 3.02e+02	 1.26e-03	2022-04-11@08:09
2x2_2C_8b_C2v_L	6.9137472	0.1	14	2.05	-2.6471503	-10.528767	-11.523443	-1.019295	-11.521117	-1.0193636	0.25454267	-8.9692422	14.16	0.17612041	-0.0096013498	-0.027715863	0.11110829	-0.02997593	0.11165683	-0.0057251797	-0.0017165356	-0.012545881	-0.91049363	1.3032038	0.07510792	-1.3031254	-0.07709862	-0.070499053	-1.4744464	1.28	0.673	0.15	-0.17217921	1.3173529	1.7060948	-0.27752309	-0.038771997	0.016999535	-0.39877893	0.15418049	1.995577	1.9808716	1.9646059	1.9675761	1.9645945	1.9661659	0.0010518322	1.8884281	1.1534681	-0.22782252	0.011744836	-0.33366213	-0.44207319	-0.33497099	-0.45119371	0.10815158	-0.0087857701	0.017344489	0.47066207	-0.66255135	-0.57684563	0.66283568	0.59100912	0.041953344	1.4065714	0.48161274	0.04667361	0.0044318408	0.019135356	0.035309825	0.032111991	0.035320517	0.033484465	0.0011658295	0.10741908	0.046758075	5.1120733	5.2421392	5.0345823	5.027574	5.0312851	5.0309778	4.4355943	4.4727104	2.9404382	2.9722134	3.2043039	3.1629862	3.2054005	3.1666473	3.5700593	4.2513515	-153.65995	R0:S0:1	-96.88	uncorrelated	51514b8	0	sharp_wc_2.0_b_50	 2.81e+02	 1.00e+06	2022-04-11@08:12
2x2_2C_8b_C2v_L	6.9207785	0.1	14	2.05	-2.7405722	-10.521336	-11.440736	-0.25684115	-11.438853	-0.25146608	0.14620634	-8.8089162	14.18	0.19021349	0.00069225218	-0.0087785417	0.068277185	-0.0089573984	0.067127191	-0.062843695	-0.0016635591	0.0012206903	-0.91780268	1.2895692	0.051856881	-1.2890427	-0.053235476	-0.0060488379	-1.4411726	1.28	0.673	0.15	-0.17666904	1.3174684	1.7179867	-0.27525151	-0.039376011	0.017365258	-0.38090604	0.2032881	1.9922832	1.9833076	1.9664064	1.9068414	1.9663234	1.902564	0.10161058	1.8908668	1.2026568	-0.32169226	0.0050568886	-0.32539233	-0.7840246	-0.32736181	-0.79894409	1.2829534	-0.0075380049	-0.0059756944	0.40824635	-0.62667556	-0.82416237	0.62791708	0.85046227	0.026395843	1.3861078	0.44792803	0.052184699	0.0076999576	0.016727494	0.033500802	0.090168392	0.03357758	0.094050979	0.096289531	0.10481973	0.052277236	5.4951625	5.6146019	5.1852669	5.317613	5.1788176	5.3229912	4.1518802	4.414282	2.5650011	2.5800033	3.0203146	3.2212398	3.0230503	3.2365814	4.3443984	4.1670673	-150.23062	R0:S0:1	-97.04	uncorrelated	51514b8	3	sharp_wc_2.0_b_50	 2.52e+02	 2.79e-03	2022-04-11@08:27
2x2_2C_8b_C2v_L	6.9282129	0.1	14	2.05	-2.7149267	-10.542871	-11.343763	0.23523108	-11.341096	0.22263909	-0.082903583	-8.55583	14.2	0.19005676	0.00308882	-0.0081839977	-0.053996133	-0.0081086585	-0.054475704	0.003699383	-0.00077389458	0.0047899803	-0.91906188	1.2817838	0.066416255	-1.2817631	-0.064942011	-0.056180602	-1.4218489	1.28	0.673	0.15	-0.18139996	1.3175849	1.7238043	-0.27307856	-0.039494342	0.017436333	-0.38233637	0.22111752	1.9912551	1.9841548	1.9671579	0.10848403	1.9670236	0.11430189	1.872607	1.8873552	1.2204972	-0.34920435	0.0021681711	-0.32785956	0.86317558	-0.32958761	0.89247209	-0.027970039	-0.0064340837	-0.0099679081	0.38748329	-0.61093331	-0.87657454	0.61280111	0.89598939	1.4159889	1.408722	0.4313301	0.054240958	0.0087172892	0.015888161	0.032762628	0.1036999	0.032888589	0.10894655	0.11890306	0.10794739	0.05434241	5.6157395	5.7336511	5.2535945	3.2320038	5.2458365	3.2538789	4.510469	4.4213565	2.4463599	2.4542959	2.9407308	5.3649729	2.9444589	5.3711808	4.0936229	4.1452191	-148.57474	R0:S0:1	-97.2	uncorrelated	51514b8	3	sharp_wc_2.0_b_50	 2.43e+02	 1.34e-03	2022-04-11@08:41
2x2_2C_8b_C2v_L	6.936276	0.1	14	2.05	-2.5521426	-10.590867	-11.196458	0.18207678	-11.177325	0.17129306	-0.029304133	-8.3084095	14.22	0.18740587	0.010236492	-0.0064417599	-0.053332344	-0.0058190206	-0.053661973	-0.0020048764	-0.00019941962	0.014082541	-0.92142431	1.2718734	0.062392165	-1.2701928	-0.060612323	0.051709665	-1.4041094	1.28	0.673	0.15	-0.18603299	1.3177104	1.7306355	-0.27074399	-0.039659691	0.01754811	-0.37618067	0.24370308	1.9891386	1.9853569	1.9676749	0.1384881	1.9675426	0.14362433	1.820302	1.8845125	1.2430998	-0.39646952	-0.0050713354	-0.3251565	0.92304523	-0.32655553	0.94765979	0.03354022	-0.0039650474	-0.021125617	0.3585773	-0.59752578	-1.0219941	0.5992547	1.035703	-1.6263899	1.4218842	0.41287687	0.055946757	0.010808111	0.014691932	0.032239647	0.12958005	0.032364381	0.1340182	0.16299436	0.11037074	0.056058725	5.7765394	5.8945365	5.3202597	3.3192908	5.3140364	3.3406635	4.8502888	4.4318358	2.289675	2.2801469	2.8576921	5.3897633	2.8607201	5.390836	3.9805431	4.0860597	-147.22699	R0:S0:1	-97.36	uncorrelated	51514b8	4	sharp_wc_2.0_b_50	 2.36e+02	 5.46e-04	2022-04-11@09:01
2x2_2C_8b_C2v_L	6.9468099	0.1	14	2.05	-2.2255492	-10.66782	-10.987949	-0.16289353	-10.937877	-0.16488678	0.029145285	-8.1208937	14.24	0.17528536	-0.00097429087	-0.0055470263	0.060876539	-0.0055228948	0.061275043	0.054490882	-8.6368769e-05	-0.0013517918	-0.92210516	1.2589063	0.054192056	-1.2559777	-0.053796067	-0.00073411728	-1.3874801	1.28	0.673	0.15	-0.19075436	1.3178682	1.7371724	-0.2678656	-0.039708664	0.017605553	-0.37594186	0.26357337	1.9868317	1.9864483	1.9680284	1.8419025	1.9679423	1.8439791	0.21560268	1.8824156	1.2629878	-0.44121206	-0.00027571763	-0.32864572	-1.1235289	-0.32895758	-1.1183365	-1.7714156	0.0017424836	0.0027715617	0.33384238	-0.58569059	-0.96473576	0.5862067	0.95448718	0.013810625	1.4325378	0.39766284	0.057596739	0.013081513	0.013604108	0.031889505	0.14586918	0.031977935	0.14410702	0.1898969	0.11214786	0.057714812	5.9031516	6.0245976	5.3862717	5.3962329	5.389555	5.3971001	3.8901003	4.434657	2.1685025	2.1387789	2.7792212	3.3638935	2.777859	3.3547944	5.0944668	4.0485642	-146.15715	R0:S0:1	-97.52	uncorrelated	51514b8	3	sharp_wc_2.0_b_50	 2.33e+02	 1.29e-03	2022-04-11@09:17
2x2_2C_8b_C2v_L	6.9608289	0.1	14	2.05	-1.6720524	-10.774066	-10.738144	-0.13692965	-10.643957	-0.13924046	0.030561268	-8.0630561	14.26	0.15184508	0.0065171525	-0.003904008	-0.058734966	-0.0039083548	-0.05885595	-0.05863222	-2.1692122e-05	0.008128123	-0.91935902	1.2435582	-0.05305742	-1.2381398	0.053269289	-0.00032588933	-1.3812269	1.28	0.673	0.15	-0.19479839	1.3180708	1.7444186	-0.26425617	-0.039655038	0.017645184	-0.37105761	0.2841745	1.9822139	1.9877163	1.9682391	1.8208027	1.9679985	1.8216359	0.26388035	1.8827083	1.2836187	-0.51135485	-0.0043752069	-0.32795143	1.2255932	-0.32988302	1.2237724	1.9359614	-0.00097049826	-0.014148743	0.30624995	-0.57542646	0.98957756	0.57739519	-0.98903468	0.007238601	1.4256657	0.38339741	0.058692887	0.017613017	0.012335231	0.031676361	0.16295874	0.031916683	0.16223938	0.22360192	0.11171924	0.058812238	6.0276593	6.1605172	5.4520224	5.3744108	5.453891	5.3745427	3.7791272	4.4280824	2.0560478	1.9869068	2.7025041	3.4340461	2.7016774	3.4274165	5.4181941	3.9973885	-144.05936	R0:S0:1	-97.68	uncorrelated	51514b8	3	sharp_wc_2.0_b_50	 2.30e+02	 2.66e-03	2022-04-11@09:31
2x2_2C_8b_C2v_L	6.9777058	0.1	14	2.05	-0.82700654	-10.897014	-10.41429	0.12204592	-10.268853	0.12048263	0.033509528	-8.3610054	14.28	-0.11236903	-0.00027161955	-0.0028793791	0.052233537	-0.0025348759	0.051844153	0.062091654	1.7186373e-05	0.00034324096	-0.90847925	1.2237985	-0.057451574	-1.2153149	0.057108761	-0.000119021	-1.4045034	1.28	0.673	0.15	-0.19810082	1.3183088	1.7519372	-0.26006183	-0.039506375	0.01763974	-0.36497815	0.3043937	1.9666322	1.9890488	1.9683674	0.19709724	1.9679567	0.19657231	0.31453798	1.8875698	1.303877	0.68372754	3.3822024e-05	-0.32776006	-1.0023914	-0.33007956	-0.99967824	-2.0859405	0.00028447456	-0.0010862741	0.27902184	-0.56492731	1.3172678	0.56848964	-1.3152832	0.0026311036	1.3919783	0.36939208	0.059237449	0.032719425	0.010995619	0.031546896	0.17708026	0.031955983	0.17666829	0.25473062	0.10715654	0.059352326	6.0933695	6.2801728	5.5254737	3.4899587	5.5268618	3.4877468	3.6884972	4.38748	2.0367972	1.8466728	2.6184566	5.3378509	2.6190945	5.3380329	5.75106	3.9651191	-141.36034	R0:S0:1	-97.84	uncorrelated	51514b8	4	sharp_wc_2.0_b_50	 2.27e+02	 7.34e-03	2022-04-11@09:50
2x2_2C_8b_C2v_L	6.9984267	0.1	14	2.05	0.18687412	-10.995023	-9.9895733	0.096761955	-9.8021246	0.094796639	0.034529914	-9.0428237	14.3	0.0003240703	-0.0003095885	-0.001433002	-0.050714666	-0.0011109437	-0.050237789	-0.068692551	7.4557636e-06	0.071944631	-0.8927534	1.1982367	0.05455136	-1.1871355	-0.054172407	6.4105636e-05	-1.4572678	1.28	0.673	0.15	-0.19779207	1.3185863	1.7593783	-0.25530509	-0.039161726	0.017550391	-0.34767226	0.32195629	0.090988176	1.9899359	1.9677844	0.22478924	1.9672153	0.22466455	0.40777723	1.898411	1.3214836	-0.0019465166	9.9424092e-05	-0.31873518	1.0251111	-0.32165095	1.0230886	2.2736926	0.00010127883	-1.0961699	0.26176856	-0.56350903	-1.4109143	0.56836648	1.409666	-0.0015422751	1.3094069	0.35589248	0.059054887	0.086288044	0.010089031	0.032092459	0.19897842	0.032657394	0.19890615	0.30321982	0.097056473	0.059165032	2.3427562	6.339494	5.5758693	3.6100525	5.577273	3.6095499	3.6125661	4.3462542	5.916669	1.7574174	2.5528736	5.2544535	2.5536969	5.2542065	6.3085663	3.8819632	-139.5936	R0:S0:1	-98	uncorrelated	51514b8	4	sharp_wc_2.0_b_50	 2.22e+02	 2.60e-03	2022-04-11@10:07
2x2_2C_8b_C2v_L	7.0037819	0.1	14	2.05	1.3877817	-11.060698	-9.475323	-0.10264197	-9.2594536	-0.10307714	0.04309085	-10.080524	14.32	0.00044934814	-0.00031038211	-0.001168937	-0.055788986	-0.00084009851	-0.055752632	0.072444255	0.00017080367	0.14375176	-0.93017286	1.1668808	-0.051504079	-1.1535592	0.050868915	-0.0010533562	-1.5344925	1.28	0.673	0.15	-0.20655092	1.3186844	1.7641815	-0.25331268	-0.039310443	0.017614105	-0.36346279	0.34047661	0.026462353	1.9903665	1.9674133	1.7792486	1.9667739	1.7827774	0.39862507	1.9072177	1.3399556	-0.0015710681	-0.00057389798	-0.34201225	1.4462211	-0.34602792	1.4384651	-2.3526051	0.0017803638	-0.66134469	0.24353541	-0.55613287	1.0323535	0.56116331	-1.0191166	0.023581068	1.2589199	0.35042388	0.060146921	0.026028643	0.0096836249	0.032507339	0.19644635	0.033148879	0.19352492	0.30106476	0.089041207	0.060283534	1.7593977	6.5080301	5.6551755	5.2721511	5.6594897	5.2774542	3.4833251	4.2633736	6.3183847	1.6071072	2.4774237	3.5373724	2.4775281	3.5203375	6.3329605	3.9615961	-140.2229	R0:S0:1	-98.16	uncorrelated	51514b8	4	sharp_wc_2.0_b_50	 2.29e+02	 2.62e-03	2022-04-11@10:25
2x2_2C_8b_C2v_L	7.0042879	0.1	14	2.05	2.7283431	-11.09524	-8.747992	-0.096225397	-8.6451614	-0.096019924	0.044163627	-10.382592	14.34	-0.24986773	-0.016555046	7.3832253e-05	0.05448864	0.00021477867	0.054141128	-0.072864887	-0.0001165762	-0.013789713	-0.73233784	1.1212046	0.049349556	-1.1147188	-0.049236902	-0.00077534201	-1.5553121	1.28	0.673	0.15	-0.20918537	1.3187026	1.765018	-0.25300512	-0.039306724	0.017606027	-0.36899449	0.34649179	0.0083833457	1.9941991	1.9651274	1.783297	1.9647647	1.7837453	0.39145159	1.9094422	1.3460388	0.22162136	0.014626083	-0.36156465	-1.4398597	-0.36359662	-1.4373098	2.3551895	-0.00051378765	0.037541551	0.18515208	-0.57236952	-1.024272	0.57514475	1.022055	0.015645051	1.2453048	0.34901357	0.060630253	0.008441331	0.005822642	0.034797675	0.19331261	0.035159994	0.19307383	0.29837956	0.087020155	0.060726778	1.5446253	6.5507194	5.6771495	5.2882436	5.6789018	5.2884063	3.4676456	4.24833	6.5622476	1.5234587	2.464983	3.494382	2.4649309	3.4922691	6.3053172	3.9823607	-138.22357	R0:S0:1	-98.32	uncorrelated	51514b8	3	sharp_wc_2.0_b_50	 2.32e+02	 2.55e-03	2022-04-11@10:41
2x2_2C_8b_C2v_L	7.0183695	0.1	14	2.05	4.3198788	-11.096986	-7.9788059	0.084253301	-8.1016396	0.083943227	0.040990836	-9.8437608	14.36	-0.43239313	0.026115509	0.0016455279	-0.047669887	0.0014801173	-0.047701864	0.073720638	2.7553797e-05	0.013650808	-0.54942886	1.0711245	0.052742487	-1.0791997	-0.052867503	-0.00010977839	-1.5145687	1.28	0.673	0.15	-0.21247686	1.3189009	1.770993	-0.24947552	-0.039151281	0.017565145	-0.36626493	0.36632405	0.010525582	1.9969801	1.963182	0.22594717	1.963692	0.22652734	0.42750489	1.9056201	1.3658834	0.23874988	-0.023621617	-0.3759951	1.0266612	-0.37289239	1.0280383	-2.4441093	3.9006927e-05	-0.02656068	0.1276377	-0.57818307	-1.4873834	0.57424971	1.4896351	0.0022182037	1.2649686	0.34147263	0.060998995	0.010620377	0.0030267256	0.036745032	0.20140667	0.036235953	0.20184415	0.31514464	0.090450666	0.061101919	1.4422801	6.655779	5.7453825	3.5053343	5.7447956	3.5094984	3.379359	4.2878772	6.6927735	1.3828295	2.3964183	5.2549719	2.3950658	5.2540529	6.5401378	3.9178258	-134.24535	R0:S0:1	-98.48	uncorrelated	51514b8	4	sharp_wc_2.0_b_50	 2.33e+02	 2.00e-03	2022-04-11@10:59
2x2_2C_8b_C2v_L	7.0341519	0.1	14	2.05	6.1478854	-11.063433	-7.3769845	0.078333665	-7.7806515	0.079876537	0.037325066	-8.6147753	14.38	-0.60788773	0.21947439	0.0023098988	0.045896041	0.0018646412	0.047631835	-0.07329137	-3.1315048e-05	0.083239281	-0.4044987	1.0303668	-0.052165967	-1.0574718	0.052692513	-0.00053196225	-1.4186582	1.28	0.673	0.15	-0.21601418	1.3191201	1.7775036	-0.24552668	-0.038975035	0.017512993	-0.36543083	0.38781367	0.010770963	1.996809	1.9619956	0.22707107	1.9636753	0.23310331	0.45789569	1.8938493	1.3873303	0.22353912	-0.2037738	-0.3895303	-1.0065322	-0.37955611	-1.0322474	2.5163757	-0.0012822452	-0.12710638	0.086001714	-0.57502415	1.5239429	0.56324976	-1.5359518	0.01455224	1.3335949	0.3351841	0.06158304	0.010874725	0.003194233	0.037960764	0.20296747	0.036272798	0.20819516	0.32767831	0.10107836	0.06172225	1.3351466	6.7473221	5.8279815	3.4690588	5.819405	3.4999535	3.2846879	4.3753891	6.7969703	1.2758606	2.3143019	5.2407322	2.3137439	5.2274313	6.7284217	3.8213159	-130.0149	R0:S0:1	-98.64	uncorrelated	51514b8	3	sharp_wc_2.0_b_50	 2.33e+02	 6.89e-03	2022-04-11@11:13
2x2_2C_8b_C2v_L	7.0545614	0.1	14	2.05	8.1892537	-11.000706	-7.66199	-0.078825886	-8.0702194	-0.081801184	0.036301205	-8.3149452	14.4	-0.80150636	0.40940368	0.0021100997	0.052932507	0.0015103084	0.053690991	0.075034757	-7.5520648e-06	0.10582203	-0.27581364	1.0489472	0.047757139	-1.0759086	-0.048914073	8.4258289e-05	-1.3934294	1.28	0.673	0.15	-0.21932636	1.3193969	1.7851669	-0.24053053	-0.038699085	0.017420185	-0.36427522	0.40988922	0.0099314353	1.9931309	1.9647846	1.7656516	1.9663832	1.7634905	0.50345731	1.8916828	1.4093027	0.20356559	-0.39380956	-0.38104938	-1.5749352	-0.37129522	-1.5822733	-2.6247552	5.2020606e-05	-0.13064274	0.053229181	-0.54203888	-1.0180919	0.53021715	1.0272222	-0.0022963564	1.3378397	0.32979535	0.061694227	0.010033337	0.0068535805	0.035199471	0.21092573	0.033597912	0.21264335	0.34520706	0.10290055	0.061900544	1.2179714	6.817033	5.9052362	5.1986989	5.9014054	5.1930204	3.162215	4.4082308	6.9036233	1.2030256	2.2206937	3.4653352	2.2184254	3.4795012	7.0119305	3.7461671	-130.95158	R0:S0:1	-98.8	uncorrelated	51514b8	3	sharp_wc_2.0_b_50	 2.33e+02	 7.08e-03	2022-04-11@11:27
2x2_2C_8b_C2v_L	7.0788285	0.1	14	2.05	10.439545	-10.911084	-8.8855888	-0.088687276	-9.0129218	-0.089756864	0.038260837	-9.0907708	14.42	-1.0007363	0.56491865	0.00011277571	-0.055454966	-8.0612563e-05	-0.055674611	-0.079083535	3.6255575e-07	0.08419678	-0.15573347	1.1270863	-0.052105964	-1.1349506	0.052427108	-2.5115045e-05	-1.4540185	1.28	0.673	0.15	-0.22200486	1.3197212	1.7934383	-0.23471019	-0.038307879	0.017278407	-0.36330944	0.43055597	0.0084134648	1.9873181	1.970642	1.7601515	1.971022	1.7598606	0.56089776	1.902033	1.4298499	0.18174274	-0.56190128	-0.35223868	1.6279698	-0.34976908	1.6295553	2.7595209	3.9567435e-05	-0.087001869	0.027132878	-0.48487416	1.028619	0.48186261	-1.0300747	0.00062858446	1.2638422	0.3258121	0.06133597	0.0085002966	0.012598056	0.029364362	0.21791958	0.028983675	0.21811264	0.36476076	0.093405354	0.061616373	1.1040579	6.8598262	5.9824545	5.1514325	5.9816828	5.1504251	3.0223417	4.3753661	7.0019796	1.1621008	2.1196546	3.4597303	2.1191072	3.4621619	7.3663444	3.7150036	-136.91116	R0:S0:1	-98.96	uncorrelated	51514b8	3	sharp_wc_2.0_b_50	 2.33e+02	 5.44e-03	2022-04-11@11:41
2x2_2C_8b_C2v_L	7.1057769	0.1	14	2.05	12.896905	-10.794353	-11.003998	0.10821485	-10.574074	0.10372209	0.041153707	-10.838846	14.44	-1.2030021	0.69245159	-0.0038810664	0.058385514	-0.0030055939	0.057365469	-0.08385614	3.5406433e-06	0.026704021	-0.038953177	1.2508388	-0.058904464	-1.2265365	0.058113565	-3.6496096e-05	-1.5828731	1.28	0.673	0.15	-0.22402003	1.3200776	1.8018863	-0.22834645	-0.037807928	0.017089777	-0.36428476	0.44977756	0.0070476835	1.9802412	1.9771069	0.23942816	1.9762384	0.23964279	0.62178411	1.918611	1.4489496	0.16176948	-0.71096784	-0.31587255	-1.02787	-0.32217434	-1.0269871	2.8966961	-0.00036504604	-0.023412997	0.0062344307	-0.4194446	1.6689618	0.42701751	-1.6654333	0.0015003086	1.1442362	0.32326727	0.060850229	0.0071175819	0.019536866	0.022912885	0.22002513	0.023783279	0.2205501	0.38230449	0.078143974	0.061205125	1.0081258	6.8737649	6.0610599	3.4261482	6.0627771	3.4241667	2.8750979	4.3226313	7.0823559	1.1515862	2.0183007	5.1219458	2.0193521	5.1220705	7.7318002	3.7100762	-147.40829	R0:S0:1	-99.12	uncorrelated	51514b8	4	sharp_wc_2.0_b_50	 2.32e+02	 1.44e-03	2022-04-11@11:57
2x2_2C_8b_C2v_L	7.1303752	0.1	14	2.05	15.567807	-10.652063	-13.955339	0.14001498	-12.691578	0.12701017	0.045321528	-13.254068	14.46	-1.3453589	0.72226705	-0.010260973	-0.066358219	-0.0075087088	-0.063554089	0.088343827	-4.1532787e-05	-0.054756646	0.070198863	1.4042173	0.063917617	-1.3402932	-0.061706335	0.00013954287	-1.7449473	1.28	0.673	0.15	-0.22527563	1.3204036	1.8089956	-0.22261345	-0.037290402	0.016890286	-0.36749661	0.46496039	0.0057110456	1.9774136	1.9825428	0.23278173	1.9808907	0.23333322	0.66928591	1.9338757	1.4641054	0.13992979	-0.76383304	-0.28028909	1.013439	-0.29401816	1.0114758	-3.0055471	-0.00054074975	0.042067184	-0.0099740474	-0.35995608	-1.6951055	0.37596125	1.686852	-0.0049232359	1.0262793	0.32219821	0.060521405	0.0057612878	0.02229605	0.017480007	0.21551108	0.019137171	0.21685101	0.39430098	0.063932543	0.06089956	0.93107565	6.9091782	6.1278058	3.367991	6.1320188	3.3644334	2.7402815	4.2792011	7.1413651	1.1156216	1.9339456	5.1233242	1.9353079	5.1235575	8.0060104	3.7214684	-162.26206	R0:S0:1	-99.28	uncorrelated	51514b8	3	sharp_wc_2.0_b_50	 2.31e+02	 4.47e-03	2022-04-11@12:11
2x2_2C_8b_C2v_L	7.1559645	0.1	14	2.05	18.439361	-10.480839	-17.628772	0.16569573	-15.230394	-0.15049191	0.04693451	-16.018703	14.48	-1.495693	0.76791573	-0.016894867	0.073493402	-0.012739367	0.063720286	-0.091325412	-4.0305972e-06	-0.19179485	0.21403616	1.5735814	-0.066197894	-1.4641479	-0.069990928	-0.0001866483	-1.9135821	1.28	0.673	0.15	-0.22620387	1.3207398	1.8161277	-0.21669164	-0.036715019	0.01666535	-0.37190118	0.48082796	0.0052415725	1.9729013	1.9866874	0.22562851	1.984709	1.7747287	0.71655345	1.9458993	1.4799163	0.12290923	-0.83662234	-0.25001841	-0.9997194	-0.26886659	-1.6910055	3.1003054	-0.00035438954	0.12799338	-0.028744597	-0.30850829	1.7014274	0.32966518	0.99367401	0.0064759794	0.92184784	0.32154771	0.060272378	0.0052859275	0.026706849	0.013333849	0.21188397	0.015320103	0.2124512	0.40396123	0.052598985	0.06069074	0.87161944	6.9212324	6.1969241	3.2995828	6.2046855	5.1418621	2.6142629	4.2701251	7.1874562	1.1063933	1.8512593	5.1364511	1.8506076	3.2880712	8.2565034	3.7093895	-180.36582	R0:S0:1	-99.44	uncorrelated	51514b8	3	sharp_wc_2.0_b_50	 2.30e+02	 2.89e-03	2022-04-11@12:24
2x2_2C_8b_C2v_L	7.1784371	0.1	14	2.05	21.514566	-10.290436	-21.982176	0.20498407	-18.142871	-0.1784539	0.049223675	-19.009306	14.5	-1.5716422	0.74981725	-0.026131053	-0.082217503	-0.019187685	0.065988113	-0.093827685	-0.00021584087	-0.36926439	0.37366904	1.7507294	0.069103605	-1.5935138	-0.076720733	-0.00042194717	-2.0799103	1.28	0.673	0.15	-0.22693107	1.3210366	1.8221223	-0.21151812	-0.036172692	0.016451824	-0.37801154	0.49480836	0.0052495997	1.972289	1.9897718	0.21238144	1.9876571	1.7846471	0.75251775	1.9548737	1.4938989	0.10466726	-0.8410646	-0.22472008	0.97042983	-0.24684784	-1.6866386	3.1734899	-0.00042434317	0.21733268	-0.047184194	-0.26552092	-1.6882569	0.29095127	0.97105695	0.014396912	0.83701245	0.32141725	0.060138749	0.0052917093	0.027371761	0.010247079	0.20191916	0.012369769	0.20543471	0.41065135	0.044064201	0.060565297	0.82327607	6.9689921	6.2624313	3.1975639	6.2679942	5.1786705	2.5006475	4.2729349	7.222711	1.0618424	1.7764439	5.1869165	1.778143	3.2054148	8.433612	3.6978615	-200.70269	R0:S0:1	-99.6	uncorrelated	51514b8	3	sharp_wc_2.0_b_50	 2.29e+02	 3.05e-03	2022-04-11@12:37
2x2_2C_8b_C2v_L	7.1987769	0.1	14	2.05	24.792008	-10.078272	-26.989232	0.25605742	-21.362976	0.2103403	0.05076453	-21.981147	14.52	-1.5619613	0.69151694	-0.037788897	0.091905883	-0.026282405	0.083554538	0.095724046	8.4877842e-05	-0.60654899	0.56311674	1.931146	-0.07228562	-1.7234128	0.068504452	-0.00053357168	-2.2329919	1.28	0.673	0.15	-0.22767945	1.3213064	1.8274624	-0.20683958	-0.03566218	0.01624999	-0.38473802	0.50875061	0.0060505936	1.974136	1.9920983	0.19562055	1.9899417	0.2044736	0.78266188	1.9613652	1.5078611	0.085579405	-0.79867097	-0.20295928	-0.92757221	-0.22799421	-0.94430503	-3.2333752	0.00025424171	0.31750232	-0.066882282	-0.22864889	1.6606902	0.25811542	-1.6771432	0.014001771	0.77010915	0.32150699	0.059987534	0.0060904259	0.02570926	0.0079179043	0.18805832	0.010081945	0.19681219	0.41563237	0.037846067	0.060412113	0.78299937	7.0481439	6.3326319	3.0681002	6.3276657	3.1168947	2.3979097	4.2870696	7.251103	0.990057	1.6993349	5.2673456	1.7112139	5.2281011	8.5717347	3.6799174	-222.46001	R0:S0:1	-99.76	uncorrelated	51514b8	3	sharp_wc_2.0_b_50	 2.28e+02	 4.27e-03	2022-04-11@12:53
2x2_2C_8b_C2v_L	7.2137063	0.1	14	2.05	28.275558	-9.8493123	-32.610753	0.27110114	-24.835215	0.24107568	0.051402286	-24.734768	14.54	-1.3563852	0.54223945	-0.044340937	-0.096180489	-0.033803599	0.089761753	-0.096662168	-7.645517e-05	-0.86748149	0.76526838	2.1166937	0.072173213	-1.85241	0.070076038	0.0004106444	-2.3651536	1.28	0.673	0.15	-0.22816195	1.3215078	1.8312446	-0.20343079	-0.035256712	0.016087833	-0.38911472	0.51962838	0.0070829774	1.9811963	1.9936305	0.19073046	1.9916436	0.19445739	0.80498578	1.965964	1.5188238	0.061628493	-0.64488624	-0.18537349	0.91694901	-0.21130505	-0.91858895	3.273658	0.0011538357	0.40523381	-0.087431085	-0.20292272	-1.6521136	0.23201617	-1.6604287	-0.012157118	0.71957756	0.32151365	0.059705908	0.0071032373	0.018914956	0.0063815575	0.18508227	0.0083764655	0.18863571	0.41873317	0.033417622	0.060090876	0.74019546	7.1921888	6.3716526	3.0210322	6.3744864	3.0367881	2.3290621	4.3017561	7.2816186	0.85778996	1.6544481	5.2925324	1.6590711	5.279284	8.6663229	3.6637497	-245.78905	R0:S0:1	-99.92	uncorrelated	51514b8	3	sharp_wc_2.0_b_50	 2.28e+02	 3.44e-03	2022-04-11@13:07
2x2_2C_8b_C2v_L	7.2247129	0.1	14	2.05	31.969783	-9.6118143	-38.822709	0.33653355	-28.501312	-0.29412205	0.052751325	-27.115673	14.56	-0.87369889	0.30469007	-0.062437978	0.10551883	-0.044477994	0.073735884	-0.09775046	0.00011199471	-1.0617157	0.92846933	2.30167	-0.077253521	-1.9781246	-0.09786867	0.00095140409	-2.4731164	1.28	0.673	0.15	-0.22933176	1.3216619	1.834172	-0.20086368	-0.034956944	0.015969512	-0.3964903	0.53076131	0.0072546043	1.9902377	1.9949054	0.17483229	1.9930046	1.8205	0.81866912	1.9691273	1.5300832	0.032954275	-0.37314881	-0.16814291	-0.87071871	-0.1979581	-1.6317886	3.3075494	0.0013166884	0.44556585	-0.10169086	-0.17851569	1.6225128	0.20928888	0.87944622	-0.029483309	0.68343684	0.32149524	0.059461471	0.0072439715	0.0099266567	0.0051043627	0.16993396	0.0070130865	0.17462553	0.42125358	0.030362075	0.059782631	0.68186078	7.3639995	6.4245261	2.8983079	6.4203337	5.362588	2.2575044	4.3109897	7.3288002	0.70025908	1.597762	5.3860501	1.6093327	2.9247734	8.7273364	3.6560409	-270.47711	R0:S0:1	-100.08	uncorrelated	51514b8	3	sharp_wc_2.0_b_50	 2.28e+02	 4.78e-03	2022-04-11@13:22
2x2_2C_8b_C2v_L	7.3291928	0.1	14	2.05	35.876453	-9.3776791	-45.616645	1.2051531	-32.350037	-1.7797353	1.7179376	-29.064946	14.58	-0.10918339	0.032077712	-0.16887236	-0.20291495	-0.19203183	-0.12453922	0.34036087	-0.0077052984	-1.0928658	0.98018178	2.3824536	0.099085847	-1.9762439	0.25277466	0.0047732169	-2.2885573	1.28	0.673	0.15	-0.19468273	1.3228831	1.8471316	-0.18006806	-0.031259637	0.014313392	-0.32555005	0.47204784	0.0055122484	1.9923391	1.997213	0.058314749	1.9965452	1.9526027	0.18931586	1.9674659	1.4713811	0.0045109943	-0.039216984	-0.091558355	0.45192088	-0.080908253	0.87920548	-1.9937375	-0.0088941948	0.39411784	-0.15505224	-0.11485648	-0.96542106	0.12385275	-0.39770685	-0.028838321	0.82932374	0.35064467	0.043530595	0.0054974812	0.007840912	0.0028000017	0.058919978	0.0034780722	0.047734772	0.17380668	0.032136546	0.043746262	0.86900052	7.2526128	6.8013687	1.7680189	6.8581047	6.5715377	4.5145742	3.0167366	7.1430812	0.90404476	1.2385787	6.4491508	1.1966588	1.6223096	4.4871419	5.1593258	-297.99646	R0:S0:1	-100.24	uncorrelated	51514b8	4	sharp_wc_2.0_b_50	 2.02e+02	 1.83e-03	2022-04-11@13:38
2x2_2C_8b_C2v_L	7.3516879	0.1	14	2.05	39.992469	-9.1110435	-52.996002	3.0476981	-36.385481	-4.2837756	4.8816279	-30.590421	14.6	0.8739654	-0.26644394	-0.43858069	-0.4198761	-0.43884091	-0.17624106	0.85208201	-0.04299367	-1.2351336	0.93517347	2.3037178	0.1709763	-1.6971114	0.57617663	0.012354441	-1.6422246	1.28	0.673	0.15	-0.18981198	1.3231513	1.8529248	-0.17530813	-0.030656232	0.014065237	-0.28753773	0.48553933	0.0061952133	1.9895739	1.9984272	0.041113709	1.9982192	1.9673889	0.16147773	1.9844487	1.4847495	-0.030932878	0.32938362	0.0070649307	0.36584242	0.045450419	0.68495528	-1.8696123	0.0030556316	0.41122349	-0.12972201	-0.073167506	-0.80443084	0.068862394	-0.33585571	-0.011162644	0.58052852	0.36211053	0.035958782	0.0061860548	0.010683575	0.0015792316	0.041754787	0.0017900291	0.033342854	0.15144089	0.015463107	0.036218426	0.77302977	7.3134349	6.9395816	1.5079463	6.9634359	6.8336046	4.7841356	2.7340733	7.2450473	0.83299446	1.0920583	6.7345527	1.0738565	1.4135482	4.1754229	5.3593986	-328.55229	R0:S0:1	-100.4	uncorrelated	51514b8	2	sharp_wc_2.0_b_50	 2.02e+02	 1.68e-02	2022-04-11@13:45
2x2_2C_8b_C2v_L	7.4100846	0.1	14	2.05	44.338198	-8.9012	-60.960639	5.7372662	-40.60915	-7.6815497	8.3301465	-31.693655	14.62	1.6461474	-0.49608603	-0.97338871	-0.75763248	-0.99962584	-0.19990576	1.4511942	-0.82056193	-1.1053377	0.74806587	2.0865951	0.27177942	-1.0416495	1.0584784	-0.03667897	0.24830789	1.28	0.673	0.15	-0.18023585	1.3238636	1.8647697	-0.16287786	-0.028796424	0.013300343	-0.2497771	0.49693461	0.0048073418	1.9811201	1.998364	0.035336088	1.9970448	1.9746079	0.1649826	1.9987957	1.4957026	-0.046834321	0.63670421	0.14175114	0.32657867	0.2641671	0.5415368	-1.9001818	0.092761967	0.34253079	-0.088226484	-0.035639837	-0.73702566	-0.000523296	-0.29449578	-0.0046870468	-0.088000686	0.37191045	0.030325461	0.004817713	0.019101419	0.0016411702	0.036115095	0.0029593725	0.026301484	0.15484793	0.0012046532	0.03073414	0.6770317	7.2650961	7.0082196	1.3974236	7.0203585	7.0143288	4.8375767	2.5217327	7.3465259	0.83861874	1.0157786	6.8753249	0.99943111	1.2801558	4.1737189	5.4920897	-362.0579	R0:S0:1	-100.56	uncorrelated	51514b8	2	sharp_wc_2.0_b_50	 1.96e+02	 3.00e-03	2022-04-11@13:52
2x2_2C_8b_C2v_L	7.0571739	0.1	14	2.05	48.905455	-8.7111948	-69.505472	9.1721648	-45.015963	-11.928875	12.13166	-32.449428	14.64	2.4130535	-0.7691116	-2.0633303	-1.268693	-2.0708987	-0.064872828	1.6920242	-1.7778991	-0.93070632	0.52955357	1.7447826	0.40181748	-0.12670015	1.676317	-0.89616834	2.2781826	1.28	0.673	0.15	-0.30546458	1.3197758	1.8223781	-0.2322875	-0.041800476	0.019047457	-0.5374516	0.84377593	0.0026106035	1.9469263	1.9962168	0.045137993	1.9871885	1.9764643	0.063079212	1.9850305	1.8428109	-0.011008091	1.2538616	0.32875573	0.33826285	0.59171027	0.73912878	-0.22993622	0.65719182	0.26290778	-0.062136755	0.074786132	-1.0767078	-0.21830803	-0.31895621	1.3047637	0.052872214	0.3027484	0.050703553	0.0026277507	0.052084076	0.0037896302	0.046392585	0.012742315	0.024654893	0.064419179	0.015154265	0.05158404	0.26436293	7.1302234	7.260982	1.2610296	6.7782726	6.5909825	1.1746108	7.4166905	7.7360959	0.84479461	0.73961718	6.7575389	1.2226512	1.4466654	6.8363686	0.58465754	-399.78974	R0:S0:1	-100.72	uncorrelated	51514b8	3	sharp_wc_2.0_b_50	 2.97e+02	 1.33e-02	2022-04-11@14:01
2x2_2C_8b_C2v_L	7.1828767	0.1	14	2.05	53.70889	-8.6265718	-78.647532	13.485305	-49.646419	-17.139141	16.549073	-33.034962	14.66	2.7831584	-0.8462597	-3.072695	-1.8393771	-2.8079108	0.34537537	1.6037679	-1.6385821	-0.55115715	0.29758701	1.2684828	0.38450305	0.84327301	2.2356845	-1.6847526	3.2925743	1.28	0.673	0.15	-0.29037044	1.3213064	1.8481675	-0.20486268	-0.038288535	0.017623246	-0.48342888	0.87715598	0.0013016158	1.937831	1.9914712	0.029748837	1.9742289	1.9974817	0.076777498	1.9824667	1.8761042	-0.023192897	1.367842	0.50010579	0.26604259	0.86258571	0.23481266	-0.063523735	0.6998435	0.15781402	-0.0087438989	0.12514906	-0.88630839	-0.24613652	-0.081471999	1.4883697	-0.034303027	0.33710898	0.040433786	0.0013087745	0.060201799	0.0085121704	0.030933687	0.025422853	0.0026603366	0.075918758	0.017953158	0.041417259	0.26641407	7.0053846	7.2678321	1.0485433	7.036851	7.2501624	1.2150552	7.4469053	7.733819	0.96279229	0.7319473	6.9603735	0.96147849	0.76055308	6.7662913	0.55185785	-440.5456	R0:S0:1	-100.88	uncorrelated	51514b8	2	sharp_wc_2.0_b_50	 2.77e+02	 1.60e-02	2022-04-11@14:09
2x2_2C_8b_C2v_L	7.3096015	0.1	14	2.05	58.741629	-8.6219503	-88.384829	18.661921	-54.497408	-23.311696	21.551913	-33.371751	14.68	3.0014963	-0.86680965	-4.0839328	-2.4743855	-3.2864875	0.97493961	1.0675844	-1.0165145	-0.002325113	0.00042443297	0.65219136	0.24496669	1.9016679	2.6998102	-2.5442893	4.1190699	1.28	0.673	0.15	-0.27115048	1.3228511	1.8710913	-0.17778962	-0.034193167	0.015912161	-0.4380215	0.88856086	0.00051319025	1.9349939	1.9858223	0.014472133	1.9667413	1.9986756	0.09947365	1.9922652	1.8874003	-0.023123302	1.4038073	0.65066632	0.16403311	0.98561814	-0.17655607	-0.053146682	0.40871014	-0.00088523527	-0.0029025468	0.14929186	-0.62631679	-0.25175248	0.031226279	1.7072526	-0.052949222	0.36262915	0.035889495	0.00051310008	0.062555109	0.014091086	0.015199759	0.032727812	0.0013864733	0.094859356	0.0080045859	0.036967144	0.26247078	6.9606245	7.3393484	0.73382584	7.0328584	7.4036025	1.5143784	7.5176837	7.7376385	1.0043324	0.65970814	7.2712747	0.96469315	0.59962238	6.4643322	0.48232795	-484.50536	R0:S0:1	-101.04	uncorrelated	51514b8	2	sharp_wc_2.0_b_50	 2.57e+02	 9.38e-03	2022-04-11@14:16
2x2_2C_8b_C2v_L	7.39603	0.1	14	2.05	64.00576	-8.7075581	-98.715292	24.692872	-59.56629	-30.445189	27.177139	-33.493227	14.7	2.9921715	-0.83034908	-5.1555988	-3.1821215	-3.563742	1.8188041	0.0010150748	0.0014898443	0.68924421	-0.34453855	-0.10131046	-0.026325625	3.0640981	3.0435415	-3.2002424	4.5071118	1.28	0.673	0.15	-0.25835326	1.323916	1.8857614	-0.15943058	-0.031161679	0.01462517	-0.41230466	0.89659635	0.0013114833	1.9415031	1.9801168	0.0057942278	1.9638108	1.9905359	0.097714136	1.9978997	1.8954034	-0.020571886	1.3319733	0.77259443	0.098314501	1.0283914	-0.51742811	-0.026237151	-0.030637258	-0.16926814	0.0043794297	0.16968134	-0.39530852	-0.24722565	0.10339427	1.7031383	-0.056867298	0.3744713	0.033035619	0.0013180348	0.056856806	0.019687846	0.0061115843	0.035691258	0.0098370768	0.09257442	0.0021019539	0.034145701	0.24916487	7.0616736	7.3237043	0.56951241	7.0111399	7.3698384	1.4727945	7.6052259	7.750784	0.90514562	0.67490165	7.4347254	0.98665601	0.62908225	6.5077421	0.39552225	-531.73572	R0:S0:1	-101.2	uncorrelated	51514b8	2	sharp_wc_2.0_b_50	 2.46e+02	 7.89e-03	2022-04-11@14:24
2x2_2C_8b_C2v_L	7.4591	0.1	14	2.05	69.507608	-8.9320319	-109.63705	31.568031	-64.851392	-38.539189	33.441614	-33.4185	14.72	2.5738943	-0.67301237	-6.3456163	-3.9934701	-3.668191	2.8880095	-1.6084491	1.2915125	1.3139248	-0.65710134	-0.9913999	-0.44107077	4.3326595	3.2520711	-3.492429	4.3520794	1.28	0.673	0.15	-0.24936883	1.3246999	1.8960422	-0.14607081	-0.028832367	0.013623306	-0.39441577	0.90465063	0.002965303	1.9631583	1.9740722	0.0014688164	1.9641671	1.9776124	0.07677516	1.9869942	1.9034773	-0.013257402	1.0569671	0.88273946	0.04918439	1.0199121	-0.80281063	-0.002918016	-0.58820431	-0.29704919	0.0058444924	0.18824513	-0.18933595	-0.23906954	0.15617787	1.5147797	-0.052133275	0.38047898	0.030531623	0.002975219	0.036806042	0.025583862	0.0015484683	0.035543373	0.022911673	0.074301997	0.013614843	0.031633228	0.1916985	7.3992634	7.2703659	0.48617286	7.0001874	7.241384	1.2045376	7.5110248	7.8079867	0.57761756	0.72793718	7.5173384	0.99830007	0.75491168	6.7813731	0.48749481	-582.61794	R0:S0:1	-101.36	uncorrelated	51514b8	2	sharp_wc_2.0_b_50	 2.38e+02	 4.68e-03	2022-04-11@14:32
2x2_2C_8b_C2v_L	7.5385557	0.1	14	2.05	75.248517	-9.3039752	-121.15008	39.286049	-70.356332	-47.600143	40.383754	-33.19024	14.74	1.7154403	-0.41988171	-7.6499132	-4.9206462	-3.575327	4.1491158	-3.5669152	2.6379334	1.8094227	-0.92932146	-2.0127739	-1.0047668	5.6636016	3.2920249	-3.1320315	3.4885918	1.28	0.673	0.15	-0.23807921	1.3256861	1.9086066	-0.12928112	-0.025797606	0.012299777	-0.370109	0.91145841	0.0045256792	1.9867296	1.9678895	0.00018284271	1.9677372	1.9625397	0.042584367	1.9527918	1.9102961	-0.0064760316	0.63360229	0.98307669	0.008324009	0.96325196	-1.0428097	0.020227648	-1.1755099	-0.37789691	0.0024368572	0.19876347	0.0049773351	-0.21966049	0.1921173	1.1236862	-0.046529722	0.3885453	0.027976087	0.0045239925	0.013668855	0.031584541	0.00018576591	0.032279685	0.0377101	0.042821159	0.047822265	0.029063425	0.12544463	7.7691926	7.2144385	0.43523622	7.037118	7.0865908	0.81843169	7.1192995	7.8739263	0.22184001	0.7835961	7.5671808	0.96194459	0.90812619	7.1750481	0.87226842	-637.40476	R0:S0:1	-101.52	uncorrelated	51514b8	1	sharp_wc_2.0_b_50	 2.29e+02	 2.73e-02	2022-04-11@14:38
2x2_2C_8b_C2v_L	7.6538755	0.1	14	2.05	81.230524	-9.8497836	-133.25953	47.86112	-76.093997	-57.64569	48.055992	-32.868089	14.76	0.40731105	-0.093986529	-8.9676602	-5.9145296	-3.2308693	5.4766983	-5.4358308	3.7129769	2.0649626	-1.0931156	-3.1360225	-1.7014577	6.9369043	3.0897086	-1.8516728	1.8535905	1.28	0.673	0.15	-0.22201497	1.3271182	1.9261128	-0.10498172	-0.021188274	0.010248255	-0.34155327	0.91405383	0.0049823518	1.9993846	1.9626101	0.0013140384	1.9743933	1.9490699	0.012437362	1.9093254	1.9128389	-0.00087749293	0.13524483	1.0614388	-0.022392275	0.85347434	-1.2209541	0.053529367	-1.6374887	-0.39849255	0.00084080459	0.20110504	0.18111197	-0.18740213	0.20841179	0.57052124	-0.016249796	0.39836444	0.026188733	0.0049699628	0.00064365378	0.03669229	0.0013822432	0.025882174	0.050484566	0.012846062	0.087318807	0.02729785	0.083169072	7.969119	7.1648848	0.41624592	7.1352182	6.9575224	0.52465115	6.5860985	7.9160962	0.030628384	0.83299093	7.5850416	0.86421081	1.036436	7.4741633	1.3979285	-696.1188	R0:S0:1	-101.68	uncorrelated	51514b8	2	sharp_wc_2.0_b_50	 2.17e+02	 6.69e-03	2022-04-11@14:46
2x2_2C_8b_C2v_L	7.7852815	0.1	14	2.05	87.45432	-10.575242	-145.9709	57.311431	-82.073892	-68.687976	56.523832	-32.534368	14.78	-1.3307579	0.31683794	-10.185094	-6.9074117	-2.6109175	6.7629983	-6.5298682	4.1421226	2.0782302	-1.0703378	-4.3227279	-2.4993878	8.0599183	2.5969547	0.41382976	-0.37810465	1.28	0.673	0.15	-0.20481597	1.3287607	1.9450782	-0.077363681	-0.015622327	0.0077024545	-0.31266951	0.91327937	0.0043821936	1.9940249	1.95921	0.0041716512	1.9824119	1.9400681	0.002588949	1.8852888	1.9119642	0.0029552391	-0.42634926	1.1099178	-0.043402406	0.70135249	-1.3296699	0.063781665	-1.8393235	-0.37321563	0.0020327573	0.19204299	0.34032238	-0.15100279	0.21325184	-0.090748561	0.023395909	0.40866075	0.025263402	0.0043761909	0.0061871284	0.039989139	0.004394146	0.017944752	0.058702576	0.0025982811	0.10773958	0.026423414	0.094043357	7.8860679	7.1428624	0.41314956	7.2617688	6.8779461	0.46132281	6.2688753	7.9053724	0.10995227	0.85498954	7.5871319	0.73797756	1.1158709	7.5386103	1.7124647	-758.79429	R0:S0:1	-101.84	uncorrelated	51514b8	2	sharp_wc_2.0_b_50	 2.04e+02	 7.13e-03	2022-04-11@14:53
2x2_2C_8b_C2v_L	7.8875473	0.1	14	2.05	93.926284	-11.517074	-159.29563	67.666165	-88.30728	-80.741122	65.862205	-32.327543	14.8	-3.2686225	0.88103743	-11.115599	-7.7672477	-1.7110942	7.8715851	-6.072009	3.589431	1.6908521	-0.77697575	-5.4935968	-3.3372075	8.9274146	1.7694214	3.2918417	-2.7374475	1.28	0.673	0.15	-0.19246736	1.3300498	1.9591381	-0.0559135	-0.011049779	0.0055527248	-0.29432527	0.91135298	0.0026802968	1.9611735	1.9586628	0.0074951546	1.9900192	1.9370591	0.018645679	1.9103546	1.9099538	0.012083244	-1.0891926	1.1182455	-0.056169628	0.51981056	-1.3675082	0.042823714	-1.6172302	-0.28210604	0.0082533885	0.18032734	0.46240413	-0.11438163	0.21401951	-0.72352394	0.049532655	0.41578298	0.025133475	0.0026881359	0.038630707	0.040551907	0.0078570311	0.010247954	0.061217001	0.018987937	0.087529421	0.026341687	0.1937189	7.369615	7.148226	0.42736199	7.3884439	6.8633938	0.61254291	6.5865659	7.8060323	0.60840635	0.84979533	7.5722804	0.6116848	1.1308031	7.3859505	1.3976311	-825.53687	R0:S0:1	-102	uncorrelated	51514b8	3	sharp_wc_2.0_b_50	 1.95e+02	 3.01e-03	2022-04-11@15:04
2x2_2C_8b_C2v_L	7.8509608	0.1	14	2.05	100.68225	-12.899864	-173.23856	78.939189	-94.795206	-93.808465	76.160531	-32.475592	14.82	-4.2396369	1.2082059	-11.686324	-8.4182115	-0.54945781	8.7614892	-3.4682453	1.8964766	0.58307479	-0.26424243	-6.6105935	-4.1779954	9.5307022	0.58711077	5.6800612	-4.4332188	1.28	0.673	0.15	-0.19720877	1.3295975	1.9540551	-0.06358516	-0.012668725	0.0063195666	-0.30122362	0.91698182	0.00057934109	1.9411787	1.9603009	0.0096124484	1.995731	1.9386447	0.040695546	1.9737417	1.9157652	0.017512538	-1.3441112	1.0945455	-0.068878257	0.32467571	-1.3532703	0.010680184	-0.86891513	-0.089352305	0.0064319262	0.18343405	0.52656666	-0.079633892	0.21861402	-1.1170496	0.031364645	0.41457141	0.024267476	0.00058084704	0.056950622	0.039006244	0.01001284	0.0043902302	0.059522067	0.040151715	0.027598647	0.025345006	0.23877922	7.0594638	7.1511708	0.46166793	7.4825998	6.8895951	0.7251323	7.4466615	7.761179	0.91227318	0.84718837	7.5378464	0.5179716	1.1053996	7.2705405	0.54762636	-896.41616	R0:S0:1	-102.16	uncorrelated	51514b8	2	sharp_wc_2.0_b_50	 1.99e+02	 7.39e-03	2022-04-11@15:12
2x2_2C_8b_C2v_L	7.8399559	0.1	14	2.05	107.7188	-14.711162	-187.79645	91.124748	-101.52921	-107.88407	87.449789	-33.084392	14.84	-4.3544338	1.3086759	-11.957823	-8.8714946	0.86757327	9.5063357	1.3118512	-0.68594372	-1.2688884	0.58075553	-7.7029437	-5.0330241	9.9568524	-0.96977294	7.0565372	-5.1205085	1.28	0.673	0.15	-0.19906154	1.3294676	1.9524693	-0.065881958	-0.013128541	0.0065368373	-0.30486409	0.922745	0.0013786072	1.946132	1.9634247	0.01129521	1.9990808	1.9418006	0.048101018	1.9963759	1.9216762	0.016896336	-1.2855869	1.0496209	-0.081477143	0.10347053	-1.3213969	-0.0039203585	0.30740401	0.18617777	-0.0026917031	0.1841479	0.57352705	-0.039252429	0.21173035	-1.2201545	0.018312995	0.41479878	0.023217201	0.001384358	0.052557197	0.036019081	0.011685546	0.00093325709	0.056467586	0.046947475	0.0038965194	0.024187249	0.23242714	7.1387835	7.1735759	0.48992465	7.5644525	6.9411488	0.75977202	7.7581489	7.7674789	0.83701054	0.82507224	7.509471	0.43628303	1.0546423	7.2351466	0.24133743	-973.10717	R0:S0:1	-102.32	uncorrelated	51514b8	2	sharp_wc_2.0_b_50	 2.00e+02	 6.18e-03	2022-04-11@15:20
2x2_2C_8b_C2v_L	7.938798	0.1	14	2.05	115.05769	-17.111544	-202.96065	104.20919	-108.49619	-122.9574	99.903512	-34.633169	14.86	-3.1537486	1.0022639	-12.057538	-9.193777	2.5681046	10.239492	6.6129018	-3.3396361	-3.1019505	1.4585763	-8.8454779	-5.9539336	10.329109	-2.9391267	5.561199	-3.8214262	1.28	0.673	0.15	-0.18789069	1.3307133	1.9658819	-0.045125802	-0.0086260853	0.0043939951	-0.28929817	0.92363295	0.0057201366	1.9761163	1.9673405	0.013698996	1.9988699	1.9448903	0.023483493	1.9318247	1.9225426	0.0089507925	-0.85390104	0.99306456	-0.089334694	-0.14469226	-1.2890534	-0.035855906	1.4070122	0.42285259	-0.0053996841	0.16926357	0.6354625	0.00087092116	0.19357582	-0.83562604	0.03393744	0.4216302	0.022484523	0.0057194622	0.024223743	0.032256666	0.014070976	0.0011536804	0.053583354	0.02355636	0.068600676	0.023460185	0.18407488	7.5994956	7.2346982	0.49739138	7.6135652	6.9974229	0.61408139	6.8943507	7.815417	0.38953053	0.76412062	7.5017012	0.38688016	0.99898443	7.384419	1.0929212	-1056.7377	R0:S0:1	-102.48	uncorrelated	51514b8	2	sharp_wc_2.0_b_50	 1.92e+02	 5.22e-03	2022-04-11@15:28
2x2_2C_8b_C2v_L	8.0964401	0.1	14	2.05	122.71391	-20.222232	-218.71379	118.1579	-115.68444	-139.02085	113.64046	-37.415328	14.88	-0.60318043	0.20302096	-12.268893	-9.5674653	4.603079	11.075492	10.809736	-5.483438	-4.2442434	2.0834242	-10.235038	-7.090414	10.746106	-5.3675227	0.93984468	-0.61056926	1.28	0.673	0.15	-0.16597779	1.3326845	1.9866997	-0.012364387	-0.0013177706	0.00080813809	-0.25830855	0.9177634	0.0092513934	1.9992881	1.9707508	0.017773471	1.9941499	1.9471615	0.0034232083	1.8498071	1.9164224	0.0016083339	-0.14642937	0.94249267	-0.088430282	-0.40603317	-1.2628245	-0.083248292	2.0857761	0.54244962	-0.0011931927	0.14086525	0.72841544	0.034421556	0.17792622	-0.12539161	0.0038716508	0.43196973	0.022478934	0.0092083508	0.00074013946	0.028979697	0.018128731	0.0060239074	0.051563745	0.0034330167	0.13841678	0.023603128	0.15050602	7.9514363	7.3177089	0.49937382	7.5884754	7.0275704	0.60477568	5.7825445	7.848568	0.048296166	0.68123119	7.4993394	0.41134724	0.96933456	7.3949348	2.2008283	-1149.7666	R0:S0:1	-102.64	uncorrelated	51514b8	3	sharp_wc_2.0_b_50	 1.73e+02	 6.51e-03	2022-04-11@15:38
2x2_2C_8b_C2v_L	8.0966158	0.1	14	2.05	130.70449	-24.152883	-235.04772	132.95395	-123.12829	-156.1013	128.98411	-42.370745	14.9	2.944693	-1.0761718	-12.707816	-10.084743	6.8142211	11.73412	10.091799	-5.0952753	-4.0852776	2.0713058	-11.962656	-8.5287717	10.984018	-8.0876193	-4.6931847	3.0573122	1.28	0.673	0.15	-0.16520154	1.3326843	1.986733	-0.012371467	-0.0013334076	0.00081462656	-0.25688191	0.9222009	0.0075891351	1.9856736	1.9723871	0.021989303	1.9863348	1.9501985	0.010996036	1.8951861	1.9209705	-0.0052131705	0.66317633	0.91547864	-0.09317522	-0.63172634	-1.2220536	-0.050912609	1.750934	0.48943578	-0.0049449476	0.13119529	0.81193412	0.068486602	0.18519921	0.53985167	-0.037092718	0.43089692	0.021655353	0.0075744128	0.014615896	0.027422148	0.022313311	0.014022468	0.04884437	0.011138705	0.10089145	0.022708705	0.1764189	7.7431312	7.3417185	0.54055392	7.4812498	7.0252574	0.55760673	6.3983833	7.8229307	0.25149354	0.6573925	7.4580119	0.5179929	0.97229925	7.4419485	1.5873422	-1251.8827	R0:S0:1	-102.8	uncorrelated	51514b8	2	sharp_wc_2.0_b_50	 1.73e+02	 4.94e-03	2022-04-11@15:47
2x2_2C_8b_C2v_L	8.1009074	0.1	14	2.05	139.07835	-29.091984	-251.95221	148.57851	-130.85073	-174.21775	145.95811	-49.543443	14.92	6.170922	-2.5013609	-13.498345	-10.853962	9.0780699	12.038391	4.2949318	-2.2433023	-2.1124484	1.0922715	-14.143914	-10.374241	10.919557	-10.96272	-10.954896	7.1240365	1.28	0.673	0.15	-0.16262275	1.3327295	1.9873771	-0.011588093	-0.0012040253	0.00074892682	-0.25327751	0.92551962	0.002067482	1.9469031	1.9722778	0.027116175	1.9753927	1.9556343	0.041885927	1.9840938	1.9243543	-0.016625215	1.2781292	0.91508345	-0.10295565	-0.8518385	-1.1504944	-0.0088054009	0.67429241	0.23613298	-0.0067225627	0.13285168	0.90120225	0.09691868	0.17678673	1.138041	-0.022075965	0.42975107	0.020936404	0.0020783879	0.051856541	0.027578553	0.027408394	0.025055572	0.043818997	0.041125912	0.016925753	0.021947227	0.23951919	7.157337	7.3216219	0.6126833	7.3533521	7.0666103	0.70831136	7.5991882	7.7603628	0.82798388	0.6775924	7.3857524	0.64521741	0.93158926	7.2890605	0.39824748	-1366.6398	R0:S0:1	-102.96	uncorrelated	51514b8	2	sharp_wc_2.0_b_50	 1.70e+02	 2.76e-03	2022-04-11@15:55
2x2_2C_8b_C2v_L	8.1065292	0.1	14	2.05	147.92054	-35.370479	-269.44375	165.05442	-138.95989	-193.44977	165.01427	-60.264505	14.94	6.7031201	-2.9052044	-14.472106	-11.775721	10.783118	11.324678	-4.5059708	2.4529868	1.1366792	-0.6276296	-16.607448	-12.504236	10.034053	-13.299126	-11.991641	8.0475314	1.28	0.673	0.15	-0.15869266	1.3327859	1.9882412	-0.010592254	-0.0010517533	0.00067043741	-0.24787901	0.92749323	0.00071682549	1.95084	1.9713366	0.032422644	1.9656249	1.9664186	0.039657219	1.9874301	1.9263639	-0.014512914	1.2341486	0.92710405	-0.11658558	-1.011928	-1.0010301	0.011641271	-0.60276607	-0.11967122	0.0029481557	0.14152398	0.98362358	0.11135142	0.14775843	1.1089357	-0.016027057	0.43036993	0.020354336	0.00072009507	0.047926096	0.028555257	0.032668653	0.034607456	0.033462419	0.038965051	0.013284971	0.021334372	0.20366127	7.2215988	7.2782028	0.69776051	7.2662334	7.2094859	0.66405593	7.656578	7.7963066	0.76640276	0.72107427	7.3005894	0.73175582	0.78933885	7.3336404	0.34165142	-1493.3302	R0:S0:1	-103.12	uncorrelated	51514b8	2	sharp_wc_2.0_b_50	 1.66e+02	 5.12e-03	2022-04-11@16:03
2x2_2C_8b_C2v_L	8.1209668	0.1	14	2.05	157.24051	-43.017197	-287.54215	182.41454	-147.46432	-213.80421	186.2474	-74.725631	14.96	4.4487866	-2.0914063	-15.431851	-12.707577	11.873838	9.5189664	-14.89784	8.7172263	5.346978	-3.1144222	-19.130127	-14.739502	8.2952886	-14.997461	-7.3747602	5.0586516	1.28	0.673	0.15	-0.1451353	1.3329144	1.9905097	-0.008236909	-0.00074971872	0.00050490881	-0.22734049	0.92218011	0.0089884418	1.9824753	1.9713159	0.038375722	1.9593275	1.9791778	0.012836606	1.9012622	1.9208313	-0.0064746059	0.73592253	0.92569349	-0.11709253	-1.1075865	-0.78880615	0.04977462	-1.7046039	-0.53166702	0.0047250083	0.13580829	1.0700462	0.11344418	0.10908191	0.59284571	-0.024906805	0.43668191	0.020845713	0.0089747171	0.017713884	0.028637452	0.038510346	0.040467468	0.020921301	0.013011606	0.095286271	0.021969708	0.21089353	7.6883552	7.2735926	0.76835239	7.2319524	7.4044092	0.56592844	6.481938	7.7884751	0.30754453	0.72571737	7.2298726	0.76559972	0.59490823	7.4336916	1.5096147	-1635.9108	R0:S0:1	-103.28	uncorrelated	51514b8	2	sharp_wc_2.0_b_50	 1.52e+02	 4.77e-03	2022-04-11@16:12
2x2_2C_8b_C2v_L	8.1254367	0.1	14	2.05	167.18326	-52.539743	-306.35366	200.81366	-156.28065	-235.22398	210.42318	-94.565925	14.98	-0.31445697	0.15949308	-15.489717	-12.952304	13.097088	7.0161494	-20.091393	12.66603	7.1069196	-4.4080794	-20.614118	-16.16248	6.0163407	-16.896894	2.1007619	-1.4976592	1.28	0.673	0.15	-0.14065983	1.3329532	1.9912092	-0.0075250571	-0.00066198193	0.00045559068	-0.21966587	0.92274452	0.013982707	1.999905	1.9744767	0.039616556	1.9532344	1.988756	0.0028373183	1.8715185	1.9213886	-0.00017942486	-0.047284765	0.87418232	-0.10987926	-1.1908832	-0.57507982	0.065635868	-1.9440662	-0.66599539	0.0022990766	0.11991386	1.0903645	0.12924699	0.085726185	-0.14843154	0.006590931	0.44003126	0.020435389	0.013883278	9.7010622e-05	0.025542737	0.039604363	0.046053253	0.011367982	0.0028561219	0.1201223	0.021551134	0.22233973	7.9427799	7.3358664	0.76400082	7.1665639	7.5269868	0.52259318	6.0874505	7.7766332	0.057222527	0.66354715	7.234296	0.83069307	0.47271993	7.4773252	1.904994	-1796.1841	R0:S0:1	-103.44	uncorrelated	51514b8	2	sharp_wc_2.0_b_50	 1.47e+02	 5.12e-03	2022-04-11@16:20
2x2_2C_8b_C2v_L	8.127436	0.1	14	2.05	177.76488	-63.980763	-325.85297	220.21068	-165.32783	-257.65556	237.7911	-120.28651	15	-7.0801265	3.9711414	-14.93296	-12.694158	15.162684	3.9947275	-18.072342	12.214139	6.27137	-4.0252298	-21.437251	-17.046485	3.3507002	-19.808002	14.17114	-10.607853	1.28	0.673	0.15	-0.13827718	1.3329693	1.9915116	-0.0072304725	-0.00063078004	0.00043638916	-0.2137179	0.92438694	0.0096792652	1.9711756	1.9787926	0.037866769	1.9409465	1.9949967	0.026827069	1.924473	1.9230721	0.010181148	-0.94299676	0.79867116	-0.10263948	-1.336955	-0.3681722	0.039666522	-1.4897079	-0.54826222	0.0068955514	0.10329754	1.0701119	0.15124423	0.06638319	-0.88829266	0.03005349	0.4414961	0.020077893	0.0096892997	0.028825026	0.021266371	0.037746536	0.057488991	0.0050837648	0.026993945	0.074673533	0.021166782	0.26481377	7.5111207	7.4207707	0.71854715	6.9998658	7.5784418	0.69176176	6.7741903	7.7346325	0.48438136	0.57875481	7.2799011	0.99698093	0.42151588	7.3075208	1.2213734	-1977.3136	R0:S0:1	-103.6	uncorrelated	51514b8	1	sharp_wc_2.0_b_50	 1.44e+02	 3.78e-01	2022-04-11@16:25
