model	E_kin	D	U	e	eb1_1	eb2_1	eb3_1	eb4_1	eb5_1	eb6_1	eb7_1	eb8_1	mu	sb1_1	sb2_1	sb3_1	sb4_1	sb5_1	sb6_1	sb7_1	sb8_1	tb1_1	tb2_1	tb3_1	tb4_1	tb5_1	tb6_1	tb7_1	tb8_1	tpd	tpp	tppp	ave_D	ave_e	ave_mu	ave_tpd	ave_tpp	ave_tppp	ave_U_1	ave_eb1_1	ave_eb2_1	ave_eb3_1	ave_eb4_1	ave_eb5_1	ave_eb6_1	ave_eb7_1	ave_eb8_1	ave_mu_1	ave_sb1_1	ave_sb2_1	ave_sb3_1	ave_sb4_1	ave_sb5_1	ave_sb6_1	ave_sb7_1	ave_sb8_1	ave_tb1_1	ave_tb2_1	ave_tb3_1	ave_tb4_1	ave_tb5_1	ave_tb6_1	ave_tb7_1	ave_tb8_1	var_U_1	var_eb1_1	var_eb2_1	var_eb3_1	var_eb4_1	var_eb5_1	var_eb6_1	var_eb7_1	var_eb8_1	var_mu_1	var_sb1_1	var_sb2_1	var_sb3_1	var_sb4_1	var_sb5_1	var_sb6_1	var_sb7_1	var_sb8_1	var_tb1_1	var_tb2_1	var_tb3_1	var_tb4_1	var_tb5_1	var_tb6_1	var_tb7_1	var_tb8_1	E0_1	sector_1	E0_2	sector_2	githash	time
2x2_2C_8b_C2v_L	4.1880643	0	14	2.3	0.0075359776	-3.1630131	-3.9331512	-0.1297946	-3.9331424	-0.12979425	0.1702283	-3.5960407	9.45	8.0611346e-06	1.0897097e-06	0.0078901173	-0.19026753	0.0078899779	-0.19026757	5.6152165e-07	3.1093135e-07	-0.11865291	-1.0889369	1.7346903	0.029762686	-1.7346883	-0.029761606	0.26035527	-2.29933	2.1	1	0.2	0.01114494	1.2514847	1.6068424	-0.61667082	-0.20434777	0.08481594	0.12938685	0.31690047	1.9344331	1.7863356	1.5083401	1.7863362	1.5083349	0.023695065	1.5253729	1.0944734	-7.6618521e-05	-9.3851107e-07	0.12010314	1.2896071	0.12010289	1.2896258	-4.5696524e-06	-1.116986e-06	1.2669312	0.75799389	-1.6237665	-0.55124696	1.6237609	0.55123852	-0.32312187	2.613837	0.028121863	0.27879012	0.063476942	0.19306234	0.3982966	0.19306178	0.39829809	0.02407679	0.35828824	0.037860376	4.3742736	5.3489132	5.1450561	4.9884658	5.1450546	4.9884622	4.3899013	6.2667411	5.2505292	2.7401747	3.3394948	5.3638727	3.3394842	5.3638937	3.6805725	3.0969424	-73.391385	R0:S0:1	-57.2	uncorrelated	51514b8	2022-04-13@21:10
2x2_2C_8b_C2v_L	4.5971007	0	14	2.2773684	-0.00021182765	-3.3297663	-4.0084833	-0.096755084	-4.008517	-0.096755033	0.13617886	-3.654015	9.45	-3.4686116e-05	2.3752899e-06	0.008795441	-0.16353582	0.0087913252	-0.16353868	9.6732994e-06	-2.0812465e-06	-0.11116642	-1.0908262	1.7103844	0.041576694	-1.7103944	-0.041556714	0.2280371	-2.2562853	2.05	0.97842105	0.19684211	0.013200304	1.2616336	1.6200763	-0.57527429	-0.18020118	0.075122758	0.12571268	0.26482506	1.9427643	1.8156663	1.5425531	1.8156707	1.5425345	0.019770878	1.5814427	1.0980665	0.00035883107	-4.4928121e-06	0.095793461	1.1630987	0.095799368	1.1632075	-5.8646301e-05	-2.1637942e-06	1.1441835	0.7286706	-1.5165348	-0.55605808	1.5165074	0.55595142	-0.30056282	2.4608797	0.027450101	0.23611709	0.055740268	0.16934094	0.37423535	0.16933701	0.3742459	0.019894183	0.33157822	0.035071443	4.1654195	5.3268438	5.0805851	5.0704809	5.0805772	5.0704291	4.3490704	6.0360774	5.2792709	2.7880878	3.3799498	5.2212714	3.3799022	5.2213765	3.7069204	3.2800544	-73.72234	R0:S0:1	-57.381053	uncorrelated	51514b8	2022-04-13@21:43
