model	E_kin	D	U	e	eb1_1	eb2_1	eb3_1	eb4_1	eb5_1	eb6_1	eb7_1	eb8_1	mu	sb1_1	sb2_1	sb3_1	sb4_1	sb5_1	sb6_1	sb7_1	sb8_1	tb1_1	tb2_1	tb3_1	tb4_1	tb5_1	tb6_1	tb7_1	tb8_1	tpd	tpp	tppp	ave_D	ave_e	ave_mu	ave_tpd	ave_tpp	ave_tppp	ave_U_1	ave_eb1_1	ave_eb2_1	ave_eb3_1	ave_eb4_1	ave_eb5_1	ave_eb6_1	ave_eb7_1	ave_eb8_1	ave_mu_1	ave_sb1_1	ave_sb2_1	ave_sb3_1	ave_sb4_1	ave_sb5_1	ave_sb6_1	ave_sb7_1	ave_sb8_1	ave_tb1_1	ave_tb2_1	ave_tb3_1	ave_tb4_1	ave_tb5_1	ave_tb6_1	ave_tb7_1	ave_tb8_1	var_U_1	var_eb1_1	var_eb2_1	var_eb3_1	var_eb4_1	var_eb5_1	var_eb6_1	var_eb7_1	var_eb8_1	var_mu_1	var_sb1_1	var_sb2_1	var_sb3_1	var_sb4_1	var_sb5_1	var_sb6_1	var_sb7_1	var_sb8_1	var_tb1_1	var_tb2_1	var_tb3_1	var_tb4_1	var_tb5_1	var_tb6_1	var_tb7_1	var_tb8_1	E0_1	sector_1	E0_2	sector_2	githash	time
2x2_2C_8b_C2v_L	4.205323	0	14	2.3	0.0092323556	-3.1612953	-3.9339231	-0.13165602	-3.933917	-0.13165757	0.17209696	-3.5973986	9.45	1.5333356e-05	9.0001191e-07	0.0074718567	-0.19108458	0.0074731519	-0.19108478	-5.7657766e-06	-5.6877182e-06	-0.11850641	-1.0885199	1.7345396	0.028063295	-1.7345386	-0.028069645	0.26131458	-2.2993085	2.1	1	0.2	0.011014664	1.2519588	1.607485	-0.61498912	-0.20311522	0.084307505	0.12949793	0.2938939	1.9358755	1.7869603	1.5383428	1.786959	1.5383442	0.022639357	1.5299848	1.095121	-0.00013671482	-4.0628793e-06	0.1182721	1.2628247	0.11826774	1.2628013	3.54288e-05	1.1581043e-05	1.2467653	0.7480265	-1.6227773	-0.53164182	1.6227852	0.53167337	-0.32039503	2.6034654	0.028144568	0.26322277	0.062195902	0.19280422	0.38481944	0.19280532	0.3848181	0.023007451	0.35634523	0.037726165	4.2581233	5.3725169	5.1615345	4.9584374	5.1615372	4.9584558	4.3909876	6.2465555	5.2386728	2.7347131	3.3624616	5.2937249	3.3624713	5.293705	3.6810523	3.1101808	-73.397626	R0:S0:1	-57.2	uncorrelated	51514b8	2022-04-16@11:54
2x2_2C_8b_C2v_L	4.7179441	0	14	2.3457632	-0.0041446636	-3.3136858	-4.0679249	-0.10671537	-4.0679372	-0.10671583	0.14701693	-3.7119612	9.6605263	2.6053893e-05	-6.8933748e-07	0.011477039	-0.16630488	0.011476773	-0.16630534	-8.5853143e-08	-2.1791201e-07	-0.11280906	-1.1010696	1.7401109	0.054381663	-1.7401138	-0.0543802	0.23234756	-2.2985484	2.0920632	1	0.20196316	0.014750955	1.2604457	1.6214861	-0.58143736	-0.18304426	0.076196149	0.13261369	0.22808929	1.9428344	1.8098716	1.5889098	1.8098715	1.5889128	0.016906348	1.5739031	1.1057284	-0.00029247933	-1.4163567e-06	0.10292868	1.1276118	0.10292992	1.1276063	4.5210059e-06	2.437092e-06	1.1345702	0.71835978	-1.5435787	-0.60309395	1.5435814	0.60308683	-0.28757006	2.4993458	0.028721744	0.20798971	0.055768573	0.17458783	0.34557032	0.17458789	0.34556937	0.017013923	0.33652947	0.036151914	3.9351214	5.418647	5.1465503	5.0398198	5.1465489	5.0398116	4.3466306	6.0796136	5.2688347	2.7236909	3.3818562	5.0738886	3.381863	5.0738847	3.7078276	3.2206104	-75.184894	R0:S0:1	-58.518105	uncorrelated	51514b8	2022-04-16@12:18
