Number of OpenMP threads = 4
!!!!!!!!!!!!!!!!!!!!!!!!!!!!! - Fading to Sr2CuO2Cl2 - !!!!!!!!!!!!!!!!!!!!!!!!!!!!!
reading data file /home/theod/code_pyqcm/simulations/cdmft_max_supra_sid.tsv, line 1
111 columns read
----->  D  =  0.0
----->  U  =  14.0
----->  e  =  2.3
----->  eb1_1  =  -0.006655534
----->  eb2_1  =  -3.3502828
----->  eb3_1  =  -4.1133163
----->  eb4_1  =  -0.10235806
----->  eb5_1  =  -4.113222
----->  eb6_1  =  -0.1023468
----->  eb7_1  =  0.14108001
----->  eb8_1  =  -3.7537133
----->  mu  =  9.68
----->  sb1_1  =  -0.0001012231
----->  sb2_1  =  7.5002141e-06
----->  sb3_1  =  0.011771903
----->  sb4_1  =  -0.16264369
----->  sb5_1  =  0.011773954
----->  sb6_1  =  -0.16264057
----->  sb7_1  =  1.0013529e-05
----->  sb8_1  =  -2.0059213e-06
----->  tb1_1  =  -0.11240159
----->  tb2_1  =  -1.1061747
----->  tb3_1  =  1.7476608
----->  tb4_1  =  0.057892245
----->  tb5_1  =  -1.7476438
----->  tb6_1  =  -0.057886658
----->  tb7_1  =  0.22749261
----->  tb8_1  =  -2.3061557
----->  tpd  =  2.1
----->  tpp  =  1.0
----->  tppp  =  0.2

******************************* CDMFT procedure *******************************

minimization method =  CG
mixing state =  1
frequency grid type =  sharp
fictitious inverse temperature =  50
frequency cutoff =  2.0
--------------------------------------------------------------------------------

CDMFT iteration 1, distance =  1.66e+02, diff param =  6.21e-02
127 minimization steps, time(MIN)/time(ED)=0.00291
sb1_1     =  0.0000	sb2_1     = -0.0000	sb3_1     =  0.0101	sb4_1     = -0.1828	sb5_1     =  0.0101	
sb6_1     = -0.1828	sb7_1     =  0.0000	sb8_1     =  0.0000	eb1_1     =  0.0073	eb2_1     = -3.2405	
eb3_1     = -3.9554	eb4_1     = -0.1165	eb5_1     = -3.9553	eb6_1     = -0.1165	eb7_1     =  0.1567	
eb8_1     = -3.5865	tb1_1     = -0.1179	tb2_1     = -1.1037	tb3_1     =  1.7426	tb4_1     =  0.0430	
tb5_1     = -1.7426	tb6_1     = -0.0430	tb7_1     =  0.2522	tb8_1     = -2.3029	

CDMFT iteration 2, distance =  1.92e+02, diff param =  1.10e-02, diff hybrid =  9.64e-02
60 minimization steps, time(MIN)/time(ED)=0.00229
sb1_1     = -0.0000	sb2_1     =  0.0000	sb3_1     =  0.0064	sb4_1     = -0.1959	sb5_1     =  0.0064	
sb6_1     = -0.1959	sb7_1     =  0.0000	sb8_1     =  0.0000	eb1_1     =  0.0128	eb2_1     = -3.2246	
eb3_1     = -3.9502	eb4_1     = -0.1356	eb5_1     = -3.9501	eb6_1     = -0.1355	eb7_1     =  0.1720	
eb8_1     = -3.5954	tb1_1     = -0.1194	tb2_1     = -1.0962	tb3_1     =  1.7354	tb4_1     =  0.0236	
tb5_1     = -1.7353	tb6_1     = -0.0236	tb7_1     =  0.2660	tb8_1     = -2.2954	

CDMFT iteration 3, distance =  1.79e+02, diff param =  1.51e-02, diff hybrid =  4.47e-02
79 minimization steps, time(MIN)/time(ED)=0.00220
sb1_1     =  0.0001	sb2_1     =  0.0000	sb3_1     =  0.0080	sb4_1     = -0.1889	sb5_1     =  0.0080	
sb6_1     = -0.1889	sb7_1     = -0.0000	sb8_1     = -0.0000	eb1_1     =  0.0052	eb2_1     = -3.1585	
eb3_1     = -3.9330	eb4_1     = -0.1315	eb5_1     = -3.9330	eb6_1     = -0.1315	eb7_1     =  0.1731	
eb8_1     = -3.6017	tb1_1     = -0.1181	tb2_1     = -1.0891	tb3_1     =  1.7364	tb4_1     =  0.0303	
tb5_1     = -1.7364	tb6_1     = -0.0303	tb7_1     =  0.2587	tb8_1     = -2.3029	

CDMFT iteration 4, distance =  1.82e+02, diff param =  1.85e-03, diff hybrid =  2.64e-02
28 minimization steps, time(MIN)/time(ED)=0.00186
sb1_1     = -0.0000	sb2_1     = -0.0000	sb3_1     =  0.0079	sb4_1     = -0.1903	sb5_1     =  0.0079	
sb6_1     = -0.1903	sb7_1     =  0.0000	sb8_1     =  0.0000	eb1_1     =  0.0075	eb2_1     = -3.1594	
eb3_1     = -3.9328	eb4_1     = -0.1298	eb5_1     = -3.9328	eb6_1     = -0.1298	eb7_1     =  0.1703	
eb8_1     = -3.5958	tb1_1     = -0.1186	tb2_1     = -1.0884	tb3_1     =  1.7346	tb4_1     =  0.0298	
tb5_1     = -1.7346	tb6_1     = -0.0298	tb7_1     =  0.2604	tb8_1     = -2.2993	

CDMFT iteration 5, distance =  1.84e+02, diff param =  1.14e-03, diff hybrid =  8.70e-03
24 minimization steps, time(MIN)/time(ED)=0.00163
sb1_1     =  0.0000	sb2_1     =  0.0000	sb3_1     =  0.0075	sb4_1     = -0.1911	sb5_1     =  0.0075	
sb6_1     = -0.1911	sb7_1     = -0.0000	sb8_1     = -0.0000	eb1_1     =  0.0092	eb2_1     = -3.1613	
eb3_1     = -3.9339	eb4_1     = -0.1317	eb5_1     = -3.9339	eb6_1     = -0.1317	eb7_1     =  0.1721	
eb8_1     = -3.5974	tb1_1     = -0.1185	tb2_1     = -1.0885	tb3_1     =  1.7345	tb4_1     =  0.0281	
tb5_1     = -1.7345	tb6_1     = -0.0281	tb7_1     =  0.2613	tb8_1     = -2.2993	

CDMFT iteration 6, distance =  1.82e+02, diff param =  7.99e-04, diff hybrid =  3.84e-03
10 minimization steps, time(MIN)/time(ED)=0.00142
====================== CDMFT converged on the parameters ======================
sb1_1     =  0.0000	sb2_1     =  0.0000	sb3_1     =  0.0079	sb4_1     = -0.1902	sb5_1     =  0.0079	
sb6_1     = -0.1902	sb7_1     =  0.0000	sb8_1     =  0.0000	eb1_1     =  0.0075	eb2_1     = -3.1612	
eb3_1     = -3.9339	eb4_1     = -0.1313	eb5_1     = -3.9339	eb6_1     = -0.1313	eb7_1     =  0.1721	
eb8_1     = -3.5975	tb1_1     = -0.1185	tb2_1     = -1.0889	tb3_1     =  1.7352	tb4_1     =  0.0300	
tb5_1     = -1.7352	tb6_1     = -0.0300	tb7_1     =  0.2602	tb8_1     = -2.3002	
   <D> = 0.011015
   <e> = 1.251959
   <mu> = 1.607485
   <tpd> = -0.614989
   <tpp> = -0.203115
   <tppp> = 0.084308
************************* CDMFT completed successfully *************************

******************************* CDMFT procedure *******************************

minimization method =  CG
mixing state =  1
frequency grid type =  sharp
fictitious inverse temperature =  50
frequency cutoff =  2.0
--------------------------------------------------------------------------------

CDMFT iteration 1, distance =  1.70e+02, diff param =  4.07e-02
95 minimization steps, time(MIN)/time(ED)=0.00234
sb1_1     = -0.0000	sb2_1     = -0.0000	sb3_1     =  0.0105	sb4_1     = -0.1726	sb5_1     =  0.0105	
sb6_1     = -0.1726	sb7_1     = -0.0000	sb8_1     = -0.0000	eb1_1     = -0.0059	eb2_1     = -3.2303	
eb3_1     = -4.0297	eb4_1     = -0.1145	eb5_1     = -4.0297	eb6_1     = -0.1145	eb7_1     =  0.1563	
eb8_1     = -3.7157	tb1_1     = -0.1141	tb2_1     = -1.0862	tb3_1     =  1.7301	tb4_1     =  0.0448	
tb5_1     = -1.7301	tb6_1     = -0.0448	tb7_1     =  0.2401	tb8_1     = -2.2945	

CDMFT iteration 2, distance =  1.53e+02, diff param =  1.61e-02, diff hybrid =  8.34e-02
84 minimization steps, time(MIN)/time(ED)=0.00215
sb1_1     =  0.0000	sb2_1     =  0.0000	sb3_1     =  0.0122	sb4_1     = -0.1625	sb5_1     =  0.0122	
sb6_1     = -0.1625	sb7_1     = -0.0000	sb8_1     = -0.0000	eb1_1     = -0.0118	eb2_1     = -3.2831	
eb3_1     = -4.0619	eb4_1     = -0.1065	eb5_1     = -4.0618	eb6_1     = -0.1065	eb7_1     =  0.1453	
eb8_1     = -3.7088	tb1_1     = -0.1124	tb2_1     = -1.0967	tb3_1     =  1.7402	tb4_1     =  0.0580	
tb5_1     = -1.7402	tb6_1     = -0.0580	tb7_1     =  0.2281	tb8_1     = -2.2992	

CDMFT iteration 3, distance =  1.56e+02, diff param =  4.88e-03, diff hybrid =  3.18e-02
41 minimization steps, time(MIN)/time(ED)=0.00175
sb1_1     =  0.0000	sb2_1     =  0.0000	sb3_1     =  0.0114	sb4_1     = -0.1656	sb5_1     =  0.0114	
sb6_1     = -0.1656	sb7_1     = -0.0000	sb8_1     = -0.0000	eb1_1     = -0.0040	eb2_1     = -3.3011	
eb3_1     = -4.0619	eb4_1     = -0.1014	eb5_1     = -4.0619	eb6_1     = -0.1014	eb7_1     =  0.1404	
eb8_1     = -3.7038	tb1_1     = -0.1134	tb2_1     = -1.0989	tb3_1     =  1.7381	tb4_1     =  0.0545	
tb5_1     = -1.7382	tb6_1     = -0.0545	tb7_1     =  0.2313	tb8_1     = -2.2955	

CDMFT iteration 4, distance =  1.59e+02, diff param =  4.14e-03, diff hybrid =  1.73e-02
45 minimization steps, time(MIN)/time(ED)=0.00159
sb1_1     =  0.0000	sb2_1     = -0.0000	sb3_1     =  0.0108	sb4_1     = -0.1680	sb5_1     =  0.0108	
sb6_1     = -0.1680	sb7_1     =  0.0000	sb8_1     =  0.0000	eb1_1     = -0.0010	eb2_1     = -3.3138	
eb3_1     = -4.0680	eb4_1     = -0.1050	eb5_1     = -4.0680	eb6_1     = -0.1050	eb7_1     =  0.1449	
eb8_1     = -3.7120	tb1_1     = -0.1131	tb2_1     = -1.1006	tb3_1     =  1.7393	tb4_1     =  0.0509	
tb5_1     = -1.7393	tb6_1     = -0.0509	tb7_1     =  0.2341	tb8_1     = -2.2972	

CDMFT iteration 5, distance =  1.58e+02, diff param =  1.57e-03, diff hybrid =  7.90e-03
14 minimization steps, time(MIN)/time(ED)=0.00134
sb1_1     =  0.0000	sb2_1     = -0.0000	sb3_1     =  0.0115	sb4_1     = -0.1663	sb5_1     =  0.0115	
sb6_1     = -0.1663	sb7_1     = -0.0000	sb8_1     = -0.0000	eb1_1     = -0.0041	eb2_1     = -3.3137	
eb3_1     = -4.0679	eb4_1     = -0.1067	eb5_1     = -4.0679	eb6_1     = -0.1067	eb7_1     =  0.1470	
eb8_1     = -3.7120	tb1_1     = -0.1128	tb2_1     = -1.1011	tb3_1     =  1.7401	tb4_1     =  0.0544	
tb5_1     = -1.7401	tb6_1     = -0.0544	tb7_1     =  0.2323	tb8_1     = -2.2985	

CDMFT iteration 6, distance =  1.57e+02, diff param =  6.50e-04, diff hybrid =  8.73e-03
10 minimization steps, time(MIN)/time(ED)=0.00116
====================== CDMFT converged on the parameters ======================
sb1_1     =  0.0000	sb2_1     = -0.0000	sb3_1     =  0.0117	sb4_1     = -0.1659	sb5_1     =  0.0117	
sb6_1     = -0.1659	sb7_1     = -0.0000	sb8_1     =  0.0000	eb1_1     = -0.0046	eb2_1     = -3.3136	
eb3_1     = -4.0682	eb4_1     = -0.1054	eb5_1     = -4.0682	eb6_1     = -0.1054	eb7_1     =  0.1455	
eb8_1     = -3.7117	tb1_1     = -0.1131	tb2_1     = -1.1010	tb3_1     =  1.7399	tb4_1     =  0.0557	
tb5_1     = -1.7399	tb6_1     = -0.0557	tb7_1     =  0.2320	tb8_1     = -2.2984	
   <D> = 0.014751
   <e> = 1.260446
   <mu> = 1.621486
   <tpd> = -0.581437
   <tpp> = -0.183044
   <tppp> = 0.076196
************************* CDMFT completed successfully *************************

******************************* CDMFT procedure *******************************

minimization method =  CG
mixing state =  1
frequency grid type =  sharp
fictitious inverse temperature =  50
frequency cutoff =  2.0
--------------------------------------------------------------------------------

CDMFT iteration 1, distance =  1.48e+02, diff param =  5.20e-02
105 minimization steps, time(MIN)/time(ED)=0.00257
sb1_1     =  0.0001	sb2_1     = -0.0000	sb3_1     =  0.0126	sb4_1     = -0.1494	sb5_1     =  0.0126	
sb6_1     = -0.1494	sb7_1     =  0.0000	sb8_1     = -0.0000	eb1_1     = -0.0237	eb2_1     = -3.4250	
eb3_1     = -4.2032	eb4_1     = -0.0997	eb5_1     = -4.2032	eb6_1     = -0.0997	eb7_1     =  0.1324	
eb8_1     = -3.8308	tb1_1     = -0.1095	tb2_1     = -1.1023	tb3_1     =  1.7411	tb4_1     =  0.0672	
tb5_1     = -1.7411	tb6_1     = -0.0672	tb7_1     =  0.2105	tb8_1     = -2.2914	

CDMFT iteration 2, distance =  1.23e+02, diff param =  1.19e-01, diff hybrid =  8.39e-02
210 minimization steps, time(MIN)/time(ED)=0.00356
sb1_1     =  0.0004	sb2_1     = -0.0002	sb3_1     =  0.0137	sb4_1     = -0.1315	sb5_1     =  0.0137	
sb6_1     = -0.1317	sb7_1     = -0.0024	sb8_1     =  0.0003	eb1_1     = -0.1588	eb2_1     = -3.9794	
eb3_1     = -4.2375	eb4_1     = -0.0967	eb5_1     = -4.2613	eb6_1     = -0.1005	eb7_1     =  0.1110	
eb8_1     = -3.8140	tb1_1     = -0.1607	tb2_1     = -1.1592	tb3_1     =  1.7530	tb4_1     =  0.0819	
tb5_1     = -1.7571	tb6_1     = -0.0840	tb7_1     =  0.1856	tb8_1     = -2.2947	

CDMFT iteration 3, distance =  9.43e+01, diff param =  7.42e-02, diff hybrid =  6.86e-02
174 minimization steps, time(MIN)/time(ED)=0.00379
sb1_1     =  0.0019	sb2_1     = -0.0007	sb3_1     =  0.0187	sb4_1     = -0.0994	sb5_1     =  0.0186	
sb6_1     = -0.0992	sb7_1     =  0.0059	sb8_1     = -0.0013	eb1_1     = -0.1788	eb2_1     = -4.1854	
eb3_1     = -4.4400	eb4_1     = -0.1379	eb5_1     = -4.4405	eb6_1     = -0.1382	eb7_1     =  0.1197	
eb8_1     = -3.7786	tb1_1     = -0.1803	tb2_1     = -1.1831	tb3_1     =  1.7820	tb4_1     =  0.1401	
tb5_1     = -1.7822	tb6_1     = -0.1385	tb7_1     =  0.1572	tb8_1     = -2.2928	

CDMFT iteration 4, distance =  1.06e+02, diff param =  1.06e-01, diff hybrid =  8.19e-02
206 minimization steps, time(MIN)/time(ED)=0.00417
sb1_1     = -0.0014	sb2_1     =  0.0003	sb3_1     =  0.0146	sb4_1     = -0.1104	sb5_1     =  0.0148	
sb6_1     = -0.1117	sb7_1     = -0.0079	sb8_1     =  0.0002	eb1_1     = -0.0549	eb2_1     = -3.7102	
eb3_1     = -4.3978	eb4_1     = -0.0940	eb5_1     = -4.4034	eb6_1     = -0.0953	eb7_1     =  0.0079	
eb8_1     = -3.7598	tb1_1     = -0.1324	tb2_1     = -1.1405	tb3_1     =  1.7765	tb4_1     =  0.1234	
tb5_1     = -1.7776	tb6_1     = -0.1235	tb7_1     =  0.1312	tb8_1     = -2.2718	

CDMFT iteration 5, distance =  1.42e+02, diff param =  6.14e-02, diff hybrid =  9.97e-02
122 minimization steps, time(MIN)/time(ED)=0.00375
sb1_1     = -0.0361	sb2_1     = -0.0002	sb3_1     =  0.0115	sb4_1     = -0.1419	sb5_1     =  0.0105	
sb6_1     = -0.1398	sb7_1     =  0.0052	sb8_1     = -0.0006	eb1_1     =  0.0044	eb2_1     = -3.5806	
eb3_1     = -4.2893	eb4_1     = -0.0868	eb5_1     = -4.2453	eb6_1     = -0.0757	eb7_1     =  0.1219	
eb8_1     = -3.8266	tb1_1     = -0.1065	tb2_1     = -1.1285	tb3_1     =  1.7579	tb4_1     =  0.0759	
tb5_1     = -1.7501	tb6_1     = -0.0680	tb7_1     =  0.1977	tb8_1     = -2.2954	

CDMFT iteration 6, distance =  1.34e+02, diff param =  1.85e-02, diff hybrid =  1.38e-01
61 minimization steps, time(MIN)/time(ED)=0.00337
sb1_1     = -0.0062	sb2_1     =  0.0010	sb3_1     =  0.0126	sb4_1     = -0.1352	sb5_1     =  0.0138	
sb6_1     = -0.1364	sb7_1     = -0.0040	sb8_1     =  0.0005	eb1_1     = -0.0511	eb2_1     = -3.5867	
eb3_1     = -4.2410	eb4_1     = -0.0919	eb5_1     = -4.2694	eb6_1     = -0.1012	eb7_1     =  0.1191	
eb8_1     = -3.8264	tb1_1     = -0.1168	tb2_1     = -1.1245	tb3_1     =  1.7533	tb4_1     =  0.0756	
tb5_1     = -1.7577	tb6_1     = -0.0837	tb7_1     =  0.1925	tb8_1     = -2.2975	

CDMFT iteration 7, distance =  9.51e+01, diff param =  1.28e-01, diff hybrid =  5.55e-02
201 minimization steps, time(MIN)/time(ED)=0.00349
sb1_1     =  0.0029	sb2_1     = -0.0009	sb3_1     =  0.0186	sb4_1     = -0.1018	sb5_1     =  0.0187	
sb6_1     = -0.0993	sb7_1     =  0.0294	sb8_1     = -0.0060	eb1_1     = -0.1802	eb2_1     = -4.1299	
eb3_1     = -4.4383	eb4_1     = -0.1409	eb5_1     = -4.4095	eb6_1     = -0.1366	eb7_1     =  0.1266	
eb8_1     = -3.7888	tb1_1     = -0.1789	tb2_1     = -1.1764	tb3_1     =  1.7820	tb4_1     =  0.1381	
tb5_1     = -1.7771	tb6_1     = -0.1351	tb7_1     =  0.1586	tb8_1     = -2.2945	

CDMFT iteration 8, distance =  1.04e+02, diff param =  9.17e-02, diff hybrid =  9.99e-02
194 minimization steps, time(MIN)/time(ED)=0.00366
sb1_1     = -0.0079	sb2_1     =  0.0018	sb3_1     =  0.0142	sb4_1     = -0.1071	sb5_1     =  0.0154	
sb6_1     = -0.1115	sb7_1     = -0.0206	sb8_1     =  0.0004	eb1_1     = -0.0588	eb2_1     = -3.7310	
eb3_1     = -4.4044	eb4_1     = -0.0940	eb5_1     = -4.4117	eb6_1     = -0.0988	eb7_1     =  0.0053	
eb8_1     = -3.7619	tb1_1     = -0.1341	tb2_1     = -1.1427	tb3_1     =  1.7775	tb4_1     =  0.1246	
tb5_1     = -1.7789	tb6_1     = -0.1264	tb7_1     =  0.1286	tb8_1     = -2.2724	

CDMFT iteration 9, distance =  1.38e+02, diff param =  7.43e-02, diff hybrid =  1.02e-01
161 minimization steps, time(MIN)/time(ED)=0.00362
sb1_1     =  0.0896	sb2_1     = -0.0002	sb3_1     =  0.0120	sb4_1     = -0.1448	sb5_1     =  0.0086	
sb6_1     = -0.1391	sb7_1     =  0.0228	sb8_1     = -0.0025	eb1_1     = -0.0093	eb2_1     = -3.5919	
eb3_1     = -4.3571	eb4_1     = -0.0999	eb5_1     = -4.1694	eb6_1     = -0.0574	eb7_1     =  0.1154	
eb8_1     = -3.8233	tb1_1     = -0.0693	tb2_1     = -1.1297	tb3_1     =  1.7693	tb4_1     =  0.0846	
tb5_1     = -1.7361	tb6_1     = -0.0519	tb7_1     =  0.1968	tb8_1     = -2.2931	

CDMFT iteration 10, distance =  1.34e+02, diff param =  4.61e-02, diff hybrid =  1.49e-01
85 minimization steps, time(MIN)/time(ED)=0.00347
sb1_1     =  0.1125	sb2_1     =  0.0041	sb3_1     =  0.0097	sb4_1     = -0.1351	sb5_1     =  0.0147	
sb6_1     = -0.1390	sb7_1     = -0.0160	sb8_1     =  0.0019	eb1_1     =  0.0478	eb2_1     = -3.5836	
eb3_1     = -4.2072	eb4_1     = -0.0753	eb5_1     = -4.2892	eb6_1     = -0.1110	eb7_1     =  0.1186	
eb8_1     = -3.8317	tb1_1     = -0.0286	tb2_1     = -1.1253	tb3_1     =  1.7479	tb4_1     =  0.0565	
tb5_1     = -1.7603	tb6_1     = -0.0914	tb7_1     =  0.1940	tb8_1     = -2.2982	

CDMFT iteration 11, distance =  1.02e+02, diff param =  1.28e-01, diff hybrid =  7.95e-02
225 minimization steps, time(MIN)/time(ED)=0.00360
sb1_1     =  0.1772	sb2_1     = -0.0040	sb3_1     =  0.0184	sb4_1     = -0.1106	sb5_1     =  0.0180	
sb6_1     = -0.1034	sb7_1     =  0.0531	sb8_1     = -0.0095	eb1_1     =  0.1808	eb2_1     = -4.1263	
eb3_1     = -4.4384	eb4_1     = -0.1394	eb5_1     = -4.3050	eb6_1     = -0.1165	eb7_1     =  0.1284	
eb8_1     = -3.8132	tb1_1     =  0.0121	tb2_1     = -1.1761	tb3_1     =  1.7832	tb4_1     =  0.1331	
tb5_1     = -1.7619	tb6_1     = -0.1157	tb7_1     =  0.1625	tb8_1     = -2.2981	

CDMFT iteration 12, distance =  1.02e+02, diff param =  9.63e-02, diff hybrid =  1.12e-01
194 minimization steps, time(MIN)/time(ED)=0.00373
sb1_1     =  0.1347	sb2_1     =  0.0037	sb3_1     =  0.0144	sb4_1     = -0.1030	sb5_1     =  0.0163	
sb6_1     = -0.1136	sb7_1     = -0.0467	sb8_1     =  0.0013	eb1_1     =  0.0649	eb2_1     = -3.7321	
eb3_1     = -4.3832	eb4_1     = -0.0935	eb5_1     = -4.4236	eb6_1     = -0.1069	eb7_1     =  0.0111	
eb8_1     = -3.7551	tb1_1     = -0.0163	tb2_1     = -1.1422	tb3_1     =  1.7740	tb4_1     =  0.1223	
tb5_1     = -1.7810	tb6_1     = -0.1284	tb7_1     =  0.1194	tb8_1     = -2.2714	

CDMFT iteration 13, distance =  1.38e+02, diff param =  7.25e-02, diff hybrid =  1.02e-01
167 minimization steps, time(MIN)/time(ED)=0.00370
sb1_1     =  0.0859	sb2_1     = -0.0015	sb3_1     =  0.0132	sb4_1     = -0.1426	sb5_1     =  0.0088	
sb6_1     = -0.1332	sb7_1     =  0.0219	sb8_1     = -0.0027	eb1_1     =  0.0126	eb2_1     = -3.5836	
eb3_1     = -4.3587	eb4_1     = -0.1020	eb5_1     = -4.1914	eb6_1     = -0.0561	eb7_1     =  0.1112	
eb8_1     = -3.8176	tb1_1     =  0.0750	tb2_1     = -1.1292	tb3_1     =  1.7700	tb4_1     =  0.0910	
tb5_1     = -1.7404	tb6_1     = -0.0606	tb7_1     =  0.1906	tb8_1     = -2.2926	

CDMFT iteration 14, distance =  1.34e+02, diff param =  4.97e-02, diff hybrid =  1.39e-01
92 minimization steps, time(MIN)/time(ED)=0.00358
sb1_1     =  0.0265	sb2_1     =  0.0031	sb3_1     =  0.0097	sb4_1     = -0.1342	sb5_1     =  0.0145	
sb6_1     = -0.1399	sb7_1     = -0.0172	sb8_1     =  0.0020	eb1_1     = -0.0413	eb2_1     = -3.5688	
eb3_1     = -4.1894	eb4_1     = -0.0703	eb5_1     = -4.3073	eb6_1     = -0.1107	eb7_1     =  0.1159	
eb8_1     = -3.8283	tb1_1     =  0.1114	tb2_1     = -1.1240	tb3_1     =  1.7439	tb4_1     =  0.0580	
tb5_1     = -1.7631	tb6_1     = -0.0914	tb7_1     =  0.1936	tb8_1     = -2.2968	

CDMFT iteration 15, distance =  1.06e+02, diff param =  1.20e-01, diff hybrid =  7.43e-02
256 minimization steps, time(MIN)/time(ED)=0.00371
sb1_1     = -0.0140	sb2_1     = -0.0044	sb3_1     =  0.0180	sb4_1     = -0.1139	sb5_1     =  0.0166	
sb6_1     = -0.1077	sb7_1     =  0.0447	sb8_1     = -0.0077	eb1_1     = -0.1696	eb2_1     = -4.0629	
eb3_1     = -4.4242	eb4_1     = -0.1358	eb5_1     = -4.2620	eb6_1     = -0.1018	eb7_1     =  0.1244	
eb8_1     = -3.8114	tb1_1     =  0.1718	tb2_1     = -1.1695	tb3_1     =  1.7813	tb4_1     =  0.1288	
tb5_1     = -1.7560	tb6_1     = -0.1042	tb7_1     =  0.1664	tb8_1     = -2.2977	

CDMFT iteration 16, distance =  1.02e+02, diff param =  6.80e-02, diff hybrid =  1.05e-01
179 minimization steps, time(MIN)/time(ED)=0.00377
sb1_1     =  0.0176	sb2_1     =  0.0047	sb3_1     =  0.0152	sb4_1     = -0.1026	sb5_1     =  0.0167	
sb6_1     = -0.1126	sb7_1     = -0.0467	sb8_1     =  0.0017	eb1_1     = -0.0869	eb2_1     = -3.8535	
eb3_1     = -4.3833	eb4_1     = -0.0991	eb5_1     = -4.4242	eb6_1     = -0.1111	eb7_1     =  0.0154	
eb8_1     = -3.7498	tb1_1     =  0.1445	tb2_1     = -1.1542	tb3_1     =  1.7741	tb4_1     =  0.1220	
tb5_1     = -1.7807	tb6_1     = -0.1310	tb7_1     =  0.1183	tb8_1     = -2.2708	

CDMFT iteration 17, distance =  1.29e+02, diff param =  7.99e-02, diff hybrid =  9.62e-02
129 minimization steps, time(MIN)/time(ED)=0.00370
sb1_1     = -0.0433	sb2_1     = -0.0018	sb3_1     =  0.0140	sb4_1     = -0.1353	sb5_1     =  0.0106	
sb6_1     = -0.1249	sb7_1     =  0.0161	sb8_1     = -0.0022	eb1_1     = -0.0151	eb2_1     = -3.5650	
eb3_1     = -4.3513	eb4_1     = -0.0976	eb5_1     = -4.2419	eb6_1     = -0.0638	eb7_1     =  0.0977	
eb8_1     = -3.7991	tb1_1     =  0.1061	tb2_1     = -1.1269	tb3_1     =  1.7694	tb4_1     =  0.0971	
tb5_1     = -1.7501	tb6_1     = -0.0802	tb7_1     =  0.1775	tb8_1     = -2.2892	

CDMFT iteration 18, distance =  1.34e+02, diff param =  4.22e-02, diff hybrid =  1.18e-01
82 minimization steps, time(MIN)/time(ED)=0.00360
sb1_1     =  0.0196	sb2_1     =  0.0016	sb3_1     =  0.0101	sb4_1     = -0.1348	sb5_1     =  0.0137	
sb6_1     = -0.1408	sb7_1     = -0.0146	sb8_1     =  0.0016	eb1_1     = -0.0326	eb2_1     = -3.5532	
eb3_1     = -4.1857	eb4_1     = -0.0684	eb5_1     = -4.3078	eb6_1     = -0.1036	eb7_1     =  0.1086	
eb8_1     = -3.8205	tb1_1     =  0.1111	tb2_1     = -1.1224	tb3_1     =  1.7418	tb4_1     =  0.0634	
tb5_1     = -1.7627	tb6_1     = -0.0877	tb7_1     =  0.1930	tb8_1     = -2.2937	

CDMFT iteration 19, distance =  1.11e+02, diff param =  1.08e-01, diff hybrid =  5.80e-02
235 minimization steps, time(MIN)/time(ED)=0.00367
sb1_1     = -0.0136	sb2_1     = -0.0038	sb3_1     =  0.0170	sb4_1     = -0.1197	sb5_1     =  0.0143	
sb6_1     = -0.1143	sb7_1     =  0.0321	sb8_1     = -0.0049	eb1_1     = -0.1502	eb2_1     = -3.9950	
eb3_1     = -4.3925	eb4_1     = -0.1274	eb5_1     = -4.2070	eb6_1     = -0.0833	eb7_1     =  0.1181	
eb8_1     = -3.8098	tb1_1     =  0.1628	tb2_1     = -1.1628	tb3_1     =  1.7770	tb4_1     =  0.1180	
tb5_1     = -1.7474	tb6_1     = -0.0886	tb7_1     =  0.1725	tb8_1     = -2.2965	

CDMFT iteration 20, distance =  1.00e+02, diff param =  5.43e-02, diff hybrid =  9.14e-02
120 minimization steps, time(MIN)/time(ED)=0.00364
sb1_1     =  0.0183	sb2_1     =  0.0056	sb3_1     =  0.0161	sb4_1     = -0.1024	sb5_1     =  0.0172	
sb6_1     = -0.1102	sb7_1     = -0.0419	sb8_1     =  0.0026	eb1_1     = -0.1215	eb2_1     = -3.9817	
eb3_1     = -4.3782	eb4_1     = -0.1065	eb5_1     = -4.4109	eb6_1     = -0.1176	eb7_1     =  0.0248	
eb8_1     = -3.7439	tb1_1     =  0.1585	tb2_1     = -1.1652	tb3_1     =  1.7737	tb4_1     =  0.1208	
tb5_1     = -1.7779	tb6_1     = -0.1340	tb7_1     =  0.1200	tb8_1     = -2.2712	

CDMFT iteration 21, distance =  1.18e+02, diff param =  8.97e-02, diff hybrid =  9.05e-02
163 minimization steps, time(MIN)/time(ED)=0.00364
sb1_1     = -0.0213	sb2_1     = -0.0020	sb3_1     =  0.0148	sb4_1     = -0.1271	sb5_1     =  0.0124	
sb6_1     = -0.1163	sb7_1     =  0.0168	sb8_1     = -0.0016	eb1_1     = -0.0268	eb2_1     = -3.5898	
eb3_1     = -4.3739	eb4_1     = -0.0982	eb5_1     = -4.2825	eb6_1     = -0.0731	eb7_1     =  0.0493	
eb8_1     = -3.7544	tb1_1     =  0.1162	tb2_1     = -1.1292	tb3_1     =  1.7733	tb4_1     =  0.1078	
tb5_1     = -1.7573	tb6_1     = -0.0984	tb7_1     =  0.1473	tb8_1     = -2.2741	

CDMFT iteration 22, distance =  1.33e+02, diff param =  5.09e-02, diff hybrid =  8.44e-02
101 minimization steps, time(MIN)/time(ED)=0.00356
sb1_1     =  0.0236	sb2_1     =  0.0013	sb3_1     =  0.0097	sb4_1     = -0.1340	sb5_1     =  0.0133	
sb6_1     = -0.1412	sb7_1     = -0.0195	sb8_1     =  0.0020	eb1_1     = -0.0281	eb2_1     = -3.5618	
eb3_1     = -4.1700	eb4_1     = -0.0602	eb5_1     = -4.3313	eb6_1     = -0.1022	eb7_1     =  0.1002	
eb8_1     = -3.8091	tb1_1     =  0.1108	tb2_1     = -1.1240	tb3_1     =  1.7378	tb4_1     =  0.0623	
tb5_1     = -1.7661	tb6_1     = -0.0903	tb7_1     =  0.1899	tb8_1     = -2.2894	

CDMFT iteration 23, distance =  1.24e+02, diff param =  5.60e-02, diff hybrid =  7.95e-02
106 minimization steps, time(MIN)/time(ED)=0.00350
sb1_1     = -0.0227	sb2_1     = -0.0032	sb3_1     =  0.0151	sb4_1     = -0.1318	sb5_1     =  0.0101	
sb6_1     = -0.1258	sb7_1     =  0.0266	sb8_1     = -0.0033	eb1_1     = -0.0565	eb2_1     = -3.5939	
eb3_1     = -4.3423	eb4_1     = -0.1159	eb5_1     = -4.1576	eb6_1     = -0.0634	eb7_1     =  0.1122	
eb8_1     = -3.8189	tb1_1     =  0.1186	tb2_1     = -1.1252	tb3_1     =  1.7689	tb4_1     =  0.1022	
tb5_1     = -1.7388	tb6_1     = -0.0620	tb7_1     =  0.1838	tb8_1     = -2.2959	

CDMFT iteration 24, distance =  1.03e+02, diff param =  1.08e-01, diff hybrid =  7.62e-02
204 minimization steps, time(MIN)/time(ED)=0.00354
sb1_1     =  0.0208	sb2_1     =  0.0066	sb3_1     =  0.0162	sb4_1     = -0.1042	sb5_1     =  0.0182	
sb6_1     = -0.1121	sb7_1     = -0.0543	sb8_1     =  0.0096	eb1_1     = -0.1494	eb2_1     = -4.0050	
eb3_1     = -4.2923	eb4_1     = -0.1006	eb5_1     = -4.4311	eb6_1     = -0.1311	eb7_1     =  0.1190	
eb8_1     = -3.8086	tb1_1     =  0.1659	tb2_1     = -1.1649	tb3_1     =  1.7607	tb4_1     =  0.1072	
tb5_1     = -1.7816	tb6_1     = -0.1342	tb7_1     =  0.1600	tb8_1     = -2.2962	

CDMFT iteration 25, distance =  1.08e+02, diff param =  8.29e-02, diff hybrid =  1.04e-01
139 minimization steps, time(MIN)/time(ED)=0.00354
sb1_1     = -0.0192	sb2_1     = -0.0035	sb3_1     =  0.0161	sb4_1     = -0.1191	sb5_1     =  0.0140	
sb6_1     = -0.1066	sb7_1     =  0.0337	sb8_1     = -0.0019	eb1_1     = -0.0532	eb2_1     = -3.6869	
eb3_1     = -4.4139	eb4_1     = -0.1067	eb5_1     = -4.3285	eb6_1     = -0.0850	eb7_1     =  0.0265	
eb8_1     = -3.7484	tb1_1     =  0.1277	tb2_1     = -1.1382	tb3_1     =  1.7794	tb4_1     =  0.1230	
tb5_1     = -1.7651	tb6_1     = -0.1122	tb7_1     =  0.1291	tb8_1     = -2.2710	

CDMFT iteration 26, distance =  1.24e+02, diff param =  5.50e-02, diff hybrid =  9.75e-02
128 minimization steps, time(MIN)/time(ED)=0.00349
sb1_1     =  0.0263	sb2_1     =  0.0020	sb3_1     =  0.0114	sb4_1     = -0.1201	sb5_1     =  0.0149	
sb6_1     = -0.1312	sb7_1     = -0.0231	sb8_1     =  0.0031	eb1_1     = -0.0286	eb2_1     = -3.5795	
eb3_1     = -4.2222	eb4_1     = -0.0643	eb5_1     = -4.3842	eb6_1     = -0.1074	eb7_1     =  0.0963	
eb8_1     = -3.7962	tb1_1     =  0.1134	tb2_1     = -1.1275	tb3_1     =  1.7473	tb4_1     =  0.0846	
tb5_1     = -1.7753	tb6_1     = -0.1064	tb7_1     =  0.1728	tb8_1     = -2.2894	

CDMFT iteration 27, distance =  1.29e+02, diff param =  5.78e-02, diff hybrid =  8.90e-02
81 minimization steps, time(MIN)/time(ED)=0.00343
sb1_1     = -0.0258	sb2_1     = -0.0024	sb3_1     =  0.0146	sb4_1     = -0.1362	sb5_1     =  0.0098	
sb6_1     = -0.1285	sb7_1     =  0.0256	sb8_1     = -0.0028	eb1_1     = -0.0401	eb2_1     = -3.5727	
eb3_1     = -4.3530	eb4_1     = -0.1112	eb5_1     = -4.1643	eb6_1     = -0.0587	eb7_1     =  0.1037	
eb8_1     = -3.8107	tb1_1     =  0.1138	tb2_1     = -1.1245	tb3_1     =  1.7699	tb4_1     =  0.1009	
tb5_1     = -1.7381	tb6_1     = -0.0631	tb7_1     =  0.1848	tb8_1     = -2.2918	

CDMFT iteration 28, distance =  1.14e+02, diff param =  9.20e-02, diff hybrid =  7.20e-02
232 minimization steps, time(MIN)/time(ED)=0.00349
sb1_1     =  0.0244	sb2_1     =  0.0066	sb3_1     =  0.0124	sb4_1     = -0.1147	sb5_1     =  0.0171	
sb6_1     = -0.1226	sb7_1     = -0.0381	sb8_1     =  0.0058	eb1_1     = -0.1206	eb2_1     = -3.8792	
eb3_1     = -4.1935	eb4_1     = -0.0719	eb5_1     = -4.4002	eb6_1     = -0.1253	eb7_1     =  0.1167	
eb8_1     = -3.8143	tb1_1     =  0.1505	tb2_1     = -1.1525	tb3_1     =  1.7452	tb4_1     =  0.0799	
tb5_1     = -1.7777	tb6_1     = -0.1203	tb7_1     =  0.1732	tb8_1     = -2.2968	

CDMFT iteration 29, distance =  1.04e+02, diff param =  5.60e-02, diff hybrid =  9.48e-02
73 minimization steps, time(MIN)/time(ED)=0.00344
sb1_1     = -0.0223	sb2_1     = -0.0062	sb3_1     =  0.0172	sb4_1     = -0.1153	sb5_1     =  0.0155	
sb6_1     = -0.1045	sb7_1     =  0.0517	sb8_1     = -0.0088	eb1_1     = -0.1073	eb2_1     = -3.8833	
eb3_1     = -4.4166	eb4_1     = -0.1190	eb5_1     = -4.3220	eb6_1     = -0.0949	eb7_1     =  0.1000	
eb8_1     = -3.7932	tb1_1     =  0.1502	tb2_1     = -1.1550	tb3_1     =  1.7793	tb4_1     =  0.1302	
tb5_1     = -1.7650	tb6_1     = -0.1105	tb7_1     =  0.1538	tb8_1     = -2.2907	

CDMFT iteration 30, distance =  1.15e+02, diff param =  7.31e-02, diff hybrid =  8.92e-02
125 minimization steps, time(MIN)/time(ED)=0.00343
sb1_1     =  0.0199	sb2_1     =  0.0026	sb3_1     =  0.0130	sb4_1     = -0.1124	sb5_1     =  0.0158	
sb6_1     = -0.1250	sb7_1     = -0.0242	sb8_1     =  0.0023	eb1_1     = -0.0395	eb2_1     = -3.6086	
eb3_1     = -4.2665	eb4_1     = -0.0750	eb5_1     = -4.4105	eb6_1     = -0.1078	eb7_1     =  0.0507	
eb8_1     = -3.7535	tb1_1     =  0.1203	tb2_1     = -1.1297	tb3_1     =  1.7544	tb4_1     =  0.1014	
tb5_1     = -1.7793	tb6_1     = -0.1155	tb7_1     =  0.1442	tb8_1     = -2.2746	

CDMFT iteration 31, distance =  1.25e+02, diff param =  5.83e-02, diff hybrid =  8.58e-02
110 minimization steps, time(MIN)/time(ED)=0.00339
sb1_1     = -0.0230	sb2_1     = -0.0019	sb3_1     =  0.0150	sb4_1     = -0.1314	sb5_1     =  0.0112	
sb6_1     = -0.1220	sb7_1     =  0.0276	sb8_1     = -0.0034	eb1_1     = -0.0373	eb2_1     = -3.5807	
eb3_1     = -4.3877	eb4_1     = -0.1127	eb5_1     = -4.1920	eb6_1     = -0.0613	eb7_1     =  0.1015	
eb8_1     = -3.8041	tb1_1     =  0.1156	tb2_1     = -1.1261	tb3_1     =  1.7756	tb4_1     =  0.1083	
tb5_1     = -1.7425	tb6_1     = -0.0777	tb7_1     =  0.1768	tb8_1     = -2.2913	

CDMFT iteration 32, distance =  1.20e+02, diff param =  6.50e-02, diff hybrid =  7.49e-02
83 minimization steps, time(MIN)/time(ED)=0.00334
sb1_1     =  0.0256	sb2_1     =  0.0041	sb3_1     =  0.0113	sb4_1     = -0.1184	sb5_1     =  0.0161	
sb6_1     = -0.1270	sb7_1     = -0.0339	sb8_1     =  0.0046	eb1_1     = -0.0631	eb2_1     = -3.6290	
eb3_1     = -4.1844	eb4_1     = -0.0638	eb5_1     = -4.3913	eb6_1     = -0.1197	eb7_1     =  0.1093	
eb8_1     = -3.8110	tb1_1     =  0.1244	tb2_1     = -1.1289	tb3_1     =  1.7428	tb4_1     =  0.0751	
tb5_1     = -1.7761	tb6_1     = -0.1155	tb7_1     =  0.1754	tb8_1     = -2.2946	

CDMFT iteration 33, distance =  1.10e+02, diff param =  7.06e-02, diff hybrid =  7.99e-02
167 minimization steps, time(MIN)/time(ED)=0.00335
sb1_1     = -0.0245	sb2_1     = -0.0061	sb3_1     =  0.0172	sb4_1     = -0.1196	sb5_1     =  0.0141	
sb6_1     = -0.1094	sb7_1     =  0.0444	sb8_1     = -0.0074	eb1_1     = -0.0972	eb2_1     = -3.7863	
eb3_1     = -4.4190	eb4_1     = -0.1217	eb5_1     = -4.2538	eb6_1     = -0.0821	eb7_1     =  0.1111	
eb8_1     = -3.8051	tb1_1     =  0.1430	tb2_1     = -1.1441	tb3_1     =  1.7801	tb4_1     =  0.1263	
tb5_1     = -1.7543	tb6_1     = -0.0961	tb7_1     =  0.1651	tb8_1     = -2.2944	

CDMFT iteration 34, distance =  1.11e+02, diff param =  5.44e-02, diff hybrid =  8.81e-02
146 minimization steps, time(MIN)/time(ED)=0.00335
sb1_1     =  0.0208	sb2_1     =  0.0038	sb3_1     =  0.0140	sb4_1     = -0.1096	sb5_1     =  0.0164	
sb6_1     = -0.1218	sb7_1     = -0.0350	sb8_1     =  0.0051	eb1_1     = -0.0578	eb2_1     = -3.6859	
eb3_1     = -4.2849	eb4_1     = -0.0816	eb5_1     = -4.4132	eb6_1     = -0.1133	eb7_1     =  0.0808	
eb8_1     = -3.7750	tb1_1     =  0.1273	tb2_1     = -1.1372	tb3_1     =  1.7582	tb4_1     =  0.1037	
tb5_1     = -1.7793	tb6_1     = -0.1215	tb7_1     =  0.1539	tb8_1     = -2.2842	

CDMFT iteration 35, distance =  1.18e+02, diff param =  5.02e-02, diff hybrid =  8.00e-02
112 minimization steps, time(MIN)/time(ED)=0.00333
sb1_1     = -0.0201	sb2_1     = -0.0025	sb3_1     =  0.0158	sb4_1     = -0.1262	sb5_1     =  0.0128	
sb6_1     = -0.1154	sb7_1     =  0.0281	sb8_1     = -0.0040	eb1_1     = -0.0436	eb2_1     = -3.6146	
eb3_1     = -4.4037	eb4_1     = -0.1129	eb5_1     = -4.2424	eb6_1     = -0.0719	eb7_1     =  0.0974	
eb8_1     = -3.7932	tb1_1     =  0.1202	tb2_1     = -1.1298	tb3_1     =  1.7781	tb4_1     =  0.1149	
tb5_1     = -1.7510	tb6_1     = -0.0935	tb7_1     =  0.1677	tb8_1     = -2.2897	

CDMFT iteration 36, distance =  1.18e+02, diff param =  5.49e-02, diff hybrid =  6.80e-02
92 minimization steps, time(MIN)/time(ED)=0.00329
sb1_1     =  0.0214	sb2_1     =  0.0030	sb3_1     =  0.0125	sb4_1     = -0.1164	sb5_1     =  0.0160	
sb6_1     = -0.1257	sb7_1     = -0.0312	sb8_1     =  0.0044	eb1_1     = -0.0533	eb2_1     = -3.6208	
eb3_1     = -4.2172	eb4_1     = -0.0692	eb5_1     = -4.3996	eb6_1     = -0.1168	eb7_1     =  0.1043	
eb8_1     = -3.8019	tb1_1     =  0.1225	tb2_1     = -1.1291	tb3_1     =  1.7475	tb4_1     =  0.0865	
tb5_1     = -1.7774	tb6_1     = -0.1164	tb7_1     =  0.1712	tb8_1     = -2.2923	

CDMFT iteration 37, distance =  1.13e+02, diff param =  5.62e-02, diff hybrid =  6.71e-02
71 minimization steps, time(MIN)/time(ED)=0.00325
sb1_1     = -0.0222	sb2_1     = -0.0042	sb3_1     =  0.0166	sb4_1     = -0.1219	sb5_1     =  0.0136	
sb6_1     = -0.1125	sb7_1     =  0.0360	sb8_1     = -0.0057	eb1_1     = -0.0689	eb2_1     = -3.6668	
eb3_1     = -4.4068	eb4_1     = -0.1184	eb5_1     = -4.2472	eb6_1     = -0.0779	eb7_1     =  0.1064	
eb8_1     = -3.7997	tb1_1     =  0.1299	tb2_1     = -1.1328	tb3_1     =  1.7783	tb4_1     =  0.1220	
tb5_1     = -1.7528	tb6_1     = -0.0939	tb7_1     =  0.1670	tb8_1     = -2.2926	

CDMFT iteration 38, distance =  1.12e+02, diff param =  4.77e-02, diff hybrid =  7.37e-02
99 minimization steps, time(MIN)/time(ED)=0.00323
sb1_1     =  0.0203	sb2_1     =  0.0037	sb3_1     =  0.0140	sb4_1     = -0.1115	sb5_1     =  0.0164	
sb6_1     = -0.1218	sb7_1     = -0.0348	sb8_1     =  0.0055	eb1_1     = -0.0612	eb2_1     = -3.6661	
eb3_1     = -4.2756	eb4_1     = -0.0814	eb5_1     = -4.4050	eb6_1     = -0.1150	eb7_1     =  0.0979	
eb8_1     = -3.7893	tb1_1     =  0.1280	tb2_1     = -1.1338	tb3_1     =  1.7570	tb4_1     =  0.1005	
tb5_1     = -1.7778	tb6_1     = -0.1212	tb7_1     =  0.1626	tb8_1     = -2.2894	

CDMFT iteration 39, distance =  1.15e+02, diff param =  4.33e-02, diff hybrid =  7.12e-02
64 minimization steps, time(MIN)/time(ED)=0.00318
sb1_1     = -0.0191	sb2_1     = -0.0029	sb3_1     =  0.0160	sb4_1     = -0.1238	sb5_1     =  0.0136	
sb6_1     = -0.1137	sb7_1     =  0.0296	sb8_1     = -0.0045	eb1_1     = -0.0512	eb2_1     = -3.6407	
eb3_1     = -4.3976	eb4_1     = -0.1135	eb5_1     = -4.2666	eb6_1     = -0.0776	eb7_1     =  0.0975	
eb8_1     = -3.7909	tb1_1     =  0.1236	tb2_1     = -1.1320	tb3_1     =  1.7768	tb4_1     =  0.1176	
tb5_1     = -1.7553	tb6_1     = -0.0979	tb7_1     =  0.1652	tb8_1     = -2.2895	

CDMFT iteration 40, distance =  1.15e+02, diff param =  4.52e-02, diff hybrid =  6.53e-02
116 minimization steps, time(MIN)/time(ED)=0.00316
sb1_1     =  0.0190	sb2_1     =  0.0028	sb3_1     =  0.0134	sb4_1     = -0.1146	sb5_1     =  0.0160	
sb6_1     = -0.1237	sb7_1     = -0.0298	sb8_1     =  0.0044	eb1_1     = -0.0540	eb2_1     = -3.6341	
eb3_1     = -4.2519	eb4_1     = -0.0759	eb5_1     = -4.3995	eb6_1     = -0.1153	eb7_1     =  0.1013	
eb8_1     = -3.7948	tb1_1     =  0.1241	tb2_1     = -1.1307	tb3_1     =  1.7532	tb4_1     =  0.0946	
tb5_1     = -1.7772	tb6_1     = -0.1179	tb7_1     =  0.1675	tb8_1     = -2.2908	

CDMFT iteration 41, distance =  1.13e+02, diff param =  4.74e-02, diff hybrid =  6.25e-02
85 minimization steps, time(MIN)/time(ED)=0.00313
sb1_1     = -0.0195	sb2_1     = -0.0034	sb3_1     =  0.0164	sb4_1     = -0.1222	sb5_1     =  0.0138	
sb6_1     = -0.1132	sb7_1     =  0.0317	sb8_1     = -0.0049	eb1_1     = -0.0606	eb2_1     = -3.6520	
eb3_1     = -4.4051	eb4_1     = -0.1162	eb5_1     = -4.2606	eb6_1     = -0.0793	eb7_1     =  0.1018	
eb8_1     = -3.7940	tb1_1     =  0.1270	tb2_1     = -1.1320	tb3_1     =  1.7780	tb4_1     =  0.1204	
tb5_1     = -1.7547	tb6_1     = -0.0969	tb7_1     =  0.1659	tb8_1     = -2.2909	

CDMFT iteration 42, distance =  1.13e+02, diff param =  4.50e-02, diff hybrid =  6.44e-02
82 minimization steps, time(MIN)/time(ED)=0.00310
sb1_1     =  0.0189	sb2_1     =  0.0032	sb3_1     =  0.0139	sb4_1     = -0.1127	sb5_1     =  0.0163	
sb6_1     = -0.1220	sb7_1     = -0.0315	sb8_1     =  0.0049	eb1_1     = -0.0587	eb2_1     = -3.6531	
eb3_1     = -4.2724	eb4_1     = -0.0810	eb5_1     = -4.4044	eb6_1     = -0.1147	eb7_1     =  0.0987	
eb8_1     = -3.7908	tb1_1     =  0.1267	tb2_1     = -1.1324	tb3_1     =  1.7565	tb4_1     =  0.0995	
tb5_1     = -1.7778	tb6_1     = -0.1203	tb7_1     =  0.1640	tb8_1     = -2.2899	

CDMFT iteration 43, distance =  1.14e+02, diff param =  4.21e-02, diff hybrid =  6.41e-02
87 minimization steps, time(MIN)/time(ED)=0.00308
sb1_1     = -0.0182	sb2_1     = -0.0028	sb3_1     =  0.0161	sb4_1     = -0.1228	sb5_1     =  0.0139	
sb6_1     = -0.1136	sb7_1     =  0.0296	sb8_1     = -0.0045	eb1_1     = -0.0545	eb2_1     = -3.6423	
eb3_1     = -4.3978	eb4_1     = -0.1138	eb5_1     = -4.2726	eb6_1     = -0.0800	eb7_1     =  0.0979	
eb8_1     = -3.7901	tb1_1     =  0.1250	tb2_1     = -1.1317	tb3_1     =  1.7768	tb4_1     =  0.1186	
tb5_1     = -1.7565	tb6_1     = -0.0990	tb7_1     =  0.1647	tb8_1     = -2.2895	

CDMFT iteration 44, distance =  1.14e+02, diff param =  4.20e-02, diff hybrid =  6.18e-02
89 minimization steps, time(MIN)/time(ED)=0.00305
sb1_1     =  0.0180	sb2_1     =  0.0028	sb3_1     =  0.0138	sb4_1     = -0.1140	sb5_1     =  0.0161	
sb6_1     = -0.1228	sb7_1     = -0.0292	sb8_1     =  0.0044	eb1_1     = -0.0553	eb2_1     = -3.6395	
eb3_1     = -4.2666	eb4_1     = -0.0794	eb5_1     = -4.3994	eb6_1     = -0.1146	eb7_1     =  0.0996	
eb8_1     = -3.7919	tb1_1     =  0.1251	tb2_1     = -1.1311	tb3_1     =  1.7555	tb4_1     =  0.0980	
tb5_1     = -1.7770	tb6_1     = -0.1187	tb7_1     =  0.1657	tb8_1     = -2.2901	

CDMFT iteration 45, distance =  1.13e+02, diff param =  4.38e-02, diff hybrid =  6.02e-02
81 minimization steps, time(MIN)/time(ED)=0.00302
sb1_1     = -0.0181	sb2_1     = -0.0030	sb3_1     =  0.0163	sb4_1     = -0.1222	sb5_1     =  0.0139	
sb6_1     = -0.1135	sb7_1     =  0.0299	sb8_1     = -0.0046	eb1_1     = -0.0580	eb2_1     = -3.6461	
eb3_1     = -4.4043	eb4_1     = -0.1150	eb5_1     = -4.2665	eb6_1     = -0.0808	eb7_1     =  0.0997	
eb8_1     = -3.7913	tb1_1     =  0.1263	tb2_1     = -1.1315	tb3_1     =  1.7779	tb4_1     =  0.1198	
tb5_1     = -1.7554	tb6_1     = -0.0988	tb7_1     =  0.1650	tb8_1     = -2.2901	

CDMFT iteration 46, distance =  1.13e+02, diff param =  4.18e-02, diff hybrid =  6.05e-02
79 minimization steps, time(MIN)/time(ED)=0.00300
sb1_1     =  0.0179	sb2_1     =  0.0030	sb3_1     =  0.0141	sb4_1     = -0.1134	sb5_1     =  0.0162	
sb6_1     = -0.1220	sb7_1     = -0.0297	sb8_1     =  0.0046	eb1_1     = -0.0573	eb2_1     = -3.6472	
eb3_1     = -4.2792	eb4_1     = -0.0820	eb5_1     = -4.3978	eb6_1     = -0.1140	eb7_1     =  0.0983	
eb8_1     = -3.7896	tb1_1     =  0.1262	tb2_1     = -1.1318	tb3_1     =  1.7576	tb4_1     =  0.1001	
tb5_1     = -1.7767	tb6_1     = -0.1196	tb7_1     =  0.1643	tb8_1     = -2.2896	

CDMFT iteration 47, distance =  1.14e+02, diff param =  4.05e-02, diff hybrid =  6.03e-02
97 minimization steps, time(MIN)/time(ED)=0.00298
sb1_1     = -0.0173	sb2_1     = -0.0027	sb3_1     =  0.0162	sb4_1     = -0.1225	sb5_1     =  0.0140	
sb6_1     = -0.1136	sb7_1     =  0.0289	sb8_1     = -0.0045	eb1_1     = -0.0554	eb2_1     = -3.6421	
eb3_1     = -4.4021	eb4_1     = -0.1140	eb5_1     = -4.2726	eb6_1     = -0.0811	eb7_1     =  0.0982	
eb8_1     = -3.7896	tb1_1     =  0.1254	tb2_1     = -1.1314	tb3_1     =  1.7775	tb4_1     =  0.1189	
tb5_1     = -1.7564	tb6_1     = -0.0997	tb7_1     =  0.1647	tb8_1     = -2.2895	

CDMFT iteration 48, distance =  1.13e+02, diff param =  4.07e-02, diff hybrid =  5.92e-02
36 minimization steps, time(MIN)/time(ED)=0.00293
sb1_1     =  0.0175	sb2_1     =  0.0028	sb3_1     =  0.0140	sb4_1     = -0.1138	sb5_1     =  0.0162	
sb6_1     = -0.1222	sb7_1     = -0.0288	sb8_1     =  0.0045	eb1_1     = -0.0560	eb2_1     = -3.6421	
eb3_1     = -4.2784	eb4_1     = -0.0814	eb5_1     = -4.3985	eb6_1     = -0.1141	eb7_1     =  0.0994	
eb8_1     = -3.7921	tb1_1     =  0.1256	tb2_1     = -1.1313	tb3_1     =  1.7575	tb4_1     =  0.0996	
tb5_1     = -1.7769	tb6_1     = -0.1191	tb7_1     =  0.1652	tb8_1     = -2.2903	

CDMFT iteration 49, distance =  1.13e+02, diff param =  3.94e-02, diff hybrid =  5.85e-02
99 minimization steps, time(MIN)/time(ED)=0.00292
sb1_1     = -0.0173	sb2_1     = -0.0028	sb3_1     =  0.0162	sb4_1     = -0.1220	sb5_1     =  0.0141	
sb6_1     = -0.1135	sb7_1     =  0.0290	sb8_1     = -0.0045	eb1_1     = -0.0572	eb2_1     = -3.6452	
eb3_1     = -4.3978	eb4_1     = -0.1142	eb5_1     = -4.2778	eb6_1     = -0.0820	eb7_1     =  0.0984	
eb8_1     = -3.7895	tb1_1     =  0.1261	tb2_1     = -1.1315	tb3_1     =  1.7767	tb4_1     =  0.1193	
tb5_1     = -1.7574	tb6_1     = -0.1001	tb7_1     =  0.1644	tb8_1     = -2.2896	

CDMFT iteration 50, distance =  1.13e+02, diff param =  3.96e-02, diff hybrid =  5.85e-02
105 minimization steps, time(MIN)/time(ED)=0.00291
sb1_1     =  0.0172	sb2_1     =  0.0028	sb3_1     =  0.0141	sb4_1     = -0.1135	sb5_1     =  0.0162	
sb6_1     = -0.1220	sb7_1     = -0.0285	sb8_1     =  0.0044	eb1_1     = -0.0566	eb2_1     = -3.6447	
eb3_1     = -4.2782	eb4_1     = -0.0821	eb5_1     = -4.4000	eb6_1     = -0.1139	eb7_1     =  0.0977	
eb8_1     = -3.7887	tb1_1     =  0.1260	tb2_1     = -1.1315	tb3_1     =  1.7574	tb4_1     =  0.1004	
tb5_1     = -1.7771	tb6_1     = -0.1193	tb7_1     =  0.1642	tb8_1     = -2.2893	

CDMFT iteration 51, distance =  1.13e+02, diff param =  3.96e-02, diff hybrid =  5.80e-02
99 minimization steps, time(MIN)/time(ED)=0.00290
sb1_1     = -0.0170	sb2_1     = -0.0028	sb3_1     =  0.0162	sb4_1     = -0.1222	sb5_1     =  0.0141	
sb6_1     = -0.1137	sb7_1     =  0.0283	sb8_1     = -0.0044	eb1_1     = -0.0559	eb2_1     = -3.6430	
eb3_1     = -4.3992	eb4_1     = -0.1138	eb5_1     = -4.2780	eb6_1     = -0.0820	eb7_1     =  0.0982	
eb8_1     = -3.7887	tb1_1     =  0.1257	tb2_1     = -1.1314	tb3_1     =  1.7770	tb4_1     =  0.1191	
tb5_1     = -1.7574	tb6_1     = -0.1002	tb7_1     =  0.1645	tb8_1     = -2.2893	

CDMFT iteration 52, distance =  1.13e+02, diff param =  3.98e-02, diff hybrid =  5.75e-02
96 minimization steps, time(MIN)/time(ED)=0.00288
sb1_1     =  0.0170	sb2_1     =  0.0027	sb3_1     =  0.0141	sb4_1     = -0.1137	sb5_1     =  0.0162	
sb6_1     = -0.1221	sb7_1     = -0.0283	sb8_1     =  0.0044	eb1_1     = -0.0561	eb2_1     = -3.6431	
eb3_1     = -4.2762	eb4_1     = -0.0819	eb5_1     = -4.3997	eb6_1     = -0.1140	eb7_1     =  0.0985	
eb8_1     = -3.7892	tb1_1     =  0.1257	tb2_1     = -1.1314	tb3_1     =  1.7570	tb4_1     =  0.1001	
tb5_1     = -1.7771	tb6_1     = -0.1191	tb7_1     =  0.1647	tb8_1     = -2.2895	

CDMFT iteration 53, distance =  1.13e+02, diff param =  3.79e-02, diff hybrid =  5.73e-02
84 minimization steps, time(MIN)/time(ED)=0.00286
sb1_1     = -0.0171	sb2_1     = -0.0028	sb3_1     =  0.0161	sb4_1     = -0.1218	sb5_1     =  0.0142	
sb6_1     = -0.1137	sb7_1     =  0.0284	sb8_1     = -0.0044	eb1_1     = -0.0563	eb2_1     = -3.6441	
eb3_1     = -4.3918	eb4_1     = -0.1135	eb5_1     = -4.2851	eb6_1     = -0.0826	eb7_1     =  0.0980	
eb8_1     = -3.7890	tb1_1     =  0.1258	tb2_1     = -1.1315	tb3_1     =  1.7756	tb4_1     =  0.1190	
tb5_1     = -1.7587	tb6_1     = -0.1006	tb7_1     =  0.1643	tb8_1     = -2.2894	

CDMFT iteration 54, distance =  1.13e+02, diff param =  3.66e-02, diff hybrid =  5.72e-02
68 minimization steps, time(MIN)/time(ED)=0.00284
sb1_1     =  0.0167	sb2_1     =  0.0027	sb3_1     =  0.0142	sb4_1     = -0.1137	sb5_1     =  0.0161	
sb6_1     = -0.1219	sb7_1     = -0.0282	sb8_1     =  0.0043	eb1_1     = -0.0563	eb2_1     = -3.6435	
eb3_1     = -4.2821	eb4_1     = -0.0823	eb5_1     = -4.3958	eb6_1     = -0.1136	eb7_1     =  0.0977	
eb8_1     = -3.7884	tb1_1     =  0.1259	tb2_1     = -1.1315	tb3_1     =  1.7581	tb4_1     =  0.1007	
tb5_1     = -1.7764	tb6_1     = -0.1189	tb7_1     =  0.1643	tb8_1     = -2.2893	

CDMFT iteration 55, distance =  1.13e+02, diff param =  3.82e-02, diff hybrid =  5.69e-02
85 minimization steps, time(MIN)/time(ED)=0.00282
sb1_1     = -0.0168	sb2_1     = -0.0027	sb3_1     =  0.0162	sb4_1     = -0.1219	sb5_1     =  0.0141	
sb6_1     = -0.1137	sb7_1     =  0.0279	sb8_1     = -0.0043	eb1_1     = -0.0562	eb2_1     = -3.6434	
eb3_1     = -4.3987	eb4_1     = -0.1138	eb5_1     = -4.2792	eb6_1     = -0.0823	eb7_1     =  0.0976	
eb8_1     = -3.7885	tb1_1     =  0.1258	tb2_1     = -1.1315	tb3_1     =  1.7769	tb4_1     =  0.1191	
tb5_1     = -1.7575	tb6_1     = -0.1005	tb7_1     =  0.1642	tb8_1     = -2.2893	

CDMFT iteration 56, distance =  1.13e+02, diff param =  4.01e-02, diff hybrid =  5.66e-02
97 minimization steps, time(MIN)/time(ED)=0.00281
sb1_1     =  0.0168	sb2_1     =  0.0027	sb3_1     =  0.0141	sb4_1     = -0.1136	sb5_1     =  0.0162	
sb6_1     = -0.1220	sb7_1     = -0.0281	sb8_1     =  0.0044	eb1_1     = -0.0565	eb2_1     = -3.6440	
eb3_1     = -4.2752	eb4_1     = -0.0822	eb5_1     = -4.4032	eb6_1     = -0.1140	eb7_1     =  0.0978	
eb8_1     = -3.7884	tb1_1     =  0.1260	tb2_1     = -1.1315	tb3_1     =  1.7568	tb4_1     =  0.1004	
tb5_1     = -1.7777	tb6_1     = -0.1193	tb7_1     =  0.1642	tb8_1     = -2.2893	

CDMFT iteration 57, distance =  1.13e+02, diff param =  4.38e-02, diff hybrid =  5.66e-02
46 minimization steps, time(MIN)/time(ED)=0.00278
sb1_1     = -0.0170	sb2_1     = -0.0027	sb3_1     =  0.0164	sb4_1     = -0.1221	sb5_1     =  0.0139	
sb6_1     = -0.1134	sb7_1     =  0.0281	sb8_1     = -0.0044	eb1_1     = -0.0565	eb2_1     = -3.6441	
eb3_1     = -4.4132	eb4_1     = -0.1143	eb5_1     = -4.2664	eb6_1     = -0.0818	eb7_1     =  0.0979	
eb8_1     = -3.7889	tb1_1     =  0.1260	tb2_1     = -1.1314	tb3_1     =  1.7796	tb4_1     =  0.1197	
tb5_1     = -1.7551	tb6_1     = -0.1001	tb7_1     =  0.1643	tb8_1     = -2.2894	

CDMFT iteration 58, distance =  1.13e+02, diff param =  4.35e-02, diff hybrid =  5.70e-02
68 minimization steps, time(MIN)/time(ED)=0.00276
sb1_1     =  0.0172	sb2_1     =  0.0028	sb3_1     =  0.0141	sb4_1     = -0.1137	sb5_1     =  0.0163	
sb6_1     = -0.1221	sb7_1     = -0.0285	sb8_1     =  0.0045	eb1_1     = -0.0565	eb2_1     = -3.6444	
eb3_1     = -4.2769	eb4_1     = -0.0825	eb5_1     = -4.4023	eb6_1     = -0.1138	eb7_1     =  0.0984	
eb8_1     = -3.7903	tb1_1     =  0.1260	tb2_1     = -1.1315	tb3_1     =  1.7571	tb4_1     =  0.1003	
tb5_1     = -1.7776	tb6_1     = -0.1194	tb7_1     =  0.1645	tb8_1     = -2.2898	

CDMFT iteration 59, distance =  1.13e+02, diff param =  3.92e-02, diff hybrid =  5.74e-02
101 minimization steps, time(MIN)/time(ED)=0.00275
sb1_1     = -0.0169	sb2_1     = -0.0027	sb3_1     =  0.0162	sb4_1     = -0.1221	sb5_1     =  0.0142	
sb6_1     = -0.1137	sb7_1     =  0.0285	sb8_1     = -0.0044	eb1_1     = -0.0564	eb2_1     = -3.6442	
eb3_1     = -4.3965	eb4_1     = -0.1137	eb5_1     = -4.2817	eb6_1     = -0.0826	eb7_1     =  0.0982	
eb8_1     = -3.7892	tb1_1     =  0.1259	tb2_1     = -1.1315	tb3_1     =  1.7765	tb4_1     =  0.1190	
tb5_1     = -1.7580	tb6_1     = -0.1007	tb7_1     =  0.1644	tb8_1     = -2.2895	

CDMFT iteration 60, distance =  1.13e+02, diff param =  3.91e-02, diff hybrid =  5.73e-02
104 minimization steps, time(MIN)/time(ED)=0.00274
sb1_1     =  0.0168	sb2_1     =  0.0027	sb3_1     =  0.0141	sb4_1     = -0.1136	sb5_1     =  0.0162	
sb6_1     = -0.1220	sb7_1     = -0.0281	sb8_1     =  0.0043	eb1_1     = -0.0563	eb2_1     = -3.6439	
eb3_1     = -4.2769	eb4_1     = -0.0822	eb5_1     = -4.4019	eb6_1     = -0.1140	eb7_1     =  0.0979	
eb8_1     = -3.7887	tb1_1     =  0.1259	tb2_1     = -1.1315	tb3_1     =  1.7571	tb4_1     =  0.1006	
tb5_1     = -1.7775	tb6_1     = -0.1192	tb7_1     =  0.1643	tb8_1     = -2.2894	

CDMFT iteration 61, distance =  1.13e+02, diff param =  3.95e-02, diff hybrid =  5.69e-02
86 minimization steps, time(MIN)/time(ED)=0.00273
sb1_1     = -0.0169	sb2_1     = -0.0027	sb3_1     =  0.0162	sb4_1     = -0.1219	sb5_1     =  0.0141	
sb6_1     = -0.1136	sb7_1     =  0.0281	sb8_1     = -0.0043	eb1_1     = -0.0563	eb2_1     = -3.6444	
eb3_1     = -4.3982	eb4_1     = -0.1139	eb5_1     = -4.2804	eb6_1     = -0.0824	eb7_1     =  0.0976	
eb8_1     = -3.7884	tb1_1     =  0.1259	tb2_1     = -1.1315	tb3_1     =  1.7768	tb4_1     =  0.1193	
tb5_1     = -1.7578	tb6_1     = -0.1005	tb7_1     =  0.1642	tb8_1     = -2.2893	

CDMFT iteration 62, distance =  1.13e+02, diff param =  3.88e-02, diff hybrid =  5.67e-02
53 minimization steps, time(MIN)/time(ED)=0.00271
sb1_1     =  0.0168	sb2_1     =  0.0027	sb3_1     =  0.0141	sb4_1     = -0.1136	sb5_1     =  0.0162	
sb6_1     = -0.1220	sb7_1     = -0.0281	sb8_1     =  0.0043	eb1_1     = -0.0562	eb2_1     = -3.6439	
eb3_1     = -4.2801	eb4_1     = -0.0823	eb5_1     = -4.3994	eb6_1     = -0.1138	eb7_1     =  0.0973	
eb8_1     = -3.7872	tb1_1     =  0.1258	tb2_1     = -1.1315	tb3_1     =  1.7577	tb4_1     =  0.1005	
tb5_1     = -1.7770	tb6_1     = -0.1192	tb7_1     =  0.1640	tb8_1     = -2.2889	

CDMFT iteration 63, distance =  1.13e+02, diff param =  3.95e-02, diff hybrid =  5.68e-02
67 minimization steps, time(MIN)/time(ED)=0.00269
sb1_1     = -0.0168	sb2_1     = -0.0027	sb3_1     =  0.0162	sb4_1     = -0.1220	sb5_1     =  0.0141	
sb6_1     = -0.1137	sb7_1     =  0.0280	sb8_1     = -0.0043	eb1_1     = -0.0561	eb2_1     = -3.6432	
eb3_1     = -4.4002	eb4_1     = -0.1138	eb5_1     = -4.2771	eb6_1     = -0.0822	eb7_1     =  0.0976	
eb8_1     = -3.7880	tb1_1     =  0.1258	tb2_1     = -1.1314	tb3_1     =  1.7772	tb4_1     =  0.1191	
tb5_1     = -1.7571	tb6_1     = -0.1004	tb7_1     =  0.1642	tb8_1     = -2.2891	

CDMFT iteration 64, distance =  1.13e+02, diff param =  4.03e-02, diff hybrid =  5.68e-02
87 minimization steps, time(MIN)/time(ED)=0.00267
sb1_1     =  0.0169	sb2_1     =  0.0027	sb3_1     =  0.0141	sb4_1     = -0.1137	sb5_1     =  0.0162	
sb6_1     = -0.1220	sb7_1     = -0.0282	sb8_1     =  0.0044	eb1_1     = -0.0563	eb2_1     = -3.6437	
eb3_1     = -4.2762	eb4_1     = -0.0822	eb5_1     = -4.4017	eb6_1     = -0.1139	eb7_1     =  0.0982	
eb8_1     = -3.7897	tb1_1     =  0.1259	tb2_1     = -1.1314	tb3_1     =  1.7570	tb4_1     =  0.1003	
tb5_1     = -1.7775	tb6_1     = -0.1193	tb7_1     =  0.1645	tb8_1     = -2.2896	

CDMFT iteration 65, distance =  1.13e+02, diff param =  3.95e-02, diff hybrid =  5.68e-02
55 minimization steps, time(MIN)/time(ED)=0.00265
sb1_1     = -0.0169	sb2_1     = -0.0028	sb3_1     =  0.0162	sb4_1     = -0.1219	sb5_1     =  0.0141	
sb6_1     = -0.1136	sb7_1     =  0.0284	sb8_1     = -0.0044	eb1_1     = -0.0566	eb2_1     = -3.6444	
eb3_1     = -4.3972	eb4_1     = -0.1137	eb5_1     = -4.2802	eb6_1     = -0.0825	eb7_1     =  0.0980	
eb8_1     = -3.7890	tb1_1     =  0.1260	tb2_1     = -1.1315	tb3_1     =  1.7766	tb4_1     =  0.1192	
tb5_1     = -1.7577	tb6_1     = -0.1006	tb7_1     =  0.1643	tb8_1     = -2.2895	

CDMFT iteration 66, distance =  1.13e+02, diff param =  3.83e-02, diff hybrid =  5.70e-02
94 minimization steps, time(MIN)/time(ED)=0.00265
sb1_1     =  0.0167	sb2_1     =  0.0027	sb3_1     =  0.0142	sb4_1     = -0.1137	sb5_1     =  0.0162	
sb6_1     = -0.1220	sb7_1     = -0.0281	sb8_1     =  0.0043	eb1_1     = -0.0562	eb2_1     = -3.6437	
eb3_1     = -4.2810	eb4_1     = -0.0825	eb5_1     = -4.3978	eb6_1     = -0.1137	eb7_1     =  0.0977	
eb8_1     = -3.7885	tb1_1     =  0.1259	tb2_1     = -1.1315	tb3_1     =  1.7578	tb4_1     =  0.1007	
tb5_1     = -1.7767	tb6_1     = -0.1190	tb7_1     =  0.1642	tb8_1     = -2.2893	

CDMFT iteration 67, distance =  1.13e+02, diff param =  3.74e-02, diff hybrid =  5.68e-02
84 minimization steps, time(MIN)/time(ED)=0.00263
sb1_1     = -0.0167	sb2_1     = -0.0027	sb3_1     =  0.0161	sb4_1     = -0.1219	sb5_1     =  0.0142	
sb6_1     = -0.1137	sb7_1     =  0.0279	sb8_1     = -0.0043	eb1_1     = -0.0564	eb2_1     = -3.6436	
eb3_1     = -4.3944	eb4_1     = -0.1135	eb5_1     = -4.2837	eb6_1     = -0.0827	eb7_1     =  0.0977	
eb8_1     = -3.7885	tb1_1     =  0.1259	tb2_1     = -1.1314	tb3_1     =  1.7761	tb4_1     =  0.1189	
tb5_1     = -1.7584	tb6_1     = -0.1008	tb7_1     =  0.1642	tb8_1     = -2.2893	

CDMFT iteration 68, distance =  1.13e+02, diff param =  3.73e-02, diff hybrid =  5.64e-02
73 minimization steps, time(MIN)/time(ED)=0.00262
sb1_1     =  0.0166	sb2_1     =  0.0027	sb3_1     =  0.0142	sb4_1     = -0.1137	sb5_1     =  0.0161	
sb6_1     = -0.1218	sb7_1     = -0.0278	sb8_1     =  0.0043	eb1_1     = -0.0563	eb2_1     = -3.6438	
eb3_1     = -4.2806	eb4_1     = -0.0828	eb5_1     = -4.3968	eb6_1     = -0.1136	eb7_1     =  0.0976	
eb8_1     = -3.7883	tb1_1     =  0.1259	tb2_1     = -1.1314	tb3_1     =  1.7578	tb4_1     =  0.1008	
tb5_1     = -1.7765	tb6_1     = -0.1191	tb7_1     =  0.1641	tb8_1     = -2.2892	

CDMFT iteration 69, distance =  1.13e+02, diff param =  3.85e-02, diff hybrid =  5.61e-02
104 minimization steps, time(MIN)/time(ED)=0.00262
sb1_1     = -0.0166	sb2_1     = -0.0027	sb3_1     =  0.0162	sb4_1     = -0.1218	sb5_1     =  0.0142	
sb6_1     = -0.1136	sb7_1     =  0.0279	sb8_1     = -0.0043	eb1_1     = -0.0563	eb2_1     = -3.6440	
eb3_1     = -4.3993	eb4_1     = -0.1136	eb5_1     = -4.2796	eb6_1     = -0.0827	eb7_1     =  0.0973	
eb8_1     = -3.7880	tb1_1     =  0.1259	tb2_1     = -1.1315	tb3_1     =  1.7770	tb4_1     =  0.1192	
tb5_1     = -1.7576	tb6_1     = -0.1008	tb7_1     =  0.1640	tb8_1     = -2.2892	

CDMFT iteration 70, distance =  1.13e+02, diff param =  3.86e-02, diff hybrid =  5.61e-02
63 minimization steps, time(MIN)/time(ED)=0.00260
sb1_1     =  0.0167	sb2_1     =  0.0027	sb3_1     =  0.0142	sb4_1     = -0.1137	sb5_1     =  0.0162	
sb6_1     = -0.1219	sb7_1     = -0.0278	sb8_1     =  0.0043	eb1_1     = -0.0561	eb2_1     = -3.6435	
eb3_1     = -4.2805	eb4_1     = -0.0827	eb5_1     = -4.3971	eb6_1     = -0.1135	eb7_1     =  0.0976	
eb8_1     = -3.7882	tb1_1     =  0.1258	tb2_1     = -1.1314	tb3_1     =  1.7577	tb4_1     =  0.1008	
tb5_1     = -1.7766	tb6_1     = -0.1191	tb7_1     =  0.1642	tb8_1     = -2.2892	

CDMFT iteration 71, distance =  1.13e+02, diff param =  3.88e-02, diff hybrid =  5.61e-02
54 minimization steps, time(MIN)/time(ED)=0.00258
sb1_1     = -0.0166	sb2_1     = -0.0027	sb3_1     =  0.0162	sb4_1     = -0.1220	sb5_1     =  0.0141	
sb6_1     = -0.1137	sb7_1     =  0.0279	sb8_1     = -0.0043	eb1_1     = -0.0561	eb2_1     = -3.6431	
eb3_1     = -4.3994	eb4_1     = -0.1137	eb5_1     = -4.2780	eb6_1     = -0.0825	eb7_1     =  0.0971	
eb8_1     = -3.7869	tb1_1     =  0.1258	tb2_1     = -1.1314	tb3_1     =  1.7771	tb4_1     =  0.1190	
tb5_1     = -1.7573	tb6_1     = -0.1006	tb7_1     =  0.1640	tb8_1     = -2.2888	

CDMFT iteration 72, distance =  1.13e+02, diff param =  4.03e-02, diff hybrid =  5.62e-02
91 minimization steps, time(MIN)/time(ED)=0.00257
sb1_1     =  0.0167	sb2_1     =  0.0027	sb3_1     =  0.0141	sb4_1     = -0.1136	sb5_1     =  0.0162	
sb6_1     = -0.1220	sb7_1     = -0.0279	sb8_1     =  0.0043	eb1_1     = -0.0562	eb2_1     = -3.6432	
eb3_1     = -4.2754	eb4_1     = -0.0824	eb5_1     = -4.4027	eb6_1     = -0.1139	eb7_1     =  0.0984	
eb8_1     = -3.7884	tb1_1     =  0.1258	tb2_1     = -1.1314	tb3_1     =  1.7568	tb4_1     =  0.1005	
tb5_1     = -1.7776	tb6_1     = -0.1193	tb7_1     =  0.1645	tb8_1     = -2.2893	

CDMFT iteration 73, distance =  1.13e+02, diff param =  4.06e-02, diff hybrid =  5.63e-02
54 minimization steps, time(MIN)/time(ED)=0.00255
sb1_1     = -0.0168	sb2_1     = -0.0027	sb3_1     =  0.0162	sb4_1     = -0.1220	sb5_1     =  0.0141	
sb6_1     = -0.1136	sb7_1     =  0.0281	sb8_1     = -0.0043	eb1_1     = -0.0564	eb2_1     = -3.6440	
eb3_1     = -4.4012	eb4_1     = -0.1138	eb5_1     = -4.2772	eb6_1     = -0.0825	eb7_1     =  0.0976	
eb8_1     = -3.7873	tb1_1     =  0.1260	tb2_1     = -1.1315	tb3_1     =  1.7774	tb4_1     =  0.1193	
tb5_1     = -1.7571	tb6_1     = -0.1006	tb7_1     =  0.1641	tb8_1     = -2.2889	

CDMFT iteration 74, distance =  1.13e+02, diff param =  3.93e-02, diff hybrid =  5.66e-02
69 minimization steps, time(MIN)/time(ED)=0.00254
sb1_1     =  0.0168	sb2_1     =  0.0027	sb3_1     =  0.0142	sb4_1     = -0.1137	sb5_1     =  0.0162	
sb6_1     = -0.1220	sb7_1     = -0.0281	sb8_1     =  0.0043	eb1_1     = -0.0561	eb2_1     = -3.6433	
eb3_1     = -4.2803	eb4_1     = -0.0825	eb5_1     = -4.3978	eb6_1     = -0.1136	eb7_1     =  0.0977	
eb8_1     = -3.7882	tb1_1     =  0.1258	tb2_1     = -1.1314	tb3_1     =  1.7577	tb4_1     =  0.1006	
tb5_1     = -1.7768	tb6_1     = -0.1191	tb7_1     =  0.1643	tb8_1     = -2.2892	

CDMFT iteration 75, distance =  1.13e+02, diff param =  3.80e-02, diff hybrid =  5.67e-02
52 minimization steps, time(MIN)/time(ED)=0.00252
sb1_1     = -0.0166	sb2_1     = -0.0027	sb3_1     =  0.0162	sb4_1     = -0.1220	sb5_1     =  0.0142	
sb6_1     = -0.1137	sb7_1     =  0.0281	sb8_1     = -0.0043	eb1_1     = -0.0561	eb2_1     = -3.6432	
eb3_1     = -4.3970	eb4_1     = -0.1137	eb5_1     = -4.2830	eb6_1     = -0.0825	eb7_1     =  0.0978	
eb8_1     = -3.7883	tb1_1     =  0.1258	tb2_1     = -1.1314	tb3_1     =  1.7766	tb4_1     =  0.1190	
tb5_1     = -1.7583	tb6_1     = -0.1006	tb7_1     =  0.1643	tb8_1     = -2.2892	

CDMFT iteration 76, distance =  1.13e+02, diff param =  3.88e-02, diff hybrid =  5.65e-02
120 minimization steps, time(MIN)/time(ED)=0.00252
sb1_1     =  0.0166	sb2_1     =  0.0027	sb3_1     =  0.0142	sb4_1     = -0.1136	sb5_1     =  0.0162	
sb6_1     = -0.1219	sb7_1     = -0.0278	sb8_1     =  0.0043	eb1_1     = -0.0565	eb2_1     = -3.6442	
eb3_1     = -4.2774	eb4_1     = -0.0826	eb5_1     = -4.4015	eb6_1     = -0.1139	eb7_1     =  0.0976	
eb8_1     = -3.7883	tb1_1     =  0.1260	tb2_1     = -1.1315	tb3_1     =  1.7572	tb4_1     =  0.1008	
tb5_1     = -1.7774	tb6_1     = -0.1193	tb7_1     =  0.1641	tb8_1     = -2.2893	

CDMFT iteration 77, distance =  1.13e+02, diff param =  3.84e-02, diff hybrid =  5.63e-02
81 minimization steps, time(MIN)/time(ED)=0.00251
sb1_1     = -0.0167	sb2_1     = -0.0027	sb3_1     =  0.0161	sb4_1     = -0.1218	sb5_1     =  0.0142	
sb6_1     = -0.1137	sb7_1     =  0.0279	sb8_1     = -0.0043	eb1_1     = -0.0565	eb2_1     = -3.6445	
eb3_1     = -4.3955	eb4_1     = -0.1135	eb5_1     = -4.2844	eb6_1     = -0.0830	eb7_1     =  0.0974	
eb8_1     = -3.7881	tb1_1     =  0.1260	tb2_1     = -1.1315	tb3_1     =  1.7763	tb4_1     =  0.1191	
tb5_1     = -1.7585	tb6_1     = -0.1009	tb7_1     =  0.1640	tb8_1     = -2.2892	

CDMFT iteration 78, distance =  1.13e+02, diff param =  3.78e-02, diff hybrid =  5.61e-02
81 minimization steps, time(MIN)/time(ED)=0.00250
sb1_1     =  0.0166	sb2_1     =  0.0027	sb3_1     =  0.0142	sb4_1     = -0.1138	sb5_1     =  0.0162	
sb6_1     = -0.1220	sb7_1     = -0.0277	sb8_1     =  0.0043	eb1_1     = -0.0561	eb2_1     = -3.6435	
eb3_1     = -4.2795	eb4_1     = -0.0828	eb5_1     = -4.3993	eb6_1     = -0.1137	eb7_1     =  0.0978	
eb8_1     = -3.7883	tb1_1     =  0.1258	tb2_1     = -1.1314	tb3_1     =  1.7576	tb4_1     =  0.1009	
tb5_1     = -1.7770	tb6_1     = -0.1190	tb7_1     =  0.1643	tb8_1     = -2.2893	

CDMFT iteration 79, distance =  1.13e+02, diff param =  3.84e-02, diff hybrid =  5.60e-02
74 minimization steps, time(MIN)/time(ED)=0.00249
sb1_1     = -0.0166	sb2_1     = -0.0027	sb3_1     =  0.0162	sb4_1     = -0.1218	sb5_1     =  0.0142	
sb6_1     = -0.1138	sb7_1     =  0.0278	sb8_1     = -0.0043	eb1_1     = -0.0565	eb2_1     = -3.6440	
eb3_1     = -4.3973	eb4_1     = -0.1136	eb5_1     = -4.2817	eb6_1     = -0.0828	eb7_1     =  0.0978	
eb8_1     = -3.7886	tb1_1     =  0.1260	tb2_1     = -1.1314	tb3_1     =  1.7767	tb4_1     =  0.1191	
tb5_1     = -1.7580	tb6_1     = -0.1008	tb7_1     =  0.1642	tb8_1     = -2.2894	

CDMFT iteration 80, distance =  1.13e+02, diff param =  3.64e-02, diff hybrid =  5.59e-02
73 minimization steps, time(MIN)/time(ED)=0.00247
sb1_1     =  0.0166	sb2_1     =  0.0027	sb3_1     =  0.0143	sb4_1     = -0.1138	sb5_1     =  0.0161	
sb6_1     = -0.1218	sb7_1     = -0.0279	sb8_1     =  0.0043	eb1_1     = -0.0565	eb2_1     = -3.6443	
eb3_1     = -4.2873	eb4_1     = -0.0832	eb5_1     = -4.3919	eb6_1     = -0.1133	eb7_1     =  0.0976	
eb8_1     = -3.7882	tb1_1     =  0.1260	tb2_1     = -1.1315	tb3_1     =  1.7590	tb4_1     =  0.1011	
tb5_1     = -1.7757	tb6_1     = -0.1189	tb7_1     =  0.1641	tb8_1     = -2.2892	

CDMFT iteration 81, distance =  1.13e+02, diff param =  3.70e-02, diff hybrid =  5.59e-02
112 minimization steps, time(MIN)/time(ED)=0.00247
sb1_1     = -0.0164	sb2_1     = -0.0027	sb3_1     =  0.0162	sb4_1     = -0.1219	sb5_1     =  0.0142	
sb6_1     = -0.1136	sb7_1     =  0.0276	sb8_1     = -0.0043	eb1_1     = -0.0562	eb2_1     = -3.6438	
eb3_1     = -4.4003	eb4_1     = -0.1138	eb5_1     = -4.2798	eb6_1     = -0.0828	eb7_1     =  0.0973	
eb8_1     = -3.7879	tb1_1     =  0.1259	tb2_1     = -1.1315	tb3_1     =  1.7772	tb4_1     =  0.1190	
tb5_1     = -1.7576	tb6_1     = -0.1011	tb7_1     =  0.1640	tb8_1     = -2.2891	

CDMFT iteration 82, distance =  1.13e+02, diff param =  3.84e-02, diff hybrid =  5.57e-02
67 minimization steps, time(MIN)/time(ED)=0.00246
sb1_1     =  0.0165	sb2_1     =  0.0027	sb3_1     =  0.0142	sb4_1     = -0.1137	sb5_1     =  0.0162	
sb6_1     = -0.1218	sb7_1     = -0.0276	sb8_1     =  0.0043	eb1_1     = -0.0565	eb2_1     = -3.6443	
eb3_1     = -4.2819	eb4_1     = -0.0830	eb5_1     = -4.3973	eb6_1     = -0.1136	eb7_1     =  0.0972	
eb8_1     = -3.7880	tb1_1     =  0.1260	tb2_1     = -1.1315	tb3_1     =  1.7580	tb4_1     =  0.1010	
tb5_1     = -1.7766	tb6_1     = -0.1192	tb7_1     =  0.1639	tb8_1     = -2.2892	

CDMFT iteration 83, distance =  1.13e+02, diff param =  3.69e-02, diff hybrid =  5.56e-02
52 minimization steps, time(MIN)/time(ED)=0.00244
sb1_1     = -0.0165	sb2_1     = -0.0027	sb3_1     =  0.0161	sb4_1     = -0.1218	sb5_1     =  0.0143	
sb6_1     = -0.1138	sb7_1     =  0.0277	sb8_1     = -0.0043	eb1_1     = -0.0561	eb2_1     = -3.6440	
eb3_1     = -4.3945	eb4_1     = -0.1133	eb5_1     = -4.2858	eb6_1     = -0.0833	eb7_1     =  0.0969	
eb8_1     = -3.7870	tb1_1     =  0.1259	tb2_1     = -1.1315	tb3_1     =  1.7761	tb4_1     =  0.1190	
tb5_1     = -1.7587	tb6_1     = -0.1012	tb7_1     =  0.1638	tb8_1     = -2.2888	

CDMFT iteration 84, distance =  1.13e+02, diff param =  3.70e-02, diff hybrid =  5.56e-02
93 minimization steps, time(MIN)/time(ED)=0.00244
sb1_1     =  0.0164	sb2_1     =  0.0026	sb3_1     =  0.0142	sb4_1     = -0.1137	sb5_1     =  0.0162	
sb6_1     = -0.1219	sb7_1     = -0.0275	sb8_1     =  0.0043	eb1_1     = -0.0560	eb2_1     = -3.6432	
eb3_1     = -4.2814	eb4_1     = -0.0829	eb5_1     = -4.3981	eb6_1     = -0.1135	eb7_1     =  0.0975	
eb8_1     = -3.7881	tb1_1     =  0.1258	tb2_1     = -1.1314	tb3_1     =  1.7579	tb4_1     =  0.1010	
tb5_1     = -1.7768	tb6_1     = -0.1190	tb7_1     =  0.1641	tb8_1     = -2.2892	

CDMFT iteration 85, distance =  1.13e+02, diff param =  3.78e-02, diff hybrid =  5.55e-02
95 minimization steps, time(MIN)/time(ED)=0.00243
sb1_1     = -0.0165	sb2_1     = -0.0027	sb3_1     =  0.0162	sb4_1     = -0.1218	sb5_1     =  0.0142	
sb6_1     = -0.1137	sb7_1     =  0.0276	sb8_1     = -0.0042	eb1_1     = -0.0564	eb2_1     = -3.6440	
eb3_1     = -4.3973	eb4_1     = -0.1136	eb5_1     = -4.2828	eb6_1     = -0.0830	eb7_1     =  0.0973	
eb8_1     = -3.7879	tb1_1     =  0.1260	tb2_1     = -1.1315	tb3_1     =  1.7767	tb4_1     =  0.1191	
tb5_1     = -1.7582	tb6_1     = -0.1010	tb7_1     =  0.1640	tb8_1     = -2.2892	

CDMFT iteration 86, distance =  1.13e+02, diff param =  3.83e-02, diff hybrid =  5.55e-02
49 minimization steps, time(MIN)/time(ED)=0.00242
sb1_1     =  0.0164	sb2_1     =  0.0026	sb3_1     =  0.0142	sb4_1     = -0.1136	sb5_1     =  0.0162	
sb6_1     = -0.1218	sb7_1     = -0.0276	sb8_1     =  0.0043	eb1_1     = -0.0564	eb2_1     = -3.6441	
eb3_1     = -4.2794	eb4_1     = -0.0829	eb5_1     = -4.3999	eb6_1     = -0.1136	eb7_1     =  0.0969	
eb8_1     = -3.7871	tb1_1     =  0.1260	tb2_1     = -1.1314	tb3_1     =  1.7575	tb4_1     =  0.1010	
tb5_1     = -1.7772	tb6_1     = -0.1192	tb7_1     =  0.1638	tb8_1     = -2.2889	

CDMFT iteration 87, distance =  1.13e+02, diff param =  3.90e-02, diff hybrid =  5.56e-02
87 minimization steps, time(MIN)/time(ED)=0.00241
sb1_1     = -0.0165	sb2_1     = -0.0027	sb3_1     =  0.0162	sb4_1     = -0.1219	sb5_1     =  0.0142	
sb6_1     = -0.1136	sb7_1     =  0.0276	sb8_1     = -0.0043	eb1_1     = -0.0561	eb2_1     = -3.6436	
eb3_1     = -4.4001	eb4_1     = -0.1136	eb5_1     = -4.2804	eb6_1     = -0.0828	eb7_1     =  0.0974	
eb8_1     = -3.7882	tb1_1     =  0.1259	tb2_1     = -1.1315	tb3_1     =  1.7772	tb4_1     =  0.1192	
tb5_1     = -1.7577	tb6_1     = -0.1009	tb7_1     =  0.1641	tb8_1     = -2.2892	

CDMFT iteration 88, distance =  1.13e+02, diff param =  3.80e-02, diff hybrid =  5.56e-02
93 minimization steps, time(MIN)/time(ED)=0.00241
sb1_1     =  0.0165	sb2_1     =  0.0027	sb3_1     =  0.0142	sb4_1     = -0.1138	sb5_1     =  0.0162	
sb6_1     = -0.1219	sb7_1     = -0.0278	sb8_1     =  0.0043	eb1_1     = -0.0562	eb2_1     = -3.6436	
eb3_1     = -4.2837	eb4_1     = -0.0830	eb5_1     = -4.3965	eb6_1     = -0.1135	eb7_1     =  0.0974	
eb8_1     = -3.7881	tb1_1     =  0.1259	tb2_1     = -1.1314	tb3_1     =  1.7583	tb4_1     =  0.1009	
tb5_1     = -1.7765	tb6_1     = -0.1190	tb7_1     =  0.1641	tb8_1     = -2.2892	

CDMFT iteration 89, distance =  1.13e+02, diff param =  3.78e-02, diff hybrid =  5.57e-02
101 minimization steps, time(MIN)/time(ED)=0.00241
sb1_1     = -0.0166	sb2_1     = -0.0027	sb3_1     =  0.0162	sb4_1     = -0.1219	sb5_1     =  0.0142	
sb6_1     = -0.1136	sb7_1     =  0.0277	sb8_1     = -0.0043	eb1_1     = -0.0562	eb2_1     = -3.6438	
eb3_1     = -4.3988	eb4_1     = -0.1136	eb5_1     = -4.2809	eb6_1     = -0.0828	eb7_1     =  0.0975	
eb8_1     = -3.7881	tb1_1     =  0.1259	tb2_1     = -1.1314	tb3_1     =  1.7770	tb4_1     =  0.1191	
tb5_1     = -1.7578	tb6_1     = -0.1010	tb7_1     =  0.1641	tb8_1     = -2.2892	

CDMFT iteration 90, distance =  1.13e+02, diff param =  3.82e-02, diff hybrid =  5.58e-02
81 minimization steps, time(MIN)/time(ED)=0.00240
sb1_1     =  0.0165	sb2_1     =  0.0027	sb3_1     =  0.0142	sb4_1     = -0.1137	sb5_1     =  0.0162	
sb6_1     = -0.1218	sb7_1     = -0.0278	sb8_1     =  0.0043	eb1_1     = -0.0564	eb2_1     = -3.6440	
eb3_1     = -4.2817	eb4_1     = -0.0828	eb5_1     = -4.3979	eb6_1     = -0.1136	eb7_1     =  0.0974	
eb8_1     = -3.7881	tb1_1     =  0.1260	tb2_1     = -1.1315	tb3_1     =  1.7580	tb4_1     =  0.1009	
tb5_1     = -1.7768	tb6_1     = -0.1191	tb7_1     =  0.1640	tb8_1     = -2.2892	

CDMFT iteration 91, distance =  1.13e+02, diff param =  3.78e-02, diff hybrid =  5.58e-02
88 minimization steps, time(MIN)/time(ED)=0.00240
sb1_1     = -0.0166	sb2_1     = -0.0027	sb3_1     =  0.0162	sb4_1     = -0.1219	sb5_1     =  0.0142	
sb6_1     = -0.1137	sb7_1     =  0.0277	sb8_1     = -0.0043	eb1_1     = -0.0563	eb2_1     = -3.6438	
eb3_1     = -4.3969	eb4_1     = -0.1135	eb5_1     = -4.2826	eb6_1     = -0.0829	eb7_1     =  0.0973	
eb8_1     = -3.7881	tb1_1     =  0.1259	tb2_1     = -1.1314	tb3_1     =  1.7766	tb4_1     =  0.1191	
tb5_1     = -1.7581	tb6_1     = -0.1009	tb7_1     =  0.1640	tb8_1     = -2.2892	

CDMFT iteration 92, distance =  1.13e+02, diff param =  3.75e-02, diff hybrid =  5.59e-02
106 minimization steps, time(MIN)/time(ED)=0.00240
sb1_1     =  0.0165	sb2_1     =  0.0027	sb3_1     =  0.0142	sb4_1     = -0.1137	sb5_1     =  0.0162	
sb6_1     = -0.1219	sb7_1     = -0.0277	sb8_1     =  0.0043	eb1_1     = -0.0562	eb2_1     = -3.6437	
eb3_1     = -4.2824	eb4_1     = -0.0828	eb5_1     = -4.3969	eb6_1     = -0.1136	eb7_1     =  0.0976	
eb8_1     = -3.7881	tb1_1     =  0.1259	tb2_1     = -1.1314	tb3_1     =  1.7581	tb4_1     =  0.1009	
tb5_1     = -1.7766	tb6_1     = -0.1190	tb7_1     =  0.1642	tb8_1     = -2.2892	

CDMFT iteration 93, distance =  1.13e+02, diff param =  3.87e-02, diff hybrid =  5.58e-02
62 minimization steps, time(MIN)/time(ED)=0.00239
sb1_1     = -0.0165	sb2_1     = -0.0027	sb3_1     =  0.0162	sb4_1     = -0.1219	sb5_1     =  0.0141	
sb6_1     = -0.1136	sb7_1     =  0.0276	sb8_1     = -0.0043	eb1_1     = -0.0564	eb2_1     = -3.6438	
eb3_1     = -4.4017	eb4_1     = -0.1138	eb5_1     = -4.2787	eb6_1     = -0.0826	eb7_1     =  0.0971	
eb8_1     = -3.7874	tb1_1     =  0.1260	tb2_1     = -1.1315	tb3_1     =  1.7775	tb4_1     =  0.1192	
tb5_1     = -1.7574	tb6_1     = -0.1008	tb7_1     =  0.1639	tb8_1     = -2.2890	

CDMFT iteration 94, distance =  1.13e+02, diff param =  3.89e-02, diff hybrid =  5.58e-02
102 minimization steps, time(MIN)/time(ED)=0.00239
sb1_1     =  0.0167	sb2_1     =  0.0027	sb3_1     =  0.0142	sb4_1     = -0.1137	sb5_1     =  0.0162	
sb6_1     = -0.1218	sb7_1     = -0.0278	sb8_1     =  0.0043	eb1_1     = -0.0563	eb2_1     = -3.6438	
eb3_1     = -4.2819	eb4_1     = -0.0828	eb5_1     = -4.3980	eb6_1     = -0.1135	eb7_1     =  0.0974	
eb8_1     = -3.7881	tb1_1     =  0.1259	tb2_1     = -1.1315	tb3_1     =  1.7580	tb4_1     =  0.1008	
tb5_1     = -1.7768	tb6_1     = -0.1192	tb7_1     =  0.1640	tb8_1     = -2.2892	

CDMFT iteration 95, distance =  1.13e+02, diff param =  3.67e-02, diff hybrid =  5.59e-02
73 minimization steps, time(MIN)/time(ED)=0.00238
sb1_1     = -0.0164	sb2_1     = -0.0026	sb3_1     =  0.0161	sb4_1     = -0.1218	sb5_1     =  0.0143	
sb6_1     = -0.1138	sb7_1     =  0.0279	sb8_1     = -0.0043	eb1_1     = -0.0561	eb2_1     = -3.6435	
eb3_1     = -4.3925	eb4_1     = -0.1133	eb5_1     = -4.2861	eb6_1     = -0.0831	eb7_1     =  0.0975	
eb8_1     = -3.7883	tb1_1     =  0.1259	tb2_1     = -1.1314	tb3_1     =  1.7758	tb4_1     =  0.1188	
tb5_1     = -1.7588	tb6_1     = -0.1011	tb7_1     =  0.1642	tb8_1     = -2.2892	

CDMFT iteration 96, distance =  1.13e+02, diff param =  3.62e-02, diff hybrid =  5.59e-02
117 minimization steps, time(MIN)/time(ED)=0.00238
sb1_1     =  0.0164	sb2_1     =  0.0026	sb3_1     =  0.0142	sb4_1     = -0.1137	sb5_1     =  0.0161	
sb6_1     = -0.1218	sb7_1     = -0.0276	sb8_1     =  0.0043	eb1_1     = -0.0562	eb2_1     = -3.6435	
eb3_1     = -4.2834	eb4_1     = -0.0828	eb5_1     = -4.3959	eb6_1     = -0.1135	eb7_1     =  0.0973	
eb8_1     = -3.7879	tb1_1     =  0.1259	tb2_1     = -1.1314	tb3_1     =  1.7583	tb4_1     =  0.1011	
tb5_1     = -1.7764	tb6_1     = -0.1189	tb7_1     =  0.1640	tb8_1     = -2.2892	

CDMFT iteration 97, distance =  1.13e+02, diff param =  3.76e-02, diff hybrid =  5.57e-02
101 minimization steps, time(MIN)/time(ED)=0.00238
sb1_1     = -0.0164	sb2_1     = -0.0027	sb3_1     =  0.0162	sb4_1     = -0.1218	sb5_1     =  0.0142	
sb6_1     = -0.1137	sb7_1     =  0.0275	sb8_1     = -0.0042	eb1_1     = -0.0563	eb2_1     = -3.6439	
eb3_1     = -4.3987	eb4_1     = -0.1136	eb5_1     = -4.2815	eb6_1     = -0.0829	eb7_1     =  0.0971	
eb8_1     = -3.7876	tb1_1     =  0.1259	tb2_1     = -1.1314	tb3_1     =  1.7769	tb4_1     =  0.1192	
tb5_1     = -1.7579	tb6_1     = -0.1010	tb7_1     =  0.1639	tb8_1     = -2.2891	

CDMFT iteration 98, distance =  1.13e+02, diff param =  3.70e-02, diff hybrid =  5.55e-02
84 minimization steps, time(MIN)/time(ED)=0.00237
sb1_1     =  0.0165	sb2_1     =  0.0027	sb3_1     =  0.0142	sb4_1     = -0.1137	sb5_1     =  0.0161	
sb6_1     = -0.1217	sb7_1     = -0.0276	sb8_1     =  0.0043	eb1_1     = -0.0564	eb2_1     = -3.6441	
eb3_1     = -4.2861	eb4_1     = -0.0831	eb5_1     = -4.3939	eb6_1     = -0.1133	eb7_1     =  0.0973	
eb8_1     = -3.7879	tb1_1     =  0.1260	tb2_1     = -1.1315	tb3_1     =  1.7588	tb4_1     =  0.1011	
tb5_1     = -1.7760	tb6_1     = -0.1191	tb7_1     =  0.1640	tb8_1     = -2.2891	

CDMFT iteration 99, distance =  1.13e+02, diff param =  3.78e-02, diff hybrid =  5.55e-02
112 minimization steps, time(MIN)/time(ED)=0.00238
sb1_1     = -0.0163	sb2_1     = -0.0026	sb3_1     =  0.0162	sb4_1     = -0.1220	sb5_1     =  0.0142	
sb6_1     = -0.1136	sb7_1     =  0.0276	sb8_1     = -0.0043	eb1_1     = -0.0561	eb2_1     = -3.6434	
eb3_1     = -4.4022	eb4_1     = -0.1137	eb5_1     = -4.2786	eb6_1     = -0.0827	eb7_1     =  0.0972	
eb8_1     = -3.7878	tb1_1     =  0.1259	tb2_1     = -1.1314	tb3_1     =  1.7776	tb4_1     =  0.1191	
tb5_1     = -1.7574	tb6_1     = -0.1010	tb7_1     =  0.1640	tb8_1     = -2.2891	

CDMFT iteration 100, distance =  1.13e+02, diff param =  3.91e-02, diff hybrid =  5.56e-02
94 minimization steps, time(MIN)/time(ED)=0.00237
sb1_1     =  0.0166	sb2_1     =  0.0027	sb3_1     =  0.0142	sb4_1     = -0.1137	sb5_1     =  0.0162	
sb6_1     = -0.1218	sb7_1     = -0.0276	sb8_1     =  0.0043	eb1_1     = -0.0565	eb2_1     = -3.6443	
eb3_1     = -4.2816	eb4_1     = -0.0830	eb5_1     = -4.3991	eb6_1     = -0.1137	eb7_1     =  0.0973	
eb8_1     = -3.7879	tb1_1     =  0.1260	tb2_1     = -1.1315	tb3_1     =  1.7579	tb4_1     =  0.1010	
tb5_1     = -1.7770	tb6_1     = -0.1192	tb7_1     =  0.1640	tb8_1     = -2.2891	

CDMFT iteration 101, distance =  1.13e+02, diff param =  3.63e-02, diff hybrid =  5.56e-02
76 minimization steps, time(MIN)/time(ED)=0.00237
sb1_1     = -0.0165	sb2_1     = -0.0027	sb3_1     =  0.0161	sb4_1     = -0.1217	sb5_1     =  0.0143	
sb6_1     = -0.1138	sb7_1     =  0.0278	sb8_1     = -0.0043	eb1_1     = -0.0563	eb2_1     = -3.6442	
eb3_1     = -4.3915	eb4_1     = -0.1132	eb5_1     = -4.2890	eb6_1     = -0.0833	eb7_1     =  0.0973	
eb8_1     = -3.7880	tb1_1     =  0.1260	tb2_1     = -1.1315	tb3_1     =  1.7756	tb4_1     =  0.1189	
tb5_1     = -1.7593	tb6_1     = -0.1012	tb7_1     =  0.1640	tb8_1     = -2.2892	
Traceback (most recent call last):
  File "/home/theod/code_pyqcm/simulations/cdmft_fade_with_mu.py", line 137, in <module>
    fade(fade_func, initial_P, material_P, 20)
  File "/home/theod/.local/lib/python3.8/site-packages/pyqcm/loop.py", line 390, in fade
    F()
  File "/home/theod/code_pyqcm/simulations/cdmft_fade_with_mu.py", line 125, in fade_func
    cdmft(
  File "/home/theod/.local/lib/python3.8/site-packages/pyqcm/cdmft.py", line 514, in cdmft
    raise pyqcm.TooManyIterationsError(maxiter)
pyqcm.TooManyIterationsError: 100
