Number of OpenMP threads = 4
!!!!!!!!!!!!!!!!!!!!!!!!!!!!! - Fading to Sr2CuO2Cl2 - !!!!!!!!!!!!!!!!!!!!!!!!!!!!!
reading data file /home/theod/code_pyqcm/simulations/cdmft_max_supra_sid.tsv, line 1
111 columns read
----->  D  =  0.0
----->  U  =  14.0
----->  e  =  2.3
----->  eb1_1  =  -0.006655534
----->  eb2_1  =  -3.3502828
----->  eb3_1  =  -4.1133163
----->  eb4_1  =  -0.10235806
----->  eb5_1  =  -4.113222
----->  eb6_1  =  -0.1023468
----->  eb7_1  =  0.14108001
----->  eb8_1  =  -3.7537133
----->  mu  =  9.68
----->  sb1_1  =  -0.0001012231
----->  sb2_1  =  7.5002141e-06
----->  sb3_1  =  0.011771903
----->  sb4_1  =  -0.16264369
----->  sb5_1  =  0.011773954
----->  sb6_1  =  -0.16264057
----->  sb7_1  =  1.0013529e-05
----->  sb8_1  =  -2.0059213e-06
----->  tb1_1  =  -0.11240159
----->  tb2_1  =  -1.1061747
----->  tb3_1  =  1.7476608
----->  tb4_1  =  0.057892245
----->  tb5_1  =  -1.7476438
----->  tb6_1  =  -0.057886658
----->  tb7_1  =  0.22749261
----->  tb8_1  =  -2.3061557
----->  tpd  =  2.1
----->  tpp  =  1.0
----->  tppp  =  0.2

******************************* CDMFT procedure *******************************

minimization method =  CG
mixing state =  1
frequency grid type =  sharp
fictitious inverse temperature =  50
frequency cutoff =  2.0
--------------------------------------------------------------------------------

CDMFT iteration 1, distance =  1.66e+02, diff param =  6.24e-02
141 minimization steps, time(MIN)/time(ED)=0.00680
sb1_1     =  0.0000	sb2_1     =  0.0000	sb3_1     =  0.0101	sb4_1     = -0.1828	sb5_1     =  0.0101	
sb6_1     = -0.1828	sb7_1     =  0.0000	sb8_1     =  0.0000	eb1_1     =  0.0073	eb2_1     = -3.2370	
eb3_1     = -3.9553	eb4_1     = -0.1165	eb5_1     = -3.9552	eb6_1     = -0.1165	eb7_1     =  0.1568	
eb8_1     = -3.5865	tb1_1     = -0.1179	tb2_1     = -1.1032	tb3_1     =  1.7426	tb4_1     =  0.0430	
tb5_1     = -1.7426	tb6_1     = -0.0430	tb7_1     =  0.2522	tb8_1     = -2.3030	

CDMFT iteration 2, distance =  1.92e+02, diff param =  1.05e-02, diff hybrid =  9.64e-02
43 minimization steps, time(MIN)/time(ED)=0.00433
sb1_1     =  0.0000	sb2_1     =  0.0000	sb3_1     =  0.0065	sb4_1     = -0.1960	sb5_1     =  0.0065	
sb6_1     = -0.1960	sb7_1     = -0.0000	sb8_1     =  0.0000	eb1_1     =  0.0128	eb2_1     = -3.2301	
eb3_1     = -3.9521	eb4_1     = -0.1357	eb5_1     = -3.9521	eb6_1     = -0.1357	eb7_1     =  0.1720	
eb8_1     = -3.5950	tb1_1     = -0.1194	tb2_1     = -1.0971	tb3_1     =  1.7358	tb4_1     =  0.0236	
tb5_1     = -1.7358	tb6_1     = -0.0236	tb7_1     =  0.2660	tb8_1     = -2.2953	

CDMFT iteration 3, distance =  1.79e+02, diff param =  1.69e-02, diff hybrid =  4.47e-02
82 minimization steps, time(MIN)/time(ED)=0.00363
sb1_1     =  0.0000	sb2_1     =  0.0000	sb3_1     =  0.0080	sb4_1     = -0.1889	sb5_1     =  0.0080	
sb6_1     = -0.1889	sb7_1     = -0.0000	sb8_1     = -0.0000	eb1_1     =  0.0051	eb2_1     = -3.1557	
eb3_1     = -3.9321	eb4_1     = -0.1316	eb5_1     = -3.9321	eb6_1     = -0.1316	eb7_1     =  0.1732	
eb8_1     = -3.6025	tb1_1     = -0.1181	tb2_1     = -1.0887	tb3_1     =  1.7362	tb4_1     =  0.0303	
tb5_1     = -1.7362	tb6_1     = -0.0303	tb7_1     =  0.2588	tb8_1     = -2.3032	

CDMFT iteration 4, distance =  1.82e+02, diff param =  2.11e-03, diff hybrid =  2.66e-02
25 minimization steps, time(MIN)/time(ED)=0.00294
sb1_1     =  0.0000	sb2_1     =  0.0000	sb3_1     =  0.0080	sb4_1     = -0.1902	sb5_1     =  0.0080	
sb6_1     = -0.1902	sb7_1     =  0.0000	sb8_1     =  0.0000	eb1_1     =  0.0075	eb2_1     = -3.1571	
eb3_1     = -3.9321	eb4_1     = -0.1297	eb5_1     = -3.9321	eb6_1     = -0.1297	eb7_1     =  0.1702	
eb8_1     = -3.5952	tb1_1     = -0.1186	tb2_1     = -1.0880	tb3_1     =  1.7344	tb4_1     =  0.0300	
tb5_1     = -1.7344	tb6_1     = -0.0300	tb7_1     =  0.2603	tb8_1     = -2.2991	

CDMFT iteration 5, distance =  1.84e+02, diff param =  1.22e-03, diff hybrid =  8.79e-03
22 minimization steps, time(MIN)/time(ED)=0.00250
sb1_1     =  0.0000	sb2_1     =  0.0000	sb3_1     =  0.0074	sb4_1     = -0.1910	sb5_1     =  0.0074	
sb6_1     = -0.1910	sb7_1     =  0.0000	sb8_1     =  0.0000	eb1_1     =  0.0093	eb2_1     = -3.1592	
eb3_1     = -3.9333	eb4_1     = -0.1315	eb5_1     = -3.9333	eb6_1     = -0.1315	eb7_1     =  0.1720	
eb8_1     = -3.5970	tb1_1     = -0.1185	tb2_1     = -1.0881	tb3_1     =  1.7343	tb4_1     =  0.0280	
tb5_1     = -1.7343	tb6_1     = -0.0280	tb7_1     =  0.2613	tb8_1     = -2.2991	

CDMFT iteration 6, distance =  1.82e+02, diff param =  8.45e-04, diff hybrid =  4.21e-03
12 minimization steps, time(MIN)/time(ED)=0.00216
====================== CDMFT converged on the parameters ======================
sb1_1     =  0.0000	sb2_1     = -0.0000	sb3_1     =  0.0079	sb4_1     = -0.1901	sb5_1     =  0.0079	
sb6_1     = -0.1901	sb7_1     =  0.0000	sb8_1     =  0.0000	eb1_1     =  0.0075	eb2_1     = -3.1592	
eb3_1     = -3.9334	eb4_1     = -0.1310	eb5_1     = -3.9333	eb6_1     = -0.1310	eb7_1     =  0.1720	
eb8_1     = -3.5976	tb1_1     = -0.1185	tb2_1     = -1.0885	tb3_1     =  1.7351	tb4_1     =  0.0298	
tb5_1     = -1.7351	tb6_1     = -0.0298	tb7_1     =  0.2602	tb8_1     = -2.3002	
   <D> = 0.011003
   <e> = 1.251957
   <mu> = 1.607468
   <tpd> = -0.615009
   <tpp> = -0.203113
   <tppp> = 0.084308
************************* CDMFT completed successfully *************************

******************************* CDMFT procedure *******************************

minimization method =  CG
mixing state =  1
frequency grid type =  sharp
fictitious inverse temperature =  50
frequency cutoff =  2.0
--------------------------------------------------------------------------------

CDMFT iteration 1, distance =  1.57e+02, diff param =  2.01e-01
230 minimization steps, time(MIN)/time(ED)=0.00591
sb1_1     =  0.0001	sb2_1     =  0.0000	sb3_1     =  0.0133	sb4_1     = -0.1464	sb5_1     =  0.0133	
sb6_1     = -0.1464	sb7_1     =  0.0000	sb8_1     = -0.0000	eb1_1     = -0.1541	eb2_1     = -3.9381	
eb3_1     = -4.2530	eb4_1     = -0.1085	eb5_1     = -4.2530	eb6_1     = -0.1085	eb7_1     =  0.1390	
eb8_1     = -3.9410	tb1_1     = -0.1619	tb2_1     = -1.1399	tb3_1     =  1.7384	tb4_1     =  0.0647	
tb5_1     = -1.7384	tb6_1     = -0.0647	tb7_1     =  0.2076	tb8_1     = -2.2967	

CDMFT iteration 2, distance =  7.30e+01, diff param =  2.33e-01, diff hybrid =  2.18e-01
261 minimization steps, time(MIN)/time(ED)=0.00656
sb1_1     = -0.0000	sb2_1     = -0.0000	sb3_1     =  0.0165	sb4_1     = -0.0633	sb5_1     =  0.0165	
sb6_1     = -0.0633	sb7_1     = -0.2033	sb8_1     =  0.0001	eb1_1     = -0.3077	eb2_1     = -4.6054	
eb3_1     = -4.7885	eb4_1     = -0.2410	eb5_1     = -4.7884	eb6_1     = -0.2410	eb7_1     =  0.2597	
eb8_1     = -4.1904	tb1_1     = -0.2042	tb2_1     = -1.2224	tb3_1     =  1.8241	tb4_1     =  0.1758	
tb5_1     = -1.8241	tb6_1     = -0.1758	tb7_1     =  0.0003	tb8_1     = -2.3426	

CDMFT iteration 3, distance =  6.96e+01, diff param =  9.22e-02, diff hybrid =  2.10e-01
144 minimization steps, time(MIN)/time(ED)=0.00611
sb1_1     =  0.0000	sb2_1     = -0.0000	sb3_1     =  0.0069	sb4_1     = -0.0587	sb5_1     =  0.0069	
sb6_1     = -0.0586	sb7_1     = -0.1644	sb8_1     = -0.0000	eb1_1     = -0.0909	eb2_1     = -4.3378	
eb3_1     = -4.7970	eb4_1     = -0.0948	eb5_1     = -4.7968	eb6_1     = -0.0947	eb7_1     =  0.0701	
eb8_1     = -4.1522	tb1_1     = -0.1617	tb2_1     = -1.2175	tb3_1     =  1.8406	tb4_1     =  0.1569	
tb5_1     = -1.8405	tb6_1     = -0.1569	tb7_1     = -0.0000	tb8_1     = -2.3556	

CDMFT iteration 4, distance =  1.29e+02, diff param =  1.79e-01, diff hybrid =  1.15e-01
110 minimization steps, time(MIN)/time(ED)=0.00522
sb1_1     = -0.0002	sb2_1     =  0.0000	sb3_1     =  0.0070	sb4_1     = -0.1275	sb5_1     =  0.0070	
sb6_1     = -0.1275	sb7_1     = -0.1636	sb8_1     =  0.0000	eb1_1     = -0.0063	eb2_1     = -3.8018	
eb3_1     = -4.3800	eb4_1     = -0.0511	eb5_1     = -4.3803	eb6_1     = -0.0512	eb7_1     = -0.0484	
eb8_1     = -3.8978	tb1_1     = -0.1137	tb2_1     = -1.1540	tb3_1     =  1.7662	tb4_1     =  0.0689	
tb5_1     = -1.7662	tb6_1     = -0.0690	tb7_1     = -0.0001	tb8_1     = -2.2903	

CDMFT iteration 5, distance =  1.23e+02, diff param =  2.05e-02, diff hybrid =  2.12e-01
74 minimization steps, time(MIN)/time(ED)=0.00433
sb1_1     =  0.0001	sb2_1     = -0.0000	sb3_1     =  0.0098	sb4_1     = -0.1240	sb5_1     =  0.0097	
sb6_1     = -0.1240	sb7_1     = -0.1728	sb8_1     =  0.0000	eb1_1     = -0.0512	eb2_1     = -3.7635	
eb3_1     = -4.3503	eb4_1     = -0.0767	eb5_1     = -4.3499	eb6_1     = -0.0766	eb7_1     = -0.0892	
eb8_1     = -3.9347	tb1_1     = -0.1106	tb2_1     = -1.1455	tb3_1     =  1.7648	tb4_1     =  0.0694	
tb5_1     = -1.7648	tb6_1     = -0.0693	tb7_1     = -0.0000	tb8_1     = -2.3058	

CDMFT iteration 6, distance =  7.56e+01, diff param =  2.27e-01, diff hybrid =  6.86e-02
274 minimization steps, time(MIN)/time(ED)=0.00470
sb1_1     = -0.0000	sb2_1     =  0.0000	sb3_1     =  0.0165	sb4_1     = -0.0702	sb5_1     =  0.0165	
sb6_1     = -0.0702	sb7_1     = -0.1958	sb8_1     =  0.0001	eb1_1     = -0.2749	eb2_1     = -4.5872	
eb3_1     = -4.7216	eb4_1     = -0.1992	eb5_1     = -4.7217	eb6_1     = -0.1992	eb7_1     =  0.2278	
eb8_1     = -4.1648	tb1_1     = -0.1996	tb2_1     = -1.2230	tb3_1     =  1.8178	tb4_1     =  0.1635	
tb5_1     = -1.8178	tb6_1     = -0.1635	tb7_1     =  0.0004	tb8_1     = -2.3388	

CDMFT iteration 7, distance =  7.45e+01, diff param =  1.17e-01, diff hybrid =  1.81e-01
124 minimization steps, time(MIN)/time(ED)=0.00465
sb1_1     =  0.0001	sb2_1     = -0.0000	sb3_1     =  0.0083	sb4_1     = -0.0708	sb5_1     =  0.0083	
sb6_1     = -0.0707	sb7_1     = -0.1475	sb8_1     = -0.0000	eb1_1     = -0.0724	eb2_1     = -4.1265	
eb3_1     = -4.6943	eb4_1     = -0.0865	eb5_1     = -4.6943	eb6_1     = -0.0865	eb7_1     =  0.0485	
eb8_1     = -4.0684	tb1_1     = -0.1482	tb2_1     = -1.1926	tb3_1     =  1.8223	tb4_1     =  0.1442	
tb5_1     = -1.8222	tb6_1     = -0.1442	tb7_1     = -0.0000	tb8_1     = -2.3337	

CDMFT iteration 8, distance =  1.21e+02, diff param =  1.22e-01, diff hybrid =  1.07e-01
170 minimization steps, time(MIN)/time(ED)=0.00454
sb1_1     = -0.0004	sb2_1     = -0.0000	sb3_1     =  0.0080	sb4_1     = -0.1210	sb5_1     =  0.0080	
sb6_1     = -0.1210	sb7_1     = -0.1537	sb8_1     =  0.0000	eb1_1     = -0.0105	eb2_1     = -3.7968	
eb3_1     = -4.3954	eb4_1     = -0.0562	eb5_1     = -4.3961	eb6_1     = -0.0564	eb7_1     = -0.0444	
eb8_1     = -3.8964	tb1_1     = -0.1130	tb2_1     = -1.1541	tb3_1     =  1.7697	tb4_1     =  0.0780	
tb5_1     = -1.7698	tb6_1     = -0.0781	tb7_1     = -0.0001	tb8_1     = -2.2912	

CDMFT iteration 9, distance =  1.21e+02, diff param =  6.00e-02, diff hybrid =  1.66e-01
182 minimization steps, time(MIN)/time(ED)=0.00443
sb1_1     =  0.0001	sb2_1     = -0.0000	sb3_1     =  0.0107	sb4_1     = -0.1207	sb5_1     =  0.0106	
sb6_1     = -0.1206	sb7_1     = -0.1670	sb8_1     = -0.0000	eb1_1     = -0.1360	eb2_1     = -4.0491	
eb3_1     = -4.3653	eb4_1     = -0.0794	eb5_1     = -4.3644	eb6_1     = -0.0792	eb7_1     = -0.0829	
eb8_1     = -3.9241	tb1_1     = -0.1460	tb2_1     = -1.1694	tb3_1     =  1.7675	tb4_1     =  0.0772	
tb5_1     = -1.7674	tb6_1     = -0.0770	tb7_1     =  0.0001	tb8_1     = -2.3036	

CDMFT iteration 10, distance =  7.67e+01, diff param =  1.67e-01, diff hybrid =  7.56e-02
209 minimization steps, time(MIN)/time(ED)=0.00451
sb1_1     = -0.0001	sb2_1     = -0.0000	sb3_1     =  0.0164	sb4_1     = -0.0740	sb5_1     =  0.0164	
sb6_1     = -0.0741	sb7_1     = -0.1921	sb8_1     =  0.0001	eb1_1     = -0.2593	eb2_1     = -4.5440	
eb3_1     = -4.6962	eb4_1     = -0.1838	eb5_1     = -4.6963	eb6_1     = -0.1838	eb7_1     =  0.2130	
eb8_1     = -4.1530	tb1_1     = -0.1955	tb2_1     = -1.2195	tb3_1     =  1.8150	tb4_1     =  0.1582	
tb5_1     = -1.8150	tb6_1     = -0.1582	tb7_1     =  0.0004	tb8_1     = -2.3364	

CDMFT iteration 11, distance =  7.69e+01, diff param =  1.18e-01, diff hybrid =  1.67e-01
194 minimization steps, time(MIN)/time(ED)=0.00464
sb1_1     =  0.0000	sb2_1     = -0.0000	sb3_1     =  0.0090	sb4_1     = -0.0758	sb5_1     =  0.0090	
sb6_1     = -0.0757	sb7_1     = -0.1410	sb8_1     = -0.0000	eb1_1     = -0.0674	eb2_1     = -4.0727	
eb3_1     = -4.6677	eb4_1     = -0.0856	eb5_1     = -4.6673	eb6_1     = -0.0855	eb7_1     =  0.0399	
eb8_1     = -4.0331	tb1_1     = -0.1436	tb2_1     = -1.1860	tb3_1     =  1.8173	tb4_1     =  0.1396	
tb5_1     = -1.8172	tb6_1     = -0.1396	tb7_1     = -0.0001	tb8_1     = -2.3244	

CDMFT iteration 12, distance =  1.16e+02, diff param =  1.07e-01, diff hybrid =  1.03e-01
163 minimization steps, time(MIN)/time(ED)=0.00455
sb1_1     =  0.0005	sb2_1     = -0.0001	sb3_1     =  0.0085	sb4_1     = -0.1181	sb5_1     =  0.0085	
sb6_1     = -0.1181	sb7_1     = -0.1491	sb8_1     =  0.0000	eb1_1     = -0.0128	eb2_1     = -3.7757	
eb3_1     = -4.4055	eb4_1     = -0.0587	eb5_1     = -4.4059	eb6_1     = -0.0589	eb7_1     = -0.0418	
eb8_1     = -3.8944	tb1_1     = -0.1128	tb2_1     = -1.1514	tb3_1     =  1.7717	tb4_1     =  0.0821	
tb5_1     = -1.7718	tb6_1     = -0.0822	tb7_1     = -0.0001	tb8_1     = -2.2911	

CDMFT iteration 13, distance =  1.20e+02, diff param =  7.23e-02, diff hybrid =  1.45e-01
168 minimization steps, time(MIN)/time(ED)=0.00446
sb1_1     =  0.0001	sb2_1     = -0.0000	sb3_1     =  0.0110	sb4_1     = -0.1194	sb5_1     =  0.0110	
sb6_1     = -0.1194	sb7_1     = -0.1643	sb8_1     =  0.0000	eb1_1     = -0.1447	eb2_1     = -4.0930	
eb3_1     = -4.3732	eb4_1     = -0.0803	eb5_1     = -4.3740	eb6_1     = -0.0804	eb7_1     = -0.0792	
eb8_1     = -3.9183	tb1_1     = -0.1500	tb2_1     = -1.1741	tb3_1     =  1.7688	tb4_1     =  0.0802	
tb5_1     = -1.7689	tb6_1     = -0.0802	tb7_1     = -0.0001	tb8_1     = -2.3021	

CDMFT iteration 14, distance =  7.73e+01, diff param =  1.60e-01, diff hybrid =  7.31e-02
215 minimization steps, time(MIN)/time(ED)=0.00452
sb1_1     =  0.0001	sb2_1     = -0.0000	sb3_1     =  0.0165	sb4_1     = -0.0757	sb5_1     =  0.0164	
sb6_1     = -0.0757	sb7_1     = -0.1907	sb8_1     = -0.0000	eb1_1     = -0.2543	eb2_1     = -4.5665	
eb3_1     = -4.6882	eb4_1     = -0.1775	eb5_1     = -4.6883	eb6_1     = -0.1775	eb7_1     =  0.2077	
eb8_1     = -4.1502	tb1_1     = -0.1948	tb2_1     = -1.2224	tb3_1     =  1.8143	tb4_1     =  0.1559	
tb5_1     = -1.8143	tb6_1     = -0.1559	tb7_1     = -0.0001	tb8_1     = -2.3358	

CDMFT iteration 15, distance =  7.79e+01, diff param =  1.26e-01, diff hybrid =  1.63e-01
175 minimization steps, time(MIN)/time(ED)=0.00457
sb1_1     = -0.0000	sb2_1     =  0.0000	sb3_1     =  0.0092	sb4_1     = -0.0777	sb5_1     =  0.0092	
sb6_1     = -0.0777	sb7_1     = -0.1384	sb8_1     =  0.0000	eb1_1     = -0.0656	eb2_1     = -4.0474	
eb3_1     = -4.6559	eb4_1     = -0.0853	eb5_1     = -4.6562	eb6_1     = -0.0854	eb7_1     =  0.0366	
eb8_1     = -4.0197	tb1_1     = -0.1418	tb2_1     = -1.1829	tb3_1     =  1.8152	tb4_1     =  0.1377	
tb5_1     = -1.8152	tb6_1     = -0.1377	tb7_1     =  0.0001	tb8_1     = -2.3210	

CDMFT iteration 16, distance =  1.14e+02, diff param =  1.00e-01, diff hybrid =  1.02e-01
170 minimization steps, time(MIN)/time(ED)=0.00453
sb1_1     =  0.0004	sb2_1     = -0.0000	sb3_1     =  0.0087	sb4_1     = -0.1168	sb5_1     =  0.0087	
sb6_1     = -0.1168	sb7_1     = -0.1472	sb8_1     = -0.0000	eb1_1     = -0.0139	eb2_1     = -3.7688	
eb3_1     = -4.4092	eb4_1     = -0.0599	eb5_1     = -4.4092	eb6_1     = -0.0599	eb7_1     = -0.0405	
eb8_1     = -3.8929	tb1_1     = -0.1127	tb2_1     = -1.1505	tb3_1     =  1.7725	tb4_1     =  0.0839	
tb5_1     = -1.7725	tb6_1     = -0.0839	tb7_1     =  0.0000	tb8_1     = -2.2909	

CDMFT iteration 17, distance =  1.20e+02, diff param =  7.69e-02, diff hybrid =  1.37e-01
213 minimization steps, time(MIN)/time(ED)=0.00452
sb1_1     =  0.0000	sb2_1     = -0.0000	sb3_1     =  0.0111	sb4_1     = -0.1189	sb5_1     =  0.0111	
sb6_1     = -0.1189	sb7_1     = -0.1632	sb8_1     =  0.0000	eb1_1     = -0.1479	eb2_1     = -4.1097	
eb3_1     = -4.3740	eb4_1     = -0.0804	eb5_1     = -4.3750	eb6_1     = -0.0806	eb7_1     = -0.0776	
eb8_1     = -3.9143	tb1_1     = -0.1516	tb2_1     = -1.1758	tb3_1     =  1.7689	tb4_1     =  0.0812	
tb5_1     = -1.7690	tb6_1     = -0.0813	tb7_1     = -0.0001	tb8_1     = -2.3010	

CDMFT iteration 18, distance =  7.76e+01, diff param =  1.45e-01, diff hybrid =  7.21e-02
184 minimization steps, time(MIN)/time(ED)=0.00454
sb1_1     = -0.0000	sb2_1     =  0.0000	sb3_1     =  0.0164	sb4_1     = -0.0765	sb5_1     =  0.0164	
sb6_1     = -0.0765	sb7_1     = -0.1899	sb8_1     = -0.0000	eb1_1     = -0.2454	eb2_1     = -4.4704	
eb3_1     = -4.6822	eb4_1     = -0.1749	eb5_1     = -4.6823	eb6_1     = -0.1749	eb7_1     =  0.2050	
eb8_1     = -4.1477	tb1_1     = -0.1909	tb2_1     = -1.2123	tb3_1     =  1.8135	tb4_1     =  0.1548	
tb5_1     = -1.8135	tb6_1     = -0.1548	tb7_1     = -0.0001	tb8_1     = -2.3352	

CDMFT iteration 19, distance =  7.84e+01, diff param =  1.11e-01, diff hybrid =  1.61e-01
137 minimization steps, time(MIN)/time(ED)=0.00452
sb1_1     = -0.0000	sb2_1     =  0.0000	sb3_1     =  0.0093	sb4_1     = -0.0785	sb5_1     =  0.0093	
sb6_1     = -0.0785	sb7_1     = -0.1375	sb8_1     =  0.0000	eb1_1     = -0.0651	eb2_1     = -4.0339	
eb3_1     = -4.6476	eb4_1     = -0.0855	eb5_1     = -4.6477	eb6_1     = -0.0855	eb7_1     =  0.0355	
eb8_1     = -4.0130	tb1_1     = -0.1412	tb2_1     = -1.1811	tb3_1     =  1.8136	tb4_1     =  0.1371	
tb5_1     = -1.8136	tb6_1     = -0.1371	tb7_1     =  0.0000	tb8_1     = -2.3192	

CDMFT iteration 20, distance =  1.14e+02, diff param =  9.40e-02, diff hybrid =  1.00e-01
122 minimization steps, time(MIN)/time(ED)=0.00443
sb1_1     =  0.0003	sb2_1     = -0.0000	sb3_1     =  0.0088	sb4_1     = -0.1164	sb5_1     =  0.0088	
sb6_1     = -0.1164	sb7_1     = -0.1466	sb8_1     =  0.0000	eb1_1     = -0.0144	eb2_1     = -3.7843	
eb3_1     = -4.4112	eb4_1     = -0.0604	eb5_1     = -4.4112	eb6_1     = -0.0604	eb7_1     = -0.0401	
eb8_1     = -3.8934	tb1_1     = -0.1129	tb2_1     = -1.1527	tb3_1     =  1.7728	tb4_1     =  0.0846	
tb5_1     = -1.7728	tb6_1     = -0.0846	tb7_1     =  0.0000	tb8_1     = -2.2910	

CDMFT iteration 21, distance =  1.19e+02, diff param =  7.27e-02, diff hybrid =  1.33e-01
168 minimization steps, time(MIN)/time(ED)=0.00437
sb1_1     = -0.0000	sb2_1     = -0.0000	sb3_1     =  0.0112	sb4_1     = -0.1188	sb5_1     =  0.0112	
sb6_1     = -0.1188	sb7_1     = -0.1628	sb8_1     =  0.0000	eb1_1     = -0.1470	eb2_1     = -4.1031	
eb3_1     = -4.3762	eb4_1     = -0.0805	eb5_1     = -4.3769	eb6_1     = -0.0806	eb7_1     = -0.0769	
eb8_1     = -3.9165	tb1_1     = -0.1512	tb2_1     = -1.1751	tb3_1     =  1.7693	tb4_1     =  0.0816	
tb5_1     = -1.7694	tb6_1     = -0.0817	tb7_1     = -0.0001	tb8_1     = -2.3016	

CDMFT iteration 22, distance =  7.76e+01, diff param =  1.44e-01, diff hybrid =  7.15e-02
189 minimization steps, time(MIN)/time(ED)=0.00439
sb1_1     =  0.0000	sb2_1     = -0.0000	sb3_1     =  0.0164	sb4_1     = -0.0767	sb5_1     =  0.0164	
sb6_1     = -0.0766	sb7_1     = -0.1897	sb8_1     = -0.0000	eb1_1     = -0.2447	eb2_1     = -4.4675	
eb3_1     = -4.6772	eb4_1     = -0.1741	eb5_1     = -4.6772	eb6_1     = -0.1741	eb7_1     =  0.2043	
eb8_1     = -4.1467	tb1_1     = -0.1907	tb2_1     = -1.2120	tb3_1     =  1.8127	tb4_1     =  0.1544	
tb5_1     = -1.8127	tb6_1     = -0.1544	tb7_1     = -0.0001	tb8_1     = -2.3350	

CDMFT iteration 23, distance =  7.85e+01, diff param =  1.05e-01, diff hybrid =  1.61e-01
133 minimization steps, time(MIN)/time(ED)=0.00438
sb1_1     = -0.0000	sb2_1     =  0.0000	sb3_1     =  0.0095	sb4_1     = -0.0788	sb5_1     =  0.0095	
sb6_1     = -0.0788	sb7_1     = -0.1373	sb8_1     = -0.0000	eb1_1     = -0.0656	eb2_1     = -4.0631	
eb3_1     = -4.6612	eb4_1     = -0.0860	eb5_1     = -4.6613	eb6_1     = -0.0861	eb7_1     =  0.0351	
eb8_1     = -4.0120	tb1_1     = -0.1415	tb2_1     = -1.1848	tb3_1     =  1.8160	tb4_1     =  0.1373	
tb5_1     = -1.8160	tb6_1     = -0.1373	tb7_1     =  0.0000	tb8_1     = -2.3189	

CDMFT iteration 24, distance =  1.13e+02, diff param =  1.01e-01, diff hybrid =  1.00e-01
126 minimization steps, time(MIN)/time(ED)=0.00431
sb1_1     = -0.0001	sb2_1     = -0.0000	sb3_1     =  0.0088	sb4_1     = -0.1162	sb5_1     =  0.0088	
sb6_1     = -0.1162	sb7_1     = -0.1462	sb8_1     = -0.0000	eb1_1     = -0.0146	eb2_1     = -3.7778	
eb3_1     = -4.4134	eb4_1     = -0.0606	eb5_1     = -4.4133	eb6_1     = -0.0606	eb7_1     = -0.0397	
eb8_1     = -3.8939	tb1_1     = -0.1128	tb2_1     = -1.1518	tb3_1     =  1.7733	tb4_1     =  0.0849	
tb5_1     = -1.7733	tb6_1     = -0.0849	tb7_1     =  0.0000	tb8_1     = -2.2912	

CDMFT iteration 25, distance =  1.19e+02, diff param =  6.82e-02, diff hybrid =  1.32e-01
146 minimization steps, time(MIN)/time(ED)=0.00426
sb1_1     = -0.0000	sb2_1     = -0.0000	sb3_1     =  0.0111	sb4_1     = -0.1186	sb5_1     =  0.0112	
sb6_1     = -0.1186	sb7_1     = -0.1624	sb8_1     = -0.0000	eb1_1     = -0.1444	eb2_1     = -4.0733	
eb3_1     = -4.3760	eb4_1     = -0.0806	eb5_1     = -4.3757	eb6_1     = -0.0806	eb7_1     = -0.0763	
eb8_1     = -3.9144	tb1_1     = -0.1500	tb2_1     = -1.1717	tb3_1     =  1.7692	tb4_1     =  0.0818	
tb5_1     = -1.7692	tb6_1     = -0.0818	tb7_1     =  0.0000	tb8_1     = -2.3010	

CDMFT iteration 26, distance =  7.78e+01, diff param =  1.36e-01, diff hybrid =  7.08e-02
240 minimization steps, time(MIN)/time(ED)=0.00432
sb1_1     =  0.0000	sb2_1     = -0.0000	sb3_1     =  0.0164	sb4_1     = -0.0768	sb5_1     =  0.0164	
sb6_1     = -0.0768	sb7_1     = -0.1103	sb8_1     =  0.0000	eb1_1     = -0.2481	eb2_1     = -4.5144	
eb3_1     = -4.6787	eb4_1     = -0.1739	eb5_1     = -4.6786	eb6_1     = -0.1738	eb7_1     =  0.0262	
eb8_1     = -3.9113	tb1_1     = -0.1925	tb2_1     = -1.2170	tb3_1     =  1.8130	tb4_1     =  0.1544	
tb5_1     = -1.8130	tb6_1     = -0.1544	tb7_1     = -0.0000	tb8_1     = -2.2952	

CDMFT iteration 27, distance =  7.92e+01, diff param =  1.29e-01, diff hybrid =  1.35e-01
202 minimization steps, time(MIN)/time(ED)=0.00437
sb1_1     = -0.0000	sb2_1     =  0.0000	sb3_1     =  0.0091	sb4_1     = -0.0792	sb5_1     =  0.0091	
sb6_1     = -0.0792	sb7_1     = -0.1359	sb8_1     = -0.0000	eb1_1     = -0.0552	eb2_1     = -3.9483	
eb3_1     = -4.6096	eb4_1     = -0.0817	eb5_1     = -4.6096	eb6_1     = -0.0818	eb7_1     =  0.0320	
eb8_1     = -3.9987	tb1_1     = -0.1345	tb2_1     = -1.1729	tb3_1     =  1.8077	tb4_1     =  0.1334	
tb5_1     = -1.8077	tb6_1     = -0.1334	tb7_1     = -0.0000	tb8_1     = -2.3160	

CDMFT iteration 28, distance =  1.13e+02, diff param =  7.70e-02, diff hybrid =  8.18e-02
156 minimization steps, time(MIN)/time(ED)=0.00433
sb1_1     =  0.0005	sb2_1     = -0.0000	sb3_1     =  0.0088	sb4_1     = -0.1162	sb5_1     =  0.0088	
sb6_1     = -0.1162	sb7_1     = -0.1465	sb8_1     =  0.0000	eb1_1     = -0.0142	eb2_1     = -3.7775	
eb3_1     = -4.4069	eb4_1     = -0.0605	eb5_1     = -4.4068	eb6_1     = -0.0605	eb7_1     = -0.0410	
eb8_1     = -3.8920	tb1_1     = -0.1127	tb2_1     = -1.1517	tb3_1     =  1.7721	tb4_1     =  0.0843	
tb5_1     = -1.7721	tb6_1     = -0.0843	tb7_1     =  0.0000	tb8_1     = -2.2908	

CDMFT iteration 29, distance =  1.19e+02, diff param =  6.71e-02, diff hybrid =  1.27e-01
193 minimization steps, time(MIN)/time(ED)=0.00431
sb1_1     = -0.0000	sb2_1     = -0.0000	sb3_1     =  0.0112	sb4_1     = -0.1184	sb5_1     =  0.0112	
sb6_1     = -0.1185	sb7_1     = -0.1623	sb8_1     =  0.0000	eb1_1     = -0.1443	eb2_1     = -4.0680	
eb3_1     = -4.3753	eb4_1     = -0.0806	eb5_1     = -4.3767	eb6_1     = -0.0809	eb7_1     = -0.0765	
eb8_1     = -3.9142	tb1_1     = -0.1500	tb2_1     = -1.1712	tb3_1     =  1.7691	tb4_1     =  0.0820	
tb5_1     = -1.7693	tb6_1     = -0.0821	tb7_1     = -0.0002	tb8_1     = -2.3010	

CDMFT iteration 30, distance =  7.77e+01, diff param =  1.34e-01, diff hybrid =  7.04e-02
238 minimization steps, time(MIN)/time(ED)=0.00436
sb1_1     =  0.0001	sb2_1     = -0.0000	sb3_1     =  0.0164	sb4_1     = -0.0767	sb5_1     =  0.0164	
sb6_1     = -0.0766	sb7_1     = -0.1118	sb8_1     = -0.0000	eb1_1     = -0.2463	eb2_1     = -4.4926	
eb3_1     = -4.6803	eb4_1     = -0.1739	eb5_1     = -4.6803	eb6_1     = -0.1739	eb7_1     =  0.0305	
eb8_1     = -3.9169	tb1_1     = -0.1917	tb2_1     = -1.2147	tb3_1     =  1.8132	tb4_1     =  0.1547	
tb5_1     = -1.8132	tb6_1     = -0.1546	tb7_1     = -0.0003	tb8_1     = -2.2959	

CDMFT iteration 31, distance =  7.91e+01, diff param =  1.23e-01, diff hybrid =  1.36e-01
194 minimization steps, time(MIN)/time(ED)=0.00439
sb1_1     = -0.0001	sb2_1     =  0.0000	sb3_1     =  0.0091	sb4_1     = -0.0791	sb5_1     =  0.0091	
sb6_1     = -0.0791	sb7_1     = -0.1360	sb8_1     =  0.0000	eb1_1     = -0.0560	eb2_1     = -3.9565	
eb3_1     = -4.6118	eb4_1     = -0.0820	eb5_1     = -4.6121	eb6_1     = -0.0821	eb7_1     =  0.0323	
eb8_1     = -3.9992	tb1_1     = -0.1350	tb2_1     = -1.1737	tb3_1     =  1.8080	tb4_1     =  0.1337	
tb5_1     = -1.8081	tb6_1     = -0.1337	tb7_1     =  0.0001	tb8_1     = -2.3161	

CDMFT iteration 32, distance =  1.13e+02, diff param =  7.78e-02, diff hybrid =  8.12e-02
134 minimization steps, time(MIN)/time(ED)=0.00434
sb1_1     =  0.0003	sb2_1     = -0.0000	sb3_1     =  0.0088	sb4_1     = -0.1162	sb5_1     =  0.0088	
sb6_1     = -0.1162	sb7_1     = -0.1466	sb8_1     = -0.0000	eb1_1     = -0.0143	eb2_1     = -3.7836	
eb3_1     = -4.4073	eb4_1     = -0.0605	eb5_1     = -4.4065	eb6_1     = -0.0604	eb7_1     = -0.0409	
eb8_1     = -3.8931	tb1_1     = -0.1128	tb2_1     = -1.1526	tb3_1     =  1.7721	tb4_1     =  0.0844	
tb5_1     = -1.7720	tb6_1     = -0.0843	tb7_1     =  0.0001	tb8_1     = -2.2911	

CDMFT iteration 33, distance =  1.19e+02, diff param =  6.89e-02, diff hybrid =  1.27e-01
217 minimization steps, time(MIN)/time(ED)=0.00435
sb1_1     = -0.0001	sb2_1     =  0.0000	sb3_1     =  0.0112	sb4_1     = -0.1185	sb5_1     =  0.0112	
sb6_1     = -0.1185	sb7_1     = -0.1624	sb8_1     =  0.0000	eb1_1     = -0.1457	eb2_1     = -4.0836	
eb3_1     = -4.3751	eb4_1     = -0.0805	eb5_1     = -4.3761	eb6_1     = -0.0808	eb7_1     = -0.0766	
eb8_1     = -3.9150	tb1_1     = -0.1506	tb2_1     = -1.1729	tb3_1     =  1.7691	tb4_1     =  0.0817	
tb5_1     = -1.7692	tb6_1     = -0.0820	tb7_1     = -0.0001	tb8_1     = -2.3012	

CDMFT iteration 34, distance =  7.77e+01, diff param =  1.29e-01, diff hybrid =  7.06e-02
305 minimization steps, time(MIN)/time(ED)=0.00444
sb1_1     =  0.0002	sb2_1     = -0.0001	sb3_1     =  0.0164	sb4_1     = -0.0767	sb5_1     =  0.0164	
sb6_1     = -0.0766	sb7_1     = -0.1114	sb8_1     = -0.0000	eb1_1     = -0.2445	eb2_1     = -4.4699	
eb3_1     = -4.6805	eb4_1     = -0.1740	eb5_1     = -4.6805	eb6_1     = -0.1741	eb7_1     =  0.0293	
eb8_1     = -3.9155	tb1_1     = -0.1908	tb2_1     = -1.2123	tb3_1     =  1.8132	tb4_1     =  0.1546	
tb5_1     = -1.8132	tb6_1     = -0.1546	tb7_1     = -0.0006	tb8_1     = -2.2958	

CDMFT iteration 35, distance =  7.91e+01, diff param =  1.18e-01, diff hybrid =  1.36e-01
214 minimization steps, time(MIN)/time(ED)=0.00448
sb1_1     = -0.0002	sb2_1     =  0.0001	sb3_1     =  0.0091	sb4_1     = -0.0790	sb5_1     =  0.0091	
sb6_1     = -0.0792	sb7_1     = -0.1361	sb8_1     = -0.0000	eb1_1     = -0.0561	eb2_1     = -3.9632	
eb3_1     = -4.6115	eb4_1     = -0.0821	eb5_1     = -4.6122	eb6_1     = -0.0823	eb7_1     =  0.0325	
eb8_1     = -4.0009	tb1_1     = -0.1351	tb2_1     = -1.1746	tb3_1     =  1.8080	tb4_1     =  0.1338	
tb5_1     = -1.8081	tb6_1     = -0.1338	tb7_1     =  0.0001	tb8_1     = -2.3166	

CDMFT iteration 36, distance =  1.13e+02, diff param =  7.87e-02, diff hybrid =  8.12e-02
119 minimization steps, time(MIN)/time(ED)=0.00442
sb1_1     =  0.0007	sb2_1     = -0.0000	sb3_1     =  0.0088	sb4_1     = -0.1163	sb5_1     =  0.0088	
sb6_1     = -0.1162	sb7_1     = -0.1465	sb8_1     = -0.0000	eb1_1     = -0.0143	eb2_1     = -3.7839	
eb3_1     = -4.4079	eb4_1     = -0.0607	eb5_1     = -4.4057	eb6_1     = -0.0602	eb7_1     = -0.0408	
eb8_1     = -3.8903	tb1_1     = -0.1128	tb2_1     = -1.1527	tb3_1     =  1.7723	tb4_1     =  0.0846	
tb5_1     = -1.7719	tb6_1     = -0.0842	tb7_1     =  0.0004	tb8_1     = -2.2903	

CDMFT iteration 37, distance =  1.19e+02, diff param =  6.56e-02, diff hybrid =  1.28e-01
183 minimization steps, time(MIN)/time(ED)=0.00441
sb1_1     = -0.0003	sb2_1     =  0.0001	sb3_1     =  0.0111	sb4_1     = -0.1185	sb5_1     =  0.0112	
sb6_1     = -0.1186	sb7_1     = -0.1626	sb8_1     =  0.0000	eb1_1     = -0.1437	eb2_1     = -4.0664	
eb3_1     = -4.3740	eb4_1     = -0.0801	eb5_1     = -4.3768	eb6_1     = -0.0810	eb7_1     = -0.0767	
eb8_1     = -3.9152	tb1_1     = -0.1497	tb2_1     = -1.1710	tb3_1     =  1.7688	tb4_1     =  0.0815	
tb5_1     = -1.7693	tb6_1     = -0.0821	tb7_1     = -0.0004	tb8_1     = -2.3012	

CDMFT iteration 38, distance =  7.77e+01, diff param =  1.37e-01, diff hybrid =  7.04e-02
291 minimization steps, time(MIN)/time(ED)=0.00448
sb1_1     =  0.0002	sb2_1     = -0.0001	sb3_1     =  0.0164	sb4_1     = -0.0768	sb5_1     =  0.0164	
sb6_1     = -0.0766	sb7_1     = -0.1108	sb8_1     = -0.0001	eb1_1     = -0.2485	eb2_1     = -4.5136	
eb3_1     = -4.6803	eb4_1     = -0.1739	eb5_1     = -4.6799	eb6_1     = -0.1740	eb7_1     =  0.0278	
eb8_1     = -3.9137	tb1_1     = -0.1927	tb2_1     = -1.2167	tb3_1     =  1.8132	tb4_1     =  0.1546	
tb5_1     = -1.8131	tb6_1     = -0.1545	tb7_1     = -0.0016	tb8_1     = -2.2955	

CDMFT iteration 39, distance =  7.91e+01, diff param =  1.30e-01, diff hybrid =  1.36e-01
165 minimization steps, time(MIN)/time(ED)=0.00448
sb1_1     = -0.0002	sb2_1     =  0.0000	sb3_1     =  0.0091	sb4_1     = -0.0790	sb5_1     =  0.0091	
sb6_1     = -0.0792	sb7_1     = -0.1359	sb8_1     =  0.0000	eb1_1     = -0.0554	eb2_1     = -3.9424	
eb3_1     = -4.6105	eb4_1     = -0.0817	eb5_1     = -4.6116	eb6_1     = -0.0821	eb7_1     =  0.0322	
eb8_1     = -3.9986	tb1_1     = -0.1346	tb2_1     = -1.1720	tb3_1     =  1.8078	tb4_1     =  0.1336	
tb5_1     = -1.8080	tb6_1     = -0.1336	tb7_1     =  0.0003	tb8_1     = -2.3160	

CDMFT iteration 40, distance =  1.13e+02, diff param =  7.64e-02, diff hybrid =  8.17e-02
144 minimization steps, time(MIN)/time(ED)=0.00444
sb1_1     =  0.0008	sb2_1     = -0.0001	sb3_1     =  0.0089	sb4_1     = -0.1163	sb5_1     =  0.0088	
sb6_1     = -0.1162	sb7_1     = -0.1465	sb8_1     = -0.0000	eb1_1     = -0.0143	eb2_1     = -3.7832	
eb3_1     = -4.4086	eb4_1     = -0.0610	eb5_1     = -4.4051	eb6_1     = -0.0601	eb7_1     = -0.0409	
eb8_1     = -3.8918	tb1_1     = -0.1128	tb2_1     = -1.1525	tb3_1     =  1.7724	tb4_1     =  0.0846	
tb5_1     = -1.7718	tb6_1     = -0.0841	tb7_1     =  0.0005	tb8_1     = -2.2907	

CDMFT iteration 41, distance =  1.19e+02, diff param =  7.03e-02, diff hybrid =  1.27e-01
167 minimization steps, time(MIN)/time(ED)=0.00441
sb1_1     = -0.0005	sb2_1     =  0.0002	sb3_1     =  0.0111	sb4_1     = -0.1184	sb5_1     =  0.0112	
sb6_1     = -0.1186	sb7_1     = -0.1625	sb8_1     =  0.0001	eb1_1     = -0.1472	eb2_1     = -4.0898	
eb3_1     = -4.3730	eb4_1     = -0.0801	eb5_1     = -4.3766	eb6_1     = -0.0812	eb7_1     = -0.0767	
eb8_1     = -3.9151	tb1_1     = -0.1512	tb2_1     = -1.1734	tb3_1     =  1.7687	tb4_1     =  0.0815	
tb5_1     = -1.7693	tb6_1     = -0.0823	tb7_1     = -0.0005	tb8_1     = -2.3012	

CDMFT iteration 42, distance =  7.77e+01, diff param =  1.47e-01, diff hybrid =  7.08e-02
217 minimization steps, time(MIN)/time(ED)=0.00444
sb1_1     =  0.0002	sb2_1     = -0.0001	sb3_1     =  0.0165	sb4_1     = -0.0769	sb5_1     =  0.0164	
sb6_1     = -0.0766	sb7_1     = -0.1896	sb8_1     = -0.0004	eb1_1     = -0.2450	eb2_1     = -4.4763	
eb3_1     = -4.6831	eb4_1     = -0.1742	eb5_1     = -4.6825	eb6_1     = -0.1743	eb7_1     =  0.2037	
eb8_1     = -4.1466	tb1_1     = -0.1911	tb2_1     = -1.2130	tb3_1     =  1.8137	tb4_1     =  0.1548	
tb5_1     = -1.8136	tb6_1     = -0.1547	tb7_1     = -0.0014	tb8_1     = -2.3350	

CDMFT iteration 43, distance =  7.86e+01, diff param =  1.06e-01, diff hybrid =  1.60e-01
163 minimization steps, time(MIN)/time(ED)=0.00445
sb1_1     = -0.0002	sb2_1     =  0.0000	sb3_1     =  0.0093	sb4_1     = -0.0787	sb5_1     =  0.0094	
sb6_1     = -0.0789	sb7_1     = -0.1372	sb8_1     =  0.0000	eb1_1     = -0.0654	eb2_1     = -4.0689	
eb3_1     = -4.6480	eb4_1     = -0.0852	eb5_1     = -4.6497	eb6_1     = -0.0857	eb7_1     =  0.0348	
eb8_1     = -4.0129	tb1_1     = -0.1414	tb2_1     = -1.1857	tb3_1     =  1.8136	tb4_1     =  0.1368	
tb5_1     = -1.8139	tb6_1     = -0.1368	tb7_1     =  0.0003	tb8_1     = -2.3191	

CDMFT iteration 44, distance =  1.13e+02, diff param =  9.95e-02, diff hybrid =  1.00e-01
141 minimization steps, time(MIN)/time(ED)=0.00442
sb1_1     =  0.0005	sb2_1     =  0.0000	sb3_1     =  0.0088	sb4_1     = -0.1162	sb5_1     =  0.0087	
sb6_1     = -0.1162	sb7_1     = -0.1463	sb8_1     = -0.0000	eb1_1     = -0.0145	eb2_1     = -3.7807	
eb3_1     = -4.4086	eb4_1     = -0.0607	eb5_1     = -4.4067	eb6_1     = -0.0601	eb7_1     = -0.0400	
eb8_1     = -3.8929	tb1_1     = -0.1128	tb2_1     = -1.1522	tb3_1     =  1.7724	tb4_1     =  0.0848	
tb5_1     = -1.7721	tb6_1     = -0.0844	tb7_1     =  0.0003	tb8_1     = -2.2910	

CDMFT iteration 45, distance =  1.19e+02, diff param =  6.38e-02, diff hybrid =  1.32e-01
143 minimization steps, time(MIN)/time(ED)=0.00438
sb1_1     = -0.0003	sb2_1     =  0.0000	sb3_1     =  0.0111	sb4_1     = -0.1186	sb5_1     =  0.0112	
sb6_1     = -0.1187	sb7_1     = -0.1626	sb8_1     =  0.0000	eb1_1     = -0.1409	eb2_1     = -4.0549	
eb3_1     = -4.3759	eb4_1     = -0.0802	eb5_1     = -4.3779	eb6_1     = -0.0809	eb7_1     = -0.0766	
eb8_1     = -3.9153	tb1_1     = -0.1486	tb2_1     = -1.1699	tb3_1     =  1.7692	tb4_1     =  0.0815	
tb5_1     = -1.7695	tb6_1     = -0.0820	tb7_1     = -0.0003	tb8_1     = -2.3012	

CDMFT iteration 46, distance =  7.77e+01, diff param =  1.54e-01, diff hybrid =  7.05e-02
301 minimization steps, time(MIN)/time(ED)=0.00445
sb1_1     =  0.0002	sb2_1     = -0.0001	sb3_1     =  0.0164	sb4_1     = -0.0768	sb5_1     =  0.0164	
sb6_1     = -0.0766	sb7_1     = -0.1894	sb8_1     = -0.0002	eb1_1     = -0.2478	eb2_1     = -4.5049	
eb3_1     = -4.6800	eb4_1     = -0.1740	eb5_1     = -4.6796	eb6_1     = -0.1741	eb7_1     =  0.2033	
eb8_1     = -4.1462	tb1_1     = -0.1923	tb2_1     = -1.2159	tb3_1     =  1.8132	tb4_1     =  0.1546	
tb5_1     = -1.8131	tb6_1     = -0.1545	tb7_1     = -0.0009	tb8_1     = -2.3349	

CDMFT iteration 47, distance =  7.85e+01, diff param =  1.14e-01, diff hybrid =  1.61e-01
209 minimization steps, time(MIN)/time(ED)=0.00448
sb1_1     = -0.0001	sb2_1     =  0.0000	sb3_1     =  0.0094	sb4_1     = -0.0787	sb5_1     =  0.0094	
sb6_1     = -0.0789	sb7_1     = -0.1372	sb8_1     =  0.0000	eb1_1     = -0.0650	eb2_1     = -4.0510	
eb3_1     = -4.6487	eb4_1     = -0.0853	eb5_1     = -4.6496	eb6_1     = -0.0855	eb7_1     =  0.0349	
eb8_1     = -4.0132	tb1_1     = -0.1411	tb2_1     = -1.1834	tb3_1     =  1.8138	tb4_1     =  0.1368	
tb5_1     = -1.8139	tb6_1     = -0.1368	tb7_1     =  0.0002	tb8_1     = -2.3192	

CDMFT iteration 48, distance =  1.13e+02, diff param =  9.59e-02, diff hybrid =  1.01e-01
186 minimization steps, time(MIN)/time(ED)=0.00448
sb1_1     =  0.0004	sb2_1     = -0.0000	sb3_1     =  0.0088	sb4_1     = -0.1162	sb5_1     =  0.0087	
sb6_1     = -0.1162	sb7_1     = -0.1463	sb8_1     = -0.0000	eb1_1     = -0.0145	eb2_1     = -3.7876	
eb3_1     = -4.4118	eb4_1     = -0.0607	eb5_1     = -4.4103	eb6_1     = -0.0603	eb7_1     = -0.0399	
eb8_1     = -3.8934	tb1_1     = -0.1128	tb2_1     = -1.1532	tb3_1     =  1.7730	tb4_1     =  0.0849	
tb5_1     = -1.7727	tb6_1     = -0.0846	tb7_1     =  0.0002	tb8_1     = -2.2911	

CDMFT iteration 49, distance =  1.19e+02, diff param =  6.98e-02, diff hybrid =  1.32e-01
211 minimization steps, time(MIN)/time(ED)=0.00447
sb1_1     = -0.0002	sb2_1     =  0.0001	sb3_1     =  0.0111	sb4_1     = -0.1186	sb5_1     =  0.0112	
sb6_1     = -0.1187	sb7_1     = -0.1625	sb8_1     =  0.0000	eb1_1     = -0.1452	eb2_1     = -4.0914	
eb3_1     = -4.3746	eb4_1     = -0.0801	eb5_1     = -4.3762	eb6_1     = -0.0807	eb7_1     = -0.0764	
eb8_1     = -3.9143	tb1_1     = -0.1505	tb2_1     = -1.1739	tb3_1     =  1.7690	tb4_1     =  0.0815	
tb5_1     = -1.7692	tb6_1     = -0.0819	tb7_1     = -0.0002	tb8_1     = -2.3009	

CDMFT iteration 50, distance =  7.77e+01, diff param =  1.30e-01, diff hybrid =  7.09e-02
269 minimization steps, time(MIN)/time(ED)=0.00451
sb1_1     =  0.0001	sb2_1     = -0.0001	sb3_1     =  0.0164	sb4_1     = -0.0768	sb5_1     =  0.0164	
sb6_1     = -0.0767	sb7_1     = -0.1098	sb8_1     = -0.0001	eb1_1     = -0.2466	eb2_1     = -4.4880	
eb3_1     = -4.6793	eb4_1     = -0.1738	eb5_1     = -4.6789	eb6_1     = -0.1739	eb7_1     =  0.0247	
eb8_1     = -3.9091	tb1_1     = -0.1916	tb2_1     = -1.2141	tb3_1     =  1.8131	tb4_1     =  0.1544	
tb5_1     = -1.8130	tb6_1     = -0.1543	tb7_1     = -0.0010	tb8_1     = -2.2949	

CDMFT iteration 51, distance =  7.92e+01, diff param =  1.28e-01, diff hybrid =  1.34e-01
182 minimization steps, time(MIN)/time(ED)=0.00452
sb1_1     = -0.0001	sb2_1     =  0.0000	sb3_1     =  0.0091	sb4_1     = -0.0791	sb5_1     =  0.0091	
sb6_1     = -0.0793	sb7_1     = -0.1359	sb8_1     =  0.0000	eb1_1     = -0.0546	eb2_1     = -3.9277	
eb3_1     = -4.6087	eb4_1     = -0.0815	eb5_1     = -4.6093	eb6_1     = -0.0817	eb7_1     =  0.0320	
eb8_1     = -3.9999	tb1_1     = -0.1341	tb2_1     = -1.1702	tb3_1     =  1.8075	tb4_1     =  0.1334	
tb5_1     = -1.8076	tb6_1     = -0.1334	tb7_1     =  0.0002	tb8_1     = -2.3163	

CDMFT iteration 52, distance =  1.13e+02, diff param =  7.51e-02, diff hybrid =  8.21e-02
138 minimization steps, time(MIN)/time(ED)=0.00449
sb1_1     = -0.0001	sb2_1     =  0.0001	sb3_1     =  0.0088	sb4_1     = -0.1162	sb5_1     =  0.0088	
sb6_1     = -0.1162	sb7_1     = -0.1465	sb8_1     = -0.0000	eb1_1     = -0.0144	eb2_1     = -3.7810	
eb3_1     = -4.4068	eb4_1     = -0.0608	eb5_1     = -4.4045	eb6_1     = -0.0603	eb7_1     = -0.0410	
eb8_1     = -3.8915	tb1_1     = -0.1128	tb2_1     = -1.1522	tb3_1     =  1.7720	tb4_1     =  0.0846	
tb5_1     = -1.7716	tb6_1     = -0.0842	tb7_1     =  0.0003	tb8_1     = -2.2907	

CDMFT iteration 53, distance =  1.19e+02, diff param =  6.95e-02, diff hybrid =  1.27e-01
178 minimization steps, time(MIN)/time(ED)=0.00448
sb1_1     = -0.0004	sb2_1     =  0.0001	sb3_1     =  0.0112	sb4_1     = -0.1185	sb5_1     =  0.0112	
sb6_1     = -0.1185	sb7_1     = -0.1624	sb8_1     =  0.0000	eb1_1     = -0.1450	eb2_1     = -4.0845	
eb3_1     = -4.3757	eb4_1     = -0.0805	eb5_1     = -4.3763	eb6_1     = -0.0810	eb7_1     = -0.0765	
eb8_1     = -3.9144	tb1_1     = -0.1505	tb2_1     = -1.1731	tb3_1     =  1.7692	tb4_1     =  0.0818	
tb5_1     = -1.7693	tb6_1     = -0.0822	tb7_1     = -0.0001	tb8_1     = -2.3010	

CDMFT iteration 54, distance =  7.77e+01, diff param =  1.32e-01, diff hybrid =  7.04e-02
287 minimization steps, time(MIN)/time(ED)=0.00452
sb1_1     =  0.0001	sb2_1     = -0.0001	sb3_1     =  0.0164	sb4_1     = -0.0768	sb5_1     =  0.0164	
sb6_1     = -0.0767	sb7_1     = -0.1111	sb8_1     = -0.0001	eb1_1     = -0.2461	eb2_1     = -4.4937	
eb3_1     = -4.6810	eb4_1     = -0.1739	eb5_1     = -4.6806	eb6_1     = -0.1739	eb7_1     =  0.0285	
eb8_1     = -3.9146	tb1_1     = -0.1916	tb2_1     = -1.2149	tb3_1     =  1.8134	tb4_1     =  0.1546	
tb5_1     = -1.8133	tb6_1     = -0.1546	tb7_1     = -0.0010	tb8_1     = -2.2957	

CDMFT iteration 55, distance =  7.92e+01, diff param =  1.24e-01, diff hybrid =  1.36e-01
172 minimization steps, time(MIN)/time(ED)=0.00453
sb1_1     = -0.0002	sb2_1     =  0.0000	sb3_1     =  0.0091	sb4_1     = -0.0791	sb5_1     =  0.0092	
sb6_1     = -0.0792	sb7_1     = -0.1359	sb8_1     = -0.0000	eb1_1     = -0.0557	eb2_1     = -3.9528	
eb3_1     = -4.6111	eb4_1     = -0.0819	eb5_1     = -4.6118	eb6_1     = -0.0821	eb7_1     =  0.0321	
eb8_1     = -3.9975	tb1_1     = -0.1348	tb2_1     = -1.1733	tb3_1     =  1.8079	tb4_1     =  0.1336	
tb5_1     = -1.8080	tb6_1     = -0.1336	tb7_1     =  0.0000	tb8_1     = -2.3157	

CDMFT iteration 56, distance =  1.13e+02, diff param =  7.71e-02, diff hybrid =  8.13e-02
152 minimization steps, time(MIN)/time(ED)=0.00450
sb1_1     =  0.0004	sb2_1     =  0.0000	sb3_1     =  0.0089	sb4_1     = -0.1163	sb5_1     =  0.0088	
sb6_1     = -0.1162	sb7_1     = -0.1466	sb8_1     = -0.0000	eb1_1     = -0.0143	eb2_1     = -3.7841	
eb3_1     = -4.4086	eb4_1     = -0.0608	eb5_1     = -4.4060	eb6_1     = -0.0602	eb7_1     = -0.0410	
eb8_1     = -3.8918	tb1_1     = -0.1128	tb2_1     = -1.1526	tb3_1     =  1.7723	tb4_1     =  0.0845	
tb5_1     = -1.7719	tb6_1     = -0.0841	tb7_1     =  0.0004	tb8_1     = -2.2908	

CDMFT iteration 57, distance =  1.19e+02, diff param =  6.55e-02, diff hybrid =  1.27e-01
193 minimization steps, time(MIN)/time(ED)=0.00449
sb1_1     = -0.0004	sb2_1     =  0.0001	sb3_1     =  0.0112	sb4_1     = -0.1185	sb5_1     =  0.0112	
sb6_1     = -0.1186	sb7_1     = -0.1625	sb8_1     =  0.0000	eb1_1     = -0.1439	eb2_1     = -4.0658	
eb3_1     = -4.3749	eb4_1     = -0.0803	eb5_1     = -4.3769	eb6_1     = -0.0811	eb7_1     = -0.0766	
eb8_1     = -3.9152	tb1_1     = -0.1498	tb2_1     = -1.1709	tb3_1     =  1.7690	tb4_1     =  0.0816	
tb5_1     = -1.7694	tb6_1     = -0.0822	tb7_1     = -0.0003	tb8_1     = -2.3012	

CDMFT iteration 58, distance =  7.77e+01, diff param =  1.51e-01, diff hybrid =  7.04e-02
297 minimization steps, time(MIN)/time(ED)=0.00454
sb1_1     =  0.0002	sb2_1     = -0.0001	sb3_1     =  0.0164	sb4_1     = -0.0768	sb5_1     =  0.0164	
sb6_1     = -0.0766	sb7_1     = -0.1895	sb8_1     = -0.0002	eb1_1     = -0.2464	eb2_1     = -4.4915	
eb3_1     = -4.6808	eb4_1     = -0.1741	eb5_1     = -4.6803	eb6_1     = -0.1742	eb7_1     =  0.2035	
eb8_1     = -4.1464	tb1_1     = -0.1918	tb2_1     = -1.2145	tb3_1     =  1.8133	tb4_1     =  0.1547	
tb5_1     = -1.8132	tb6_1     = -0.1546	tb7_1     = -0.0008	tb8_1     = -2.3350	

CDMFT iteration 59, distance =  7.86e+01, diff param =  1.12e-01, diff hybrid =  1.60e-01
183 minimization steps, time(MIN)/time(ED)=0.00455
sb1_1     = -0.0001	sb2_1     =  0.0000	sb3_1     =  0.0093	sb4_1     = -0.0788	sb5_1     =  0.0094	
sb6_1     = -0.0789	sb7_1     = -0.1370	sb8_1     =  0.0000	eb1_1     = -0.0649	eb2_1     = -4.0517	
eb3_1     = -4.6478	eb4_1     = -0.0851	eb5_1     = -4.6489	eb6_1     = -0.0854	eb7_1     =  0.0345	
eb8_1     = -4.0096	tb1_1     = -0.1411	tb2_1     = -1.1835	tb3_1     =  1.8136	tb4_1     =  0.1367	
tb5_1     = -1.8138	tb6_1     = -0.1367	tb7_1     =  0.0002	tb8_1     = -2.3183	

CDMFT iteration 60, distance =  1.14e+02, diff param =  9.73e-02, diff hybrid =  1.01e-01
150 minimization steps, time(MIN)/time(ED)=0.00453
sb1_1     = -0.0003	sb2_1     =  0.0001	sb3_1     =  0.0088	sb4_1     = -0.1163	sb5_1     =  0.0088	
sb6_1     = -0.1163	sb7_1     = -0.1464	sb8_1     = -0.0000	eb1_1     = -0.0143	eb2_1     = -3.7729	
eb3_1     = -4.4117	eb4_1     = -0.0606	eb5_1     = -4.4109	eb6_1     = -0.0604	eb7_1     = -0.0402	
eb8_1     = -3.8929	tb1_1     = -0.1127	tb2_1     = -1.1511	tb3_1     =  1.7730	tb4_1     =  0.0847	
tb5_1     = -1.7728	tb6_1     = -0.0845	tb7_1     =  0.0001	tb8_1     = -2.2910	

CDMFT iteration 61, distance =  1.19e+02, diff param =  7.04e-02, diff hybrid =  1.32e-01
191 minimization steps, time(MIN)/time(ED)=0.00452
sb1_1     = -0.0002	sb2_1     =  0.0001	sb3_1     =  0.0112	sb4_1     = -0.1186	sb5_1     =  0.0112	
sb6_1     = -0.1186	sb7_1     = -0.1626	sb8_1     = -0.0000	eb1_1     = -0.1462	eb2_1     = -4.0798	
eb3_1     = -4.3763	eb4_1     = -0.0807	eb5_1     = -4.3757	eb6_1     = -0.0807	eb7_1     = -0.0767	
eb8_1     = -3.9153	tb1_1     = -0.1507	tb2_1     = -1.1723	tb3_1     =  1.7692	tb4_1     =  0.0818	
tb5_1     = -1.7692	tb6_1     = -0.0819	tb7_1     =  0.0001	tb8_1     = -2.3013	

CDMFT iteration 62, distance =  7.77e+01, diff param =  1.61e-01, diff hybrid =  7.11e-02
228 minimization steps, time(MIN)/time(ED)=0.00454
sb1_1     = -0.0000	sb2_1     = -0.0000	sb3_1     =  0.0164	sb4_1     = -0.0767	sb5_1     =  0.0164	
sb6_1     = -0.0767	sb7_1     = -0.1895	sb8_1     = -0.0000	eb1_1     = -0.2536	eb2_1     = -4.5780	
eb3_1     = -4.6802	eb4_1     = -0.1741	eb5_1     = -4.6801	eb6_1     = -0.1742	eb7_1     =  0.2037	
eb8_1     = -4.1463	tb1_1     = -0.1950	tb2_1     = -1.2235	tb3_1     =  1.8132	tb4_1     =  0.1546	
tb5_1     = -1.8132	tb6_1     = -0.1546	tb7_1     = -0.0001	tb8_1     = -2.3349	

CDMFT iteration 63, distance =  7.85e+01, diff param =  1.29e-01, diff hybrid =  1.60e-01
219 minimization steps, time(MIN)/time(ED)=0.00457
sb1_1     = -0.0000	sb2_1     = -0.0000	sb3_1     =  0.0093	sb4_1     = -0.0788	sb5_1     =  0.0094	
sb6_1     = -0.0788	sb7_1     = -0.1370	sb8_1     =  0.0000	eb1_1     = -0.0645	eb2_1     = -4.0367	
eb3_1     = -4.6488	eb4_1     = -0.0852	eb5_1     = -4.6490	eb6_1     = -0.0852	eb7_1     =  0.0345	
eb8_1     = -4.0107	tb1_1     = -0.1407	tb2_1     = -1.1816	tb3_1     =  1.8139	tb4_1     =  0.1366	
tb5_1     = -1.8139	tb6_1     = -0.1366	tb7_1     =  0.0000	tb8_1     = -2.3187	

CDMFT iteration 64, distance =  1.13e+02, diff param =  9.51e-02, diff hybrid =  1.01e-01
122 minimization steps, time(MIN)/time(ED)=0.00454
sb1_1     =  0.0000	sb2_1     =  0.0001	sb3_1     =  0.0088	sb4_1     = -0.1162	sb5_1     =  0.0088	
sb6_1     = -0.1162	sb7_1     = -0.1463	sb8_1     = -0.0000	eb1_1     = -0.0145	eb2_1     = -3.7795	
eb3_1     = -4.4101	eb4_1     = -0.0606	eb5_1     = -4.4098	eb6_1     = -0.0605	eb7_1     = -0.0400	
eb8_1     = -3.8944	tb1_1     = -0.1128	tb2_1     = -1.1521	tb3_1     =  1.7727	tb4_1     =  0.0848	
tb5_1     = -1.7726	tb6_1     = -0.0847	tb7_1     =  0.0000	tb8_1     = -2.2914	

CDMFT iteration 65, distance =  1.19e+02, diff param =  7.62e-02, diff hybrid =  1.32e-01
163 minimization steps, time(MIN)/time(ED)=0.00453
sb1_1     = -0.0001	sb2_1     =  0.0000	sb3_1     =  0.0112	sb4_1     = -0.1187	sb5_1     =  0.0112	
sb6_1     = -0.1187	sb7_1     = -0.1625	sb8_1     =  0.0000	eb1_1     = -0.1500	eb2_1     = -4.1180	
eb3_1     = -4.3835	eb4_1     = -0.0809	eb5_1     = -4.3837	eb6_1     = -0.0809	eb7_1     = -0.0766	
eb8_1     = -3.9150	tb1_1     = -0.1524	tb2_1     = -1.1766	tb3_1     =  1.7706	tb4_1     =  0.0820	
tb5_1     = -1.7707	tb6_1     = -0.0821	tb7_1     = -0.0000	tb8_1     = -2.3012	

CDMFT iteration 66, distance =  7.76e+01, diff param =  1.49e-01, diff hybrid =  7.15e-02
233 minimization steps, time(MIN)/time(ED)=0.00455
sb1_1     =  0.0000	sb2_1     = -0.0000	sb3_1     =  0.0164	sb4_1     = -0.0767	sb5_1     =  0.0164	
sb6_1     = -0.0767	sb7_1     = -0.1900	sb8_1     =  0.0000	eb1_1     = -0.2507	eb2_1     = -4.5339	
eb3_1     = -4.6807	eb4_1     = -0.1741	eb5_1     = -4.6805	eb6_1     = -0.1741	eb7_1     =  0.2049	
eb8_1     = -4.1494	tb1_1     = -0.1934	tb2_1     = -1.2189	tb3_1     =  1.8133	tb4_1     =  0.1545	
tb5_1     = -1.8133	tb6_1     = -0.1545	tb7_1     =  0.0001	tb8_1     = -2.3356	

CDMFT iteration 67, distance =  7.84e+01, diff param =  1.17e-01, diff hybrid =  1.60e-01
150 minimization steps, time(MIN)/time(ED)=0.00455
sb1_1     =  0.0000	sb2_1     =  0.0000	sb3_1     =  0.0094	sb4_1     = -0.0787	sb5_1     =  0.0094	
sb6_1     = -0.0786	sb7_1     = -0.1373	sb8_1     = -0.0000	eb1_1     = -0.0657	eb2_1     = -4.0653	
eb3_1     = -4.6511	eb4_1     = -0.0855	eb5_1     = -4.6513	eb6_1     = -0.0855	eb7_1     =  0.0351	
eb8_1     = -4.0134	tb1_1     = -0.1415	tb2_1     = -1.1852	tb3_1     =  1.8143	tb4_1     =  0.1369	
tb5_1     = -1.8143	tb6_1     = -0.1369	tb7_1     = -0.0001	tb8_1     = -2.3193	

CDMFT iteration 68, distance =  1.14e+02, diff param =  9.83e-02, diff hybrid =  1.01e-01
151 minimization steps, time(MIN)/time(ED)=0.00453
sb1_1     = -0.0001	sb2_1     = -0.0000	sb3_1     =  0.0087	sb4_1     = -0.1162	sb5_1     =  0.0087	
sb6_1     = -0.1162	sb7_1     = -0.1463	sb8_1     =  0.0000	eb1_1     = -0.0145	eb2_1     = -3.7869	
eb3_1     = -4.4102	eb4_1     = -0.0604	eb5_1     = -4.4105	eb6_1     = -0.0604	eb7_1     = -0.0399	
eb8_1     = -3.8932	tb1_1     = -0.1128	tb2_1     = -1.1530	tb3_1     =  1.7727	tb4_1     =  0.0847	
tb5_1     = -1.7727	tb6_1     = -0.0847	tb7_1     = -0.0000	tb8_1     = -2.2910	

CDMFT iteration 69, distance =  1.19e+02, diff param =  6.98e-02, diff hybrid =  1.33e-01
187 minimization steps, time(MIN)/time(ED)=0.00453
sb1_1     =  0.0000	sb2_1     = -0.0000	sb3_1     =  0.0111	sb4_1     = -0.1187	sb5_1     =  0.0111	
sb6_1     = -0.1187	sb7_1     = -0.1626	sb8_1     = -0.0000	eb1_1     = -0.1452	eb2_1     = -4.0912	
eb3_1     = -4.3754	eb4_1     = -0.0804	eb5_1     = -4.3749	eb6_1     = -0.0803	eb7_1     = -0.0765	
eb8_1     = -3.9152	tb1_1     = -0.1505	tb2_1     = -1.1739	tb3_1     =  1.7691	tb4_1     =  0.0817	
tb5_1     = -1.7690	tb6_1     = -0.0816	tb7_1     =  0.0001	tb8_1     = -2.3012	

CDMFT iteration 70, distance =  7.77e+01, diff param =  1.32e-01, diff hybrid =  7.10e-02
194 minimization steps, time(MIN)/time(ED)=0.00453
sb1_1     =  0.0000	sb2_1     = -0.0000	sb3_1     =  0.0164	sb4_1     = -0.0767	sb5_1     =  0.0164	
sb6_1     = -0.0767	sb7_1     = -0.1097	sb8_1     =  0.0000	eb1_1     = -0.2475	eb2_1     = -4.5035	
eb3_1     = -4.6788	eb4_1     = -0.1739	eb5_1     = -4.6790	eb6_1     = -0.1739	eb7_1     =  0.0245	
eb8_1     = -3.9082	tb1_1     = -0.1921	tb2_1     = -1.2158	tb3_1     =  1.8130	tb4_1     =  0.1544	
tb5_1     = -1.8130	tb6_1     = -0.1545	tb7_1     =  0.0002	tb8_1     = -2.2947	

CDMFT iteration 71, distance =  7.92e+01, diff param =  1.28e-01, diff hybrid =  1.34e-01
153 minimization steps, time(MIN)/time(ED)=0.00453
sb1_1     =  0.0000	sb2_1     = -0.0000	sb3_1     =  0.0091	sb4_1     = -0.0792	sb5_1     =  0.0091	
sb6_1     = -0.0792	sb7_1     = -0.1358	sb8_1     = -0.0000	eb1_1     = -0.0547	eb2_1     = -3.9438	
eb3_1     = -4.6084	eb4_1     = -0.0814	eb5_1     = -4.6085	eb6_1     = -0.0814	eb7_1     =  0.0318	
eb8_1     = -3.9977	tb1_1     = -0.1343	tb2_1     = -1.1723	tb3_1     =  1.8075	tb4_1     =  0.1333	
tb5_1     = -1.8075	tb6_1     = -0.1333	tb7_1     = -0.0000	tb8_1     = -2.3158	

CDMFT iteration 72, distance =  1.13e+02, diff param =  7.85e-02, diff hybrid =  8.23e-02
129 minimization steps, time(MIN)/time(ED)=0.00450
sb1_1     = -0.0004	sb2_1     =  0.0000	sb3_1     =  0.0088	sb4_1     = -0.1163	sb5_1     =  0.0088	
sb6_1     = -0.1163	sb7_1     = -0.1466	sb8_1     =  0.0000	eb1_1     = -0.0140	eb2_1     = -3.7592	
eb3_1     = -4.4049	eb4_1     = -0.0605	eb5_1     = -4.4055	eb6_1     = -0.0606	eb7_1     = -0.0412	
eb8_1     = -3.8908	tb1_1     = -0.1126	tb2_1     = -1.1492	tb3_1     =  1.7717	tb4_1     =  0.0842	
tb5_1     = -1.7718	tb6_1     = -0.0842	tb7_1     = -0.0001	tb8_1     = -2.2905	

CDMFT iteration 73, distance =  1.19e+02, diff param =  7.49e-02, diff hybrid =  1.27e-01
239 minimization steps, time(MIN)/time(ED)=0.00451
sb1_1     =  0.0001	sb2_1     = -0.0000	sb3_1     =  0.0113	sb4_1     = -0.1185	sb5_1     =  0.0112	
sb6_1     = -0.1184	sb7_1     = -0.1624	sb8_1     = -0.0000	eb1_1     = -0.1466	eb2_1     = -4.0909	
eb3_1     = -4.3766	eb4_1     = -0.0812	eb5_1     = -4.3755	eb6_1     = -0.0810	eb7_1     = -0.0769	
eb8_1     = -3.9145	tb1_1     = -0.1511	tb2_1     = -1.1737	tb3_1     =  1.7693	tb4_1     =  0.0823	
tb5_1     = -1.7691	tb6_1     = -0.0821	tb7_1     =  0.0001	tb8_1     = -2.3011	

CDMFT iteration 74, distance =  7.77e+01, diff param =  1.55e-01, diff hybrid =  7.07e-02
255 minimization steps, time(MIN)/time(ED)=0.00453
sb1_1     = -0.0001	sb2_1     =  0.0000	sb3_1     =  0.0163	sb4_1     = -0.0766	sb5_1     =  0.0163	
sb6_1     = -0.0767	sb7_1     = -0.1891	sb8_1     =  0.0001	eb1_1     = -0.2516	eb2_1     = -4.5534	
eb3_1     = -4.6766	eb4_1     = -0.1734	eb5_1     = -4.6767	eb6_1     = -0.1734	eb7_1     =  0.2024	
eb8_1     = -4.1440	tb1_1     = -0.1942	tb2_1     = -1.2209	tb3_1     =  1.8126	tb4_1     =  0.1544	
tb5_1     = -1.8126	tb6_1     = -0.1544	tb7_1     =  0.0003	tb8_1     = -2.3345	

CDMFT iteration 75, distance =  7.87e+01, diff param =  1.21e-01, diff hybrid =  1.60e-01
212 minimization steps, time(MIN)/time(ED)=0.00456
sb1_1     =  0.0001	sb2_1     = -0.0000	sb3_1     =  0.0094	sb4_1     = -0.0791	sb5_1     =  0.0093	
sb6_1     = -0.0790	sb7_1     = -0.1368	sb8_1     = -0.0000	eb1_1     = -0.0645	eb2_1     = -4.0571	
eb3_1     = -4.6466	eb4_1     = -0.0849	eb5_1     = -4.6463	eb6_1     = -0.0848	eb7_1     =  0.0340	
eb8_1     = -4.0111	tb1_1     = -0.1409	tb2_1     = -1.1843	tb3_1     =  1.8135	tb4_1     =  0.1363	
tb5_1     = -1.8134	tb6_1     = -0.1363	tb7_1     = -0.0001	tb8_1     = -2.3188	

CDMFT iteration 76, distance =  1.13e+02, diff param =  9.82e-02, diff hybrid =  1.01e-01
133 minimization steps, time(MIN)/time(ED)=0.00454
sb1_1     = -0.0003	sb2_1     =  0.0000	sb3_1     =  0.0088	sb4_1     = -0.1162	sb5_1     =  0.0088	
sb6_1     = -0.1162	sb7_1     = -0.1463	sb8_1     = -0.0000	eb1_1     = -0.0144	eb2_1     = -3.7679	
eb3_1     = -4.4108	eb4_1     = -0.0604	eb5_1     = -4.4114	eb6_1     = -0.0606	eb7_1     = -0.0402	
eb8_1     = -3.8945	tb1_1     = -0.1126	tb2_1     = -1.1504	tb3_1     =  1.7728	tb4_1     =  0.0846	
tb5_1     = -1.7729	tb6_1     = -0.0847	tb7_1     = -0.0001	tb8_1     = -2.2914	

CDMFT iteration 77, distance =  1.19e+02, diff param =  7.42e-02, diff hybrid =  1.31e-01
155 minimization steps, time(MIN)/time(ED)=0.00452
sb1_1     =  0.0001	sb2_1     = -0.0000	sb3_1     =  0.0112	sb4_1     = -0.1185	sb5_1     =  0.0112	
sb6_1     = -0.1185	sb7_1     = -0.1623	sb8_1     = -0.0000	eb1_1     = -0.1470	eb2_1     = -4.0953	
eb3_1     = -4.3765	eb4_1     = -0.0810	eb5_1     = -4.3753	eb6_1     = -0.0807	eb7_1     = -0.0765	
eb8_1     = -3.9147	tb1_1     = -0.1512	tb2_1     = -1.1742	tb3_1     =  1.7693	tb4_1     =  0.0822	
tb5_1     = -1.7691	tb6_1     = -0.0820	tb7_1     =  0.0001	tb8_1     = -2.3011	

CDMFT iteration 78, distance =  7.77e+01, diff param =  1.46e-01, diff hybrid =  7.10e-02
224 minimization steps, time(MIN)/time(ED)=0.00453
sb1_1     = -0.0001	sb2_1     =  0.0000	sb3_1     =  0.0164	sb4_1     = -0.0767	sb5_1     =  0.0164	
sb6_1     = -0.0767	sb7_1     = -0.1895	sb8_1     =  0.0001	eb1_1     = -0.2448	eb2_1     = -4.4760	
eb3_1     = -4.6800	eb4_1     = -0.1738	eb5_1     = -4.6802	eb6_1     = -0.1738	eb7_1     =  0.2035	
eb8_1     = -4.1462	tb1_1     = -0.1910	tb2_1     = -1.2130	tb3_1     =  1.8132	tb4_1     =  0.1545	
tb5_1     = -1.8132	tb6_1     = -0.1545	tb7_1     =  0.0003	tb8_1     = -2.3349	

CDMFT iteration 79, distance =  7.86e+01, diff param =  1.08e-01, diff hybrid =  1.60e-01
113 minimization steps, time(MIN)/time(ED)=0.00452
sb1_1     =  0.0000	sb2_1     = -0.0000	sb3_1     =  0.0094	sb4_1     = -0.0790	sb5_1     =  0.0094	
sb6_1     = -0.0789	sb7_1     = -0.1371	sb8_1     = -0.0000	eb1_1     = -0.0649	eb2_1     = -4.0577	
eb3_1     = -4.6497	eb4_1     = -0.0855	eb5_1     = -4.6494	eb6_1     = -0.0854	eb7_1     =  0.0346	
eb8_1     = -4.0130	tb1_1     = -0.1411	tb2_1     = -1.1843	tb3_1     =  1.8139	tb4_1     =  0.1367	
tb5_1     = -1.8139	tb6_1     = -0.1367	tb7_1     = -0.0001	tb8_1     = -2.3192	

CDMFT iteration 80, distance =  1.13e+02, diff param =  9.81e-02, diff hybrid =  1.01e-01
112 minimization steps, time(MIN)/time(ED)=0.00450
sb1_1     =  0.0002	sb2_1     = -0.0000	sb3_1     =  0.0087	sb4_1     = -0.1161	sb5_1     =  0.0087	
sb6_1     = -0.1161	sb7_1     = -0.1462	sb8_1     =  0.0000	eb1_1     = -0.0146	eb2_1     = -3.7860	
eb3_1     = -4.4047	eb4_1     = -0.0604	eb5_1     = -4.4053	eb6_1     = -0.0605	eb7_1     = -0.0399	
eb8_1     = -3.8947	tb1_1     = -0.1128	tb2_1     = -1.1529	tb3_1     =  1.7717	tb4_1     =  0.0847	
tb5_1     = -1.7718	tb6_1     = -0.0848	tb7_1     = -0.0001	tb8_1     = -2.2915	

CDMFT iteration 81, distance =  1.19e+02, diff param =  6.49e-02, diff hybrid =  1.32e-01
220 minimization steps, time(MIN)/time(ED)=0.00450
sb1_1     =  0.0001	sb2_1     = -0.0000	sb3_1     =  0.0111	sb4_1     = -0.1186	sb5_1     =  0.0111	
sb6_1     = -0.1186	sb7_1     = -0.1625	sb8_1     = -0.0000	eb1_1     = -0.1420	eb2_1     = -4.0659	
eb3_1     = -4.3751	eb4_1     = -0.0804	eb5_1     = -4.3754	eb6_1     = -0.0804	eb7_1     = -0.0764	
eb8_1     = -3.9150	tb1_1     = -0.1492	tb2_1     = -1.1712	tb3_1     =  1.7690	tb4_1     =  0.0818	
tb5_1     = -1.7691	tb6_1     = -0.0817	tb7_1     = -0.0000	tb8_1     = -2.3011	

CDMFT iteration 82, distance =  7.78e+01, diff param =  1.34e-01, diff hybrid =  7.04e-02
229 minimization steps, time(MIN)/time(ED)=0.00451
sb1_1     = -0.0000	sb2_1     = -0.0000	sb3_1     =  0.0165	sb4_1     = -0.0768	sb5_1     =  0.0165	
sb6_1     = -0.0768	sb7_1     = -0.1101	sb8_1     =  0.0000	eb1_1     = -0.2453	eb2_1     = -4.4776	
eb3_1     = -4.6875	eb4_1     = -0.1746	eb5_1     = -4.6877	eb6_1     = -0.1746	eb7_1     =  0.0256	
eb8_1     = -3.9109	tb1_1     = -0.1911	tb2_1     = -1.2130	tb3_1     =  1.8144	tb4_1     =  0.1549	
tb5_1     = -1.8144	tb6_1     = -0.1549	tb7_1     =  0.0002	tb8_1     = -2.2952	

CDMFT iteration 83, distance =  7.91e+01, diff param =  1.23e-01, diff hybrid =  1.35e-01
180 minimization steps, time(MIN)/time(ED)=0.00452
sb1_1     = -0.0000	sb2_1     =  0.0000	sb3_1     =  0.0091	sb4_1     = -0.0791	sb5_1     =  0.0091	
sb6_1     = -0.0791	sb7_1     = -0.1360	sb8_1     =  0.0000	eb1_1     = -0.0553	eb2_1     = -3.9462	
eb3_1     = -4.6113	eb4_1     = -0.0821	eb5_1     = -4.6112	eb6_1     = -0.0820	eb7_1     =  0.0323	
eb8_1     = -3.9999	tb1_1     = -0.1346	tb2_1     = -1.1725	tb3_1     =  1.8080	tb4_1     =  0.1337	
tb5_1     = -1.8079	tb6_1     = -0.1337	tb7_1     =  0.0000	tb8_1     = -2.3163	

CDMFT iteration 84, distance =  1.13e+02, diff param =  7.69e-02, diff hybrid =  8.17e-02
112 minimization steps, time(MIN)/time(ED)=0.00449
sb1_1     =  0.0000	sb2_1     = -0.0000	sb3_1     =  0.0088	sb4_1     = -0.1162	sb5_1     =  0.0088	
sb6_1     = -0.1162	sb7_1     = -0.1465	sb8_1     = -0.0000	eb1_1     = -0.0144	eb2_1     = -3.7823	
eb3_1     = -4.4067	eb4_1     = -0.0605	eb5_1     = -4.4067	eb6_1     = -0.0605	eb7_1     = -0.0408	
eb8_1     = -3.8925	tb1_1     = -0.1128	tb2_1     = -1.1524	tb3_1     =  1.7720	tb4_1     =  0.0844	
tb5_1     = -1.7720	tb6_1     = -0.0844	tb7_1     =  0.0000	tb8_1     = -2.2909	

CDMFT iteration 85, distance =  1.19e+02, diff param =  6.61e-02, diff hybrid =  1.27e-01
174 minimization steps, time(MIN)/time(ED)=0.00448
sb1_1     = -0.0000	sb2_1     =  0.0000	sb3_1     =  0.0112	sb4_1     = -0.1185	sb5_1     =  0.0112	
sb6_1     = -0.1185	sb7_1     = -0.1624	sb8_1     =  0.0000	eb1_1     = -0.1438	eb2_1     = -4.0674	
eb3_1     = -4.3757	eb4_1     = -0.0807	eb5_1     = -4.3757	eb6_1     = -0.0807	eb7_1     = -0.0766	
eb8_1     = -3.9150	tb1_1     = -0.1498	tb2_1     = -1.1711	tb3_1     =  1.7692	tb4_1     =  0.0819	
tb5_1     = -1.7692	tb6_1     = -0.0819	tb7_1     = -0.0000	tb8_1     = -2.3012	

CDMFT iteration 86, distance =  7.77e+01, diff param =  1.53e-01, diff hybrid =  7.04e-02
238 minimization steps, time(MIN)/time(ED)=0.00449
sb1_1     = -0.0000	sb2_1     =  0.0000	sb3_1     =  0.0165	sb4_1     = -0.0767	sb5_1     =  0.0165	
sb6_1     = -0.0767	sb7_1     = -0.1896	sb8_1     =  0.0000	eb1_1     = -0.2462	eb2_1     = -4.4894	
eb3_1     = -4.6887	eb4_1     = -0.1751	eb5_1     = -4.6887	eb6_1     = -0.1751	eb7_1     =  0.2034	
eb8_1     = -4.1471	tb1_1     = -0.1916	tb2_1     = -1.2143	tb3_1     =  1.8145	tb4_1     =  0.1552	
tb5_1     = -1.8145	tb6_1     = -0.1552	tb7_1     = -0.0000	tb8_1     = -2.3351	

CDMFT iteration 87, distance =  7.85e+01, diff param =  1.09e-01, diff hybrid =  1.60e-01
158 minimization steps, time(MIN)/time(ED)=0.00450
sb1_1     = -0.0000	sb2_1     =  0.0000	sb3_1     =  0.0093	sb4_1     = -0.0788	sb5_1     =  0.0093	
sb6_1     = -0.0788	sb7_1     = -0.1373	sb8_1     =  0.0000	eb1_1     = -0.0654	eb2_1     = -4.0638	
eb3_1     = -4.6503	eb4_1     = -0.0855	eb5_1     = -4.6503	eb6_1     = -0.0855	eb7_1     =  0.0350	
eb8_1     = -4.0139	tb1_1     = -0.1414	tb2_1     = -1.1850	tb3_1     =  1.8141	tb4_1     =  0.1369	
tb5_1     = -1.8141	tb6_1     = -0.1369	tb7_1     = -0.0000	tb8_1     = -2.3194	

CDMFT iteration 88, distance =  1.13e+02, diff param =  9.95e-02, diff hybrid =  1.00e-01
112 minimization steps, time(MIN)/time(ED)=0.00447
sb1_1     = -0.0002	sb2_1     =  0.0000	sb3_1     =  0.0088	sb4_1     = -0.1162	sb5_1     =  0.0087	
sb6_1     = -0.1162	sb7_1     = -0.1463	sb8_1     = -0.0000	eb1_1     = -0.0145	eb2_1     = -3.7757	
eb3_1     = -4.4093	eb4_1     = -0.0605	eb5_1     = -4.4089	eb6_1     = -0.0604	eb7_1     = -0.0399	
eb8_1     = -3.8936	tb1_1     = -0.1128	tb2_1     = -1.1515	tb3_1     =  1.7725	tb4_1     =  0.0847	
tb5_1     = -1.7725	tb6_1     = -0.0847	tb7_1     =  0.0001	tb8_1     = -2.2911	

CDMFT iteration 89, distance =  1.19e+02, diff param =  8.02e-02, diff hybrid =  1.32e-01
140 minimization steps, time(MIN)/time(ED)=0.00445
sb1_1     = -0.0001	sb2_1     =  0.0000	sb3_1     =  0.0112	sb4_1     = -0.1186	sb5_1     =  0.0112	
sb6_1     = -0.1186	sb7_1     = -0.1626	sb8_1     =  0.0000	eb1_1     = -0.1503	eb2_1     = -4.1340	
eb3_1     = -4.3763	eb4_1     = -0.0806	eb5_1     = -4.3757	eb6_1     = -0.0805	eb7_1     = -0.0767	
eb8_1     = -3.9163	tb1_1     = -0.1528	tb2_1     = -1.1785	tb3_1     =  1.7692	tb4_1     =  0.0818	
tb5_1     = -1.7691	tb6_1     = -0.0818	tb7_1     =  0.0001	tb8_1     = -2.3015	

CDMFT iteration 90, distance =  7.77e+01, diff param =  1.22e-01, diff hybrid =  7.16e-02
237 minimization steps, time(MIN)/time(ED)=0.00447
sb1_1     = -0.0000	sb2_1     =  0.0000	sb3_1     =  0.0164	sb4_1     = -0.0768	sb5_1     =  0.0164	
sb6_1     = -0.0767	sb7_1     = -0.1101	sb8_1     =  0.0000	eb1_1     = -0.2446	eb2_1     = -4.4682	
eb3_1     = -4.6797	eb4_1     = -0.1739	eb5_1     = -4.6796	eb6_1     = -0.1739	eb7_1     =  0.0254	
eb8_1     = -3.9108	tb1_1     = -0.1907	tb2_1     = -1.2122	tb3_1     =  1.8132	tb4_1     =  0.1544	
tb5_1     = -1.8132	tb6_1     = -0.1544	tb7_1     = -0.0000	tb8_1     = -2.2952	

CDMFT iteration 91, distance =  7.92e+01, diff param =  1.19e-01, diff hybrid =  1.34e-01
195 minimization steps, time(MIN)/time(ED)=0.00448
sb1_1     =  0.0001	sb2_1     = -0.0001	sb3_1     =  0.0091	sb4_1     = -0.0792	sb5_1     =  0.0091	
sb6_1     = -0.0792	sb7_1     = -0.1359	sb8_1     =  0.0000	eb1_1     = -0.0554	eb2_1     = -3.9561	
eb3_1     = -4.6104	eb4_1     = -0.0819	eb5_1     = -4.6103	eb6_1     = -0.0819	eb7_1     =  0.0321	
eb8_1     = -3.9979	tb1_1     = -0.1348	tb2_1     = -1.1738	tb3_1     =  1.8078	tb4_1     =  0.1336	
tb5_1     = -1.8078	tb6_1     = -0.1336	tb7_1     = -0.0000	tb8_1     = -2.3158	

CDMFT iteration 92, distance =  1.14e+02, diff param =  7.89e-02, diff hybrid =  8.16e-02
93 minimization steps, time(MIN)/time(ED)=0.00445
sb1_1     =  0.0002	sb2_1     =  0.0000	sb3_1     =  0.0088	sb4_1     = -0.1162	sb5_1     =  0.0088	
sb6_1     = -0.1163	sb7_1     = -0.1466	sb8_1     =  0.0000	eb1_1     = -0.0142	eb2_1     = -3.7747	
eb3_1     = -4.4036	eb4_1     = -0.0603	eb5_1     = -4.4043	eb6_1     = -0.0605	eb7_1     = -0.0410	
eb8_1     = -3.8922	tb1_1     = -0.1127	tb2_1     = -1.1513	tb3_1     =  1.7715	tb4_1     =  0.0842	
tb5_1     = -1.7716	tb6_1     = -0.0843	tb7_1     = -0.0001	tb8_1     = -2.2909	

CDMFT iteration 93, distance =  1.19e+02, diff param =  7.40e-02, diff hybrid =  1.27e-01
144 minimization steps, time(MIN)/time(ED)=0.00444
sb1_1     =  0.0001	sb2_1     = -0.0000	sb3_1     =  0.0111	sb4_1     = -0.1184	sb5_1     =  0.0111	
sb6_1     = -0.1184	sb7_1     = -0.1624	sb8_1     =  0.0000	eb1_1     = -0.1476	eb2_1     = -4.1006	
eb3_1     = -4.3684	eb4_1     = -0.0805	eb5_1     = -4.3686	eb6_1     = -0.0804	eb7_1     = -0.0766	
eb8_1     = -3.9143	tb1_1     = -0.1515	tb2_1     = -1.1747	tb3_1     =  1.7678	tb4_1     =  0.0818	
tb5_1     = -1.7678	tb6_1     = -0.0817	tb7_1     = -0.0000	tb8_1     = -2.3010	

CDMFT iteration 94, distance =  7.78e+01, diff param =  1.51e-01, diff hybrid =  7.07e-02
259 minimization steps, time(MIN)/time(ED)=0.00445
sb1_1     = -0.0000	sb2_1     =  0.0000	sb3_1     =  0.0164	sb4_1     = -0.0767	sb5_1     =  0.0164	
sb6_1     = -0.0767	sb7_1     = -0.1895	sb8_1     = -0.0000	eb1_1     = -0.2470	eb2_1     = -4.5094	
eb3_1     = -4.6800	eb4_1     = -0.1737	eb5_1     = -4.6801	eb6_1     = -0.1737	eb7_1     =  0.2033	
eb8_1     = -4.1452	tb1_1     = -0.1922	tb2_1     = -1.2165	tb3_1     =  1.8131	tb4_1     =  0.1546	
tb5_1     = -1.8132	tb6_1     = -0.1546	tb7_1     =  0.0000	tb8_1     = -2.3347	

CDMFT iteration 95, distance =  7.86e+01, diff param =  1.12e-01, diff hybrid =  1.60e-01
152 minimization steps, time(MIN)/time(ED)=0.00445
sb1_1     =  0.0000	sb2_1     = -0.0000	sb3_1     =  0.0094	sb4_1     = -0.0790	sb5_1     =  0.0094	
sb6_1     = -0.0790	sb7_1     = -0.1369	sb8_1     = -0.0000	eb1_1     = -0.0649	eb2_1     = -4.0668	
eb3_1     = -4.6476	eb4_1     = -0.0851	eb5_1     = -4.6474	eb6_1     = -0.0851	eb7_1     =  0.0342	
eb8_1     = -4.0098	tb1_1     = -0.1412	tb2_1     = -1.1854	tb3_1     =  1.8136	tb4_1     =  0.1365	
tb5_1     = -1.8136	tb6_1     = -0.1365	tb7_1     = -0.0000	tb8_1     = -2.3184	

CDMFT iteration 96, distance =  1.13e+02, diff param =  9.78e-02, diff hybrid =  1.01e-01
138 minimization steps, time(MIN)/time(ED)=0.00443
sb1_1     =  0.0000	sb2_1     =  0.0000	sb3_1     =  0.0087	sb4_1     = -0.1162	sb5_1     =  0.0087	
sb6_1     = -0.1162	sb7_1     = -0.1464	sb8_1     =  0.0000	eb1_1     = -0.0144	eb2_1     = -3.7814	
eb3_1     = -4.4116	eb4_1     = -0.0605	eb5_1     = -4.4116	eb6_1     = -0.0605	eb7_1     = -0.0402	
eb8_1     = -3.8946	tb1_1     = -0.1128	tb2_1     = -1.1523	tb3_1     =  1.7730	tb4_1     =  0.0846	
tb5_1     = -1.7730	tb6_1     = -0.0846	tb7_1     = -0.0000	tb8_1     = -2.2915	

CDMFT iteration 97, distance =  1.19e+02, diff param =  7.56e-02, diff hybrid =  1.32e-01
204 minimization steps, time(MIN)/time(ED)=0.00443
sb1_1     =  0.0000	sb2_1     =  0.0000	sb3_1     =  0.0112	sb4_1     = -0.1186	sb5_1     =  0.0112	
sb6_1     = -0.1186	sb7_1     = -0.1624	sb8_1     = -0.0000	eb1_1     = -0.1487	eb2_1     = -4.1150	
eb3_1     = -4.3758	eb4_1     = -0.0808	eb5_1     = -4.3759	eb6_1     = -0.0808	eb7_1     = -0.0765	
eb8_1     = -3.9158	tb1_1     = -0.1520	tb2_1     = -1.1764	tb3_1     =  1.7692	tb4_1     =  0.0819	
tb5_1     = -1.7692	tb6_1     = -0.0819	tb7_1     = -0.0000	tb8_1     = -2.3014	

CDMFT iteration 98, distance =  7.76e+01, diff param =  1.42e-01, diff hybrid =  7.13e-02
245 minimization steps, time(MIN)/time(ED)=0.00444
sb1_1     = -0.0000	sb2_1     =  0.0000	sb3_1     =  0.0164	sb4_1     = -0.0766	sb5_1     =  0.0164	
sb6_1     = -0.0766	sb7_1     = -0.1897	sb8_1     =  0.0000	eb1_1     = -0.2437	eb2_1     = -4.4591	
eb3_1     = -4.6814	eb4_1     = -0.1739	eb5_1     = -4.6815	eb6_1     = -0.1739	eb7_1     =  0.2038	
eb8_1     = -4.1468	tb1_1     = -0.1904	tb2_1     = -1.2112	tb3_1     =  1.8134	tb4_1     =  0.1546	
tb5_1     = -1.8135	tb6_1     = -0.1546	tb7_1     =  0.0001	tb8_1     = -2.3351	

CDMFT iteration 99, distance =  7.86e+01, diff param =  1.03e-01, diff hybrid =  1.60e-01
110 minimization steps, time(MIN)/time(ED)=0.00443
sb1_1     =  0.0001	sb2_1     = -0.0000	sb3_1     =  0.0093	sb4_1     = -0.0788	sb5_1     =  0.0093	
sb6_1     = -0.0788	sb7_1     = -0.1372	sb8_1     = -0.0000	eb1_1     = -0.0655	eb2_1     = -4.0708	
eb3_1     = -4.6478	eb4_1     = -0.0854	eb5_1     = -4.6478	eb6_1     = -0.0854	eb7_1     =  0.0349	
eb8_1     = -4.0141	tb1_1     = -0.1415	tb2_1     = -1.1858	tb3_1     =  1.8136	tb4_1     =  0.1368	
tb5_1     = -1.8136	tb6_1     = -0.1368	tb7_1     = -0.0000	tb8_1     = -2.3194	

CDMFT iteration 100, distance =  1.13e+02, diff param =  9.90e-02, diff hybrid =  1.00e-01
196 minimization steps, time(MIN)/time(ED)=0.00442
sb1_1     = -0.0002	sb2_1     =  0.0000	sb3_1     =  0.0088	sb4_1     = -0.1162	sb5_1     =  0.0088	
sb6_1     = -0.1162	sb7_1     = -0.1463	sb8_1     =  0.0000	eb1_1     = -0.0145	eb2_1     = -3.7790	
eb3_1     = -4.4111	eb4_1     = -0.0604	eb5_1     = -4.4120	eb6_1     = -0.0606	eb7_1     = -0.0400	
eb8_1     = -3.8935	tb1_1     = -0.1128	tb2_1     = -1.1520	tb3_1     =  1.7729	tb4_1     =  0.0846	
tb5_1     = -1.7730	tb6_1     = -0.0848	tb7_1     = -0.0001	tb8_1     = -2.2911	

CDMFT iteration 101, distance =  1.19e+02, diff param =  7.76e-02, diff hybrid =  1.32e-01
166 minimization steps, time(MIN)/time(ED)=0.00440
sb1_1     =  0.0002	sb2_1     = -0.0000	sb3_1     =  0.0112	sb4_1     = -0.1186	sb5_1     =  0.0111	
sb6_1     = -0.1186	sb7_1     = -0.1625	sb8_1     = -0.0000	eb1_1     = -0.1500	eb2_1     = -4.1228	
eb3_1     = -4.3759	eb4_1     = -0.0807	eb5_1     = -4.3750	eb6_1     = -0.0804	eb7_1     = -0.0766	
eb8_1     = -3.9151	tb1_1     = -0.1525	tb2_1     = -1.1772	tb3_1     =  1.7692	tb4_1     =  0.0819	
tb5_1     = -1.7690	tb6_1     = -0.0817	tb7_1     =  0.0001	tb8_1     = -2.3012	
Traceback (most recent call last):
  File "/home/theod/code_pyqcm/simulations/cdmft_fade_with_mu.py", line 137, in <module>
    fade(fade_func, initial_P, material_P, 20)
  File "/home/theod/.local/lib/python3.8/site-packages/pyqcm/loop.py", line 390, in fade
    F()
  File "/home/theod/code_pyqcm/simulations/cdmft_fade_with_mu.py", line 125, in fade_func
    cdmft(
  File "/home/theod/.local/lib/python3.8/site-packages/pyqcm/cdmft.py", line 514, in cdmft
    raise pyqcm.TooManyIterationsError(maxiter)
pyqcm.TooManyIterationsError: 100
