model	E_kin	E_pot	D	U	e	eb1_1	eb2_1	eb3_1	eb4_1	eb5_1	eb6_1	eb7_1	eb8_1	mu	sb1_1	sb2_1	sb3_1	sb4_1	sb5_1	sb6_1	sb7_1	sb8_1	tb1_1	tb2_1	tb3_1	tb4_1	tb5_1	tb6_1	tb7_1	tb8_1	tpd	tpp	tppp	ave_D	ave_e	ave_mu	ave_tpd	ave_tpp	ave_tppp	ave_U_1	ave_eb1_1	ave_eb2_1	ave_eb3_1	ave_eb4_1	ave_eb5_1	ave_eb6_1	ave_eb7_1	ave_eb8_1	ave_mu_1	ave_sb1_1	ave_sb2_1	ave_sb3_1	ave_sb4_1	ave_sb5_1	ave_sb6_1	ave_sb7_1	ave_sb8_1	ave_tb1_1	ave_tb2_1	ave_tb3_1	ave_tb4_1	ave_tb5_1	ave_tb6_1	ave_tb7_1	ave_tb8_1	ave_e_2	ave_mu_2	ave_tpp_2	ave_tppp_2	var_U_1	var_eb1_1	var_eb2_1	var_eb3_1	var_eb4_1	var_eb5_1	var_eb6_1	var_eb7_1	var_eb8_1	var_mu_1	var_sb1_1	var_sb2_1	var_sb3_1	var_sb4_1	var_sb5_1	var_sb6_1	var_sb7_1	var_sb8_1	var_tb1_1	var_tb2_1	var_tb3_1	var_tb4_1	var_tb5_1	var_tb6_1	var_tb7_1	var_tb8_1	var_e_2	var_mu_2	var_tpp_2	var_tppp_2	E0_1	sector_1	E0_2	sector_2	githash	githash_ED	iterations	dist_function	distance	diff_hybrid	time
2x2_2C_8b_C2v_L	4.160925	1.7080781	0	14	2.3	0.0086839677	-3.1445289	-3.9164807	-0.13437878	-3.9164407	-0.13437791	0.17455273	-3.5797676	9.425	2.7540906e-05	-4.0887161e-07	0.0069035686	-0.19307525	0.0069033966	-0.1930765	-1.0933969e-05	2.552128e-06	-0.11908613	-1.0874005	1.7341014	0.025163995	-1.7340927	-0.025176042	0.26343251	-2.2991102	2.1	1	0.2	0.0099715105	1.2507577	1.6056679	-0.61946352	-0.20598892	0.085472729	0.12910812	0.31117127	1.934433	1.7836759	1.5271592	1.7836746	1.5271532	0.02365835	1.5228057	1.0936303	-0.00025489926	5.4059441e-06	0.12035254	1.2815958	0.12034714	1.2815962	5.7335364e-05	2.3257173e-07	1.2651661	0.75531091	-1.6336668	-0.52455782	1.6336676	0.524605	-0.32390228	2.6201003	2	2	0	0	0.028071109	0.27761032	0.063515111	0.19532969	0.39098989	0.19533063	0.39098809	0.024087691	0.35930075	0.037964746	4.3330549	5.3603469	5.1618792	4.9570537	5.1618836	4.9570788	4.3955078	6.2748649	5.2362356	2.7383467	3.3544889	5.3364837	3.3544818	5.3364857	3.6782048	3.0901187	0	0	0	0	-73.175695	R0:S0:1	-114	uncorrelated	9139229734186278afb231872431450bbb03047e	4285b7c31aa0d693d3be68107b2ffa7d44090957	9	sharp_wc_2.0_beta_50.0	184.85237482498806	3.892191581608371e-05	2020-07-19@02:02
2x2_2C_8b_C2v_L	4.1683494	1.709433	0	14	2.3	0.0086109149	-3.148868	-3.9205337	-0.13377393	-3.9204066	-0.13376193	0.17405793	-3.5835037	9.43	1.8822567e-05	2.6081018e-06	0.0071101895	-0.19259514	0.0071043279	-0.19259074	9.5426738e-06	-1.8666579e-06	-0.1189921	-1.0878097	1.7343638	0.026125046	-1.7343367	-0.02610791	0.26291887	-2.2992988	2.1	1	0.2	0.010251766	1.2509569	1.605989	-0.61870444	-0.20552866	0.085284415	0.12918105	0.30953732	1.9346057	1.7842807	1.5269513	1.7842834	1.5269042	0.023512844	1.5238207	1.0938722	-0.00017823728	1.2560677e-07	0.12026066	1.2799859	0.12026354	1.2801241	-5.5767623e-05	-3.5483987e-06	1.2635591	0.75467676	-1.6316109	-0.5290352	1.6315726	0.52893407	-0.32332523	2.6177727	2	2	0	0	0.028084691	0.2759166	0.063353519	0.19484647	0.39078767	0.19484376	0.39081063	0.023928819	0.35889315	0.037930948	4.3279486	5.3608104	5.1603028	4.9603542	5.1602988	4.960319	4.394544	6.2710435	5.2374233	2.7379724	3.3541135	5.3333011	3.3540356	5.3334604	3.6786287	3.0928916	0	0	0	0	-73.225186	R0:S0:1	-114.08	uncorrelated	9139229734186278afb231872431450bbb03047e	4285b7c31aa0d693d3be68107b2ffa7d44090957	2	sharp_wc_2.0_beta_50.0	184.45988387164704	6.838141933949006e-05	2020-07-17@23:53
2x2_2C_8b_C2v_L	4.1833793	1.7120102	0	14	2.3	0.0083808701	-3.1573202	-3.9284348	-0.13253752	-3.9284234	-0.13253961	0.17303559	-3.5909061	9.44	5.8765628e-06	-1.2871724e-07	0.0074936769	-0.19159591	0.0074959499	-0.19159564	-2.2352077e-06	-3.7719026e-08	-0.11879326	-1.0886082	1.7348816	0.02792794	-1.7348784	-0.027936191	0.26183458	-2.2996904	2.1	1	0.2	0.010765186	1.2513589	1.6066435	-0.61716389	-0.20460247	0.084904966	0.12932856	0.30627394	1.9349514	1.7854762	1.5268414	1.7854738	1.5268564	0.023220938	1.5258548	1.094359	-5.3562656e-05	4.0877646e-07	0.11998515	1.2766144	0.11998343	1.2765646	1.1158357e-05	2.3566366e-07	1.2600943	0.75337238	-1.6275076	-0.53709995	1.6275209	0.53714651	-0.32210921	2.6131038	2	2	0	0	0.028112149	0.27265287	0.063030813	0.1938919	0.39022756	0.19389397	0.39021941	0.023611682	0.35806997	0.03786309	4.3169074	5.3619524	5.1574438	4.9666027	5.1574529	4.9666251	4.3926132	6.2633564	5.2396108	2.7372254	3.3534528	5.3267308	3.3534741	5.3266673	3.6795054	3.0984009	0	0	0	0	-73.323389	R0:S0:1	-114.24	uncorrelated	9139229734186278afb231872431450bbb03047e	4285b7c31aa0d693d3be68107b2ffa7d44090957	2	sharp_wc_2.0_beta_50.0	183.63059647798792	2.562819622086619e-05	2020-07-17@23:29
2x2_2C_8b_C2v_L	4.1986252	1.714801	0	14	2.3	0.0081337821	-3.1653962	-3.9362042	-0.13128101	-3.9361531	-0.13127859	0.17198684	-3.5981939	9.45	-2.6075364e-05	-5.1548069e-06	0.00785106	-0.19058064	0.0078533901	-0.19057481	-1.3741191e-05	2.7674217e-06	-0.11858237	-1.0893468	1.7353691	0.029641617	-1.7353558	-0.029660951	0.26072963	-2.300048	2.1	1	0.2	0.011226367	1.2517661	1.6073062	-0.615601	-0.20366212	0.084520121	0.12947612	0.30284245	1.9353071	1.7866603	1.5271393	1.7866501	1.5271891	0.022927913	1.5279301	1.0948514	0.00024589019	4.8650488e-06	0.119588	1.2727852	0.11958886	1.2725784	8.1949944e-05	4.9889553e-06	1.2561993	0.75197149	-1.6234522	-0.5444096	1.6235121	0.54453564	-0.32085987	2.6083231	2	2	0	0	0.028139624	0.26935308	0.062699873	0.19294821	0.38948548	0.19295708	0.38946773	0.023295017	0.35722159	0.037793447	4.3043718	5.3634014	5.1549121	4.9724685	5.1549473	4.9725343	4.3906774	6.2554618	5.2416751	2.7364634	3.3531044	5.3195083	3.3532034	5.3192702	3.6804298	3.1039855	0	0	0	0	-73.419483	R0:S0:1	-114.4	uncorrelated	9139229734186278afb231872431450bbb03047e	4285b7c31aa0d693d3be68107b2ffa7d44090957	18	sharp_wc_2.0_beta_50.0	182.75842581276046	4.486396642786869e-05	2020-07-17@23:05
2x2_2C_8b_C2v_L	4.2141245	1.7176492	0	14	2.3	0.0078449947	-3.1735011	-3.944137	-0.13003382	-3.9440211	-0.13002698	0.17091165	-3.605428	9.46	-1.3974816e-05	-1.3560511e-06	0.0081828248	-0.18955226	0.0081873749	-0.18954496	-9.7633406e-06	2.8886044e-06	-0.11836257	-1.0900947	1.7359036	0.031295635	-1.7358759	-0.031316504	0.25958833	-2.3004018	2.1	1	0.2	0.011645519	1.252179	1.6079804	-0.61401074	-0.20270694	0.084129301	0.12962483	0.29925752	1.9356746	1.7878369	1.5279329	1.7878265	1.527973	0.022628026	1.5300479	1.0953499	0.00013228652	5.1303721e-07	0.11911265	1.2683808	0.11910977	1.2681989	5.7376701e-05	2.8891879e-06	1.2519339	0.75047398	-1.6194528	-0.55113175	1.6195045	0.55125778	-0.31954767	2.6034327	2	2	0	0	0.028167317	0.2660333	0.06235889	0.19201305	0.38850514	0.19202201	0.38849047	0.022972807	0.35634751	0.037722361	4.2903953	5.3651668	5.1527175	4.9779655	5.1527565	4.9780365	4.3887277	6.2473638	5.2435446	2.735681	3.3531294	5.3113673	3.3532079	5.3111508	3.6813975	3.1096434	0	0	0	0	-73.51624	R0:S0:1	-114.56	uncorrelated	9139229734186278afb231872431450bbb03047e	4285b7c31aa0d693d3be68107b2ffa7d44090957	5	sharp_wc_2.0_beta_50.0	181.8396143228592	3.732681821559773e-05	2020-07-17@21:11
2x2_2C_8b_C2v_L	4.2297932	1.720414	0	14	2.3	0.0075222112	-3.181399	-3.9519125	-0.12877638	-3.9517642	-0.12876757	0.16983213	-3.6126833	9.47	4.4045635e-05	2.7836962e-06	0.0084947796	-0.18849836	0.0084926098	-0.18849678	8.786782e-06	-1.874193e-06	-0.11813344	-1.0908187	1.7364099	0.032897366	-1.7363821	-0.032887929	0.25842805	-2.3007751	2.1	1	0.2	0.01202497	1.2525959	1.6086616	-0.61240257	-0.20174094	0.083734589	0.12977437	0.29559608	1.9360458	1.7889973	1.5291012	1.7889981	1.5290599	0.022328772	1.532197	1.0958529	-0.00041349427	3.7116328e-06	0.11856476	1.2634561	0.11856281	1.2635813	-5.7057297e-05	-6.2597693e-06	1.2473694	0.74892515	-1.6155248	-0.55736803	1.6154933	0.55730505	-0.31820593	2.5984687	2	2	0	0	0.028195156	0.26272972	0.062015223	0.19109255	0.38734993	0.19109134	0.38736779	0.022652618	0.35545187	0.037650175	4.275434	5.3671526	5.1508176	4.9832159	5.1508223	4.9831949	4.386787	6.2391136	5.2453001	2.7348928	3.3534494	5.3025085	3.3533726	5.3026399	3.6823913	3.1153322	0	0	0	0	-73.612009	R0:S0:1	-114.72	uncorrelated	9139229734186278afb231872431450bbb03047e	4285b7c31aa0d693d3be68107b2ffa7d44090957	2	sharp_wc_2.0_beta_50.0	180.88431632520513	4.414183414664844e-05	2020-07-17@20:30
2x2_2C_8b_C2v_L	4.2456022	1.7233692	0	14	2.3	0.0071754077	-3.1892133	-3.9595195	-0.12749438	-3.9594856	-0.1275055	0.16872391	-3.6198375	9.48	3.6339916e-05	1.6675731e-06	0.0087790254	-0.1874244	0.0087817941	-0.18743266	-3.5529311e-06	8.6653851e-07	-0.11789478	-1.0915284	1.7368892	0.034404246	-1.7368831	-0.03441087	0.25724112	-2.3011212	2.1	1	0.2	0.012367216	1.2530159	1.6093467	-0.61078043	-0.20076431	0.083336403	0.12992376	0.29188244	1.9364212	1.7901556	1.5304821	1.7901602	1.530467	0.02203114	1.5343727	1.0963594	-0.00034042872	2.999248e-06	0.11794575	1.2583842	0.11793965	1.2584822	1.1084596e-05	-3.8038083e-06	1.2425175	0.74733329	-1.6115761	-0.56291096	1.6115413	0.56291267	-0.31683631	2.593427	2	2	0	0	0.028222961	0.25944756	0.06166813	0.19017378	0.38610384	0.19016976	0.38609878	0.022335369	0.35453648	0.037576668	4.2596821	5.3693036	5.1491312	4.9881448	5.1491236	4.9881387	4.3848295	6.2307394	5.2470001	2.7341184	3.3538728	5.2934366	3.353815	5.2935225	3.6834289	3.1210596	0	0	0	0	-73.706889	R0:S0:1	-114.88	uncorrelated	9139229734186278afb231872431450bbb03047e	4285b7c31aa0d693d3be68107b2ffa7d44090957	1	sharp_wc_2.0_beta_50.0	179.89712471023506	3.869627108071034e-05	2020-07-17@20:06
2x2_2C_8b_C2v_L	4.2615405	1.7259368	0	14	2.3	0.0067929801	-3.1969334	-3.967145	-0.12622617	-3.9671275	-0.12623044	0.16759557	-3.6269158	9.49	-3.4820669e-05	-4.2285365e-06	0.0090468426	-0.18634019	0.0090515168	-0.18633878	-1.1502653e-05	2.9909012e-06	-0.1176491	-1.0922267	1.7373798	0.035866003	-1.7373742	-0.035886203	0.25602062	-2.3014536	2.1	1	0.2	0.012678793	1.2534388	1.6100363	-0.60914483	-0.19977876	0.08293527	0.13007341	0.28813649	1.9367983	1.7913161	1.5321185	1.7913097	1.5321615	0.021732582	1.5365676	1.0968691	0.00032779478	3.8896639e-06	0.11727607	1.2531094	0.11727368	1.2529516	6.8686809e-05	3.6108677e-06	1.2374491	0.74571196	-1.6076049	-0.5680097	1.6076475	0.56812306	-0.31542436	2.5883302	2	2	0	0	0.028250805	0.25619499	0.061319916	0.18925348	0.38471687	0.18925927	0.38469676	0.022018335	0.35360441	0.037502195	4.2432873	5.3715983	5.1476308	4.9928403	5.1476521	4.992892	4.3828592	6.2222751	5.2486063	2.7333517	3.3544128	5.2840311	3.3544883	5.2838466	3.684498	3.1268004	0	0	0	0	-73.801289	R0:S0:1	-115.04	uncorrelated	9139229734186278afb231872431450bbb03047e	4285b7c31aa0d693d3be68107b2ffa7d44090957	10	sharp_wc_2.0_beta_50.0	178.88050331877307	4.18138215464806e-05	2020-07-17@19:48
2x2_2C_8b_C2v_L	4.277581	1.7286939	0	14	2.3	0.0063838528	-3.2046317	-3.9747828	-0.12496317	-3.9747195	-0.12495475	0.16645618	-3.6339837	9.5	-1.3738748e-05	-2.509061e-06	0.0092992628	-0.18524089	0.0093024854	-0.18523523	-1.3122839e-05	2.0475388e-06	-0.11739787	-1.0929236	1.7378788	0.037289604	-1.7378587	-0.037312229	0.25477793	-2.3017907	2.1	1	0.2	0.012962468	1.2538639	1.6107289	-0.60749905	-0.19878509	0.08253181	0.13022337	0.28436917	1.9371767	1.7924668	1.5340173	1.7924608	1.5340396	0.021434525	1.5387821	1.0973812	0.00013033636	3.7387176e-06	0.11657135	1.2474292	0.11656299	1.2472955	7.8952553e-05	6.922193e-06	1.232186	0.7440672	-1.603691	-0.57277806	1.6037243	0.57289342	-0.31398242	2.5831831	2	2	0	0	0.028278694	0.2529696	0.060970861	0.1883421	0.38320687	0.18834729	0.38319743	0.021702878	0.35265547	0.037426935	4.226359	5.3740155	5.1463267	4.9973541	5.1463462	4.9974215	4.380884	6.2137219	5.2501507	2.7325916	3.3551768	5.2741017	3.3552341	5.2739577	3.6855911	3.1325477	0	0	0	0	-73.895575	R0:S0:1	-115.2	uncorrelated	9139229734186278afb231872431450bbb03047e	4285b7c31aa0d693d3be68107b2ffa7d44090957	5	sharp_wc_2.0_beta_50.0	177.84012257844805	4.559087485979675e-05	2020-07-17@18:39
2x2_2C_8b_C2v_L	4.2937289	1.7318705	0	14	2.3	0.0059462194	-3.2123065	-3.9824687	-0.12369722	-3.9823469	-0.12368656	0.16530405	-3.6410452	9.51	5.1367659e-05	4.5869729e-06	0.0095424276	-0.18412099	0.0095364166	-0.18411959	1.2363274e-05	-3.3457411e-06	-0.11714072	-1.0936199	1.7383883	0.038698614	-1.7383661	-0.038676185	0.2535129	-2.302133	2.1	1	0.2	0.013220341	1.2542913	1.6114246	-0.60584248	-0.19778302	0.082125671	0.13037369	0.28057739	1.9375563	1.7936107	1.5361677	1.7936147	1.5361152	0.021136999	1.5410177	1.0978961	-0.00048626859	-1.910556e-06	0.11581488	1.2413304	0.11581857	1.2415086	-7.6098438e-05	-5.1337074e-06	1.2267299	0.74239958	-1.5998214	-0.57731089	1.5997738	0.57718667	-0.31251088	2.577982	2	2	0	0	0.028306636	0.24976437	0.060620981	0.18743691	0.38156973	0.187433	0.38159556	0.021388976	0.35168879	0.03735083	4.2089078	5.376552	5.1452063	5.0017395	5.1452029	5.0016913	4.3789026	6.2050762	5.2516366	2.7318359	3.3561543	5.2636405	3.3560574	5.2638306	3.6867086	3.1383069	0	0	0	0	-73.990013	R0:S0:1	-115.36	uncorrelated	9139229734186278afb231872431450bbb03047e	4285b7c31aa0d693d3be68107b2ffa7d44090957	3	sharp_wc_2.0_beta_50.0	176.77463541958025	4.369853508805575e-05	2020-07-17@17:58
2x2_2C_8b_C2v_L	4.3099776	1.7345152	0	14	2.3	0.0054724219	-3.2198996	-3.9900184	-0.12243437	-3.9901447	-0.12243762	0.16412157	-3.6479719	9.52	-6.7323984e-06	1.8006481e-06	0.0097651203	-0.18298622	0.0097626924	-0.18298823	1.0465234e-05	-2.178279e-06	-0.1168757	-1.094303	1.7388806	0.040050884	-1.7389087	-0.040032961	0.25221046	-2.3024405	2.1	1	0.2	0.01345483	1.2547209	1.6121229	-0.60417591	-0.19677287	0.081717215	0.13052398	0.27677707	1.937936	1.7947573	1.5384918	1.794762	1.5384824	0.020838355	1.5432664	1.0984133	6.3414008e-05	-5.9756246e-06	0.11503672	1.2351671	0.11504286	1.23523	-5.7862766e-05	-1.7301622e-06	1.2211025	0.74071503	-1.5959028	-0.58138271	1.5958882	0.58130134	-0.31099437	2.5727357	2	2	0	0	0.028334565	0.24659049	0.060271163	0.18652918	0.3798337	0.18652519	0.37984076	0.021074921	0.35070774	0.037273838	4.1910247	5.3791869	5.1442494	5.0058781	5.1442276	5.0058316	4.3768995	6.1963756	5.253059	2.7310919	3.3571579	5.2529979	3.3571417	5.2530802	3.6878596	3.1440717	0	0	0	0	-74.084099	R0:S0:1	-115.52	uncorrelated	9139229734186278afb231872431450bbb03047e	4285b7c31aa0d693d3be68107b2ffa7d44090957	4	sharp_wc_2.0_beta_50.0	175.6855748003911	4.4808107701918485e-05	2020-07-17@17:29
2x2_2C_8b_C2v_L	4.3262728	1.7374823	0	14	2.3	0.004980563	-3.2274139	-3.9977939	-0.12117764	-3.9977096	-0.12116384	0.16292204	-3.654915	9.53	-4.8437537e-05	6.2300099e-07	0.0099769259	-0.18184423	0.0099717907	-0.18183771	1.0145746e-05	-1.7136341e-06	-0.11660675	-1.0949704	1.7394178	0.041367198	-1.7394014	-0.041344344	0.25089249	-2.3027524	2.1	1	0.2	0.013611184	1.2551514	1.6128202	-0.60250575	-0.19575656	0.081307335	0.13067386	0.27300134	1.9383138	1.7959064	1.5409481	1.795906	1.5409296	0.020543729	1.5455306	1.0989317	0.00045874203	-4.8723378e-06	0.1142217	1.2287835	0.11423081	1.2288314	-5.0527933e-05	9.8727451e-07	1.2153346	0.73903077	-1.591995	-0.58516306	1.5919862	0.58506419	-0.30946568	2.567449	2	2	0	0	0.028362398	0.24345714	0.059923259	0.18561915	0.37803213	0.18561937	0.37805038	0.020765828	0.34971104	0.037196092	4.1729502	5.3818651	5.1433778	5.0098831	5.1433842	5.0098431	4.374892	6.18761	5.2544888	2.7303657	3.3582814	5.2421636	3.3582608	5.2422189	3.68903	3.1498322	0	0	0	0	-74.177998	R0:S0:1	-115.68	uncorrelated	9139229734186278afb231872431450bbb03047e	4285b7c31aa0d693d3be68107b2ffa7d44090957	6	sharp_wc_2.0_beta_50.0	174.58006229664483	4.507684476273406e-05	2020-07-17@16:54
2x2_2C_8b_C2v_L	4.3425811	1.7403486	0	14	2.3	0.0044501167	-3.2349988	-4.0054983	-0.11991257	-4.0053801	-0.11989727	0.16169681	-3.6618396	9.54	0.00020165143	8.6657258e-06	0.010174607	-0.18068003	0.010169338	-0.180679	1.3248958e-05	-1.8208301e-06	-0.11633408	-1.095651	1.7399454	0.042654944	-1.7399233	-0.042635511	0.24954984	-2.3030655	2.1	1	0.2	0.013858599	1.2555816	1.613517	-0.60083417	-0.19473833	0.080897581	0.13082338	0.26932106	1.9386856	1.7970453	1.5434924	1.7970512	1.5434172	0.020254039	1.5477915	1.0994491	-0.0019281493	2.3033351e-06	0.11339981	1.2221708	0.11339611	1.2224082	-9.5492407e-05	-1.4463185e-05	1.2095138	0.73737851	-1.5881279	-0.5887301	1.5880638	0.58861533	-0.30792132	2.5621626	2	2	0	0	0.028390142	0.24042177	0.059580932	0.18471698	0.37618391	0.18471125	0.37621824	0.02046259	0.34870722	0.03711823	4.1550339	5.3845237	5.1426062	5.0138459	5.1425975	5.0138165	4.3728716	6.1788616	5.2559159	2.7296748	3.3594827	5.2311765	3.3593473	5.2314329	3.6902211	3.1555385	0	0	0	0	-74.272115	R0:S0:1	-115.84	uncorrelated	9139229734186278afb231872431450bbb03047e	4285b7c31aa0d693d3be68107b2ffa7d44090957	3	sharp_wc_2.0_beta_50.0	173.4612366404986	8.767761394966954e-05	2020-07-17@16:07
2x2_2C_8b_C2v_L	4.359086	1.743007	0	14	2.3	0.0039051318	-3.2425772	-4.0129276	-0.11863007	-4.0130715	-0.11863617	0.16048098	-3.6686758	9.55	-5.1579815e-05	-3.0181214e-06	0.010350563	-0.17948663	0.010349819	-0.17949036	-4.7411231e-06	8.8301909e-07	-0.1160533	-1.0963287	1.7404225	0.04386942	-1.7404515	-0.043871734	0.24817967	-2.3033545	2.1	1	0.2	0.014027554	1.2560168	1.614218	-0.59914427	-0.19370337	0.080482264	0.13097309	0.26551907	1.9390645	1.7981934	1.5463057	1.7981954	1.5463171	0.019960166	1.5500971	1.0999734	0.00049628803	9.6570928e-07	0.11252659	1.2153791	0.11252709	1.2153517	3.2661987e-05	3.9919278e-06	1.2034083	0.73566886	-1.58418	-0.59170862	1.5841882	0.59171792	-0.3063272	2.5567614	2	2	0	0	0.028417919	0.23731771	0.059232347	0.1838077	0.37419868	0.18380615	0.37419296	0.020155987	0.34767392	0.03703826	4.1362138	5.3873634	5.142066	5.0174349	5.1420492	5.0174267	4.3708381	6.1699341	5.2572872	2.7289795	3.3607796	5.2197251	3.3608081	5.219713	3.6914446	3.1613425	0	0	0	0	-74.365385	R0:S0:1	-116	uncorrelated	9139229734186278afb231872431450bbb03047e	4285b7c31aa0d693d3be68107b2ffa7d44090957	3	sharp_wc_2.0_beta_50.0	172.30678889862756	6.177138301900093e-05	2020-07-17@15:38
2x2_2C_8b_C2v_L	4.3755598	1.7460564	0	14	2.3	0.0032906795	-3.2505353	-4.020704	-0.1174047	-4.0208276	-0.11740972	0.15923164	-3.6755725	9.56	-0.0002924983	-7.5234706e-06	0.010532144	-0.17829617	0.010525729	-0.17829599	-1.8335687e-07	4.2299559e-07	-0.1157744	-1.0970683	1.7409821	0.045136207	-1.7410063	-0.045125659	0.24677461	-2.3036809	2.1	1	0.2	0.014185332	1.2564502	1.6149198	-0.59745585	-0.19267194	0.080068874	0.13112333	0.26187047	1.9394353	1.7993341	1.5492197	1.7993337	1.5492586	0.019667361	1.5523799	1.1004943	0.0028330997	-5.3721386e-06	0.1116706	1.2083791	0.11168777	1.2082865	2.4323681e-05	1.0705542e-05	1.1973901	0.73400827	-1.5802825	-0.59486007	1.5803093	0.59482506	-0.30469299	2.5514183	2	2	0	0	0.028445763	0.23436125	0.058891042	0.18290365	0.37211209	0.1829045	0.37209966	0.019851219	0.34664287	0.03695934	4.1178482	5.3901517	5.141566	5.021115	5.1415599	5.0210724	4.3687994	6.1611082	5.2585781	2.7283106	3.3621237	5.208111	3.3621977	5.2080198	3.6926666	3.1670231	0	0	0	0	-74.460799	R0:S0:1	-116.16	uncorrelated	9139229734186278afb231872431450bbb03047e	4285b7c31aa0d693d3be68107b2ffa7d44090957	2	sharp_wc_2.0_beta_50.0	171.14654081021055	0.00010175771107514914	2020-07-17@15:08
2x2_2C_8b_C2v_L	4.3919753	1.7487557	0	14	2.3	0.00267222	-3.2582649	-4.028445	-0.11613844	-4.0284425	-0.11613549	0.15790317	-3.6823042	9.57	-4.6203323e-05	-2.2041921e-06	0.0106965	-0.1770887	0.010693932	-0.17708944	1.3046848e-06	-1.8450622e-06	-0.11549246	-1.0977615	1.7415236	0.046330417	-1.7415229	-0.046327585	0.24534401	-2.3039411	2.1	1	0.2	0.014322355	1.2568819	1.615614	-0.59577547	-0.19163946	0.079656492	0.13127117	0.25832773	1.9397977	1.8004711	1.5520498	1.8004722	1.5520435	0.019385128	1.5546559	1.1010129	0.00045086819	2.6761129e-06	0.11077361	1.2013116	0.11077441	1.201335	-3.4202483e-06	2.9268899e-06	1.1913175	0.73239721	-1.5764053	-0.5976419	1.5763983	0.59762171	-0.30306893	2.5460649	2	2	0	0	0.028473147	0.23147699	0.058557435	0.18200109	0.37009495	0.18200007	0.37009878	0.019557855	0.34560578	0.036879778	4.0998983	5.3928304	5.1410694	5.0247597	5.141067	5.024749	4.366726	6.1523162	5.2600033	2.7277019	3.363477	5.1967598	3.3634677	5.1967852	3.693929	3.1726616	0	0	0	0	-74.554718	R0:S0:1	-116.32	uncorrelated	9139229734186278afb231872431450bbb03047e	4285b7c31aa0d693d3be68107b2ffa7d44090957	8	sharp_wc_2.0_beta_50.0	169.98153295686436	6.772648782103961e-05	2020-07-17@14:44
2x2_2C_8b_C2v_L	4.4085879	1.7515784	0	14	2.3	0.0020202372	-3.265901	-4.0361388	-0.11489225	-4.0359522	-0.11487983	0.15658451	-3.6890283	9.58	0.00030536879	8.0122302e-06	0.010840084	-0.17586189	0.010835846	-0.17585862	1.2314631e-05	-2.5522814e-06	-0.11520387	-1.0984429	1.7420652	0.047490691	-1.7420295	-0.047468496	0.24388043	-2.3042068	2.1	1	0.2	0.014441833	1.2573186	1.6163139	-0.59407621	-0.19059113	0.079238787	0.13142008	0.25470803	1.9401647	1.8016116	1.5552654	1.8016145	1.5552131	0.019096741	1.5569738	1.1015381	-0.0030115804	-2.9410831e-06	0.10986843	1.1938011	0.10987142	1.1939806	-8.632814e-05	-1.0905357e-05	1.1850154	0.73073545	-1.5725193	-0.60003275	1.5724689	0.59992383	-0.30138023	2.5406174	2	2	0	0	0.028500721	0.22857491	0.058219802	0.1810973	0.36786997	0.18109432	0.36789668	0.019259062	0.34454028	0.036798547	4.0811634	5.3956936	5.1408155	5.0280172	5.1408255	5.027993	4.3646577	6.1433635	5.2613224	2.7270723	3.3650837	5.1845664	3.3649754	5.1847348	3.6952032	3.1783791	0	0	0	0	-74.648176	R0:S0:1	-116.48	uncorrelated	9139229734186278afb231872431450bbb03047e	4285b7c31aa0d693d3be68107b2ffa7d44090957	4	sharp_wc_2.0_beta_50.0	168.78256418681713	4.1205894960968855e-05	2020-07-17@13:45
2x2_2C_8b_C2v_L	4.4251359	1.7543876	0	14	2.3	0.0013470816	-3.2738476	-4.0436769	-0.11361416	-4.0437737	-0.11362017	0.15520911	-3.6956862	9.59	-0.00058327745	-4.2319779e-06	0.010973311	-0.17462296	0.010972367	-0.17462248	-3.1470069e-06	4.549203e-07	-0.11491713	-1.0991643	1.7425726	0.048605654	-1.7425887	-0.048606987	0.24239975	-2.3044481	2.1	1	0.2	0.014546776	1.257753	1.6170083	-0.5923842	-0.18954443	0.078822822	0.1315671	0.25125562	1.9405234	1.8027542	1.5582966	1.8027529	1.5583376	0.018816954	1.5592761	1.1020594	0.0058122236	-9.4066571e-06	0.10893685	1.18654	0.1089456	1.1864269	3.9412636e-05	1.2548646e-05	1.1787441	0.72913739	-1.5685667	-0.60217609	1.5685956	0.6021909	-0.29969905	2.5351874	2	2	0	0	0.028527921	0.22581504	0.057889528	0.18018881	0.36573264	0.18019034	0.36571476	0.01896955	0.3434732	0.03671737	4.063072	5.3984202	5.1405494	5.0313444	5.1405457	5.0313287	4.3625572	6.1344844	5.2626953	2.7265105	3.3664698	5.172916	3.3665457	5.1728016	3.6965082	3.1840172	0	0	0	0	-74.742377	R0:S0:1	-116.64	uncorrelated	9139229734186278afb231872431450bbb03047e	4285b7c31aa0d693d3be68107b2ffa7d44090957	7	sharp_wc_2.0_beta_50.0	167.58031210596613	0.00012087071724975204	2020-07-18@13:28
2x2_2C_8b_C2v_L	4.4418359	1.7570698	0	14	2.3	0.00061127941	-3.2821015	-4.0514107	-0.11237539	-4.0513392	-0.11236598	0.15384443	-3.7023576	9.6	0.0011414271	6.8860125e-06	0.011099882	-0.17335214	0.011098543	-0.1733506	-1.901193e-07	2.4311379e-08	-0.1146232	-1.099935	1.7431326	0.049720639	-1.7431173	-0.049720697	0.24087787	-2.3047091	2.1	1	0.2	0.014637316	1.2581908	1.6177089	-0.59067605	-0.18848777	0.078403496	0.13171493	0.24788129	1.940883	1.8038936	1.5617032	1.8038953	1.5616665	0.018532579	1.5615977	1.1025844	-0.011517613	5.1627671e-07	0.10801393	1.1786693	0.10800728	1.1787591	-1.62141e-05	-7.8123291e-06	1.1723468	0.72752881	-1.5646757	-0.60415838	1.5646492	0.60415115	-0.29795188	2.5297141	2	2	0	0	0.028555255	0.22320132	0.057558532	0.17928453	0.36337339	0.17928268	0.36339018	0.018676093	0.34238802	0.036635292	4.0447639	5.4012282	5.1404539	5.0344434	5.1404545	5.0344658	4.3604513	6.1255421	5.2639086	2.7259556	3.3681604	5.1604209	3.3680993	5.1605161	3.6978213	3.1896699	0	0	0	0	-74.837251	R0:S0:1	-116.8	uncorrelated	9139229734186278afb231872431450bbb03047e	4285b7c31aa0d693d3be68107b2ffa7d44090957	8	sharp_wc_2.0_beta_50.0	166.34628428529825	5.706382799585383e-05	2020-07-18@14:31
2x2_2C_8b_C2v_L	4.4584375	1.7597092	0	14	2.3	-0.00016870127	-3.2898946	-4.0591718	-0.11113391	-4.0591192	-0.11112751	0.15241996	-3.7089959	9.61	0.0031010559	-2.2018869e-06	0.011225258	-0.17207219	0.01122126	-0.17206922	6.5476593e-06	-1.1555657e-06	-0.1142984	-1.1006282	1.7436982	0.050857583	-1.7436886	-0.05083703	0.23932228	-2.3049632	2.1	1	0.2	0.014718895	1.2586254	1.6184052	-0.58897777	-0.18743656	0.077987077	0.13186225	0.24551881	1.9412303	1.805028	1.5649836	1.8050279	1.5649848	0.018252518	1.5638902	1.103105	-0.031748655	-6.2660054e-06	0.10707922	1.1709256	0.10709082	1.1709451	-2.2274699e-05	5.9688253e-06	1.1657082	0.72597358	-1.5607677	-0.60620293	1.560765	0.60611544	-0.29617956	2.5243097	2	2	0	0	0.028582466	0.22201535	0.057238706	0.1783817	0.36104776	0.17838183	0.36105377	0.018387551	0.34130799	0.036554044	4.0277344	5.4039425	5.1403516	5.0376971	5.1403576	5.0376489	4.358346	6.1167225	5.2644215	2.7254101	3.3696851	5.14828	3.3696864	5.1482927	3.6991278	3.1951916	0	0	0	0	-74.931701	R0:S0:1	-116.96	uncorrelated	9139229734186278afb231872431450bbb03047e	4285b7c31aa0d693d3be68107b2ffa7d44090957	2	sharp_wc_2.0_beta_50.0	165.1151849522878	4.237696009641926e-05	2020-07-18@14:57
2x2_2C_8b_C2v_L	4.4750951	1.7625006	0	14	2.3	-0.00097078178	-3.2979859	-4.0666889	-0.1098723	-4.0668815	-0.10988476	0.15094978	-3.7155225	9.62	0.0015409621	-9.8731996e-06	0.011333079	-0.1707712	0.011331976	-0.17077305	-9.2191895e-06	1.8997899e-06	-0.11404256	-1.1013627	1.7442166	0.051920895	-1.7442532	-0.051922163	0.23773477	-2.3051766	2.1	1	0.2	0.014784503	1.2590611	1.6190998	-0.58727516	-0.18637813	0.077568919	0.13200828	0.2414009	1.9415753	1.8061638	1.5683357	1.8061613	1.5684053	0.017974844	1.5661943	1.1036264	-0.016030845	-1.5249569e-05	0.10612604	1.1630877	0.10614057	1.1628948	9.795323e-05	2.6400853e-05	1.1597011	0.72444025	-1.5568273	-0.60779917	1.5568839	0.60781157	-0.2943803	2.51886	2	2	0	0	0.028609427	0.21815242	0.056920928	0.17747701	0.35869166	0.17747997	0.35866103	0.018102007	0.34021338	0.036471749	4.0093269	5.4066297	5.1403576	5.0407451	5.1403454	5.0406952	4.3562109	6.1078731	5.266422	2.7249158	3.3712269	5.1360464	3.3713661	5.1358669	3.7004682	3.2007237	0	0	0	0	-75.025851	R0:S0:1	-117.12	uncorrelated	9139229734186278afb231872431450bbb03047e	4285b7c31aa0d693d3be68107b2ffa7d44090957	3	sharp_wc_2.0_beta_50.0	163.8643684004847	4.499533732980125e-05	2020-07-18@15:28
2x2_2C_8b_C2v_L	4.4917774	1.7651535	0	14	2.3	-0.0018116472	-3.3063671	-4.0744942	-0.10862811	-4.0745104	-0.10861906	0.14943256	-3.7220434	9.63	-0.00028003742	6.1121399e-06	0.011429658	-0.169461	0.01142617	-0.16946421	1.595521e-05	-3.303489e-06	-0.11376748	-1.1021303	1.744789	0.052977811	-1.7447968	-0.052953	0.23611981	-2.3053872	2.1	1	0.2	0.014837906	1.259497	1.6197934	-0.58557053	-0.18531586	0.077150292	0.1321533	0.2379201	1.9419161	1.8072957	1.5718167	1.8073023	1.571766	0.017700443	1.5685	1.1041469	0.0029671057	2.6835551e-08	0.10517543	1.1548431	0.10517536	1.1550386	-0.00010536457	-1.1124747e-05	1.1534804	0.72293751	-1.5529572	-0.60928466	1.5529073	0.60916317	-0.29255853	2.5133982	2	2	0	0	0.028636182	0.21518846	0.05660687	0.1765757	0.35626144	0.17656954	0.35628938	0.017820292	0.3391091	0.036389047	3.9916718	5.4092599	5.1404055	5.0437036	5.1403919	5.0436647	4.3540573	6.0990312	5.2680071	2.7244628	3.3729681	5.1234967	3.3728705	5.1236951	3.7018262	3.2062227	0	0	0	0	-75.120906	R0:S0:1	-117.28	uncorrelated	9139229734186278afb231872431450bbb03047e	4285b7c31aa0d693d3be68107b2ffa7d44090957	91	sharp_wc_2.0_beta_50.0	162.5983438762304	4.69971572364475e-05	2020-07-19@01:11
2x2_2C_8b_C2v_L	4.5084688	1.7678272	0	14	2.3	-0.0026934032	-3.3147432	-4.0822369	-0.10737142	-4.0822445	-0.10737449	0.14787295	-3.7284662	9.64	-0.00018673458	1.4527397e-06	0.011515857	-0.1681309	0.011518205	-0.16813469	-7.7045365e-06	1.8977529e-06	-0.1134845	-1.1028948	1.7453583	0.053990835	-1.7453587	-0.054005901	0.23446794	-2.3055704	2.1	1	0.2	0.014880498	1.2599325	1.620486	-0.58386505	-0.18425165	0.076731632	0.13229767	0.2347968	1.9422504	1.8084321	1.575279	1.808434	1.5752627	0.017426913	1.5707978	1.1046663	0.0020185432	9.4842644e-06	0.10421771	1.1467275	0.10420657	1.1467621	2.6768887e-05	-7.4833984e-06	1.1471776	0.72146815	-1.5490195	-0.61048181	1.5490046	0.6105359	-0.29069807	2.5079459	2	2	0	0	0.0286628	0.21271646	0.056298641	0.17566872	0.35382288	0.17566692	0.35382541	0.017539961	0.33799996	0.036306183	3.9745178	5.4118456	5.140511	5.046575	5.1405065	5.0466137	4.3518866	6.0902363	5.2693373	2.7240369	3.3745735	5.1111235	3.3745425	5.1111599	3.7031984	3.211668	0	0	0	0	-75.21585	R0:S0:1	-117.44	uncorrelated	9139229734186278afb231872431450bbb03047e	4285b7c31aa0d693d3be68107b2ffa7d44090957	9	sharp_wc_2.0_beta_50.0	161.31896500037553	3.8312380565787225e-05	2020-07-19@02:21
2x2_2C_8b_C2v_L	4.525198	1.7704478	0	14	2.3	-0.0036144442	-3.3234465	-4.0898693	-0.10610747	-4.0899775	-0.10612077	0.14625911	-3.7348583	9.65	0.00011356036	-5.0456115e-06	0.011590365	-0.16678465	0.011596023	-0.16678467	-1.6463011e-05	3.11616e-06	-0.11320537	-1.1037003	1.745907	0.054979388	-1.7459241	-0.055008307	0.23278179	-2.3057431	2.1	1	0.2	0.014910756	1.2603686	1.6211779	-0.58215617	-0.18318291	0.076312223	0.13244102	0.23176488	1.9425806	1.809569	1.5787761	1.8095645	1.5788243	0.017155903	1.5730979	1.1051853	-0.0012584974	-1.2967302e-06	0.10323935	1.138512	0.1032342	1.1383206	0.00010826287	1.2036961e-05	1.1408837	0.72003116	-1.5450571	-0.61146339	1.5451078	0.61159619	-0.28880722	2.5024789	2	2	0	0	0.028689212	0.21032809	0.055994177	0.17476014	0.35135396	0.17476448	0.35132546	0.017262661	0.33688074	0.036222784	3.9576791	5.4143729	5.1406903	5.0493796	5.1406855	5.0494151	4.3496962	6.081449	5.27067	2.7236567	3.376162	5.0987007	3.3762659	5.0985295	3.7045883	3.2170874	0	0	0	0	-75.311118	R0:S0:1	-117.6	uncorrelated	9139229734186278afb231872431450bbb03047e	4285b7c31aa0d693d3be68107b2ffa7d44090957	5	sharp_wc_2.0_beta_50.0	160.02121119461694	5.110811675378146e-05	2020-07-19@03:05
2x2_2C_8b_C2v_L	4.5419237	1.7731904	0	14	2.3	-0.0045900908	-3.3321334	-4.0975993	-0.10485659	-4.0977328	-0.10486592	0.14460465	-3.7412304	9.66	0.00015635942	-3.2506126e-06	0.011664205	-0.16541553	0.01166236	-0.16541437	-5.0425683e-06	1.0352238e-06	-0.11292962	-1.1044972	1.7464752	0.055992127	-1.7464998	-0.055984857	0.2310575	-2.3059129	2.1	1	0.2	0.014932322	1.2608039	1.6218691	-0.58044723	-0.18211381	0.075893282	0.13258376	0.22884409	1.942903	1.8106988	1.5823416	1.8106973	1.5823822	0.016886032	1.5753864	1.1057022	-0.0017783873	-1.5508993e-05	0.10225936	1.1300137	0.10227261	1.1299077	5.6108147e-05	1.6164953e-05	1.1346592	0.71863439	-1.541138	-0.61248714	1.5411721	0.61246692	-0.28687626	2.4970367	2	2	0	0	0.028715489	0.20803912	0.05569666	0.17385674	0.34882219	0.17385843	0.34880419	0.016986958	0.33575854	0.03613947	3.9412598	5.4168325	5.1409145	5.0522179	5.1409031	5.0521719	4.3474977	6.0727217	5.2719807	2.7233017	3.3778189	5.0860924	3.3779022	5.086005	3.7059801	3.2224356	0	0	0	0	-75.406615	R0:S0:1	-117.76	uncorrelated	9139229734186278afb231872431450bbb03047e	4285b7c31aa0d693d3be68107b2ffa7d44090957	2	sharp_wc_2.0_beta_50.0	158.7098184503284	2.9095136246856277e-05	2020-07-19@03:30
2x2_2C_8b_C2v_L	4.5586861	1.7757388	0	14	2.3	-0.0055848876	-3.3412301	-4.1054062	-0.10359325	-4.1054308	-0.10359816	0.14286952	-3.7474758	9.67	-3.1556673e-05	1.6344071e-06	0.011716923	-0.16403782	0.011718825	-0.16404078	3.8395484e-06	-5.5849584e-07	-0.11266062	-1.1053435	1.747053	0.056931091	-1.7470613	-0.056931793	0.22929952	-2.3060322	2.1	1	0.2	0.01494192	1.2612397	1.6225581	-0.57873579	-0.18103887	0.075473291	0.13272463	0.2259922	1.9432227	1.811832	1.5859478	1.8118326	1.5859445	0.016618523	1.5776801	1.1062184	0.00036937256	1.4608785e-06	0.10127741	1.1213997	0.10127531	1.1214225	-2.9614523e-05	-5.3286686e-06	1.1284289	0.71726687	-1.537212	-0.61309805	1.537208	0.61309951	-0.28491835	2.491561	2	2	0	0	0.028741411	0.20580585	0.055401537	0.17294971	0.34628137	0.17294913	0.34628132	0.016714048	0.33462497	0.036055347	3.9251251	5.4192255	5.1411862	5.0548408	5.1411838	5.0548417	4.3452616	6.0639934	5.2733156	2.7230045	3.3795366	5.0734458	3.3795231	5.0734653	3.707407	3.2277774	0	0	0	0	-75.502603	R0:S0:1	-117.92	uncorrelated	9139229734186278afb231872431450bbb03047e	4285b7c31aa0d693d3be68107b2ffa7d44090957	2	sharp_wc_2.0_beta_50.0	157.38169908311846	3.7187561905480426e-05	2020-07-19@03:56
2x2_2C_8b_C2v_L	4.5754422	1.7783555	0	14	2.3	-0.006655534	-3.3502828	-4.1133163	-0.10235806	-4.113222	-0.1023468	0.14108001	-3.7537133	9.68	-0.0001012231	7.5002141e-06	0.011771903	-0.16264369	0.011773954	-0.16264057	1.0013529e-05	-2.0059213e-06	-0.11240159	-1.1061747	1.7476608	0.057892245	-1.7476438	-0.057886658	0.22749261	-2.3061557	2.1	1	0.2	0.014944412	1.2616746	1.6232478	-0.57702378	-0.17996511	0.075054391	0.13286513	0.22328418	1.9435328	1.8129628	1.5895992	1.8129636	1.589563	0.016350881	1.5799543	1.1067318	0.0012267933	4.0324629e-06	0.10029877	1.1126728	0.10029108	1.1127659	-8.3074559e-05	-1.5045478e-05	1.1223499	0.71594808	-1.5332835	-0.61372145	1.5332576	0.61370552	-0.28290524	2.4861338	2	2	0	0	0.028767241	0.20370458	0.055115053	0.17204345	0.34367565	0.17204235	0.34369617	0.01644145	0.33349265	0.035971658	3.909567	5.4215331	5.1415007	5.0574868	5.1415093	5.0575177	4.3430231	6.0553591	5.2745865	2.7227312	3.3812171	5.060748	3.3811484	5.0608311	3.7088257	3.2330265	0	0	0	0	-75.59905	R0:S0:1	-118.08	uncorrelated	9139229734186278afb231872431450bbb03047e	4285b7c31aa0d693d3be68107b2ffa7d44090957	3	sharp_wc_2.0_beta_50.0	156.03792800898472	6.668808773248729e-05	2020-07-19@04:27
2x2_2C_8b_C2v_L	4.5922007	1.7810664	0	14	2.3	-0.0077533395	-3.3598101	-4.1210051	-0.10108493	-4.1209737	-0.10107684	0.13924155	-3.7598667	9.69	3.1182783e-06	2.2902881e-06	0.011808783	-0.16122326	0.011808035	-0.16122447	6.1300594e-06	-5.0380491e-07	-0.11214426	-1.1070711	1.7482277	0.058800683	-1.748223	-0.058789389	0.22565809	-2.3062498	2.1	1	0.2	0.014935731	1.2621091	1.6239344	-0.57531215	-0.17888886	0.074635067	0.13300412	0.22066352	1.9438385	1.8140892	1.5932067	1.8140915	1.5931894	0.016087201	1.5822264	1.1072438	-3.61039e-05	-3.4147993e-06	0.099305778	1.1039107	0.099306089	1.1039848	-3.3857877e-05	-7.4834669e-07	1.1162805	0.71467092	-1.5293418	-0.61406405	1.5293218	0.61400759	-0.28087441	2.4806934	2	2	0	0	0.028792781	0.20167506	0.054832488	0.17113916	0.34110037	0.17113699	0.34111177	0.016173192	0.33235268	0.035887492	3.8943975	5.4237539	5.1418724	5.0600852	5.1418726	5.0600665	4.3407526	6.0467518	5.2759004	2.7225188	3.3828373	5.0481515	3.3828014	5.0482148	3.710274	3.2382436	0	0	0	0	-75.695591	R0:S0:1	-118.24	uncorrelated	9139229734186278afb231872431450bbb03047e	4285b7c31aa0d693d3be68107b2ffa7d44090957	2	sharp_wc_2.0_beta_50.0	154.67646806015247	4.107195066802066e-05	2020-07-19@04:53
2x2_2C_8b_C2v_L	4.608989	1.7835643	0	14	2.3	-0.00891859	-3.3693566	-4.1286275	-0.099806922	-4.1287512	-0.099817678	0.13733645	-3.7659697	9.7	-1.8128068e-05	-2.6569007e-07	0.011837058	-0.15977602	0.011839558	-0.15978056	-6.6297146e-06	1.4466473e-06	-0.11189817	-1.1079589	1.7487828	0.059688115	-1.748807	-0.059699991	0.22377428	-2.3063301	2.1	1	0.2	0.014919117	1.2625435	1.6246227	-0.57359665	-0.17781072	0.074216457	0.13314206	0.21818453	1.944135	1.8152147	1.5968423	1.815216	1.5968459	0.015824577	1.5844836	1.1077535	0.00023468256	3.9509886e-06	0.098321909	1.0950479	0.098316064	1.09503	3.0773704e-05	-2.3582113e-06	1.1103565	0.71344632	-1.5253871	-0.61423675	1.5253919	0.61428288	-0.27879463	2.4752835	2	2	0	0	0.028818105	0.19977253	0.054558207	0.17023433	0.33848878	0.17023325	0.33848321	0.015906386	0.33121172	0.035803348	3.8798392	5.4258686	5.1422876	5.0626413	5.1422726	5.0626552	4.3384702	6.0382214	5.2771693	2.7223484	3.3844282	5.0355444	3.3844405	5.0355444	3.7117244	3.2433888	0	0	0	0	-75.791988	R0:S0:1	-118.4	uncorrelated	9139229734186278afb231872431450bbb03047e	4285b7c31aa0d693d3be68107b2ffa7d44090957	5	sharp_wc_2.0_beta_50.0	153.29533001306945	3.241310186502988e-05	2020-07-19@05:38
2x2_2C_8b_C2v_L	4.6929599	1.7964087	0	14	2.3	-0.015489917	-3.421427	-4.1675413	-0.093393124	-4.1674778	-0.09340068	0.12657821	-3.7954343	9.75	-3.3772252e-05	2.3705782e-06	0.011839247	-0.15234899	0.011839203	-0.15234768	-7.5097819e-06	3.9829315e-07	-0.11086038	-1.1128552	1.7517302	0.063766784	-1.7517155	-0.063779703	0.21370186	-2.3063336	2.1	1	0.2	0.014713112	1.2647062	1.6280452	-0.56501175	-0.17240577	0.072130759	0.1338087	0.20777088	1.945512	1.8208093	1.614963	1.8208097	1.6149454	0.014538211	1.5955937	1.1102592	0.00062217132	1.5658142e-05	0.093323382	1.0492742	0.09331765	1.0492981	2.5589486e-06	-1.8939777e-05	1.0825847	0.70806905	-1.5056606	-0.61260424	1.5056425	0.61267002	-0.26779885	2.4484679	2	2	0	0	0.028940253	0.19203689	0.053281788	0.16571768	0.32535285	0.16571712	0.32535867	0.014604304	0.32547363	0.035381915	3.8159398	5.4347879	5.1448121	5.0747075	5.1448227	5.0747757	4.3266924	5.9965512	5.2832904	2.7223213	3.3921615	4.9729404	3.3921179	4.9729519	3.7192112	3.2682298	0	0	0	0	-76.281563	R0:S0:1	-119.2	uncorrelated	9139229734186278afb231872431450bbb03047e	4285b7c31aa0d693d3be68107b2ffa7d44090957	22	sharp_wc_2.0_beta_50.0	146.10683587822984	3.618817885384827e-05	2020-07-22@11:05
