Number of OpenMP threads = 4
!!!!!!!!!!!!!!!!!!!!!!!!!!!!! - Fading to Sr2CuO2Cl2 - !!!!!!!!!!!!!!!!!!!!!!!!!!!!!
reading data file /home/theod/code_pyqcm/simulations/cdmft_max_supra_sid.tsv, line 1
111 columns read
----->  D  =  0.0
----->  U  =  14.0
----->  e  =  2.3
----->  eb1_1  =  -0.006655534
----->  eb2_1  =  -3.3502828
----->  eb3_1  =  -4.1133163
----->  eb4_1  =  -0.10235806
----->  eb5_1  =  -4.113222
----->  eb6_1  =  -0.1023468
----->  eb7_1  =  0.14108001
----->  eb8_1  =  -3.7537133
----->  mu  =  9.68
----->  sb1_1  =  -0.0001012231
----->  sb2_1  =  7.5002141e-06
----->  sb3_1  =  0.011771903
----->  sb4_1  =  -0.16264369
----->  sb5_1  =  0.011773954
----->  sb6_1  =  -0.16264057
----->  sb7_1  =  1.0013529e-05
----->  sb8_1  =  -2.0059213e-06
----->  tb1_1  =  -0.11240159
----->  tb2_1  =  -1.1061747
----->  tb3_1  =  1.7476608
----->  tb4_1  =  0.057892245
----->  tb5_1  =  -1.7476438
----->  tb6_1  =  -0.057886658
----->  tb7_1  =  0.22749261
----->  tb8_1  =  -2.3061557
----->  tpd  =  2.1
----->  tpp  =  1.0
----->  tppp  =  0.2

******************************* CDMFT procedure *******************************

minimization method =  CG
mixing state =  1
frequency grid type =  sharp
fictitious inverse temperature =  50
frequency cutoff =  2.0
--------------------------------------------------------------------------------

CDMFT iteration 1, distance =  1.66e+02, diff param =  6.28e-02
109 minimization steps, time(MIN)/time(ED)=0.00306
sb1_1     =  0.0001	sb2_1     = -0.0000	sb3_1     =  0.0101	sb4_1     = -0.1828	sb5_1     =  0.0101	
sb6_1     = -0.1828	sb7_1     = -0.0000	sb8_1     = -0.0000	eb1_1     =  0.0073	eb2_1     = -3.2338	
eb3_1     = -3.9549	eb4_1     = -0.1166	eb5_1     = -3.9549	eb6_1     = -0.1166	eb7_1     =  0.1566	
eb8_1     = -3.5857	tb1_1     = -0.1179	tb2_1     = -1.1027	tb3_1     =  1.7425	tb4_1     =  0.0430	
tb5_1     = -1.7425	tb6_1     = -0.0430	tb7_1     =  0.2521	tb8_1     = -2.3027	

CDMFT iteration 2, distance =  1.92e+02, diff param =  1.04e-02, diff hybrid =  9.65e-02
27 minimization steps, time(MIN)/time(ED)=0.00205
sb1_1     = -0.0000	sb2_1     = -0.0000	sb3_1     =  0.0065	sb4_1     = -0.1960	sb5_1     =  0.0065	
sb6_1     = -0.1960	sb7_1     =  0.0000	sb8_1     =  0.0000	eb1_1     =  0.0127	eb2_1     = -3.2308	
eb3_1     = -3.9529	eb4_1     = -0.1357	eb5_1     = -3.9529	eb6_1     = -0.1357	eb7_1     =  0.1720	
eb8_1     = -3.5954	tb1_1     = -0.1194	tb2_1     = -1.0972	tb3_1     =  1.7359	tb4_1     =  0.0236	
tb5_1     = -1.7359	tb6_1     = -0.0236	tb7_1     =  0.2660	tb8_1     = -2.2954	

CDMFT iteration 3, distance =  1.79e+02, diff param =  1.63e-02, diff hybrid =  4.46e-02
78 minimization steps, time(MIN)/time(ED)=0.00204
sb1_1     =  0.0001	sb2_1     = -0.0000	sb3_1     =  0.0080	sb4_1     = -0.1889	sb5_1     =  0.0080	
sb6_1     = -0.1889	sb7_1     = -0.0000	sb8_1     =  0.0000	eb1_1     =  0.0052	eb2_1     = -3.1595	
eb3_1     = -3.9329	eb4_1     = -0.1315	eb5_1     = -3.9329	eb6_1     = -0.1315	eb7_1     =  0.1731	
eb8_1     = -3.6012	tb1_1     = -0.1181	tb2_1     = -1.0893	tb3_1     =  1.7364	tb4_1     =  0.0303	
tb5_1     = -1.7364	tb6_1     = -0.0303	tb7_1     =  0.2587	tb8_1     = -2.3028	

CDMFT iteration 4, distance =  1.82e+02, diff param =  1.84e-03, diff hybrid =  2.65e-02
28 minimization steps, time(MIN)/time(ED)=0.00174
sb1_1     = -0.0000	sb2_1     =  0.0000	sb3_1     =  0.0079	sb4_1     = -0.1903	sb5_1     =  0.0079	
sb6_1     = -0.1903	sb7_1     =  0.0000	sb8_1     = -0.0000	eb1_1     =  0.0075	eb2_1     = -3.1603	
eb3_1     = -3.9327	eb4_1     = -0.1298	eb5_1     = -3.9327	eb6_1     = -0.1298	eb7_1     =  0.1702	
eb8_1     = -3.5955	tb1_1     = -0.1186	tb2_1     = -1.0885	tb3_1     =  1.7346	tb4_1     =  0.0298	
tb5_1     = -1.7346	tb6_1     = -0.0298	tb7_1     =  0.2603	tb8_1     = -2.2992	

CDMFT iteration 5, distance =  1.84e+02, diff param =  2.03e-03, diff hybrid =  8.83e-03
34 minimization steps, time(MIN)/time(ED)=0.00160
sb1_1     =  0.0001	sb2_1     =  0.0000	sb3_1     =  0.0075	sb4_1     = -0.1912	sb5_1     =  0.0075	
sb6_1     = -0.1912	sb7_1     = -0.0000	sb8_1     = -0.0000	eb1_1     =  0.0093	eb2_1     = -3.1659	
eb3_1     = -3.9363	eb4_1     = -0.1318	eb5_1     = -3.9364	eb6_1     = -0.1318	eb7_1     =  0.1723	
eb8_1     = -3.5991	tb1_1     = -0.1185	tb2_1     = -1.0893	tb3_1     =  1.7350	tb4_1     =  0.0280	
tb5_1     = -1.7350	tb6_1     = -0.0281	tb7_1     =  0.2615	tb8_1     = -2.2998	

CDMFT iteration 6, distance =  1.82e+02, diff param =  8.54e-04, diff hybrid =  3.93e-03
13 minimization steps, time(MIN)/time(ED)=0.00141
====================== CDMFT converged on the parameters ======================
sb1_1     =  0.0001	sb2_1     =  0.0000	sb3_1     =  0.0079	sb4_1     = -0.1902	sb5_1     =  0.0079	
sb6_1     = -0.1902	sb7_1     =  0.0000	sb8_1     = -0.0000	eb1_1     =  0.0073	eb2_1     = -3.1657	
eb3_1     = -3.9362	eb4_1     = -0.1314	eb5_1     = -3.9362	eb6_1     = -0.1314	eb7_1     =  0.1722	
eb8_1     = -3.5989	tb1_1     = -0.1185	tb2_1     = -1.0895	tb3_1     =  1.7358	tb4_1     =  0.0300	
tb5_1     = -1.7358	tb6_1     = -0.0300	tb7_1     =  0.2603	tb8_1     = -2.3007	
   <D> = 0.011017
   <e> = 1.251989
   <mu> = 1.607539
   <tpd> = -0.614862
   <tpp> = -0.203042
   <tppp> = 0.084278
************************* CDMFT completed successfully *************************

******************************* CDMFT procedure *******************************

minimization method =  CG
mixing state =  1
frequency grid type =  sharp
fictitious inverse temperature =  50
frequency cutoff =  2.0
--------------------------------------------------------------------------------

CDMFT iteration 1, distance =  1.76e+02, diff param =  1.53e-02
76 minimization steps, time(MIN)/time(ED)=0.00202
sb1_1     =  0.0001	sb2_1     = -0.0000	sb3_1     =  0.0081	sb4_1     = -0.1826	sb5_1     =  0.0081	
sb6_1     = -0.1827	sb7_1     = -0.0000	sb8_1     =  0.0000	eb1_1     =  0.0046	eb2_1     = -3.1977	
eb3_1     = -3.9661	eb4_1     = -0.1215	eb5_1     = -3.9661	eb6_1     = -0.1215	eb7_1     =  0.1624	
eb8_1     = -3.6396	tb1_1     = -0.1160	tb2_1     = -1.0839	tb3_1     =  1.7233	tb4_1     =  0.0321	
tb5_1     = -1.7233	tb6_1     = -0.0321	tb7_1     =  0.2512	tb8_1     = -2.2834	

CDMFT iteration 2, distance =  1.64e+02, diff param =  6.42e-03, diff hybrid =  5.76e-02
52 minimization steps, time(MIN)/time(ED)=0.00168
sb1_1     =  0.0001	sb2_1     = -0.0000	sb3_1     =  0.0095	sb4_1     = -0.1762	sb5_1     =  0.0095	
sb6_1     = -0.1762	sb7_1     =  0.0000	sb8_1     = -0.0000	eb1_1     =  0.0008	eb2_1     = -3.2138	
eb3_1     = -3.9774	eb4_1     = -0.1161	eb5_1     = -3.9773	eb6_1     = -0.1161	eb7_1     =  0.1578	
eb8_1     = -3.6413	tb1_1     = -0.1146	tb2_1     = -1.0885	tb3_1     =  1.7289	tb4_1     =  0.0400	
tb5_1     = -1.7289	tb6_1     = -0.0400	tb7_1     =  0.2441	tb8_1     = -2.2890	

CDMFT iteration 3, distance =  1.67e+02, diff param =  3.33e-03, diff hybrid =  2.16e-02
44 minimization steps, time(MIN)/time(ED)=0.00149
sb1_1     =  0.0000	sb2_1     = -0.0000	sb3_1     =  0.0093	sb4_1     = -0.1780	sb5_1     =  0.0093	
sb6_1     = -0.1780	sb7_1     = -0.0000	sb8_1     = -0.0000	eb1_1     =  0.0041	eb2_1     = -3.2277	
eb3_1     = -3.9805	eb4_1     = -0.1146	eb5_1     = -3.9805	eb6_1     = -0.1146	eb7_1     =  0.1558	
eb8_1     = -3.6382	tb1_1     = -0.1154	tb2_1     = -1.0898	tb3_1     =  1.7280	tb4_1     =  0.0392	
tb5_1     = -1.7280	tb6_1     = -0.0392	tb7_1     =  0.2462	tb8_1     = -2.2865	

CDMFT iteration 4, distance =  1.68e+02, diff param =  2.68e-03, diff hybrid =  9.12e-03
45 minimization steps, time(MIN)/time(ED)=0.00140
sb1_1     = -0.0000	sb2_1     =  0.0000	sb3_1     =  0.0090	sb4_1     = -0.1792	sb5_1     =  0.0090	
sb6_1     = -0.1792	sb7_1     =  0.0000	sb8_1     =  0.0000	eb1_1     =  0.0055	eb2_1     = -3.2369	
eb3_1     = -3.9851	eb4_1     = -0.1168	eb5_1     = -3.9851	eb6_1     = -0.1168	eb7_1     =  0.1580	
eb8_1     = -3.6419	tb1_1     = -0.1154	tb2_1     = -1.0910	tb3_1     =  1.7288	tb4_1     =  0.0375	
tb5_1     = -1.7288	tb6_1     = -0.0375	tb7_1     =  0.2474	tb8_1     = -2.2873	

CDMFT iteration 5, distance =  1.67e+02, diff param =  8.26e-04, diff hybrid =  3.84e-03
7 minimization steps, time(MIN)/time(ED)=0.00117
====================== CDMFT converged on the parameters ======================
sb1_1     = -0.0000	sb2_1     = -0.0000	sb3_1     =  0.0094	sb4_1     = -0.1782	sb5_1     =  0.0094	
sb6_1     = -0.1782	sb7_1     = -0.0000	sb8_1     =  0.0000	eb1_1     =  0.0039	eb2_1     = -3.2369	
eb3_1     = -3.9850	eb4_1     = -0.1170	eb5_1     = -3.9850	eb6_1     = -0.1170	eb7_1     =  0.1585	
eb8_1     = -3.6418	tb1_1     = -0.1153	tb2_1     = -1.0914	tb3_1     =  1.7294	tb4_1     =  0.0395	
tb5_1     = -1.7294	tb6_1     = -0.0396	tb7_1     =  0.2463	tb8_1     = -2.2881	
   <D> = 0.013033
   <e> = 1.256511
   <mu> = 1.613849
   <tpd> = -0.596783
   <tpp> = -0.192420
   <tppp> = 0.080002
************************* CDMFT completed successfully *************************

******************************* CDMFT procedure *******************************

minimization method =  CG
mixing state =  1
frequency grid type =  sharp
fictitious inverse temperature =  50
frequency cutoff =  2.0
--------------------------------------------------------------------------------

CDMFT iteration 1, distance =  1.60e+02, diff param =  1.75e-02
89 minimization steps, time(MIN)/time(ED)=0.00227
sb1_1     = -0.0001	sb2_1     =  0.0000	sb3_1     =  0.0095	sb4_1     = -0.1704	sb5_1     =  0.0095	
sb6_1     = -0.1704	sb7_1     =  0.0000	sb8_1     = -0.0000	eb1_1     =  0.0001	eb2_1     = -3.2776	
eb3_1     = -4.0219	eb4_1     = -0.1079	eb5_1     = -4.0219	eb6_1     = -0.1079	eb7_1     =  0.1490	
eb8_1     = -3.6854	tb1_1     = -0.1128	tb2_1     = -1.0868	tb3_1     =  1.7182	tb4_1     =  0.0421	
tb5_1     = -1.7182	tb6_1     = -0.0421	tb7_1     =  0.2367	tb8_1     = -2.2716	

CDMFT iteration 2, distance =  1.48e+02, diff param =  7.93e-03, diff hybrid =  5.66e-02
29 minimization steps, time(MIN)/time(ED)=0.00152
sb1_1     =  0.0000	sb2_1     = -0.0000	sb3_1     =  0.0106	sb4_1     = -0.1629	sb5_1     =  0.0106	
sb6_1     = -0.1629	sb7_1     =  0.0000	sb8_1     =  0.0000	eb1_1     = -0.0061	eb2_1     = -3.2967	
eb3_1     = -4.0386	eb4_1     = -0.1034	eb5_1     = -4.0386	eb6_1     = -0.1034	eb7_1     =  0.1429	
eb8_1     = -3.6838	tb1_1     = -0.1111	tb2_1     = -1.0917	tb3_1     =  1.7250	tb4_1     =  0.0500	
tb5_1     = -1.7250	tb6_1     = -0.0500	tb7_1     =  0.2276	tb8_1     = -2.2765	

CDMFT iteration 3, distance =  1.49e+02, diff param =  5.28e-03, diff hybrid =  2.43e-02
48 minimization steps, time(MIN)/time(ED)=0.00139
sb1_1     = -0.0000	sb2_1     = -0.0000	sb3_1     =  0.0102	sb4_1     = -0.1637	sb5_1     =  0.0102	
sb6_1     = -0.1637	sb7_1     = -0.0000	sb8_1     = -0.0000	eb1_1     = -0.0031	eb2_1     = -3.3167	
eb3_1     = -4.0300	eb4_1     = -0.0991	eb5_1     = -4.0300	eb6_1     = -0.0991	eb7_1     =  0.1387	
eb8_1     = -3.6793	tb1_1     = -0.1122	tb2_1     = -1.0942	tb3_1     =  1.7221	tb4_1     =  0.0487	
tb5_1     = -1.7221	tb6_1     = -0.0487	tb7_1     =  0.2289	tb8_1     = -2.2740	

CDMFT iteration 4, distance =  1.52e+02, diff param =  1.65e-03, diff hybrid =  9.37e-03
14 minimization steps, time(MIN)/time(ED)=0.00113
sb1_1     = -0.0000	sb2_1     =  0.0000	sb3_1     =  0.0095	sb4_1     = -0.1658	sb5_1     =  0.0095	
sb6_1     = -0.1658	sb7_1     =  0.0000	sb8_1     =  0.0000	eb1_1     =  0.0001	eb2_1     = -3.3174	
eb3_1     = -4.0304	eb4_1     = -0.1003	eb5_1     = -4.0304	eb6_1     = -0.1003	eb7_1     =  0.1401	
eb8_1     = -3.6800	tb1_1     = -0.1120	tb2_1     = -1.0940	tb3_1     =  1.7217	tb4_1     =  0.0446	
tb5_1     = -1.7217	tb6_1     = -0.0446	tb7_1     =  0.2310	tb8_1     = -2.2732	

CDMFT iteration 5, distance =  1.51e+02, diff param =  1.45e-03, diff hybrid =  7.75e-03
26 minimization steps, time(MIN)/time(ED)=0.00104
sb1_1     = -0.0000	sb2_1     = -0.0000	sb3_1     =  0.0098	sb4_1     = -0.1650	sb5_1     =  0.0098	
sb6_1     = -0.1650	sb7_1     = -0.0000	sb8_1     =  0.0000	eb1_1     = -0.0014	eb2_1     = -3.3183	
eb3_1     = -4.0324	eb4_1     = -0.1019	eb5_1     = -4.0325	eb6_1     = -0.1019	eb7_1     =  0.1422	
eb8_1     = -3.6841	tb1_1     = -0.1117	tb2_1     = -1.0945	tb3_1     =  1.7228	tb4_1     =  0.0460	
tb5_1     = -1.7228	tb6_1     = -0.0460	tb7_1     =  0.2303	tb8_1     = -2.2752	

CDMFT iteration 6, distance =  1.50e+02, diff param =  6.43e-04, diff hybrid =  4.97e-03
10 minimization steps, time(MIN)/time(ED)=0.00091
====================== CDMFT converged on the parameters ======================
sb1_1     = -0.0000	sb2_1     =  0.0000	sb3_1     =  0.0101	sb4_1     = -0.1643	sb5_1     =  0.0101	
sb6_1     = -0.1644	sb7_1     =  0.0000	sb8_1     = -0.0000	eb1_1     = -0.0026	eb2_1     = -3.3183	
eb3_1     = -4.0326	eb4_1     = -0.1012	eb5_1     = -4.0326	eb6_1     = -0.1012	eb7_1     =  0.1414	
eb8_1     = -3.6838	tb1_1     = -0.1119	tb2_1     = -1.0945	tb3_1     =  1.7229	tb4_1     =  0.0476	
tb5_1     = -1.7229	tb6_1     = -0.0476	tb7_1     =  0.2296	tb8_1     = -2.2754	
   <D> = 0.013748
   <e> = 1.261272
   <mu> = 1.620595
   <tpd> = -0.577458
   <tpp> = -0.181012
   <tppp> = 0.075441
************************* CDMFT completed successfully *************************

******************************* CDMFT procedure *******************************

minimization method =  CG
mixing state =  1
frequency grid type =  sharp
fictitious inverse temperature =  50
frequency cutoff =  2.0
--------------------------------------------------------------------------------

CDMFT iteration 1, distance =  1.45e+02, diff param =  1.93e-02
67 minimization steps, time(MIN)/time(ED)=0.00164
sb1_1     = -0.0000	sb2_1     =  0.0000	sb3_1     =  0.0098	sb4_1     = -0.1570	sb5_1     =  0.0098	
sb6_1     = -0.1570	sb7_1     =  0.0000	sb8_1     = -0.0000	eb1_1     = -0.0065	eb2_1     = -3.3655	
eb3_1     = -4.0777	eb4_1     = -0.0936	eb5_1     = -4.0777	eb6_1     = -0.0936	eb7_1     =  0.1314	
eb8_1     = -3.7242	tb1_1     = -0.1094	tb2_1     = -1.0904	tb3_1     =  1.7130	tb4_1     =  0.0490	
tb5_1     = -1.7130	tb6_1     = -0.0490	tb7_1     =  0.2197	tb8_1     = -2.2575	

CDMFT iteration 2, distance =  1.31e+02, diff param =  1.03e-02, diff hybrid =  5.66e-02
52 minimization steps, time(MIN)/time(ED)=0.00143
sb1_1     =  0.0000	sb2_1     = -0.0000	sb3_1     =  0.0107	sb4_1     = -0.1478	sb5_1     =  0.0107	
sb6_1     = -0.1478	sb7_1     = -0.0000	sb8_1     = -0.0000	eb1_1     = -0.0171	eb2_1     = -3.3962	
eb3_1     = -4.0976	eb4_1     = -0.0907	eb5_1     = -4.0976	eb6_1     = -0.0907	eb7_1     =  0.1241	
eb8_1     = -3.7243	tb1_1     = -0.1080	tb2_1     = -1.0966	tb3_1     =  1.7209	tb4_1     =  0.0575	
tb5_1     = -1.7209	tb6_1     = -0.0574	tb7_1     =  0.2080	tb8_1     = -2.2632	

CDMFT iteration 3, distance =  1.31e+02, diff param =  5.33e-03, diff hybrid =  2.92e-02
43 minimization steps, time(MIN)/time(ED)=0.00127
sb1_1     =  0.0000	sb2_1     = -0.0000	sb3_1     =  0.0102	sb4_1     = -0.1475	sb5_1     =  0.0102	
sb6_1     = -0.1475	sb7_1     = -0.0000	sb8_1     =  0.0000	eb1_1     = -0.0145	eb2_1     = -3.4035	
eb3_1     = -4.0870	eb4_1     = -0.0831	eb5_1     = -4.0870	eb6_1     = -0.0831	eb7_1     =  0.1152	
eb8_1     = -3.7117	tb1_1     = -0.1091	tb2_1     = -1.0974	tb3_1     =  1.7178	tb4_1     =  0.0565	
tb5_1     = -1.7178	tb6_1     = -0.0565	tb7_1     =  0.2070	tb8_1     = -2.2587	

CDMFT iteration 4, distance =  1.34e+02, diff param =  3.01e-03, diff hybrid =  1.14e-02
18 minimization steps, time(MIN)/time(ED)=0.00107
sb1_1     =  0.0000	sb2_1     = -0.0000	sb3_1     =  0.0091	sb4_1     = -0.1510	sb5_1     =  0.0091	
sb6_1     = -0.1510	sb7_1     = -0.0000	sb8_1     =  0.0000	eb1_1     = -0.0079	eb2_1     = -3.4060	
eb3_1     = -4.0861	eb4_1     = -0.0827	eb5_1     = -4.0861	eb6_1     = -0.0827	eb7_1     =  0.1170	
eb8_1     = -3.7159	tb1_1     = -0.1086	tb2_1     = -1.0975	tb3_1     =  1.7169	tb4_1     =  0.0495	
tb5_1     = -1.7169	tb6_1     = -0.0495	tb7_1     =  0.2113	tb8_1     = -2.2583	

CDMFT iteration 5, distance =  1.34e+02, diff param =  1.92e-03, diff hybrid =  1.38e-02
21 minimization steps, time(MIN)/time(ED)=0.00095
sb1_1     =  0.0000	sb2_1     = -0.0000	sb3_1     =  0.0094	sb4_1     = -0.1506	sb5_1     =  0.0094	
sb6_1     = -0.1506	sb7_1     =  0.0000	sb8_1     =  0.0000	eb1_1     = -0.0091	eb2_1     = -3.4073	
eb3_1     = -4.0861	eb4_1     = -0.0860	eb5_1     = -4.0861	eb6_1     = -0.0860	eb7_1     =  0.1214	
eb8_1     = -3.7215	tb1_1     = -0.1081	tb2_1     = -1.0982	tb3_1     =  1.7177	tb4_1     =  0.0504	
tb5_1     = -1.7177	tb6_1     = -0.0504	tb7_1     =  0.2112	tb8_1     = -2.2609	

CDMFT iteration 6, distance =  1.32e+02, diff param =  1.51e-03, diff hybrid =  6.72e-03
11 minimization steps, time(MIN)/time(ED)=0.00085
sb1_1     =  0.0000	sb2_1     = -0.0000	sb3_1     =  0.0100	sb4_1     = -0.1487	sb5_1     =  0.0100	
sb6_1     = -0.1487	sb7_1     = -0.0000	sb8_1     = -0.0000	eb1_1     = -0.0128	eb2_1     = -3.4073	
eb3_1     = -4.0860	eb4_1     = -0.0860	eb5_1     = -4.0861	eb6_1     = -0.0860	eb7_1     =  0.1206	
eb8_1     = -3.7212	tb1_1     = -0.1085	tb2_1     = -1.0982	tb3_1     =  1.7181	tb4_1     =  0.0541	
tb5_1     = -1.7181	tb6_1     = -0.0541	tb7_1     =  0.2092	tb8_1     = -2.2616	

CDMFT iteration 7, distance =  1.33e+02, diff param =  1.23e-03, diff hybrid =  7.19e-03
21 minimization steps, time(MIN)/time(ED)=0.00080
sb1_1     =  0.0000	sb2_1     = -0.0000	sb3_1     =  0.0098	sb4_1     = -0.1492	sb5_1     =  0.0098	
sb6_1     = -0.1492	sb7_1     =  0.0000	sb8_1     =  0.0000	eb1_1     = -0.0114	eb2_1     = -3.4082	
eb3_1     = -4.0858	eb4_1     = -0.0842	eb5_1     = -4.0858	eb6_1     = -0.0842	eb7_1     =  0.1180	
eb8_1     = -3.7175	tb1_1     = -0.1086	tb2_1     = -1.0982	tb3_1     =  1.7175	tb4_1     =  0.0532	
tb5_1     = -1.7175	tb6_1     = -0.0532	tb7_1     =  0.2094	tb8_1     = -2.2599	

CDMFT iteration 8, distance =  1.33e+02, diff param =  7.32e-04, diff hybrid =  4.42e-03
8 minimization steps, time(MIN)/time(ED)=0.00073
====================== CDMFT converged on the parameters ======================
sb1_1     =  0.0000	sb2_1     = -0.0000	sb3_1     =  0.0095	sb4_1     = -0.1501	sb5_1     =  0.0095	
sb6_1     = -0.1501	sb7_1     = -0.0000	sb8_1     =  0.0000	eb1_1     = -0.0098	eb2_1     = -3.4084	
eb3_1     = -4.0858	eb4_1     = -0.0844	eb5_1     = -4.0858	eb6_1     = -0.0844	eb7_1     =  0.1189	
eb8_1     = -3.7176	tb1_1     = -0.1084	tb2_1     = -1.0982	tb3_1     =  1.7173	tb4_1     =  0.0514	
tb5_1     = -1.7173	tb6_1     = -0.0514	tb7_1     =  0.2104	tb8_1     = -2.2596	
   <D> = 0.013616
   <e> = 1.265825
   <mu> = 1.626980
   <tpd> = -0.558622
   <tpp> = -0.169894
   <tppp> = 0.071052
************************* CDMFT completed successfully *************************

******************************* CDMFT procedure *******************************

minimization method =  CG
mixing state =  1
frequency grid type =  sharp
fictitious inverse temperature =  50
frequency cutoff =  2.0
--------------------------------------------------------------------------------

CDMFT iteration 1, distance =  1.28e+02, diff param =  2.08e-02
84 minimization steps, time(MIN)/time(ED)=0.00186
sb1_1     = -0.0000	sb2_1     =  0.0000	sb3_1     =  0.0094	sb4_1     = -0.1421	sb5_1     =  0.0094	
sb6_1     = -0.1421	sb7_1     =  0.0000	sb8_1     = -0.0000	eb1_1     = -0.0164	eb2_1     = -3.4593	
eb3_1     = -4.1335	eb4_1     = -0.0798	eb5_1     = -4.1335	eb6_1     = -0.0798	eb7_1     =  0.1110	
eb8_1     = -3.7673	tb1_1     = -0.1059	tb2_1     = -1.0942	tb3_1     =  1.7082	tb4_1     =  0.0540	
tb5_1     = -1.7082	tb6_1     = -0.0540	tb7_1     =  0.1997	tb8_1     = -2.2448	

CDMFT iteration 2, distance =  1.13e+02, diff param =  1.70e-02, diff hybrid =  5.54e-02
90 minimization steps, time(MIN)/time(ED)=0.00192
sb1_1     = -0.0000	sb2_1     =  0.0000	sb3_1     =  0.0103	sb4_1     = -0.1302	sb5_1     =  0.0103	
sb6_1     = -0.1302	sb7_1     =  0.0000	sb8_1     =  0.0000	eb1_1     = -0.0395	eb2_1     = -3.5221	
eb3_1     = -4.1585	eb4_1     = -0.0785	eb5_1     = -4.1585	eb6_1     = -0.0785	eb7_1     =  0.0991	
eb8_1     = -3.7608	tb1_1     = -0.1084	tb2_1     = -1.1030	tb3_1     =  1.7171	tb4_1     =  0.0646	
tb5_1     = -1.7171	tb6_1     = -0.0646	tb7_1     =  0.1835	tb8_1     = -2.2485	

CDMFT iteration 3, distance =  8.61e+01, diff param =  1.40e-01, diff hybrid =  3.70e-02
168 minimization steps, time(MIN)/time(ED)=0.00251
sb1_1     = -0.0000	sb2_1     =  0.0000	sb3_1     =  0.0180	sb4_1     = -0.0964	sb5_1     =  0.0180	
sb6_1     = -0.0964	sb7_1     =  0.0001	sb8_1     = -0.0000	eb1_1     = -0.1769	eb2_1     = -4.1241	
eb3_1     = -4.3376	eb4_1     = -0.1265	eb5_1     = -4.3375	eb6_1     = -0.1265	eb7_1     =  0.0956	
eb8_1     = -3.7197	tb1_1     = -0.1747	tb2_1     = -1.1596	tb3_1     =  1.7430	tb4_1     =  0.1282	
tb5_1     = -1.7430	tb6_1     = -0.1282	tb7_1     =  0.1506	tb8_1     = -2.2452	

CDMFT iteration 4, distance =  9.50e+01, diff param =  9.82e-02, diff hybrid =  9.94e-02
156 minimization steps, time(MIN)/time(ED)=0.00288
sb1_1     = -0.0000	sb2_1     =  0.0000	sb3_1     =  0.0137	sb4_1     = -0.1067	sb5_1     =  0.0137	
sb6_1     = -0.1067	sb7_1     =  0.0000	sb8_1     =  0.0000	eb1_1     = -0.0483	eb2_1     = -3.6777	
eb3_1     = -4.3236	eb4_1     = -0.0849	eb5_1     = -4.3234	eb6_1     = -0.0848	eb7_1     =  0.0116	
eb8_1     = -3.7141	tb1_1     = -0.1274	tb2_1     = -1.1218	tb3_1     =  1.7417	tb4_1     =  0.1165	
tb5_1     = -1.7417	tb6_1     = -0.1165	tb7_1     =  0.1315	tb8_1     = -2.2307	

CDMFT iteration 5, distance =  1.20e+02, diff param =  6.21e-02, diff hybrid =  9.14e-02
69 minimization steps, time(MIN)/time(ED)=0.00259
sb1_1     =  0.0001	sb2_1     =  0.0000	sb3_1     =  0.0070	sb4_1     = -0.1373	sb5_1     =  0.0070	
sb6_1     = -0.1373	sb7_1     =  0.0001	sb8_1     = -0.0000	eb1_1     = -0.0053	eb2_1     = -3.6166	
eb3_1     = -4.1431	eb4_1     = -0.0549	eb5_1     = -4.1424	eb6_1     = -0.0548	eb7_1     =  0.0740	
eb8_1     = -3.7223	tb1_1     = -0.1102	tb2_1     = -1.1170	tb3_1     =  1.7086	tb4_1     =  0.0514	
tb5_1     = -1.7085	tb6_1     = -0.0512	tb7_1     =  0.1851	tb8_1     = -2.2311	

CDMFT iteration 6, distance =  1.24e+02, diff param =  1.62e-02, diff hybrid =  1.32e-01
70 minimization steps, time(MIN)/time(ED)=0.00240
sb1_1     = -0.0006	sb2_1     =  0.0000	sb3_1     =  0.0069	sb4_1     = -0.1419	sb5_1     =  0.0069	
sb6_1     = -0.1419	sb7_1     = -0.0001	sb8_1     = -0.0000	eb1_1     = -0.0080	eb2_1     = -3.5794	
eb3_1     = -4.1498	eb4_1     = -0.0712	eb5_1     = -4.1500	eb6_1     = -0.0713	eb7_1     =  0.1037	
eb8_1     = -3.7738	tb1_1     = -0.1052	tb2_1     = -1.1119	tb3_1     =  1.7129	tb4_1     =  0.0425	
tb5_1     = -1.7129	tb6_1     = -0.0427	tb7_1     =  0.1983	tb8_1     = -2.2478	

CDMFT iteration 7, distance =  1.12e+02, diff param =  1.10e-02, diff hybrid =  3.51e-02
31 minimization steps, time(MIN)/time(ED)=0.00215
sb1_1     =  0.0001	sb2_1     = -0.0000	sb3_1     =  0.0101	sb4_1     = -0.1292	sb5_1     =  0.0101	
sb6_1     = -0.1292	sb7_1     =  0.0001	sb8_1     = -0.0000	eb1_1     = -0.0443	eb2_1     = -3.5750	
eb3_1     = -4.1489	eb4_1     = -0.0787	eb5_1     = -4.1488	eb6_1     = -0.0785	eb7_1     =  0.1021	
eb8_1     = -3.7646	tb1_1     = -0.1100	tb2_1     = -1.1101	tb3_1     =  1.7166	tb4_1     =  0.0620	
tb5_1     = -1.7166	tb6_1     = -0.0619	tb7_1     =  0.1834	tb8_1     = -2.2508	

CDMFT iteration 8, distance =  8.47e+01, diff param =  1.42e-01, diff hybrid =  4.96e-02
237 minimization steps, time(MIN)/time(ED)=0.00252
sb1_1     = -0.0001	sb2_1     =  0.0000	sb3_1     =  0.0183	sb4_1     = -0.0925	sb5_1     =  0.0183	
sb6_1     = -0.0926	sb7_1     = -0.0005	sb8_1     =  0.0001	eb1_1     = -0.1854	eb2_1     = -4.1632	
eb3_1     = -4.3558	eb4_1     = -0.1327	eb5_1     = -4.3563	eb6_1     = -0.1328	eb7_1     =  0.0861	
eb8_1     = -3.7099	tb1_1     = -0.1788	tb2_1     = -1.1634	tb3_1     =  1.7451	tb4_1     =  0.1340	
tb5_1     = -1.7452	tb6_1     = -0.1340	tb7_1     =  0.1448	tb8_1     = -2.2425	

CDMFT iteration 9, distance =  9.59e+01, diff param =  1.08e-01, diff hybrid =  1.04e-01
115 minimization steps, time(MIN)/time(ED)=0.00259
sb1_1     =  0.0002	sb2_1     = -0.0000	sb3_1     =  0.0132	sb4_1     = -0.1074	sb5_1     =  0.0132	
sb6_1     = -0.1072	sb7_1     =  0.0005	sb8_1     = -0.0000	eb1_1     = -0.0434	eb2_1     = -3.6726	
eb3_1     = -4.3186	eb4_1     = -0.0807	eb5_1     = -4.3182	eb6_1     = -0.0806	eb7_1     =  0.0110	
eb8_1     = -3.7178	tb1_1     = -0.1263	tb2_1     = -1.1219	tb3_1     =  1.7409	tb4_1     =  0.1150	
tb5_1     = -1.7409	tb6_1     = -0.1149	tb7_1     =  0.1333	tb8_1     = -2.2313	

CDMFT iteration 10, distance =  1.24e+02, diff param =  6.44e-02, diff hybrid =  9.72e-02
60 minimization steps, time(MIN)/time(ED)=0.00247
sb1_1     = -0.0031	sb2_1     = -0.0000	sb3_1     =  0.0060	sb4_1     = -0.1422	sb5_1     =  0.0061	
sb6_1     = -0.1422	sb7_1     = -0.0004	sb8_1     =  0.0000	eb1_1     = -0.0021	eb2_1     = -3.6364	
eb3_1     = -4.1291	eb4_1     = -0.0558	eb5_1     = -4.1310	eb6_1     = -0.0562	eb7_1     =  0.0798	
eb8_1     = -3.7263	tb1_1     = -0.1095	tb2_1     = -1.1187	tb3_1     =  1.7049	tb4_1     =  0.0419	
tb5_1     = -1.7052	tb6_1     = -0.0425	tb7_1     =  0.1930	tb8_1     = -2.2304	

CDMFT iteration 11, distance =  1.24e+02, diff param =  1.92e-02, diff hybrid =  1.46e-01
95 minimization steps, time(MIN)/time(ED)=0.00242
sb1_1     =  0.0024	sb2_1     = -0.0001	sb3_1     =  0.0068	sb4_1     = -0.1425	sb5_1     =  0.0067	
sb6_1     = -0.1424	sb7_1     =  0.0003	sb8_1     = -0.0000	eb1_1     = -0.0067	eb2_1     = -3.5821	
eb3_1     = -4.1524	eb4_1     = -0.0740	eb5_1     = -4.1515	eb6_1     = -0.0735	eb7_1     =  0.1079	
eb8_1     = -3.7796	tb1_1     = -0.1043	tb2_1     = -1.1125	tb3_1     =  1.7137	tb4_1     =  0.0409	
tb5_1     = -1.7136	tb6_1     = -0.0402	tb7_1     =  0.1994	tb8_1     = -2.2496	

CDMFT iteration 12, distance =  1.10e+02, diff param =  8.58e-02, diff hybrid =  3.78e-02
224 minimization steps, time(MIN)/time(ED)=0.00260
sb1_1     = -0.0003	sb2_1     =  0.0001	sb3_1     =  0.0108	sb4_1     = -0.1260	sb5_1     =  0.0110	
sb6_1     = -0.1261	sb7_1     = -0.0005	sb8_1     =  0.0001	eb1_1     = -0.1575	eb2_1     = -3.9663	
eb3_1     = -4.1495	eb4_1     = -0.0815	eb5_1     = -4.1527	eb6_1     = -0.0823	eb7_1     =  0.1021	
eb8_1     = -3.7616	tb1_1     = -0.1566	tb2_1     = -1.1427	tb3_1     =  1.7175	tb4_1     =  0.0662	
tb5_1     = -1.7180	tb6_1     = -0.0670	tb7_1     =  0.1799	tb8_1     = -2.2512	

CDMFT iteration 13, distance =  8.45e+01, diff param =  8.32e-02, diff hybrid =  7.75e-02
205 minimization steps, time(MIN)/time(ED)=0.00278
sb1_1     =  0.0003	sb2_1     = -0.0001	sb3_1     =  0.0182	sb4_1     = -0.0926	sb5_1     =  0.0182	
sb6_1     = -0.0924	sb7_1     =  0.0014	sb8_1     = -0.0001	eb1_1     = -0.1784	eb2_1     = -4.1575	
eb3_1     = -4.3694	eb4_1     = -0.1317	eb5_1     = -4.3685	eb6_1     = -0.1316	eb7_1     =  0.0303	
eb8_1     = -3.6855	tb1_1     = -0.1773	tb2_1     = -1.1635	tb3_1     =  1.7472	tb4_1     =  0.1358	
tb5_1     = -1.7471	tb6_1     = -0.1356	tb7_1     =  0.1219	tb8_1     = -2.2298	

CDMFT iteration 14, distance =  9.69e+01, diff param =  1.09e-01, diff hybrid =  1.02e-01
175 minimization steps, time(MIN)/time(ED)=0.00287
sb1_1     = -0.0006	sb2_1     =  0.0001	sb3_1     =  0.0130	sb4_1     = -0.1086	sb5_1     =  0.0131	
sb6_1     = -0.1089	sb7_1     = -0.0006	sb8_1     =  0.0000	eb1_1     = -0.0398	eb2_1     = -3.6597	
eb3_1     = -4.3138	eb4_1     = -0.0793	eb5_1     = -4.3143	eb6_1     = -0.0796	eb7_1     =  0.0134	
eb8_1     = -3.7169	tb1_1     = -0.1244	tb2_1     = -1.1210	tb3_1     =  1.7403	tb4_1     =  0.1128	
tb5_1     = -1.7404	tb6_1     = -0.1128	tb7_1     =  0.1341	tb8_1     = -2.2312	

CDMFT iteration 15, distance =  1.24e+02, diff param =  6.02e-02, diff hybrid =  7.81e-02
79 minimization steps, time(MIN)/time(ED)=0.00280
sb1_1     =  0.0062	sb2_1     =  0.0001	sb3_1     =  0.0063	sb4_1     = -0.1423	sb5_1     =  0.0062	
sb6_1     = -0.1423	sb7_1     =  0.0010	sb8_1     = -0.0001	eb1_1     = -0.0018	eb2_1     = -3.6339	
eb3_1     = -4.1427	eb4_1     = -0.0579	eb5_1     = -4.1368	eb6_1     = -0.0567	eb7_1     =  0.0821	
eb8_1     = -3.7305	tb1_1     = -0.1093	tb2_1     = -1.1184	tb3_1     =  1.7076	tb4_1     =  0.0436	
tb5_1     = -1.7066	tb6_1     = -0.0419	tb7_1     =  0.1936	tb8_1     = -2.2319	

CDMFT iteration 16, distance =  1.23e+02, diff param =  1.90e-02, diff hybrid =  1.41e-01
48 minimization steps, time(MIN)/time(ED)=0.00268
sb1_1     = -0.0056	sb2_1     =  0.0002	sb3_1     =  0.0069	sb4_1     = -0.1415	sb5_1     =  0.0072	
sb6_1     = -0.1417	sb7_1     = -0.0008	sb8_1     =  0.0001	eb1_1     = -0.0083	eb2_1     = -3.5746	
eb3_1     = -4.1553	eb4_1     = -0.0736	eb5_1     = -4.1596	eb6_1     = -0.0750	eb7_1     =  0.1079	
eb8_1     = -3.7803	tb1_1     = -0.1040	tb2_1     = -1.1118	tb3_1     =  1.7147	tb4_1     =  0.0415	
tb5_1     = -1.7155	tb6_1     = -0.0435	tb7_1     =  0.1983	tb8_1     = -2.2504	

CDMFT iteration 17, distance =  1.10e+02, diff param =  8.17e-02, diff hybrid =  3.70e-02
235 minimization steps, time(MIN)/time(ED)=0.00282
sb1_1     =  0.0009	sb2_1     = -0.0003	sb3_1     =  0.0111	sb4_1     = -0.1262	sb5_1     =  0.0108	
sb6_1     = -0.1259	sb7_1     =  0.0013	sb8_1     = -0.0002	eb1_1     = -0.1511	eb2_1     = -3.9400	
eb3_1     = -4.1572	eb4_1     = -0.0827	eb5_1     = -4.1474	eb6_1     = -0.0802	eb7_1     =  0.1011	
eb8_1     = -3.7598	tb1_1     = -0.1544	tb2_1     = -1.1402	tb3_1     =  1.7186	tb4_1     =  0.0683	
tb5_1     = -1.7169	tb6_1     = -0.0661	tb7_1     =  0.1796	tb8_1     = -2.2506	

CDMFT iteration 18, distance =  8.50e+01, diff param =  7.86e-02, diff hybrid =  7.38e-02
158 minimization steps, time(MIN)/time(ED)=0.00287
sb1_1     = -0.0011	sb2_1     =  0.0004	sb3_1     =  0.0181	sb4_1     = -0.0933	sb5_1     =  0.0181	
sb6_1     = -0.0939	sb7_1     = -0.0037	sb8_1     =  0.0004	eb1_1     = -0.1729	eb2_1     = -4.1063	
eb3_1     = -4.3610	eb4_1     = -0.1294	eb5_1     = -4.3641	eb6_1     = -0.1298	eb7_1     =  0.0342	
eb8_1     = -3.6860	tb1_1     = -0.1747	tb2_1     = -1.1579	tb3_1     =  1.7461	tb4_1     =  0.1336	
tb5_1     = -1.7466	tb6_1     = -0.1343	tb7_1     =  0.1236	tb8_1     = -2.2303	

CDMFT iteration 19, distance =  9.71e+01, diff param =  1.00e-01, diff hybrid =  9.84e-02
227 minimization steps, time(MIN)/time(ED)=0.00300
sb1_1     =  0.0015	sb2_1     = -0.0003	sb3_1     =  0.0133	sb4_1     = -0.1094	sb5_1     =  0.0131	
sb6_1     = -0.1084	sb7_1     =  0.0020	sb8_1     = -0.0001	eb1_1     = -0.0402	eb2_1     = -3.6519	
eb3_1     = -4.3151	eb4_1     = -0.0811	eb5_1     = -4.3121	eb6_1     = -0.0798	eb7_1     =  0.0142	
eb8_1     = -3.7143	tb1_1     = -0.1243	tb2_1     = -1.1199	tb3_1     =  1.7404	tb4_1     =  0.1131	
tb5_1     = -1.7399	tb6_1     = -0.1127	tb7_1     =  0.1338	tb8_1     = -2.2305	

CDMFT iteration 20, distance =  1.24e+02, diff param =  5.94e-02, diff hybrid =  7.61e-02
87 minimization steps, time(MIN)/time(ED)=0.00294
sb1_1     = -0.0184	sb2_1     = -0.0001	sb3_1     =  0.0062	sb4_1     = -0.1415	sb5_1     =  0.0066	
sb6_1     = -0.1415	sb7_1     = -0.0025	sb8_1     =  0.0002	eb1_1     = -0.0025	eb2_1     = -3.6278	
eb3_1     = -4.1351	eb4_1     = -0.0556	eb5_1     = -4.1492	eb6_1     = -0.0588	eb7_1     =  0.0814	
eb8_1     = -3.7295	tb1_1     = -0.1080	tb2_1     = -1.1177	tb3_1     =  1.7065	tb4_1     =  0.0423	
tb5_1     = -1.7090	tb6_1     = -0.0465	tb7_1     =  0.1923	tb8_1     = -2.2320	

CDMFT iteration 21, distance =  1.23e+02, diff param =  1.94e-02, diff hybrid =  1.37e-01
58 minimization steps, time(MIN)/time(ED)=0.00286
sb1_1     =  0.0131	sb2_1     = -0.0004	sb3_1     =  0.0075	sb4_1     = -0.1418	sb5_1     =  0.0067	
sb6_1     = -0.1412	sb7_1     =  0.0022	sb8_1     = -0.0003	eb1_1     = -0.0088	eb2_1     = -3.5737	
eb3_1     = -4.1617	eb4_1     = -0.0758	eb5_1     = -4.1499	eb6_1     = -0.0721	eb7_1     =  0.1072	
eb8_1     = -3.7795	tb1_1     = -0.1035	tb2_1     = -1.1116	tb3_1     =  1.7158	tb4_1     =  0.0455	
tb5_1     = -1.7136	tb6_1     = -0.0405	tb7_1     =  0.1981	tb8_1     = -2.2501	

CDMFT iteration 22, distance =  1.10e+02, diff param =  7.84e-02, diff hybrid =  3.63e-02
230 minimization steps, time(MIN)/time(ED)=0.00294
sb1_1     = -0.0027	sb2_1     =  0.0008	sb3_1     =  0.0104	sb4_1     = -0.1261	sb5_1     =  0.0113	
sb6_1     = -0.1267	sb7_1     = -0.0035	sb8_1     =  0.0004	eb1_1     = -0.1458	eb2_1     = -3.9231	
eb3_1     = -4.1400	eb4_1     = -0.0777	eb5_1     = -4.1646	eb6_1     = -0.0842	eb7_1     =  0.1010	
eb8_1     = -3.7605	tb1_1     = -0.1523	tb2_1     = -1.1386	tb3_1     =  1.7156	tb4_1     =  0.0638	
tb5_1     = -1.7196	tb6_1     = -0.0696	tb7_1     =  0.1801	tb8_1     = -2.2506	

CDMFT iteration 23, distance =  8.51e+01, diff param =  8.24e-02, diff hybrid =  7.27e-02
214 minimization steps, time(MIN)/time(ED)=0.00304
sb1_1     =  0.0026	sb2_1     = -0.0010	sb3_1     =  0.0182	sb4_1     = -0.0946	sb5_1     =  0.0181	
sb6_1     = -0.0931	sb7_1     =  0.0096	sb8_1     = -0.0010	eb1_1     = -0.1752	eb2_1     = -4.1317	
eb3_1     = -4.3645	eb4_1     = -0.1300	eb5_1     = -4.3559	eb6_1     = -0.1288	eb7_1     =  0.0381	
eb8_1     = -3.6872	tb1_1     = -0.1756	tb2_1     = -1.1607	tb3_1     =  1.7467	tb4_1     =  0.1345	
tb5_1     = -1.7454	tb6_1     = -0.1325	tb7_1     =  0.1248	tb8_1     = -2.2311	

CDMFT iteration 24, distance =  9.71e+01, diff param =  1.06e-01, diff hybrid =  9.79e-02
153 minimization steps, time(MIN)/time(ED)=0.00306
sb1_1     = -0.0038	sb2_1     =  0.0007	sb3_1     =  0.0129	sb4_1     = -0.1077	sb5_1     =  0.0135	
sb6_1     = -0.1101	sb7_1     = -0.0051	sb8_1     =  0.0002	eb1_1     = -0.0399	eb2_1     = -3.6478	
eb3_1     = -4.3089	eb4_1     = -0.0787	eb5_1     = -4.3171	eb6_1     = -0.0819	eb7_1     =  0.0144	
eb8_1     = -3.7155	tb1_1     = -0.1241	tb2_1     = -1.1194	tb3_1     =  1.7394	tb4_1     =  0.1124	
tb5_1     = -1.7408	tb6_1     = -0.1131	tb7_1     =  0.1337	tb8_1     = -2.2309	

CDMFT iteration 25, distance =  1.24e+02, diff param =  6.14e-02, diff hybrid =  7.79e-02
95 minimization steps, time(MIN)/time(ED)=0.00301
sb1_1     =  0.0491	sb2_1     = -0.0002	sb3_1     =  0.0070	sb4_1     = -0.1417	sb5_1     =  0.0059	
sb6_1     = -0.1416	sb7_1     =  0.0062	sb8_1     = -0.0006	eb1_1     = -0.0036	eb2_1     = -3.6250	
eb3_1     = -4.1565	eb4_1     = -0.0616	eb5_1     = -4.1207	eb6_1     = -0.0536	eb7_1     =  0.0821	
eb8_1     = -3.7306	tb1_1     = -0.0979	tb2_1     = -1.1173	tb3_1     =  1.7103	tb4_1     =  0.0495	
tb5_1     = -1.7038	tb6_1     = -0.0388	tb7_1     =  0.1927	tb8_1     = -2.2323	

CDMFT iteration 26, distance =  1.23e+02, diff param =  2.58e-02, diff hybrid =  1.38e-01
96 minimization steps, time(MIN)/time(ED)=0.00297
sb1_1     = -0.0288	sb2_1     =  0.0009	sb3_1     =  0.0062	sb4_1     = -0.1407	sb5_1     =  0.0081	
sb6_1     = -0.1420	sb7_1     = -0.0058	sb8_1     =  0.0007	eb1_1     = -0.0103	eb2_1     = -3.5689	
eb3_1     = -4.1439	eb4_1     = -0.0696	eb5_1     = -4.1638	eb6_1     = -0.0790	eb7_1     =  0.1075	
eb8_1     = -3.7792	tb1_1     = -0.1004	tb2_1     = -1.1110	tb3_1     =  1.7126	tb4_1     =  0.0368	
tb5_1     = -1.7161	tb6_1     = -0.0496	tb7_1     =  0.1979	tb8_1     = -2.2500	

CDMFT iteration 27, distance =  1.10e+02, diff param =  8.38e-02, diff hybrid =  4.13e-02
159 minimization steps, time(MIN)/time(ED)=0.00300
sb1_1     =  0.0066	sb2_1     = -0.0021	sb3_1     =  0.0121	sb4_1     = -0.1263	sb5_1     =  0.0099	
sb6_1     = -0.1247	sb7_1     =  0.0087	sb8_1     = -0.0011	eb1_1     = -0.1505	eb2_1     = -3.9388	
eb3_1     = -4.1855	eb4_1     = -0.0899	eb5_1     = -4.1228	eb6_1     = -0.0734	eb7_1     =  0.1017	
eb8_1     = -3.7618	tb1_1     = -0.1543	tb2_1     = -1.1402	tb3_1     =  1.7230	tb4_1     =  0.0752	
tb5_1     = -1.7127	tb6_1     = -0.0608	tb7_1     =  0.1793	tb8_1     = -2.2512	

CDMFT iteration 28, distance =  8.53e+01, diff param =  7.78e-02, diff hybrid =  7.70e-02
168 minimization steps, time(MIN)/time(ED)=0.00304
sb1_1     = -0.0066	sb2_1     =  0.0024	sb3_1     =  0.0178	sb4_1     = -0.0924	sb5_1     =  0.0182	
sb6_1     = -0.0959	sb7_1     = -0.0233	sb8_1     =  0.0025	eb1_1     = -0.1705	eb2_1     = -4.1049	
eb3_1     = -4.3467	eb4_1     = -0.1261	eb5_1     = -4.3683	eb6_1     = -0.1290	eb7_1     =  0.0397	
eb8_1     = -3.6899	tb1_1     = -0.1738	tb2_1     = -1.1581	tb3_1     =  1.7441	tb4_1     =  0.1302	
tb5_1     = -1.7473	tb6_1     = -0.1354	tb7_1     =  0.1241	tb8_1     = -2.2316	

CDMFT iteration 29, distance =  9.87e+01, diff param =  1.06e-01, diff hybrid =  9.81e-02
142 minimization steps, time(MIN)/time(ED)=0.00305
sb1_1     =  0.0089	sb2_1     = -0.0014	sb3_1     =  0.0136	sb4_1     = -0.1133	sb5_1     =  0.0122	
sb6_1     = -0.1076	sb7_1     =  0.0101	sb8_1     = -0.0005	eb1_1     = -0.0354	eb2_1     = -3.6260	
eb3_1     = -4.3121	eb4_1     = -0.0824	eb5_1     = -4.2881	eb6_1     = -0.0739	eb7_1     =  0.0181	
eb8_1     = -3.7122	tb1_1     = -0.1219	tb2_1     = -1.1172	tb3_1     =  1.7401	tb4_1     =  0.1106	
tb5_1     = -1.7358	tb6_1     = -0.1085	tb7_1     =  0.1348	tb8_1     = -2.2302	

CDMFT iteration 30, distance =  1.24e+02, diff param =  5.86e-02, diff hybrid =  8.18e-02
101 minimization steps, time(MIN)/time(ED)=0.00302
sb1_1     = -0.0693	sb2_1     =  0.0006	sb3_1     =  0.0054	sb4_1     = -0.1420	sb5_1     =  0.0076	
sb6_1     = -0.1431	sb7_1     = -0.0107	sb8_1     =  0.0011	eb1_1     = -0.0059	eb2_1     = -3.6197	
eb3_1     = -4.1174	eb4_1     = -0.0526	eb5_1     = -4.1742	eb6_1     = -0.0673	eb7_1     =  0.0863	
eb8_1     = -3.7358	tb1_1     = -0.0847	tb2_1     = -1.1166	tb3_1     =  1.7033	tb4_1     =  0.0339	
tb5_1     = -1.7136	tb6_1     = -0.0527	tb7_1     =  0.1945	tb8_1     = -2.2339	

CDMFT iteration 31, distance =  1.22e+02, diff param =  2.71e-02, diff hybrid =  1.34e-01
103 minimization steps, time(MIN)/time(ED)=0.00299
sb1_1     = -0.0985	sb2_1     = -0.0014	sb3_1     =  0.0092	sb4_1     = -0.1412	sb5_1     =  0.0059	
sb6_1     = -0.1390	sb7_1     =  0.0100	sb8_1     = -0.0012	eb1_1     =  0.0144	eb2_1     = -3.5609	
eb3_1     = -4.1772	eb4_1     = -0.0844	eb5_1     = -4.1368	eb6_1     = -0.0672	eb7_1     =  0.1084	
eb8_1     = -3.7808	tb1_1     = -0.0350	tb2_1     = -1.1101	tb3_1     =  1.7189	tb4_1     =  0.0564	
tb5_1     = -1.7119	tb6_1     = -0.0345	tb7_1     =  0.1964	tb8_1     = -2.2511	

CDMFT iteration 32, distance =  1.08e+02, diff param =  9.95e-02, diff hybrid =  5.14e-02
232 minimization steps, time(MIN)/time(ED)=0.00306
sb1_1     = -0.1598	sb2_1     =  0.0035	sb3_1     =  0.0096	sb4_1     = -0.1213	sb5_1     =  0.0135	
sb6_1     = -0.1243	sb7_1     = -0.0156	sb8_1     =  0.0021	eb1_1     =  0.1619	eb2_1     = -3.9986	
eb3_1     = -4.1079	eb4_1     = -0.0683	eb5_1     = -4.2152	eb6_1     = -0.0978	eb7_1     =  0.1013	
eb8_1     = -3.7586	tb1_1     =  0.0107	tb2_1     = -1.1464	tb3_1     =  1.7103	tb4_1     =  0.0598	
tb5_1     = -1.7276	tb6_1     = -0.0848	tb7_1     =  0.1765	tb8_1     = -2.2507	

CDMFT iteration 33, distance =  8.65e+01, diff param =  6.53e-02, diff hybrid =  8.37e-02
134 minimization steps, time(MIN)/time(ED)=0.00307
sb1_1     = -0.1687	sb2_1     = -0.0041	sb3_1     =  0.0178	sb4_1     = -0.0992	sb5_1     =  0.0171	
sb6_1     = -0.0934	sb7_1     =  0.0347	sb8_1     = -0.0039	eb1_1     =  0.1569	eb2_1     = -4.0558	
eb3_1     = -4.3559	eb4_1     = -0.1230	eb5_1     = -4.3190	eb6_1     = -0.1159	eb7_1     =  0.0441	
eb8_1     = -3.6957	tb1_1     = -0.0117	tb2_1     = -1.1539	tb3_1     =  1.7456	tb4_1     =  0.1335	
tb5_1     = -1.7403	tb6_1     = -0.1235	tb7_1     =  0.1252	tb8_1     = -2.2328	

CDMFT iteration 34, distance =  1.02e+02, diff param =  9.76e-02, diff hybrid =  9.40e-02
140 minimization steps, time(MIN)/time(ED)=0.00308
sb1_1     = -0.1191	sb2_1     =  0.0018	sb3_1     =  0.0117	sb4_1     = -0.1090	sb5_1     =  0.0137	
sb6_1     = -0.1174	sb7_1     = -0.0140	sb8_1     =  0.0008	eb1_1     =  0.0308	eb2_1     = -3.6209	
eb3_1     = -4.2582	eb4_1     = -0.0688	eb5_1     = -4.3086	eb6_1     = -0.0844	eb7_1     =  0.0264	
eb8_1     = -3.7084	tb1_1     =  0.0139	tb2_1     = -1.1173	tb3_1     =  1.7307	tb4_1     =  0.1022	
tb5_1     = -1.7395	tb6_1     = -0.1069	tb7_1     =  0.1373	tb8_1     = -2.2297	

CDMFT iteration 35, distance =  1.24e+02, diff param =  5.24e-02, diff hybrid =  8.42e-02
110 minimization steps, time(MIN)/time(ED)=0.00305
sb1_1     = -0.0953	sb2_1     = -0.0024	sb3_1     =  0.0103	sb4_1     = -0.1453	sb5_1     =  0.0052	
sb6_1     = -0.1396	sb7_1     =  0.0210	sb8_1     = -0.0021	eb1_1     =  0.0192	eb2_1     = -3.5946	
eb3_1     = -4.2227	eb4_1     = -0.0846	eb5_1     = -4.1172	eb6_1     = -0.0481	eb7_1     =  0.0878	
eb8_1     = -3.7524	tb1_1     = -0.0559	tb2_1     = -1.1135	tb3_1     =  1.7235	tb4_1     =  0.0696	
tb5_1     = -1.7041	tb6_1     = -0.0313	tb7_1     =  0.1931	tb8_1     = -2.2392	

CDMFT iteration 36, distance =  1.19e+02, diff param =  4.33e-02, diff hybrid =  1.20e-01
81 minimization steps, time(MIN)/time(ED)=0.00301
sb1_1     = -0.0419	sb2_1     =  0.0028	sb3_1     =  0.0053	sb4_1     = -0.1346	sb5_1     =  0.0116	
sb6_1     = -0.1393	sb7_1     = -0.0224	sb8_1     =  0.0026	eb1_1     = -0.0254	eb2_1     = -3.5561	
eb3_1     = -4.1070	eb4_1     = -0.0574	eb5_1     = -4.2286	eb6_1     = -0.0992	eb7_1     =  0.1088	
eb8_1     = -3.7811	tb1_1     = -0.0982	tb2_1     = -1.1096	tb3_1     =  1.7072	tb4_1     =  0.0291	
tb5_1     = -1.7277	tb6_1     = -0.0740	tb7_1     =  0.1920	tb8_1     = -2.2521	

CDMFT iteration 37, distance =  1.05e+02, diff param =  1.19e-01, diff hybrid =  8.37e-02
248 minimization steps, time(MIN)/time(ED)=0.00307
sb1_1     =  0.0217	sb2_1     = -0.0072	sb3_1     =  0.0162	sb4_1     = -0.1197	sb5_1     =  0.0085	
sb6_1     = -0.1137	sb7_1     =  0.0334	sb8_1     = -0.0048	eb1_1     = -0.1654	eb2_1     = -4.0440	
eb3_1     = -4.2897	eb4_1     = -0.1166	eb5_1     = -4.0860	eb6_1     = -0.0558	eb7_1     =  0.1048	
eb8_1     = -3.7623	tb1_1     = -0.1634	tb2_1     = -1.1524	tb3_1     =  1.7383	tb4_1     =  0.1069	
tb5_1     = -1.7065	tb6_1     = -0.0563	tb7_1     =  0.1707	tb8_1     = -2.2524	

CDMFT iteration 38, distance =  9.03e+01, diff param =  6.34e-02, diff hybrid =  1.07e-01
85 minimization steps, time(MIN)/time(ED)=0.00305
sb1_1     = -0.0241	sb2_1     =  0.0078	sb3_1     =  0.0144	sb4_1     = -0.0960	sb5_1     =  0.0171	
sb6_1     = -0.1073	sb7_1     = -0.0522	sb8_1     =  0.0075	eb1_1     = -0.1262	eb2_1     = -4.0164	
eb3_1     = -4.2497	eb4_1     = -0.0873	eb5_1     = -4.3456	eb6_1     = -0.1126	eb7_1     =  0.0707	
eb8_1     = -3.7262	tb1_1     = -0.1565	tb2_1     = -1.1536	tb3_1     =  1.7310	tb4_1     =  0.1042	
tb5_1     = -1.7445	tb6_1     = -0.1290	tb7_1     =  0.1377	tb8_1     = -2.2414	

CDMFT iteration 39, distance =  1.07e+02, diff param =  1.02e-01, diff hybrid =  9.81e-02
128 minimization steps, time(MIN)/time(ED)=0.00305
sb1_1     =  0.0251	sb2_1     = -0.0023	sb3_1     =  0.0140	sb4_1     = -0.1245	sb5_1     =  0.0106	
sb6_1     = -0.1113	sb7_1     =  0.0231	sb8_1     = -0.0021	eb1_1     = -0.0269	eb2_1     = -3.5760	
eb3_1     = -4.3196	eb4_1     = -0.0931	eb5_1     = -4.1920	eb6_1     = -0.0579	eb7_1     =  0.0516	
eb8_1     = -3.7159	tb1_1     = -0.1137	tb2_1     = -1.1118	tb3_1     =  1.7417	tb4_1     =  0.1029	
tb5_1     = -1.7198	tb6_1     = -0.0880	tb7_1     =  0.1482	tb8_1     = -2.2342	

CDMFT iteration 40, distance =  1.21e+02, diff param =  5.52e-02, diff hybrid =  9.66e-02
109 minimization steps, time(MIN)/time(ED)=0.00304
sb1_1     = -0.0414	sb2_1     =  0.0021	sb3_1     =  0.0064	sb4_1     = -0.1345	sb5_1     =  0.0118	
sb6_1     = -0.1406	sb7_1     = -0.0241	sb8_1     =  0.0024	eb1_1     = -0.0234	eb2_1     = -3.5631	
eb3_1     = -4.1049	eb4_1     = -0.0475	eb5_1     = -4.2614	eb6_1     = -0.0944	eb7_1     =  0.0915	
eb8_1     = -3.7591	tb1_1     = -0.1027	tb2_1     = -1.1096	tb3_1     =  1.7038	tb4_1     =  0.0400	
tb5_1     = -1.7314	tb6_1     = -0.0806	tb7_1     =  0.1877	tb8_1     = -2.2438	

CDMFT iteration 41, distance =  1.16e+02, diff param =  5.38e-02, diff hybrid =  9.39e-02
92 minimization steps, time(MIN)/time(ED)=0.00301
sb1_1     =  0.0388	sb2_1     = -0.0035	sb3_1     =  0.0130	sb4_1     = -0.1356	sb5_1     =  0.0057	
sb6_1     = -0.1307	sb7_1     =  0.0272	sb8_1     = -0.0031	eb1_1     = -0.0340	eb2_1     = -3.5529	
eb3_1     = -4.2518	eb4_1     = -0.1036	eb5_1     = -4.0968	eb6_1     = -0.0520	eb7_1     =  0.1046	
eb8_1     = -3.7747	tb1_1     = -0.1028	tb2_1     = -1.1085	tb3_1     =  1.7313	tb4_1     =  0.0854	
tb5_1     = -1.7055	tb6_1     = -0.0328	tb7_1     =  0.1867	tb8_1     = -2.2511	

CDMFT iteration 42, distance =  1.04e+02, diff param =  1.07e-01, diff hybrid =  8.83e-02
234 minimization steps, time(MIN)/time(ED)=0.00306
sb1_1     = -0.0272	sb2_1     =  0.0083	sb3_1     =  0.0082	sb4_1     = -0.1119	sb5_1     =  0.0166	
sb6_1     = -0.1192	sb7_1     = -0.0402	sb8_1     =  0.0059	eb1_1     = -0.1405	eb2_1     = -3.9540	
eb3_1     = -4.0903	eb4_1     = -0.0516	eb5_1     = -4.3145	eb6_1     = -0.1181	eb7_1     =  0.1056	
eb8_1     = -3.7643	tb1_1     = -0.1545	tb2_1     = -1.1446	tb3_1     =  1.7067	tb4_1     =  0.0564	
tb5_1     = -1.7414	tb6_1     = -0.1127	tb7_1     =  0.1690	tb8_1     = -2.2525	

CDMFT iteration 43, distance =  9.38e+01, diff param =  6.98e-02, diff hybrid =  1.11e-01
148 minimization steps, time(MIN)/time(ED)=0.00307
sb1_1     =  0.0281	sb2_1     = -0.0076	sb3_1     =  0.0168	sb4_1     = -0.1124	sb5_1     =  0.0123	
sb6_1     = -0.0989	sb7_1     =  0.0506	sb8_1     = -0.0077	eb1_1     = -0.0949	eb2_1     = -3.8550	
eb3_1     = -4.3466	eb4_1     = -0.1100	eb5_1     = -4.2008	eb6_1     = -0.0708	eb7_1     =  0.0837	
eb8_1     = -3.7399	tb1_1     = -0.1410	tb2_1     = -1.1384	tb3_1     =  1.7452	tb4_1     =  0.1245	
tb5_1     = -1.7236	tb6_1     = -0.0917	tb7_1     =  0.1481	tb8_1     = -2.2455	

CDMFT iteration 44, distance =  1.07e+02, diff param =  7.63e-02, diff hybrid =  1.01e-01
167 minimization steps, time(MIN)/time(ED)=0.00309
sb1_1     = -0.0285	sb2_1     =  0.0029	sb3_1     =  0.0101	sb4_1     = -0.1114	sb5_1     =  0.0145	
sb6_1     = -0.1254	sb7_1     = -0.0292	sb8_1     =  0.0033	eb1_1     = -0.0311	eb2_1     = -3.6000	
eb3_1     = -4.1610	eb4_1     = -0.0541	eb5_1     = -4.3293	eb6_1     = -0.0991	eb7_1     =  0.0695	
eb8_1     = -3.7280	tb1_1     = -0.1132	tb2_1     = -1.1148	tb3_1     =  1.7149	tb4_1     =  0.0817	
tb5_1     = -1.7434	tb6_1     = -0.1048	tb7_1     =  0.1561	tb8_1     = -2.2392	

CDMFT iteration 45, distance =  1.18e+02, diff param =  6.28e-02, diff hybrid =  9.53e-02
139 minimization steps, time(MIN)/time(ED)=0.00308
sb1_1     =  0.0411	sb2_1     = -0.0026	sb3_1     =  0.0128	sb4_1     = -0.1374	sb5_1     =  0.0065	
sb6_1     = -0.1306	sb7_1     =  0.0290	sb8_1     = -0.0029	eb1_1     = -0.0280	eb2_1     = -3.5676	
eb3_1     = -4.2878	eb4_1     = -0.1008	eb5_1     = -4.0953	eb6_1     = -0.0447	eb7_1     =  0.0927	
eb8_1     = -3.7608	tb1_1     = -0.1043	tb2_1     = -1.1103	tb3_1     =  1.7362	tb4_1     =  0.0889	
tb5_1     = -1.7028	tb6_1     = -0.0418	tb7_1     =  0.1832	tb8_1     = -2.2456	

CDMFT iteration 46, distance =  1.15e+02, diff param =  6.23e-02, diff hybrid =  9.35e-02
104 minimization steps, time(MIN)/time(ED)=0.00307
sb1_1     = -0.0402	sb2_1     =  0.0044	sb3_1     =  0.0057	sb4_1     = -0.1281	sb5_1     =  0.0139	
sb6_1     = -0.1335	sb7_1     = -0.0319	sb8_1     =  0.0037	eb1_1     = -0.0406	eb2_1     = -3.5659	
eb3_1     = -4.0965	eb4_1     = -0.0487	eb5_1     = -4.2721	eb6_1     = -0.1078	eb7_1     =  0.1039	
eb8_1     = -3.7735	tb1_1     = -0.1059	tb2_1     = -1.1096	tb3_1     =  1.7057	tb4_1     =  0.0338	
tb5_1     = -1.7344	tb6_1     = -0.0934	tb7_1     =  0.1834	tb8_1     = -2.2513	

CDMFT iteration 47, distance =  1.04e+02, diff param =  9.17e-02, diff hybrid =  9.87e-02
169 minimization steps, time(MIN)/time(ED)=0.00308
sb1_1     =  0.0312	sb2_1     = -0.0087	sb3_1     =  0.0166	sb4_1     = -0.1201	sb5_1     =  0.0079	
sb6_1     = -0.1118	sb7_1     =  0.0438	sb8_1     = -0.0065	eb1_1     = -0.1196	eb2_1     = -3.8480	
eb3_1     = -4.3244	eb4_1     = -0.1180	eb5_1     = -4.0945	eb6_1     = -0.0498	eb7_1     =  0.1068	
eb8_1     = -3.7685	tb1_1     = -0.1455	tb2_1     = -1.1344	tb3_1     =  1.7426	tb4_1     =  0.1147	
tb5_1     = -1.7072	tb6_1     = -0.0554	tb7_1     =  0.1690	tb8_1     = -2.2533	

CDMFT iteration 48, distance =  9.63e+01, diff param =  6.93e-02, diff hybrid =  1.14e-01
130 minimization steps, time(MIN)/time(ED)=0.00308
sb1_1     = -0.0300	sb2_1     =  0.0073	sb3_1     =  0.0113	sb4_1     = -0.1008	sb5_1     =  0.0165	
sb6_1     = -0.1153	sb7_1     = -0.0503	sb8_1     =  0.0078	eb1_1     = -0.0820	eb2_1     = -3.7922	
eb3_1     = -4.1757	eb4_1     = -0.0633	eb5_1     = -4.3400	eb6_1     = -0.1099	eb7_1     =  0.0913	
eb8_1     = -3.7480	tb1_1     = -0.1342	tb2_1     = -1.1325	tb3_1     =  1.7194	tb4_1     =  0.0855	
tb5_1     = -1.7443	tb6_1     = -0.1215	tb7_1     =  0.1538	tb8_1     = -2.2476	

CDMFT iteration 49, distance =  1.07e+02, diff param =  7.60e-02, diff hybrid =  1.05e-01
114 minimization steps, time(MIN)/time(ED)=0.00307
sb1_1     =  0.0304	sb2_1     = -0.0031	sb3_1     =  0.0149	sb4_1     = -0.1259	sb5_1     =  0.0096	
sb6_1     = -0.1116	sb7_1     =  0.0324	sb8_1     = -0.0040	eb1_1     = -0.0334	eb2_1     = -3.5768	
eb3_1     = -4.3434	eb4_1     = -0.1028	eb5_1     = -4.1398	eb6_1     = -0.0513	eb7_1     =  0.0787	
eb8_1     = -3.7386	tb1_1     = -0.1127	tb2_1     = -1.1114	tb3_1     =  1.7459	tb4_1     =  0.1062	
tb5_1     = -1.7114	tb6_1     = -0.0775	tb7_1     =  0.1604	tb8_1     = -2.2428	

CDMFT iteration 50, distance =  1.17e+02, diff param =  6.71e-02, diff hybrid =  9.68e-02
103 minimization steps, time(MIN)/time(ED)=0.00306
sb1_1     = -0.0406	sb2_1     =  0.0030	sb3_1     =  0.0067	sb4_1     = -0.1280	sb5_1     =  0.0134	
sb6_1     = -0.1353	sb7_1     = -0.0313	sb8_1     =  0.0033	eb1_1     = -0.0313	eb2_1     = -3.5640	
eb3_1     = -4.0985	eb4_1     = -0.0440	eb5_1     = -4.2946	eb6_1     = -0.1038	eb7_1     =  0.0937	
eb8_1     = -3.7603	tb1_1     = -0.1056	tb2_1     = -1.1097	tb3_1     =  1.7040	tb4_1     =  0.0438	
tb5_1     = -1.7373	tb6_1     = -0.0936	tb7_1     =  0.1805	tb8_1     = -2.2463	

CDMFT iteration 51, distance =  1.14e+02, diff param =  6.51e-02, diff hybrid =  9.52e-02
100 minimization steps, time(MIN)/time(ED)=0.00304
sb1_1     =  0.0399	sb2_1     = -0.0047	sb3_1     =  0.0144	sb4_1     = -0.1319	sb5_1     =  0.0059	
sb6_1     = -0.1261	sb7_1     =  0.0342	sb8_1     = -0.0041	eb1_1     = -0.0438	eb2_1     = -3.5716	
eb3_1     = -4.2846	eb4_1     = -0.1095	eb5_1     = -4.0948	eb6_1     = -0.0473	eb7_1     =  0.1035	
eb8_1     = -3.7724	tb1_1     = -0.1079	tb2_1     = -1.1100	tb3_1     =  1.7362	tb4_1     =  0.0976	
tb5_1     = -1.7055	tb6_1     = -0.0365	tb7_1     =  0.1812	tb8_1     = -2.2514	

CDMFT iteration 52, distance =  1.05e+02, diff param =  8.81e-02, diff hybrid =  1.02e-01
183 minimization steps, time(MIN)/time(ED)=0.00306
sb1_1     = -0.0330	sb2_1     =  0.0087	sb3_1     =  0.0078	sb4_1     = -0.1122	sb5_1     =  0.0165	
sb6_1     = -0.1211	sb7_1     = -0.0443	sb8_1     =  0.0065	eb1_1     = -0.1070	eb2_1     = -3.8183	
eb3_1     = -4.0988	eb4_1     = -0.0490	eb5_1     = -4.3274	eb6_1     = -0.1172	eb7_1     =  0.1060	
eb8_1     = -3.7673	tb1_1     = -0.1404	tb2_1     = -1.1325	tb3_1     =  1.7077	tb4_1     =  0.0555	
tb5_1     = -1.7430	tb6_1     = -0.1147	tb7_1     =  0.1691	tb8_1     = -2.2527	

CDMFT iteration 53, distance =  9.80e+01, diff param =  7.13e-02, diff hybrid =  1.14e-01
122 minimization steps, time(MIN)/time(ED)=0.00306
sb1_1     =  0.0307	sb2_1     = -0.0069	sb3_1     =  0.0164	sb4_1     = -0.1170	sb5_1     =  0.0107	
sb6_1     = -0.1025	sb7_1     =  0.0488	sb8_1     = -0.0075	eb1_1     = -0.0747	eb2_1     = -3.7556	
eb3_1     = -4.3436	eb4_1     = -0.1106	eb5_1     = -4.1588	eb6_1     = -0.0594	eb7_1     =  0.0946	
eb8_1     = -3.7519	tb1_1     = -0.1302	tb2_1     = -1.1291	tb3_1     =  1.7450	tb4_1     =  0.1200	
tb5_1     = -1.7165	tb6_1     = -0.0813	tb7_1     =  0.1572	tb8_1     = -2.2487	

CDMFT iteration 54, distance =  1.07e+02, diff param =  7.07e-02, diff hybrid =  1.06e-01
124 minimization steps, time(MIN)/time(ED)=0.00306
sb1_1     = -0.0313	sb2_1     =  0.0035	sb3_1     =  0.0094	sb4_1     = -0.1117	sb5_1     =  0.0149	
sb6_1     = -0.1255	sb7_1     = -0.0342	sb8_1     =  0.0043	eb1_1     = -0.0363	eb2_1     = -3.6028	
eb3_1     = -4.1397	eb4_1     = -0.0505	eb5_1     = -4.3353	eb6_1     = -0.1041	eb7_1     =  0.0827	
eb8_1     = -3.7414	tb1_1     = -0.1133	tb2_1     = -1.1146	tb3_1     =  1.7118	tb4_1     =  0.0753	
tb5_1     = -1.7443	tb6_1     = -0.1071	tb7_1     =  0.1620	tb8_1     = -2.2439	

CDMFT iteration 55, distance =  1.15e+02, diff param =  6.85e-02, diff hybrid =  9.67e-02
96 minimization steps, time(MIN)/time(ED)=0.00304
sb1_1     =  0.0393	sb2_1     = -0.0032	sb3_1     =  0.0138	sb4_1     = -0.1336	sb5_1     =  0.0069	
sb6_1     = -0.1257	sb7_1     =  0.0326	sb8_1     = -0.0036	eb1_1     = -0.0333	eb2_1     = -3.5733	
eb3_1     = -4.3067	eb4_1     = -0.1055	eb5_1     = -4.0911	eb6_1     = -0.0436	eb7_1     =  0.0942	
eb8_1     = -3.7613	tb1_1     = -0.1070	tb2_1     = -1.1109	tb3_1     =  1.7395	tb4_1     =  0.0967	
tb5_1     = -1.7029	tb6_1     = -0.0466	tb7_1     =  0.1784	tb8_1     = -2.2473	

CDMFT iteration 56, distance =  1.13e+02, diff param =  6.80e-02, diff hybrid =  9.57e-02
80 minimization steps, time(MIN)/time(ED)=0.00301
sb1_1     = -0.0398	sb2_1     =  0.0048	sb3_1     =  0.0061	sb4_1     = -0.1249	sb5_1     =  0.0146	
sb6_1     = -0.1310	sb7_1     = -0.0353	sb8_1     =  0.0043	eb1_1     = -0.0451	eb2_1     = -3.5777	
eb3_1     = -4.0969	eb4_1     = -0.0464	eb5_1     = -4.2885	eb6_1     = -0.1098	eb7_1     =  0.1025	
eb8_1     = -3.7702	tb1_1     = -0.1091	tb2_1     = -1.1106	tb3_1     =  1.7058	tb4_1     =  0.0386	
tb5_1     = -1.7367	tb6_1     = -0.0998	tb7_1     =  0.1797	tb8_1     = -2.2509	

CDMFT iteration 57, distance =  1.05e+02, diff param =  7.65e-02, diff hybrid =  1.03e-01
153 minimization steps, time(MIN)/time(ED)=0.00302
sb1_1     =  0.0338	sb2_1     = -0.0077	sb3_1     =  0.0164	sb4_1     = -0.1221	sb5_1     =  0.0077	
sb6_1     = -0.1131	sb7_1     =  0.0438	sb8_1     = -0.0063	eb1_1     = -0.0860	eb2_1     = -3.7123	
eb3_1     = -4.3284	eb4_1     = -0.1160	eb5_1     = -4.0999	eb6_1     = -0.0484	eb7_1     =  0.1055	
eb8_1     = -3.7675	tb1_1     = -0.1305	tb2_1     = -1.1221	tb3_1     =  1.7432	tb4_1     =  0.1137	
tb5_1     = -1.7077	tb6_1     = -0.0548	tb7_1     =  0.1698	tb8_1     = -2.2525	

CDMFT iteration 58, distance =  9.98e+01, diff param =  6.85e-02, diff hybrid =  1.12e-01
94 minimization steps, time(MIN)/time(ED)=0.00301
sb1_1     = -0.0313	sb2_1     =  0.0066	sb3_1     =  0.0102	sb4_1     = -0.1044	sb5_1     =  0.0162	
sb6_1     = -0.1183	sb7_1     = -0.0476	sb8_1     =  0.0072	eb1_1     = -0.0698	eb2_1     = -3.7033	
eb3_1     = -4.1531	eb4_1     = -0.0565	eb5_1     = -4.3300	eb6_1     = -0.1106	eb7_1     =  0.0967	
eb8_1     = -3.7539	tb1_1     = -0.1270	tb2_1     = -1.1231	tb3_1     =  1.7158	tb4_1     =  0.0775	
tb5_1     = -1.7427	tb6_1     = -0.1182	tb7_1     =  0.1597	tb8_1     = -2.2491	

CDMFT iteration 59, distance =  1.07e+02, diff param =  6.59e-02, diff hybrid =  1.06e-01
117 minimization steps, time(MIN)/time(ED)=0.00300
sb1_1     =  0.0315	sb2_1     = -0.0037	sb3_1     =  0.0150	sb4_1     = -0.1252	sb5_1     =  0.0093	
sb6_1     = -0.1116	sb7_1     =  0.0355	sb8_1     = -0.0046	eb1_1     = -0.0386	eb2_1     = -3.6067	
eb3_1     = -4.3337	eb4_1     = -0.1054	eb5_1     = -4.1343	eb6_1     = -0.0499	eb7_1     =  0.0858	
eb8_1     = -3.7440	tb1_1     = -0.1138	tb2_1     = -1.1149	tb3_1     =  1.7440	tb4_1     =  0.1079	
tb5_1     = -1.7110	tb6_1     = -0.0737	tb7_1     =  0.1631	tb8_1     = -2.2448	

CDMFT iteration 60, distance =  1.14e+02, diff param =  6.83e-02, diff hybrid =  9.68e-02
101 minimization steps, time(MIN)/time(ED)=0.00299
sb1_1     = -0.0385	sb2_1     =  0.0034	sb3_1     =  0.0071	sb4_1     = -0.1238	sb5_1     =  0.0141	
sb6_1     = -0.1321	sb7_1     = -0.0336	sb8_1     =  0.0038	eb1_1     = -0.0351	eb2_1     = -3.5763	
eb3_1     = -4.0978	eb4_1     = -0.0437	eb5_1     = -4.3105	eb6_1     = -0.1065	eb7_1     =  0.0944	
eb8_1     = -3.7614	tb1_1     = -0.1081	tb2_1     = -1.1112	tb3_1     =  1.7044	tb4_1     =  0.0493	
tb5_1     = -1.7402	tb6_1     = -0.0991	tb7_1     =  0.1766	tb8_1     = -2.2479	

CDMFT iteration 61, distance =  1.13e+02, diff param =  6.83e-02, diff hybrid =  9.60e-02
89 minimization steps, time(MIN)/time(ED)=0.00297
sb1_1     =  0.0393	sb2_1     = -0.0048	sb3_1     =  0.0146	sb4_1     = -0.1303	sb5_1     =  0.0063	
sb6_1     = -0.1238	sb7_1     =  0.0360	sb8_1     = -0.0044	eb1_1     = -0.0455	eb2_1     = -3.5803	
eb3_1     = -4.2909	eb4_1     = -0.1099	eb5_1     = -4.0946	eb6_1     = -0.0457	eb7_1     =  0.1018	
eb8_1     = -3.7695	tb1_1     = -0.1098	tb2_1     = -1.1109	tb3_1     =  1.7369	tb4_1     =  0.1012	
tb5_1     = -1.7053	tb6_1     = -0.0410	tb7_1     =  0.1784	tb8_1     = -2.2509	

CDMFT iteration 62, distance =  1.06e+02, diff param =  7.33e-02, diff hybrid =  1.03e-01
142 minimization steps, time(MIN)/time(ED)=0.00298
sb1_1     = -0.0344	sb2_1     =  0.0071	sb3_1     =  0.0077	sb4_1     = -0.1140	sb5_1     =  0.0162	
sb6_1     = -0.1230	sb7_1     = -0.0430	sb8_1     =  0.0061	eb1_1     = -0.0751	eb2_1     = -3.6692	
eb3_1     = -4.1006	eb4_1     = -0.0479	eb5_1     = -4.3253	eb6_1     = -0.1149	eb7_1     =  0.1046	
eb8_1     = -3.7671	tb1_1     = -0.1255	tb2_1     = -1.1181	tb3_1     =  1.7076	tb4_1     =  0.0544	
tb5_1     = -1.7426	tb6_1     = -0.1126	tb7_1     =  0.1704	tb8_1     = -2.2522	

CDMFT iteration 63, distance =  1.01e+02, diff param =  7.00e-02, diff hybrid =  1.10e-01
89 minimization steps, time(MIN)/time(ED)=0.00296
sb1_1     =  0.0318	sb2_1     = -0.0063	sb3_1     =  0.0162	sb4_1     = -0.1195	sb5_1     =  0.0097	
sb6_1     = -0.1059	sb7_1     =  0.0465	sb8_1     = -0.0070	eb1_1     = -0.0663	eb2_1     = -3.6745	
eb3_1     = -4.3317	eb4_1     = -0.1114	eb5_1     = -4.1371	eb6_1     = -0.0537	eb7_1     =  0.0981	
eb8_1     = -3.7564	tb1_1     = -0.1248	tb2_1     = -1.1199	tb3_1     =  1.7430	tb4_1     =  0.1171	
tb5_1     = -1.7130	tb6_1     = -0.0737	tb7_1     =  0.1619	tb8_1     = -2.2497	

CDMFT iteration 64, distance =  1.07e+02, diff param =  6.75e-02, diff hybrid =  1.06e-01
92 minimization steps, time(MIN)/time(ED)=0.00295
sb1_1     = -0.0322	sb2_1     =  0.0040	sb3_1     =  0.0091	sb4_1     = -0.1116	sb5_1     =  0.0152	
sb6_1     = -0.1250	sb7_1     = -0.0369	sb8_1     =  0.0048	eb1_1     = -0.0409	eb2_1     = -3.6074	
eb3_1     = -4.1288	eb4_1     = -0.0493	eb5_1     = -4.3343	eb6_1     = -0.1065	eb7_1     =  0.0884	
eb8_1     = -3.7456	tb1_1     = -0.1142	tb2_1     = -1.1147	tb3_1     =  1.7102	tb4_1     =  0.0717	
tb5_1     = -1.7440	tb6_1     = -0.1089	tb7_1     =  0.1640	tb8_1     = -2.2454	

CDMFT iteration 65, distance =  1.13e+02, diff param =  6.76e-02, diff hybrid =  9.78e-02
92 minimization steps, time(MIN)/time(ED)=0.00294
sb1_1     =  0.0378	sb2_1     = -0.0036	sb3_1     =  0.0142	sb4_1     = -0.1307	sb5_1     =  0.0074	
sb6_1     = -0.1221	sb7_1     =  0.0345	sb8_1     = -0.0040	eb1_1     = -0.0368	eb2_1     = -3.5823	
eb3_1     = -4.3080	eb4_1     = -0.1069	eb5_1     = -4.1054	eb6_1     = -0.0440	eb7_1     =  0.0947	
eb8_1     = -3.7603	tb1_1     = -0.1091	tb2_1     = -1.1119	tb3_1     =  1.7396	tb4_1     =  0.1009	
tb5_1     = -1.7061	tb6_1     = -0.0518	tb7_1     =  0.1751	tb8_1     = -2.2480	

CDMFT iteration 66, distance =  1.12e+02, diff param =  6.79e-02, diff hybrid =  9.68e-02
107 minimization steps, time(MIN)/time(ED)=0.00293
sb1_1     = -0.0386	sb2_1     =  0.0048	sb3_1     =  0.0066	sb4_1     = -0.1228	sb5_1     =  0.0148	
sb6_1     = -0.1299	sb7_1     = -0.0364	sb8_1     =  0.0045	eb1_1     = -0.0454	eb2_1     = -3.5834	
eb3_1     = -4.0969	eb4_1     = -0.0453	eb5_1     = -4.3018	eb6_1     = -0.1102	eb7_1     =  0.1010	
eb8_1     = -3.7674	tb1_1     = -0.1104	tb2_1     = -1.1113	tb3_1     =  1.7057	tb4_1     =  0.0435	
tb5_1     = -1.7388	tb6_1     = -0.1023	tb7_1     =  0.1773	tb8_1     = -2.2504	

CDMFT iteration 67, distance =  1.07e+02, diff param =  7.46e-02, diff hybrid =  1.03e-01
100 minimization steps, time(MIN)/time(ED)=0.00292
sb1_1     =  0.0347	sb2_1     = -0.0067	sb3_1     =  0.0161	sb4_1     = -0.1239	sb5_1     =  0.0076	
sb6_1     = -0.1147	sb7_1     =  0.0423	sb8_1     = -0.0059	eb1_1     = -0.0691	eb2_1     = -3.6594	
eb3_1     = -4.3334	eb4_1     = -0.1147	eb5_1     = -4.1003	eb6_1     = -0.0474	eb7_1     =  0.1038	
eb8_1     = -3.7667	tb1_1     = -0.1228	tb2_1     = -1.1178	tb3_1     =  1.7441	tb4_1     =  0.1122	
tb5_1     = -1.7073	tb6_1     = -0.0540	tb7_1     =  0.1708	tb8_1     = -2.2519	

CDMFT iteration 68, distance =  1.02e+02, diff param =  7.23e-02, diff hybrid =  1.09e-01
111 minimization steps, time(MIN)/time(ED)=0.00291
sb1_1     = -0.0324	sb2_1     =  0.0063	sb3_1     =  0.0094	sb4_1     = -0.1073	sb5_1     =  0.0162	
sb6_1     = -0.1204	sb7_1     = -0.0458	sb8_1     =  0.0068	eb1_1     = -0.0652	eb2_1     = -3.6674	
eb3_1     = -4.1315	eb4_1     = -0.0525	eb5_1     = -4.3362	eb6_1     = -0.1118	eb7_1     =  0.0990	
eb8_1     = -3.7585	tb1_1     = -0.1239	tb2_1     = -1.1192	tb3_1     =  1.7121	tb4_1     =  0.0710	
tb5_1     = -1.7440	tb6_1     = -0.1164	tb7_1     =  0.1633	tb8_1     = -2.2502	

CDMFT iteration 69, distance =  1.07e+02, diff param =  6.91e-02, diff hybrid =  1.06e-01
104 minimization steps, time(MIN)/time(ED)=0.00291
sb1_1     =  0.0324	sb2_1     = -0.0042	sb3_1     =  0.0153	sb4_1     = -0.1247	sb5_1     =  0.0091	
sb6_1     = -0.1114	sb7_1     =  0.0379	sb8_1     = -0.0051	eb1_1     = -0.0429	eb2_1     = -3.6043	
eb3_1     = -4.3380	eb4_1     = -0.1075	eb5_1     = -4.1298	eb6_1     = -0.0496	eb7_1     =  0.0905	
eb8_1     = -3.7494	tb1_1     = -0.1147	tb2_1     = -1.1140	tb3_1     =  1.7447	tb4_1     =  0.1097	
tb5_1     = -1.7107	tb6_1     = -0.0712	tb7_1     =  0.1646	tb8_1     = -2.2466	

CDMFT iteration 70, distance =  1.12e+02, diff param =  6.88e-02, diff hybrid =  9.84e-02
104 minimization steps, time(MIN)/time(ED)=0.00290
sb1_1     = -0.0367	sb2_1     =  0.0037	sb3_1     =  0.0076	sb4_1     = -0.1204	sb5_1     =  0.0145	
sb6_1     = -0.1297	sb7_1     = -0.0350	sb8_1     =  0.0042	eb1_1     = -0.0381	eb2_1     = -3.5804	
eb3_1     = -4.1052	eb4_1     = -0.0446	eb5_1     = -4.3153	eb6_1     = -0.1075	eb7_1     =  0.0944	
eb8_1     = -3.7573	tb1_1     = -0.1101	tb2_1     = -1.1114	tb3_1     =  1.7062	tb4_1     =  0.0547	
tb5_1     = -1.7409	tb6_1     = -0.1027	tb7_1     =  0.1734	tb8_1     = -2.2475	

CDMFT iteration 71, distance =  1.12e+02, diff param =  6.82e-02, diff hybrid =  9.65e-02
76 minimization steps, time(MIN)/time(ED)=0.00288
sb1_1     =  0.0381	sb2_1     = -0.0046	sb3_1     =  0.0147	sb4_1     = -0.1294	sb5_1     =  0.0068	
sb6_1     = -0.1220	sb7_1     =  0.0366	sb8_1     = -0.0045	eb1_1     = -0.0449	eb2_1     = -3.5818	
eb3_1     = -4.2992	eb4_1     = -0.1098	eb5_1     = -4.0992	eb6_1     = -0.0452	eb7_1     =  0.1003	
eb8_1     = -3.7672	tb1_1     = -0.1107	tb2_1     = -1.1111	tb3_1     =  1.7382	tb4_1     =  0.1030	
tb5_1     = -1.7060	tb6_1     = -0.0459	tb7_1     =  0.1764	tb8_1     = -2.2505	

CDMFT iteration 72, distance =  1.07e+02, diff param =  7.15e-02, diff hybrid =  1.02e-01
125 minimization steps, time(MIN)/time(ED)=0.00288
sb1_1     = -0.0349	sb2_1     =  0.0061	sb3_1     =  0.0076	sb4_1     = -0.1155	sb5_1     =  0.0159	
sb6_1     = -0.1245	sb7_1     = -0.0413	sb8_1     =  0.0057	eb1_1     = -0.0621	eb2_1     = -3.6308	
eb3_1     = -4.1002	eb4_1     = -0.0470	eb5_1     = -4.3247	eb6_1     = -0.1135	eb7_1     =  0.1029	
eb8_1     = -3.7660	tb1_1     = -0.1195	tb2_1     = -1.1152	tb3_1     =  1.7071	tb4_1     =  0.0537	
tb5_1     = -1.7426	tb6_1     = -0.1108	tb7_1     =  0.1713	tb8_1     = -2.2515	

CDMFT iteration 73, distance =  1.03e+02, diff param =  7.18e-02, diff hybrid =  1.07e-01
94 minimization steps, time(MIN)/time(ED)=0.00287
sb1_1     =  0.0328	sb2_1     = -0.0060	sb3_1     =  0.0160	sb4_1     = -0.1213	sb5_1     =  0.0090	
sb6_1     = -0.1090	sb7_1     =  0.0446	sb8_1     = -0.0065	eb1_1     = -0.0626	eb2_1     = -3.6487	
eb3_1     = -4.3329	eb4_1     = -0.1119	eb5_1     = -4.1235	eb6_1     = -0.0508	eb7_1     =  0.0993	
eb8_1     = -3.7585	tb1_1     = -0.1221	tb2_1     = -1.1172	tb3_1     =  1.7435	tb4_1     =  0.1152	
tb5_1     = -1.7108	tb6_1     = -0.0679	tb7_1     =  0.1648	tb8_1     = -2.2500	

CDMFT iteration 74, distance =  1.06e+02, diff param =  6.68e-02, diff hybrid =  1.05e-01
94 minimization steps, time(MIN)/time(ED)=0.00286
sb1_1     = -0.0328	sb2_1     =  0.0045	sb3_1     =  0.0090	sb4_1     = -0.1116	sb5_1     =  0.0152	
sb6_1     = -0.1242	sb7_1     = -0.0388	sb8_1     =  0.0052	eb1_1     = -0.0452	eb2_1     = -3.6156	
eb3_1     = -4.1311	eb4_1     = -0.0494	eb5_1     = -4.3234	eb6_1     = -0.1076	eb7_1     =  0.0925	
eb8_1     = -3.7518	tb1_1     = -0.1153	tb2_1     = -1.1153	tb3_1     =  1.7112	tb4_1     =  0.0696	
tb5_1     = -1.7419	tb6_1     = -0.1100	tb7_1     =  0.1653	tb8_1     = -2.2474	

CDMFT iteration 75, distance =  1.11e+02, diff param =  6.77e-02, diff hybrid =  9.90e-02
110 minimization steps, time(MIN)/time(ED)=0.00286
sb1_1     =  0.0358	sb2_1     = -0.0038	sb3_1     =  0.0147	sb4_1     = -0.1288	sb5_1     =  0.0078	
sb6_1     = -0.1189	sb7_1     =  0.0357	sb8_1     = -0.0044	eb1_1     = -0.0394	eb2_1     = -3.5832	
eb3_1     = -4.3222	eb4_1     = -0.1082	eb5_1     = -4.1050	eb6_1     = -0.0450	eb7_1     =  0.0949	
eb8_1     = -3.7582	tb1_1     = -0.1109	tb2_1     = -1.1117	tb3_1     =  1.7421	tb4_1     =  0.1041	
tb5_1     = -1.7062	tb6_1     = -0.0567	tb7_1     =  0.1724	tb8_1     = -2.2481	

CDMFT iteration 76, distance =  1.12e+02, diff param =  7.00e-02, diff hybrid =  9.69e-02
93 minimization steps, time(MIN)/time(ED)=0.00284
sb1_1     = -0.0376	sb2_1     =  0.0047	sb3_1     =  0.0070	sb4_1     = -0.1211	sb5_1     =  0.0149	
sb6_1     = -0.1290	sb7_1     = -0.0368	sb8_1     =  0.0046	eb1_1     = -0.0452	eb2_1     = -3.5844	
eb3_1     = -4.1001	eb4_1     = -0.0451	eb5_1     = -4.3074	eb6_1     = -0.1101	eb7_1     =  0.0994	
eb8_1     = -3.7644	tb1_1     = -0.1113	tb2_1     = -1.1113	tb3_1     =  1.7061	tb4_1     =  0.0480	
tb5_1     = -1.7396	tb6_1     = -0.1041	tb7_1     =  0.1753	tb8_1     = -2.2498	

CDMFT iteration 77, distance =  1.08e+02, diff param =  6.98e-02, diff hybrid =  1.01e-01
119 minimization steps, time(MIN)/time(ED)=0.00284
sb1_1     =  0.0352	sb2_1     = -0.0058	sb3_1     =  0.0156	sb4_1     = -0.1248	sb5_1     =  0.0076	
sb6_1     = -0.1159	sb7_1     =  0.0408	sb8_1     = -0.0056	eb1_1     = -0.0583	eb2_1     = -3.6150	
eb3_1     = -4.3135	eb4_1     = -0.1125	eb5_1     = -4.1044	eb6_1     = -0.0469	eb7_1     =  0.1024	
eb8_1     = -3.7656	tb1_1     = -0.1178	tb2_1     = -1.1136	tb3_1     =  1.7405	tb4_1     =  0.1099	
tb5_1     = -1.7077	tb6_1     = -0.0538	tb7_1     =  0.1715	tb8_1     = -2.2513	

CDMFT iteration 78, distance =  1.05e+02, diff param =  7.00e-02, diff hybrid =  1.06e-01
77 minimization steps, time(MIN)/time(ED)=0.00283
sb1_1     = -0.0329	sb2_1     =  0.0057	sb3_1     =  0.0087	sb4_1     = -0.1102	sb5_1     =  0.0159	
sb6_1     = -0.1220	sb7_1     = -0.0434	sb8_1     =  0.0062	eb1_1     = -0.0598	eb2_1     = -3.6318	
eb3_1     = -4.1134	eb4_1     = -0.0495	eb5_1     = -4.3258	eb6_1     = -0.1115	eb7_1     =  0.0994	
eb8_1     = -3.7591	tb1_1     = -0.1206	tb2_1     = -1.1154	tb3_1     =  1.7088	tb4_1     =  0.0658	
tb5_1     = -1.7423	tb6_1     = -0.1137	tb7_1     =  0.1660	tb8_1     = -2.2500	

CDMFT iteration 79, distance =  1.07e+02, diff param =  6.81e-02, diff hybrid =  1.05e-01
94 minimization steps, time(MIN)/time(ED)=0.00282
sb1_1     =  0.0331	sb2_1     = -0.0045	sb3_1     =  0.0153	sb4_1     = -0.1243	sb5_1     =  0.0089	
sb6_1     = -0.1121	sb7_1     =  0.0392	sb8_1     = -0.0054	eb1_1     = -0.0462	eb2_1     = -3.6077	
eb3_1     = -4.3252	eb4_1     = -0.1083	eb5_1     = -4.1251	eb6_1     = -0.0489	eb7_1     =  0.0940	
eb8_1     = -3.7544	tb1_1     = -0.1154	tb2_1     = -1.1141	tb3_1     =  1.7423	tb4_1     =  0.1102	
tb5_1     = -1.7102	tb6_1     = -0.0678	tb7_1     =  0.1662	tb8_1     = -2.2481	

CDMFT iteration 80, distance =  1.11e+02, diff param =  6.79e-02, diff hybrid =  9.94e-02
116 minimization steps, time(MIN)/time(ED)=0.00282
sb1_1     = -0.0356	sb2_1     =  0.0040	sb3_1     =  0.0079	sb4_1     = -0.1181	sb5_1     =  0.0148	
sb6_1     = -0.1281	sb7_1     = -0.0364	sb8_1     =  0.0045	eb1_1     = -0.0410	eb2_1     = -3.5854	
eb3_1     = -4.1076	eb4_1     = -0.0454	eb5_1     = -4.3199	eb6_1     = -0.1084	eb7_1     =  0.0953	
eb8_1     = -3.7583	tb1_1     = -0.1116	tb2_1     = -1.1118	tb3_1     =  1.7069	tb4_1     =  0.0576	
tb5_1     = -1.7417	tb6_1     = -0.1051	tb7_1     =  0.1717	tb8_1     = -2.2483	

CDMFT iteration 81, distance =  1.11e+02, diff param =  7.00e-02, diff hybrid =  9.76e-02
72 minimization steps, time(MIN)/time(ED)=0.00280
sb1_1     =  0.0369	sb2_1     = -0.0046	sb3_1     =  0.0149	sb4_1     = -0.1283	sb5_1     =  0.0072	
sb6_1     = -0.1200	sb7_1     =  0.0372	sb8_1     = -0.0047	eb1_1     = -0.0453	eb2_1     = -3.5859	
eb3_1     = -4.3072	eb4_1     = -0.1099	eb5_1     = -4.0942	eb6_1     = -0.0450	eb7_1     =  0.0992	
eb8_1     = -3.7642	tb1_1     = -0.1118	tb2_1     = -1.1115	tb3_1     =  1.7395	tb4_1     =  0.1047	
tb5_1     = -1.7049	tb6_1     = -0.0501	tb7_1     =  0.1744	tb8_1     = -2.2499	

CDMFT iteration 82, distance =  1.08e+02, diff param =  7.17e-02, diff hybrid =  1.01e-01
92 minimization steps, time(MIN)/time(ED)=0.00279
sb1_1     = -0.0354	sb2_1     =  0.0056	sb3_1     =  0.0076	sb4_1     = -0.1161	sb5_1     =  0.0156	
sb6_1     = -0.1253	sb7_1     = -0.0404	sb8_1     =  0.0055	eb1_1     = -0.0559	eb2_1     = -3.6120	
eb3_1     = -4.1024	eb4_1     = -0.0466	eb5_1     = -4.3217	eb6_1     = -0.1123	eb7_1     =  0.1014	
eb8_1     = -3.7639	tb1_1     = -0.1169	tb2_1     = -1.1135	tb3_1     =  1.7072	tb4_1     =  0.0541	
tb5_1     = -1.7420	tb6_1     = -0.1097	tb7_1     =  0.1715	tb8_1     = -2.2507	

CDMFT iteration 83, distance =  1.05e+02, diff param =  7.06e-02, diff hybrid =  1.05e-01
90 minimization steps, time(MIN)/time(ED)=0.00278
sb1_1     =  0.0336	sb2_1     = -0.0057	sb3_1     =  0.0158	sb4_1     = -0.1228	sb5_1     =  0.0086	
sb6_1     = -0.1114	sb7_1     =  0.0426	sb8_1     = -0.0060	eb1_1     = -0.0581	eb2_1     = -3.6273	
eb3_1     = -4.3245	eb4_1     = -0.1115	eb5_1     = -4.1179	eb6_1     = -0.0489	eb7_1     =  0.0994	
eb8_1     = -3.7586	tb1_1     = -0.1195	tb2_1     = -1.1151	tb3_1     =  1.7422	tb4_1     =  0.1128	
tb5_1     = -1.7098	tb6_1     = -0.0638	tb7_1     =  0.1670	tb8_1     = -2.2497	

CDMFT iteration 84, distance =  1.07e+02, diff param =  6.77e-02, diff hybrid =  1.04e-01
79 minimization steps, time(MIN)/time(ED)=0.00278
sb1_1     = -0.0332	sb2_1     =  0.0047	sb3_1     =  0.0087	sb4_1     = -0.1123	sb5_1     =  0.0153	
sb6_1     = -0.1243	sb7_1     = -0.0396	sb8_1     =  0.0054	eb1_1     = -0.0476	eb2_1     = -3.6110	
eb3_1     = -4.1198	eb4_1     = -0.0485	eb5_1     = -4.3223	eb6_1     = -0.1089	eb7_1     =  0.0953	
eb8_1     = -3.7553	tb1_1     = -0.1157	tb2_1     = -1.1143	tb3_1     =  1.7093	tb4_1     =  0.0665	
tb5_1     = -1.7418	tb6_1     = -0.1102	tb7_1     =  0.1668	tb8_1     = -2.2484	

CDMFT iteration 85, distance =  1.10e+02, diff param =  6.79e-02, diff hybrid =  9.99e-02
69 minimization steps, time(MIN)/time(ED)=0.00276
sb1_1     =  0.0352	sb2_1     = -0.0042	sb3_1     =  0.0149	sb4_1     = -0.1273	sb5_1     =  0.0080	
sb6_1     = -0.1171	sb7_1     =  0.0369	sb8_1     = -0.0047	eb1_1     = -0.0425	eb2_1     = -3.5924	
eb3_1     = -4.3192	eb4_1     = -0.1088	eb5_1     = -4.1092	eb6_1     = -0.0457	eb7_1     =  0.0955	
eb8_1     = -3.7579	tb1_1     = -0.1124	tb2_1     = -1.1126	tb3_1     =  1.7415	tb4_1     =  0.1062	
tb5_1     = -1.7073	tb6_1     = -0.0588	tb7_1     =  0.1709	tb8_1     = -2.2484	

CDMFT iteration 86, distance =  1.11e+02, diff param =  7.02e-02, diff hybrid =  9.81e-02
97 minimization steps, time(MIN)/time(ED)=0.00275
sb1_1     = -0.0366	sb2_1     =  0.0046	sb3_1     =  0.0073	sb4_1     = -0.1192	sb5_1     =  0.0150	
sb6_1     = -0.1280	sb7_1     = -0.0375	sb8_1     =  0.0047	eb1_1     = -0.0455	eb2_1     = -3.5890	
eb3_1     = -4.1004	eb4_1     = -0.0452	eb5_1     = -4.3174	eb6_1     = -0.1103	eb7_1     =  0.0986	
eb8_1     = -3.7627	tb1_1     = -0.1122	tb2_1     = -1.1119	tb3_1     =  1.7061	tb4_1     =  0.0520	
tb5_1     = -1.7413	tb6_1     = -0.1057	tb7_1     =  0.1735	tb8_1     = -2.2496	

CDMFT iteration 87, distance =  1.08e+02, diff param =  7.11e-02, diff hybrid =  1.01e-01
135 minimization steps, time(MIN)/time(ED)=0.00276
sb1_1     =  0.0355	sb2_1     = -0.0055	sb3_1     =  0.0155	sb4_1     = -0.1256	sb5_1     =  0.0076	
sb6_1     = -0.1164	sb7_1     =  0.0401	sb8_1     = -0.0054	eb1_1     = -0.0540	eb2_1     = -3.6082	
eb3_1     = -4.3180	eb4_1     = -0.1118	eb5_1     = -4.1055	eb6_1     = -0.0465	eb7_1     =  0.1010	
eb8_1     = -3.7642	tb1_1     = -0.1161	tb2_1     = -1.1133	tb3_1     =  1.7413	tb4_1     =  0.1092	
tb5_1     = -1.7076	tb6_1     = -0.0544	tb7_1     =  0.1716	tb8_1     = -2.2507	

CDMFT iteration 88, distance =  1.06e+02, diff param =  7.05e-02, diff hybrid =  1.04e-01
73 minimization steps, time(MIN)/time(ED)=0.00274
sb1_1     = -0.0338	sb2_1     =  0.0056	sb3_1     =  0.0084	sb4_1     = -0.1123	sb5_1     =  0.0157	
sb6_1     = -0.1234	sb7_1     = -0.0421	sb8_1     =  0.0059	eb1_1     = -0.0565	eb2_1     = -3.6211	
eb3_1     = -4.1137	eb4_1     = -0.0484	eb5_1     = -4.3269	eb6_1     = -0.1116	eb7_1     =  0.1000	
eb8_1     = -3.7625	tb1_1     = -0.1186	tb2_1     = -1.1145	tb3_1     =  1.7090	tb4_1     =  0.0625	
tb5_1     = -1.7427	tb6_1     = -0.1121	tb7_1     =  0.1681	tb8_1     = -2.2508	

CDMFT iteration 89, distance =  1.07e+02, diff param =  7.02e-02, diff hybrid =  1.04e-01
67 minimization steps, time(MIN)/time(ED)=0.00273
sb1_1     =  0.0334	sb2_1     = -0.0048	sb3_1     =  0.0155	sb4_1     = -0.1243	sb5_1     =  0.0087	
sb6_1     = -0.1124	sb7_1     =  0.0399	sb8_1     = -0.0054	eb1_1     = -0.0490	eb2_1     = -3.6098	
eb3_1     = -4.3327	eb4_1     = -0.1099	eb5_1     = -4.1179	eb6_1     = -0.0484	eb7_1     =  0.0958	
eb8_1     = -3.7557	tb1_1     = -0.1160	tb2_1     = -1.1140	tb3_1     =  1.7437	tb4_1     =  0.1108	
tb5_1     = -1.7091	tb6_1     = -0.0656	tb7_1     =  0.1670	tb8_1     = -2.2486	

CDMFT iteration 90, distance =  1.09e+02, diff param =  6.97e-02, diff hybrid =  1.00e-01
80 minimization steps, time(MIN)/time(ED)=0.00272
sb1_1     = -0.0349	sb2_1     =  0.0043	sb3_1     =  0.0081	sb4_1     = -0.1162	sb5_1     =  0.0151	
sb6_1     = -0.1267	sb7_1     = -0.0377	sb8_1     =  0.0049	eb1_1     = -0.0440	eb2_1     = -3.5938	
eb3_1     = -4.1111	eb4_1     = -0.0463	eb5_1     = -4.3219	eb6_1     = -0.1091	eb7_1     =  0.0958	
eb8_1     = -3.7576	tb1_1     = -0.1131	tb2_1     = -1.1126	tb3_1     =  1.7077	tb4_1     =  0.0600	
tb5_1     = -1.7419	tb6_1     = -0.1073	tb7_1     =  0.1702	tb8_1     = -2.2485	

CDMFT iteration 91, distance =  1.10e+02, diff param =  6.99e-02, diff hybrid =  9.86e-02
109 minimization steps, time(MIN)/time(ED)=0.00272
sb1_1     =  0.0362	sb2_1     = -0.0046	sb3_1     =  0.0151	sb4_1     = -0.1276	sb5_1     =  0.0076	
sb6_1     = -0.1184	sb7_1     =  0.0376	sb8_1     = -0.0048	eb1_1     = -0.0455	eb2_1     = -3.5898	
eb3_1     = -4.3179	eb4_1     = -0.1100	eb5_1     = -4.1031	eb6_1     = -0.0455	eb7_1     =  0.0983	
eb8_1     = -3.7621	tb1_1     = -0.1126	tb2_1     = -1.1119	tb3_1     =  1.7413	tb4_1     =  0.1063	
tb5_1     = -1.7066	tb6_1     = -0.0539	tb7_1     =  0.1728	tb8_1     = -2.2496	

CDMFT iteration 92, distance =  1.09e+02, diff param =  7.15e-02, diff hybrid =  1.00e-01
67 minimization steps, time(MIN)/time(ED)=0.00271
sb1_1     = -0.0355	sb2_1     =  0.0052	sb3_1     =  0.0076	sb4_1     = -0.1165	sb5_1     =  0.0154	
sb6_1     = -0.1259	sb7_1     = -0.0395	sb8_1     =  0.0053	eb1_1     = -0.0517	eb2_1     = -3.6001	
eb3_1     = -4.0950	eb4_1     = -0.0463	eb5_1     = -4.3150	eb6_1     = -0.1113	eb7_1     =  0.1002	
eb8_1     = -3.7628	tb1_1     = -0.1152	tb2_1     = -1.1125	tb3_1     =  1.7055	tb4_1     =  0.0547	
tb5_1     = -1.7407	tb6_1     = -0.1086	tb7_1     =  0.1716	tb8_1     = -2.2502	

CDMFT iteration 93, distance =  1.07e+02, diff param =  7.25e-02, diff hybrid =  1.03e-01
102 minimization steps, time(MIN)/time(ED)=0.00270
sb1_1     =  0.0343	sb2_1     = -0.0055	sb3_1     =  0.0157	sb4_1     = -0.1242	sb5_1     =  0.0082	
sb6_1     = -0.1134	sb7_1     =  0.0413	sb8_1     = -0.0057	eb1_1     = -0.0549	eb2_1     = -3.6169	
eb3_1     = -4.3304	eb4_1     = -0.1115	eb5_1     = -4.1095	eb6_1     = -0.0478	eb7_1     =  0.0997	
eb8_1     = -3.7612	tb1_1     = -0.1177	tb2_1     = -1.1142	tb3_1     =  1.7433	tb4_1     =  0.1115	
tb5_1     = -1.7081	tb6_1     = -0.0607	tb7_1     =  0.1689	tb8_1     = -2.2502	

CDMFT iteration 94, distance =  1.07e+02, diff param =  7.00e-02, diff hybrid =  1.04e-01
93 minimization steps, time(MIN)/time(ED)=0.00270
sb1_1     = -0.0338	sb2_1     =  0.0050	sb3_1     =  0.0085	sb4_1     = -0.1129	sb5_1     =  0.0154	
sb6_1     = -0.1244	sb7_1     = -0.0402	sb8_1     =  0.0055	eb1_1     = -0.0500	eb2_1     = -3.6104	
eb3_1     = -4.1174	eb4_1     = -0.0481	eb5_1     = -4.3227	eb6_1     = -0.1099	eb7_1     =  0.0970	
eb8_1     = -3.7579	tb1_1     = -0.1161	tb2_1     = -1.1140	tb3_1     =  1.7092	tb4_1     =  0.0640	
tb5_1     = -1.7419	tb6_1     = -0.1105	tb7_1     =  0.1678	tb8_1     = -2.2492	

CDMFT iteration 95, distance =  1.09e+02, diff param =  6.83e-02, diff hybrid =  1.01e-01
116 minimization steps, time(MIN)/time(ED)=0.00270
sb1_1     =  0.0345	sb2_1     = -0.0044	sb3_1     =  0.0151	sb4_1     = -0.1262	sb5_1     =  0.0082	
sb6_1     = -0.1156	sb7_1     =  0.0381	sb8_1     = -0.0050	eb1_1     = -0.0452	eb2_1     = -3.5958	
eb3_1     = -4.3220	eb4_1     = -0.1094	eb5_1     = -4.1123	eb6_1     = -0.0466	eb7_1     =  0.0963	
eb8_1     = -3.7581	tb1_1     = -0.1137	tb2_1     = -1.1127	tb3_1     =  1.7419	tb4_1     =  0.1079	
tb5_1     = -1.7081	tb6_1     = -0.0607	tb7_1     =  0.1698	tb8_1     = -2.2487	

CDMFT iteration 96, distance =  1.10e+02, diff param =  6.81e-02, diff hybrid =  9.91e-02
106 minimization steps, time(MIN)/time(ED)=0.00269
sb1_1     = -0.0357	sb2_1     =  0.0046	sb3_1     =  0.0077	sb4_1     = -0.1176	sb5_1     =  0.0150	
sb6_1     = -0.1270	sb7_1     = -0.0379	sb8_1     =  0.0049	eb1_1     = -0.0459	eb2_1     = -3.5920	
eb3_1     = -4.1092	eb4_1     = -0.0458	eb5_1     = -4.3118	eb6_1     = -0.1096	eb7_1     =  0.0979	
eb8_1     = -3.7611	tb1_1     = -0.1130	tb2_1     = -1.1122	tb3_1     =  1.7077	tb4_1     =  0.0556	
tb5_1     = -1.7402	tb6_1     = -0.1066	tb7_1     =  0.1719	tb8_1     = -2.2494	

CDMFT iteration 97, distance =  1.09e+02, diff param =  6.79e-02, diff hybrid =  1.00e-01
85 minimization steps, time(MIN)/time(ED)=0.00269
sb1_1     =  0.0353	sb2_1     = -0.0050	sb3_1     =  0.0153	sb4_1     = -0.1259	sb5_1     =  0.0077	
sb6_1     = -0.1166	sb7_1     =  0.0392	sb8_1     = -0.0052	eb1_1     = -0.0502	eb2_1     = -3.5991	
eb3_1     = -4.3126	eb4_1     = -0.1107	eb5_1     = -4.1068	eb6_1     = -0.0462	eb7_1     =  0.0996	
eb8_1     = -3.7628	tb1_1     = -0.1147	tb2_1     = -1.1126	tb3_1     =  1.7403	tb4_1     =  0.1082	
tb5_1     = -1.7076	tb6_1     = -0.0555	tb7_1     =  0.1715	tb8_1     = -2.2502	

CDMFT iteration 98, distance =  1.07e+02, diff param =  6.87e-02, diff hybrid =  1.02e-01
67 minimization steps, time(MIN)/time(ED)=0.00268
sb1_1     = -0.0343	sb2_1     =  0.0053	sb3_1     =  0.0081	sb4_1     = -0.1141	sb5_1     =  0.0154	
sb6_1     = -0.1244	sb7_1     = -0.0406	sb8_1     =  0.0055	eb1_1     = -0.0529	eb2_1     = -3.6081	
eb3_1     = -4.1072	eb4_1     = -0.0472	eb5_1     = -4.3158	eb6_1     = -0.1108	eb7_1     =  0.0994	
eb8_1     = -3.7607	tb1_1     = -0.1166	tb2_1     = -1.1134	tb3_1     =  1.7077	tb4_1     =  0.0598	
tb5_1     = -1.7407	tb6_1     = -0.1102	tb7_1     =  0.1694	tb8_1     = -2.2500	

CDMFT iteration 99, distance =  1.07e+02, diff param =  6.77e-02, diff hybrid =  1.03e-01
89 minimization steps, time(MIN)/time(ED)=0.00267
sb1_1     =  0.0341	sb2_1     = -0.0049	sb3_1     =  0.0154	sb4_1     = -0.1246	sb5_1     =  0.0084	
sb6_1     = -0.1136	sb7_1     =  0.0400	sb8_1     = -0.0054	eb1_1     = -0.0498	eb2_1     = -3.6063	
eb3_1     = -4.3182	eb4_1     = -0.1098	eb5_1     = -4.1181	eb6_1     = -0.0476	eb7_1     =  0.0974	
eb8_1     = -3.7585	tb1_1     = -0.1158	tb2_1     = -1.1135	tb3_1     =  1.7411	tb4_1     =  0.1100	
tb5_1     = -1.7094	tb6_1     = -0.0624	tb7_1     =  0.1684	tb8_1     = -2.2493	

CDMFT iteration 100, distance =  1.09e+02, diff param =  6.77e-02, diff hybrid =  1.01e-01
135 minimization steps, time(MIN)/time(ED)=0.00267
sb1_1     = -0.0346	sb2_1     =  0.0046	sb3_1     =  0.0081	sb4_1     = -0.1155	sb5_1     =  0.0152	
sb6_1     = -0.1260	sb7_1     = -0.0385	sb8_1     =  0.0051	eb1_1     = -0.0461	eb2_1     = -3.5962	
eb3_1     = -4.1120	eb4_1     = -0.0465	eb5_1     = -4.3214	eb6_1     = -0.1095	eb7_1     =  0.0967	
eb8_1     = -3.7586	tb1_1     = -0.1140	tb2_1     = -1.1126	tb3_1     =  1.7081	tb4_1     =  0.0602	
tb5_1     = -1.7418	tb6_1     = -0.1081	tb7_1     =  0.1699	tb8_1     = -2.2490	

CDMFT iteration 101, distance =  1.09e+02, diff param =  6.91e-02, diff hybrid =  9.98e-02
94 minimization steps, time(MIN)/time(ED)=0.00267
sb1_1     =  0.0355	sb2_1     = -0.0046	sb3_1     =  0.0151	sb4_1     = -0.1267	sb5_1     =  0.0078	
sb6_1     = -0.1170	sb7_1     =  0.0382	sb8_1     = -0.0050	eb1_1     = -0.0466	eb2_1     = -3.5936	
eb3_1     = -4.3178	eb4_1     = -0.1100	eb5_1     = -4.1076	eb6_1     = -0.0459	eb7_1     =  0.0980	
eb8_1     = -3.7609	tb1_1     = -0.1135	tb2_1     = -1.1123	tb3_1     =  1.7413	tb4_1     =  0.1073	
tb5_1     = -1.7074	tb6_1     = -0.0564	tb7_1     =  0.1715	tb8_1     = -2.2494	
Traceback (most recent call last):
  File "/home/theod/code_pyqcm/simulations/cdmft_fade_with_mu.py", line 131, in <module>
    fade(fade_func, initial_P, material_P, 20+20*int(sys.argv[1]))
  File "/home/theod/.local/lib/python3.8/site-packages/pyqcm/loop.py", line 390, in fade
    F()
  File "/home/theod/code_pyqcm/simulations/cdmft_fade_with_mu.py", line 119, in fade_func
    cdmft(
  File "/home/theod/.local/lib/python3.8/site-packages/pyqcm/cdmft.py", line 514, in cdmft
    raise pyqcm.TooManyIterationsError(maxiter)
pyqcm.TooManyIterationsError: 100
