model	E_kin	D	U	e	eb1_1	eb2_1	eb3_1	eb4_1	eb5_1	eb6_1	eb7_1	eb8_1	mu	sb1_1	sb2_1	sb3_1	sb4_1	sb5_1	sb6_1	sb7_1	sb8_1	tb1_1	tb2_1	tb3_1	tb4_1	tb5_1	tb6_1	tb7_1	tb8_1	tpd	tpp	tppp	ave_D	ave_e	ave_mu	ave_tpd	ave_tpp	ave_tppp	ave_U_1	ave_eb1_1	ave_eb2_1	ave_eb3_1	ave_eb4_1	ave_eb5_1	ave_eb6_1	ave_eb7_1	ave_eb8_1	ave_mu_1	ave_sb1_1	ave_sb2_1	ave_sb3_1	ave_sb4_1	ave_sb5_1	ave_sb6_1	ave_sb7_1	ave_sb8_1	ave_tb1_1	ave_tb2_1	ave_tb3_1	ave_tb4_1	ave_tb5_1	ave_tb6_1	ave_tb7_1	ave_tb8_1	var_U_1	var_eb1_1	var_eb2_1	var_eb3_1	var_eb4_1	var_eb5_1	var_eb6_1	var_eb7_1	var_eb8_1	var_mu_1	var_sb1_1	var_sb2_1	var_sb3_1	var_sb4_1	var_sb5_1	var_sb6_1	var_sb7_1	var_sb8_1	var_tb1_1	var_tb2_1	var_tb3_1	var_tb4_1	var_tb5_1	var_tb6_1	var_tb7_1	var_tb8_1	E0_1	sector_1	E0_2	sector_2	githash	time
2x2_2C_8b_C2v_L	4.2050614	0	14	2.3	0.0093257428	-3.1571654	-3.9347763	-0.13153369	-3.9347755	-0.13153374	0.17214312	-3.5981354	9.45	-4.7620334e-05	-1.7808676e-06	0.0074928338	-0.19107173	0.0074911496	-0.19107219	5.5569741e-06	-6.6399522e-07	-0.11848693	-1.0878633	1.7346473	0.02813701	-1.7346481	-0.028125181	0.26139589	-2.2994699	2.1	1	0.2	0.011034841	1.2519527	1.6074695	-0.61501924	-0.20312628	0.084312761	0.12949616	0.29399352	1.9358375	1.7869968	1.5375802	1.7869986	1.5375808	0.022662155	1.5299936	1.0951147	0.00042930808	-2.6963455e-06	0.11825335	1.2634051	0.11825968	1.2634257	-2.3747406e-05	1.9491597e-06	1.2468184	0.7481012	-1.6226745	-0.53228064	1.6226666	0.53222325	-0.32053262	2.6035228	0.028144182	0.26316871	0.062229985	0.19276979	0.38524381	0.19276842	0.38524697	0.023029614	0.3563409	0.037726639	4.2590223	5.3723047	5.161023	4.9590652	5.1610207	4.9590322	4.3911319	6.2464947	5.2392216	2.7345609	3.3620882	5.2950855	3.3620849	5.2951014	3.6809185	3.1101063	-73.393725	R0:S0:1	-57.2	uncorrelated	51514b8	2022-04-17@17:12
2x2_2C_8b_C2v_L	4.3714085	0	14	2.3299828	0.0066745154	-3.1725882	-3.9444965	-0.12642096	-3.9445273	-0.12642077	0.16759652	-3.6051247	9.4896552	-2.046493e-05	-1.8360168e-06	0.0086167864	-0.18666465	0.0086156745	-0.1866636	-9.0809516e-07	-2.8315121e-06	-0.11753147	-1.0881225	1.7325962	0.033813291	-1.7326013	-0.033805503	0.25638584	-2.2959366	2.0948	1	0.20128621	0.012281021	1.2530499	1.6095509	-0.61029991	-0.20075574	0.083282292	0.13004352	0.29289586	1.9363342	1.7903742	1.5302932	1.7903758	1.5302893	0.022064517	1.5344064	1.0967327	0.00019312956	-8.6992282e-07	0.11730975	1.2564604	0.1173114	1.2564699	1.1086621e-05	6.7712662e-06	1.2400942	0.74776047	-1.6101206	-0.55896933	1.6101168	0.55893564	-0.31656922	2.5920884	0.02824524	0.26042449	0.061747836	0.18999756	0.38624787	0.18999623	0.38625267	0.022368625	0.35455198	0.037530845	4.2617973	5.368102	5.1493878	4.9900853	5.1493808	4.9900707	4.3819143	6.2314059	5.2496393	2.7349624	3.3528838	5.2934445	3.3528857	5.2934665	3.6860967	3.1223927	-73.604587	R0:S0:1	-57.277379	uncorrelated	51514b8	2022-04-17@17:24
2x2_2C_8b_C2v_L	4.5450113	0	14	2.3599655	0.0049838575	-3.1903769	-3.9574609	-0.12202164	-3.9574557	-0.12202123	0.16365497	-3.6132174	9.5293103	-9.5624978e-06	-7.3923705e-06	0.0095275126	-0.18268089	0.0095269543	-0.18268089	-5.6785509e-08	-2.7143921e-06	-0.116603	-1.0884857	1.7307138	0.039036181	-1.7307144	-0.03903257	0.25202445	-2.292228	2.0896	1	0.20257241	0.01324843	1.2543444	1.6118671	-0.60490014	-0.19782398	0.082032669	0.13061495	0.28195179	1.937468	1.7941091	1.5350352	1.7941091	1.5350278	0.021077637	1.5409354	1.0985866	9.1114499e-05	1.5472343e-05	0.11522367	1.2377445	0.11522172	1.2377586	1.7919783e-06	1.4009234e-06	1.2240514	0.74316583	-1.5969481	-0.57772482	1.5969474	0.57770896	-0.31173044	2.5757987	0.028351546	0.25076915	0.060698249	0.18702529	0.38160172	0.18702528	0.38160705	0.021322196	0.3517994	0.037275789	4.2144953	5.3737991	5.1444547	5.0093902	5.1444539	5.0093821	4.3730308	6.2069816	5.2550241	2.7333398	3.3534338	5.2635244	3.3534282	5.2635479	3.6917251	3.1400812	-73.837012	R0:S0:1	-57.354759	uncorrelated	51514b8	2022-04-17@17:36
2x2_2C_8b_C2v_L	4.7203499	0	14	2.3899483	0.0041351852	-3.2172813	-3.9742351	-0.11767979	-3.9742343	-0.11767901	0.15930982	-3.6199214	9.5689655	-1.775289e-06	-1.5547909e-05	0.010101769	-0.17939018	0.010103451	-0.17939043	4.1830911e-06	1.0953442e-05	-0.11584734	-1.0899718	1.7291772	0.042962825	-1.7291736	-0.042956143	0.24822968	-2.2876186	2.0844	1	0.20385862	0.01386719	1.255692	1.6141314	-0.59940714	-0.19464022	0.080720419	0.13115407	0.26981263	1.9387721	1.7981517	1.5414893	1.7981556	1.5414741	0.02016767	1.5482687	1.1004783	1.4247627e-05	4.4785601e-05	0.11216784	1.2175289	0.11216369	1.2176043	-3.7512324e-05	-2.7631333e-05	1.2044285	0.73788784	-1.5829145	-0.5879041	1.5828873	0.5878676	-0.30753289	2.55724	0.028451982	0.2404727	0.0594966	0.18381433	0.37687535	0.18381094	0.37687978	0.020364956	0.34861055	0.036992841	4.1583725	5.3809188	5.1409797	5.0230473	5.1409732	5.0230299	4.3636276	6.1792735	5.2607937	2.7324841	3.3565846	5.2303037	3.356543	5.2303793	3.6983886	3.1597304	-74.099801	R0:S0:1	-57.432138	uncorrelated	51514b8	2022-04-17@17:52
2x2_2C_8b_C2v_L	4.8984612	0	14	2.419931	0.0010890837	-3.2293283	-3.9851727	-0.11384759	-3.9851773	-0.11384991	0.1552079	-3.6270795	9.6086207	1.0144426e-05	-5.6871294e-07	0.01077578	-0.17472548	0.01077652	-0.17472598	-6.1215574e-06	-7.8706505e-06	-0.11462409	-1.0895865	1.727269	0.047530293	-1.7272692	-0.047535133	0.24271851	-2.2840172	2.0792	1	0.20514483	0.014329751	1.2570982	1.6166159	-0.59357617	-0.19138782	0.079362815	0.13175781	0.25715487	1.939974	1.8018221	1.5553701	1.8018218	1.5553704	0.019038627	1.5555187	1.1024445	-0.00010198015	-4.1763127e-06	0.10947224	1.1887512	0.10946825	1.1887313	4.1430309e-05	1.5700228e-05	1.1833474	0.73219417	-1.5700393	-0.59844276	1.5700446	0.59846384	-0.30088437	2.5395381	0.028564003	0.23064466	0.058393266	0.18092783	0.36717656	0.18092816	0.36717653	0.019197407	0.34535904	0.036714265	4.092456	5.3911115	5.1418847	5.0351786	5.1418832	5.0351905	4.3549578	6.1520212	5.2633614	2.7302546	3.3623944	5.182419	3.3624052	5.1824075	3.7041451	3.1781805	-74.312837	R0:S0:1	-57.509517	uncorrelated	51514b8	2022-04-17@18:04
2x2_2C_8b_C2v_L	5.0763895	0	14	2.4499138	-0.0016550857	-3.245816	-3.9972476	-0.10965217	-3.9972596	-0.10965304	0.15078652	-3.6343002	9.6482759	2.4932211e-05	-7.6107652e-07	0.011201022	-0.17012526	0.011201532	-0.17012581	3.4159529e-06	7.4019994e-06	-0.11351222	-1.0896953	1.7252757	0.051447655	-1.725278	-0.051447113	0.23746904	-2.2801498	2.074	1	0.20643103	0.014596544	1.2585021	1.6190098	-0.58781891	-0.18805726	0.078000575	0.13232869	0.24556306	1.9411426	1.8056325	1.5676897	1.805633	1.5676945	0.018051678	1.5629684	1.1043796	-0.00026494525	5.7909411e-06	0.10642675	1.1604336	0.10642884	1.1604385	-2.480742e-05	-1.3380082e-05	1.1617692	0.72696479	-1.5566432	-0.60528359	1.5566402	0.60528066	-0.29480867	2.5212174	0.028669735	0.22147744	0.05731843	0.17790749	0.35851952	0.17790707	0.35851546	0.018180496	0.3419222	0.036426601	4.03122	5.4000559	5.1423844	5.0465803	5.1423846	5.046575	4.3460528	6.1241038	5.2672984	2.7288845	3.3678366	5.1379844	3.3678335	5.13798	3.7103215	3.1966473	-74.537367	R0:S0:1	-57.586897	uncorrelated	51514b8	2022-04-17@18:17
2x2_2C_8b_C2v_L	5.2500195	0	14	2.4798966	-0.0035197828	-3.273193	-4.0137401	-0.10441621	-4.0137388	-0.1044177	0.1439791	-3.6385875	9.687931	-4.3566225e-06	-1.9945823e-07	0.011351673	-0.16625364	0.011352198	-0.16625373	-2.0702248e-06	-2.7010296e-06	-0.11278443	-1.0911353	1.7237711	0.054192561	-1.72377	-0.054194491	0.23238069	-2.2748137	2.0688	1	0.20771724	0.014719227	1.2597935	1.621137	-0.5825482	-0.18491602	0.076742143	0.13281967	0.23823361	1.9421138	1.8094215	1.5711166	1.8094216	1.5711169	0.017357906	1.5697037	1.1061217	4.7877592e-05	-1.1937387e-06	0.10269406	1.1404496	0.10269263	1.1404442	1.3384073e-05	4.8418077e-06	1.1434078	0.72370323	-1.5432533	-0.60930321	1.5432535	0.60931143	-0.29002132	2.5038508	0.028760528	0.21523065	0.056417386	0.17483461	0.35545841	0.17483456	0.3554578	0.01746229	0.3387435	0.036157022	3.9935281	5.4034469	5.1390785	5.0627158	5.1390781	5.0627209	4.3359745	6.099159	5.2745308	2.7296681	3.3686121	5.1150947	3.3686141	5.1150908	3.7175078	3.2128482	-74.791326	R0:S0:1	-57.664276	uncorrelated	51514b8	2022-04-17@18:34
2x2_2C_8b_C2v_L	5.4325125	0	14	2.5098793	-0.0083618743	-3.2964089	-4.0271933	-0.10151581	-4.0271819	-0.10151704	0.13953623	-3.6451512	9.7275862	-1.4648007e-05	-3.1561751e-06	0.011726706	-0.16094072	0.011728986	-0.16093776	-8.6650232e-06	7.3606184e-06	-0.11161633	-1.0921738	1.7224167	0.058421225	-1.7224149	-0.058419326	0.22581213	-2.2710231	2.0636	1	0.20900345	0.014734244	1.2613051	1.6237121	-0.57634517	-0.18127317	0.075276467	0.13340932	0.22671193	1.9433171	1.8133595	1.5920343	1.8133577	1.5920334	0.016189429	1.5777051	1.1081323	0.00018715185	1.1282014e-05	0.099976598	1.1020573	0.099976263	1.1020384	4.0817658e-05	-9.531398e-06	1.120668	0.71807757	-1.5294712	-0.61234713	1.5294804	0.61235334	-0.28175989	2.4844995	0.0288694	0.20689361	0.055312569	0.17173419	0.34107401	0.17173574	0.34107608	0.016277355	0.334852	0.035850705	3.9262094	5.4145581	5.1441218	5.0671391	5.144124	5.0671444	4.3270691	6.0696948	5.2753125	2.7283425	3.3782724	5.0515517	3.3782812	5.0515453	3.7236585	3.2318797	-75.040219	R0:S0:1	-57.741655	uncorrelated	51514b8	2022-04-17@18:47
2x2_2C_8b_C2v_L	5.6052761	0	14	2.5398621	-0.010928259	-3.3188074	-4.0380109	-0.095309751	-4.0380086	-0.095313293	0.13089595	-3.6487674	9.7672414	-3.2273017e-06	4.2793463e-07	0.011553563	-0.1563987	0.01155416	-0.15639788	-6.5922732e-06	-4.3958082e-07	-0.11093596	-1.0927326	1.7198176	0.060192209	-1.7198164	-0.060197545	0.21971585	-2.2654384	2.0584	1	0.21028966	0.014631667	1.2625676	1.6257635	-0.57119243	-0.17815052	0.074044963	0.13387146	0.2219176	1.9440734	1.8168878	1.5936765	1.8168866	1.5936814	0.015585303	1.5841266	1.109791	4.1407974e-05	-2.4463339e-06	0.095927392	1.0813497	0.09592673	1.081317	3.8389966e-05	4.0520432e-06	1.1037291	0.71596156	-1.5166901	-0.61229567	1.5166991	0.61232205	-0.27630068	2.4679071	0.028954449	0.20277678	0.05460617	0.16883414	0.33921704	0.16883527	0.33921389	0.015657395	0.33165627	0.035587073	3.8996412	5.415659	5.1412842	5.0851538	5.1412847	5.0851643	4.3168736	6.0461462	5.2831995	2.7298695	3.3775489	5.0343129	3.3775643	5.0342885	3.7308221	3.2459831	-75.2541	R0:S0:1	-57.819034	uncorrelated	51514b8	2022-04-17@19:04
2x2_2C_8b_C2v_L	5.7893545	0	14	2.5698448	-0.013295523	-3.3544348	-4.0528869	-0.090906354	-4.052844	-0.090878662	0.12376266	-3.6541392	9.8068966	0.00011097174	-8.4730132e-06	0.011146901	-0.15241511	0.011143292	-0.15241175	1.7327056e-05	2.2558486e-06	-0.1098948	-1.0952236	1.7183351	0.060532076	-1.718329	-0.060504972	0.21391081	-2.2602905	2.0532	1	0.21157586	0.014301327	1.2641353	1.6281482	-0.56500851	-0.17410828	0.072489645	0.13438878	0.20901621	1.9454178	1.8210415	1.6124036	1.8210374	1.6124466	0.014631409	1.593202	1.1117962	-0.0018106549	-2.9950299e-05	0.091501615	1.0458162	0.091519406	1.0457267	-1.6371482e-06	4.0984771e-05	1.0744628	0.7098941	-1.5022738	-0.59581733	1.5023185	0.59568069	-0.26926181	2.4456231	0.029050218	0.19287957	0.053370747	0.16553448	0.32813332	0.16553862	0.32812086	0.014693176	0.32699651	0.035242678	3.825151	5.4273266	5.1478431	5.0776893	5.1478427	5.0775492	4.3073979	6.012837	5.2882406	2.7295675	3.3889921	4.9739241	3.3890945	4.9738424	3.7381104	3.2667521	-75.52253	R0:S0:1	-57.896414	uncorrelated	51514b8	2022-04-17@19:26
2x2_2C_8b_C2v_L	5.9681794	0	14	2.5998276	-0.018085078	-3.3859479	-4.0641743	-0.086111607	-4.0641974	-0.086176848	0.11507715	-3.6560967	9.8465517	-0.0001404032	8.9794298e-06	0.010943787	-0.14707829	0.0109616	-0.14709159	-2.4264758e-05	4.8584155e-06	-0.10919491	-1.0970131	1.7162312	0.062571433	-1.7162338	-0.062639552	0.2063012	-2.2545204	2.048	1	0.21286207	0.01403304	1.2655416	1.6304535	-0.55925212	-0.17058818	0.071124205	0.13487173	0.20360671	1.9462507	1.8246976	1.6244048	1.8247122	1.6242698	0.013758729	1.6002546	1.1135486	0.0034149197	0.00012914521	0.088037303	1.013086	0.087981333	1.0134237	-0.00016538995	-0.00015535856	1.0564976	0.70709186	-1.4892136	-0.59118028	1.4890519	0.59152062	-0.26103561	2.4278507	0.029138989	0.18912795	0.052596644	0.16256671	0.31940433	0.16255228	0.31945549	0.013813677	0.32329611	0.034956485	3.7900143	5.4312581	5.1503393	5.0855741	5.1503643	5.0859763	4.297234	5.9876833	5.2922054	2.7309808	3.3937029	4.9320018	3.3933501	4.932242	3.7451512	3.2818137	-75.760186	R0:S0:1	-57.973793	uncorrelated	51514b8	2022-04-17@19:49
