model	D	U	e	eb1_1	eb2_1	eb3_1	eb4_1	eb5_1	eb6_1	eb7_1	eb8_1	mu	sb1_1	sb2_1	sb3_1	sb4_1	sb5_1	sb6_1	sb7_1	sb8_1	tb1_1	tb2_1	tb3_1	tb4_1	tb5_1	tb6_1	tb7_1	tb8_1	tpd	tpp	tppp	ave_U_1	ave_eb1_1	ave_eb2_1	ave_eb3_1	ave_eb4_1	ave_eb5_1	ave_eb6_1	ave_eb7_1	ave_eb8_1	ave_mu_1	ave_sb1_1	ave_sb2_1	ave_sb3_1	ave_sb4_1	ave_sb5_1	ave_sb6_1	ave_sb7_1	ave_sb8_1	ave_tb1_1	ave_tb2_1	ave_tb3_1	ave_tb4_1	ave_tb5_1	ave_tb6_1	ave_tb7_1	ave_tb8_1	var_U_1	var_eb1_1	var_eb2_1	var_eb3_1	var_eb4_1	var_eb5_1	var_eb6_1	var_eb7_1	var_eb8_1	var_mu_1	var_sb1_1	var_sb2_1	var_sb3_1	var_sb4_1	var_sb5_1	var_sb6_1	var_sb7_1	var_sb8_1	var_tb1_1	var_tb2_1	var_tb3_1	var_tb4_1	var_tb5_1	var_tb6_1	var_tb7_1	var_tb8_1	E0_1	sector_1	E0_2	sector_2	githash	distance	diff_param	diff_hybrid	time
2x2_2C_8b_C2v_L	0	14	2.3	-0.006655534	-3.3502828	-4.1133163	-0.10235806	-4.113222	-0.1023468	0.14108001	-3.7537133	9.45	-0.0001012231	7.5002141e-06	0.011771903	-0.16264369	0.011773954	-0.16264057	1.0013529e-05	-2.0059213e-06	-0.11240159	-1.1061747	1.7476608	0.057892245	-1.7476438	-0.057886658	0.22749261	-2.3061557	2.1	1	0.2	0.12716137	0.28181729	1.9402532	1.8083082	1.5130122	1.8083084	1.5129678	0.019394233	1.5640145	1.0966834	0.0012748774	4.6515161e-06	0.10641814	1.1989609	0.10640855	1.1990641	-8.3408762e-05	-1.3513614e-05	1.1997914	0.73898962	-1.5466556	-0.66603149	1.5466326	0.66601042	-0.29483563	2.5174425	0.027712395	0.24609509	0.058026746	0.17511218	0.37904073	0.17511149	0.37906006	0.019514994	0.34028119	0.036135481	4.2609133	5.3299699	5.0745517	5.1361052	5.0745557	5.1361211	4.3684546	6.1056856	5.2727357	2.7624838	3.3445197	5.2983157	3.3444483	5.2984297	3.6838858	3.2147797	-74.585444	R0:S0:1	-57.2	uncorrelated	51514b8	 1.66e+02	 6.32e-02	 1.00e+06	2022-04-17@16:52
2x2_2C_8b_C2v_L	0	14	2.3	0.0072550369	-3.2413909	-3.9501096	-0.1161287	-3.9500452	-0.1161287	0.15676231	-3.5868212	9.45	3.2764171e-06	2.7706239e-05	0.010025731	-0.1825559	0.010026669	-0.18255791	-4.1997501e-06	-9.2350438e-06	-0.11790209	-1.1038017	1.7414467	0.042884786	-1.7414337	-0.042887129	0.25224455	-2.3030381	2.1	1	0.2	0.1292361	0.36246237	1.9312298	1.7810705	1.3868662	1.7810704	1.3868695	0.024935696	1.5039344	1.0918785	-2.9227571e-05	-6.7810597e-05	0.12173386	1.3808117	0.12173951	1.3808118	4.0041081e-05	2.9590484e-05	1.327474	0.78310603	-1.6403135	-0.65649033	1.6403097	0.65648927	-0.32067806	2.6641193	0.028088239	0.29453899	0.066215394	0.19627071	0.43731186	0.19627084	0.43730943	0.025271588	0.36694191	0.038522494	4.6869378	5.2825188	5.0864765	5.1109052	5.0864813	5.1109073	4.3860794	6.3594885	5.295578	2.7417256	3.2527612	5.6276382	3.2527602	5.6276204	3.6729195	3.032107	-73.584698	R0:S0:1	-57.2	uncorrelated	51514b8	 1.92e+02	 1.09e-02	 9.64e-02	2022-04-17@16:56
2x2_2C_8b_C2v_L	0	14	2.3	0.012827165	-3.2264159	-3.9500537	-0.135576	-3.9500488	-0.13557627	0.17193982	-3.5948923	9.45	1.3991187e-05	-2.7484018e-08	0.006406811	-0.19592197	0.0064009077	-0.19592202	-4.4167045e-06	-7.4195037e-06	-0.11940529	-1.0964632	1.7353005	0.023315637	-1.7353001	-0.023321075	0.26604418	-2.2952216	2.1	1	0.2	0.12942878	0.26810837	1.9382501	1.7894869	1.5763396	1.7894852	1.5763416	0.021968732	1.538138	1.0959515	-0.00011331054	-3.1679303e-06	0.11276459	1.2319497	0.11276725	1.2319283	2.7757011e-05	1.1659377e-05	1.2180964	0.73557447	-1.6158317	-0.48809485	1.6158404	0.48811911	-0.3222915	2.5826061	0.028135047	0.24571264	0.060065958	0.19110946	0.36640628	0.19111082	0.36640466	0.022350048	0.35283674	0.037460988	4.1228422	5.3979493	5.1794349	4.9093187	5.1794385	4.9093313	4.3896084	6.2122869	5.2265775	2.7342211	3.3943474	5.2076791	3.3943571	5.2076625	3.6863239	3.135936	-73.596676	R0:S0:1	-57.2	uncorrelated	51514b8	 1.79e+02	 1.70e-02	 4.50e-02	2022-04-17@17:00
2x2_2C_8b_C2v_L	0	14	2.3	0.0050945144	-3.1504233	-3.9329034	-0.13172207	-3.9328907	-0.13171779	0.17315932	-3.6023938	9.45	-2.7713677e-05	1.0308174e-05	0.0079538587	-0.18893004	0.0079518998	-0.18892778	5.1616431e-06	7.4346963e-07	-0.11805146	-1.0878378	1.736464	0.030165355	-1.7364611	-0.030155716	0.25873094	-2.3031829	2.1	1	0.2	0.12960066	0.30288364	1.935152	1.7859643	1.5355522	1.7859647	1.535553	0.022588293	1.5273825	1.0949338	0.00027066279	-2.7186415e-05	0.12012524	1.2645432	0.12013386	1.264549	-2.4026952e-05	2.9724648e-06	1.256054	0.75154774	-1.6258416	-0.54477032	1.625839	0.54472687	-0.31783898	2.6107758	0.02816228	0.27113374	0.06285004	0.19354396	0.38402541	0.1935437	0.38402876	0.022952413	0.35743292	0.037825294	4.2936865	5.3675604	5.1602554	4.9717223	5.1602562	4.9717036	4.3919691	6.2575547	5.2361699	2.734236	3.3555417	5.3049606	3.3555427	5.3049619	3.6787212	3.1010714	-73.393104	R0:S0:1	-57.2	uncorrelated	51514b8	 1.82e+02	 1.87e-03	 2.69e-02	2022-04-17@17:04
2x2_2C_8b_C2v_L	0	14	2.3	0.0074102834	-3.1522005	-3.9327435	-0.12972899	-3.9327349	-0.12973011	0.1704812	-3.5965626	9.45	9.2550297e-06	-7.9063151e-07	0.0079622358	-0.19019274	0.0079612635	-0.19019211	-8.6994281e-06	-9.0933657e-06	-0.11860412	-1.0872866	1.7346166	0.030039332	-1.7346149	-0.030044638	0.26041318	-2.2995596	2.1	1	0.2	0.1293932	0.31764151	1.9342849	1.7862433	1.5071182	1.7862413	1.5071209	0.02372858	1.5251011	1.0944421	-8.5263859e-05	-4.3211688e-06	0.12026189	1.2907136	0.1202595	1.2906749	5.7486035e-05	1.9244587e-05	1.2678994	0.75840221	-1.6240546	-0.55317005	1.6240672	0.55320094	-0.32322072	2.6146658	0.028122895	0.27919461	0.063611267	0.19312587	0.39874632	0.1931275	0.39874634	0.024109337	0.35840236	0.037871423	4.3779484	5.3483407	5.1444806	4.9899291	5.1444849	4.989951	4.3902814	6.2678092	5.2507989	2.7397841	3.3385273	5.3664884	3.3385464	5.3664556	3.6801871	3.0959062	-73.368813	R0:S0:1	-57.2	uncorrelated	51514b8	 1.84e+02	 1.57e-03	 8.72e-03	2022-04-17@17:08
2x2_2C_8b_C2v_L	0	14	2.3	0.0093257428	-3.1571654	-3.9347763	-0.13153369	-3.9347755	-0.13153374	0.17214312	-3.5981354	9.45	-4.7620334e-05	-1.7808676e-06	0.0074928338	-0.19107173	0.0074911496	-0.19107219	5.5569741e-06	-6.6399522e-07	-0.11848693	-1.0878633	1.7346473	0.02813701	-1.7346481	-0.028125181	0.26139589	-2.2994699	2.1	1	0.2	0.12949616	0.29399352	1.9358375	1.7869968	1.5375802	1.7869986	1.5375808	0.022662155	1.5299936	1.0951147	0.00042930808	-2.6963455e-06	0.11825335	1.2634051	0.11825968	1.2634257	-2.3747406e-05	1.9491597e-06	1.2468184	0.7481012	-1.6226745	-0.53228064	1.6226666	0.53222325	-0.32053262	2.6035228	0.028144182	0.26316871	0.062229985	0.19276979	0.38524381	0.19276842	0.38524697	0.023029614	0.3563409	0.037726639	4.2590223	5.3723047	5.161023	4.9590652	5.1610207	4.9590322	4.3911319	6.2464947	5.2392216	2.7345609	3.3620882	5.2950855	3.3620849	5.2951014	3.6809185	3.1101063	-73.393725	R0:S0:1	-57.2	uncorrelated	51514b8	 1.82e+02	 7.88e-04	 4.21e-03	2022-04-17@17:12
2x2_2C_8b_C2v_L	0	14	2.3299828	0.0075932286	-3.15716	-3.9346613	-0.13142133	-3.9346605	-0.13142228	0.17223266	-3.5980877	9.4896552	-3.8542791e-05	-3.0706575e-06	0.0079421455	-0.19026824	0.0079445499	-0.19026705	-5.1123934e-06	1.3304963e-06	-0.11851116	-1.08828	1.7353857	0.029977081	-1.7353839	-0.029989297	0.26030148	-2.30038	2.0948	1	0.20128621	0.13051613	0.28770379	1.9361199	1.7873087	1.5462757	1.7873041	1.5463099	0.021993836	1.5310364	1.0967329	0.0003566384	1.1559262e-06	0.11812112	1.2525857	0.11812081	1.2524666	3.3746466e-05	3.4233016e-06	1.2419484	0.74592374	-1.6217929	-0.53694181	1.6218254	0.53701228	-0.31752864	2.6021673	0.028332381	0.2587716	0.061981741	0.19260652	0.37986745	0.19261072	0.37985244	0.02233473	0.35611234	0.037756181	4.2216196	5.3838225	5.169245	4.9591187	5.1692614	4.959146	4.3864011	6.2445888	5.23737	2.7277316	3.3629187	5.2665713	3.362979	5.2664318	3.6843869	3.1091335	-73.571826	R0:S0:1	-57.277379	uncorrelated	51514b8	 1.79e+02	 3.61e-03	 1.00e+06	2022-04-17@17:16
2x2_2C_8b_C2v_L	0	14	2.3299828	0.0060409875	-3.1645328	-3.939831	-0.12749987	-3.9398557	-0.12749963	0.16889253	-3.6058202	9.4896552	-4.2714499e-05	6.0317206e-06	0.0084450415	-0.18743196	0.0084433626	-0.18742726	2.4624158e-06	-1.5380321e-06	-0.11777715	-1.0866418	1.7313177	0.032669597	-1.7313257	-0.03265997	0.25737367	-2.2954605	2.0948	1	0.20128621	0.13003181	0.29266771	1.9363503	1.7906895	1.537377	1.790685	1.5374033	0.022150244	1.5356554	1.096855	0.00040702889	-2.3791563e-05	0.11667053	1.2515374	0.11668352	1.2514423	-4.7873443e-06	7.6802162e-06	1.2382646	0.74726234	-1.6088585	-0.54966132	1.6088921	0.54964729	-0.31755691	2.5891146	0.028243268	0.26150772	0.061744249	0.1898032	0.38284555	0.18980723	0.38284263	0.022464232	0.35400093	0.037490661	4.2526257	5.3703057	5.1531238	4.981445	5.1531346	4.9814362	4.3824399	6.2261822	5.2463181	2.7358281	3.3576091	5.2792227	3.3576669	5.2791223	3.6867097	3.1261774	-73.571663	R0:S0:1	-57.277379	uncorrelated	51514b8	 1.77e+02	 2.27e-03	 1.49e-02	2022-04-17@17:20
2x2_2C_8b_C2v_L	0	14	2.3299828	0.0066745154	-3.1725882	-3.9444965	-0.12642096	-3.9445273	-0.12642077	0.16759652	-3.6051247	9.4896552	-2.046493e-05	-1.8360168e-06	0.0086167864	-0.18666465	0.0086156745	-0.1866636	-9.0809516e-07	-2.8315121e-06	-0.11753147	-1.0881225	1.7325962	0.033813291	-1.7326013	-0.033805503	0.25638584	-2.2959366	2.0948	1	0.20128621	0.13004352	0.29289586	1.9363342	1.7903742	1.5302932	1.7903758	1.5302893	0.022064517	1.5344064	1.0967327	0.00019312956	-8.6992282e-07	0.11730975	1.2564604	0.1173114	1.2564699	1.1086621e-05	6.7712662e-06	1.2400942	0.74776047	-1.6101206	-0.55896933	1.6101168	0.55893564	-0.31656922	2.5920884	0.02824524	0.26042449	0.061747836	0.18999756	0.38624787	0.18999623	0.38625267	0.022368625	0.35455198	0.037530845	4.2617973	5.368102	5.1493878	4.9900853	5.1493808	4.9900707	4.3819143	6.2314059	5.2496393	2.7349624	3.3528838	5.2934445	3.3528857	5.2934665	3.6860967	3.1223927	-73.604587	R0:S0:1	-57.277379	uncorrelated	51514b8	 1.78e+02	 8.60e-04	 2.92e-03	2022-04-17@17:24
2x2_2C_8b_C2v_L	0	14	2.3599655	0.007193332	-3.175819	-3.9461181	-0.12669944	-3.9461427	-0.12670173	0.1678671	-3.60604	9.5293103	-6.3153163e-06	3.8857092e-06	0.0086534732	-0.18696127	0.0086569155	-0.18696254	1.900907e-06	6.8055217e-06	-0.1176637	-1.0885556	1.7327382	0.034061255	-1.7327417	-0.034061933	0.25680674	-2.296024	2.0896	1	0.20257241	0.13105706	0.2772733	1.9372834	1.7913362	1.5482274	1.7913378	1.548233	0.021228865	1.5379921	1.0986065	5.7317537e-05	-5.8322905e-06	0.11587429	1.2375558	0.11587405	1.2375617	-1.4603409e-05	-9.239661e-06	1.2247617	0.74148283	-1.6075069	-0.55110366	1.607501	0.55110407	-0.31419122	2.5847022	0.028432936	0.24897884	0.060902707	0.18940029	0.37760958	0.18939904	0.37760446	0.021511138	0.35320219	0.037481711	4.1783573	5.3882559	5.1627371	4.9752895	5.1627334	4.9752861	4.3775183	6.2187267	5.2467441	2.7268299	3.3629368	5.2410611	3.3629345	5.2410581	3.6904402	3.1287731	-73.795181	R0:S0:1	-57.354759	uncorrelated	51514b8	 1.75e+02	 3.61e-03	 1.00e+06	2022-04-17@17:28
2x2_2C_8b_C2v_L	0	14	2.3599655	0.0050307588	-3.1825403	-3.9524457	-0.12366631	-3.9524565	-0.12366879	0.16534028	-3.6138294	9.5293103	1.8694654e-05	1.6109165e-06	0.0092343145	-0.18386856	0.0092333199	-0.18386916	-1.8062959e-07	6.0028639e-06	-0.11680907	-1.0869644	1.7292743	0.03715718	-1.7292762	-0.03715991	0.25337691	-2.2915307	2.0896	1	0.20257241	0.1306254	0.27661529	1.937824	1.7946381	1.5489269	1.794638	1.5489338	0.020967072	1.5433778	1.09887	-0.00017752821	4.3032188e-07	0.11415593	1.2271256	0.11415933	1.2271185	-5.97525e-06	-1.049173e-05	1.2169301	0.74038631	-1.5952107	-0.56188875	1.5952114	0.56190246	-0.31230577	2.5701169	0.028354158	0.24815361	0.060390946	0.18671545	0.37520699	0.18671559	0.37520105	0.021219832	0.35070415	0.037199019	4.1792425	5.3813309	5.1520746	4.9914467	5.1520757	4.9914507	4.3738159	6.1968231	5.2501124	2.7330467	3.3636822	5.2326363	3.363684	5.2326209	3.6925239	3.1473072	-73.803845	R0:S0:1	-57.354759	uncorrelated	51514b8	 1.72e+02	 2.41e-03	 1.43e-02	2022-04-17@17:32
2x2_2C_8b_C2v_L	0	14	2.3599655	0.0049838575	-3.1903769	-3.9574609	-0.12202164	-3.9574557	-0.12202123	0.16365497	-3.6132174	9.5293103	-9.5624978e-06	-7.3923705e-06	0.0095275126	-0.18268089	0.0095269543	-0.18268089	-5.6785509e-08	-2.7143921e-06	-0.116603	-1.0884857	1.7307138	0.039036181	-1.7307144	-0.03903257	0.25202445	-2.292228	2.0896	1	0.20257241	0.13061495	0.28195179	1.937468	1.7941091	1.5350352	1.7941091	1.5350278	0.021077637	1.5409354	1.0985866	9.1114499e-05	1.5472343e-05	0.11522367	1.2377445	0.11522172	1.2377586	1.7919783e-06	1.4009234e-06	1.2240514	0.74316583	-1.5969481	-0.57772482	1.5969474	0.57770896	-0.31173044	2.5757987	0.028351546	0.25076915	0.060698249	0.18702529	0.38160172	0.18702528	0.38160705	0.021322196	0.3517994	0.037275789	4.2144953	5.3737991	5.1444547	5.0093902	5.1444539	5.0093821	4.3730308	6.2069816	5.2550241	2.7333398	3.3534338	5.2635244	3.3534282	5.2635479	3.6917251	3.1400812	-73.837012	R0:S0:1	-57.354759	uncorrelated	51514b8	 1.73e+02	 3.55e-04	 4.03e-03	2022-04-17@17:36
2x2_2C_8b_C2v_L	0	14	2.3899483	0.0059219397	-3.1906967	-3.9576619	-0.12201101	-3.9576573	-0.12201047	0.16367483	-3.6132663	9.5689655	-9.6408453e-06	-7.4884546e-07	0.0094301421	-0.1832181	0.0094308062	-0.183218	-2.2593108e-07	3.9542153e-07	-0.11674878	-1.0883288	1.7303551	0.038589152	-1.7303538	-0.038589112	0.25273908	-2.2918421	2.0844	1	0.20385862	0.13160867	0.26817507	1.9383062	1.7950903	1.5503482	1.7950903	1.5503483	0.020434973	1.5444018	1.1004161	8.9221907e-05	1.1779702e-06	0.11356722	1.2215027	0.11356646	1.2215018	2.2495871e-06	1.3569364e-07	1.2085958	0.73758029	-1.5941626	-0.56682912	1.5941623	0.56682829	-0.31014246	2.568629	0.028535154	0.24058629	0.059952738	0.18639397	0.37475485	0.18639394	0.37475506	0.020665317	0.35045655	0.037227784	4.1385717	5.3923467	5.1569238	4.9940219	5.1569241	4.9940213	4.368654	6.1949873	5.2545373	2.7258517	3.3622713	5.2171333	3.3622719	5.2171318	3.696271	3.145963	-74.011519	R0:S0:1	-57.432138	uncorrelated	51514b8	 1.70e+02	 4.54e-03	 1.00e+06	2022-04-17@17:40
2x2_2C_8b_C2v_L	0	14	2.3899483	0.003903298	-3.2028333	-3.9674242	-0.11984953	-3.9674298	-0.11985069	0.16158713	-3.6208868	9.5689655	3.6747189e-06	1.9630677e-05	0.0098895175	-0.18034079	0.0098896866	-0.18034057	-5.2658007e-07	-1.7226705e-07	-0.11586109	-1.0876187	1.7276193	0.041322089	-1.7276214	-0.041323558	0.24931969	-2.2872451	2.0844	1	0.20385862	0.13120061	0.26199043	1.9392232	1.7986562	1.5603461	1.7986547	1.5603605	0.019887449	1.5511097	1.1008524	-3.3273578e-05	-4.8034808e-05	0.11131924	1.2023128	0.11132626	1.2022734	8.3226553e-06	1.066603e-05	1.1948898	0.73403554	-1.5813443	-0.57139297	1.5813559	0.57140211	-0.30719881	2.5509534	0.028461391	0.23602904	0.059105315	0.18355549	0.36752445	0.18355683	0.36751756	0.020091179	0.34730245	0.036905375	4.1093601	5.3916587	5.1512311	5.000817	5.1512346	5.0008192	4.3649196	6.1675908	5.2543577	2.7309825	3.3697077	5.1873799	3.3697303	5.1873302	3.69876	3.1678978	-74.048741	R0:S0:1	-57.432138	uncorrelated	51514b8	 1.67e+02	 1.53e-03	 1.42e-02	2022-04-17@17:44
2x2_2C_8b_C2v_L	0	14	2.3899483	0.0031073355	-3.206049	-3.9695682	-0.11789001	-3.9695768	-0.11789059	0.15992692	-3.6210261	9.5689655	6.9548911e-06	-1.8255255e-05	0.010280966	-0.1785877	0.010279015	-0.17858689	1.7370842e-06	3.5909401e-06	-0.11559442	-1.0885546	1.7286305	0.043707507	-1.7286326	-0.043705936	0.24754297	-2.2884918	2.0844	1	0.20385862	0.13119684	0.26922415	1.9386967	1.7978898	1.5446326	1.7978894	1.5446291	0.020034534	1.5480755	1.1005134	-6.9379847e-05	4.5836745e-05	0.11255949	1.213852	0.11255792	1.2138603	-1.8613933e-05	-1.6931661e-05	1.204514	0.73769279	-1.5836995	-0.59096493	1.5836995	0.59096472	-0.30640419	2.558165	0.028459744	0.24029048	0.059567865	0.1840392	0.37456508	0.18403942	0.37456692	0.020230874	0.34869342	0.037001591	4.1536768	5.382431	5.1426824	5.0239308	5.1426825	5.0239291	4.3642938	6.1800052	5.2589485	2.731418	3.3573495	5.2236937	3.3573435	5.2237089	3.6975874	3.1588534	-74.061724	R0:S0:1	-57.432138	uncorrelated	51514b8	 1.68e+02	 2.73e-03	 5.44e-03	2022-04-17@17:48
2x2_2C_8b_C2v_L	0	14	2.3899483	0.0041351852	-3.2172813	-3.9742351	-0.11767979	-3.9742343	-0.11767901	0.15930982	-3.6199214	9.5689655	-1.775289e-06	-1.5547909e-05	0.010101769	-0.17939018	0.010103451	-0.17939043	4.1830911e-06	1.0953442e-05	-0.11584734	-1.0899718	1.7291772	0.042962825	-1.7291736	-0.042956143	0.24822968	-2.2876186	2.0844	1	0.20385862	0.13115407	0.26981263	1.9387721	1.7981517	1.5414893	1.7981556	1.5414741	0.02016767	1.5482687	1.1004783	1.4247627e-05	4.4785601e-05	0.11216784	1.2175289	0.11216369	1.2176043	-3.7512324e-05	-2.7631333e-05	1.2044285	0.73788784	-1.5829145	-0.5879041	1.5828873	0.5878676	-0.30753289	2.55724	0.028451982	0.2404727	0.0594966	0.18381433	0.37687535	0.18381094	0.37687978	0.020364956	0.34861055	0.036992841	4.1583725	5.3809188	5.1409797	5.0230473	5.1409732	5.0230299	4.3636276	6.1792735	5.2607937	2.7324841	3.3565846	5.2303037	3.356543	5.2303793	3.6983886	3.1597304	-74.099801	R0:S0:1	-57.432138	uncorrelated	51514b8	 1.68e+02	 2.76e-04	 3.14e-03	2022-04-17@17:52
2x2_2C_8b_C2v_L	0	14	2.419931	0.0043883864	-3.2175758	-3.9742823	-0.11832762	-3.9742792	-0.11833175	0.15981475	-3.6202263	9.6086207	1.0084847e-06	-2.0180346e-06	0.010033594	-0.17959062	0.010036231	-0.17959313	-7.598929e-06	-9.0090321e-06	-0.11576597	-1.090024	1.7292487	0.042543094	-1.7292474	-0.042551664	0.24836452	-2.2877133	2.0792	1	0.20514483	0.13219275	0.25411015	1.9397266	1.7991316	1.5631795	1.7991319	1.5631779	0.019351008	1.552166	1.1024076	-8.4784499e-06	-7.5376352e-07	0.11058135	1.1953347	0.11057331	1.1953253	4.9496422e-05	1.7534481e-05	1.1859651	0.73126628	-1.5802785	-0.57439634	1.580279	0.57442733	-0.3046891	2.5494274	0.028643657	0.22919233	0.058648479	0.18322178	0.3661818	0.18322151	0.36618065	0.019536965	0.3470168	0.036933955	4.0685058	5.4029504	5.1568854	5.0024302	5.1568834	5.0024458	4.3596231	6.1657981	5.2585723	2.724052	3.3689141	5.1698603	3.3689175	5.1698561	3.7026349	3.1664883	-74.278142	R0:S0:1	-57.509517	uncorrelated	51514b8	 1.65e+02	 3.15e-03	 1.00e+06	2022-04-17@17:56
2x2_2C_8b_C2v_L	0	14	2.419931	0.0017360348	-3.2202168	-3.9777514	-0.11555474	-3.977747	-0.1155503	0.15753215	-3.6281666	9.6086207	-7.7904419e-06	1.1706305e-08	0.010509518	-0.17607739	0.010508175	-0.17607614	3.6126984e-06	-1.3551991e-06	-0.11480157	-1.0879396	1.7252271	0.04571639	-1.7252269	-0.045709975	0.24455679	-2.2833466	2.0792	1	0.20514483	0.13176798	0.25130623	1.9403283	1.8023115	1.5685435	1.8023118	1.5685356	0.018957016	1.5579901	1.1027197	7.6716551e-05	-1.7949391e-07	0.10869786	1.1789996	0.10869901	1.1790201	-1.8735229e-05	5.3857587e-07	1.1756498	0.72938945	-1.5683997	-0.58291743	1.5683964	0.58288999	-0.30184959	2.5339182	0.02856661	0.22705863	0.058085067	0.18064369	0.3610462	0.18064337	0.36105278	0.019122025	0.34419598	0.036638473	4.0565506	5.3987579	5.1494334	5.015508	5.1494321	5.0154977	4.356077	6.1419525	5.2594931	2.7296827	3.3725138	5.1511733	3.3725054	5.1511991	3.7046891	3.1852705	-74.26776	R0:S0:1	-57.509517	uncorrelated	51514b8	 1.62e+02	 3.11e-03	 1.43e-02	2022-04-17@18:00
2x2_2C_8b_C2v_L	0	14	2.419931	0.0010890837	-3.2293283	-3.9851727	-0.11384759	-3.9851773	-0.11384991	0.1552079	-3.6270795	9.6086207	1.0144426e-05	-5.6871294e-07	0.01077578	-0.17472548	0.01077652	-0.17472598	-6.1215574e-06	-7.8706505e-06	-0.11462409	-1.0895865	1.727269	0.047530293	-1.7272692	-0.047535133	0.24271851	-2.2840172	2.0792	1	0.20514483	0.13175781	0.25715487	1.939974	1.8018221	1.5553701	1.8018218	1.5553704	0.019038627	1.5555187	1.1024445	-0.00010198015	-4.1763127e-06	0.10947224	1.1887512	0.10946825	1.1887313	4.1430309e-05	1.5700228e-05	1.1833474	0.73219417	-1.5700393	-0.59844276	1.5700446	0.59846384	-0.30088437	2.5395381	0.028564003	0.23064466	0.058393266	0.18092783	0.36717656	0.18092816	0.36717653	0.019197407	0.34535904	0.036714265	4.092456	5.3911115	5.1418847	5.0351786	5.1418832	5.0351905	4.3549578	6.1520212	5.2633614	2.7302546	3.3623944	5.182419	3.3624052	5.1824075	3.7041451	3.1781805	-74.312837	R0:S0:1	-57.509517	uncorrelated	51514b8	 1.63e+02	 4.34e-04	 4.62e-03	2022-04-17@18:04
2x2_2C_8b_C2v_L	0	14	2.4499138	0.0020970196	-3.2296788	-3.985355	-0.11341233	-3.9853601	-0.11340952	0.15476664	-3.627182	9.6482759	8.9514596e-06	7.299732e-07	0.010604127	-0.17526499	0.010603396	-0.17526477	2.6851919e-06	4.4110368e-07	-0.11477182	-1.0894518	1.7269433	0.046753744	-1.7269448	-0.046746795	0.24340638	-2.2836363	2.074	1	0.20643103	0.13274008	0.24653919	1.9406078	1.8026856	1.5665809	1.8026868	1.5665714	0.018597674	1.5584123	1.1041695	-8.7357053e-05	-4.8760157e-07	0.10781638	1.1762094	0.10781734	1.1762437	-1.566015e-05	-1.8494459e-06	1.1692805	0.7279486	-1.5675762	-0.58684173	1.5675677	0.58680945	-0.29981311	2.5338372	0.028744606	0.22252743	0.057829608	0.18035524	0.36239049	0.18035408	0.36239682	0.018748908	0.34418733	0.036686476	4.0309746	5.4068789	5.1528353	5.0216905	5.1528317	5.0216775	4.3506978	6.1427339	5.2655262	2.7234212	3.3685474	5.1456175	3.3685325	5.1456555	3.708528	3.1818616	-74.486411	R0:S0:1	-57.586897	uncorrelated	51514b8	 1.60e+02	 4.78e-03	 1.00e+06	2022-04-17@18:08
2x2_2C_8b_C2v_L	0	14	2.4499138	-6.9248544e-05	-3.2428195	-3.9954463	-0.11163393	-3.995456	-0.11163631	0.15303217	-3.6363607	9.6482759	2.8117635e-05	-6.6188982e-06	0.010870029	-0.17234127	0.010871769	-0.17234203	-5.5805731e-07	4.2318632e-06	-0.11380839	-1.0887754	1.7241315	0.049010006	-1.7241329	-0.049014671	0.24005281	-2.2793738	2.074	1	0.20643103	0.13232589	0.23823836	1.9416561	1.8064172	1.5816639	1.8064171	1.5816673	0.017987245	1.5660581	1.1046886	-0.00028494915	1.823051e-05	0.1052392	1.1511738	0.10523621	1.1511657	-2.145341e-06	-9.8556449e-06	1.1515543	0.72338398	-1.5542413	-0.58552212	1.5542421	0.58554264	-0.29641395	2.5140856	0.028670129	0.21653554	0.056864537	0.1773943	0.35234761	0.17739435	0.35234389	0.018121835	0.34043372	0.036334096	3.9879814	5.4090739	5.1503167	5.0216592	5.1503168	5.0216663	4.3471615	6.1116545	5.2642927	2.7282424	3.37965	5.1035792	3.3796514	5.1035692	3.711159	3.2053659	-74.5313	R0:S0:1	-57.586897	uncorrelated	51514b8	 1.56e+02	 1.68e-03	 1.44e-02	2022-04-17@18:13
2x2_2C_8b_C2v_L	0	14	2.4499138	-0.0016550857	-3.245816	-3.9972476	-0.10965217	-3.9972596	-0.10965304	0.15078652	-3.6343002	9.6482759	2.4932211e-05	-7.6107652e-07	0.011201022	-0.17012526	0.011201532	-0.17012581	3.4159529e-06	7.4019994e-06	-0.11351222	-1.0896953	1.7252757	0.051447655	-1.725278	-0.051447113	0.23746904	-2.2801498	2.074	1	0.20643103	0.13232869	0.24556306	1.9411426	1.8056325	1.5676897	1.805633	1.5676945	0.018051678	1.5629684	1.1043796	-0.00026494525	5.7909411e-06	0.10642675	1.1604336	0.10642884	1.1604385	-2.480742e-05	-1.3380082e-05	1.1617692	0.72696479	-1.5566432	-0.60528359	1.5566402	0.60528066	-0.29480867	2.5212174	0.028669735	0.22147744	0.05731843	0.17790749	0.35851952	0.17790707	0.35851546	0.018180496	0.3419222	0.036426601	4.03122	5.4000559	5.1423844	5.0465803	5.1423846	5.046575	4.3460528	6.1241038	5.2672984	2.7288845	3.3678366	5.1379844	3.3678335	5.13798	3.7103215	3.1966473	-74.537367	R0:S0:1	-57.586897	uncorrelated	51514b8	 1.57e+02	 6.16e-04	 6.67e-03	2022-04-17@18:17
2x2_2C_8b_C2v_L	0	14	2.4798966	-0.00034938652	-3.2463448	-3.9975036	-0.10876654	-3.997515	-0.10876989	0.14966846	-3.6341924	9.687931	2.5152786e-05	-5.9876191e-07	0.010989517	-0.17085052	0.01099001	-0.17085153	-1.6361062e-06	2.5398996e-07	-0.1137568	-1.089554	1.7249145	0.050494023	-1.7249158	-0.050497777	0.23820045	-2.2795729	2.0688	1	0.20771724	0.13329455	0.23713057	1.9416312	1.8063433	1.5744274	1.8063436	1.5744324	0.017745449	1.5652811	1.1059992	-0.00025630969	9.0308814e-07	0.10476926	1.1522487	0.10476875	1.1522391	8.7837297e-06	3.6884843e-08	1.1496509	0.72373559	-1.5546445	-0.59451853	1.5546447	0.59453334	-0.29423887	2.5168521	0.028846884	0.21474039	0.056883849	0.17742584	0.35625481	0.17742563	0.3562503	0.017868318	0.34098893	0.03642004	3.9816407	5.4133379	5.1515201	5.0361315	5.1515194	5.0361364	4.3417477	6.1172377	5.2711798	2.7225466	3.3712766	5.1116073	3.3712807	5.1115948	3.7146285	3.1984316	-74.709779	R0:S0:1	-57.664276	uncorrelated	51514b8	 1.55e+02	 7.14e-03	 1.00e+06	2022-04-17@18:21
2x2_2C_8b_C2v_L	0	14	2.4798966	-0.0025326534	-3.2698379	-4.0138232	-0.10781981	-4.0138224	-0.10782162	0.14810919	-3.6427753	9.687931	5.614711e-06	-1.6984236e-06	0.011247601	-0.16838392	0.011247595	-0.16838502	1.1112955e-06	-1.8817801e-06	-0.11282562	-1.0903151	1.7233263	0.052345699	-1.723326	-0.052343833	0.23498871	-2.2749897	2.0688	1	0.20771724	0.13287366	0.22700069	1.9428669	1.8103993	1.5944502	1.8104004	1.5944481	0.017040621	1.5737477	1.1065983	-5.9791837e-05	2.8863015e-06	0.10171348	1.1228041	0.10171342	1.1228222	-5.8652688e-06	1.001747e-06	1.1286626	0.71818981	-1.5404615	-0.58781286	1.5404548	0.58780214	-0.29046079	2.4950286	0.028771536	0.20755139	0.055749121	0.1742232	0.34345347	0.17422228	0.34345388	0.017151234	0.33675056	0.036040176	3.9270841	5.4179981	5.1514309	5.028551	5.1514301	5.0285466	4.3378939	6.0831752	5.2689217	2.7274121	3.3860197	5.0577025	3.3860105	5.0577162	3.7178028	3.2239523	-74.80408	R0:S0:1	-57.664276	uncorrelated	51514b8	 1.51e+02	 1.61e-03	 1.46e-02	2022-04-17@18:25
2x2_2C_8b_C2v_L	0	14	2.4798966	-0.0048352103	-3.2702511	-4.0138947	-0.10588934	-4.0138929	-0.10588839	0.14586049	-3.6420682	9.687931	4.1687412e-06	-2.4759076e-07	0.011566518	-0.16565912	0.011566464	-0.16565925	7.9297985e-07	2.9843229e-06	-0.1124756	-1.0908921	1.7242227	0.055130003	-1.7242224	-0.055130616	0.23194718	-2.2763608	2.0688	1	0.20771724	0.13289158	0.23434722	1.942346	1.8096206	1.5820494	1.8096206	1.5820501	0.017054091	1.5707593	1.1063244	-4.7400193e-05	2.263049e-06	0.10314728	1.1297529	0.1031476	1.129754	-6.0884523e-06	-4.6632995e-06	1.1394291	0.72168417	-1.5427556	-0.60891137	1.5427549	0.60891275	-0.28830654	2.5020999	0.028773814	0.21282165	0.056211418	0.17474249	0.34860464	0.17474248	0.3486039	0.017159826	0.33822559	0.036129681	3.969361	5.40935	5.1440322	5.0547771	5.1440329	5.0547769	4.3369485	6.0950815	5.2708741	2.7278903	3.374628	5.0891473	3.3746267	5.0891455	3.7167408	3.2154787	-74.800918	R0:S0:1	-57.664276	uncorrelated	51514b8	 1.52e+02	 1.23e-03	 8.02e-03	2022-04-17@18:30
2x2_2C_8b_C2v_L	0	14	2.4798966	-0.0035197828	-3.273193	-4.0137401	-0.10441621	-4.0137388	-0.1044177	0.1439791	-3.6385875	9.687931	-4.3566225e-06	-1.9945823e-07	0.011351673	-0.16625364	0.011352198	-0.16625373	-2.0702248e-06	-2.7010296e-06	-0.11278443	-1.0911353	1.7237711	0.054192561	-1.72377	-0.054194491	0.23238069	-2.2748137	2.0688	1	0.20771724	0.13281967	0.23823361	1.9421138	1.8094215	1.5711166	1.8094216	1.5711169	0.017357906	1.5697037	1.1061217	4.7877592e-05	-1.1937387e-06	0.10269406	1.1404496	0.10269263	1.1404442	1.3384073e-05	4.8418077e-06	1.1434078	0.72370323	-1.5432533	-0.60930321	1.5432535	0.60931143	-0.29002132	2.5038508	0.028760528	0.21523065	0.056417386	0.17483461	0.35545841	0.17483456	0.3554578	0.01746229	0.3387435	0.036157022	3.9935281	5.4034469	5.1390785	5.0627158	5.1390781	5.0627209	4.3359745	6.099159	5.2745308	2.7296681	3.3686121	5.1150947	3.3686141	5.1150908	3.7175078	3.2128482	-74.791326	R0:S0:1	-57.664276	uncorrelated	51514b8	 1.52e+02	 5.68e-04	 3.95e-03	2022-04-17@18:34
2x2_2C_8b_C2v_L	0	14	2.5098793	-0.0024749562	-3.2738534	-4.0137323	-0.10498433	-4.0137307	-0.10498173	0.14460953	-3.6389776	9.7275862	-2.2110237e-06	6.5113754e-07	0.011128914	-0.16693424	0.011129348	-0.16693377	2.7583557e-06	1.7966071e-06	-0.11267584	-1.091205	1.7237277	0.052875193	-1.7237274	-0.052872679	0.23305943	-2.2746593	2.0636	1	0.20900345	0.13385428	0.22370304	1.9429865	1.8104216	1.5912985	1.810422	1.5912953	0.01673178	1.5736046	1.1080015	2.385167e-05	5.9831903e-07	0.10094131	1.1202339	0.10094115	1.1202467	-1.6960817e-05	-3.8456622e-06	1.123162	0.71756378	-1.5406106	-0.59040347	1.5406071	0.59039273	-0.28792655	2.4963316	0.028950438	0.20422396	0.055640339	0.17421103	0.34557029	0.17421066	0.34557262	0.016833199	0.33698996	0.036102982	3.9077357	5.4249463	5.1552931	5.0369374	5.1552928	5.0369344	4.332509	6.0863828	5.2754243	2.7214043	3.3808374	5.0563752	3.3808307	5.0563863	3.7215409	3.218867	-74.96994	R0:S0:1	-57.741655	uncorrelated	51514b8	 1.49e+02	 4.80e-03	 1.00e+06	2022-04-17@18:38
2x2_2C_8b_C2v_L	0	14	2.5098793	-0.0062025696	-3.2875085	-4.0232911	-0.10368601	-4.0232959	-0.10368983	0.14289047	-3.6470192	9.7275862	-2.0324601e-05	6.1554704e-07	0.011504452	-0.16335584	0.011504078	-0.16335753	-4.9319931e-07	1.1144996e-05	-0.11175186	-1.0904364	1.7208921	0.05596152	-1.7208935	-0.055963139	0.22890984	-2.2702739	2.0636	1	0.20900345	0.1334234	0.218012	1.9438563	1.8140223	1.6068033	1.8140232	1.6068047	0.016113903	1.5807769	1.1084507	0.00024334557	7.993409e-06	0.098781155	1.0927973	0.098783823	1.0928154	-1.1113907e-05	-1.9813947e-05	1.1083606	0.71400484	-1.5275549	-0.59164173	1.5275469	0.59164656	-0.28356723	2.4776616	0.02887297	0.20044655	0.054834454	0.17132249	0.33417421	0.17132175	0.33417	0.016206452	0.33329886	0.035761385	3.876371	5.4251206	5.1530099	5.0383762	5.1530118	5.0383791	4.3287717	6.0575387	5.2729006	2.7267993	3.3909244	5.0136833	3.3909101	5.0136877	3.7240424	3.2402686	-75.013816	R0:S0:1	-57.741655	uncorrelated	51514b8	 1.45e+02	 2.74e-03	 1.48e-02	2022-04-17@18:42
2x2_2C_8b_C2v_L	0	14	2.5098793	-0.0083618743	-3.2964089	-4.0271933	-0.10151581	-4.0271819	-0.10151704	0.13953623	-3.6451512	9.7275862	-1.4648007e-05	-3.1561751e-06	0.011726706	-0.16094072	0.011728986	-0.16093776	-8.6650232e-06	7.3606184e-06	-0.11161633	-1.0921738	1.7224167	0.058421225	-1.7224149	-0.058419326	0.22581213	-2.2710231	2.0636	1	0.20900345	0.13340932	0.22671193	1.9433171	1.8133595	1.5920343	1.8133577	1.5920334	0.016189429	1.5777051	1.1081323	0.00018715185	1.1282014e-05	0.099976598	1.1020573	0.099976263	1.1020384	4.0817658e-05	-9.531398e-06	1.120668	0.71807757	-1.5294712	-0.61234713	1.5294804	0.61235334	-0.28175989	2.4844995	0.0288694	0.20689361	0.055312569	0.17173419	0.34107401	0.17173574	0.34107608	0.016277355	0.334852	0.035850705	3.9262094	5.4145581	5.1441218	5.0671391	5.144124	5.0671444	4.3270691	6.0696948	5.2753125	2.7283425	3.3782724	5.0515517	3.3782812	5.0515453	3.7236585	3.2318797	-75.040219	R0:S0:1	-57.741655	uncorrelated	51514b8	 1.46e+02	 9.18e-04	 7.13e-03	2022-04-17@18:47
2x2_2C_8b_C2v_L	0	14	2.5398621	-0.0066199807	-3.2971626	-4.0272325	-0.09970748	-4.0272228	-0.099702212	0.13776752	-3.6446146	9.7672414	-4.0880712e-06	8.6671331e-07	0.011431377	-0.16158807	0.011429445	-0.16158797	4.8283007e-06	2.7527952e-06	-0.11180973	-1.0921331	1.7219953	0.056964692	-1.7219939	-0.056956521	0.22650651	-2.2703151	2.0584	1	0.21028966	0.13436104	0.21977258	1.9436796	1.8138919	1.5946042	1.8138934	1.5945946	0.01600475	1.579478	1.1096544	5.1405859e-05	1.7241057e-06	0.097979538	1.0973818	0.097982016	1.0974267	-3.088461e-05	-7.0732863e-06	1.109055	0.71572382	-1.5280714	-0.60106692	1.5280591	0.60103003	-0.28158504	2.481427	0.029043243	0.20093334	0.054990214	0.17136451	0.34129063	0.1713632	0.34129699	0.016087525	0.33411688	0.03586221	3.8852331	5.4258783	5.1517826	5.0600269	5.1517827	5.0600155	4.3227181	6.0651058	5.2814051	2.7223368	3.3792954	5.035307	3.3792731	5.0353443	3.7278826	3.2316797	-75.207793	R0:S0:1	-57.819034	uncorrelated	51514b8	 1.44e+02	 5.25e-03	 1.00e+06	2022-04-17@18:51
2x2_2C_8b_C2v_L	0	14	2.5398621	-0.0088401343	-3.3155074	-4.0367963	-0.098994962	-4.0367929	-0.098999183	0.13606428	-3.6526269	9.7672414	-2.482852e-05	-6.9807779e-08	0.011453215	-0.15910096	0.011453269	-0.15910127	-4.1069564e-06	-2.5347496e-06	-0.11086091	-1.0918817	1.7189578	0.058094027	-1.7189564	-0.0581017	0.22320174	-2.2653894	2.0584	1	0.21028966	0.13393003	0.20900505	1.9449064	1.817809	1.617429	1.8178088	1.617426	0.015297655	1.5882743	1.1102692	0.00032343253	4.228703e-06	0.095054846	1.0646921	0.095051549	1.0646867	1.3764553e-05	-7.5832713e-07	1.0860227	0.70981572	-1.5141859	-0.58829395	1.5141848	0.58832724	-0.27732303	2.4590232	0.028966472	0.19317207	0.053863011	0.16827098	0.32679661	0.16827109	0.32679643	0.015375587	0.32951721	0.035469764	3.8255383	5.4318736	5.154534	5.0446271	5.1545349	5.04465	4.3193586	6.0301282	5.2787974	2.7269054	3.3961121	4.9731192	3.3961069	4.9731168	3.730789	3.2571865	-75.261545	R0:S0:1	-57.819034	uncorrelated	51514b8	 1.40e+02	 1.84e-03	 1.48e-02	2022-04-17@18:55
2x2_2C_8b_C2v_L	0	14	2.5398621	-0.012287942	-3.3169895	-4.0377115	-0.097550362	-4.0377047	-0.097542976	0.13367291	-3.6515054	9.7672414	1.222283e-05	-7.792929e-07	0.011749336	-0.15600841	0.011747743	-0.15600727	2.5390114e-06	-8.2852035e-06	-0.11064354	-1.09254	1.7201461	0.061029372	-1.7201456	-0.061021739	0.21961118	-2.2667076	2.0584	1	0.21028966	0.13395548	0.21688028	1.9444023	1.817239	1.6082365	1.8172388	1.6082321	0.015248403	1.585638	1.1100633	-0.00018987916	-7.5857149e-06	0.096518192	1.0677787	0.096518635	1.0677839	1.1825928e-06	1.6524541e-05	1.0981131	0.71325291	-1.5157231	-0.60859179	1.515727	0.60855889	-0.27452422	2.4651858	0.028970068	0.19952961	0.0543129	0.16864394	0.33008638	0.16864419	0.33009295	0.015324121	0.33088237	0.035544213	3.8681404	5.4234015	5.1482203	5.0702829	5.148218	5.0702651	4.3181381	6.0405986	5.2788337	2.7278202	3.3861521	4.9984435	3.3861588	4.9984592	3.730038	3.2500627	-75.264998	R0:S0:1	-57.819034	uncorrelated	51514b8	 1.40e+02	 1.19e-03	 9.20e-03	2022-04-17@19:00
2x2_2C_8b_C2v_L	0	14	2.5398621	-0.010928259	-3.3188074	-4.0380109	-0.095309751	-4.0380086	-0.095313293	0.13089595	-3.6487674	9.7672414	-3.2273017e-06	4.2793463e-07	0.011553563	-0.1563987	0.01155416	-0.15639788	-6.5922732e-06	-4.3958082e-07	-0.11093596	-1.0927326	1.7198176	0.060192209	-1.7198164	-0.060197545	0.21971585	-2.2654384	2.0584	1	0.21028966	0.13387146	0.2219176	1.9440734	1.8168878	1.5936765	1.8168866	1.5936814	0.015585303	1.5841266	1.109791	4.1407974e-05	-2.4463339e-06	0.095927392	1.0813497	0.09592673	1.081317	3.8389966e-05	4.0520432e-06	1.1037291	0.71596156	-1.5166901	-0.61229567	1.5166991	0.61232205	-0.27630068	2.4679071	0.028954449	0.20277678	0.05460617	0.16883414	0.33921704	0.16883527	0.33921389	0.015657395	0.33165627	0.035587073	3.8996412	5.415659	5.1412842	5.0851538	5.1412847	5.0851643	4.3168736	6.0461462	5.2831995	2.7298695	3.3775489	5.0343129	3.3775643	5.0342885	3.7308221	3.2459831	-75.2541	R0:S0:1	-57.819034	uncorrelated	51514b8	 1.41e+02	 7.44e-04	 4.32e-03	2022-04-17@19:04
2x2_2C_8b_C2v_L	0	14	2.5698448	-0.0093042326	-3.3192408	-4.0380499	-0.095464498	-4.0380481	-0.095459994	0.13141358	-3.6488453	9.8068966	1.9376351e-06	9.5597936e-07	0.011245508	-0.15733392	0.011244563	-0.15733314	1.9526817e-06	-1.0389342e-07	-0.11074104	-1.0927049	1.7197219	0.058327599	-1.7197219	-0.058320653	0.22071597	-2.2650673	2.0532	1	0.21157586	0.13490011	0.20798911	1.9448845	1.8177877	1.6115491	1.8177882	1.6115432	0.015072584	1.5877595	1.1116048	-2.5284494e-05	-2.4936516e-06	0.094029668	1.0636898	0.09403117	1.0637112	-9.2653095e-06	6.4389933e-07	1.082563	0.71017021	-1.5144526	-0.59106938	1.5144486	0.59104136	-0.27469827	2.461194	0.029142648	0.19175639	0.05388231	0.16827322	0.33058584	0.16827271	0.33059124	0.015143207	0.32993407	0.035544781	3.8172697	5.4365056	5.1571046	5.0578076	5.1571036	5.0577978	4.313729	6.0348066	5.2862302	2.7215503	3.3888835	4.9798151	3.388876	4.9798366	3.7345906	3.2507873	-75.430168	R0:S0:1	-57.896414	uncorrelated	51514b8	 1.38e+02	 6.24e-03	 1.00e+06	2022-04-17@19:09
2x2_2C_8b_C2v_L	0	14	2.5698448	-0.013723894	-3.3395929	-4.0508773	-0.095238683	-4.0509058	-0.095243191	0.13004731	-3.6577846	9.8068966	-1.9099606e-05	4.9622171e-06	0.011577766	-0.15380325	0.011584049	-0.15380685	-1.3147667e-05	5.7107746e-06	-0.1099721	-1.0928078	1.7175143	0.061289785	-1.7175231	-0.061294631	0.21643031	-2.2608769	2.0532	1	0.21157586	0.13446319	0.20148273	1.9458319	1.8215961	1.6326604	1.821597	1.632644	0.014362289	1.595607	1.112109	0.00031379399	-8.1123792e-07	0.091811193	1.0300804	0.091802168	1.0301103	5.6781661e-05	-6.5019475e-06	1.0662686	0.70603716	-1.5007606	-0.58691592	1.5007556	0.58693435	-0.26946006	2.4410895	0.029064431	0.18761687	0.053006183	0.16522563	0.31546963	0.16522474	0.31547923	0.014430864	0.32572901	0.035181548	3.7790262	5.4386697	5.1580578	5.0497332	5.1580517	5.0497515	4.3102001	6.0038216	5.2819502	2.7269041	3.4025371	4.9223344	3.4025191	4.9223776	3.7370736	3.2732717	-75.508149	R0:S0:1	-57.896414	uncorrelated	51514b8	 1.34e+02	 3.24e-03	 1.52e-02	2022-04-17@19:13
2x2_2C_8b_C2v_L	0	14	2.5698448	-0.017589236	-3.3498902	-4.0547547	-0.093379747	-4.0547258	-0.093370427	0.12575486	-3.6540214	9.8068966	1.9418996e-05	-2.3295262e-06	0.011828326	-0.15072729	0.011825642	-0.15072642	7.1266929e-06	4.3954166e-06	-0.11015487	-1.0944871	1.7191204	0.064308663	-1.7191161	-0.064299234	0.21228098	-2.2612239	2.0532	1	0.21157586	0.13443963	0.21309595	1.9451775	1.8210163	1.6185612	1.8210151	1.6185764	0.014402471	1.5922818	1.111782	-0.00040983826	-7.0600453e-06	0.093341305	1.0372505	0.093349454	1.037232	-1.4750539e-05	5.6748011e-06	1.0836628	0.71098279	-1.5022004	-0.6104259	1.5022106	0.61037836	-0.26676848	2.4482693	0.02905894	0.19717704	0.053590242	0.16557154	0.3218459	0.16557271	0.32183942	0.014469516	0.32749201	0.035271372	3.841773	5.4256895	5.1487127	5.0832214	5.1487161	5.0831763	4.3078551	6.0168997	5.2820757	2.7295791	3.3890374	4.9609778	3.3890617	4.9609517	3.7370716	3.2646917	-75.534122	R0:S0:1	-57.896414	uncorrelated	51514b8	 1.34e+02	 1.54e-03	 9.07e-03	2022-04-17@19:17
2x2_2C_8b_C2v_L	0	14	2.5698448	-0.015137378	-3.3517166	-4.054036	-0.090504464	-4.0540337	-0.090520271	0.12236473	-3.6512389	9.8068966	-3.324147e-05	1.6235269e-06	0.011426917	-0.15146734	0.011428282	-0.15146754	-1.498928e-05	-2.0316558e-06	-0.1102292	-1.094763	1.7185852	0.062462278	-1.7185829	-0.062478998	0.2126172	-2.2597395	2.0532	1	0.21157586	0.1343522	0.21606503	1.9449685	1.8206689	1.6037855	1.8206688	1.6037765	0.014742323	1.5911988	1.1115492	0.00058754348	1.0841443e-05	0.092315074	1.0516827	0.092308731	1.0516729	5.3724272e-05	-9.095343e-06	1.0854629	0.71297627	-1.5032547	-0.60997247	1.5032492	0.6100552	-0.26886783	2.4498854	0.029042944	0.19855524	0.053775221	0.16576536	0.33187094	0.16576534	0.33187081	0.014804038	0.32805424	0.035300937	3.8634306	5.4194655	5.1422118	5.0960295	5.142214	5.0960915	4.3064482	6.0205632	5.2879052	2.7312897	3.3813057	4.9973782	3.3812876	4.9973746	3.73815	3.2616337	-75.515484	R0:S0:1	-57.896414	uncorrelated	51514b8	 1.35e+02	 1.23e-03	 6.11e-03	2022-04-17@19:22
2x2_2C_8b_C2v_L	0	14	2.5698448	-0.013295523	-3.3544348	-4.0528869	-0.090906354	-4.052844	-0.090878662	0.12376266	-3.6541392	9.8068966	0.00011097174	-8.4730132e-06	0.011146901	-0.15241511	0.011143292	-0.15241175	1.7327056e-05	2.2558486e-06	-0.1098948	-1.0952236	1.7183351	0.060532076	-1.718329	-0.060504972	0.21391081	-2.2602905	2.0532	1	0.21157586	0.13438878	0.20901621	1.9454178	1.8210415	1.6124036	1.8210374	1.6124466	0.014631409	1.593202	1.1117962	-0.0018106549	-2.9950299e-05	0.091501615	1.0458162	0.091519406	1.0457267	-1.6371482e-06	4.0984771e-05	1.0744628	0.7098941	-1.5022738	-0.59581733	1.5023185	0.59568069	-0.26926181	2.4456231	0.029050218	0.19287957	0.053370747	0.16553448	0.32813332	0.16553862	0.32812086	0.014693176	0.32699651	0.035242678	3.825151	5.4273266	5.1478431	5.0776893	5.1478427	5.0775492	4.3073979	6.012837	5.2882406	2.7295675	3.3889921	4.9739241	3.3890945	4.9738424	3.7381104	3.2667521	-75.52253	R0:S0:1	-57.896414	uncorrelated	51514b8	 1.35e+02	 6.20e-04	 3.62e-03	2022-04-17@19:26
2x2_2C_8b_C2v_L	0	14	2.5998276	-0.014596931	-3.3546136	-4.0527474	-0.091987485	-4.0527152	-0.092029243	0.12509671	-3.6540192	9.8465517	4.4402087e-05	-9.3423093e-06	0.011352128	-0.15185644	0.01135457	-0.1518538	-2.7551774e-05	-5.125229e-08	-0.10987718	-1.0953225	1.7185959	0.06147779	-1.718583	-0.061523172	0.21345897	-2.2607245	2.048	1	0.21286207	0.13544727	0.19991731	1.9458973	1.8216571	1.6296744	1.8216461	1.6297733	0.01404618	1.5953445	1.1134875	-0.00083926943	-1.8199377e-05	0.090806509	1.0261246	0.090816798	1.0257817	0.00020707721	3.6694981e-05	1.0622419	0.70606164	-1.5007759	-0.58813827	1.5008657	0.58831864	-0.26600974	2.4427595	0.029242954	0.18593479	0.052946067	0.16517844	0.31741359	0.16518895	0.31734461	0.014108744	0.32601257	0.035249496	3.7670892	5.4442871	5.1621075	5.0604961	5.1621178	5.0604816	4.3044358	6.0077906	5.2884438	2.7216079	3.3967825	4.9225022	3.3969661	4.9221983	3.7409278	3.2675768	-75.704283	R0:S0:1	-57.973793	uncorrelated	51514b8	 1.32e+02	 4.03e-03	 1.00e+06	2022-04-17@19:31
2x2_2C_8b_C2v_L	0	14	2.5998276	-0.019414448	-3.3631953	-4.0601517	-0.090816915	-4.060173	-0.090800719	0.12172259	-3.6606701	9.8465517	6.1990409e-05	-7.4838999e-06	0.011571044	-0.14818472	0.011565156	-0.14817922	7.9425099e-06	-8.7654247e-06	-0.10947962	-1.0934	1.7149731	0.064541747	-1.7149786	-0.06451224	0.20875276	-2.2555448	2.048	1	0.21286207	0.13494889	0.19915638	1.9464405	1.8250096	1.6413069	1.8250001	1.6414049	0.013576449	1.6017052	1.1137478	-0.0017802608	-7.5153742e-05	0.08900738	1.0003773	0.089037848	1.0001286	0.00012901899	9.8305429e-05	1.0536809	0.7044562	-1.4882424	-0.58927442	1.4883485	0.58912292	-0.26145	2.425748	0.029153343	0.18641113	0.052435279	0.16242812	0.30804236	0.16243751	0.30799239	0.013638884	0.32251961	0.034930147	3.7598892	5.4398367	5.1587885	5.0636831	5.1587706	5.0634507	4.3004867	5.9823457	5.2855029	2.7285236	3.4039285	4.8884991	3.4041572	4.8883159	3.7434731	3.2857313	-75.725454	R0:S0:1	-57.973793	uncorrelated	51514b8	 1.29e+02	 4.04e-03	 1.54e-02	2022-04-17@19:35
2x2_2C_8b_C2v_L	0	14	2.5998276	-0.022362101	-3.3776486	-4.0663644	-0.088414538	-4.0666519	-0.088476399	0.11663275	-3.6572656	9.8465517	-1.5631832e-05	2.4407008e-06	0.011574068	-0.14565905	0.011578884	-0.14565701	7.4278868e-06	-2.1135953e-05	-0.1096885	-1.0955841	1.7168904	0.06615025	-1.7169402	-0.066193742	0.20493401	-2.25556	2.048	1	0.21286207	0.13490215	0.20938941	1.9459199	1.8246803	1.6279683	1.8246766	1.6280176	0.013640356	1.5991737	1.1134801	0.00053193749	6.7689875e-06	0.089732092	1.0074118	0.089728305	1.0072168	-9.4313627e-05	-9.9106214e-06	1.0677718	0.70877112	-1.4889419	-0.60566954	1.4889845	0.60588607	-0.25921164	2.4308311	0.029143816	0.19490257	0.052898632	0.16258059	0.31487951	0.162584	0.3148375	0.013702	0.32388588	0.034991559	3.814941	5.4279527	5.1501031	5.0929324	5.1500842	5.0930154	4.2977867	5.9922051	5.2867428	2.7315145	3.3921136	4.9253079	3.3921871	4.9251559	3.7441204	3.2792887	-75.767717	R0:S0:1	-57.973793	uncorrelated	51514b8	 1.29e+02	 2.21e-03	 7.08e-03	2022-04-17@19:40
2x2_2C_8b_C2v_L	0	14	2.5998276	-0.019894258	-3.3847075	-4.0645018	-0.085794851	-4.0644807	-0.085747217	0.11343789	-3.6533318	9.8465517	3.2901867e-05	1.0698577e-07	0.011156851	-0.14627085	0.011149535	-0.14627206	3.3629147e-05	-3.3809593e-06	-0.10956485	-1.0967044	1.7162761	0.064262084	-1.7162776	-0.064196478	0.20505228	-2.2538731	2.048	1	0.21286207	0.13482834	0.21063493	1.9458315	1.8243699	1.6160859	1.8243744	1.6160752	0.013880561	1.5984466	1.1133149	-0.00085838373	-3.3399297e-05	0.088738583	1.0189498	0.08875542	1.0191094	-0.00011824481	3.2344978e-05	1.0671693	0.71007217	-1.4899443	-0.60402272	1.4899239	0.60371919	-0.26075386	2.4315813	0.029130539	0.19494801	0.052974559	0.16276514	0.32325165	0.1627612	0.32327282	0.013936435	0.32427133	0.035008034	3.8275014	5.4235082	5.1450394	5.1032858	5.1450318	5.1031177	4.2961892	5.994578	5.2919808	2.73295	3.3862084	4.9548807	3.3861903	4.9550084	3.7453864	3.2772844	-75.752312	R0:S0:1	-57.973793	uncorrelated	51514b8	 1.30e+02	 1.01e-03	 5.57e-03	2022-04-17@19:44
2x2_2C_8b_C2v_L	0	14	2.5998276	-0.018085078	-3.3859479	-4.0641743	-0.086111607	-4.0641974	-0.086176848	0.11507715	-3.6560967	9.8465517	-0.0001404032	8.9794298e-06	0.010943787	-0.14707829	0.0109616	-0.14709159	-2.4264758e-05	4.8584155e-06	-0.10919491	-1.0970131	1.7162312	0.062571433	-1.7162338	-0.062639552	0.2063012	-2.2545204	2.048	1	0.21286207	0.13487173	0.20360671	1.9462507	1.8246976	1.6244048	1.8247122	1.6242698	0.013758729	1.6002546	1.1135486	0.0034149197	0.00012914521	0.088037303	1.013086	0.087981333	1.0134237	-0.00016538995	-0.00015535856	1.0564976	0.70709186	-1.4892136	-0.59118028	1.4890519	0.59152062	-0.26103561	2.4278507	0.029138989	0.18912795	0.052596644	0.16256671	0.31940433	0.16255228	0.31945549	0.013813677	0.32329611	0.034956485	3.7900143	5.4312581	5.1503393	5.0855741	5.1503643	5.0859763	4.297234	5.9876833	5.2922054	2.7309808	3.3937029	4.9320018	3.3933501	4.932242	3.7451512	3.2818137	-75.760186	R0:S0:1	-57.973793	uncorrelated	51514b8	 1.29e+02	 6.49e-04	 3.14e-03	2022-04-17@19:49
2x2_2C_8b_C2v_L	0	14	2.6298103	-0.01959166	-3.3861586	-4.0641122	-0.087352688	-4.0641047	-0.087242127	0.11637171	-3.656324	9.8862069	-5.7194685e-06	1.0663073e-05	0.011164951	-0.14653527	0.011161951	-0.14653729	7.1247075e-05	-1.0712797e-05	-0.10929763	-1.0970709	1.7164907	0.063674362	-1.716504	-0.063579832	0.20587457	-2.255002	2.0428	1	0.21414828	0.13592862	0.19553027	1.9466604	1.8252426	1.6407968	1.8252585	1.6406385	0.013223355	1.6021384	1.1151938	0.00040549643	1.8254392e-05	0.08739976	0.99397418	0.087380651	0.99453472	-0.00044279447	-3.2260225e-05	1.045753	0.70368025	-1.4879375	-0.58422892	1.487805	0.58385371	-0.2578965	2.4257122	0.02933109	0.18297493	0.052234951	0.16226128	0.30897575	0.16224585	0.30909922	0.013279904	0.32242037	0.034974508	3.737247	5.4473655	5.1644066	5.0687951	5.1643962	5.0687826	4.2944969	5.9837964	5.2925713	2.7231784	3.4008386	4.882182	3.4005616	4.8826586	3.7477419	3.2818626	-75.943546	R0:S0:1	-58.051172	uncorrelated	51514b8	 1.26e+02	 6.17e-03	 1.00e+06	2022-04-17@19:53
2x2_2C_8b_C2v_L	0	14	2.6298103	-0.025263015	-3.404513	-4.077713	-0.086469908	-4.0777901	-0.086554951	0.11273452	-3.6634436	9.8862069	-9.0696177e-05	-4.6050033e-06	0.01140393	-0.14294172	0.011421976	-0.14295616	-4.3108213e-05	1.3200445e-05	-0.10931614	-1.0962329	1.714026	0.066648276	-1.7140347	-0.066745015	0.20102292	-2.2498754	2.0428	1	0.21414828	0.13539743	0.19781318	1.9471586	1.8286586	1.6532866	1.8287932	1.6518274	0.012777928	1.6084347	1.1154015	0.018089107	0.0012092203	0.085678945	0.96596549	0.085355989	0.96977291	-0.002333768	-0.0013599177	1.0398243	0.70262313	-1.4756767	-0.58344147	1.4741792	0.58465709	-0.25313895	2.4086722	0.029235502	0.18711	0.051764152	0.15945334	0.29897563	0.15931979	0.29986184	0.012840707	0.31889726	0.034655151	3.7401932	5.4413079	5.1608168	5.0694259	5.1610936	5.0725168	4.2901998	5.9587801	5.2878115	2.7311231	3.4093011	4.8465295	3.4060459	4.8493417	3.7506007	3.2995676	-76.014131	R0:S0:1	-58.051172	uncorrelated	51514b8	 1.22e+02	 3.89e-03	 1.57e-02	2022-04-17@19:58
2x2_2C_8b_C2v_L	0	14	2.6298103	-0.028734003	-3.4188245	-4.0837993	-0.084304379	-4.0791132	-0.083413145	0.10665322	-3.6603129	9.8862069	3.3188575e-05	4.6286497e-05	0.01129486	-0.14029229	0.011263519	-0.14025858	0.0005160015	-5.5691385e-05	-0.10962501	-1.0984055	1.7158996	0.068314674	-1.7150853	-0.067678894	0.19676185	-2.2499192	2.0428	1	0.21414828	0.1362909	1.9749639	1.9603613	1.8341045	1.7724834	1.8342784	1.7707385	0.037685165	1.6542809	1.1212138	0.0075779355	0.00057765749	0.064525217	0.83786716	0.06445943	0.84397994	-0.0030404407	-0.00063318972	0.16401342	0.61622808	-1.4698949	-0.47322143	1.4678272	0.4720933	-0.28317631	2.2993886	0.029409955	0.028336114	0.039703835	0.15560739	0.22065973	0.1554385	0.22211975	0.044061863	0.29160953	0.033249589	5.4955897	5.6426318	5.2142839	4.783911	5.2150988	4.7877502	4.3336306	5.7798987	2.6535534	2.6844838	3.523664	4.4835656	3.5194948	4.4870218	3.8378391	3.3903784	-76.047828	R0:S0:1	-58.051172	uncorrelated	51514b8	 9.63e+01	 1.12e-01	 7.58e-03	2022-04-17@20:02
2x2_2C_8b_C2v_L	0	14	2.6298103	-0.15086118	-3.905278	-4.2118904	-0.12243383	-4.2104144	-0.12223815	0.1289004	-3.6421558	9.8862069	-0.00064365454	0.00025848005	0.018532222	-0.11050025	0.018610468	-0.11044201	-6.9318565e-05	2.3240239e-05	-0.1672531	-1.143408	1.7361446	0.12029411	-1.7357815	-0.12078484	0.17317769	-2.2543106	2.0428	1	0.21414828	0.13645055	1.9881959	1.9630122	1.8364611	1.7459191	1.8365504	1.7446708	0.017875075	1.6484041	1.1211904	0.0074544735	0.00015502064	0.10065599	0.78396119	0.10028465	0.78534419	-0.00051300728	-0.00058815036	0.17990543	0.60187275	-1.4623916	-0.65988825	1.4615054	0.66188549	-0.23545513	2.313231	0.029440656	0.012171097	0.037056036	0.15352327	0.24328025	0.15343636	0.24452686	0.019164066	0.29568763	0.033355192	5.4821477	5.6375479	5.1869887	4.8667307	5.1871299	4.8691516	4.2915632	5.805926	2.5994333	2.6765543	3.5139725	4.5065914	3.5122315	4.5078542	3.802577	3.3790679	-77.936708	R0:S0:1	-58.051172	uncorrelated	51514b8	 1.03e+02	 7.97e-02	 9.93e-02	2022-04-17@20:06
2x2_2C_8b_C2v_L	0	14	2.6298103	-0.047615308	-3.5590558	-4.2399441	-0.097531849	-4.2374727	-0.097191429	0.020187504	-3.5917865	9.8862069	-0.0001217288	5.7181772e-05	0.015789439	-0.11520847	0.015810838	-0.11499458	0.0011099802	-4.8740485e-05	-0.1283543	-1.1146936	1.7401914	0.12009522	-1.7397682	-0.12009733	0.1334392	-2.2275477	2.0428	1	0.21414828	0.13532657	1.6618874	1.9558926	1.8296991	1.6497208	1.8297516	1.6463115	0.395038	1.6298694	1.1170982	0.023218278	0.0022471198	0.097214973	0.84993095	0.096446687	0.85393964	-0.013069019	-0.0021469103	0.43531493	0.65253159	-1.4849012	-0.79178353	1.4832488	0.79578156	-0.38868563	2.3411901	0.02922919	0.45589432	0.04376842	0.15845789	0.30418748	0.15838249	0.30636595	0.55536046	0.30631285	0.034104763	5.4303384	5.5333514	5.1259715	5.0640172	5.1265971	5.0729668	4.3806378	5.8426215	3.4699123	2.7143879	3.4316555	4.7285291	3.4268905	4.733615	4.0810886	3.3049562	-76.914331	R0:S0:1	-58.051172	uncorrelated	51514b8	 1.19e+02	 4.36e-02	 8.86e-02	2022-04-17@20:10
2x2_2C_8b_C2v_L	0	14	2.6298103	-0.015691796	-3.4767228	-4.1331641	-0.078343091	-4.1242432	-0.07679302	0.09006841	-3.631808	9.8862069	-2.2336534e-05	7.5504355e-05	0.012389743	-0.13193984	0.012348406	-0.13189717	0.0010573746	-9.6993902e-05	-0.11455671	-1.1078462	1.7224275	0.086322671	-1.720876	-0.085257644	0.18040495	-2.2428596	2.0428	1	0.21414828	0.13518295	0.20664117	1.9462254	1.8259142	1.5761149	1.8260191	1.5746168	0.010887052	1.5942442	1.1137476	0.0019436866	0.00029009087	0.09083391	0.9921782	0.0907007	0.998825	-0.007130028	-0.00048352813	1.0960892	0.71236136	-1.4854543	-0.73330162	1.483619	0.72924549	-0.23077753	2.4387149	0.029195876	0.18501065	0.0525418	0.16115695	0.33811276	0.16104964	0.33901363	0.010931987	0.32663703	0.035065532	3.8662859	5.4066732	5.113877	5.2373756	5.1148727	5.237073	4.2796283	6.0112356	5.2725721	2.731067	3.3586021	5.0246608	3.3546567	5.0288695	3.749999	3.263155	-76.277275	R0:S0:1	-58.051172	uncorrelated	51514b8	 1.30e+02	 1.72e-02	 9.13e-02	2022-04-17@20:14
2x2_2C_8b_C2v_L	0	14	2.6298103	-0.015587032	-3.4568113	-4.0878486	-0.079596733	-4.0890371	-0.080695063	0.10656951	-3.6635997	9.8862069	-0.0027244897	0.00016711962	0.010309186	-0.14604209	0.010527452	-0.14623844	-0.00055288375	6.5710654e-05	-0.11002603	-1.1038464	1.7145559	0.062432197	-1.7147319	-0.063787966	0.20341718	-2.2481256	2.0428	1	0.21414828	0.13517972	0.20347164	1.9471013	1.8278348	1.6153257	1.8279869	1.6141565	0.013347809	1.6063409	1.1148025	0.05242939	0.0014841458	0.084321065	1.0047891	0.083583137	1.0069943	-0.0009024436	-0.0019106537	1.0392126	0.70559089	-1.4787508	-0.58646891	1.4770681	0.59270964	-0.25854784	2.4113187	0.02919649	0.19192368	0.051799574	0.15992229	0.3262934	0.15977209	0.32649105	0.013390895	0.32004823	0.034737229	3.7740353	5.4297403	5.1439751	5.103153	5.1443193	5.1087581	4.2865163	5.9644968	5.2939822	2.7344721	3.3920365	4.9391574	3.388396	4.9403475	3.7534802	3.292313	-76.139298	R0:S0:1	-58.051172	uncorrelated	51514b8	 1.26e+02	 4.89e-03	 4.35e-02	2022-04-17@20:19
2x2_2C_8b_C2v_L	0	14	2.6298103	-0.022053037	-3.4420956	-4.0906644	-0.087072919	-4.0814091	-0.085073965	0.11346844	-3.6707127	9.8862069	0.001299247	-7.9846009e-05	0.01088641	-0.14354797	0.01071232	-0.14330926	0.0011593074	-0.00012343564	-0.10802156	-1.1022789	1.7171475	0.0644447	-1.715538	-0.062784265	0.20145111	-2.2523628	2.0428	1	0.21414828	0.13549477	0.19312573	1.9482138	1.8297584	1.6670781	1.8294218	1.670126	0.012385482	1.6123506	1.115944	-0.068408528	-0.0033603537	0.083128621	0.95663055	0.084225475	0.95055469	0.0017324514	0.0039817965	1.0111202	0.69617682	-1.4713039	-0.56402676	1.4743468	0.55541547	-0.25149961	2.4003219	0.029254298	0.1911698	0.050801662	0.1586281	0.29143008	0.15896007	0.28985574	0.012446567	0.31671753	0.034534093	3.6710397	5.4572465	5.170452	5.0435107	5.1706626	5.0337945	4.2909133	5.9444234	5.2795404	2.7271452	3.41819	4.8056002	3.424907	4.7996964	3.7506893	3.3092975	-76.140616	R0:S0:1	-58.051172	uncorrelated	51514b8	 1.21e+02	 5.60e-03	 1.73e-02	2022-04-17@20:23
2x2_2C_8b_C2v_L	0	14	2.6298103	-0.034620071	-3.4428117	-4.0805713	-0.084285063	-4.0902075	-0.088152278	0.10831777	-3.6589921	9.8862069	-0.0016036181	0.00010482954	0.011628446	-0.13866927	0.01188493	-0.13878884	-0.0022854345	0.00024276786	-0.11129478	-1.1012902	1.7161245	0.068844242	-1.7175519	-0.072117769	0.19517238	-2.250544	2.0428	1	0.21414828	0.13636289	1.9752467	1.9605699	1.8343745	1.773579	1.8342928	1.7736803	0.033802229	1.654027	1.121325	0.046331896	0.0023282606	0.066579221	0.8398709	0.065302855	0.83276195	0.0020425877	-0.0031809376	0.16152033	0.61501842	-1.4680477	-0.47416083	1.4688431	0.48423065	-0.27704809	2.3005103	0.029423231	0.029613748	0.039498562	0.15538293	0.21917799	0.15544916	0.21930536	0.038941933	0.29179803	0.033250672	5.4893149	5.6442128	5.2159451	4.7851935	5.2151314	4.7888837	4.3277925	5.7821247	2.6458769	2.6829737	3.5219666	4.4819051	3.5229876	4.4800524	3.8303791	3.3909747	-76.133787	R0:S0:1	-58.051172	uncorrelated	51514b8	 9.62e+01	 1.10e-01	 1.73e-02	2022-04-17@20:28
2x2_2C_8b_C2v_L	0	14	2.6298103	-0.15005199	-3.9148361	-4.226566	-0.12454009	-4.208539	-0.12081602	0.12846162	-3.6390487	9.8862069	0.0020417047	-0.00062550535	0.018640206	-0.11012973	0.018518603	-0.10935334	0.007161897	-0.0013869678	-0.16787971	-1.144544	1.738077	0.12398411	-1.7352279	-0.12111951	0.17220332	-2.2534421	2.0428	1	0.21414828	0.13641624	1.9881638	1.9630146	1.8360126	1.7396881	1.8359891	1.7383207	0.017942421	1.6469592	1.12097	-0.016992631	0.00059920869	0.10204576	0.78286865	0.10301137	0.7908535	-0.023431585	0.0011167433	0.18040605	0.60199407	-1.4651993	-0.67752866	1.4626874	0.67487755	-0.23442729	2.3161801	0.029434555	0.012233165	0.037052855	0.15387159	0.2487626	0.15388269	0.24920006	0.019278805	0.29658935	0.033408019	5.4815459	5.6367132	5.1818868	4.8766008	5.185786	4.8820094	4.290674	5.810477	2.5999762	2.6766377	3.5134425	4.519462	3.5075641	4.5205523	3.802997	3.3752212	-77.975666	R0:S0:1	-58.051172	uncorrelated	51514b8	 1.04e+02	 8.45e-02	 9.43e-02	2022-04-17@20:31
2x2_2C_8b_C2v_L	0	14	2.6298103	-0.043419431	-3.5419433	-4.2295424	-0.094648414	-4.2363117	-0.096833171	0.022809897	-3.5914299	9.8862069	-0.0031088778	0.00052724005	0.015475936	-0.11588096	0.015771076	-0.11733487	-0.0038395024	0.00021912171	-0.12645021	-1.1130648	1.7385165	0.11736816	-1.7396077	-0.11878511	0.13499639	-2.2275073	2.0428	1	0.21414828	0.13530422	1.6264891	1.9553555	1.829008	1.6495301	1.8298795	1.6421828	0.42730347	1.6291256	1.1169469	0.080560178	0.0046801405	0.096251664	0.85006493	0.094736491	0.86713109	-0.018045896	-0.0075785799	0.45861924	0.65600548	-1.4883274	-0.78616764	1.4811107	0.79303335	-0.4022292	2.3424637	0.029224205	0.49461191	0.044265685	0.15903495	0.30314165	0.15821369	0.30851967	0.58931873	0.30671512	0.034141846	5.4077935	5.5260725	5.1245641	5.066071	5.1244842	5.080842	4.3861264	5.8439949	3.5417627	2.7160373	3.4318979	4.7362066	3.418132	4.7474488	4.0961495	3.3014078	-76.841187	R0:S0:1	-58.051172	uncorrelated	51514b8	 1.20e+02	 4.29e-02	 8.87e-02	2022-04-17@20:36
2x2_2C_8b_C2v_L	0	14	2.6298103	-0.015223171	-3.4670864	-4.1387983	-0.080279221	-4.1114837	-0.075291089	0.09401197	-3.6354225	9.8862069	0.00039004346	0.00015299523	0.012443359	-0.13297011	0.012165895	-0.13219896	0.0033981257	-0.00040477735	-0.11409723	-1.1064631	1.7234814	0.085827918	-1.7186473	-0.083090439	0.18279661	-2.2439624	2.0428	1	0.21414828	0.13521635	0.20417881	1.9463438	1.8261664	1.5819879	1.8261366	1.5786304	0.011311482	1.5954291	1.1138941	-0.0022843871	0.00071189064	0.090467019	0.98785025	0.090229631	1.0004569	-0.021613068	-0.0010748491	1.0901459	0.71117369	-1.4855745	-0.72546339	1.4823493	0.71647962	-0.23337664	2.4363539	0.029201966	0.18326485	0.052439087	0.16099672	0.33542186	0.16098323	0.33763729	0.011486218	0.32600149	0.03503541	3.8497611	5.4103797	5.1160497	5.2249662	5.1191312	5.2255782	4.2808881	6.0064481	5.274034	2.7303026	3.3646481	5.0118848	3.3562564	5.0193584	3.7503051	3.2656471	-76.251278	R0:S0:1	-58.051172	uncorrelated	51514b8	 1.30e+02	 1.63e-02	 8.92e-02	2022-04-17@20:40
2x2_2C_8b_C2v_L	0	14	2.6298103	-0.016340339	-3.450738	-4.0857438	-0.078702126	-4.092493	-0.082659822	0.10711056	-3.6643138	9.8862069	-0.0071366816	0.00036707052	0.010210483	-0.14540322	0.010857296	-0.14616451	-0.0016968935	0.00019921454	-0.10976983	-1.1030488	1.7143181	0.061684899	-1.7154853	-0.065634409	0.20311335	-2.2485629	2.0428	1	0.21414828	0.13521717	0.23756309	1.9472483	1.8277896	1.6210831	1.8282841	1.6182815	0.013303277	1.6069191	1.1149146	0.14319582	0.0043760578	0.084967922	0.99759414	0.083009734	1.003802	-0.0020283192	-0.0055621924	1.0258533	0.70428599	-1.4800607	-0.58034779	1.4752106	0.59816708	-0.2578232	2.4103199	0.029203366	0.24729558	0.051667809	0.16001145	0.32314256	0.15953309	0.32326728	0.013357269	0.31973226	0.034719947	3.7960817	5.4332971	5.1460209	5.0928219	5.1467006	5.1082276	4.2871746	5.9624255	5.2566166	2.7332676	3.39828	4.9253413	3.3881689	4.92851	3.7533221	3.2938165	-76.134242	R0:S0:1	-58.051172	uncorrelated	51514b8	 1.26e+02	 5.92e-03	 4.03e-02	2022-04-17@20:44
2x2_2C_8b_C2v_L	0	14	2.6298103	-0.022967854	-3.442805	-4.0959676	-0.08920023	-4.0779511	-0.083177246	0.11316709	-3.6696532	9.8862069	0.0037841693	-0.00020346238	0.011208095	-0.14326768	0.01065443	-0.14277293	0.0035464612	-0.00041905696	-0.10821793	-1.1023612	1.7179683	0.067011457	-1.7151094	-0.061845701	0.20087885	-2.2521849	2.0428	1	0.21414828	0.13553708	0.31336868	1.9487914	1.8303634	1.6675738	1.8292451	1.6788253	0.012908339	1.6141203	1.1161857	-0.22854405	-0.012020749	0.081091824	0.95939699	0.084754964	0.9362147	0.0090841382	0.014162262	0.96285189	0.69240023	-1.4668179	-0.57202816	1.4784981	0.54424583	-0.25178302	2.3960876	0.029262551	0.37721675	0.050278987	0.15808243	0.29092871	0.15919396	0.2846789	0.013065185	0.31573839	0.034479427	3.7653982	5.4656909	5.1728057	5.0467347	5.1717116	5.0116389	4.2916484	5.9375606	5.1494915	2.7252256	3.4130027	4.7990778	3.4386723	4.7792596	3.7534099	3.3134272	-76.145018	R0:S0:1	-58.051172	uncorrelated	51514b8	 1.21e+02	 1.31e-02	 1.85e-02	2022-04-17@20:49
