Number of OpenMP threads = 4
!!!!!!!!!!!!!!!!!!!!!!!!!!!!! - Fading to Sr2CuO2Cl2 - !!!!!!!!!!!!!!!!!!!!!!!!!!!!!
reading data file /home/theod/code_pyqcm/simulations/cdmft_max_supra_sid.tsv, line 1
111 columns read
----->  D  =  0.0
----->  U  =  14.0
----->  e  =  2.3
----->  eb1_1  =  -0.006655534
----->  eb2_1  =  -3.3502828
----->  eb3_1  =  -4.1133163
----->  eb4_1  =  -0.10235806
----->  eb5_1  =  -4.113222
----->  eb6_1  =  -0.1023468
----->  eb7_1  =  0.14108001
----->  eb8_1  =  -3.7537133
----->  mu  =  9.68
----->  sb1_1  =  -0.0001012231
----->  sb2_1  =  7.5002141e-06
----->  sb3_1  =  0.011771903
----->  sb4_1  =  -0.16264369
----->  sb5_1  =  0.011773954
----->  sb6_1  =  -0.16264057
----->  sb7_1  =  1.0013529e-05
----->  sb8_1  =  -2.0059213e-06
----->  tb1_1  =  -0.11240159
----->  tb2_1  =  -1.1061747
----->  tb3_1  =  1.7476608
----->  tb4_1  =  0.057892245
----->  tb5_1  =  -1.7476438
----->  tb6_1  =  -0.057886658
----->  tb7_1  =  0.22749261
----->  tb8_1  =  -2.3061557
----->  tpd  =  2.1
----->  tpp  =  1.0
----->  tppp  =  0.2

******************************* CDMFT procedure *******************************

minimization method =  CG
mixing state =  1
frequency grid type =  sharp
fictitious inverse temperature =  50
frequency cutoff =  2.0
--------------------------------------------------------------------------------

CDMFT iteration 1, distance =  1.66e+02, diff param =  6.32e-02
73 minimization steps, time(MIN)/time(ED)=0.00430
sb1_1     =  0.0000	sb2_1     =  0.0000	sb3_1     =  0.0100	sb4_1     = -0.1826	sb5_1     =  0.0100	
sb6_1     = -0.1826	sb7_1     = -0.0000	sb8_1     = -0.0000	eb1_1     =  0.0073	eb2_1     = -3.2414	
eb3_1     = -3.9501	eb4_1     = -0.1161	eb5_1     = -3.9500	eb6_1     = -0.1161	eb7_1     =  0.1568	
eb8_1     = -3.5868	tb1_1     = -0.1179	tb2_1     = -1.1038	tb3_1     =  1.7414	tb4_1     =  0.0429	
tb5_1     = -1.7414	tb6_1     = -0.0429	tb7_1     =  0.2522	tb8_1     = -2.3030	

CDMFT iteration 2, distance =  1.92e+02, diff param =  1.09e-02, diff hybrid =  9.64e-02
43 minimization steps, time(MIN)/time(ED)=0.00301
sb1_1     =  0.0000	sb2_1     = -0.0000	sb3_1     =  0.0064	sb4_1     = -0.1959	sb5_1     =  0.0064	
sb6_1     = -0.1959	sb7_1     = -0.0000	sb8_1     = -0.0000	eb1_1     =  0.0128	eb2_1     = -3.2264	
eb3_1     = -3.9501	eb4_1     = -0.1356	eb5_1     = -3.9500	eb6_1     = -0.1356	eb7_1     =  0.1719	
eb8_1     = -3.5949	tb1_1     = -0.1194	tb2_1     = -1.0965	tb3_1     =  1.7353	tb4_1     =  0.0233	
tb5_1     = -1.7353	tb6_1     = -0.0233	tb7_1     =  0.2660	tb8_1     = -2.2952	

CDMFT iteration 3, distance =  1.79e+02, diff param =  1.70e-02, diff hybrid =  4.50e-02
74 minimization steps, time(MIN)/time(ED)=0.00265
sb1_1     = -0.0000	sb2_1     =  0.0000	sb3_1     =  0.0080	sb4_1     = -0.1889	sb5_1     =  0.0080	
sb6_1     = -0.1889	sb7_1     =  0.0000	sb8_1     =  0.0000	eb1_1     =  0.0051	eb2_1     = -3.1504	
eb3_1     = -3.9329	eb4_1     = -0.1317	eb5_1     = -3.9329	eb6_1     = -0.1317	eb7_1     =  0.1732	
eb8_1     = -3.6024	tb1_1     = -0.1181	tb2_1     = -1.0878	tb3_1     =  1.7365	tb4_1     =  0.0302	
tb5_1     = -1.7365	tb6_1     = -0.0302	tb7_1     =  0.2587	tb8_1     = -2.3032	

CDMFT iteration 4, distance =  1.82e+02, diff param =  1.87e-03, diff hybrid =  2.69e-02
25 minimization steps, time(MIN)/time(ED)=0.00219
sb1_1     =  0.0000	sb2_1     = -0.0000	sb3_1     =  0.0080	sb4_1     = -0.1902	sb5_1     =  0.0080	
sb6_1     = -0.1902	sb7_1     = -0.0000	sb8_1     = -0.0000	eb1_1     =  0.0074	eb2_1     = -3.1522	
eb3_1     = -3.9327	eb4_1     = -0.1297	eb5_1     = -3.9327	eb6_1     = -0.1297	eb7_1     =  0.1705	
eb8_1     = -3.5966	tb1_1     = -0.1186	tb2_1     = -1.0873	tb3_1     =  1.7346	tb4_1     =  0.0300	
tb5_1     = -1.7346	tb6_1     = -0.0300	tb7_1     =  0.2604	tb8_1     = -2.2996	

CDMFT iteration 5, distance =  1.84e+02, diff param =  1.57e-03, diff hybrid =  8.72e-03
24 minimization steps, time(MIN)/time(ED)=0.00190
sb1_1     = -0.0000	sb2_1     = -0.0000	sb3_1     =  0.0075	sb4_1     = -0.1911	sb5_1     =  0.0075	
sb6_1     = -0.1911	sb7_1     =  0.0000	sb8_1     = -0.0000	eb1_1     =  0.0093	eb2_1     = -3.1572	
eb3_1     = -3.9348	eb4_1     = -0.1315	eb5_1     = -3.9348	eb6_1     = -0.1315	eb7_1     =  0.1721	
eb8_1     = -3.5981	tb1_1     = -0.1185	tb2_1     = -1.0879	tb3_1     =  1.7346	tb4_1     =  0.0281	
tb5_1     = -1.7346	tb6_1     = -0.0281	tb7_1     =  0.2614	tb8_1     = -2.2995	

CDMFT iteration 6, distance =  1.82e+02, diff param =  7.88e-04, diff hybrid =  4.21e-03
9 minimization steps, time(MIN)/time(ED)=0.00165
====================== CDMFT converged on the parameters ======================
sb1_1     = -0.0000	sb2_1     = -0.0000	sb3_1     =  0.0079	sb4_1     = -0.1903	sb5_1     =  0.0079	
sb6_1     = -0.1903	sb7_1     = -0.0000	sb8_1     =  0.0000	eb1_1     =  0.0076	eb2_1     = -3.1572	
eb3_1     = -3.9347	eb4_1     = -0.1314	eb5_1     = -3.9347	eb6_1     = -0.1314	eb7_1     =  0.1722	
eb8_1     = -3.5981	tb1_1     = -0.1185	tb2_1     = -1.0883	tb3_1     =  1.7354	tb4_1     =  0.0300	
tb5_1     = -1.7354	tb6_1     = -0.0300	tb7_1     =  0.2603	tb8_1     = -2.3004	
   <D> = 0.011035
   <e> = 1.251953
   <mu> = 1.607470
   <tpd> = -0.615019
   <tpp> = -0.203126
   <tppp> = 0.084313
************************* CDMFT completed successfully *************************

******************************* CDMFT procedure *******************************

minimization method =  CG
mixing state =  1
frequency grid type =  sharp
fictitious inverse temperature =  50
frequency cutoff =  2.0
--------------------------------------------------------------------------------

CDMFT iteration 1, distance =  1.79e+02, diff param =  3.61e-03
39 minimization steps, time(MIN)/time(ED)=0.00108
sb1_1     = -0.0000	sb2_1     =  0.0000	sb3_1     =  0.0084	sb4_1     = -0.1874	sb5_1     =  0.0084	
sb6_1     = -0.1874	sb7_1     =  0.0000	sb8_1     = -0.0000	eb1_1     =  0.0060	eb2_1     = -3.1645	
eb3_1     = -3.9398	eb4_1     = -0.1275	eb5_1     = -3.9399	eb6_1     = -0.1275	eb7_1     =  0.1689	
eb8_1     = -3.6058	tb1_1     = -0.1178	tb2_1     = -1.0866	tb3_1     =  1.7313	tb4_1     =  0.0327	
tb5_1     = -1.7313	tb6_1     = -0.0327	tb7_1     =  0.2574	tb8_1     = -2.2955	

CDMFT iteration 2, distance =  1.77e+02, diff param =  2.27e-03, diff hybrid =  1.49e-02
34 minimization steps, time(MIN)/time(ED)=0.00097
sb1_1     = -0.0000	sb2_1     = -0.0000	sb3_1     =  0.0086	sb4_1     = -0.1867	sb5_1     =  0.0086	
sb6_1     = -0.1867	sb7_1     = -0.0000	sb8_1     = -0.0000	eb1_1     =  0.0067	eb2_1     = -3.1726	
eb3_1     = -3.9445	eb4_1     = -0.1264	eb5_1     = -3.9445	eb6_1     = -0.1264	eb7_1     =  0.1676	
eb8_1     = -3.6051	tb1_1     = -0.1175	tb2_1     = -1.0881	tb3_1     =  1.7326	tb4_1     =  0.0338	
tb5_1     = -1.7326	tb6_1     = -0.0338	tb7_1     =  0.2564	tb8_1     = -2.2959	

CDMFT iteration 3, distance =  1.78e+02, diff param =  8.60e-04, diff hybrid =  2.92e-03
18 minimization steps, time(MIN)/time(ED)=0.00079
====================== CDMFT converged on the parameters ======================
sb1_1     = -0.0000	sb2_1     =  0.0000	sb3_1     =  0.0087	sb4_1     = -0.1870	sb5_1     =  0.0087	
sb6_1     = -0.1870	sb7_1     =  0.0000	sb8_1     =  0.0000	eb1_1     =  0.0072	eb2_1     = -3.1758	
eb3_1     = -3.9461	eb4_1     = -0.1267	eb5_1     = -3.9461	eb6_1     = -0.1267	eb7_1     =  0.1679	
eb8_1     = -3.6060	tb1_1     = -0.1177	tb2_1     = -1.0886	tb3_1     =  1.7327	tb4_1     =  0.0341	
tb5_1     = -1.7327	tb6_1     = -0.0341	tb7_1     =  0.2568	tb8_1     = -2.2960	
   <D> = 0.012281
   <e> = 1.253050
   <mu> = 1.609551
   <tpd> = -0.610300
   <tpp> = -0.200756
   <tppp> = 0.083282
************************* CDMFT completed successfully *************************

******************************* CDMFT procedure *******************************

minimization method =  CG
mixing state =  1
frequency grid type =  sharp
fictitious inverse temperature =  50
frequency cutoff =  2.0
--------------------------------------------------------------------------------

CDMFT iteration 1, distance =  1.75e+02, diff param =  3.61e-03
40 minimization steps, time(MIN)/time(ED)=0.00097
sb1_1     =  0.0000	sb2_1     =  0.0000	sb3_1     =  0.0092	sb4_1     = -0.1839	sb5_1     =  0.0092	
sb6_1     = -0.1839	sb7_1     = -0.0000	sb8_1     =  0.0000	eb1_1     =  0.0050	eb2_1     = -3.1825	
eb3_1     = -3.9524	eb4_1     = -0.1237	eb5_1     = -3.9525	eb6_1     = -0.1237	eb7_1     =  0.1653	
eb8_1     = -3.6138	tb1_1     = -0.1168	tb2_1     = -1.0870	tb3_1     =  1.7293	tb4_1     =  0.0372	
tb5_1     = -1.7293	tb6_1     = -0.0372	tb7_1     =  0.2534	tb8_1     = -2.2915	

CDMFT iteration 2, distance =  1.72e+02, diff param =  2.41e-03, diff hybrid =  1.43e-02
38 minimization steps, time(MIN)/time(ED)=0.00096
sb1_1     = -0.0000	sb2_1     = -0.0000	sb3_1     =  0.0095	sb4_1     = -0.1827	sb5_1     =  0.0095	
sb6_1     = -0.1827	sb7_1     = -0.0000	sb8_1     = -0.0000	eb1_1     =  0.0050	eb2_1     = -3.1904	
eb3_1     = -3.9575	eb4_1     = -0.1220	eb5_1     = -3.9575	eb6_1     = -0.1220	eb7_1     =  0.1637	
eb8_1     = -3.6132	tb1_1     = -0.1166	tb2_1     = -1.0885	tb3_1     =  1.7307	tb4_1     =  0.0390	
tb5_1     = -1.7307	tb6_1     = -0.0390	tb7_1     =  0.2520	tb8_1     = -2.2922	

CDMFT iteration 3, distance =  1.73e+02, diff param =  3.55e-04, diff hybrid =  4.03e-03
9 minimization steps, time(MIN)/time(ED)=0.00073
====================== CDMFT converged on the parameters ======================
sb1_1     = -0.0000	sb2_1     = -0.0000	sb3_1     =  0.0094	sb4_1     = -0.1832	sb5_1     =  0.0094	
sb6_1     = -0.1832	sb7_1     = -0.0000	sb8_1     =  0.0000	eb1_1     =  0.0059	eb2_1     = -3.1907	
eb3_1     = -3.9577	eb4_1     = -0.1220	eb5_1     = -3.9577	eb6_1     = -0.1220	eb7_1     =  0.1637	
eb8_1     = -3.6133	tb1_1     = -0.1167	tb2_1     = -1.0883	tb3_1     =  1.7304	tb4_1     =  0.0386	
tb5_1     = -1.7304	tb6_1     = -0.0386	tb7_1     =  0.2527	tb8_1     = -2.2918	
   <D> = 0.013248
   <e> = 1.254344
   <mu> = 1.611867
   <tpd> = -0.604900
   <tpp> = -0.197824
   <tppp> = 0.082033
************************* CDMFT completed successfully *************************

******************************* CDMFT procedure *******************************

minimization method =  CG
mixing state =  1
frequency grid type =  sharp
fictitious inverse temperature =  50
frequency cutoff =  2.0
--------------------------------------------------------------------------------

CDMFT iteration 1, distance =  1.70e+02, diff param =  4.54e-03
50 minimization steps, time(MIN)/time(ED)=0.00123
sb1_1     =  0.0000	sb2_1     =  0.0000	sb3_1     =  0.0099	sb4_1     = -0.1803	sb5_1     =  0.0099	
sb6_1     = -0.1803	sb7_1     = -0.0000	sb8_1     = -0.0000	eb1_1     =  0.0039	eb2_1     = -3.2028	
eb3_1     = -3.9674	eb4_1     = -0.1198	eb5_1     = -3.9674	eb6_1     = -0.1199	eb7_1     =  0.1616	
eb8_1     = -3.6209	tb1_1     = -0.1159	tb2_1     = -1.0876	tb3_1     =  1.7276	tb4_1     =  0.0413	
tb5_1     = -1.7276	tb6_1     = -0.0413	tb7_1     =  0.2493	tb8_1     = -2.2872	

CDMFT iteration 2, distance =  1.67e+02, diff param =  1.53e-03, diff hybrid =  1.42e-02
25 minimization steps, time(MIN)/time(ED)=0.00094
sb1_1     =  0.0000	sb2_1     = -0.0000	sb3_1     =  0.0103	sb4_1     = -0.1786	sb5_1     =  0.0103	
sb6_1     = -0.1786	sb7_1     =  0.0000	sb8_1     =  0.0000	eb1_1     =  0.0031	eb2_1     = -3.2060	
eb3_1     = -3.9696	eb4_1     = -0.1179	eb5_1     = -3.9696	eb6_1     = -0.1179	eb7_1     =  0.1599	
eb8_1     = -3.6210	tb1_1     = -0.1156	tb2_1     = -1.0886	tb3_1     =  1.7286	tb4_1     =  0.0437	
tb5_1     = -1.7286	tb6_1     = -0.0437	tb7_1     =  0.2475	tb8_1     = -2.2885	

CDMFT iteration 3, distance =  1.68e+02, diff param =  2.73e-03, diff hybrid =  5.44e-03
32 minimization steps, time(MIN)/time(ED)=0.00090
sb1_1     = -0.0000	sb2_1     = -0.0000	sb3_1     =  0.0101	sb4_1     = -0.1794	sb5_1     =  0.0101	
sb6_1     = -0.1794	sb7_1     =  0.0000	sb8_1     =  0.0000	eb1_1     =  0.0041	eb2_1     = -3.2173	
eb3_1     = -3.9742	eb4_1     = -0.1177	eb5_1     = -3.9742	eb6_1     = -0.1177	eb7_1     =  0.1593	
eb8_1     = -3.6199	tb1_1     = -0.1158	tb2_1     = -1.0900	tb3_1     =  1.7292	tb4_1     =  0.0430	
tb5_1     = -1.7292	tb6_1     = -0.0430	tb7_1     =  0.2482	tb8_1     = -2.2876	

CDMFT iteration 4, distance =  1.68e+02, diff param =  2.76e-04, diff hybrid =  3.14e-03
9 minimization steps, time(MIN)/time(ED)=0.00074
====================== CDMFT converged on the parameters ======================
sb1_1     =  0.0000	sb2_1     = -0.0000	sb3_1     =  0.0100	sb4_1     = -0.1796	sb5_1     =  0.0100	
sb6_1     = -0.1796	sb7_1     = -0.0000	sb8_1     = -0.0000	eb1_1     =  0.0044	eb2_1     = -3.2176	
eb3_1     = -3.9743	eb4_1     = -0.1183	eb5_1     = -3.9743	eb6_1     = -0.1183	eb7_1     =  0.1598	
eb8_1     = -3.6202	tb1_1     = -0.1158	tb2_1     = -1.0900	tb3_1     =  1.7292	tb4_1     =  0.0425	
tb5_1     = -1.7292	tb6_1     = -0.0426	tb7_1     =  0.2484	tb8_1     = -2.2877	
   <D> = 0.013867
   <e> = 1.255692
   <mu> = 1.614131
   <tpd> = -0.599407
   <tpp> = -0.194640
   <tppp> = 0.080720
************************* CDMFT completed successfully *************************

******************************* CDMFT procedure *******************************

minimization method =  CG
mixing state =  1
frequency grid type =  sharp
fictitious inverse temperature =  50
frequency cutoff =  2.0
--------------------------------------------------------------------------------

CDMFT iteration 1, distance =  1.65e+02, diff param =  3.15e-03
26 minimization steps, time(MIN)/time(ED)=0.00068
sb1_1     = -0.0000	sb2_1     =  0.0000	sb3_1     =  0.0105	sb4_1     = -0.1761	sb5_1     =  0.0105	
sb6_1     = -0.1761	sb7_1     =  0.0000	sb8_1     = -0.0000	eb1_1     =  0.0017	eb2_1     = -3.2202	
eb3_1     = -3.9778	eb4_1     = -0.1156	eb5_1     = -3.9777	eb6_1     = -0.1156	eb7_1     =  0.1575	
eb8_1     = -3.6282	tb1_1     = -0.1148	tb2_1     = -1.0879	tb3_1     =  1.7252	tb4_1     =  0.0457	
tb5_1     = -1.7252	tb6_1     = -0.0457	tb7_1     =  0.2446	tb8_1     = -2.2833	

CDMFT iteration 2, distance =  1.62e+02, diff param =  3.11e-03, diff hybrid =  1.43e-02
28 minimization steps, time(MIN)/time(ED)=0.00069
sb1_1     =  0.0000	sb2_1     = -0.0000	sb3_1     =  0.0108	sb4_1     = -0.1747	sb5_1     =  0.0108	
sb6_1     = -0.1747	sb7_1     = -0.0000	sb8_1     = -0.0000	eb1_1     =  0.0011	eb2_1     = -3.2293	
eb3_1     = -3.9852	eb4_1     = -0.1138	eb5_1     = -3.9852	eb6_1     = -0.1138	eb7_1     =  0.1552	
eb8_1     = -3.6271	tb1_1     = -0.1146	tb2_1     = -1.0896	tb3_1     =  1.7273	tb4_1     =  0.0475	
tb5_1     = -1.7273	tb6_1     = -0.0475	tb7_1     =  0.2427	tb8_1     = -2.2840	

CDMFT iteration 3, distance =  1.63e+02, diff param =  4.34e-04, diff hybrid =  4.62e-03
8 minimization steps, time(MIN)/time(ED)=0.00055
====================== CDMFT converged on the parameters ======================
sb1_1     =  0.0000	sb2_1     =  0.0000	sb3_1     =  0.0106	sb4_1     = -0.1753	sb5_1     =  0.0106	
sb6_1     = -0.1753	sb7_1     =  0.0000	sb8_1     =  0.0000	eb1_1     =  0.0021	eb2_1     = -3.2297	
eb3_1     = -3.9854	eb4_1     = -0.1134	eb5_1     = -3.9854	eb6_1     = -0.1134	eb7_1     =  0.1548	
eb8_1     = -3.6272	tb1_1     = -0.1148	tb2_1     = -1.0895	tb3_1     =  1.7269	tb4_1     =  0.0468	
tb5_1     = -1.7269	tb6_1     = -0.0467	tb7_1     =  0.2434	tb8_1     = -2.2836	
   <D> = 0.014330
   <e> = 1.257098
   <mu> = 1.616616
   <tpd> = -0.593576
   <tpp> = -0.191388
   <tppp> = 0.079363
************************* CDMFT completed successfully *************************

******************************* CDMFT procedure *******************************

minimization method =  CG
mixing state =  1
frequency grid type =  sharp
fictitious inverse temperature =  50
frequency cutoff =  2.0
--------------------------------------------------------------------------------

CDMFT iteration 1, distance =  1.60e+02, diff param =  4.78e-03
43 minimization steps, time(MIN)/time(ED)=0.00102
sb1_1     =  0.0000	sb2_1     = -0.0000	sb3_1     =  0.0109	sb4_1     = -0.1723	sb5_1     =  0.0109	
sb6_1     = -0.1723	sb7_1     = -0.0000	sb8_1     =  0.0000	eb1_1     = -0.0001	eb2_1     = -3.2428	
eb3_1     = -3.9954	eb4_1     = -0.1116	eb5_1     = -3.9955	eb6_1     = -0.1116	eb7_1     =  0.1530	
eb8_1     = -3.6364	tb1_1     = -0.1138	tb2_1     = -1.0888	tb3_1     =  1.7241	tb4_1     =  0.0490	
tb5_1     = -1.7241	tb6_1     = -0.0490	tb7_1     =  0.2401	tb8_1     = -2.2794	

CDMFT iteration 2, distance =  1.56e+02, diff param =  1.68e-03, diff hybrid =  1.44e-02
25 minimization steps, time(MIN)/time(ED)=0.00081
sb1_1     =  0.0000	sb2_1     = -0.0000	sb3_1     =  0.0112	sb4_1     = -0.1701	sb5_1     =  0.0112	
sb6_1     = -0.1701	sb7_1     =  0.0000	sb8_1     =  0.0000	eb1_1     = -0.0017	eb2_1     = -3.2458	
eb3_1     = -3.9972	eb4_1     = -0.1097	eb5_1     = -3.9973	eb6_1     = -0.1097	eb7_1     =  0.1508	
eb8_1     = -3.6343	tb1_1     = -0.1135	tb2_1     = -1.0897	tb3_1     =  1.7253	tb4_1     =  0.0514	
tb5_1     = -1.7253	tb6_1     = -0.0514	tb7_1     =  0.2375	tb8_1     = -2.2801	

CDMFT iteration 3, distance =  1.57e+02, diff param =  6.16e-04, diff hybrid =  6.67e-03
11 minimization steps, time(MIN)/time(ED)=0.00063
====================== CDMFT converged on the parameters ======================
sb1_1     =  0.0000	sb2_1     = -0.0000	sb3_1     =  0.0110	sb4_1     = -0.1709	sb5_1     =  0.0110	
sb6_1     = -0.1709	sb7_1     = -0.0000	sb8_1     =  0.0000	eb1_1     = -0.0003	eb2_1     = -3.2463	
eb3_1     = -3.9975	eb4_1     = -0.1088	eb5_1     = -3.9975	eb6_1     = -0.1088	eb7_1     =  0.1497	
eb8_1     = -3.6342	tb1_1     = -0.1138	tb2_1     = -1.0896	tb3_1     =  1.7249	tb4_1     =  0.0505	
tb5_1     = -1.7249	tb6_1     = -0.0505	tb7_1     =  0.2382	tb8_1     = -2.2796	
   <D> = 0.014597
   <e> = 1.258502
   <mu> = 1.619010
   <tpd> = -0.587819
   <tpp> = -0.188057
   <tppp> = 0.078001
************************* CDMFT completed successfully *************************

******************************* CDMFT procedure *******************************

minimization method =  CG
mixing state =  1
frequency grid type =  sharp
fictitious inverse temperature =  50
frequency cutoff =  2.0
--------------------------------------------------------------------------------

CDMFT iteration 1, distance =  1.55e+02, diff param =  7.14e-03
41 minimization steps, time(MIN)/time(ED)=0.00097
sb1_1     =  0.0000	sb2_1     = -0.0000	sb3_1     =  0.0112	sb4_1     = -0.1684	sb5_1     =  0.0112	
sb6_1     = -0.1684	sb7_1     =  0.0000	sb8_1     = -0.0000	eb1_1     = -0.0025	eb2_1     = -3.2698	
eb3_1     = -4.0138	eb4_1     = -0.1078	eb5_1     = -4.0138	eb6_1     = -0.1078	eb7_1     =  0.1481	
eb8_1     = -3.6428	tb1_1     = -0.1128	tb2_1     = -1.0903	tb3_1     =  1.7233	tb4_1     =  0.0523	
tb5_1     = -1.7233	tb6_1     = -0.0523	tb7_1     =  0.2350	tb8_1     = -2.2750	

CDMFT iteration 2, distance =  1.51e+02, diff param =  1.61e-03, diff hybrid =  1.46e-02
14 minimization steps, time(MIN)/time(ED)=0.00067
sb1_1     =  0.0000	sb2_1     = -0.0000	sb3_1     =  0.0116	sb4_1     = -0.1657	sb5_1     =  0.0116	
sb6_1     = -0.1657	sb7_1     =  0.0000	sb8_1     =  0.0000	eb1_1     = -0.0048	eb2_1     = -3.2703	
eb3_1     = -4.0139	eb4_1     = -0.1059	eb5_1     = -4.0139	eb6_1     = -0.1059	eb7_1     =  0.1459	
eb8_1     = -3.6421	tb1_1     = -0.1125	tb2_1     = -1.0909	tb3_1     =  1.7242	tb4_1     =  0.0551	
tb5_1     = -1.7242	tb6_1     = -0.0551	tb7_1     =  0.2319	tb8_1     = -2.2764	

CDMFT iteration 3, distance =  1.52e+02, diff param =  1.23e-03, diff hybrid =  8.02e-03
31 minimization steps, time(MIN)/time(ED)=0.00070
sb1_1     = -0.0000	sb2_1     = -0.0000	sb3_1     =  0.0114	sb4_1     = -0.1663	sb5_1     =  0.0114	
sb6_1     = -0.1663	sb7_1     = -0.0000	sb8_1     = -0.0000	eb1_1     = -0.0035	eb2_1     = -3.2732	
eb3_1     = -4.0137	eb4_1     = -0.1044	eb5_1     = -4.0137	eb6_1     = -0.1044	eb7_1     =  0.1440	
eb8_1     = -3.6386	tb1_1     = -0.1128	tb2_1     = -1.0911	tb3_1     =  1.7238	tb4_1     =  0.0542	
tb5_1     = -1.7238	tb6_1     = -0.0542	tb7_1     =  0.2324	tb8_1     = -2.2748	

CDMFT iteration 4, distance =  1.52e+02, diff param =  5.68e-04, diff hybrid =  3.95e-03
10 minimization steps, time(MIN)/time(ED)=0.00060
====================== CDMFT converged on the parameters ======================
sb1_1     = -0.0000	sb2_1     =  0.0000	sb3_1     =  0.0111	sb4_1     = -0.1669	sb5_1     =  0.0111	
sb6_1     = -0.1669	sb7_1     =  0.0000	sb8_1     =  0.0000	eb1_1     = -0.0025	eb2_1     = -3.2739	
eb3_1     = -4.0137	eb4_1     = -0.1050	eb5_1     = -4.0137	eb6_1     = -0.1050	eb7_1     =  0.1446	
eb8_1     = -3.6390	tb1_1     = -0.1127	tb2_1     = -1.0912	tb3_1     =  1.7237	tb4_1     =  0.0529	
tb5_1     = -1.7237	tb6_1     = -0.0529	tb7_1     =  0.2331	tb8_1     = -2.2747	
   <D> = 0.014719
   <e> = 1.259794
   <mu> = 1.621137
   <tpd> = -0.582548
   <tpp> = -0.184916
   <tppp> = 0.076742
************************* CDMFT completed successfully *************************

******************************* CDMFT procedure *******************************

minimization method =  CG
mixing state =  1
frequency grid type =  sharp
fictitious inverse temperature =  50
frequency cutoff =  2.0
--------------------------------------------------------------------------------

CDMFT iteration 1, distance =  1.49e+02, diff param =  4.80e-03
52 minimization steps, time(MIN)/time(ED)=0.00126
sb1_1     = -0.0000	sb2_1     =  0.0000	sb3_1     =  0.0115	sb4_1     = -0.1634	sb5_1     =  0.0115	
sb6_1     = -0.1634	sb7_1     = -0.0000	sb8_1     =  0.0000	eb1_1     = -0.0062	eb2_1     = -3.2875	
eb3_1     = -4.0233	eb4_1     = -0.1037	eb5_1     = -4.0233	eb6_1     = -0.1037	eb7_1     =  0.1429	
eb8_1     = -3.6470	tb1_1     = -0.1118	tb2_1     = -1.0904	tb3_1     =  1.7209	tb4_1     =  0.0560	
tb5_1     = -1.7209	tb6_1     = -0.0560	tb7_1     =  0.2289	tb8_1     = -2.2703	

CDMFT iteration 2, distance =  1.45e+02, diff param =  2.74e-03, diff hybrid =  1.48e-02
47 minimization steps, time(MIN)/time(ED)=0.00118
sb1_1     = -0.0000	sb2_1     = -0.0000	sb3_1     =  0.0117	sb4_1     = -0.1609	sb5_1     =  0.0117	
sb6_1     = -0.1609	sb7_1     = -0.0000	sb8_1     =  0.0000	eb1_1     = -0.0084	eb2_1     = -3.2964	
eb3_1     = -4.0272	eb4_1     = -0.1015	eb5_1     = -4.0272	eb6_1     = -0.1015	eb7_1     =  0.1395	
eb8_1     = -3.6452	tb1_1     = -0.1116	tb2_1     = -1.0922	tb3_1     =  1.7224	tb4_1     =  0.0584	
tb5_1     = -1.7224	tb6_1     = -0.0584	tb7_1     =  0.2258	tb8_1     = -2.2710	

CDMFT iteration 3, distance =  1.46e+02, diff param =  9.18e-04, diff hybrid =  7.13e-03
15 minimization steps, time(MIN)/time(ED)=0.00090
====================== CDMFT converged on the parameters ======================
sb1_1     = -0.0000	sb2_1     =  0.0000	sb3_1     =  0.0114	sb4_1     = -0.1616	sb5_1     =  0.0114	
sb6_1     = -0.1616	sb7_1     =  0.0000	sb8_1     =  0.0000	eb1_1     = -0.0066	eb2_1     = -3.2972	
eb3_1     = -4.0272	eb4_1     = -0.0997	eb5_1     = -4.0272	eb6_1     = -0.0997	eb7_1     =  0.1378	
eb8_1     = -3.6446	tb1_1     = -0.1118	tb2_1     = -1.0921	tb3_1     =  1.7220	tb4_1     =  0.0570	
tb5_1     = -1.7220	tb6_1     = -0.0570	tb7_1     =  0.2265	tb8_1     = -2.2703	
   <D> = 0.014734
   <e> = 1.261305
   <mu> = 1.623712
   <tpd> = -0.576345
   <tpp> = -0.181273
   <tppp> = 0.075276
************************* CDMFT completed successfully *************************

******************************* CDMFT procedure *******************************

minimization method =  CG
mixing state =  1
frequency grid type =  sharp
fictitious inverse temperature =  50
frequency cutoff =  2.0
--------------------------------------------------------------------------------

CDMFT iteration 1, distance =  1.44e+02, diff param =  5.25e-03
63 minimization steps, time(MIN)/time(ED)=0.00137
sb1_1     = -0.0000	sb2_1     = -0.0000	sb3_1     =  0.0115	sb4_1     = -0.1591	sb5_1     =  0.0115	
sb6_1     = -0.1591	sb7_1     = -0.0000	sb8_1     = -0.0000	eb1_1     = -0.0088	eb2_1     = -3.3155	
eb3_1     = -4.0368	eb4_1     = -0.0990	eb5_1     = -4.0368	eb6_1     = -0.0990	eb7_1     =  0.1361	
eb8_1     = -3.6526	tb1_1     = -0.1109	tb2_1     = -1.0919	tb3_1     =  1.7190	tb4_1     =  0.0581	
tb5_1     = -1.7190	tb6_1     = -0.0581	tb7_1     =  0.2232	tb8_1     = -2.2654	

CDMFT iteration 2, distance =  1.40e+02, diff param =  1.84e-03, diff hybrid =  1.48e-02
21 minimization steps, time(MIN)/time(ED)=0.00096
sb1_1     =  0.0000	sb2_1     = -0.0000	sb3_1     =  0.0117	sb4_1     = -0.1560	sb5_1     =  0.0117	
sb6_1     = -0.1560	sb7_1     =  0.0000	sb8_1     = -0.0000	eb1_1     = -0.0123	eb2_1     = -3.3170	
eb3_1     = -4.0377	eb4_1     = -0.0976	eb5_1     = -4.0377	eb6_1     = -0.0975	eb7_1     =  0.1337	
eb8_1     = -3.6515	tb1_1     = -0.1106	tb2_1     = -1.0925	tb3_1     =  1.7201	tb4_1     =  0.0610	
tb5_1     = -1.7201	tb6_1     = -0.0610	tb7_1     =  0.2196	tb8_1     = -2.2667	

CDMFT iteration 3, distance =  1.40e+02, diff param =  1.19e-03, diff hybrid =  9.20e-03
20 minimization steps, time(MIN)/time(ED)=0.00079
sb1_1     = -0.0000	sb2_1     =  0.0000	sb3_1     =  0.0116	sb4_1     = -0.1564	sb5_1     =  0.0116	
sb6_1     = -0.1564	sb7_1     = -0.0000	sb8_1     = -0.0000	eb1_1     = -0.0109	eb2_1     = -3.3188	
eb3_1     = -4.0380	eb4_1     = -0.0953	eb5_1     = -4.0380	eb6_1     = -0.0953	eb7_1     =  0.1309	
eb8_1     = -3.6488	tb1_1     = -0.1109	tb2_1     = -1.0927	tb3_1     =  1.7198	tb4_1     =  0.0602	
tb5_1     = -1.7198	tb6_1     = -0.0602	tb7_1     =  0.2197	tb8_1     = -2.2654	

CDMFT iteration 4, distance =  1.41e+02, diff param =  7.44e-04, diff hybrid =  4.32e-03
9 minimization steps, time(MIN)/time(ED)=0.00066
====================== CDMFT converged on the parameters ======================
sb1_1     =  0.0000	sb2_1     =  0.0000	sb3_1     =  0.0112	sb4_1     = -0.1573	sb5_1     =  0.0112	
sb6_1     = -0.1573	sb7_1     =  0.0000	sb8_1     = -0.0000	eb1_1     = -0.0093	eb2_1     = -3.3192	
eb3_1     = -4.0380	eb4_1     = -0.0955	eb5_1     = -4.0380	eb6_1     = -0.0955	eb7_1     =  0.1314	
eb8_1     = -3.6488	tb1_1     = -0.1107	tb2_1     = -1.0927	tb3_1     =  1.7197	tb4_1     =  0.0583	
tb5_1     = -1.7197	tb6_1     = -0.0583	tb7_1     =  0.2207	tb8_1     = -2.2651	
   <D> = 0.014632
   <e> = 1.262568
   <mu> = 1.625763
   <tpd> = -0.571192
   <tpp> = -0.178151
   <tppp> = 0.074045
************************* CDMFT completed successfully *************************

******************************* CDMFT procedure *******************************

minimization method =  CG
mixing state =  1
frequency grid type =  sharp
fictitious inverse temperature =  50
frequency cutoff =  2.0
--------------------------------------------------------------------------------

CDMFT iteration 1, distance =  1.38e+02, diff param =  6.24e-03
59 minimization steps, time(MIN)/time(ED)=0.00136
sb1_1     = -0.0000	sb2_1     =  0.0000	sb3_1     =  0.0116	sb4_1     = -0.1538	sb5_1     =  0.0116	
sb6_1     = -0.1538	sb7_1     = -0.0000	sb8_1     =  0.0000	eb1_1     = -0.0137	eb2_1     = -3.3396	
eb3_1     = -4.0509	eb4_1     = -0.0952	eb5_1     = -4.0509	eb6_1     = -0.0952	eb7_1     =  0.1300	
eb8_1     = -3.6578	tb1_1     = -0.1100	tb2_1     = -1.0928	tb3_1     =  1.7175	tb4_1     =  0.0613	
tb5_1     = -1.7175	tb6_1     = -0.0613	tb7_1     =  0.2164	tb8_1     = -2.2609	

CDMFT iteration 2, distance =  1.34e+02, diff param =  3.24e-03, diff hybrid =  1.52e-02
47 minimization steps, time(MIN)/time(ED)=0.00119
sb1_1     =  0.0000	sb2_1     = -0.0000	sb3_1     =  0.0118	sb4_1     = -0.1507	sb5_1     =  0.0118	
sb6_1     = -0.1507	sb7_1     =  0.0000	sb8_1     =  0.0000	eb1_1     = -0.0176	eb2_1     = -3.3499	
eb3_1     = -4.0548	eb4_1     = -0.0934	eb5_1     = -4.0547	eb6_1     = -0.0934	eb7_1     =  0.1258	
eb8_1     = -3.6540	tb1_1     = -0.1102	tb2_1     = -1.0945	tb3_1     =  1.7191	tb4_1     =  0.0643	
tb5_1     = -1.7191	tb6_1     = -0.0643	tb7_1     =  0.2123	tb8_1     = -2.2612	

CDMFT iteration 3, distance =  1.34e+02, diff param =  1.54e-03, diff hybrid =  9.07e-03
22 minimization steps, time(MIN)/time(ED)=0.00096
sb1_1     = -0.0000	sb2_1     =  0.0000	sb3_1     =  0.0114	sb4_1     = -0.1515	sb5_1     =  0.0114	
sb6_1     = -0.1515	sb7_1     = -0.0000	sb8_1     = -0.0000	eb1_1     = -0.0151	eb2_1     = -3.3517	
eb3_1     = -4.0540	eb4_1     = -0.0905	eb5_1     = -4.0540	eb6_1     = -0.0905	eb7_1     =  0.1224	
eb8_1     = -3.6512	tb1_1     = -0.1102	tb2_1     = -1.0948	tb3_1     =  1.7186	tb4_1     =  0.0625	
tb5_1     = -1.7186	tb6_1     = -0.0625	tb7_1     =  0.2126	tb8_1     = -2.2597	

CDMFT iteration 4, distance =  1.35e+02, diff param =  1.23e-03, diff hybrid =  6.11e-03
24 minimization steps, time(MIN)/time(ED)=0.00086
sb1_1     =  0.0001	sb2_1     = -0.0000	sb3_1     =  0.0111	sb4_1     = -0.1524	sb5_1     =  0.0111	
sb6_1     = -0.1524	sb7_1     =  0.0000	sb8_1     =  0.0000	eb1_1     = -0.0133	eb2_1     = -3.3544	
eb3_1     = -4.0529	eb4_1     = -0.0909	eb5_1     = -4.0528	eb6_1     = -0.0909	eb7_1     =  0.1238	
eb8_1     = -3.6541	tb1_1     = -0.1099	tb2_1     = -1.0952	tb3_1     =  1.7183	tb4_1     =  0.0605	
tb5_1     = -1.7183	tb6_1     = -0.0605	tb7_1     =  0.2139	tb8_1     = -2.2603	

CDMFT iteration 5, distance =  1.35e+02, diff param =  6.20e-04, diff hybrid =  3.62e-03
10 minimization steps, time(MIN)/time(ED)=0.00075
====================== CDMFT converged on the parameters ======================
sb1_1     =  0.0000	sb2_1     = -0.0000	sb3_1     =  0.0114	sb4_1     = -0.1519	sb5_1     =  0.0114	
sb6_1     = -0.1519	sb7_1     = -0.0000	sb8_1     = -0.0000	eb1_1     = -0.0146	eb2_1     = -3.3546	
eb3_1     = -4.0527	eb4_1     = -0.0920	eb5_1     = -4.0527	eb6_1     = -0.0920	eb7_1     =  0.1251	
eb8_1     = -3.6540	tb1_1     = -0.1099	tb2_1     = -1.0953	tb3_1     =  1.7186	tb4_1     =  0.0615	
tb5_1     = -1.7186	tb6_1     = -0.0615	tb7_1     =  0.2135	tb8_1     = -2.2607	
   <D> = 0.014301
   <e> = 1.264135
   <mu> = 1.628148
   <tpd> = -0.565009
   <tpp> = -0.174108
   <tppp> = 0.072490
************************* CDMFT completed successfully *************************

******************************* CDMFT procedure *******************************

minimization method =  CG
mixing state =  1
frequency grid type =  sharp
fictitious inverse temperature =  50
frequency cutoff =  2.0
--------------------------------------------------------------------------------

CDMFT iteration 1, distance =  1.32e+02, diff param =  4.03e-03
46 minimization steps, time(MIN)/time(ED)=0.00104
sb1_1     =  0.0001	sb2_1     = -0.0000	sb3_1     =  0.0116	sb4_1     = -0.1482	sb5_1     =  0.0116	
sb6_1     = -0.1482	sb7_1     =  0.0000	sb8_1     = -0.0000	eb1_1     = -0.0194	eb2_1     = -3.3632	
eb3_1     = -4.0602	eb4_1     = -0.0908	eb5_1     = -4.0602	eb6_1     = -0.0908	eb7_1     =  0.1217	
eb8_1     = -3.6607	tb1_1     = -0.1095	tb2_1     = -1.0934	tb3_1     =  1.7150	tb4_1     =  0.0645	
tb5_1     = -1.7150	tb6_1     = -0.0645	tb7_1     =  0.2088	tb8_1     = -2.2555	

CDMFT iteration 2, distance =  1.29e+02, diff param =  4.04e-03, diff hybrid =  1.54e-02
48 minimization steps, time(MIN)/time(ED)=0.00106
sb1_1     = -0.0000	sb2_1     =  0.0000	sb3_1     =  0.0116	sb4_1     = -0.1457	sb5_1     =  0.0116	
sb6_1     = -0.1457	sb7_1     =  0.0000	sb8_1     = -0.0000	eb1_1     = -0.0224	eb2_1     = -3.3776	
eb3_1     = -4.0664	eb4_1     = -0.0884	eb5_1     = -4.0667	eb6_1     = -0.0885	eb7_1     =  0.1166	
eb8_1     = -3.6573	tb1_1     = -0.1097	tb2_1     = -1.0956	tb3_1     =  1.7169	tb4_1     =  0.0662	
tb5_1     = -1.7169	tb6_1     = -0.0662	tb7_1     =  0.2049	tb8_1     = -2.2556	

CDMFT iteration 3, distance =  1.29e+02, diff param =  2.21e-03, diff hybrid =  7.08e-03
38 minimization steps, time(MIN)/time(ED)=0.00100
sb1_1     =  0.0000	sb2_1     =  0.0000	sb3_1     =  0.0112	sb4_1     = -0.1463	sb5_1     =  0.0111	
sb6_1     = -0.1463	sb7_1     =  0.0000	sb8_1     = -0.0000	eb1_1     = -0.0199	eb2_1     = -3.3847	
eb3_1     = -4.0645	eb4_1     = -0.0858	eb5_1     = -4.0645	eb6_1     = -0.0857	eb7_1     =  0.1134	
eb8_1     = -3.6533	tb1_1     = -0.1096	tb2_1     = -1.0967	tb3_1     =  1.7163	tb4_1     =  0.0643	
tb5_1     = -1.7163	tb6_1     = -0.0642	tb7_1     =  0.2051	tb8_1     = -2.2539	

CDMFT iteration 4, distance =  1.30e+02, diff param =  1.01e-03, diff hybrid =  5.57e-03
16 minimization steps, time(MIN)/time(ED)=0.00085
sb1_1     = -0.0001	sb2_1     =  0.0000	sb3_1     =  0.0109	sb4_1     = -0.1471	sb5_1     =  0.0110	
sb6_1     = -0.1471	sb7_1     = -0.0000	sb8_1     =  0.0000	eb1_1     = -0.0181	eb2_1     = -3.3859	
eb3_1     = -4.0642	eb4_1     = -0.0861	eb5_1     = -4.0642	eb6_1     = -0.0862	eb7_1     =  0.1151	
eb8_1     = -3.6561	tb1_1     = -0.1092	tb2_1     = -1.0970	tb3_1     =  1.7162	tb4_1     =  0.0626	
tb5_1     = -1.7162	tb6_1     = -0.0626	tb7_1     =  0.2063	tb8_1     = -2.2545	

CDMFT iteration 5, distance =  1.29e+02, diff param =  6.49e-04, diff hybrid =  3.14e-03
12 minimization steps, time(MIN)/time(ED)=0.00074
====================== CDMFT converged on the parameters ======================
sb1_1     = -0.0000	sb2_1     =  0.0000	sb3_1     =  0.0112	sb4_1     = -0.1465	sb5_1     =  0.0112	
sb6_1     = -0.1465	sb7_1     =  0.0001	sb8_1     = -0.0000	eb1_1     = -0.0196	eb2_1     = -3.3862	
eb3_1     = -4.0641	eb4_1     = -0.0874	eb5_1     = -4.0641	eb6_1     = -0.0872	eb7_1     =  0.1164	
eb8_1     = -3.6563	tb1_1     = -0.1093	tb2_1     = -1.0971	tb3_1     =  1.7165	tb4_1     =  0.0637	
tb5_1     = -1.7165	tb6_1     = -0.0636	tb7_1     =  0.2059	tb8_1     = -2.2550	
   <D> = 0.014033
   <e> = 1.265542
   <mu> = 1.630454
   <tpd> = -0.559252
   <tpp> = -0.170588
   <tppp> = 0.071124
************************* CDMFT completed successfully *************************

******************************* CDMFT procedure *******************************
slurmstepd: error: *** JOB 4733199 ON nc30645 CANCELLED AT 2022-04-18T00:49:17 ***
