model	D	U	e	eb1_1	eb2_1	eb3_1	eb4_1	eb5_1	eb6_1	eb7_1	eb8_1	mu	sb1_1	sb2_1	sb3_1	sb4_1	sb5_1	sb6_1	sb7_1	sb8_1	tb1_1	tb2_1	tb3_1	tb4_1	tb5_1	tb6_1	tb7_1	tb8_1	tpd	tpp	tppp	ave_D_1	ave_U_1	ave_eb1_1	ave_eb2_1	ave_eb3_1	ave_eb4_1	ave_eb5_1	ave_eb6_1	ave_eb7_1	ave_eb8_1	ave_mu_1	ave_sb1_1	ave_sb2_1	ave_sb3_1	ave_sb4_1	ave_sb5_1	ave_sb6_1	ave_sb7_1	ave_sb8_1	ave_tb1_1	ave_tb2_1	ave_tb3_1	ave_tb4_1	ave_tb5_1	ave_tb6_1	ave_tb7_1	ave_tb8_1	var_D_1	var_U_1	var_eb1_1	var_eb2_1	var_eb3_1	var_eb4_1	var_eb5_1	var_eb6_1	var_eb7_1	var_eb8_1	var_mu_1	var_sb1_1	var_sb2_1	var_sb3_1	var_sb4_1	var_sb5_1	var_sb6_1	var_sb7_1	var_sb8_1	var_tb1_1	var_tb2_1	var_tb3_1	var_tb4_1	var_tb5_1	var_tb6_1	var_tb7_1	var_tb8_1	E0_1	sector_1	E0_2	sector_2	githash	distance	diff_param	diff_hybrid	time
2x2_2C_8b_C2v_L	0.1	14	1.27	0.11976436	-9.0101818	-9.9494509	0.13712707	-9.9495035	0.13455345	0.35384797	-10.851022	13.5	-0.00015059618	-0.00049238016	0.0037969646	-0.0074229281	0.0036810711	-0.0079021589	-0.00023029029	6.0361576e-05	-0.0211317	-0.79805109	1.2021982	0.025821746	-1.2021914	-0.025938121	0.056539515	-1.6072307	1.29	0.638	0.14	-0.15218227	0.055131943	6.908862e-05	1.9789221	1.9549874	0.00055573167	1.9549753	0.00060072234	0.00010989119	1.923084	1.054694	0.00076136013	0.00037113751	-0.1335084	0.079218689	-0.13350535	0.082820095	0.001434322	-0.0002612122	0.020837854	0.54082364	-0.82244293	-0.032487952	0.82263013	0.033166247	-0.034874423	1.1280004	0.68228131	0.014762039	7.0307088e-05	0.021008277	0.044542728	0.00057925716	0.044554313	0.00062739548	0.00011087054	0.075071588	0.014723864	3.470052	4.6844671	4.5600173	3.7557231	4.5594212	3.7561865	4.1366201	4.451608	4.531	3.5024916	3.7803707	4.248376	3.780959	4.2482435	3.8644113	4.0614351	-135.75533	R0:S0:1	-97.84	uncorrelated	51514b8	 7.05e+01	 0.00e+00	 1.00e+06	2022-04-11@05:49
2x2_2C_8b_C2v_L	0.1	14	1.27	0.11976436	-9.0101818	-9.9494509	0.13712707	-9.9495035	0.13455345	0.35384797	-10.851022	13.52	-0.00015059618	-0.00049238016	0.0037969646	-0.0074229281	0.0036810711	-0.0079021589	-0.00023029029	6.0361576e-05	-0.0211317	-0.79805109	1.2021982	0.025821746	-1.2021914	-0.025938121	0.056539515	-1.6072307	1.29	0.638	0.14	-0.15489882	0.055602236	7.2621278e-05	1.9788599	1.9548709	0.00058313885	1.9548586	0.00063023038	0.00011069553	1.9228169	1.0551633	0.00077060777	0.00037524711	-0.13612428	0.081141078	-0.13612309	0.084812687	0.0014553681	-0.00026622029	0.021009057	0.54143624	-0.8231755	-0.033099872	0.82336588	0.033802133	-0.034855285	1.1300774	0.68118384	0.014936871	7.3931038e-05	0.021070435	0.044657884	0.00060789971	0.044669689	0.00065828933	0.000111713	0.075325207	0.014898527	3.4676779	4.6872934	4.5631067	3.7525739	4.5625011	3.7530395	4.1374966	4.4528664	4.5334416	3.5004077	3.7778903	4.2517383	3.7784866	4.2516198	3.8635475	4.0618644	-135.83972	R0:S0:1	-98	uncorrelated	51514b8	 7.37e+01	 5.17e-04	 1.00e+06	2022-04-11@05:53
2x2_2C_8b_C2v_L	0.1	14	1.27	0.11998998	-9.0102331	-9.9495107	0.13755584	-9.9495652	0.1350289	0.35469529	-10.850733	13.54	-0.0002361851	0.00027689559	0.0038541589	-0.0076138808	0.0038455688	-0.0078344706	-0.00017856766	6.7723921e-05	-0.021920471	-0.79652994	1.1998244	0.027060356	-1.1998135	-0.026805228	0.057633547	-1.604782	1.29	0.638	0.14	-0.15821679	0.056009012	8.4426107e-05	1.9788619	1.9549066	0.00066894607	1.9549141	0.00068736316	0.00011637107	1.9227606	1.0555693	0.00131551	-0.00021644569	-0.13910311	0.086423836	-0.13906937	0.087838733	0.0012748032	0.00013035546	0.022031663	0.54130711	-0.82256839	-0.035333413	0.8224713	0.035397865	-0.035516146	1.1306051	0.67996015	0.015114103	8.6083737e-05	0.021068634	0.044623967	0.00069980945	0.044616772	0.00071961332	0.00011751915	0.07537904	0.015076378	3.4664121	4.6886105	4.5645628	3.7495504	4.5647625	3.7491925	4.1383788	4.4526741	4.5348973	3.499271	3.7757879	4.255383	3.7755534	4.2558837	3.8627265	4.0626463	-135.9166	R0:S0:1	-98.16	uncorrelated	51514b8	 7.73e+01	 1.73e-04	 1.00e+06	2022-04-11@05:58
2x2_2C_8b_C2v_L	0.1	14	1.27	0.1203158	-9.0102482	-9.9493911	0.13818831	-9.9494532	0.13569398	0.355844	-10.850282	13.56	-0.00010433297	8.4670477e-05	0.0037504481	-0.0079713271	0.0037293557	-0.0079461652	-0.0001553525	-3.5764408e-05	-0.022682673	-0.79565293	1.2000453	0.027756399	-1.199892	-0.027322136	0.058507363	-1.6025587	1.29	0.638	0.14	-0.16114244	0.056484022	9.6854809e-05	1.9788307	1.9547776	0.00076213566	1.954802	0.0007540719	0.0001212283	1.9226889	1.0560442	0.00062225678	-0.00015533238	-0.1419099	0.092088652	-0.14184919	0.09156396	0.0011301599	0.00017887423	0.023039062	0.54160526	-0.82337919	-0.037261729	0.82308963	0.03687152	-0.036044717	1.1312172	0.67868725	0.01529815	9.8897451e-05	0.021099887	0.044751415	0.00079862781	0.044727792	0.00079024676	0.00012249018	0.0754475	0.015260964	3.4651572	4.6901501	4.5679231	3.7458439	4.5683462	3.7452516	4.1390514	4.4527637	4.5363496	3.4981796	3.7730316	4.2597783	3.7725064	4.2603203	3.8621059	4.0632286	-135.99714	R0:S0:1	-98.32	uncorrelated	51514b8	 8.10e+01	 3.40e-04	 1.00e+06	2022-04-11@06:02
2x2_2C_8b_C2v_L	0.1	14	1.27	0.1211397	-9.0102154	-9.9493114	0.13977555	-9.9493564	0.13729493	0.35853709	-10.848943	13.58	0.00013504557	-0.00038331121	0.0037126914	-0.0084710394	0.0038275115	-0.008269029	-4.5541218e-05	4.0843596e-05	-0.02371272	-0.7952075	1.1973759	0.028986226	-1.1974271	-0.028678936	0.058650796	-1.6020418	1.29	0.638	0.14	-0.16484872	0.057039353	0.0001166901	1.9787932	1.9548652	0.00091018232	1.9548482	0.00088793278	0.00012343032	1.9224353	1.0565972	-0.00079165325	0.00032275882	-0.14509632	0.10011263	-0.14520037	0.098622307	0.00021405432	-0.00025311156	0.024467175	0.54185479	-0.82211154	-0.040249304	0.82232462	0.039773601	-0.036113287	1.1332674	0.67723098	0.015523663	0.00011935377	0.021137518	0.044667515	0.00095611736	0.044683947	0.00093327425	0.00012474361	0.0756882	0.01548676	3.462285	4.6933564	4.5705428	3.7410166	4.5701487	3.7415618	4.1405075	4.4534732	4.5395304	3.4955771	3.7694659	4.2656958	3.7699293	4.2649845	3.8606803	4.0641886	-136.07382	R0:S0:1	-98.48	uncorrelated	51514b8	 8.52e+01	 2.98e-04	 1.00e+06	2022-04-11@06:06
2x2_2C_8b_C2v_L	0.1	14	1.27	0.12228313	-9.0101711	-9.9489631	0.14197183	-9.9490034	0.13950346	0.36208292	-10.84727	13.6	0.0002661978	-0.00041429361	0.0035692713	-0.0092062767	0.0036269507	-0.0088125477	4.7427838e-05	-1.8592674e-05	-0.024731991	-0.79467652	1.1979871	0.029342162	-1.1979679	-0.029299711	0.059424148	-1.6000257	1.29	0.638	0.14	-0.16799397	0.057617798	0.00013768446	1.9787473	1.9547176	0.0010653868	1.9547114	0.0010265256	0.00012831688	1.9223256	1.0571754	-0.0015573385	0.0003221572	-0.14814946	0.10847821	-0.1482151	0.10592299	-0.0004468033	-0.00022261147	0.025873162	0.54229938	-0.82300981	-0.042667243	0.82309497	0.042198911	-0.036578052	1.1341856	0.67574309	0.015740541	0.00014105222	0.021183354	0.044813439	0.0011183063	0.044819369	0.0010790717	0.00012972784	0.075792708	0.015704191	3.4605597	4.6954971	4.5746103	3.7366104	4.5744024	3.7368683	4.1413977	4.4536615	4.5415744	3.4940445	3.7660875	4.2712677	3.7663295	4.2707114	3.8598435	4.0649011	-136.15224	R0:S0:1	-98.64	uncorrelated	51514b8	 8.96e+01	 8.36e-02	 1.00e+06	2022-04-11@06:11
2x2_2C_8b_C2v_L	0.1	14	1.27	0.22883184	-9.005587	-9.9264644	0.32675448	-9.926574	0.32751168	0.62313083	-10.716188	13.6	-7.3097146e-05	-0.00024469038	0.0021375413	-0.012712131	0.0026290459	-0.010943097	-0.00015341223	8.2174626e-05	-0.031438516	-0.79547917	1.1976739	0.041054677	-1.1978546	-0.041407837	0.075215443	-1.5943207	1.29	0.638	0.14	-0.16861836	0.058175599	0.00015144692	1.9787162	1.9545877	0.0012741048	1.9545767	0.0010933093	0.0001768506	1.9211315	1.0577089	0.00041229203	0.00010195787	-0.14851086	0.12570453	-0.14873196	0.11519017	0.00086446302	-4.5734302e-05	0.031730085	0.5422947	-0.8239933	-0.053254496	0.82403831	0.051599256	-0.045003232	1.1428418	0.67520127	0.015883157	0.00015379714	0.021214719	0.044941472	0.0012995368	0.044952409	0.0011156745	0.00017776923	0.076924709	0.015852659	3.4562224	4.7003814	4.5767536	3.7369945	4.5773401	3.7366847	4.1419862	4.462162	4.5461213	3.4896518	3.7647975	4.2721634	3.7644267	4.2711194	3.8597485	4.0631599	-135.79883	R0:S0:1	-98.64	uncorrelated	51514b8	 9.05e+01	 0.00e+00	 2.95e-03	2022-04-11@06:14
2x2_2C_8b_C2v_L	0.1	14	1.27	0.44330972	-8.9963549	-9.8810823	0.69897368	-9.8813197	0.70619105	1.149529	-10.451954	13.62	-0.00052647714	-0.00022067285	-0.00089145677	-0.020593823	0.00043797797	-0.015866618	-0.00043413998	0.0002485819	-0.046082724	-0.79665853	1.1971647	0.06503915	-1.1977434	-0.066552613	0.10743686	-1.5811302	1.29	0.638	0.14	-0.17380727	0.059981013	0.00024599475	1.9786041	1.9542169	0.0019297773	1.9541944	0.0014927754	0.00029977821	1.9184695	1.0594504	0.0025263576	-0.00011793878	-0.15298373	0.15671731	-0.15353421	0.13499796	0.0019452049	0.0001782985	0.044923224	0.542708	-0.82642095	-0.075113461	0.82640575	0.072096725	-0.061089325	1.1620249	0.67230103	0.01643512	0.00024839964	0.021327313	0.045308431	0.0019492231	0.045331048	0.0015087566	0.00030047264	0.079445007	0.016421091	3.4451799	4.7130267	4.5852568	3.7301539	4.5873782	3.7284631	4.1441736	4.4803517	4.5583808	3.4786866	3.7583514	4.2830419	3.7567979	4.2815745	3.8586583	4.0602485	-135.17083	R0:S0:1	-98.8	uncorrelated	51514b8	 9.74e+01	 3.74e-03	 1.00e+06	2022-04-11@06:17
2x2_2C_8b_C2v_L	0.1	14	1.27	0.44353837	-8.9964402	-9.881376	0.69919253	-9.8816172	0.70641014	1.1500436	-10.452131	13.62	-0.00029316775	-8.5655303e-05	0.00020490185	-0.018027295	0.00091120307	-0.01555312	-0.00037722133	0.00011998742	-0.04154566	-0.7966829	1.1964461	0.05551878	-1.1969	-0.056260502	0.097527786	-1.5779648	1.29	0.638	0.14	-0.17237655	0.059523582	0.00018954629	1.9785802	1.9542397	0.0014070793	1.9542099	0.0012007165	0.00024558237	1.9188351	1.0590221	0.0013886806	-6.5854705e-05	-0.15189513	0.13468278	-0.15221779	0.12307441	0.001647987	9.5565123e-05	0.040089788	0.54331229	-0.82647788	-0.063747136	0.82667728	0.062079011	-0.055454599	1.1591607	0.67325686	0.016293543	0.00019105832	0.021350595	0.0452851	0.0014174969	0.045314468	0.0012098693	0.00024604551	0.079100114	0.016272836	3.4482587	4.7097926	4.5836197	3.7328798	4.5844657	3.732372	4.1416839	4.4795961	4.5544935	3.4819217	3.7601904	4.276797	3.7597122	4.2757986	3.8606321	4.0591022	-135.16525	R0:S0:1	-98.8	uncorrelated	51514b8	 9.59e+01	 0.00e+00	 2.60e-03	2022-04-11@06:19
2x2_2C_8b_C2v_L	0.1	14	1.27	0.76534213	-8.9827725	-9.8139732	1.2572462	-9.8144164	1.2741454	1.9394792	-10.056693	13.64	-0.00058064685	0.00030355635	-0.0021057471	-0.024465932	-0.001403538	-0.022156478	-0.0007222886	0.00012084161	-0.053989693	-0.79880312	1.1946295	0.072078712	-1.1954244	-0.072982327	0.12576149	-1.5525856	1.29	0.638	0.14	-0.17573128	0.061135014	0.00023910684	1.9783895	1.9537453	0.0014003986	1.9536889	0.0012516207	0.0003349861	1.9153826	1.0605887	0.0022936922	-0.00039319084	-0.15501186	0.13366628	-0.15534919	0.12514017	0.0023311649	0.0003689426	0.049484593	0.5448055	-0.83026448	-0.072563637	0.83072414	0.071464918	-0.066906531	1.1830218	0.67144332	0.016755284	0.00024009433	0.021541112	0.045772393	0.0014048848	0.045827594	0.0012557205	0.00033522213	0.082363544	0.01674784	3.4377266	4.7220847	4.5914964	3.7284507	4.5922987	3.7281102	4.1393794	4.5069599	4.5654006	3.4718564	3.7558083	4.2807775	3.7555022	4.2800604	3.8635935	4.0515472	-134.17431	R0:S0:1	-98.96	uncorrelated	51514b8	 1.02e+02	 1.69e-03	 1.00e+06	2022-04-11@06:22
2x2_2C_8b_C2v_L	0.1	14	1.27	0.76523783	-8.9830225	-9.8144427	1.2569674	-9.8149067	1.273863	1.9395005	-10.057277	13.64	-0.00017802999	-8.8894562e-05	-0.0015720059	-0.023650838	-0.0011297946	-0.02203769	-0.00060970146	0.00019781858	-0.050856389	-0.79744093	1.1934312	0.070401156	-1.1937916	-0.071211696	0.11982389	-1.5495827	1.29	0.638	0.14	-0.17577154	0.060965802	0.00021095432	1.978446	1.9538252	0.0013184504	1.9537987	0.001214904	0.00030397721	1.9157088	1.0604322	0.0006884482	1.515723e-05	-0.15506515	0.12967376	-0.15528824	0.1235776	0.0018580772	-4.1605118e-05	0.04653933	0.54425763	-0.82960575	-0.070649334	0.82982543	0.069954523	-0.063753879	1.1806887	0.67156687	0.016718722	0.00021172882	0.02148483	0.045693916	0.0013225014	0.045719864	0.001218684	0.00030417201	0.082056307	0.016708762	3.4394067	4.7198354	4.590556	3.728914	4.5909102	3.7288043	4.1386329	4.5051517	4.563357	3.4735547	3.7561677	4.2797674	3.756057	4.2791378	3.864067	4.0516794	-134.17038	R0:S0:1	-98.96	uncorrelated	51514b8	 1.01e+02	 0.00e+00	 1.01e-03	2022-04-11@06:24
2x2_2C_8b_C2v_L	0.1	14	1.27	1.1939302	-8.9653337	-9.7256644	2.0000791	-9.7264426	2.0298702	2.9915015	-9.5316266	13.66	0.00027231615	-0.00025440816	-0.0031931818	-0.029582758	-0.003493947	-0.030396806	-0.00085085261	0.0003156681	-0.059370702	-0.79775325	1.1886294	0.085701805	-1.1885293	-0.086261419	0.14210374	-1.5091744	1.29	0.638	0.14	-0.17888237	0.062644165	0.00022246754	1.9783249	1.9533421	0.0011724258	1.9533538	0.0011923272	0.00035025679	1.9114816	1.0620843	-0.00088449409	0.00027796523	-0.15811345	0.11982984	-0.15801391	0.12098532	0.0017953287	-0.0003845173	0.051425259	0.54488123	-0.83335931	-0.07553973	0.83328818	0.075967811	-0.069982221	1.2089683	0.66999761	0.017191969	0.00022284182	0.021606047	0.046169786	0.0011740278	0.046158314	0.0011938963	0.00035032934	0.086041943	0.017192578	3.428363	4.7317337	4.5977682	3.7249312	4.5974	3.725255	4.1330173	4.5404451	4.574229	3.463281	3.7524363	4.2825144	3.7526927	4.2823206	3.8699231	4.0405686	-132.81465	R0:S0:1	-99.12	uncorrelated	51514b8	 1.06e+02	 3.75e-03	 1.00e+06	2022-04-11@06:27
2x2_2C_8b_C2v_L	0.1	14	1.27	1.1933259	-8.9656944	-9.7265182	1.9995849	-9.7272997	2.0293821	2.991717	-9.5342251	13.66	0.00017449114	-0.00020500894	-0.0027011978	-0.029561599	-0.0028880001	-0.030297124	-0.00077491506	9.3265007e-05	-0.063064688	-0.79899297	1.1884819	0.085600662	-1.1885581	-0.086211773	0.12497488	-1.504752	1.29	0.638	0.14	-0.17912163	0.062547096	0.00025084174	1.9782375	1.9533613	0.0011712025	1.9533584	0.0011881917	0.00027135914	1.9120447	1.0620046	-0.00055104715	0.0001530085	-0.15850622	0.11977804	-0.15845926	0.12074739	0.001676518	-0.00013632131	0.054554972	0.54625231	-0.83317219	-0.075493489	0.83323498	0.075912905	-0.061603861	1.2049413	0.66988252	0.017175762	0.00025131984	0.021692605	0.046150746	0.0011727987	0.046153592	0.0011897556	0.00027140284	0.085513712	0.017173842	3.4317372	4.7293099	4.597726	3.7247199	4.5974332	3.7250673	4.1309612	4.5378956	4.5711899	3.4663439	3.7522221	4.2827145	3.7525004	4.2824758	3.871319	4.0404303	-132.81813	R0:S0:1	-99.12	uncorrelated	51514b8	 1.06e+02	 0.00e+00	 1.03e-03	2022-04-11@06:29
2x2_2C_8b_C2v_L	0.1	14	1.27	1.7278025	-8.9444562	-9.6176025	2.927045	-9.6187962	2.9729674	4.3066929	-8.8829758	13.68	0.00076439561	-0.00043399843	-0.003182674	-0.035759579	-0.0043634135	-0.040331424	-0.00087286214	-0.00019367329	-0.078170557	-0.80133902	1.1815981	0.1011173	-1.1811995	-0.10126073	0.11298076	-1.4434728	1.29	0.638	0.14	-0.18261915	0.064387571	0.00030955343	1.9779516	1.9528435	0.001035347	1.9528936	0.0011511088	0.00018199061	1.9075748	1.0638552	-0.001923418	0.00028265416	-0.16242894	0.10933779	-0.16192223	0.11697877	0.0013953095	-9.8315912e-05	0.063823435	0.54923512	-0.83717857	-0.079026667	0.83678498	0.080392866	-0.051258508	1.2334416	0.66807758	0.017695196	0.00030988277	0.021977129	0.046660067	0.0010359646	0.046611328	0.0011516933	0.0001819942	0.089719916	0.01769957	3.4245536	4.738973	4.6053214	3.720116	4.6045515	3.7205829	4.118767	4.5797396	4.5786787	3.4596019	3.7481155	4.2862646	3.7484847	4.2865715	3.8826887	4.0248539	-131.10903	R0:S0:1	-99.28	uncorrelated	51514b8	 1.11e+02	 5.80e-03	 1.00e+06	2022-04-11@06:31
2x2_2C_8b_C2v_L	0.1	14	1.27	1.7274138	-8.9458656	-9.6190035	2.9266162	-9.6201786	2.9725859	4.306968	-8.8896292	13.68	0.00020189908	1.2670943e-05	-0.0036359753	-0.035913873	-0.0044115799	-0.039792612	-0.00071546307	9.1878979e-05	-0.064801066	-0.79554432	1.1817313	0.10101036	-1.181386	-0.10140843	0.089703505	-1.4440754	1.29	0.638	0.14	-0.18223932	0.064265237	0.00021240883	1.9782969	1.9528472	0.0010373281	1.9528939	0.0011342397	0.00011440305	1.9075537	1.0637515	-0.00051423703	3.6996816e-05	-0.16190026	0.1095284	-0.16151641	0.11588782	0.0011585976	-9.5966573e-05	0.052926471	0.54478931	-0.83722286	-0.078942983	0.83682577	0.080204002	-0.040635869	1.2340658	0.66827936	0.017660509	0.00021256391	0.021634366	0.046656529	0.0010379452	0.046611062	0.0011348293	0.00011440446	0.089735942	0.017657048	3.4217739	4.7384246	4.6048629	3.7207334	4.6043994	3.720909	4.1209361	4.5775029	4.5804437	3.4572571	3.7486663	4.2856679	3.7487787	4.2861392	3.879979	4.0266443	-131.12581	R0:S0:1	-99.28	uncorrelated	51514b8	 1.11e+02	 0.00e+00	 1.80e-03	2022-04-11@06:33
2x2_2C_8b_C2v_L	0.1	14	1.27	2.3675016	-8.9235359	-9.4918988	4.0380614	-9.4935432	4.1034744	5.8852537	-8.1234889	13.7	-9.5806159e-05	0.00056414508	-0.0043763385	-0.042707661	-0.005700534	-0.050524152	-0.00043134549	0.00019366049	-0.056065524	-0.787095	1.1731793	0.11663026	-1.1722754	-0.11680165	0.014009766	-1.3675527	1.29	0.638	0.14	-0.1854561	0.066273131	0.00013158419	1.9785921	1.9522744	0.0009304204	1.9524003	0.001077423	2.2970468e-06	1.9018349	1.0657944	0.00021469609	-0.00037470776	-0.16558944	0.10034194	-0.16479082	0.11074269	0.00053921976	0.00013954426	0.043212538	0.54024564	-0.84176236	-0.08136535	0.84056522	0.083264062	-0.0058056846	1.2699756	0.66658793	0.0182132	0.00013161102	0.02134194	0.047219604	0.00093062399	0.047097418	0.0010775661	2.2970464e-06	0.095090708	0.018208571	3.4101944	4.7470594	4.6123271	3.7165546	4.6122422	3.7158163	4.1085349	4.6276751	4.5910511	3.4466507	3.7451227	4.2890634	3.7444254	4.2907702	3.8914826	4.0087547	-129.09631	R0:S0:1	-99.44	uncorrelated	51514b8	 1.16e+02	 9.10e-03	 1.00e+06	2022-04-11@06:35
2x2_2C_8b_C2v_L	0.1	14	1.27	2.3666753	-8.9226622	-9.493782	4.0378261	-9.4954031	4.1032567	5.8852919	-8.1476595	13.7	-6.835263e-06	8.3736489e-06	-0.0034757058	-0.042876237	-0.0050053271	-0.049943459	-0.000393022	-8.4629803e-06	-0.088914824	-0.79942744	1.1729352	0.11455455	-1.1724148	-0.11486664	0.0062579905	-1.3773195	1.29	0.638	0.14	-0.18643125	0.066738905	0.00033325217	1.977983	1.9523156	0.00091996941	1.9523958	0.0010517196	4.7019036e-07	1.901088	1.0662368	1.0373629e-05	2.8512574e-06	-0.16678992	0.10014701	-0.16605508	0.10951654	0.00048817061	7.1427605e-07	0.068725997	0.54752167	-0.8412189	-0.080393394	0.84051987	0.082155346	-0.0025953734	1.2746063	0.66618524	0.018345128	0.00033342517	0.021947569	0.047179729	0.00092015489	0.047101979	0.0010518503	4.7019036e-07	0.095788314	0.018346164	3.4077693	4.7554384	4.6131954	3.715012	4.6126118	3.7151106	4.1077627	4.6335173	4.5953892	3.4437287	3.7438917	4.2905493	3.7439307	4.2913167	3.8922409	4.0070804	-129.16859	R0:S0:1	-99.44	uncorrelated	51514b8	 1.17e+02	 0.00e+00	 4.05e-03	2022-04-11@06:37
2x2_2C_8b_C2v_L	0.1	14	1.27	3.1111103	-8.8960842	-9.3508535	5.3332146	-9.3529733	5.4213945	7.7266887	-7.3083161	13.72	-0.00045171189	-0.00021790082	-0.002220389	-0.050448691	-0.0046692417	-0.060749665	0.00019240816	-0.00020776087	-0.13540596	-0.81064233	1.1620936	0.12623323	-1.1616445	-0.12658641	-0.12536167	-1.3044843	1.29	0.638	0.14	-0.19198043	0.070256257	0.00066244841	1.9772549	1.9517528	0.00081893501	1.9518531	0.00096261763	0.00015016053	1.891643	1.0696975	0.00080341153	-2.9686288e-05	-0.17350781	0.092054284	-0.17238419	0.10305193	-0.0002071608	0.00030636493	0.099294845	0.55468946	-0.84522535	-0.080297801	0.84434084	0.082400742	0.047544388	1.3308311	0.66344816	0.019299469	0.00066273753	0.02267265	0.04773387	0.00081893612	0.04763699	0.00096254843	0.00015015655	0.10457665	0.019327392	3.3893677	4.7813787	4.6230207	3.707226	4.6224579	3.7072175	4.0908745	4.7138477	4.616423	3.4251575	3.7376253	4.2976424	3.7375741	4.2985805	3.9102118	3.978684	-126.95381	R0:S0:1	-99.6	uncorrelated	51514b8	 1.25e+02	 2.34e-01	 1.00e+06	2022-04-11@06:39
2x2_2C_8b_C2v_L	0.1	14	1.27	3.1073079	-8.9302638	-9.3895755	5.3292391	-9.3915779	5.4175009	7.7324893	-8.4167672	13.72	-0.00021697418	6.037989e-05	-0.0045304807	-0.054585099	-0.0050715756	-0.057922271	-0.0004224394	8.2089026e-06	0.087718024	-0.79593884	1.1646654	0.12657041	-1.1646229	-0.12793122	0.028583194	-1.3985178	1.29	0.638	0.14	-0.19058731	0.066948845	0.00026329947	1.9781139	1.9519334	0.00087848841	1.9519648	0.00091956447	7.6985934e-06	1.9033524	1.0664415	0.00036090824	-2.6139348e-05	-0.17092878	0.096945444	-0.17066134	0.099862027	0.00041174421	-5.6832674e-06	-0.062732681	0.54604405	-0.84387862	-0.080971848	0.84360477	0.081885621	-0.010713275	1.261062	0.66400026	0.018523363	0.00026335361	0.02181763	0.047556925	0.00087847234	0.047526486	0.00091952486	7.6985842e-06	0.093672098	0.018523329	3.4090471	4.7528129	4.6203587	3.7091487	4.6201366	3.7092108	4.1149145	4.6120306	4.5933024	3.4454251	3.7390286	4.2961047	3.7390453	4.2963043	3.8851438	4.0164038	-129.3874	R0:S0:1	-99.6	uncorrelated	51514b8	 1.24e+02	 0.00e+00	 8.14e-03	2022-04-11@06:41
2x2_2C_8b_C2v_L	0.1	14	1.27	3.9493117	-8.9686704	-9.306384	6.8008551	-9.308703	6.9153185	9.8485601	-9.6969523	13.74	-0.00042851769	0.00016868967	-0.0068003003	-0.071040458	-0.0046103255	-0.063729048	-0.00080371528	0.00014189463	0.46509748	-0.7850785	1.1569219	0.13705794	-1.1580101	-0.14060218	0.15667912	-1.5076703	1.29	0.638	0.14	-0.21870567	0.070651565	0.0065864985	1.9792406	1.9519877	0.00093086492	1.9518439	0.00083849135	0.00017992029	1.909459	1.0692029	0.0010104442	0.0002651692	-0.19805664	0.10036905	-0.19930191	0.092783497	0.0005986823	-0.0005175994	-0.31619228	0.52736217	-0.83802008	-0.084683576	0.83942266	0.083988457	-0.051496287	1.2313776	0.6490815	0.020439109	0.006610339	0.020706382	0.04753184	0.00093070065	0.047670598	0.00083837976	0.00017991446	0.087877051	0.020672517	3.4202874	4.7883089	4.6522619	3.6666878	4.6517543	3.6680709	4.2004016	4.4958309	4.6392243	3.4029351	3.7053282	4.3387677	3.7065351	4.336782	3.8010007	4.0914183	-131.85808	R0:S0:1	-99.76	uncorrelated	51514b8	 3.68e+02	 8.29e-02	 1.00e+06	2022-04-11@06:43
2x2_2C_8b_C2v_L	0.1	14	1.27	3.970423	-8.9773	-9.3063149	6.8010241	-9.3082836	6.9153594	9.8479839	-9.6507342	13.74	-0.00016578585	1.8562551e-05	-0.0075326863	-0.073506155	-0.0055863141	-0.064358205	8.0420843e-05	-9.0559675e-06	0.091038627	-0.79542896	1.1618714	0.16788056	-1.1625862	-0.16749296	0.2991868	-1.52259	1.29	0.638	0.14	-0.1975094	0.066607124	0.00022881296	1.9782228	1.9513531	0.0011140474	1.9512828	0.00096525417	0.00067486844	1.9103825	1.0658899	0.00021844376	-4.8785041e-05	-0.17749055	0.10613386	-0.17838497	0.095719035	-5.4944219e-05	4.5282324e-05	-0.059716922	0.54504851	-0.84763253	-0.096614469	0.84820312	0.093770387	-0.10037317	1.2174029	0.66000364	0.018659635	0.00022883443	0.021709581	0.048131089	0.0011138882	0.048198952	0.00096516149	0.00067478792	0.087079407	0.01870553	3.4146229	4.7465098	4.6320139	3.6995174	4.6327762	3.699095	4.1442536	4.5415453	4.5873491	3.4510316	3.7306218	4.3069941	3.7303306	4.3064971	3.8609497	4.0471596	-131.76433	R0:S0:1	-99.76	uncorrelated	51514b8	 1.35e+02	 3.26e-04	 7.40e-02	2022-04-11@06:45
2x2_2C_8b_C2v_L	0.1	14	1.27	4.956012	-9.0637385	-9.2440089	8.4531898	-9.2455504	8.596841	12.231771	-11.849582	13.76	0.00015532714	-8.4838089e-05	-0.015734292	-0.09906338	-0.0096123691	-0.068692429	0.0011091107	-9.6796576e-05	-0.078604818	-0.79849963	1.1654667	0.23778862	-1.1667863	-0.23302527	0.8182214	-1.7493621	1.29	0.638	0.14	-0.20322571	0.065712205	0.00013528573	1.9776713	1.9504037	0.0015670622	1.950204	0.0011487246	0.0040699421	1.9194125	1.0642094	-0.00020267599	0.00015085271	-0.18140772	0.12075358	-0.18423971	0.094202625	-0.00081776317	-0.00020906523	0.046626158	0.5547514	-0.85446416	-0.12210577	0.85606511	0.11375048	-0.24650998	1.1533199	0.65587508	0.018583058	0.00013528905	0.022252783	0.04906637	0.0015665995	0.049258422	0.0011485529	0.0040669264	0.078590491	0.018860758	3.4536179	4.7117658	4.6455756	3.6912321	4.6477812	3.6898	4.1776877	4.4695269	4.5475152	3.4892081	3.7223918	4.3176701	3.7214372	4.3166459	3.8543333	4.0700996	-136.36146	R0:S0:1	-99.92	uncorrelated	51514b8	 1.45e+02	 3.69e-02	 1.00e+06	2022-04-11@06:46
2x2_2C_8b_C2v_L	0.1	14	1.27	4.9548702	-9.0604824	-9.2556449	8.4541011	-9.2564052	8.5974959	12.238332	-11.86039	13.76	0.00021672079	7.0304501e-05	-0.011402351	-0.097466393	-0.0064207584	-0.068256014	0.00093730642	-0.00035611182	-0.14593483	-0.80977959	1.1564793	0.18547302	-1.1590589	-0.18791996	0.67024046	-1.77742	1.29	0.638	0.14	-0.20532557	0.066607529	0.00048012656	1.9777174	1.9512334	0.0011837179	1.9509311	0.00086307686	0.0026987395	1.9165585	1.0653509	-0.00024118303	-5.9812311e-05	-0.18366721	0.11064556	-0.18619085	0.086423157	-0.0005913636	0.00014007794	0.088055691	0.5507654	-0.84728565	-0.09915609	0.84990549	0.094219457	-0.20009391	1.1781934	0.65597144	0.018910187	0.00048017042	0.022212702	0.048256327	0.0011833934	0.048549114	0.00086295378	0.0026974252	0.081257335	0.019082837	3.4130646	4.7539308	4.6410889	3.6886015	4.6429192	3.6885086	4.1936824	4.4664806	4.5909522	3.4486201	3.7217527	4.3182648	3.7218137	4.3163824	3.8276158	4.0848085	-136.40648	R0:S0:1	-99.92	uncorrelated	51514b8	 1.54e+02	 1.34e-04	 3.67e-02	2022-04-11@06:48
2x2_2C_8b_C2v_L	0.1	14	1.27	6.0606555	-9.1798175	-9.2375828	10.288467	-9.2359565	10.463904	14.903519	-15.045671	13.78	0.00092194834	0.00018594906	-0.012267442	-0.12719944	-0.0032487013	-0.070407052	0.0021856686	-0.00092666246	-0.62327668	-0.83939911	1.1481802	0.17982455	-1.153849	-0.18959929	1.1420592	-2.1631404	1.29	0.638	0.14	-0.24806286	0.075508665	0.0081158426	1.9772452	1.9521649	0.0012124096	1.9513654	0.00073993118	0.0060374151	1.9182361	1.0722606	-0.0021957987	0.0011239617	-0.22414347	0.11594798	-0.22998172	0.079350115	-0.0019536071	-0.001169832	0.36440225	0.54721109	-0.83054834	-0.098079947	0.83791698	0.090920122	-0.2948707	1.1800811	0.63181567	0.022705598	0.0081250472	0.022698076	0.047389753	0.0012119306	0.048164568	0.000739801	0.0060313574	0.079616391	0.02339463	3.3894134	4.8478077	4.6881349	3.6180526	4.6884582	3.62202	4.3365539	4.3490095	4.6799229	3.3652031	3.6656107	4.388813	3.6695596	4.3819561	3.7131213	4.182852	-143.43033	R0:S0:1	-100.08	uncorrelated	51514b8	 7.35e+02	 8.61e-02	 1.00e+06	2022-04-11@06:50
2x2_2C_8b_C2v_L	0.1	14	1.27	6.0835785	-9.1936271	-9.2363326	10.288851	-9.2347997	10.463755	14.904804	-15.046131	13.78	0.00064889349	0.00021212783	-0.011536067	-0.12678591	-0.003570529	-0.070363518	0.00219379	-0.0011288368	-0.2034358	-0.82808484	1.150548	0.19007833	-1.155742	-0.19826206	1.1175343	-2.1670351	1.29	0.638	0.14	-0.21796165	0.067854657	0.00077829646	1.9772832	1.9514421	0.0011949999	1.9508112	0.00072824095	0.0059592749	1.9206966	1.0657498	-0.00067523818	3.2645569e-05	-0.19536753	0.11419051	-0.19976727	0.076783366	-0.0012553536	0.00014833831	0.11372456	0.55433134	-0.8434061	-0.096764577	0.84898138	0.090290251	-0.29561288	1.153137	0.64972247	0.019616185	0.00077832825	0.022646526	0.04806225	0.001194567	0.048674071	0.00072812507	0.0059530537	0.07733686	0.019990998	3.3977912	4.7748176	4.6522538	3.6711553	4.6549981	3.6721078	4.2631658	4.3953366	4.6085764	3.4330585	3.7078117	4.335747	3.7088932	4.3319197	3.7849395	4.1283425	-143.35117	R0:S0:1	-100.08	uncorrelated	51514b8	 1.81e+02	 8.93e-03	 7.70e-02	2022-04-11@06:52
2x2_2C_8b_C2v_L	0.1	14	1.27	6.0839659	-9.1955891	-9.2376565	10.288734	-9.2364427	10.463606	14.906931	-15.050168	13.78	0.00070371975	0.00021657853	-0.01273007	-0.12664514	-0.0045674346	-0.069948744	0.0021354092	-0.0011023047	-0.18587179	-0.82293652	1.1507619	0.19012958	-1.1558268	-0.19711834	1.0823762	-2.1494854	1.29	0.638	0.14	-0.21605806	0.067146958	0.00064540709	1.9775382	1.9514418	0.001189349	1.9508247	0.00071659902	0.0055953782	1.9219849	1.0651489	-0.00071492662	-1.1602043e-06	-0.19303175	0.11387927	-0.19745751	0.076077783	-0.0012004572	0.00018450018	0.10355002	0.55176954	-0.84372973	-0.096436813	0.84917583	0.089526195	-0.28655439	1.1437374	0.65068072	0.019392545	0.00064542826	0.022392427	0.048061692	0.0011889222	0.048659952	0.00071648734	0.0055898733	0.076114783	0.019738923	3.4027329	4.7670017	4.6504016	3.6737996	4.6531964	3.674596	4.258822	4.3875764	4.6025443	3.4382857	3.7099374	4.3330853	3.7108876	4.329378	3.7863902	4.1289591	-143.33311	R0:S0:1	-100.08	uncorrelated	51514b8	 1.79e+02	 0.00e+00	 1.37e-03	2022-04-11@06:54
2x2_2C_8b_C2v_L	0.1	14	1.27	7.3577099	-9.3826351	-9.2523265	12.30492	-9.2483622	12.51369	17.853798	-19.220118	13.8	0.0012980768	0.00046554781	-0.013219897	-0.16069279	-0.0023106656	-0.069017595	0.0036415765	-0.0023295715	-0.028930033	-0.83409015	1.144419	0.18183773	-1.152761	-0.1950521	1.5351772	-2.6387696	1.29	0.638	0.14	-0.22570104	0.067591877	1.3118933e-05	1.9777234	1.9519893	0.0011411282	1.9509844	0.00054631961	0.0089781727	1.9263531	1.0648556	-0.001068366	-9.3941421e-05	-0.2008394	0.11537404	-0.20716339	0.06469709	-0.0016722847	0.00049285942	0.014896158	0.5482914	-0.83755656	-0.089185265	0.84653046	0.080515409	-0.3607614	1.1158429	0.64613432	0.01982543	1.3118924e-05	0.02220994	0.047533453	0.001140685	0.048508907	0.00054624321	0.0089645269	0.071957677	0.020336399	3.3823391	4.7805065	4.6559195	3.6608519	4.6596973	3.6629378	4.3273697	4.3155559	4.6177658	3.4244548	3.6996098	4.3458249	3.701876	4.3400386	3.7465789	4.1715543	-152.53094	R0:S0:1	-100.24	uncorrelated	51514b8	 1.94e+02	 7.19e-03	 1.00e+06	2022-04-11@06:56
2x2_2C_8b_C2v_L	0.1	14	1.27	7.3577057	-9.3840341	-9.2522646	12.304919	-9.2483301	12.513688	17.85365	-19.220699	13.8	0.0012528819	5.4230567e-05	-0.013105136	-0.1607824	-0.0025130151	-0.069006417	0.0036547538	-0.0022958821	-0.030614439	-0.80012737	1.1453092	0.18186972	-1.1533315	-0.19505399	1.5392348	-2.6308077	1.29	0.638	0.14	-0.22643165	0.067378173	1.4738363e-05	1.9794954	1.9519322	0.0011431909	1.9509623	0.00054707303	0.0089562575	1.9264597	1.0646173	-0.0010381003	0.00023131074	-0.20175504	0.11547683	-0.2079313	0.064767249	-0.0018358474	0.00024259159	0.015803139	0.52558118	-0.83788654	-0.089315155	0.84652427	0.080587828	-0.3598352	1.1166562	0.64572316	0.019825734	1.4738352e-05	0.020449377	0.047590538	0.0011427459	0.048532098	0.00054699647	0.0089428329	0.071848526	0.020334237	3.3766127	4.7735201	4.6574299	3.6594917	4.661208	3.661338	4.339611	4.3032594	4.6235054	3.4160922	3.6986568	4.3471969	3.7007239	4.3416421	3.7343409	4.1815495	-152.51023	R0:S0:1	-100.24	uncorrelated	51514b8	 2.08e+02	 0.00e+00	 9.29e-03	2022-04-11@06:58
2x2_2C_8b_C2v_L	0.1	14	1.27	8.7760886	-9.6258088	-9.2994781	14.502657	-9.292082	14.747745	21.078481	-24.371968	13.82	0.0018642072	-0.0004158782	-0.01232086	-0.1999307	0.00016362709	-0.065506541	0.0055056748	-0.0039135916	0.3199285	-0.74168889	1.140323	0.16062023	-1.1516693	-0.18168039	2.0409723	-3.2213732	1.29	0.638	0.14	-0.2503948	0.071087062	0.0014044619	1.9834525	1.9529183	0.0010878385	1.9515507	0.00039162431	0.012254819	1.9288369	1.0670942	-0.001083514	0.00060413194	-0.22348436	0.11644255	-0.23160288	0.054324052	-0.0024558821	0.00035527328	-0.15644351	0.46683461	-0.824843	-0.081199023	0.83712683	0.069859425	-0.41490514	1.1109119	0.6325678	0.021732813	0.0014042685	0.016517929	0.046648674	0.0010874186	0.047978472	0.00039157998	0.012232434	0.069545284	0.022500298	3.3186673	4.8148955	4.679516	3.6213315	4.6838762	3.6245355	4.4681759	4.1895265	4.692515	3.342848	3.6683583	4.3851244	3.6721263	4.3775311	3.6362341	4.270828	-163.98936	R0:S0:1	-100.4	uncorrelated	51514b8	 4.42e+02	 2.52e-02	 1.00e+06	2022-04-11@07:00
2x2_2C_8b_C2v_L	0.1	14	1.27	8.7769671	-9.6215464	-9.2993641	14.502655	-9.291993	14.747746	21.078439	-24.372333	13.82	0.0019984423	-0.00071646853	-0.011377415	-0.19998402	0.00040621681	-0.065512956	0.0054431194	-0.0039830695	0.26861063	-0.85400273	1.1406937	0.16097341	-1.1520623	-0.18189531	2.0427663	-3.2167921	1.29	0.638	0.14	-0.24194413	0.069678124	0.00095355608	1.9776778	1.9526838	0.0010792509	1.9513424	0.00038575867	0.01269922	1.9303924	1.0658459	-0.0012186909	0.00083100369	-0.21570866	0.1161613	-0.22337828	0.053645029	-0.0024781814	0.00027246431	-0.12847818	0.54673379	-0.82874343	-0.07998282	0.84077345	0.069182173	-0.42578336	1.0905329	0.63747647	0.020924299	0.00095345856	0.022258559	0.046865513	0.0010788399	0.048169919	0.00038571583	0.012673234	0.068096415	0.02170685	3.3685363	4.8029521	4.6687174	3.636647	4.6733283	3.6396377	4.4077357	4.2370387	4.6389941	3.4044371	3.6800847	4.3697828	3.6835273	4.3624105	3.6989392	4.2222071	-164.02748	R0:S0:1	-100.4	uncorrelated	51514b8	 2.66e+02	 1.80e-02	 3.10e-02	2022-04-11@07:02
2x2_2C_8b_C2v_L	0.1	14	1.27	8.7766876	-9.6225678	-9.2950707	14.502332	-9.2893835	14.747136	21.084393	-24.379863	13.82	0.001786699	-0.00065069308	-0.012939396	-0.19630255	-0.00048472747	-0.064085375	0.0054157026	-0.0038863007	0.27464417	-0.85617479	1.142403	0.1750476	-1.1535187	-0.19492669	1.9738371	-3.1671938	1.29	0.638	0.14	-0.24004287	0.068870691	0.00098878962	1.9775098	1.9525356	0.0011041575	1.9512204	0.00041918826	0.011910954	1.9325498	1.0652232	-0.0010811019	0.00077246132	-0.21362531	0.11604811	-0.2214583	0.054415064	-0.0024368341	0.00028825508	-0.13069552	0.5497996	-0.83031624	-0.08398899	0.842086	0.073208997	-0.41286167	1.072983	0.63832083	0.02066368	0.00098868607	0.022424303	0.047010071	0.001103725	0.048288155	0.0004191394	0.011887861	0.066037066	0.021403235	3.3807989	4.7924238	4.6678973	3.6393189	4.672516	3.6421532	4.395314	4.2274471	4.6270211	3.4158439	3.6821291	4.3671755	3.6853539	4.3600764	3.7048713	4.2203797	-163.95359	R0:S0:1	-100.4	uncorrelated	51514b8	 2.60e+02	 0.00e+00	 1.94e-03	2022-04-11@07:04
2x2_2C_8b_C2v_L	0.1	14	1.27	10.340912	-9.9111902	-9.3660746	16.880975	-9.3596031	17.163949	24.599162	-30.527661	13.84	0.0023051712	-0.0018981924	-0.012232851	-0.2332056	0.0015174283	-0.055185617	0.0074182555	-0.0058735604	0.72990403	-0.99107876	1.1420433	0.16966321	-1.1563884	-0.19673644	2.386183	-3.7586436	1.29	0.638	0.14	-0.27210774	0.07670504	0.0061218299	1.9720434	1.9536182	0.0010854177	1.9519457	0.0003336518	0.014064246	1.9378532	1.0716353	-0.00060462091	0.0019348675	-0.24319426	0.11624078	-0.25315818	0.046260672	-0.0031735372	0.00012156973	-0.32694574	0.60698868	-0.81402451	-0.08271131	0.82904319	0.068367742	-0.44463128	1.0370424	0.61787517	0.023848949	0.0061171431	0.027866676	0.045980668	0.0010849928	0.047608786	0.00033361937	0.014034315	0.060945431	0.024994002	3.3771472	4.8804029	4.704375	3.5814101	4.7091523	3.5852924	4.4733179	4.1323176	4.6712874	3.3813254	3.6346895	4.4248848	3.6395688	4.4164018	3.6487021	4.2829046	-177.71835	R0:S0:1	-100.56	uncorrelated	51514b8	 7.07e+02	 8.11e-02	 1.00e+06	2022-04-11@07:06
2x2_2C_8b_C2v_L	0.1	14	1.27	10.357182	-9.937043	-9.3589003	16.880969	-9.3533425	17.1638	24.593358	-30.522737	13.84	0.0024102215	-0.0010039268	-0.013698206	-0.22583598	0.0020952913	-0.052786946	0.0076381191	-0.0061049746	0.35588202	-0.88933358	1.1437821	0.1898656	-1.1577976	-0.21643483	2.4530289	-3.7907947	1.29	0.638	0.14	-0.25441602	0.070765442	0.0014016111	1.9770944	1.9530811	0.0010901393	1.9514037	0.00036847052	0.014876089	1.9373618	1.0662709	-0.0011143524	0.0013094899	-0.2259655	0.11500564	-0.23620813	0.046111095	-0.003188311	0.00022779875	-0.15663189	0.55369776	-0.82287404	-0.085297445	0.83802265	0.072652775	-0.45869048	1.0384392	0.62995477	0.021659485	0.0014013178	0.022839157	0.046488601	0.0010897096	0.048118503	0.00036843323	0.014841426	0.061422037	0.022614771	3.3719313	4.8082179	4.6815648	3.6161475	4.6860251	3.620911	4.4576483	4.1541361	4.6390373	3.4053976	3.6629552	4.3901536	3.6681239	4.3810149	3.6696207	4.2627845	-177.65252	R0:S0:1	-100.56	uncorrelated	51514b8	 3.35e+02	 1.95e-04	 3.01e-02	2022-04-11@07:08
2x2_2C_8b_C2v_L	0.1	14	1.27	12.099192	-10.327486	-9.4436764	19.440821	-9.4402156	19.763673	28.380509	-37.649328	13.86	0.0031448986	-0.00092825325	-0.016715707	-0.24920682	0.0030392183	-0.034845161	0.010339163	-0.0089261647	0.2128889	-0.89962949	1.1496737	0.22636663	-1.1653617	-0.25978433	2.9774838	-4.5011128	1.29	0.638	0.14	-0.26294831	0.071270046	0.00042049029	1.9780344	1.953406	0.0010948292	1.951522	0.00037263204	0.017858161	1.941376	1.0661591	-0.0014276366	0.0014338056	-0.23212101	0.11302619	-0.24447252	0.039058256	-0.0038879172	0.00026727433	-0.086265931	0.54233636	-0.81858307	-0.090772034	0.83554617	0.076955212	-0.50037492	1.007795	0.62492447	0.022095141	0.00042045714	0.021904484	0.046178604	0.0010943866	0.048008402	0.00037259655	0.017809364	0.05756126	0.023201224	3.3611382	4.8040097	4.6889015	3.6034933	4.6941268	3.6083698	4.5092128	4.0957909	4.6421135	3.4020159	3.6522433	4.4026407	3.6575701	4.3936061	3.6451522	4.2948844	-193.58522	R0:S0:1	-100.72	uncorrelated	51514b8	 3.53e+02	 8.50e-03	 1.00e+06	2022-04-11@07:10
2x2_2C_8b_C2v_L	0.1	14	1.27	12.099115	-10.329176	-9.4436266	19.440813	-9.4401927	19.763666	28.380477	-37.649342	13.86	0.0030722058	-0.00071850956	-0.017349291	-0.24902961	0.003136916	-0.034827101	0.010292992	-0.0089760624	0.22156634	-0.85895791	1.1492773	0.22654078	-1.1649614	-0.26000776	2.9779501	-4.5008511	1.29	0.638	0.14	-0.26568412	0.07173219	0.00046046246	1.9800805	1.9535219	0.00109785	1.9516145	0.00037484433	0.017674985	1.9410242	1.0665858	-0.0013924413	0.0012098531	-0.23441774	0.11310161	-0.24713802	0.039344792	-0.003749822	0.00042666786	-0.090405787	0.5150425	-0.81692034	-0.09123288	0.83411543	0.077216325	-0.49635125	1.0133836	0.62319726	0.022370862	0.000460423	0.019871827	0.04606948	0.0010974041	0.047921758	0.00037480853	0.017628588	0.057891945	0.023466707	3.3432747	4.8072853	4.6925804	3.5980501	4.6976421	3.6031276	4.5296204	4.0779133	4.6602929	3.3812379	3.6479907	4.4080881	3.6535476	4.398855	3.6239956	4.3126744	-193.56692	R0:S0:1	-100.72	uncorrelated	51514b8	 4.21e+02	 1.33e-04	 1.02e-02	2022-04-11@07:12
2x2_2C_8b_C2v_L	0.1	14	1.27	14.002464	-10.798859	-9.5492021	22.181854	-9.5498305	22.54673	32.445733	-45.759689	13.88	0.0037452652	0.00011646673	-0.021305743	-0.2661068	0.0053445131	-0.010507434	0.013309726	-0.012578739	-0.12715456	-0.76512298	1.1590532	0.28545177	-1.1761669	-0.32570674	3.5486099	-5.2975757	1.29	0.638	0.14	-0.28683591	0.075875606	0.00013256698	1.9856341	1.954144	0.0011554594	1.9519727	0.00044131394	0.019995017	1.9432723	1.0699311	-0.0017862435	0.00093167019	-0.25243662	0.11165075	-0.2686691	0.035494935	-0.0044666155	0.00044046896	0.048929	0.43325549	-0.80667756	-0.10285332	0.82622964	0.086738474	-0.52101883	1.0041845	0.60894301	0.024398747	0.00013256329	0.014345428	0.045487049	0.0011549486	0.047594022	0.00044126937	0.019942912	0.055705669	0.025653994	3.2760055	4.8312298	4.7205124	3.5573562	4.7254081	3.5631669	4.6382535	3.9743694	4.7250179	3.3093332	3.6146212	4.4487454	3.6211642	4.4392153	3.5403369	4.3954515	-211.74667	R0:S0:1	-100.88	uncorrelated	51514b8	 7.90e+02	 1.91e-02	 1.00e+06	2022-04-11@07:14
2x2_2C_8b_C2v_L	0.1	14	1.27	14.002511	-10.795392	-9.5489599	22.181841	-9.5496486	22.546719	32.445687	-45.759654	13.88	0.0040597627	0.00038784893	-0.02085116	-0.26590312	0.0064647987	-0.010582894	0.013329992	-0.012553048	-0.11666607	-0.85799534	1.1590617	0.28620081	-1.176238	-0.32630499	3.5492331	-5.2978132	1.29	0.638	0.14	-0.28077177	0.074393565	0.00010911773	1.9817088	1.953939	0.0011485655	1.9517576	0.00043891498	0.020433546	1.9439486	1.0685074	-0.0019287634	0.00085155673	-0.24685697	0.11136479	-0.26310625	0.034881769	-0.00434131	0.00055554453	0.044222638	0.49195711	-0.81007883	-0.10203737	0.82973607	0.08640813	-0.53004175	0.99300699	0.61327249	0.023643381	0.00010911522	0.018253241	0.045678044	0.0011480628	0.047793711	0.00043887039	0.020374897	0.05506831	0.024923884	3.3170363	4.8188575	4.7106977	3.5710303	4.7156976	3.5770267	4.5962134	4.0119792	4.683804	3.3567466	3.625406	4.4350615	3.6319109	4.425356	3.5841208	4.3580414	-211.78251	R0:S0:1	-100.88	uncorrelated	51514b8	 5.72e+02	 1.35e-04	 1.99e-02	2022-04-11@07:16
2x2_2C_8b_C2v_L	0.1	14	1.27	16.067379	-11.335667	-9.6748317	25.104069	-9.6817141	25.512977	36.789027	-54.853605	13.9	0.0053964341	0.0023527624	-0.027051326	-0.27609949	0.0094739893	0.0202686	0.016850095	-0.016711186	-0.66035659	-0.88631168	1.1730598	0.36865802	-1.1911128	-0.41536844	4.1663778	-6.1821765	1.29	0.638	0.14	-0.31907688	0.08669672	0.0031400916	1.9827728	1.9551048	0.001285385	1.9525538	0.00057530513	0.022503067	1.9453027	1.079503	-0.0030465306	0.00083381594	-0.2803157	0.11133646	-0.30252415	0.035285377	-0.0056850617	-5.9418722e-05	0.24014303	0.46866987	-0.78946897	-0.12017484	0.81242561	0.10107749	-0.54712783	0.99316764	0.58358078	0.028513613	0.0031378951	0.017203982	0.04458892	0.0012847295	0.047061247	0.00057523858	0.022445506	0.053742101	0.030164775	3.2340199	4.9215923	4.7732474	3.4828647	4.7766238	3.4901803	4.7228888	3.8985435	4.7901014	3.2509912	3.5523141	4.5233787	3.5609587	4.5129359	3.4841432	4.4581184	-232.36895	R0:S0:1	-101.04	uncorrelated	51514b8	 5.29e+02	 2.71e-02	 1.00e+06	2022-04-11@07:18
2x2_2C_8b_C2v_L	0.1	14	1.27	16.068622	-11.331125	-9.6746428	25.104067	-9.6815495	25.512985	36.788984	-54.853596	13.9	0.005741329	0.0023715835	-0.025605236	-0.27613957	0.010907464	0.020121407	0.016768041	-0.016791334	-0.59905073	-1.0039763	1.1735323	0.36924383	-1.1916513	-0.41573344	4.1669651	-6.1820972	1.29	0.638	0.14	-0.30381551	0.081334579	0.0024623714	1.9772789	1.9544489	0.001261421	1.9519567	0.00056396361	0.023333408	1.9464542	1.0743017	-0.0028722146	0.00047432846	-0.2667628	0.11052125	-0.28786891	0.03327642	-0.005039562	0.00053744146	0.21116354	0.5456192	-0.79994134	-0.11757505	0.82231205	0.099714566	-0.5638071	0.97350776	0.59618278	0.026248553	0.0024610137	0.02266562	0.045206535	0.0012607971	0.04761973	0.00056389732	0.023260191	0.052652263	0.027897802	3.3136089	4.8758032	4.7442255	3.5234279	4.7487574	3.530225	4.6463339	3.9670836	4.7052434	3.3437375	3.5853363	4.482802	3.5929037	4.4728859	3.5628197	4.3887189	-232.40707	R0:S0:1	-101.04	uncorrelated	51514b8	 7.89e+02	 1.64e-04	 3.44e-02	2022-04-11@07:21
2x2_2C_8b_C2v_L	0.1	14	1.27	18.297434	-11.936445	-9.8206764	28.207465	-9.8358521	28.662442	41.410343	-64.931207	13.92	0.0080948675	0.0052191326	-0.031522795	-0.27973682	0.016498121	0.057286554	0.020547506	-0.021781066	-1.2243288	-1.2977158	1.1928481	0.47579247	-1.2114535	-0.5284394	4.8311946	-7.153712	1.29	0.638	0.14	-0.34458463	0.098175753	0.0090821273	1.966556	1.9556052	0.0014760203	1.9527012	0.00076594139	0.026112959	1.9482636	1.0894481	-0.004055038	-8.6039911e-05	-0.30342182	0.11193779	-0.33149431	0.036525203	-0.0055188275	0.00070561956	0.40806896	0.65259919	-0.77737163	-0.13942263	0.80315807	0.11789544	-0.5924436	0.96128405	0.56106333	0.032011069	0.009063109	0.033344719	0.044131191	0.0014751407	0.04694067	0.00076583487	0.026030874	0.050908134	0.034303768	3.3041085	5.0221916	4.8202785	3.4180177	4.8238393	3.4248057	4.7104527	3.9170719	4.7649664	3.3056736	3.496445	4.5885796	3.5053398	4.5793209	3.5312328	4.4321531	-255.51764	R0:S0:1	-101.2	uncorrelated	51514b8	 4.58e+02	 1.07e-01	 1.00e+06	2022-04-11@07:23
2x2_2C_8b_C2v_L	0.1	14	1.27	18.319667	-11.982499	-9.8118936	28.206863	-9.828903	28.66212	41.409732	-64.930778	13.92	0.0069678684	0.0031380479	-0.03164106	-0.27124891	0.017843443	0.058455408	0.020500784	-0.021581761	-0.75172926	-1.0794202	1.1979533	0.5052246	-1.2156972	-0.55430208	4.8388007	-7.1622491	1.29	0.638	0.14	-0.3252749	0.088369759	0.003343307	1.9765635	1.9544783	0.0015141887	1.9516689	0.00082296556	0.025947687	1.9481373	1.0804053	-0.003218837	0.00052318892	-0.28665347	0.11099072	-0.31397458	0.035479894	-0.0057104471	0.00049214456	0.24747802	0.55068053	-0.79347889	-0.14168433	0.81843452	0.12152514	-0.59043613	0.96287668	0.57839296	0.028864352	0.0033406462	0.023383405	0.045212066	0.0015132894	0.047924098	0.00082283679	0.025864145	0.05102179	0.030810824	3.2834443	4.919639	4.7843299	3.4725923	4.788076	3.4799589	4.7110702	3.9121505	4.7420253	3.3107591	3.5424738	4.5343709	3.550914	4.5246179	3.5259377	4.4323641	-255.31747	R0:S0:1	-101.2	uncorrelated	51514b8	 6.89e+02	 1.72e-04	 1.49e-02	2022-04-11@07:25
2x2_2C_8b_C2v_L	0.1	14	1.27	20.755668	-12.749521	-9.9607342	31.490248	-9.9917833	31.99413	46.307852	-75.991284	13.94	0.0077524693	0.0026901247	-0.038904793	-0.25114757	0.027282803	0.10444207	0.024407746	-0.027028231	-0.57485549	-1.0837751	1.2316251	0.69427002	-1.2476126	-0.74212267	5.5662574	-8.2367312	1.29	0.638	0.14	-0.33500206	0.090888046	0.0016560718	1.9788646	1.9536301	0.0019157999	1.9505329	0.0012270205	0.02862107	1.949677	1.082366	-0.0029134093	0.00065052528	-0.29712245	0.11195647	-0.33116625	0.038986781	-0.0059576432	0.00075855025	0.17474826	0.52310838	-0.79755841	-0.17040427	0.82471807	0.14877568	-0.61773707	0.95097333	0.56942808	0.029811932	0.0016553809	0.021092725	0.046067924	0.0019144248	0.04904303	0.0012267435	0.028522786	0.049530603	0.031926738	3.2636466	4.9082729	4.8086164	3.4493778	4.8113348	3.4575937	4.7547277	3.8770306	4.7489363	3.3017819	3.5222937	4.5591592	3.531394	4.5492912	3.5085827	4.4567515	-280.47502	R0:S0:1	-101.36	uncorrelated	51514b8	 7.08e+02	 2.69e-02	 1.00e+06	2022-04-11@07:28
2x2_2C_8b_C2v_L	0.1	14	1.27	20.753034	-12.745036	-9.955331	31.489142	-9.9904895	31.995257	46.309327	-75.992245	13.94	0.0051693414	0.002038543	-0.037669294	-0.24499253	0.029003261	0.1092006	0.023269655	-0.025736381	-0.7002784	-1.0711007	1.238904	0.72193876	-1.2532564	-0.76015225	5.5554264	-8.2265445	1.29	0.638	0.14	-0.34352928	0.09502764	0.0025104623	1.9796396	1.9534318	0.0020426664	1.9504313	0.0012992135	0.028147965	1.9493661	1.0863656	-0.0022033569	0.00080711735	-0.30793744	0.11409023	-0.34219677	0.041275079	-0.0057717358	0.00064901778	0.21594177	0.5098347	-0.79597593	-0.17784118	0.82200358	0.15354749	-0.60952178	0.95756812	0.56098067	0.031277833	0.0025088725	0.020326403	0.046280421	0.0020411096	0.04915912	0.0012989117	0.028060587	0.049825156	0.033439199	3.2293056	4.9446125	4.8310163	3.4227131	4.8338293	3.4293492	4.7855532	3.8478231	4.7897489	3.260844	3.5005669	4.5862591	3.5087251	4.577855	3.476939	4.4863964	-280.47451	R0:S0:1	-101.36	uncorrelated	51514b8	 5.44e+02	 1.53e-04	 1.39e-02	2022-04-11@07:30
2x2_2C_8b_C2v_L	0.1	14	1.27	23.368673	-13.618722	-10.104933	34.950879	-10.16631	35.51239	51.487871	-88.0379	13.96	0.00034254674	-0.00094166844	-0.041790172	-0.19776869	0.045990578	0.17207681	0.02527297	-0.029087466	-0.44585542	-0.97842363	1.2970763	1.0194172	-1.3045652	-1.0332364	6.3148647	-9.3768103	1.29	0.638	0.14	-0.36707412	0.10578988	0.00089896754	1.9853343	1.9516888	0.0029716656	1.9484692	0.0020669081	0.0296983	1.9499585	1.0965096	-0.00074847503	0.0028979525	-0.33991918	0.12140218	-0.38353189	0.05250568	-0.0068056764	-0.00028064414	0.13059862	0.42710849	-0.80007934	-0.22596065	0.82732257	0.19524584	-0.61735972	0.96148869	0.53567774	0.034969453	0.00089875237	0.014654251	0.048060228	0.0029686094	0.051119401	0.0020661778	0.029622807	0.049238055	0.037332254	3.1263304	4.9915366	4.9048079	3.3450099	4.9025858	3.3527266	4.887845	3.7581637	4.8804674	3.1631631	3.4358434	4.6676691	3.4460728	4.658374	3.3984631	4.5680444	-307.92079	R0:S0:1	-101.52	uncorrelated	51514b8	 4.06e+02	 9.89e-02	 1.00e+06	2022-04-11@07:32
2x2_2C_8b_C2v_L	0.1	14	1.27	23.358936	-13.582084	-10.139128	34.950513	-10.196306	35.509621	51.487583	-88.041557	13.96	-0.0030112827	-0.0014245364	-0.030211676	-0.18840572	0.050807278	0.19835327	0.025626646	-0.029298689	-0.86494708	-1.1541158	1.2802871	0.90505869	-1.2890493	-0.93575685	6.2963649	-9.3544821	1.29	0.638	0.14	-0.36806128	0.10601428	0.0033419264	1.9794099	1.9527622	0.0023829309	1.9497571	0.0016438735	0.03002553	1.9505873	1.0965744	3.1625635e-05	0.002358234	-0.34121631	0.11056684	-0.38093619	0.0397686	-0.005977069	0.00049881199	0.25099568	0.50763647	-0.79207138	-0.20161038	0.81735053	0.17334107	-0.62405952	0.95180921	0.53633939	0.03494391	0.0033389886	0.020563507	0.04698216	0.0023809402	0.04984462	0.001643482	0.029941043	0.048638954	0.03740891	3.1766136	5.0074726	4.8935729	3.346625	4.8944701	3.35187	4.8563456	3.7866646	4.8486275	3.2060945	3.4372642	4.6634824	3.4448037	4.6573783	3.4313662	4.5398008	-308.04483	R0:S0:1	-101.52	uncorrelated	51514b8	 4.14e+02	 0.00e+00	 8.54e-03	2022-04-11@07:35
2x2_2C_8b_C2v_L	0.1	14	1.27	26.137413	-14.493632	-10.363296	38.590996	-10.446315	39.20522	56.944453	-101.07875	13.98	-0.017574004	-0.0072351737	-0.010966462	-0.10117979	0.081842463	0.326152	0.027463051	-0.032350004	-1.2447316	-1.3291718	1.3218408	1.0544504	-1.3232915	-1.0810431	7.0626464	-10.545184	1.29	0.638	0.14	-0.39802378	0.12327013	0.0061372742	1.9766896	1.9526527	0.0025366462	1.9498324	0.0018482073	0.031415382	1.9515789	1.1129833	0.0045601298	0.0019809678	-0.38639083	0.10291373	-0.42852582	0.033735346	-0.0035111427	0.0024762672	0.34363779	0.53084997	-0.7788315	-0.21573284	0.80133674	0.18370255	-0.63127293	0.9495092	0.50282475	0.040190051	0.0061269061	0.023293777	0.047143309	0.0025345755	0.049806119	0.0018479085	0.031347599	0.047674823	0.043055977	3.1053265	5.1258113	4.9805822	3.2324924	4.9813793	3.2342588	4.9394762	3.7146163	4.9404153	3.1249832	3.342945	4.7779144	3.3482193	4.7764873	3.3738086	4.606954	-338.04246	R0:S0:1	-101.68	uncorrelated	51514b8	 3.18e+02	 3.33e-03	 1.00e+06	2022-04-11@07:37
2x2_2C_8b_C2v_L	0.1	14	1.27	26.137607	-14.493087	-10.363549	38.590993	-10.446538	39.205216	56.944399	-101.07879	13.98	-0.016875166	-0.0086733286	-0.01241661	-0.10073781	0.081524779	0.32610332	0.027296194	-0.032495534	-1.2370418	-1.3422861	1.3180665	1.055188	-1.3198292	-1.0818209	7.0636115	-10.544395	1.29	0.638	0.14	-0.39682316	0.12196213	0.0060191527	1.9760816	1.9528526	0.0025303107	1.9499039	0.0018440207	0.031588602	1.9517354	1.1116848	0.0031365224	0.0050337381	-0.38248084	0.10249381	-0.42685053	0.033560375	-0.0055035308	0.00078552957	0.33976485	0.53927832	-0.77807035	-0.21532165	0.80198525	0.18330323	-0.63430899	0.9466237	0.5047833	0.039802206	0.0060092386	0.023897552	0.046941809	0.0025282543	0.049728918	0.0018437212	0.031516083	0.047525656	0.042666599	3.1213088	5.1131864	4.974526	3.2397215	4.9726124	3.2437459	4.9276364	3.7256827	4.923684	3.1426745	3.34825	4.7707093	3.3556011	4.7669722	3.3859552	4.595744	-338.0405	R0:S0:1	-101.68	uncorrelated	51514b8	 3.32e+02	 0.00e+00	 4.93e-03	2022-04-11@07:40
2x2_2C_8b_C2v_L	0.1	14	1.27	29.089034	-15.478051	-10.628586	42.410574	-10.7412	43.082038	62.679782	-115.10393	14	-0.036422309	-0.019713919	0.016166244	0.017938159	0.12151177	0.49238989	0.028299599	-0.035314746	-1.8168486	-1.6353986	1.3522726	1.1723998	-1.3454624	-1.1984053	7.8569683	-11.796445	1.29	0.638	0.14	-0.43642084	0.15273295	0.011893561	1.9708523	1.954547	0.0025680268	1.9516267	0.0019478761	0.032236359	1.9522326	1.1415723	0.0091968834	0.0048004518	-0.44069258	0.093580102	-0.48779811	0.027571562	-0.0015816726	0.0037800553	0.4860759	0.57541096	-0.73913193	-0.2244311	0.76171354	0.18825225	-0.62942484	0.95306217	0.45359374	0.047866019	0.01185213	0.029172762	0.045359659	0.0025661636	0.04810323	0.0019479052	0.032210161	0.047039115	0.051288145	2.9966295	5.3340797	5.1243811	3.0374808	5.1191821	3.0412036	5.0488172	3.6216981	5.0893783	2.9976628	3.1777799	4.9726404	3.1869939	4.9705844	3.2942294	4.7000842	-370.51881	R0:S0:1	-101.84	uncorrelated	51514b8	 2.69e+02	 1.21e-01	 1.00e+06	2022-04-11@07:42
2x2_2C_8b_C2v_L	0.1	14	1.27	29.110011	-15.532459	-10.624849	42.410804	-10.732066	43.08184	62.677338	-115.10321	14	-0.030907621	-0.015478527	0.017927258	0.034437951	0.12770353	0.50573435	0.028297706	-0.034719419	-1.2870534	-1.3792924	1.3543578	1.1946571	-1.3522469	-1.245433	7.8739159	-11.815994	1.29	0.638	0.14	-0.41725796	0.13491677	0.0057363124	1.9784491	1.9527536	0.0025239515	1.9494046	0.0020525796	0.032650375	1.9524916	1.1242658	0.0052496222	0.0082532904	-0.4208886	0.08824064	-0.47262402	0.022867413	-0.0058025113	0.00028985924	0.33495859	0.50470178	-0.76699881	-0.22039339	0.79316314	0.19036548	-0.63740787	0.94665527	0.47955713	0.043528529	0.0057268953	0.021548268	0.047064365	0.0025222401	0.050218224	0.0020525044	0.032599427	0.046785643	0.046592594	3.0328963	5.1831524	5.0458449	3.145339	5.0390283	3.1523187	5.010285	3.651678	5.0095177	3.0566678	3.270048	4.8653005	3.2809994	4.8604608	3.3251455	4.6637849	-370.29594	R0:S0:1	-101.84	uncorrelated	51514b8	 3.01e+02	 2.28e-04	 1.26e-02	2022-04-11@07:45
2x2_2C_8b_C2v_L	0.1	14	1.27	32.276141	-16.700216	-10.923149	46.409937	-11.052934	47.139488	68.686266	-130.11491	14.02	-0.045102723	-0.021866788	0.060037983	0.21732298	0.1884905	0.73745074	0.028906641	-0.035742277	-1.0148899	-1.2651405	1.387526	1.3237977	-1.385778	-1.4267857	8.7292627	-13.167677	1.29	0.638	0.14	-0.4303577	0.14472694	0.0031391362	1.9845766	1.9524394	0.0024224178	1.9481827	0.0022916295	0.033359932	1.9530094	1.1340083	0.0057030837	0.014195022	-0.45562908	0.069139134	-0.51911632	0.0089509454	-0.010250566	-0.0035609746	0.25025316	0.42121821	-0.75961615	-0.21806013	0.79143139	0.1948435	-0.63593114	0.94958529	0.46093786	0.046242683	0.0031361978	0.015429766	0.047371462	0.0024213009	0.051384544	0.0022919135	0.033335951	0.046272886	0.04935348	2.9207451	5.2261207	5.1030333	3.0696623	5.0902434	3.0808693	5.0965908	3.5716647	5.1022228	2.9529078	3.2080031	4.9414604	3.2244468	4.9347043	3.256663	4.7367249	-404.83155	R0:S0:1	-102	uncorrelated	51514b8	 2.85e+02	 5.15e-02	 1.00e+06	2022-04-11@07:48
2x2_2C_8b_C2v_L	0.1	14	1.27	32.270898	-16.67923	-10.921838	46.41109	-11.054324	47.140713	68.687832	-130.11311	14.02	-0.048104127	-0.022689558	0.063640056	0.23335543	0.19391055	0.75391411	0.028402306	-0.035394061	-1.2397113	-1.3732921	1.386734	1.334016	-1.380688	-1.417223	8.7329182	-13.172664	1.29	0.638	0.14	-0.43519957	0.14877404	0.0047065225	1.9819111	1.952673	0.0024591309	1.9485723	0.0022625726	0.033448236	1.9529783	1.137889	0.0069622432	0.012355707	-0.46332648	0.069315516	-0.52579835	0.0079570149	-0.0068112045	-0.00089087529	0.30666841	0.45493545	-0.75432995	-0.22020767	0.78506583	0.19312858	-0.63675681	0.94986531	0.45468369	0.047152622	0.0046999037	0.018099124	0.047151216	0.0024580255	0.051006822	0.002262931	0.033427397	0.046305566	0.050373331	2.9254253	5.2566599	5.1216958	3.0432995	5.1066937	3.0561362	5.0981376	3.5731592	5.108907	2.9537143	3.1854628	4.9679045	3.2035959	4.959354	3.2582784	4.7374035	-404.90259	R0:S0:1	-102	uncorrelated	51514b8	 2.83e+02	 8.28e-05	 3.54e-03	2022-04-11@07:50
2x2_2C_8b_C2v_L	0.1	14	1.27	35.620258	-17.933357	-11.254373	50.591864	-11.413267	51.381841	74.976055	-146.10837	14.04	-0.068506092	-0.030228152	0.12580373	0.4957971	0.28105371	1.0704737	0.027060341	-0.034960431	-1.0955751	-1.3243309	1.4172719	1.4728328	-1.4056964	-1.5970112	9.6379306	-14.616586	1.29	0.638	0.14	-0.44967422	0.16415717	0.0032747794	1.9859136	1.9523025	0.0023952164	1.9472541	0.0025108839	0.033925898	1.9531935	1.1531099	0.008724282	0.01630603	-0.5111392	0.047657367	-0.58633358	-0.0094033556	-0.008089439	-0.0023688584	0.25890462	0.39331451	-0.74214005	-0.21575049	0.77753974	0.19283875	-0.63163294	0.95666029	0.43057658	0.050686986	0.0032714314	0.014101963	0.04750484	0.0023948534	0.052242957	0.0025119162	0.033944978	0.046087027	0.054040466	2.7926094	5.3466805	5.2021411	2.9344828	5.1788529	2.9521083	5.193849	3.4873448	5.2307966	2.8253352	3.0963581	5.0779889	3.1219129	5.0669776	3.1823328	4.8191325	-441.88629	R0:S0:1	-102.16	uncorrelated	51514b8	 2.68e+02	 1.12e-01	 1.00e+06	2022-04-11@07:53
2x2_2C_8b_C2v_L	0.1	14	1.27	35.610146	-17.891332	-11.244789	50.593043	-11.408716	51.383468	74.976923	-146.10804	14.04	-0.073227582	-0.037591265	0.13878075	0.53161936	0.29697455	1.1094924	0.026802316	-0.034364577	-1.5842245	-1.5582804	1.4245944	1.525961	-1.4029416	-1.6112308	9.6446884	-14.62481	1.29	0.638	0.14	-0.45958287	0.17702918	0.0069797379	1.9809486	1.9522819	0.0026096057	1.9474886	0.0025697552	0.033834905	1.9529447	1.1656306	0.0091220264	0.018981102	-0.53418047	0.051535468	-0.60966595	-0.0068170094	-0.0065930369	-0.0012478575	0.37992566	0.4517908	-0.73115837	-0.22695899	0.76366546	0.19665607	-0.6285507	0.96115911	0.41370448	0.053015094	0.0069642856	0.019088986	0.047559077	0.002609265	0.052032863	0.0025710974	0.033872509	0.04633107	0.056627157	2.7739883	5.4395804	5.2642842	2.8538822	5.2381764	2.8700838	5.2163337	3.4731101	5.2750966	2.7964688	3.0293935	5.1593213	3.0550196	5.1493159	3.1676049	4.8386104	-442.07453	R0:S0:1	-102.16	uncorrelated	51514b8	 2.63e+02	 1.35e-04	 5.68e-03	2022-04-11@07:55
2x2_2C_8b_C2v_L	0.1	14	1.27	39.127766	-19.168796	-11.593706	54.956663	-11.795216	55.810102	81.544608	-163.08801	14.06	-0.10623207	-0.060261064	0.24319755	0.92929607	0.43697648	1.5724879	0.023984998	-0.03124899	-2.3202188	-1.9341684	1.4676852	1.7705251	-1.4193096	-1.8273527	10.609306	-16.172349	1.29	0.638	0.14	-0.47656407	0.2371304	0.014513889	1.9785857	1.9528852	0.0031196743	1.9467981	0.0030704369	0.032671313	1.9516705	1.2251856	0.0120313	0.026915764	-0.63328409	0.041128871	-0.72880071	-0.013147922	-0.0035410407	0.00046561943	0.56889291	0.43872128	-0.67030465	-0.2497953	0.70493692	0.21187363	-0.59369498	0.99584004	0.35554237	0.060264835	0.014438193	0.021559801	0.04706997	0.0031208442	0.052725677	0.0030744364	0.03284292	0.047549106	0.064467119	2.44313	5.8686454	5.5628794	2.4746094	5.5151055	2.4965746	5.4401098	3.2845899	5.6462752	2.431285	2.7136211	5.5427803	2.757535	5.5289167	2.9815102	5.0362999	-481.9101	R0:S0:1	-102.32	uncorrelated	51514b8	 2.46e+02	 7.68e-02	 1.00e+06	2022-04-11@07:58
2x2_2C_8b_C2v_L	0.1	14	1.27	39.141313	-19.203246	-11.59215	54.956058	-11.790679	55.809933	81.542233	-163.08688	14.06	-0.098385252	-0.053825096	0.25452655	0.93937051	0.44889356	1.5802312	0.023934606	-0.031339242	-1.9795215	-1.7816215	1.4653156	1.7749262	-1.4196055	-1.8374699	10.618245	-16.187297	1.29	0.638	0.14	-0.47689231	0.21788119	0.010128283	1.9805252	1.9508482	0.0030185705	1.9447376	0.0030294651	0.033506892	1.9522148	1.2060196	0.0096026806	0.027290146	-0.63179921	0.036445019	-0.72657533	-0.018933531	-0.0069464243	-0.0021370709	0.46926179	0.43282664	-0.70061556	-0.24167502	0.7356474	0.20441074	-0.60832489	0.98400694	0.36820443	0.058585753	0.010092976	0.01956357	0.048988834	0.003019674	0.054647608	0.0030329436	0.033639364	0.047026346	0.062630879	2.5433691	5.7084746	5.4668191	2.5864762	5.4227113	2.6062286	5.3783843	3.3370501	5.5228399	2.5551189	2.8133583	5.4307122	2.8524576	5.4187516	3.0369711	4.9794432	-481.75824	R0:S0:1	-102.32	uncorrelated	51514b8	 2.51e+02	 2.50e-04	 1.24e-02	2022-04-11@08:01
2x2_2C_8b_C2v_L	0.1	14	1.27	42.864398	-20.615006	-11.964041	59.500126	-12.200289	60.420106	88.383514	-181.04977	14.08	-0.12356629	-0.071393246	0.41039997	1.4566256	0.64918921	2.1661485	0.019778496	-0.026335506	-2.4256105	-2.0428752	1.5073467	2.0812881	-1.4297204	-2.096211	11.65739	-17.857224	1.29	0.638	0.14	-0.47080321	0.27279941	0.014458181	1.9813696	1.9481966	0.0038026041	1.9396909	0.0037288299	0.03239204	1.9508704	1.2605844	0.0073700188	0.039265483	-0.74957063	0.024886431	-0.87458607	-0.026682062	-0.0092153718	-0.0045054947	0.58014904	0.38730513	-0.65714699	-0.27001034	0.69446706	0.22346134	-0.57545832	1.0176814	0.33170076	0.060766246	0.014378457	0.018798179	0.051622833	0.0038069099	0.059449613	0.0037370647	0.032658946	0.04831002	0.065194476	2.2111948	6.0841437	5.727839	2.2459985	5.655368	2.2650225	5.5853218	3.1642278	5.8705742	2.19799	2.546485	5.7782324	2.6072464	5.7681324	2.8651125	5.1594575	-523.99141	R0:S0:1	-102.48	uncorrelated	51514b8	 2.48e+02	 5.23e-02	 1.00e+06	2022-04-11@08:04
2x2_2C_8b_C2v_L	0.1	14	1.27	42.872335	-20.634271	-11.977858	59.501504	-12.217414	60.422551	88.382537	-181.04954	14.08	-0.11917364	-0.066575152	0.41396109	1.4616842	0.63835589	2.15121	0.019882345	-0.026354624	-2.2426263	-1.9401882	1.4831495	2.0009001	-1.3970219	-1.9864803	11.663099	-17.866272	1.29	0.638	0.14	-0.47675735	0.26418002	0.012180554	1.9826695	1.9486312	0.0034161536	1.9417232	0.0033473222	0.032609207	1.9509939	1.2521121	0.0090777209	0.033653667	-0.74512594	0.018843722	-0.85357347	-0.034664209	-0.0066988992	-0.0026148222	0.52995563	0.37941493	-0.6618529	-0.25104588	0.69219179	0.20058103	-0.57940478	1.0146795	0.33391239	0.060915436	0.01212483	0.017463146	0.051129928	0.0034201241	0.057435662	0.003354147	0.032861558	0.048190348	0.065239922	2.2446555	6.0171184	5.6850577	2.2883694	5.6190461	2.3111095	5.5670795	3.1784561	5.8263782	2.2427168	2.5794634	5.7342593	2.6333164	5.7201835	2.8796401	5.1430577	-523.87048	R0:S0:1	-102.48	uncorrelated	51514b8	 2.46e+02	 8.66e-05	 6.29e-03	2022-04-11@08:07
2x2_2C_8b_C2v_L	0.1	14	1.27	46.803222	-22.184407	-12.401849	64.229384	-12.688906	65.221321	95.497997	-199.99594	14.1	-0.13564364	-0.075747855	0.61680061	2.0987641	0.86533296	2.8224674	0.01433754	-0.019642396	-2.3734087	-2.0341383	1.4792073	2.2035897	-1.3353291	-2.0582568	12.776754	-19.663667	1.29	0.638	0.14	-0.45532513	0.30819	0.012703714	1.9861205	1.944309	0.0038743189	1.9369451	0.0036192615	0.031597642	1.9496693	1.2959765	0.0076959369	0.038471463	-0.87138041	-0.0022943289	-0.98801467	-0.055466081	-0.0039825031	-0.0013317208	0.55713275	0.31094947	-0.62471842	-0.25648723	0.64639847	0.18564077	-0.55002445	1.0456715	0.31832377	0.058970256	0.012638293	0.014021483	0.055234023	0.0038829887	0.061805293	0.0036304986	0.031973756	0.049451018	0.063421315	1.9194586	6.3262308	5.8717196	2.0151317	5.7771543	2.0464448	5.7480764	3.0275231	6.1441829	1.9031594	2.3839356	6.0154463	2.4570632	5.9929574	2.7275204	5.297554	-568.43356	R0:S0:1	-102.64	uncorrelated	51514b8	 2.45e+02	 2.20e-03	 1.00e+06	2022-04-11@08:10
2x2_2C_8b_C2v_L	0.1	14	1.27	46.803162	-22.184597	-12.401834	64.229431	-12.688876	65.221373	95.498018	-199.99592	14.1	-0.13573253	-0.075512052	0.6230942	2.096357	0.87083468	2.8197651	0.014430481	-0.019576408	-2.3756181	-2.0300953	1.4774991	2.2030006	-1.3324599	-2.0584233	12.77638	-19.663958	1.29	0.638	0.14	-0.45329031	0.31418285	0.012854139	1.9865001	1.944446	0.0038897188	1.9371466	0.0036250228	0.031243248	1.9494307	1.3020516	0.0082031941	0.037380322	-0.8798672	0.00025895881	-0.99533343	-0.052396709	-0.0052004134	-0.0022216706	0.56219454	0.30321718	-0.61640877	-0.25963044	0.6357578	0.190078	-0.54410712	1.0505291	0.3166196	0.058475624	0.012786623	0.013642706	0.055112936	0.0038986179	0.061625382	0.00363666	0.031632557	0.049678402	0.062891063	1.8826988	6.3625896	5.8995726	1.976046	5.809409	2.0030288	5.77134	3.0072454	6.1805236	1.8635353	2.3516898	6.0541405	2.4221274	6.0362219	2.7050919	5.318477	-568.44172	R0:S0:1	-102.64	uncorrelated	51514b8	 2.45e+02	 0.00e+00	 3.99e-03	2022-04-11@08:12
2x2_2C_8b_C2v_L	0.1	14	1.27	50.933784	-23.854196	-12.864078	69.139842	-13.205043	70.206401	102.88866	-219.92603	14.12	-0.14802897	-0.080710801	0.88245833	2.8431763	1.1465496	3.5858583	0.0077994452	-0.010839615	-2.3786842	-2.051503	1.448141	2.3813067	-1.2262596	-2.0531781	13.958321	-21.580144	1.29	0.638	0.14	-0.39934717	0.36543133	0.012130721	1.9909447	1.9374893	0.0045947128	1.9297433	0.0040144316	0.029712468	1.9477592	1.3532478	0.0070479661	0.038739328	-1.0357962	-0.020388628	-1.1535582	-0.072756065	-0.00019313194	0.00066280439	0.56484161	0.21608632	-0.55829133	-0.27407366	0.56532819	0.17835717	-0.50754657	1.087129	0.31922164	0.050488462	0.012065766	0.0091704058	0.061688211	0.0046118893	0.068396136	0.0040333148	0.030246808	0.051267274	0.054797045	1.4629054	6.7450855	6.0848606	1.6738635	5.9600048	1.7168579	5.9727451	2.8412037	6.5831988	1.4249498	2.1629856	6.3673474	2.2630454	6.3338925	2.5326533	5.4882107	-615.52631	R0:S0:1	-102.8	uncorrelated	51514b8	 2.44e+02	 5.58e-02	 1.00e+06	2022-04-11@08:16
