model	D	U	e	eb1_1	eb2_1	eb3_1	eb4_1	eb5_1	eb6_1	eb7_1	eb8_1	mu	sb1_1	sb2_1	sb3_1	sb4_1	sb5_1	sb6_1	sb7_1	sb8_1	tb1_1	tb2_1	tb3_1	tb4_1	tb5_1	tb6_1	tb7_1	tb8_1	tpd	tpp	tppp	ave_D_1	ave_U_1	ave_eb1_1	ave_eb2_1	ave_eb3_1	ave_eb4_1	ave_eb5_1	ave_eb6_1	ave_eb7_1	ave_eb8_1	ave_mu_1	ave_sb1_1	ave_sb2_1	ave_sb3_1	ave_sb4_1	ave_sb5_1	ave_sb6_1	ave_sb7_1	ave_sb8_1	ave_tb1_1	ave_tb2_1	ave_tb3_1	ave_tb4_1	ave_tb5_1	ave_tb6_1	ave_tb7_1	ave_tb8_1	var_D_1	var_U_1	var_eb1_1	var_eb2_1	var_eb3_1	var_eb4_1	var_eb5_1	var_eb6_1	var_eb7_1	var_eb8_1	var_mu_1	var_sb1_1	var_sb2_1	var_sb3_1	var_sb4_1	var_sb5_1	var_sb6_1	var_sb7_1	var_sb8_1	var_tb1_1	var_tb2_1	var_tb3_1	var_tb4_1	var_tb5_1	var_tb6_1	var_tb7_1	var_tb8_1	E0_1	sector_1	E0_2	sector_2	githash	distance	diff_param	diff_hybrid	time
2x2_2C_8b_C2v_L	0.1	14	1.79	0.0086839677	-3.1445289	-3.9164807	-0.13437878	-3.9164407	-0.13437791	0.17455273	-3.5797676	9.5	2.7540906e-05	-4.0887161e-07	0.0069035686	-0.19307525	0.0069033966	-0.1930765	-1.0933969e-05	2.552128e-06	-0.11908613	-1.0874005	1.7341014	0.025163995	-1.7340927	-0.025176042	0.26343251	-2.2991102	1.27	0.63	0.15	-0.043147346	0.13185934	0.13421925	1.9448554	1.7869546	1.7424987	1.7869547	1.7424904	0.014822092	1.5535603	1.1008188	-0.00021138519	4.8997281e-06	-0.089139665	1.0540974	-0.08914898	1.0541112	5.4070961e-05	1.7094806e-06	1.1156655	0.68220327	-1.63106	-0.23423063	1.6310533	0.23426454	-0.29478323	2.5541081	0.49216735	0.028620018	0.12477011	0.054151931	0.19480515	0.24591229	0.19480509	0.24591848	0.015064876	0.34634959	0.037277038	3.4589435	5.5445757	5.2979213	4.7343742	5.2979243	4.7343959	4.3935201	6.1467328	5.1373309	2.6768226	3.517	4.9129945	3.5169883	4.9129967	3.6850728	3.1699116	-73.504326	R0:S0:1	-61.68	uncorrelated	51514b8	 2.06e+01	 8.07e-01	 1.00e+06	2022-04-08@19:19
2x2_2C_8b_C2v_L	0.1	14	1.79	0.062643815	-4.9541008	-5.8348908	-0.034889604	-5.8349033	-0.034797027	0.02515704	-5.4227414	9.5	0.029827517	3.5741285e-05	0.0038401789	0.0048217031	0.003839336	0.0048188046	0.054454532	-1.6349269e-05	-0.00017186839	-0.76708266	1.1817231	-0.04440798	-1.1817264	0.044404342	0.00018768574	-1.4861117	1.27	0.63	0.15	-0.04728238	0.049748997	0.00011149013	1.9802377	1.9546299	1.9996654	1.9546299	1.9996654	0.00050570821	1.915076	1.0492726	-0.039264338	-2.842696e-05	-0.047423528	-0.0027535817	-0.047422651	-0.0027554933	-0.090645646	1.2431557e-05	0.00031745929	0.52358311	-0.83194226	0.066914316	0.83194209	-0.066909867	-0.00020369035	1.1814555	0.70583216	0.011915317	0.0001115508	0.019699833	0.044872361	0.00033885772	0.044872391	0.00033894028	0.00050971184	0.082643602	0.011906568	3.4687897	4.6749931	4.5214311	4.1853357	4.5214357	4.1853395	4.1099214	4.5272338	4.532185	3.4979983	3.8278968	3.8172331	3.8278929	3.8172295	3.893369	4.0245834	-84.386146	R0:S0:1	-61.68	uncorrelated	51514b8	 9.09e-01	 2.31e-01	 1.74e+00	2022-04-08@19:22
2x2_2C_8b_C2v_L	0.1	14	1.79	0.067533072	-5.6637055	-6.3919961	-0.041104742	-6.3919831	-0.040967736	0.04415157	-5.8004351	9.5	-0.00030394719	5.1647442e-07	0.0018783984	0.00054081118	0.0018790531	0.00055192998	-0.0059097686	-1.619239e-05	-2.1702814e-05	-0.80794733	1.2289476	-0.0049765898	-1.2289349	0.0056073593	0.00055456136	-1.5307892	1.27	0.63	0.15	-0.046839196	0.048520079	1.1556003e-08	1.9808896	1.9556604	1.9999963	1.9556619	1.9999953	5.8556091e-06	1.9161461	1.0480371	0.00039874865	-5.9409201e-06	-0.044827425	-0.00022031628	-0.04482822	-0.00017571584	0.0097945847	1.3744612e-05	3.4556818e-05	0.51501123	-0.82304374	0.0074758041	0.82302621	-0.0084287442	-0.00052993935	1.1750953	0.70713269	0.011636116	1.1556004e-08	0.01905141	0.043863499	3.6951273e-06	0.043862068	4.6894206e-06	5.8562039e-06	0.081630269	0.011623114	3.4702982	4.6687243	4.5093864	4.1783176	4.5094088	4.1783586	4.1177326	4.5131431	4.5297019	3.4986833	3.8325869	3.8217112	3.8325564	3.821678	3.8823057	4.0323133	-88.864113	R0:S0:1	-61.68	uncorrelated	51514b8	 8.73e-01	 1.16e-04	 3.00e-02	2022-04-08@19:25
2x2_2C_8b_C2v_L	0.1	14	1.79	0.067533074	-5.6639531	-6.3920969	-0.041105912	-6.3920849	-0.040969619	0.044153868	-5.8004915	10	-0.00027032351	8.7551915e-08	0.001850601	0.00052108893	0.0018523536	0.00052923857	-0.00578671	4.7398808e-06	-1.9894258e-05	-0.80774899	1.2287198	-0.0048129419	-1.2287051	0.0054005629	0.00054199905	-1.5307266	1.27	0.63	0.15	-0.048494069	0.052852158	1.0856617e-08	1.9793745	1.9519188	1.9999958	1.9519203	1.9999947	6.8580705e-06	1.9082007	1.0523498	0.00038475687	-1.1317614e-06	-0.04707643	-0.00014667033	-0.047077036	-9.7684284e-05	0.010604705	-1.4359774e-06	3.0457466e-05	0.53223113	-0.85529161	0.0079548485	0.85527656	-0.0089317835	-0.00049134978	1.2292951	0.70372127	0.012627343	1.0856617e-08	0.020559664	0.047522552	4.1973202e-06	0.047521156	5.284918e-06	6.8588566e-06	0.089096555	0.012603143	3.4339332	4.7149558	4.5509628	4.1938782	4.5509711	4.1939045	4.1161949	4.5696335	4.5660669	3.4665733	3.8190901	3.8061545	3.8190728	3.8061367	3.883849	4.0177995	-90.964842	R0:S0:1	-65.68	uncorrelated	51514b8	 1.15e+00	 1.42e-01	 1.00e+06	2022-04-08@19:29
2x2_2C_8b_C2v_L	0.1	14	1.79	0.06753659	-5.837863	-6.6133559	-0.042487274	-6.6134458	-0.042526614	0.04492343	-6.3959733	10	-1.8167249e-05	-9.944453e-08	0.0019610071	0.00025737835	0.0019730996	8.2990055e-05	-0.0020629364	1.1470687e-05	-4.0394925e-05	-0.79150438	1.2057059	0.00012576746	-1.2057099	0.00095452152	-0.0011751633	-1.5426275	1.27	0.63	0.15	-0.048548617	0.048906186	2.8225576e-10	1.9805473	1.9551445	2	1.9551446	1.9999998	9.669455e-07	1.9163007	1.0484306	2.6265477e-05	3.6592809e-06	-0.04525255	-0.00030838111	-0.045257613	-1.8483369e-06	0.0038022366	-8.6957346e-06	5.7854229e-05	0.51933559	-0.82751603	-0.00023640646	0.82751685	-0.00159445	0.001050836	1.1744612	0.70649885	0.011737965	2.8225576e-10	0.019392013	0.044367924	1.0458189e-08	0.044367832	1.673864e-07	9.6727548e-07	0.081479199	0.011715139	3.466631	4.6747411	4.5157564	4.1810827	4.5157414	4.1810686	4.1206298	4.5095024	4.533369	3.495735	3.8301455	3.8189174	3.8301583	3.8189327	3.8793766	4.0346848	-93.285492	R0:S0:1	-65.68	uncorrelated	51514b8	 1.15e+00	 1.72e-02	 5.52e-02	2022-04-08@19:32
2x2_2C_8b_C2v_L	0.1	14	1.79	0.067537161	-5.8845757	-6.65642	-0.042494015	-6.656732	-0.042704535	0.04623701	-6.3639844	10	3.8110877e-05	-2.503781e-06	0.001915104	0.00068607351	0.0019223563	-7.8596325e-05	0.0060355414	-0.00012635239	-1.2994445e-05	-0.79436589	1.2094496	0.00031633838	-1.2094865	-0.0014246645	0.0036873438	-1.5387512	1.27	0.63	0.15	-0.048535527	0.048875296	2.4803986e-10	1.9805685	1.9552196	1.9999999	1.95522	1.9999996	8.4057558e-06	1.9162467	1.0484025	-5.5151835e-05	-1.2130084e-05	-0.045163549	-0.000819916	-0.0451678	-4.9124722e-05	-0.011118567	7.8212731e-05	1.864886e-05	0.51912202	-0.82686136	-0.00059839913	0.82685451	0.0023836895	-0.0032942687	1.1746852	0.7065638	0.011731032	2.4803986e-10	0.019370829	0.04429433	7.3129299e-08	0.044293943	3.7414714e-07	8.4319616e-06	0.081531109	0.011708801	3.4675629	4.6736817	4.5149098	4.1807605	4.5149342	4.1807912	4.1195461	4.5108578	4.5324371	3.496574	3.8304158	3.81924	3.8303907	3.8192117	3.8805095	4.0337823	-93.489095	R0:S0:1	-65.68	uncorrelated	51514b8	 1.15e+00	 0.00e+00	 7.62e-04	2022-04-08@19:34
2x2_2C_8b_C2v_L	0.1	14	1.79	0.067541249	-6.1051982	-6.920743	-0.043882118	-6.921379	-0.044439451	0.048320152	-6.9274773	10.5	0.00034654526	-5.095114e-06	0.0019796069	0.00085105809	0.0019923589	-0.00068643122	0.017857793	-0.00025744466	-6.0946316e-06	-0.7809828	1.1901794	0.0054456187	-1.1902679	-0.0082498919	0.0068326886	-1.5467757	1.27	0.63	0.15	-0.051224901	0.049308801	2.3121404e-08	1.9802187	1.954746	1.9999928	1.9547387	1.9999841	8.7221643e-05	1.9163369	1.0488419	-0.0005591599	2.3110223e-05	-0.046720045	-0.0015120223	-0.04672513	-0.00016728748	-0.037029381	0.00010954216	9.2005902e-06	0.52353923	-0.830891	-0.010368225	0.83099136	0.015488536	-0.0057599734	1.1743279	0.70583842	0.011849729	2.3121405e-08	0.019718764	0.044757644	7.2380683e-06	0.044764567	1.5892488e-05	8.8446304e-05	0.081442639	0.011819969	3.4644195	4.6792434	4.5210663	4.1838154	4.5208213	4.183543	4.1212698	4.5086474	4.5355807	3.4941364	3.8278094	3.8162408	3.828071	3.816581	3.8792893	4.0352156	-98.114368	R0:S0:1	-69.68	uncorrelated	51514b8	 1.75e+00	 4.13e-03	 1.00e+06	2022-04-08@19:38
2x2_2C_8b_C2v_L	0.1	14	1.79	0.067541262	-6.1089415	-6.9250902	-0.043888554	-6.9257551	-0.044471823	0.049349306	-6.9245799	10.5	-0.0001303632	-1.6178767e-06	0.0019902851	-4.9654304e-06	0.0020013369	0.00011989944	0.0054039638	-2.0197015e-05	8.3861703e-07	-0.78250771	1.1925315	-0.0012134498	-1.1925064	0.002139992	0.0020332302	-1.545244	1.27	0.63	0.15	-0.05120385	0.049324285	3.1994556e-09	1.9801424	1.9546185	1.9999997	1.9546293	1.9999989	7.8532195e-06	1.9164779	1.0488608	0.00021036282	-3.5044371e-06	-0.046771878	0.00013828825	-0.046772211	0.00010656452	-0.011197788	1.9194904e-05	-1.1333347e-06	0.52467053	-0.83204319	0.002288491	0.83192436	-0.0040208404	-0.0017093665	1.1731923	0.70572428	0.011852946	3.1994556e-09	0.019794444	0.044882102	3.4466589e-07	0.044871593	1.0644551e-06	7.8627621e-06	0.081310897	0.011823675	3.4660014	4.6782403	4.5221323	4.1839462	4.5222262	4.1841306	4.120289	4.5086408	4.5339986	3.4957223	3.8276171	3.8160565	3.8274629	3.8158777	3.879762	4.0347236	-98.13577	R0:S0:1	-69.68	uncorrelated	51514b8	 1.75e+00	 0.00e+00	 2.40e-03	2022-04-08@19:41
2x2_2C_8b_C2v_L	0.1	14	1.79	0.067545377	-6.3370507	-7.1981076	-0.04528953	-7.1991544	-0.046271484	0.053490757	-7.4822781	11	-0.00077574574	2.745265e-06	0.0020761445	-0.0015520279	0.0020892955	0.0011247259	-0.007681443	0.000323206	2.1604928e-05	-0.77217445	1.1779655	-0.0094023063	-1.1777647	0.016094532	-0.0044203418	-1.550205	1.27	0.63	0.15	-0.055103656	0.049903624	1.4606376e-07	1.9796116	1.9538783	1.9999722	1.9538916	1.9999214	2.1343379e-05	1.9168449	1.0494492	0.0014164136	8.9567738e-05	-0.049795039	0.0027692098	-0.049794982	0.00095265242	0.018181596	-0.0002437281	-2.7118389e-05	0.53160348	-0.83827835	0.020405917	0.83821857	-0.034445531	0.0035285361	1.1705903	0.7045326	0.012013625	1.460638e-07	0.020322	0.04560616	2.7793217e-05	0.045592916	7.8758548e-05	2.1467724e-05	0.080964174	0.011979166	3.4655242	4.6824876	4.531627	4.1888703	4.530989	4.1885561	4.1200263	4.5064056	4.5344771	3.4960422	3.8234989	3.8113456	3.8239565	3.8120568	3.8801117	4.0351788	-102.80513	R0:S0:1	-73.68	uncorrelated	51514b8	 2.82e+00	 4.37e-03	 1.00e+06	2022-04-08@19:45
2x2_2C_8b_C2v_L	0.1	14	1.79	0.067545489	-6.3391166	-7.2009641	-0.045337888	-7.2020322	-0.046607051	0.053602815	-7.4799848	11	3.1024629e-05	-2.3727916e-07	0.0021373145	-0.00021445716	0.002179612	-9.5942802e-05	-0.0088383773	-0.0002147606	3.505308e-06	-0.77242207	1.1779318	0.00042504845	-1.1779791	-0.002052941	-0.0052395164	-1.5502464	1.27	0.63	0.15	-0.055130565	0.049883541	2.3415041e-10	1.9796085	1.9538928	1.9999999	1.9539014	1.9999987	2.8145963e-05	1.9168087	1.0494289	-5.6641733e-05	-1.9729377e-05	-0.049847269	0.00015834879	-0.049860789	-0.00016862006	0.020916374	0.00012501678	-4.191639e-06	0.53163331	-0.83821325	-0.00088602149	0.83811797	0.0043988821	0.0041696392	1.1708397	0.70459147	0.012009208	2.3415041e-10	0.02032512	0.04559181	5.496093e-08	0.045583462	1.2780544e-06	2.8376814e-05	0.080998401	0.011974753	3.4653851	4.6826457	4.5309548	4.1880443	4.5310417	4.1882087	4.1199816	4.5066923	4.5346149	3.4959161	3.8240345	3.8119561	3.8239001	3.8118013	3.8801999	4.0350857	-102.81679	R0:S0:1	-73.68	uncorrelated	51514b8	 2.82e+00	 0.00e+00	 1.48e-03	2022-04-08@19:48
2x2_2C_8b_C2v_L	0.1	14	1.79	0.067549841	-6.5751007	-7.4840417	-0.046842016	-7.4855633	-0.04911022	0.058997537	-8.030199	11.5	0.00052227436	1.6380115e-06	0.0023561921	5.7598315e-05	0.0024571817	-0.00072612306	-0.036691482	-0.00071004314	-4.9943721e-06	-0.76410896	1.1656504	0.005231833	-1.1659047	-0.014003464	-0.018130896	-1.5537584	1.27	0.63	0.15	-0.060821157	0.05074546	9.7052307e-08	1.978971	1.9530683	1.9999884	1.9530063	1.9999183	0.00070263248	1.917249	1.0502966	-0.0011017858	0.00034636173	-0.054838167	-0.00093052845	-0.054860566	-0.0015004967	0.10131699	-2.6257023e-05	1.8658809e-05	0.53972996	-0.84491148	-0.013086398	0.84577142	0.034891037	0.014155043	1.1675517	0.70303458	0.012250301	9.705232e-08	0.020958676	0.046398983	1.1614444e-05	0.046458313	8.1781071e-05	0.00076521994	0.080582347	0.012212485	3.4635793	4.6889536	4.5428109	4.1949041	4.5406731	4.1926253	4.1181195	4.5046698	4.5364216	3.4951486	3.8181876	3.8051867	3.8204565	3.8080123	3.8859959	4.0345631	-107.53437	R0:S0:1	-77.68	uncorrelated	51514b8	 4.66e+00	 1.19e-02	 1.00e+06	2022-04-08@19:52
2x2_2C_8b_C2v_L	0.1	14	1.79	0.067549828	-6.5828323	-7.495228	-0.046838766	-7.496802	-0.049258886	0.06733511	-8.0205172	11.5	0.00011967848	-1.8777984e-05	0.0023671717	-7.8919557e-05	0.0023755654	-0.00010536871	0.0094518849	-0.00015409905	2.0874203e-06	-0.76406617	1.1663899	0.00089748695	-1.1664066	-0.0018319968	0.006555918	-1.5533155	1.27	0.63	0.15	-0.06081293	0.050576527	4.6219922e-09	1.9789942	1.953075	1.9999997	1.953092	1.9999986	4.3311069e-05	1.9171352	1.050131	-0.00025163782	1.0941298e-05	-0.0547947	-7.1001392e-05	-0.054786171	-0.00019514453	-0.025984053	7.5838249e-05	-2.1046774e-06	0.5395779	-0.84505824	-0.0022302861	0.84488121	0.0045572386	-0.0049543823	1.1683845	0.70311074	0.012212015	4.6219922e-09	0.020935421	0.046391723	3.2972066e-07	0.04637518	1.3759994e-06	4.3732006e-05	0.080691282	0.012173708	3.4653145	4.6870997	4.5410375	4.193015	4.5411211	4.1932366	4.1188013	4.5056134	4.5346856	3.4967436	3.8197287	3.8069876	3.8195457	3.8067742	3.8814759	4.034851	-107.57358	R0:S0:1	-77.68	uncorrelated	51514b8	 4.66e+00	 0.00e+00	 7.48e-03	2022-04-08@19:55
2x2_2C_8b_C2v_L	0.1	14	1.79	0.067554281	-6.8400887	-7.8078819	-0.048391189	-7.8100644	-0.052427325	0.09054619	-8.546177	12	0.00013559835	-5.7239991e-05	0.0026798568	0.00040164739	0.0025891971	9.1621726e-05	0.06027475	0.00016178764	-3.4150461e-06	-0.75744002	1.157906	0.00020386572	-1.1577887	0.0028028246	0.037419534	-1.5544513	1.27	0.63	0.15	-0.069257576	0.052032472	1.0744054e-08	1.978352	1.95225	1.9999999	1.9521179	1.9999952	0.0029387749	1.9175069	1.0515823	-0.00034051955	0.0018911419	-0.062603933	-0.00042562131	-0.062463054	0.0004819485	-0.19826238	-0.0019892783	1.6237254e-05	0.54710694	-0.85128212	-0.00070469395	0.85330447	-0.0083623715	-0.029589353	1.1653875	0.70110243	0.012619009	1.0744054e-08	0.021574084	0.047200831	7.7823407e-08	0.047326695	4.7590127e-06	0.0034216281	0.080336568	0.0125798	3.457536	4.6992782	4.5558729	4.2032721	4.549769	4.1958537	4.1138146	4.5043033	4.5424641	3.490425	3.8110558	3.7967285	3.8173834	3.8041835	3.9017758	4.032401	-112.41277	R0:S0:1	-81.68	uncorrelated	51514b8	 7.93e+00	 1.81e-02	 1.00e+06	2022-04-08@19:59
2x2_2C_8b_C2v_L	0.1	14	1.79	0.067554281	-6.8415584	-7.8100744	-0.048391294	-7.8122298	-0.052425597	0.11093884	-8.5444555	12	1.1758462e-05	-6.3040108e-05	0.0027029835	0.00016573527	0.0026798715	-2.6277385e-05	-0.012429727	-0.00045684425	-2.8297554e-06	-0.75729753	1.1574389	3.7305014e-05	-1.157605	0.00031306036	-0.0092903666	-1.5545016	1.27	0.63	0.15	-0.069219721	0.051462129	0	1.978312	1.9522267	2	1.9522338	1.9999999	0.00010280404	1.9174245	1.0510257	-2.9160675e-05	2.8652564e-05	-0.062483296	-0.00015537043	-0.062464774	9.0434519e-05	0.040276137	0.00020277037	3.0261118e-06	0.54826979	-0.85194735	-0.00014715594	0.85188177	-0.00093808618	0.0066765825	1.1660925	0.70111622	0.01248934	0	0.02161319	0.047221682	3.1858809e-09	0.047214729	5.8616541e-08	0.00010366311	0.080420361	0.01244831	3.465292	4.6920146	4.5522699	4.1993478	4.5522405	4.1993691	4.1169261	4.5054486	4.534708	3.4977343	3.8143161	3.8006523	3.8142985	3.8006314	3.8837273	4.0341381	-112.4141	R0:S0:1	-81.68	uncorrelated	51514b8	 7.92e+00	 0.00e+00	 1.96e-02	2022-04-08@20:03
2x2_2C_8b_C2v_L	0.1	14	1.79	0.067558846	-7.1152949	-8.1455032	-0.049995472	-8.1483157	-0.056107186	0.18441399	-9.0517999	12.5	-0.00029273543	-0.00013302365	0.0031447497	0.00051950733	0.0030925302	0.00014133116	-0.074483212	-0.0011229962	-1.1246219e-05	-0.75211614	1.1510788	-0.0021554973	-1.1515743	0.0043822305	-0.05277837	-1.5538047	1.27	0.63	0.15	-0.082448707	0.053905259	6.7878921e-08	1.9776826	1.951547	1.9999959	1.9511547	1.9999821	0.0058830363	1.917784	1.053453	0.00089515001	0.0040653641	-0.07490549	0.0002749504	-0.074925805	0.0011874102	0.29238245	-0.0040825295	-2.7925949e-05	0.55473329	-0.85599584	0.0077850374	0.86141321	-0.016258248	0.041099488	1.162912	0.69808471	0.013187196	6.7878934e-08	0.022239979	0.0478925	4.1204655e-06	0.048267778	1.7903374e-05	0.0064338816	0.080072022	0.013147762	3.4483128	4.7131054	4.572127	4.2166792	4.558702	4.1996606	4.1066032	4.504495	4.5516878	3.4828838	3.7998784	3.7833535	3.8143772	3.80048	3.9267404	4.0289957	-117.35016	R0:S0:1	-85.68	uncorrelated	51514b8	 1.41e+01	 2.31e-02	 1.00e+06	2022-04-08@20:07
2x2_2C_8b_C2v_L	0.1	14	1.79	0.067558846	-7.1224346	-8.1557454	-0.049990811	-8.1584765	-0.056101569	0.21331192	-9.0392872	12.5	-1.5411465e-05	-0.00013796338	0.0031890392	-5.8803417e-05	0.0031631549	0.00012877145	-0.0045151475	0.00055962657	-2.5886465e-06	-0.75204518	1.1512147	7.7275226e-06	-1.1514859	-7.6955871e-05	0.028882073	-1.5546657	1.27	0.63	0.15	-0.082334995	0.052665214	1.6652332e-10	1.9776037	1.9514469	2	1.9514402	2	4.8245734e-05	1.9173863	1.0522322	4.67592e-05	0.00011716846	-0.074718054	4.7627031e-05	-0.074724023	-0.00013397795	0.017348929	-0.00031028481	2.6211268e-06	0.5570387	-0.85789732	-1.0022944e-05	0.85800601	0.0003250478	-0.01962284	1.1661468	0.69819337	0.012905175	1.6652332e-10	0.022316855	0.047985795	1.4975843e-10	0.047992126	7.9246432e-09	4.8744769e-05	0.080459967	0.012863224	3.464135	4.6982761	4.5644275	4.2079004	4.5640589	4.2074623	4.1156616	4.5075318	4.535865	3.4977694	3.8071585	3.7920996	3.8075298	3.7925378	3.8846895	4.0334048	-117.36952	R0:S0:1	-85.68	uncorrelated	51514b8	 1.41e+01	 0.00e+00	 2.28e-02	2022-04-08@20:11
2x2_2C_8b_C2v_L	0.1	14	1.79	0.067563525	-7.4254608	-8.532241	-0.051637316	-8.535542	-0.060286802	0.37445437	-9.5050123	13	3.8168699e-05	-0.0002435478	0.0038253388	-0.00075253563	0.0038254157	0.0003597778	0.033195622	0.0028953134	2.8107472e-06	-0.74830913	1.1477174	0.00080875447	-1.1480495	-0.0030020455	0.12107324	-1.5538078	1.27	0.63	0.15	-0.10513035	0.055087256	2.395012e-09	1.9768148	1.951093	1.9999991	1.9504433	1.9999844	0.0023092546	1.9170972	1.0545878	-0.000159787	0.0078420298	-0.095924609	0.0001946578	-0.096544465	-0.0018907642	-0.16045716	-0.010857143	3.5691063e-06	0.56594564	-0.85772176	-0.0035195773	0.8667189	0.015050516	-0.080933051	1.1676182	0.69241293	0.013773322	2.395012e-09	0.023101211	0.048343448	8.7508124e-07	0.04896439	1.5569314e-05	0.0025618831	0.080737419	0.013751401	3.4577644	4.710228	4.5905552	4.2361845	4.5679099	4.2076102	4.1127073	4.5120428	4.5422357	3.4932787	3.783619	3.7638225	3.8079079	3.7925115	3.9009694	4.0307574	-122.44795	R0:S0:1	-89.68	uncorrelated	51514b8	 2.74e+01	 1.74e-02	 1.00e+06	2022-04-08@20:16
2x2_2C_8b_C2v_L	0.1	14	1.79	0.067563525	-7.4272871	-8.5344528	-0.051637809	-8.5376819	-0.060276818	0.38617771	-9.501312	13	-2.0732422e-05	-0.00023739529	0.0037989615	-0.0013676137	0.0037943162	0.001694866	0.00024176635	1.7195711e-05	-1.6906496e-06	-0.74783685	1.1476679	-0.0004626086	-1.1480767	0.00056495122	0.043571575	-1.5528097	1.27	0.63	0.15	-0.10473388	0.054646841	4.8789431e-10	1.97693	1.9508208	1.9999993	1.9508	1.9999997	6.1081673e-05	1.9170392	1.054215	8.0552843e-05	0.00021622446	-0.095748802	0.0013980481	-0.095777594	-0.0011217164	-0.0011251971	-0.00015767855	1.602578e-06	0.5649923	-0.86181508	0.002990216	0.86208652	-0.0018386559	-0.028015697	1.1685934	0.69292906	0.01366862	4.8789431e-10	0.022986754	0.048602776	6.9288862e-07	0.048622686	3.4867619e-07	6.1185846e-05	0.08079236	0.013626507	3.4599004	4.7074577	4.5789609	4.2218589	4.5783667	4.2210543	4.1159314	4.5107749	4.5400996	3.4950706	3.795755	3.7781466	3.7964138	3.7789486	3.8845809	4.0337746	-122.44466	R0:S0:1	-89.68	uncorrelated	51514b8	 2.73e+01	 0.00e+00	 2.73e-02	2022-04-08@20:20
2x2_2C_8b_C2v_L	0.1	14	1.79	0.067568316	-7.7561158	-8.9461968	-0.053332288	-8.949846	-0.064951344	0.62953619	-9.9305299	13.5	-4.2044089e-06	-0.00036133582	0.0045327504	-0.0037606956	0.0045733555	0.0046720064	0.001841015	-0.0020841368	-1.3576477e-07	-0.74467253	1.1467985	-0.0013737034	-1.1473771	0.0022387816	0.034778138	-1.5489337	1.27	0.63	0.15	-0.15001971	0.059292774	0	1.9763752	1.9505527	1.9999851	1.9505771	1.9999917	4.2323412e-05	1.9162428	1.0588685	2.2337554e-05	-0.00058883232	-0.13834722	0.0051012238	-0.13826754	-0.0017848237	-0.0095477949	0.0017953866	1.6781109e-07	0.57052014	-0.86042937	0.01417678	0.86004965	-0.010439733	-0.021184186	1.1753366	0.67949376	0.015636018	0	0.023540882	0.048880531	1.5048828e-05	0.04885738	8.387919e-06	4.23808e-05	0.081550424	0.015591812	3.4448109	4.7269594	4.603209	4.2547736	4.6044377	4.2557015	4.1237785	4.5114758	4.5551891	3.482734	3.7695635	3.7453509	3.7683305	3.7443687	3.8765978	4.0409349	-127.64174	R0:S0:1	-93.68	uncorrelated	51514b8	 6.51e+01	 8.11e-03	 1.00e+06	2022-04-08@20:25
2x2_2C_8b_C2v_L	0.1	14	1.79	0.067568316	-7.7565397	-8.9462485	-0.054341021	-8.9499186	-0.065673681	0.6300933	-9.9272982	13.5	-7.4851573e-07	0.00042497174	0.0046450702	-0.01567861	0.0046857636	0.017087767	0.0017096815	-0.00046201611	-1.3576477e-07	-0.74481281	1.1471343	-0.0042024344	-1.1474317	-0.0034399222	0.069664122	-1.5522561	1.27	0.63	0.15	-0.15076989	0.059547978	0	1.9763749	1.9505451	1.9997647	1.9505689	1.9997987	0.00015436981	1.9158356	1.0590996	4.046472e-06	-0.00030996512	-0.13917204	0.020135744	-0.13912378	-0.020429731	-0.0090006375	0.00035487507	1.3691106e-07	0.57026124	-0.8602838	0.049289507	0.8600179	0.04484651	-0.042466244	1.1782993	0.67908752	0.015709105	0	0.023541493	0.048888603	0.00025664036	0.04886563	0.00021638001	0.00015497002	0.081934402	0.015670387	3.4424234	4.7292839	4.6045766	4.2613407	4.6049256	4.2610031	4.1255494	4.5133739	4.5575766	3.4805449	3.7681486	3.7404222	3.7677164	3.7405128	3.8758684	4.0411334	-127.64603	R0:S0:1	-93.68	uncorrelated	51514b8	 6.54e+01	 0.00e+00	 4.88e-03	2022-04-08@20:30
2x2_2C_8b_C2v_L	0.1	14	1.79	0.06757322	-8.1101924	-9.3911322	-0.058100449	-9.3951866	-0.072292158	0.94505871	-10.317246	14	4.4540254e-05	0.0018491377	0.0057273652	-0.042991791	0.005837497	0.046307473	-0.00011140194	-0.0008780089	2.0760079e-06	-0.74297306	1.1496138	-0.01121175	-1.149551	-0.012091576	0.10715971	-1.553005	1.27	0.63	0.15	-0.29653878	0.097691637	1.2347334e-08	1.9771799	1.9537759	1.9614004	1.9538693	1.9629524	0.00035923237	1.9115718	1.0971854	-0.00037758515	-0.002810927	-0.27731441	0.28474498	-0.27630576	-0.28479263	0.002110419	0.0027646336	-9.29605e-06	0.54406018	-0.80108146	0.41559454	0.80015363	0.42226618	-0.060620441	1.2263895	0.58278893	0.029550869	1.2347334e-08	0.022770279	0.045826836	0.04699225	0.045735291	0.043615915	0.00036150293	0.085923164	0.029537385	3.2448343	4.9206002	4.7824651	4.8063483	4.7832111	4.7919568	4.2560549	4.4397375	4.7551658	3.2996577	3.5363923	3.4177992	3.5352567	3.4344207	3.7478723	4.1433741	-133.00285	R0:S0:1	-97.68	uncorrelated	51514b8	 5.11e+02	 5.70e-02	 1.00e+06	2022-04-08@20:35
2x2_2C_8b_C2v_L	0.1	14	1.79	0.17482521	-8.1066292	-9.3884763	-0.24496397	-9.3924569	-0.24085813	0.92489199	-10.301604	14	1.0999877e-05	-8.4530836e-05	-4.7436666e-05	-0.051378324	3.815823e-05	0.051292527	-0.00036658722	0.00011339766	0.044379241	-0.74760885	1.1532575	-0.025830962	-1.1533557	-0.025469506	0.10540113	-1.5561658	1.27	0.63	0.15	-0.29705841	0.098168027	0.0038983093	1.9769112	1.9537491	1.980852	1.9537899	1.9808675	0.00035494377	1.9108886	1.0976376	-0.0001982295	-0.00010593857	-0.27577683	0.23519225	-0.27562303	-0.23508745	0.0023891393	9.5829302e-05	-0.11518607	0.54731918	-0.80066873	0.43104144	0.80023672	0.42987565	-0.05973021	1.2314446	0.58439306	0.0296762	0.0040622788	0.023039146	0.045867951	0.019669583	0.045828126	0.019676824	0.00035709159	0.086573844	0.029668298	3.2678611	4.9222822	4.7900993	4.6681008	4.7905751	4.6692651	4.2585798	4.4448652	4.7887909	3.3016597	3.5340714	3.4701718	3.5334556	3.4690648	3.7452787	4.1464654	-133.68485	R0:S0:1	-97.68	uncorrelated	51514b8	 5.16e+02	 1.94e-04	 1.05e-02	2022-04-08@20:38
2x2_2C_8b_C2v_L	0.1	14	1.79	0.39007396	-8.4775934	-9.8612241	-0.62363203	-9.8653218	-0.58600571	1.2702979	-10.624078	14.5	6.4665148e-05	-0.0015903696	-0.010015259	-0.11014686	-0.0098099712	0.10548773	-0.0059243494	0.0019189704	0.13220862	-0.75653843	1.1656363	-0.066062863	-1.1662501	-0.06651431	0.15118381	-1.5647142	1.27	0.63	0.15	-0.24887756	0.42367421	0.11543225	1.9925764	1.9837407	1.9247905	1.9823894	1.926202	0.00097254995	1.8855139	1.4231374	-0.021457318	-0.0089746927	-0.2031741	1.1282607	-0.22000905	-1.0989274	0.086465399	0.044442305	-1.4494863	0.17852486	-0.29433871	0.33761382	0.31807482	0.36915556	-0.063229149	1.5693806	0.35086282	0.037760366	0.10890615	0.0074808656	0.016534586	0.072371995	0.017909012	0.071137802	0.00098987598	0.10973199	0.037905938	2.0930144	6.9549807	6.723193	6.1917974	6.6268491	6.1316482	5.3877493	3.7556546	6.1555375	1.1329097	1.4790447	1.9743428	1.5949745	2.0546666	2.625508	4.9693282	-141.03096	R0:S0:1	-101.68	uncorrelated	51514b8	 1.82e+02	 3.08e-01	 1.00e+06	2022-04-08@20:41
2x2_2C_8b_C2v_L	0.1	14	1.79	0.21031209	-8.4554279	-9.7698648	-0.04512478	-9.7922661	-0.063003654	0.021389119	-10.65624	14.5	-0.065645209	-0.00087310641	0.0011693216	-0.024814966	0.00047873969	0.02781318	0.072828083	-0.00030548392	-0.0019787494	-0.73573757	1.150915	-0.053313923	-1.1515364	-0.054525629	0.0070856723	-1.5306627	1.27	0.63	0.15	-0.40654987	0.48871624	0.0062965625	1.9949958	1.9767863	1.6937667	1.9772778	1.7585778	0.70020795	1.9233714	1.488427	0.13411366	0.0040437269	-0.36887879	1.3201778	-0.36937964	-1.3663748	-3.0140604	-0.0038909992	0.03336971	0.12241537	-0.40754409	1.1979986	0.39998061	1.0729992	-0.26453426	1.0910162	0.31636823	0.062250526	0.0065307218	0.005052501	0.023324035	0.35810482	0.022847311	0.27278222	0.40094561	0.0736614	0.062358995	0.81771811	7.2719136	6.1749567	4.8977042	6.2033447	5.0909781	2.7445979	4.4018172	7.2645407	0.79573333	1.9140108	3.4858069	1.8879669	3.2636949	8.0918488	3.5901333	-138.44731	R0:S0:1	-101.68	uncorrelated	51514b8	 2.37e+02	 2.60e-02	 5.49e-02	2022-04-08@20:45
2x2_2C_8b_C2v_L	0.1	14	1.79	0.18093378	-8.4496881	-9.7631366	-0.092083234	-9.7848073	-0.088004015	0.039252288	-10.628973	14.5	0.00050855928	0.00028888139	-0.0014449634	-0.05380547	-0.001323162	0.053978633	0.081933753	7.2706198e-05	-0.068365886	-0.76463703	1.1518374	-0.053577621	-1.1532439	-0.052890309	-0.0009645624	-1.5257033	1.27	0.63	0.15	-0.36003049	0.49542553	0.076160894	1.9938059	1.9781545	1.7769814	1.9781107	1.7739404	0.74809799	1.9251841	1.4950945	-0.00076830401	-0.00094717063	-0.32441106	1.6541416	-0.32364572	-1.6614533	-3.068991	0.00050499152	1.2285612	0.14550952	-0.38559946	0.94662129	0.3866523	0.95437096	0.031538602	1.0678382	0.32262428	0.060684522	0.072661535	0.0062261808	0.021910782	0.21426294	0.021950781	0.21687109	0.40311518	0.071874709	0.06082004	1.5068842	7.1569355	6.2668363	5.1611752	6.2610274	5.1479424	2.7022735	4.4329174	6.5064281	0.8960903	1.8072211	3.209342	1.8121779	3.2291576	8.2949465	3.5115507	-138.61543	R0:S0:1	-101.68	uncorrelated	51514b8	 2.27e+02	 2.92e-03	 2.37e-02	2022-04-08@20:49
2x2_2C_8b_C2v_L	0.1	14	1.79	0.17864334	-8.4487348	-9.7619542	-0.081647303	-9.783596	-0.084518249	0.035917558	-10.62465	14.5	-0.00064505014	-0.0003485397	-0.00086878854	-0.049819285	-0.0011345895	0.050063021	0.081951399	-4.4208428e-05	-0.065713222	-0.76567819	1.1518782	-0.053236497	-1.1530616	-0.053785051	0.00025617788	-1.526146	1.27	0.63	0.15	-0.36566677	0.49504853	0.072181761	1.993829	1.9779329	1.7714334	1.9780009	1.7728493	0.74985628	1.92523	1.4947225	0.0019986935	0.00051133507	-0.32987889	1.6243583	-0.32955396	-1.6243553	-3.0712677	0.00016950616	1.1957795	0.14473535	-0.38898552	0.97975317	0.38831202	0.97629572	-0.0080517381	1.0665522	0.32181116	0.061000121	0.069043751	0.0062044857	0.022135188	0.22437193	0.022067765	0.22265664	0.40407489	0.071835494	0.061133195	1.4666371	7.1633873	6.2533218	5.1422829	6.2541099	5.1476462	2.6931274	4.4393565	6.5456234	0.89076795	1.8216592	3.2313171	1.8209381	3.2246567	8.2938125	3.5065903	-138.56365	R0:S0:1	-101.68	uncorrelated	51514b8	 2.28e+02	 2.00e-04	 3.13e-03	2022-04-08@20:53
2x2_2C_8b_C2v_L	0.1	14	1.79	0.077807214	-8.7826941	-10.066411	0.43469568	-10.123141	0.4035583	-2.0356968	-10.895939	15	-0.0016679329	-0.00054875414	0.0023036148	-0.010078537	0.00083431634	0.013556521	0.24872352	-0.0011375282	-0.33044721	-0.7983416	1.1430355	-0.085516851	-1.1456103	-0.086803119	-0.24732842	-1.461901	1.27	0.63	0.15	-0.23199339	0.82270709	0.43034046	1.9882153	1.9950581	0.039895638	1.9969003	0.047887433	1.9041178	1.9918611	1.8224695	-0.0060409975	0.025755143	-0.27147777	-0.18401496	-0.12382383	0.080669322	-1.5522911	-0.26306328	3.1089657	0.27216991	-0.092751988	1.0292015	0.058543494	1.1409379	0.3201903	0.13407893	0.43691299	0.040732532	0.333502	0.011705913	0.0050599087	0.03934532	0.003129203	0.046860549	0.09323949	0.0082922857	0.040905471	5.336176	6.4118663	7.5146236	0.80459488	7.707589	0.77095973	6.398967	7.3938434	2.9286072	1.5771797	0.49340785	7.1558658	0.29915911	7.176573	1.5647343	0.62072636	-148.90204	R0:S0:1	-105.68	uncorrelated	51514b8	 1.74e+02	 4.91e-01	 1.00e+06	2022-04-08@20:55
2x2_2C_8b_C2v_L	0.1	14	1.79	1.6150324	-8.7927316	-10.025093	0.30861601	-10.058989	0.27793547	-0.27729934	-11.096901	15	0.14575307	0.014927867	0.0042074409	-0.085468401	0.0093612459	0.080806643	-0.01682023	0.0037507907	-0.019929607	-0.70112288	1.1359979	-0.00014148516	-1.1403641	-0.023455056	-0.10377422	-1.5188385	1.27	0.63	0.15	-0.35505677	0.9515985	0.00041550799	1.9999101	1.9970348	0.0038789822	1.9957155	0.00062695434	1.9418254	1.9967398	1.9515874	0.0017344532	-0.04673157	-0.28336878	0.058979274	-0.34698399	0.023424961	1.0441506	0.13140213	0.11090924	0.0015192783	-0.053578286	-0.29421446	0.07685183	0.11565724	0.1791421	0.048480682	0.41565808	0.019620699	0.0004280682	9.1708051e-05	0.003091827	0.0047037197	0.0044726012	0.00078614253	0.074270651	0.0032954554	0.01963339	0.011498107	7.9913608	7.7072871	0.33048437	7.581649	0.32272461	7.1721001	7.79924	7.9879415	0.008728334	0.29405593	7.6697781	0.42108012	7.6756274	0.76657752	0.20088877	-144.59359	R0:S0:1	-105.68	uncorrelated	51514b8	 2.22e+02	 5.63e-02	 4.78e-01	2022-04-08@20:58
2x2_2C_8b_C2v_L	0.1	14	1.79	1.6028311	-8.7935562	-10.020904	0.18562452	-10.054737	0.21019936	-0.052901181	-11.06298	15	0.15557574	-0.0033225956	0.0042309175	-0.082155626	0.00088210511	0.084232091	0.015108868	-0.0016121965	0.0050541745	-0.68994856	1.1337982	0.0012594235	-1.1365716	0.015068619	-0.078145361	-1.5301039	1.27	0.63	0.15	-0.31909241	0.85200492	0.00015517908	1.9998193	1.9961119	0.0094094335	1.9963802	0.021911211	0.64298199	1.9677598	1.8519523	-0.0041108241	0.014671847	-0.2908538	0.099872501	-0.26289869	-0.15612876	-1.0907435	-0.056197602	-0.022454881	0.0049875342	-0.070995409	-0.37446338	0.066513604	-0.61849062	2.9598797	0.46875219	0.42299887	0.033248322	0.00015789008	0.00018263179	0.0040371478	0.012966403	0.0037387377	0.02873645	0.47374659	0.031522865	0.033292384	0.036487361	7.9657734	7.6262551	0.51584891	7.6511968	0.62881581	5.6988921	6.2319671	7.9656069	0.036693403	0.38744149	7.504829	0.35847061	7.3716184	3.0537114	1.680805	-144.14852	R0:S0:1	-105.68	uncorrelated	51514b8	 1.96e+02	 2.07e-02	 2.65e-02	2022-04-08@21:02
2x2_2C_8b_C2v_L	0.1	14	1.79	1.5999727	-8.7937631	-10.0186	0.20372514	-10.052823	0.20866759	-0.14449291	-11.05427	15	0.15163489	-0.0016698604	0.0044743832	-0.080894295	0.0065987264	0.081642838	-0.0070095984	0.0017070164	0.0013583928	-0.69411717	1.1368382	-0.00018827578	-1.138041	-0.0081023534	-0.093215952	-1.5203552	1.27	0.63	0.15	-0.33020358	0.88738615	0.0001332833	1.9998649	1.9978951	0.0039463418	1.9948478	0.0041144294	1.3992159	1.977814	1.8873461	-0.0037502346	-0.036109909	-0.2281362	0.047360947	-0.3542716	-0.072523355	1.9960302	0.26468083	-0.043638685	0.003826933	-0.037966025	-0.26319566	0.093467967	-0.23678023	1.6387152	0.32356924	0.42276949	0.031537274	0.00013644615	0.00013700229	0.0021911426	0.0053202102	0.0053624089	0.005541294	0.59065149	0.022040006	0.031572464	0.029280812	7.9722418	7.7959818	0.25885373	7.5030965	0.54575787	4.2355227	6.7347236	7.9718324	0.029011365	0.20695485	7.7434228	0.51139327	7.4857744	3.8804286	1.23701	-144.22125	R0:S0:1	-105.68	uncorrelated	51514b8	 2.05e+02	 1.08e-02	 1.84e-02	2022-04-08@21:05
2x2_2C_8b_C2v_L	0.1	14	1.79	1.5950201	-8.7942197	-10.015849	0.18807443	-10.050364	0.22684429	-0.13038797	-11.044376	15	0.15650885	-0.0064990088	0.0091925498	-0.079100054	0.0014839633	0.084019621	0.023580598	-0.0049899341	0.0089795893	-0.68877826	1.1364136	-0.017050385	-1.1374366	0.011862595	-0.089299754	-1.5219864	1.27	0.63	0.15	-0.3245176	0.87799816	0.00010637397	1.9998238	1.995399	0.00060068879	1.997368	0.014578765	1.3329915	1.9751126	1.877952	-0.0019733496	0.043895944	-0.33708577	0.011891708	-0.23468374	-0.10891165	-2.1512559	-0.20869664	-0.024937632	0.004530453	-0.082868924	-0.012323883	0.048104596	-0.52384633	1.7780633	0.36382534	0.42410882	0.031887034	0.00010838657	0.00017883899	0.0047952791	0.00077496168	0.0027229119	0.018913608	0.59254229	0.024581777	0.031926492	0.030651388	7.969553	7.5613001	0.39220134	7.7443863	0.44471233	4.1514745	6.5934688	7.9705898	0.032013297	0.4529488	7.626743	0.25959418	7.549394	4.0937656	1.3633927	-144.20449	R0:S0:1	-105.68	uncorrelated	51514b8	 2.03e+02	 1.88e-02	 1.46e-02	2022-04-08@21:09
2x2_2C_8b_C2v_L	0.1	14	1.79	1.5881587	-8.7946816	-10.011296	0.2351712	-10.046345	0.19150828	-0.14753752	-11.027812	15	0.15337046	0.0056411672	0.0021887036	-0.084686292	0.0091076898	0.079196758	-0.021886666	0.0051457025	-0.008050724	-0.69195279	1.1349364	0.0093124336	-1.1383119	-0.016729791	-0.09255579	-1.5191073	1.27	0.63	0.15	-0.32909046	0.88699102	7.8612931e-05	1.9998368	1.9975138	0.011460121	1.995235	0.00058419154	1.439968	1.9777943	1.8869487	-0.0016633618	-0.045389709	-0.23462934	0.093404015	-0.34607972	-0.015157254	2.142203	0.22946481	0.017592673	0.0041843424	-0.045235379	-0.46901773	0.08591546	-0.030492346	1.5400827	0.32485867	0.42301959	0.031154046	7.9912773e-05	0.00016571052	0.0025764182	0.014811733	0.0049660597	0.0007588492	0.54528757	0.022010569	0.031191011	0.027933927	7.9718189	7.7585419	0.39259189	7.5431199	0.41140699	4.1961071	6.7332438	7.973047	0.029456042	0.24456123	7.6030442	0.47002306	7.6068183	3.9319465	1.2346288	-144.17883	R0:S0:1	-105.68	uncorrelated	51514b8	 2.05e+02	 1.78e-02	 2.13e-02	2022-04-08@21:12
2x2_2C_8b_C2v_L	0.1	14	1.79	1.5808612	-8.7952502	-10.0075	0.1931284	-10.042143	0.22787285	-0.13737539	-11.011582	15	0.15303315	-0.0047032563	0.0096626427	-0.07959894	0.0019917252	0.084322115	0.023122644	-0.0053443835	0.0072301701	-0.69201524	1.1356359	-0.017282002	-1.1365063	0.010555715	-0.090739192	-1.5190973	1.27	0.63	0.15	-0.32597832	0.88102281	8.4237035e-05	1.9998337	1.995313	0.0005753857	1.9974385	0.013151601	1.3729019	1.9759438	1.8809778	-0.002106382	0.042324357	-0.34133712	0.011890538	-0.23439111	-0.1016964	-2.1555748	-0.21733751	-0.013759418	0.0043538624	-0.084267725	-0.013740326	0.046724819	-0.49773356	1.6930978	0.35139344	0.42383105	0.031667835	8.558228e-05	0.00016873978	0.0048850326	0.00073969618	0.0026518875	0.017098764	0.57634522	0.023789052	0.031706541	0.029681393	7.9704231	7.5538915	0.39764177	7.7512873	0.42097309	4.1506544	6.6389004	7.9714911	0.031058299	0.46005297	7.6208004	0.25236457	7.5739757	4.0520296	1.3218885	-144.11796	R0:S0:1	-105.68	uncorrelated	51514b8	 2.03e+02	 1.93e-02	 2.09e-02	2022-04-08@21:15
2x2_2C_8b_C2v_L	0.1	14	1.79	1.5738794	-8.795677	-10.003079	0.24202906	-10.038412	0.18536234	-0.14592087	-10.995569	15	0.15133069	0.0066586665	0.0019519533	-0.085503471	0.0091977281	0.078356106	-0.022437482	0.0052456676	-0.0093400861	-0.69371298	1.1339013	0.0099475955	-1.1381973	-0.016939991	-0.092070762	-1.5173073	1.27	0.63	0.15	-0.32865788	0.88630163	9.1834948e-05	1.9998305	1.9974937	0.011806167	1.9952535	0.00055146509	1.4329542	1.9775195	1.8862589	-0.0013844674	-0.046772325	-0.2346462	0.095542778	-0.34528193	-0.012848577	2.148547	0.22704806	0.026655092	0.004272946	-0.045652947	-0.47886512	0.085511459	-0.020648543	1.5547391	0.32834602	0.42312015	0.03119676	9.3573102e-05	0.00017215738	0.0025966052	0.015155627	0.0049470812	0.00071586253	0.54829622	0.022274377	0.031233961	0.028200792	7.9715396	7.7563527	0.39845954	7.5456045	0.40586799	4.1859843	6.7224978	7.9727342	0.029762964	0.24681562	7.5968632	0.46758471	7.6120337	3.9505743	1.2443265	-144.0826	R0:S0:1	-105.68	uncorrelated	51514b8	 2.05e+02	 2.24e-02	 2.12e-02	2022-04-08@21:19
2x2_2C_8b_C2v_L	0.1	14	1.79	1.5637691	-8.7964426	-9.9980956	0.17947758	-10.032618	0.23912939	-0.13849488	-10.97351	15	0.1514707	-0.008769923	0.0090408494	-0.077722726	0.0016047657	0.085275335	0.023002793	-0.0051677764	0.011639552	-0.69334336	1.1363179	-0.016821936	-1.1358677	0.011040556	-0.090796493	-1.5165075	1.27	0.63	0.15	-0.3265369	0.8819441	0.00013532971	1.9998142	1.9953044	0.00058353529	1.9974429	0.01301537	1.3837847	1.9761597	1.8818995	-0.0011333161	0.049050589	-0.34185894	0.012320806	-0.23409902	-0.10159495	-2.1549167	-0.21946433	-0.042243078	0.0045630017	-0.084467871	-0.016082771	0.046702206	-0.50108948	1.6674309	0.34762152	0.42362876	0.031595102	0.00013845511	0.00018871077	0.0048947032	0.00075996708	0.0026472732	0.016721882	0.57181382	0.023582855	0.031633567	0.029931053	7.9700767	7.552476	0.40003583	7.7511415	0.41850976	4.1538901	6.6545133	7.9710343	0.031368821	0.46137219	7.6186906	0.25241909	7.5762153	4.036055	1.3072758	-144.00806	R0:S0:1	-105.68	uncorrelated	51514b8	 2.04e+02	 1.94e-02	 2.12e-02	2022-04-08@21:22
2x2_2C_8b_C2v_L	0.1	14	1.79	1.5556711	-8.7971224	-9.9934856	0.22737708	-10.028515	0.19424137	-0.13942594	-10.956094	15	0.15119392	0.0041883222	0.0024919865	-0.083931468	0.0095406658	0.079656752	-0.022328215	0.0049126906	-0.0065862453	-0.6931651	1.1340157	0.009491351	-1.1369438	-0.017297677	-0.090848351	-1.5152103	1.27	0.63	0.15	-0.32683998	0.88312706	7.7621835e-05	1.9998385	1.9974694	0.011971201	1.9952943	0.0005657893	1.392119	1.9763981	1.8830831	-0.0021219089	-0.04207026	-0.23533433	0.095834202	-0.34272979	-0.012103714	2.1488394	0.2224308	0.0097460507	0.0042454491	-0.045955489	-0.4751747	0.084703093	-0.015613322	1.6482688	0.34383234	0.42373582	0.03146603	7.8812248e-05	0.00016388159	0.0026219874	0.015579271	0.0049043445	0.00072819069	0.56912339	0.023355759	0.031504033	0.028995517	7.9710619	7.7555482	0.4023145	7.5508187	0.40037796	4.1601522	6.6690003	7.9721351	0.030352576	0.24792688	7.5933745	0.46283304	7.6178427	4.0173899	1.2938464	-143.95633	R0:S0:1	-105.68	uncorrelated	51514b8	 2.04e+02	 1.68e-02	 2.12e-02	2022-04-08@21:26
2x2_2C_8b_C2v_L	0.1	14	1.79	1.5489261	-8.7976035	-9.9899952	0.19212691	-10.024636	0.22962919	-0.13786932	-10.941543	15	0.15052656	-0.0050400504	0.0094123471	-0.079208345	0.0020846509	0.084159728	0.022448439	-0.004905924	0.0075226513	-0.69369042	1.1350898	-0.017124501	-1.1359046	0.010103391	-0.090476361	-1.5145317	1.27	0.63	0.15	-0.3266105	0.88239262	8.390743e-05	1.9998336	1.9952906	0.00057117609	1.9974573	0.012496075	1.3838038	1.976163	1.8823484	-0.0019479555	0.043203647	-0.34256894	0.01236502	-0.23475914	-0.098623284	-2.1494327	-0.22072795	-0.016153142	0.0043214916	-0.084630213	-0.016533549	0.04631457	-0.48667494	1.6660902	0.34694705	0.42371643	0.031533303	8.5296023e-05	0.00016893133	0.004909001	0.00073596508	0.0026335107	0.01621104	0.57287189	0.023581363	0.031571494	0.029222609	7.9707893	7.5518534	0.3998566	7.7533902	0.41074653	4.1566841	6.6588367	7.9718933	0.030648743	0.46192917	7.6184476	0.25014685	7.5845439	4.0297074	1.3030809	-143.91128	R0:S0:1	-105.68	uncorrelated	51514b8	 2.04e+02	 1.86e-02	 2.08e-02	2022-04-08@21:29
2x2_2C_8b_C2v_L	0.1	14	1.79	1.5420573	-8.7980402	-9.9859975	0.2379055	-10.021296	0.187536	-0.13759486	-10.927053	15	0.15021303	0.0059880534	0.0018370962	-0.085126967	0.009159175	0.078790775	-0.022314051	0.0049387853	-0.0085555224	-0.69392849	1.1333534	0.010448315	-1.1370186	-0.016922732	-0.090494909	-1.5132827	1.27	0.63	0.15	-0.32658688	0.88227498	9.298678e-05	1.9998288	1.9974485	0.01247079	1.9953127	0.00058863826	1.3813235	1.976112	1.8822307	-0.0017352663	-0.044685806	-0.23482753	0.098897589	-0.34167449	-0.01298469	2.1475115	0.22052837	0.022967659	0.0043814111	-0.046455163	-0.48979741	0.084414064	-0.018956181	1.6710501	0.34751012	0.42370204	0.031546291	9.4689748e-05	0.00017377494	0.0026426928	0.016051723	0.0048854212	0.00076320067	0.57439264	0.023630572	0.031584501	0.029331381	7.9706357	7.7527804	0.41030999	7.552361	0.40095772	4.1569428	6.657401	7.9717541	0.030805363	0.25077625	7.5848927	0.46141102	7.6177496	4.030797	1.30438	-143.86784	R0:S0:1	-105.68	uncorrelated	51514b8	 2.04e+02	 2.20e-02	 2.10e-02	2022-04-08@21:32
2x2_2C_8b_C2v_L	0.1	14	1.79	1.5342653	-8.7986573	-9.982654	0.18183234	-10.016462	0.2490464	-0.13707152	-10.910682	15	0.14924464	-0.007616943	0.0088222666	-0.077943233	0.0020246404	0.086431425	0.02219251	-0.0048540933	0.010429274	-0.69475456	1.1355098	-0.016574726	-1.1342442	0.0099646194	-0.090336444	-1.5124071	1.27	0.63	0.15	-0.3263887	0.88213624	0.00011700872	1.9998206	1.9952991	0.00060909924	1.9974865	0.011499682	1.3781834	1.9759805	1.882092	-0.0013299186	0.047191524	-0.34198925	0.013909585	-0.2342758	-0.094501123	-2.1462795	-0.22086979	-0.03550862	0.0044774515	-0.084545987	-0.022760089	0.045843303	-0.47442442	1.6789586	0.34907911	0.42387484	0.031545819	0.00011955058	0.00018223079	0.0049005078	0.00079533309	0.0026039397	0.014676207	0.57582893	0.023758587	0.03158402	0.029555292	7.9704236	7.5521329	0.40284806	7.7554828	0.39524924	4.1569849	6.6527273	7.9714535	0.031025824	0.46175299	7.6162645	0.24808905	7.600632	4.0342956	1.3087089	-143.81867	R0:S0:1	-105.68	uncorrelated	51514b8	 2.04e+02	 2.24e-02	 2.09e-02	2022-04-08@21:36
2x2_2C_8b_C2v_L	0.1	14	1.79	1.5270533	-8.7991836	-9.9781223	0.24555629	-10.0137	0.19044589	-0.13706758	-10.895481	15	0.14930445	0.005833363	0.0018846941	-0.085755508	0.0089906613	0.079225216	-0.022226589	0.0049686387	-0.0083881746	-0.69433861	1.132342	0.010134077	-1.1364085	-0.016576775	-0.090220337	-1.5113627	1.27	0.63	0.15	-0.32660892	0.88248687	9.1771441e-05	1.9998304	1.9974703	0.011737979	1.9953125	0.00062063824	1.3813869	1.9760664	1.8824429	-0.0017457273	-0.044289022	-0.23475993	0.095638402	-0.34165984	-0.015224964	2.14658	0.22063873	0.022383473	0.0043482147	-0.046068882	-0.47853965	0.084433319	-0.028642048	1.6699822	0.34761293	0.42377526	0.031504068	9.3452104e-05	0.00017214554	0.0026208667	0.015004758	0.0048856182	0.0008064272	0.57457473	0.02367514	0.031542097	0.029145616	7.9708346	7.7545779	0.39907134	7.5521758	0.40454547	4.1575343	6.6588511	7.97194	0.030600926	0.24897434	7.5965903	0.46157331	7.6144776	4.0294797	1.3028519	-143.77448	R0:S0:1	-105.68	uncorrelated	51514b8	 2.04e+02	 2.18e-02	 2.08e-02	2022-04-08@21:39
2x2_2C_8b_C2v_L	0.1	14	1.79	1.5194134	-8.7997375	-9.9752787	0.18443271	-10.009043	0.24592933	-0.13418954	-10.879486	15	0.14805106	-0.007512295	0.0087413298	-0.07837925	0.0018272572	0.085897738	0.022067236	-0.0047628193	0.010362387	-0.69550681	1.1346016	-0.016237898	-1.1340406	0.010193614	-0.089672458	-1.5104594	1.27	0.63	0.15	-0.32591716	0.88116111	0.00011950902	1.9998202	1.9953206	0.0006505027	1.9974702	0.011790013	1.3627373	1.9756051	1.8811166	-0.0013764771	0.046578253	-0.34080138	0.015943042	-0.23434221	-0.095990778	-2.1423772	-0.21835048	-0.035953061	0.0044967363	-0.084180329	-0.030988746	0.046156344	-0.47939884	1.711223	0.35393538	0.42398262	0.031610884	0.00012212118	0.00018257124	0.0048779821	0.00085117108	0.0026205024	0.015068773	0.58316813	0.024118734	0.031649229	0.029764858	7.9702879	7.5541916	0.40446205	7.7539482	0.40050371	4.1555399	6.6372808	7.9712661	0.031196801	0.45979736	7.6151141	0.24973549	7.5952644	4.049789	1.3226711	-143.7236	R0:S0:1	-105.68	uncorrelated	51514b8	 2.03e+02	 1.92e-02	 2.08e-02	2022-04-08@21:42
2x2_2C_8b_C2v_L	0.1	14	1.79	1.5113187	-8.8002824	-9.9709308	0.22802351	-10.005376	0.19551136	-0.13608012	-10.862986	15	0.14792133	0.0048714772	0.0023640154	-0.083810499	0.009157673	0.079648906	-0.021868111	0.0045943875	-0.0073362439	-0.69526623	1.1330198	0.0093013586	-1.1359113	-0.016631996	-0.090030453	-1.5092905	1.27	0.63	0.15	-0.32636078	0.88202257	8.3992233e-05	1.9998338	1.9974704	0.011671799	1.9953006	0.00062196193	1.3743383	1.9758166	1.8819784	-0.001967981	-0.042792635	-0.23535103	0.094495102	-0.3419268	-0.015402913	2.1421225	0.22168105	0.015938851	0.0043209263	-0.045916442	-0.46956809	0.084569981	-0.029146449	1.6872049	0.35058966	0.42389538	0.031554266	8.5404813e-05	0.00016875013	0.0026215523	0.015170937	0.0048981164	0.00080451797	0.57815141	0.023918589	0.031592385	0.02923808	7.9708094	7.7558732	0.39826348	7.5518581	0.40475836	4.1583401	6.6499233	7.971893	0.030649	0.24773294	7.5977593	0.46200968	7.6142395	4.0350533	1.3111453	-143.67813	R0:S0:1	-105.68	uncorrelated	51514b8	 2.04e+02	 1.84e-02	 2.05e-02	2022-04-08@21:46
2x2_2C_8b_C2v_L	0.1	14	1.79	1.5031376	-8.8009315	-9.967244	0.18323463	-10.00105	0.23652559	-0.13541345	-10.846773	15	0.14788091	-0.0073416976	0.0093704784	-0.077832593	0.0017065418	0.084753146	0.022211523	-0.0047439184	0.0101154	-0.69516811	1.1346921	-0.017295524	-1.13434	0.010487029	-0.089833605	-1.5083237	1.27	0.63	0.15	-0.32603048	0.88181172	0.00011573132	1.9998217	1.9952998	0.00055927498	1.9974515	0.012492113	1.3720198	1.9757438	1.8817673	-0.0014014514	0.046555155	-0.34205268	0.0097666069	-0.23448891	-0.099006509	-2.145381	-0.21960408	-0.034399211	0.0044707194	-0.084332272	-0.0049791565	0.046456772	-0.48997802	1.6898691	0.35139008	0.42391177	0.03155302	0.00011825528	0.00018109991	0.0049002438	0.00072389556	0.0026393412	0.016084367	0.57885028	0.023986303	0.031591309	0.029606455	7.9704051	7.5540155	0.39419552	7.75262	0.41086744	4.1552969	6.6481418	7.9714282	0.031055074	0.45985785	7.6239082	0.25099421	7.5843451	4.0405256	1.3124465	-143.63118	R0:S0:1	-105.68	uncorrelated	51514b8	 2.04e+02	 1.91e-02	 2.07e-02	2022-04-08@21:49
2x2_2C_8b_C2v_L	0.1	14	1.79	1.4969151	-8.8012911	-9.9635095	0.23407532	-9.9983462	0.1944457	-0.13594894	-10.833987	15	0.14629552	0.0040876523	0.0019938083	-0.084552015	0.0094889592	0.079443525	-0.021996488	0.0046894821	-0.006523639	-0.69651103	1.1322032	0.010067553	-1.135646	-0.017326408	-0.089993984	-1.5072233	1.27	0.63	0.15	-0.32623326	0.88204926	7.904601e-05	1.9998365	1.9974515	0.012201883	1.9953037	0.0005666017	1.3742966	1.9757823	1.882005	-0.0021185338	-0.041636832	-0.23514544	0.09743358	-0.34198602	-0.011498431	2.1433236	0.22091757	0.011005741	0.0042908339	-0.046321323	-0.48293737	0.084402054	-0.012505952	1.6855514	0.35065796	0.42388155	0.031541631	8.0292014e-05	0.00016590348	0.0026401504	0.015758435	0.004895257	0.00072836569	0.57814859	0.023950915	0.031579804	0.029248456	7.9708508	7.7537031	0.40634811	7.5531108	0.3974622	4.157233	6.6512002	7.9718942	0.030612195	0.24989558	7.5891477	0.46071026	7.6207525	4.0355194	1.3097203	-143.59356	R0:S0:1	-105.68	uncorrelated	51514b8	 2.04e+02	 2.01e-02	 2.09e-02	2022-04-08@21:52
2x2_2C_8b_C2v_L	0.1	14	1.79	1.4887112	-8.8018849	-9.9602359	0.18101338	-9.9938215	0.24348092	-0.13328771	-10.81812	15	0.14829828	-0.0084131988	0.0088519482	-0.07774322	0.0019249218	0.085727889	0.02217469	-0.0046758065	0.011149897	-0.69436027	1.1342357	-0.016391983	-1.1333926	0.0098842547	-0.089307027	-1.5064889	1.27	0.63	0.15	-0.32582899	0.88121987	0.00013698527	1.9998168	1.9953175	0.00061998559	1.9974673	0.01163702	1.361326	1.9754537	1.8811755	-0.0012370839	0.047765466	-0.34100803	0.014300573	-0.2348444	-0.095189189	-2.1427917	-0.21802974	-0.041754436	0.0045272231	-0.084114614	-0.024189715	0.046151997	-0.47502852	1.7126587	0.3550584	0.42405637	0.03158123	0.00014029477	0.00018604323	0.0048817484	0.0008104407	0.0026239788	0.014914841	0.58375465	0.024265197	0.031619526	0.029872693	7.9702474	7.5549443	0.40109615	7.7541117	0.39867791	4.1548996	6.6367492	7.9711525	0.031228276	0.45902527	7.6181139	0.2495906	7.5972931	4.051389	1.322789	-143.54316	R0:S0:1	-105.68	uncorrelated	51514b8	 2.03e+02	 1.84e-02	 2.08e-02	2022-04-08@21:56
2x2_2C_8b_C2v_L	0.1	14	1.79	1.4815805	-8.802369	-9.9563744	0.22443422	-9.9907116	0.19937017	-0.1346528	-10.803876	15	0.14765116	0.0037321174	0.0022967478	-0.083393365	0.0095744936	0.079988358	-0.022060451	0.0046775326	-0.0059432818	-0.69457378	1.1324957	0.0094529941	-1.1348182	-0.017104418	-0.089712094	-1.5051409	1.27	0.63	0.15	-0.32601717	0.88160618	8.0063165e-05	1.9998388	1.9974499	0.012006526	1.9953067	0.00058099102	1.3671929	1.9755541	1.8815619	-0.0023076828	-0.04070285	-0.2357967	0.096098337	-0.34170593	-0.013079196	2.142495	0.2198889	0.0071589318	0.0042650762	-0.046255447	-0.47459033	0.084313591	-0.019252282	1.7009819	0.35346157	0.42399311	0.031565791	8.1333329e-05	0.00016353026	0.0026425852	0.01565358	0.0048920193	0.00074509131	0.5812748	0.02417071	0.03160401	0.029345364	7.9708639	7.7543285	0.40409229	7.5537971	0.39908636	4.1561783	6.6427798	7.9718684	0.030607495	0.249339	7.5917734	0.46007842	7.6192726	4.0438297	1.3173719	-143.50363	R0:S0:1	-105.68	uncorrelated	51514b8	 2.04e+02	 1.48e-02	 2.07e-02	2022-04-08@21:59
2x2_2C_8b_C2v_L	0.1	14	1.79	1.4766204	-8.8026899	-9.9540849	0.19711417	-9.9880472	0.2235954	-0.13436186	-10.793888	15	0.14499393	-0.0032726451	0.0094101626	-0.079826319	0.0019317882	0.083333227	0.022139334	-0.0049610507	0.0056535246	-0.6972207	1.1328526	-0.016882963	-1.1343965	0.0098222751	-0.089689533	-1.5044565	1.27	0.63	0.15	-0.32594736	0.88132692	7.7632916e-05	1.9998394	1.9952979	0.00059978217	1.9974474	0.012450685	1.3644176	1.975474	1.8812826	-0.0023225762	0.039948885	-0.34184588	0.014030692	-0.2351099	-0.098254047	-2.1431093	-0.21875507	-0.005964153	0.0042635936	-0.084360066	-0.023136331	0.04643167	-0.48293902	1.706548	0.35449986	0.42394754	0.031591076	7.8818886e-05	0.00016294535	0.0049018413	0.0007721044	0.0026442884	0.016239	0.58235625	0.024247032	0.031629337	0.029375038	7.9708553	7.5540217	0.40038528	7.7530743	0.41094098	4.1554085	6.639578	7.9718122	0.030635869	0.45993099	7.6182984	0.2506105	7.5846124	4.0478276	1.3202469	-143.47411	R0:S0:1	-105.68	uncorrelated	51514b8	 2.03e+02	 1.71e-02	 2.06e-02	2022-04-08@22:02
2x2_2C_8b_C2v_L	0.1	14	1.79	1.4693258	-8.8032078	-9.9504714	0.23425808	-9.9849216	0.18631937	-0.13349236	-10.780289	15	0.14652353	0.0068896667	0.0014524065	-0.084301872	0.0090421041	0.078465667	-0.022110017	0.0047319195	-0.0095341547	-0.69549936	1.1318363	0.010489949	-1.1352344	-0.016490634	-0.089326032	-1.5038922	1.27	0.63	0.15	-0.32595915	0.88129655	0.00011154629	1.999824	1.9974365	0.012548062	1.9953216	0.00061850985	1.3632637	1.9754354	1.8812522	-0.0015393093	-0.045442974	-0.2349059	0.099313492	-0.34093437	-0.014577282	2.1422235	0.21857782	0.031679777	0.0044448988	-0.046658623	-0.49030876	0.084112868	-0.025452589	1.7077088	0.35470825	0.4238968	0.031588768	0.00011394797	0.00017869157	0.002655286	0.016174964	0.0048768726	0.0008049627	0.58307565	0.024283983	0.031627022	0.029585617	7.9704745	7.7518843	0.41228391	7.5546709	0.4015331	4.1555341	6.6399632	7.9714961	0.031001851	0.25181152	7.5829696	0.45924086	7.6175466	4.0481148	1.3196725	-143.43308	R0:S0:1	-105.68	uncorrelated	51514b8	 2.03e+02	 1.96e-02	 2.07e-02	2022-04-08@22:05
2x2_2C_8b_C2v_L	0.1	14	1.79	1.4626711	-8.8036027	-9.9477281	0.18846559	-9.9808911	0.23853962	-0.13396199	-10.766783	15	0.14209916	-0.00600482	0.0089600599	-0.078689101	0.0023061476	0.085235368	0.021872782	-0.0045107053	0.0089166262	-0.69992823	1.1331234	-0.016374304	-1.1329549	0.0093480102	-0.089386683	-1.5029812	1.27	0.63	0.15	-0.3261994	0.88166916	0.00010010885	1.9998266	1.9952935	0.00063271437	1.9974717	0.011347369	1.3661472	1.9754641	1.881625	-0.0015434216	0.044432144	-0.34200726	0.015557433	-0.23546216	-0.093489562	-2.1404291	-0.22037669	-0.028471513	0.0044101286	-0.084488462	-0.029724915	0.045957698	-0.46690963	1.7024773	0.35402141	0.42396738	0.031556371	0.0001021004	0.00017604816	0.0049068546	0.00082383121	0.0026201481	0.014619912	0.58206062	0.024258696	0.031594504	0.029365023	7.9706554	7.5531142	0.40410082	7.7553877	0.3941747	4.1573001	6.6430861	7.9716672	0.030832723	0.46083101	7.6150972	0.24827174	7.6020868	4.0429436	1.3168908	-143.3932	R0:S0:1	-105.68	uncorrelated	51514b8	 2.04e+02	 1.75e-02	 2.06e-02	2022-04-08@22:09
2x2_2C_8b_C2v_L	0.1	14	1.79	1.4558602	-8.8041738	-9.9443733	0.22828097	-9.9783677	0.19774084	-0.13272702	-10.754814	15	0.14610794	0.0034932411	0.0023119164	-0.08378657	0.0097144855	0.080021091	-0.022012924	0.0046763956	-0.0057253144	-0.69537812	1.1315949	0.0094360689	-1.1340326	-0.017163155	-0.089096159	-1.5022338	1.27	0.63	0.15	-0.32580385	0.88128603	8.0420869e-05	1.9998398	1.9974441	0.011802773	1.9953135	0.0005848128	1.359559	1.975308	1.8812418	-0.002351791	-0.040022573	-0.2362059	0.095429913	-0.34138109	-0.012713486	2.140816	0.21826444	0.0064123423	0.004252247	-0.046347441	-0.47226816	0.084108339	-0.017403063	1.7153225	0.35608045	0.424088	0.031562637	8.1709649e-05	0.00016255172	0.0026488651	0.015328582	0.0048851325	0.00075138891	0.58484793	0.024406916	0.03160085	0.029340762	7.9709196	7.7538807	0.40175212	7.5552338	0.39737108	4.1555218	6.6365353	7.9718895	0.030564828	0.24984013	7.5942776	0.45865448	7.6210964	4.0510235	1.3226826	-143.35683	R0:S0:1	-105.68	uncorrelated	51514b8	 2.03e+02	 1.54e-02	 2.05e-02	2022-04-08@22:12
2x2_2C_8b_C2v_L	0.1	14	1.79	1.4506166	-8.8044697	-9.9420839	0.1967216	-9.9754815	0.22523493	-0.13322704	-10.744399	15	0.14255957	-0.0043049709	0.0092509361	-0.079639219	0.0024593478	0.083473615	0.021659463	-0.0045287491	0.0068166421	-0.69898976	1.1323778	-0.017049863	-1.133437	0.0095516478	-0.089275998	-1.5013273	1.27	0.63	0.15	-0.32592964	0.88141943	8.1943516e-05	1.9998343	1.9953023	0.00058637694	1.9974426	0.012075302	1.3607462	1.9753447	1.8813752	-0.0020307099	0.041730164	-0.34170375	0.012931785	-0.23606521	-0.096579967	-2.1375344	-0.21959134	-0.014337146	0.0043268693	-0.084267994	-0.018412603	0.046401502	-0.47634295	1.7129365	0.35538287	0.42401779	0.031569335	8.3305978e-05	0.00016822416	0.0048976594	0.00075420192	0.0026498478	0.015727861	0.58491766	0.024373263	0.031607544	0.029349349	7.9707557	7.5545333	0.39825419	7.7535381	0.40567337	4.157417	6.6394219	7.971788	0.030738784	0.45941857	7.6202538	0.25014386	7.5901662	4.0461474	1.3200859	-143.32647	R0:S0:1	-105.68	uncorrelated	51514b8	 2.03e+02	 1.66e-02	 2.04e-02	2022-04-08@22:15
2x2_2C_8b_C2v_L	0.1	14	1.79	1.4435617	-8.8049745	-9.9387223	0.2313937	-9.972608	0.18921946	-0.13239073	-10.731935	15	0.14574521	0.0057939771	0.0020584241	-0.084132968	0.0089948129	0.078917907	-0.021957606	0.0045074597	-0.0082702383	-0.69547157	1.1311784	0.0099031433	-1.1342603	-0.016536268	-0.088981974	-1.5006443	1.27	0.63	0.15	-0.32593323	0.88125858	9.7929702e-05	1.9998295	1.9974315	0.012144247	1.9953267	0.00062158948	1.3591622	1.9752737	1.8812143	-0.0018082051	-0.043631488	-0.23609622	0.097302235	-0.34071275	-0.014751719	2.1395754	0.21848201	0.02374186	0.0043782731	-0.046610008	-0.4805904	0.084002464	-0.026149685	1.7153082	0.35617009	0.42397738	0.031573059	9.9865836e-05	0.00017308055	0.0026613233	0.01571584	0.0048716223	0.00080759473	0.58527991	0.024440585	0.031611272	0.029438479	7.9706503	7.7524952	0.40698945	7.5553232	0.4011013	4.1561784	6.6375117	7.9717112	0.030829533	0.25122347	7.5887189	0.45858608	7.6179729	4.0499622	1.321664	-143.28921	R0:S0:1	-105.68	uncorrelated	51514b8	 2.03e+02	 2.04e-02	 2.05e-02	2022-04-08@22:18
2x2_2C_8b_C2v_L	0.1	14	1.79	1.4345018	-8.8055615	-9.9349212	0.18177328	-9.9678561	0.24128087	-0.13243387	-10.714859	15	0.14248286	-0.0099346824	0.0095618702	-0.077700606	0.0011731725	0.085236082	0.022032267	-0.0044760728	0.013121489	-0.69894105	1.1327244	-0.017234091	-1.1322989	0.010898829	-0.088930132	-1.4997501	1.27	0.63	0.15	-0.32564875	0.88126011	0.00018739192	1.9998062	1.9953007	0.00056601569	1.9974385	0.012679062	1.360345	1.9752515	1.8812157	-0.00071622152	0.050346434	-0.34185828	0.009746013	-0.23432781	-0.10024303	-2.1407755	-0.2185448	-0.057457139	0.0046569674	-0.084139776	-0.0046196325	0.046736217	-0.4957095	1.7121591	0.35614239	0.42400201	0.031571447	0.00019252755	0.00019689148	0.0048997717	0.00073409785	0.0026526636	0.016243761	0.58460071	0.024462136	0.031609787	0.030484537	7.9698815	7.5557592	0.39257882	7.7511426	0.41422035	4.1553592	6.6387092	7.9703764	0.031605836	0.45816317	7.6256173	0.25255339	7.5808459	4.0496031	1.3203871	-143.24023	R0:S0:1	-105.68	uncorrelated	51514b8	 2.03e+02	 2.19e-02	 2.08e-02	2022-04-08@22:22
2x2_2C_8b_C2v_L	0.1	14	1.79	1.4265612	-8.8061515	-9.9305947	0.24364684	-9.9651832	0.18684142	-0.13185684	-10.700555	15	0.14254272	0.0066499312	0.0020792074	-0.085635481	0.0087911512	0.078541369	-0.021830881	0.0044314101	-0.0094136146	-0.69843284	1.1299476	0.0096064014	-1.1340947	-0.016154043	-0.088833594	-1.4986602	1.27	0.63	0.15	-0.32582965	0.88107517	0.00011229844	1.9998241	1.9974553	0.011338772	1.9953237	0.00065534314	1.3557691	1.9751078	1.8810309	-0.0015035024	-0.045007828	-0.23583853	0.093789197	-0.34066318	-0.016366497	2.1377362	0.21889723	0.032517555	0.0044459292	-0.046202665	-0.46895518	0.084059513	-0.032913929	1.7235399	0.35796485	0.42407919	0.03158451	0.00011476531	0.0001786372	0.0026373703	0.014528667	0.0048749885	0.00085624211	0.58674917	0.024601895	0.031622718	0.029581629	7.9705109	7.754386	0.3944893	7.5550782	0.40411035	4.1572088	6.6328775	7.9714884	0.030988866	0.24936173	7.6017622	0.45889804	7.6153773	4.052574	1.3258952	-143.1964	R0:S0:1	-105.68	uncorrelated	51514b8	 2.03e+02	 2.01e-02	 2.08e-02	2022-04-08@22:25
2x2_2C_8b_C2v_L	0.1	14	1.79	1.4164675	-8.8067537	-9.9265424	0.18804529	-9.9604799	0.23125421	-0.13215683	-10.682392	15	0.14207595	-0.0078055986	0.0092089469	-0.078529806	0.0022551444	0.084174432	0.021745258	-0.0045606279	0.010697242	-0.69865262	1.1321083	-0.016944158	-1.1322726	0.0095878498	-0.089020818	-1.497291	1.27	0.63	0.15	-0.32552462	0.88093469	0.00013496186	1.9998175	1.9953037	0.00058975271	1.9974488	0.01181981	1.3541124	1.9750266	1.8808902	-0.0012321744	0.046941474	-0.34147439	0.012221366	-0.23575399	-0.095612684	-2.1371647	-0.21892272	-0.041448307	0.0045323903	-0.08415333	-0.015023687	0.046319171	-0.47383964	1.7275645	0.35886707	0.42417334	0.031596639	0.00013826746	0.00018532952	0.0048967918	0.00076350126	0.0026436833	0.015308186	0.58741992	0.024680646	0.031634987	0.029935982	7.9702124	7.5555696	0.39664016	7.7538861	0.40179954	4.157272	6.630468	7.9710806	0.031293258	0.45847692	7.6220755	0.24986004	7.5942011	4.0539669	1.3280988	-143.14456	R0:S0:1	-105.68	uncorrelated	51514b8	 2.03e+02	 1.86e-02	 2.05e-02	2022-04-08@22:28
2x2_2C_8b_C2v_L	0.1	14	1.79	1.4060999	-8.8074634	-9.9218854	0.22879968	-9.9558441	0.18691964	-0.13191574	-10.66414	15	0.14093895	0.0073963868	0.0023548002	-0.083721992	0.009112681	0.07834733	-0.021863757	0.0043882843	-0.010298308	-0.699512	1.1303515	0.0096356331	-1.1337094	-0.01689502	-0.088880687	-1.4961222	1.27	0.63	0.15	-0.32556579	0.8810212	0.00012811177	1.9998194	1.9974309	0.011936819	1.9953239	0.00058681174	1.3551393	1.975006	1.8809768	-0.0012908964	-0.046331988	-0.23650313	0.096145804	-0.3407987	-0.01219097	2.1381085	0.219062	0.039164231	0.0045099285	-0.046525138	-0.47541731	0.083938592	-0.015071987	1.7247259	0.35881562	0.42415601	0.031584052	0.00013117446	0.00018346286	0.0026624653	0.015483096	0.0048751659	0.00076008015	0.58688937	0.024700809	0.031622378	0.029833076	7.9702943	7.7532495	0.40378371	7.5561226	0.39631606	4.1568113	6.631765	7.97119	0.031212563	0.25050219	7.5921217	0.45784927	7.6223207	4.0534971	1.326772	-143.09062	R0:S0:1	-105.68	uncorrelated	51514b8	 2.03e+02	 1.78e-02	 2.05e-02	2022-04-08@22:31
2x2_2C_8b_C2v_L	0.1	14	1.79	1.3982839	-8.8080064	-9.9189301	0.189048	-9.9521276	0.2288913	-0.13087786	-10.650882	15	0.14101777	-0.005317841	0.009205818	-0.078659193	0.0024540451	0.083888385	0.021790126	-0.0044912235	0.0079253886	-0.69904854	1.1315241	-0.016930433	-1.1319707	0.0093648126	-0.088598486	-1.4952989	1.27	0.63	0.15	-0.32544789	0.88082771	9.5535533e-05	1.9998299	1.9953132	0.00058909641	1.9974401	0.011713429	1.3498926	1.974891	1.8807833	-0.0018192197	0.042835079	-0.34110525	0.012279828	-0.23645887	-0.095105067	-2.1364309	-0.21779647	-0.023086084	0.0043828686	-0.083961782	-0.015329128	0.046414191	-0.4705755	1.7348288	0.36022147	0.42422756	0.031580401	9.7415283e-05	0.00017270076	0.0048869706	0.00076193091	0.0026529794	0.015206144	0.58933975	0.024810359	0.031618683	0.0294955	7.9706274	7.5566581	0.39572049	7.7535657	0.40097659	4.1569832	6.6276582	7.9716481	0.030886892	0.45736588	7.6229216	0.25021277	7.595196	4.0576148	1.3303668	-143.04957	R0:S0:1	-105.68	uncorrelated	51514b8	 2.03e+02	 1.54e-02	 2.05e-02	2022-04-08@22:35
2x2_2C_8b_C2v_L	0.1	14	1.79	1.3931853	-8.808324	-9.9163145	0.22076006	-9.9500883	0.19999113	-0.1304412	-10.641841	15	0.13957995	0.0027912333	0.002268869	-0.082751846	0.0093015574	0.080194669	-0.021578345	0.0044437886	-0.0051054259	-0.70031636	1.1306085	0.0097502541	-1.1325059	-0.016968001	-0.08861843	-1.4945821	1.27	0.63	0.15	-0.3253565	0.88032405	7.8601318e-05	1.9998391	1.9974112	0.012436141	1.9953282	0.000605455	1.3443516	1.9747485	1.8802795	-0.0024367322	-0.038930555	-0.2367181	0.098286847	-0.34036604	-0.013745106	2.1330214	0.21775627	0.0039295088	0.0042863496	-0.04685826	-0.48151991	0.083840625	-0.021323686	1.7476692	0.36210476	0.42415784	0.031646723	7.9845509e-05	0.00016322822	0.0026825448	0.016246604	0.0048702886	0.00077796135	0.59184372	0.024948122	0.031685122	0.029640058	7.9706935	7.7517584	0.41189128	7.5568728	0.3976315	4.1589736	6.6213834	7.9715931	0.030845007	0.25206729	7.5838249	0.45719107	7.6211687	4.0607586	1.3362045	-143.02179	R0:S0:1	-105.68	uncorrelated	51514b8	 2.03e+02	 1.70e-02	 2.04e-02	2022-04-08@22:38
2x2_2C_8b_C2v_L	0.1	14	1.79	1.3831356	-8.8089422	-9.9119291	0.18158003	-9.9457765	0.23211738	-0.13081536	-10.624879	15	0.13930737	-0.0091332778	0.0089728228	-0.077510615	0.0020867421	0.084172151	0.021753127	-0.0045599089	0.012367375	-0.70062029	1.1318462	-0.016743596	-1.1315554	0.0097469564	-0.088548163	-1.4934511	1.27	0.63	0.15	-0.32550001	0.8809629	0.00017717191	1.9998103	1.9953129	0.00058793044	1.9974366	0.011932924	1.3508792	1.9748942	1.8809186	-0.00083272127	0.048826065	-0.3411338	0.011952808	-0.23608651	-0.096350909	-2.1359693	-0.21773902	-0.054585861	0.0046099423	-0.083953026	-0.014079204	0.046535914	-0.4766782	1.7312353	0.35975629	0.42417363	0.031566666	0.00018206303	0.00019267864	0.0048876934	0.00076491514	0.0026562487	0.015432616	0.58919909	0.024807364	0.031604933	0.030315433	7.9700579	7.5567162	0.39540771	7.7527933	0.40414671	4.1568872	6.630711	7.9705868	0.031449976	0.45729646	7.6232789	0.25097257	7.5917606	4.0554907	1.3273773	-142.97286	R0:S0:1	-105.68	uncorrelated	51514b8	 2.03e+02	 1.89e-02	 2.04e-02	2022-04-08@22:41
