model	E_kin	D	U	e	eb1_1	eb2_1	eb3_1	eb4_1	eb5_1	eb6_1	eb7_1	eb8_1	mu	sb1_1	sb2_1	sb3_1	sb4_1	sb5_1	sb6_1	sb7_1	sb8_1	tb1_1	tb2_1	tb3_1	tb4_1	tb5_1	tb6_1	tb7_1	tb8_1	tpd	tpp	tppp	ave_D	ave_e	ave_mu	ave_tpd	ave_tpp	ave_tppp	ave_D_1	ave_U_1	ave_eb1_1	ave_eb2_1	ave_eb3_1	ave_eb4_1	ave_eb5_1	ave_eb6_1	ave_eb7_1	ave_eb8_1	ave_mu_1	ave_sb1_1	ave_sb2_1	ave_sb3_1	ave_sb4_1	ave_sb5_1	ave_sb6_1	ave_sb7_1	ave_sb8_1	ave_tb1_1	ave_tb2_1	ave_tb3_1	ave_tb4_1	ave_tb5_1	ave_tb6_1	ave_tb7_1	ave_tb8_1	var_D_1	var_U_1	var_eb1_1	var_eb2_1	var_eb3_1	var_eb4_1	var_eb5_1	var_eb6_1	var_eb7_1	var_eb8_1	var_mu_1	var_sb1_1	var_sb2_1	var_sb3_1	var_sb4_1	var_sb5_1	var_sb6_1	var_sb7_1	var_sb8_1	var_tb1_1	var_tb2_1	var_tb3_1	var_tb4_1	var_tb5_1	var_tb6_1	var_tb7_1	var_tb8_1	E0_1	sector_1	E0_2	sector_2	githash	iterations	dist_function	distance	diff_hybrid	time
2x2_2C_8b_C2v_L	6.7624903	0.1	14	2.06	0.6893719	-12.972957	-13.801209	-3.2370928	-13.802781	-3.2278884	0.39067285	-9.1828206	13.5	-0.00012421422	1.6045462e-05	-0.11100794	0.20464478	-0.095406148	0.23426456	0.00078833774	0.0002443418	-0.076205864	-1.0594614	1.527677	0.23062333	-1.5692372	-0.17898531	-0.060326357	-1.6261283	1.36	0.677	0.153	-0.062732383	1.3145279	1.6694629	-0.30992216	-0.042711313	0.019077791	-0.13729795	0.062797739	0.00044846081	1.9816792	1.9616793	1.9853081	1.9593951	1.9894176	0.00010975729	1.8945154	1.0618106	0.00047555385	8.348162e-06	-0.075323897	-0.18582621	-0.083883345	-0.19114433	-0.0047428052	-0.00013894181	0.073131958	0.49569481	-0.75698872	-0.44954401	0.78016602	0.37000457	0.035931266	1.3226076	0.68209912	0.016183875	0.00045144906	0.018273218	0.03799857	0.014655569	0.040239332	0.010580302	0.00011048735	0.10182459	0.016250368	3.3579064	4.7775744	4.5247221	4.3446988	4.5349029	4.3070241	4.1498952	4.6373335	4.6469648	3.3886315	3.7690367	3.7584731	3.7764534	3.7652432	3.8510554	4.0205205	-169.24848	R0:S0:1	-91.52	uncorrelated	51514b8	0	sharp_wc_2.0_b_50	 8.97e+01	 1.00e+06	2022-04-11@05:44
2x2_2C_8b_C2v_L	6.762664	0.1	14	2.06	0.6893719	-12.972957	-13.801209	-3.2370928	-13.802781	-3.2278884	0.39067285	-9.1828206	13.52	-0.00012421422	1.6045462e-05	-0.11100794	0.20464478	-0.095406148	0.23426456	0.00078833774	0.0002443418	-0.076205864	-1.0594614	1.527677	0.23062333	-1.5692372	-0.17898531	-0.060326357	-1.6261283	1.36	0.677	0.153	-0.0638505	1.3145351	1.669643	-0.30980938	-0.042708391	0.019074078	-0.13976978	0.063275859	0.00045813661	1.9816488	1.961628	1.9851362	1.9593422	1.9892851	0.0001102064	1.8940984	1.0622881	0.00049268976	-1.2791114e-05	-0.077486833	-0.18743668	-0.086096426	-0.19251003	-0.004820593	-0.00010623649	0.073414264	0.49588804	-0.7572276	-0.45215323	0.78036529	0.37243764	0.035896306	1.3253737	0.68112254	0.016348076	0.00046130688	0.018303666	0.03805004	0.014825918	0.040292386	0.01071219	0.0001109602	0.10221014	0.016414148	3.3550483	4.7807075	4.5272699	4.3483742	4.5377234	4.3107877	4.150857	4.6394918	4.6500052	3.3859469	3.7667223	3.7558359	3.7739076	3.7622538	3.8501002	4.0205464	-169.33344	R0:S0:1	-91.68	uncorrelated	51514b8	0	sharp_wc_2.0_b_50	 9.39e+01	 1.00e+06	2022-04-11@05:47
2x2_2C_8b_C2v_L	6.7625116	0.1	14	2.06	0.68959266	-12.972943	-13.801298	-3.2371436	-13.80288	-3.2278991	0.39104	-9.1828191	13.54	-8.4478176e-05	-5.3176233e-05	-0.11080263	0.20593211	-0.09518655	0.23555657	0.00065544334	0.0001118092	-0.076555912	-1.058638	1.5258929	0.22923807	-1.56726	-0.17807103	-0.061641069	-1.6232423	1.36	0.677	0.153	-0.065144479	1.3145379	1.6697512	-0.30975414	-0.042711312	0.019072052	-0.14289768	0.063652969	0.00047387851	1.9816275	1.9616623	1.9850463	1.9593815	1.9891741	0.00011536144	1.8940348	1.062663	0.00036715296	-2.5707766e-07	-0.080146799	-0.18982783	-0.088827957	-0.19469126	-0.004068867	-3.3857159e-05	0.074013514	0.49611002	-0.75661083	-0.45319573	0.77970906	0.37417879	0.036660529	1.3258223	0.68002563	0.016505785	0.00047733945	0.018325027	0.038017579	0.014915207	0.040255149	0.010823039	0.00011619948	0.10227028	0.016573623	3.3543044	4.7817684	4.5292272	4.3514375	4.5395192	4.3139998	4.1512325	4.639842	4.6510232	3.3852153	3.7643417	3.7530905	3.7716111	3.7595461	3.8497765	4.0209065	-169.41141	R0:S0:1	-91.84	uncorrelated	51514b8	0	sharp_wc_2.0_b_50	 9.85e+01	 1.00e+06	2022-04-11@05:51
2x2_2C_8b_C2v_L	6.7623687	0.1	14	2.06	0.69041712	-12.972899	-13.801234	-3.2373097	-13.80284	-3.2280017	0.39253822	-9.1820225	13.56	-0.00010389843	-2.2039748e-05	-0.11065571	0.2067263	-0.095115463	0.23590423	0.00019044793	-2.6437921e-05	-0.078187228	-1.0554944	1.526417	0.2277304	-1.5670389	-0.17711588	-0.063132368	-1.6219168	1.36	0.677	0.153	-0.066395522	1.3145403	1.6699009	-0.30969536	-0.042722514	0.019073745	-0.1456464	0.064084793	0.00050635357	1.981702	1.9615796	1.9849971	1.9593406	1.989105	0.00012024999	1.8937075	1.0630891	0.00044624277	-5.7698814e-05	-0.082651122	-0.19166952	-0.091289648	-0.19613826	-0.0011925183	9.1653799e-05	0.075907231	0.49488303	-0.75717728	-0.45366042	0.77977441	0.37524874	0.037481352	1.3281433	0.67899308	0.016670079	0.00051035206	0.018251214	0.038100005	0.01496402	0.040296758	0.010891903	0.00012114821	0.10257165	0.016738613	3.351609	4.7841843	4.5317894	4.3540067	4.5423768	4.317455	4.1530435	4.6406906	4.6541769	3.3823393	3.7622544	3.7506124	3.7689587	3.7563906	3.8480143	4.0216905	-169.49145	R0:S0:1	-92	uncorrelated	51514b8	0	sharp_wc_2.0_b_50	 1.04e+02	 1.00e+06	2022-04-11@05:54
2x2_2C_8b_C2v_L	6.7625383	0.1	14	2.06	0.69229206	-12.972472	-13.801112	-3.2376186	-13.802771	-3.2281761	0.39593442	-9.1803469	13.58	-0.00010313515	-3.7655932e-05	-0.11002565	0.2092055	-0.09434648	0.23726396	-0.00043693123	5.9406054e-05	-0.076177104	-1.0571568	1.5271818	0.22468786	-1.5664094	-0.17546993	-0.063548682	-1.6195944	1.36	0.677	0.153	-0.067733823	1.3145486	1.6700624	-0.30957235	-0.042712045	0.01906572	-0.14887336	0.064515868	0.00049241061	1.9815951	1.9614902	1.9850598	1.9593096	1.9890585	0.00012309734	1.8935848	1.0635204	0.00033167122	8.4334381e-05	-0.085717892	-0.19434339	-0.094403048	-0.19817099	0.0029221837	-0.00017751709	0.074222034	0.49626285	-0.7577651	-0.45203361	0.77979665	0.37573461	0.037715922	1.3288574	0.67782786	0.016845142	0.00049623723	0.018357678	0.0381892	0.014902299	0.040328422	0.01093861	0.00012406542	0.10268761	0.016915334	3.35066	4.7858344	4.5347874	4.356116	4.5446238	4.3202269	4.1527013	4.6420836	4.6550706	3.3817847	3.7597591	3.747635	3.7666786	3.7536345	3.8483878	4.0214741	-169.56965	R0:S0:1	-92.16	uncorrelated	51514b8	0	sharp_wc_2.0_b_50	 1.09e+02	 1.00e+06	2022-04-11@05:58
2x2_2C_8b_C2v_L	6.7622892	0.1	14	2.06	0.69479326	-12.972089	-13.800875	-3.2380465	-13.802612	-3.2284241	0.40076844	-9.1777795	13.6	-0.00010287138	-5.1287899e-05	-0.10941181	0.21220295	-0.093540512	0.23860827	-0.00083541857	-0.00031660084	-0.078949728	-1.0537028	1.5293116	0.22082495	-1.5665302	-0.17339706	-0.063879621	-1.6184775	1.36	0.677	0.153	-0.069220696	1.3145499	1.6702385	-0.30951754	-0.042729816	0.019069847	-0.15231926	0.065022773	0.00054512846	1.9816861	1.961328	1.9851783	1.9592535	1.9890428	0.0001258099	1.8931676	1.0640148	0.00040073119	-4.1233146e-05	-0.089122932	-0.19724921	-0.097748285	-0.20024243	0.005500865	0.00018781581	0.07735762	0.49474438	-0.75908846	-0.44935343	0.77995887	0.37549127	0.037820719	1.3318209	0.67656938	0.01704714	0.0005498351	0.018267516	0.038350131	0.014785383	0.04038515	0.010954658	0.00012685685	0.10307157	0.017119607	3.3471952	4.7890615	4.5380396	4.3575611	4.5479137	4.3236827	4.1550616	4.6430986	4.6592638	3.3780103	3.7575633	3.7449122	3.7636555	3.7500136	3.8460514	4.0225358	-169.64689	R0:S0:1	-92.32	uncorrelated	51514b8	0	sharp_wc_2.0_b_50	 1.16e+02	 1.00e+06	2022-04-11@06:01
2x2_2C_8b_C2v_L	6.7625262	0.1	14	2.06	0.69848115	-12.971276	-13.800492	-3.2386121	-13.802346	-3.2287484	0.40760398	-9.174147	13.62	-0.00011774209	-3.5661764e-05	-0.10855433	0.21641721	-0.092600056	0.24034718	-0.00097398265	-0.00028000787	-0.078270982	-1.0553788	1.5330319	0.21579494	-1.5673135	-0.17064068	-0.065342789	-1.6166555	1.36	0.677	0.153	-0.070657839	1.3145592	1.6704437	-0.30937145	-0.042720933	0.019062059	-0.15565955	0.065508203	0.0005498571	1.9815832	1.9610794	1.985396	1.9591632	1.9890861	0.0001327916	1.8929253	1.0644937	0.00047771322	-8.4806279e-05	-0.092661419	-0.20038736	-0.10110568	-0.20224693	0.0064604069	0.00021656896	0.077016019	0.49600626	-0.76129443	-0.4448991	0.78044707	0.3740551	0.038646003	1.3333242	0.67532181	0.017241963	0.00055465249	0.018370041	0.038595665	0.014570515	0.040475297	0.010912029	0.00013396633	0.10329758	0.017317569	3.3455859	4.7914791	4.5415097	4.3578677	4.551428	4.3267113	4.1550955	4.6450051	4.6610415	3.376687	3.7557248	3.7425112	3.7606208	3.7463618	3.8460852	4.0223481	-169.72396	R0:S0:1	-92.48	uncorrelated	51514b8	0	sharp_wc_2.0_b_50	 1.22e+02	 1.00e+06	2022-04-11@06:04
2x2_2C_8b_C2v_L	6.7623851	0.1	14	2.06	0.70316391	-12.970373	-13.800018	-3.2393324	-13.802004	-3.2291411	0.41648082	-9.1694529	13.64	-0.00011928226	-4.2736703e-05	-0.10778798	0.22210544	-0.091218299	0.24285489	-0.0007880012	-0.00016816476	-0.08097089	-1.0536422	1.5373903	0.20889112	-1.5683021	-0.16722538	-0.066869711	-1.6144934	1.36	0.677	0.153	-0.072291191	1.3145625	1.6706405	-0.30928525	-0.042732482	0.019062595	-0.15947333	0.066020573	0.00060742726	1.9816051	1.9608125	1.9857489	1.9590485	1.9891451	0.00013813511	1.8926195	1.0649891	0.00045186679	-5.4570427e-06	-0.096618693	-0.20414253	-0.10509308	-0.20471122	0.0053349699	6.2768451e-05	0.080119958	0.49549215	-0.76355654	-0.43774767	0.78121961	0.3721397	0.039456918	1.3354483	0.67391995	0.017459142	0.00061324985	0.018348649	0.038859792	0.014222071	0.040589432	0.01085414	0.00013936344	0.10358009	0.017539673	3.3431465	4.794246	4.5460645	4.3581424	4.5545213	4.3290674	4.1566579	4.6460365	4.6643082	3.3739695	3.7530592	3.7391336	3.7580829	3.7432085	3.8445808	4.0231179	-169.79725	R0:S0:1	-92.64	uncorrelated	51514b8	0	sharp_wc_2.0_b_50	 1.30e+02	 1.00e+06	2022-04-11@06:08
2x2_2C_8b_C2v_L	6.7626042	0.1	14	2.06	0.70923346	-12.969114	-13.799304	-3.24019	-13.801504	-3.2296269	0.4277887	-9.1633754	13.66	-9.8167563e-05	-7.1463059e-05	-0.10574662	0.22882122	-0.089949997	0.24544103	-0.00011356734	-6.3985143e-05	-0.082036174	-1.0539611	1.5449275	0.20170837	-1.5706502	-0.16307222	-0.068320706	-1.613276	1.36	0.677	0.153	-0.073954292	1.3145717	1.6709087	-0.30912287	-0.042731953	0.019057656	-0.16332306	0.06663124	0.00064287505	1.9815592	1.9603429	1.9860865	1.958915	1.9892832	0.00014223409	1.8921972	1.0655828	0.0006914283	-0.00037132151	-0.1014577	-0.20827713	-0.10906536	-0.20711998	0.000642147	0.00056068672	0.081646349	0.49585768	-0.76802123	-0.43074859	0.78185024	0.36840348	0.040219514	1.3382371	0.67239949	0.017700917	0.00064932197	0.01839463	0.039322175	0.013889229	0.040722965	0.010717436	0.00014345874	0.10397089	0.017786578	3.3401117	4.7979121	4.5497481	4.356259	4.560621	4.333805	4.1578417	4.6482118	4.6679096	3.3709752	3.7524103	3.7378707	3.7529461	3.737171	3.8434484	4.0234126	-169.87264	R0:S0:1	-92.8	uncorrelated	51514b8	0	sharp_wc_2.0_b_50	 1.39e+02	 1.00e+06	2022-04-11@06:11
2x2_2C_8b_C2v_L	6.7625935	0.1	14	2.06	0.71650623	-12.967623	-13.798576	-3.2412312	-13.800955	-3.2301669	0.4413012	-9.156203	13.68	-0.00012582324	-4.1370934e-05	-0.10443308	0.23756554	-0.087895084	0.24931805	0.00081754316	0.00015946591	-0.083497996	-1.0539512	1.5516767	0.19133176	-1.5726591	-0.15819224	-0.070126839	-1.6110194	1.36	0.677	0.153	-0.075746359	1.3145774	1.6711479	-0.30899906	-0.042738242	0.019055318	-0.16753857	0.067197625	0.00068879297	1.9815186	1.9599521	1.9866756	1.9587378	1.9894201	0.00015172537	1.8918724	1.0661265	0.00082434662	-0.00032980746	-0.10621087	-0.21285113	-0.11375459	-0.21003049	-0.0056621025	0.00044622478	0.083610468	0.49618384	-0.77140508	-0.41863133	0.78321773	0.3646307	0.041180479	1.3403948	0.67082347	0.017946999	0.00069607801	0.018435345	0.039708228	0.013307395	0.040898415	0.010582582	0.00015312331	0.10427194	0.018039961	3.3376308	4.801096	4.555451	4.3551119	4.5639242	4.3354498	4.1589343	4.6498411	4.6711179	3.3684198	3.7495227	3.734108	3.7505458	3.7340887	3.8424453	4.0238752	-169.94277	R0:S0:1	-92.96	uncorrelated	51514b8	0	sharp_wc_2.0_b_50	 1.49e+02	 1.00e+06	2022-04-11@06:14
2x2_2C_8b_C2v_L	6.7625675	0.1	14	2.06	0.72807566	-12.965354	-13.797598	-3.2429317	-13.800102	-3.2308223	0.46115378	-9.1456628	13.7	-0.0001468489	-5.6038655e-05	-0.097136219	0.24527801	-0.084785925	0.25350555	0.00016287595	3.909583e-05	-0.083538834	-1.0519162	1.5619038	0.17572559	-1.5764776	-0.1509975	-0.072151695	-1.6090895	1.36	0.677	0.153	-0.077689337	1.3145838	1.6714159	-0.3088671	-0.042748216	0.019054257	-0.17229431	0.067773222	0.00071029535	1.9815548	1.9593204	1.987785	1.9584725	1.9897548	0.00015736742	1.8914019	1.0666807	0.00078824378	-0.00024262528	-0.11382522	-0.21492604	-0.11939334	-0.21236642	-0.0011907167	0.00035436555	0.084137524	0.4953862	-0.77721692	-0.39707952	0.78536626	0.35683664	0.042194566	1.3435987	0.66918838	0.018213683	0.00071784401	0.018399726	0.040329819	0.012207724	0.04116058	0.010250842	0.00015874358	0.10470626	0.018312625	3.3337292	4.8049651	4.5619229	4.3498889	4.5682375	4.3363166	4.1609158	4.6517454	4.675445	3.3645758	3.7474632	3.7308303	3.7477946	3.7304112	3.8405339	4.0246779	-170.00688	R0:S0:1	-93.12	uncorrelated	51514b8	1	sharp_wc_2.0_b_50	 1.60e+02	 8.43e-04	2022-04-11@06:20
2x2_2C_8b_C2v_L	6.7627845	0.1	14	2.06	0.74124545	-12.962548	-13.796503	-3.2448673	-13.799135	-3.2315726	0.48385534	-9.1334743	13.72	-0.00016707325	-8.8481673e-05	-0.088708949	0.25417413	-0.080982787	0.25816125	-0.00021026442	5.3898107e-06	-0.086147469	-1.0536455	1.5730918	0.15750193	-1.5807579	-0.14275301	-0.076823263	-1.6072244	1.36	0.677	0.153	-0.079741631	1.314594	1.6717311	-0.30867797	-0.042747824	0.019048105	-0.17729019	0.068405246	0.00077891884	1.981454	1.9586219	1.9890318	1.9581737	1.9901521	0.00017728371	1.8909325	1.0672858	0.00073863311	-0.00011134182	-0.12218865	-0.21666753	-0.12553704	-0.21459838	0.0013881061	0.00017949279	0.087275049	0.49647378	-0.78357689	-0.3713694	0.78780918	0.34748171	0.044764569	1.3465881	0.66742179	0.018503144	0.00078770624	0.018500399	0.041016605	0.010970698	0.04145548	0.0098568129	0.00017892179	0.10514153	0.01861107	3.3308975	4.8091284	4.5689715	4.3439874	4.5727485	4.3368419	4.1618325	4.6546538	4.67932	3.3616324	3.7452383	3.7273164	3.7449966	3.7266239	3.8398141	4.0247695	-170.07025	R0:S0:1	-93.28	uncorrelated	51514b8	0	sharp_wc_2.0_b_50	 1.73e+02	 1.00e+06	2022-04-11@06:24
2x2_2C_8b_C2v_L	6.7627782	0.1	14	2.06	0.75801225	-12.959135	-13.795271	-3.2472446	-13.798004	-3.2324327	0.51219015	-9.1187758	13.74	-0.00013356462	-0.00012600971	-0.076937497	0.26304353	-0.075735598	0.26281119	-0.00055569195	-0.00020127832	-0.089692735	-1.0521321	1.5852452	0.13439201	-1.5853742	-0.13250554	-0.072848552	-1.6041601	1.36	0.677	0.153	-0.081910905	1.3146011	1.6720376	-0.30852482	-0.042759682	0.019046904	-0.18258637	0.068993709	0.00086940618	1.9814705	1.957824	1.9906009	1.9578403	1.9907069	0.00015738053	1.890496	1.0678506	0.00051417288	-3.4955349e-05	-0.13213803	-0.2163042	-0.13244081	-0.2159495	0.0037021139	0.00017963004	0.091389558	0.49593796	-0.79084773	-0.33704505	0.79057438	0.3346049	0.042213381	1.3495707	0.66562419	0.018800059	0.00087990629	0.018484431	0.041800073	0.0094110269	0.04178417	0.0093057719	0.00015858101	0.1055444	0.018915354	3.3274873	4.8132251	4.5762966	4.335856	4.5773677	4.3363757	4.1636878	4.6563807	4.6840842	3.3577557	3.7433665	3.724024	3.7423058	3.7228152	3.8377813	4.0257219	-170.12479	R0:S0:1	-93.44	uncorrelated	51514b8	0	sharp_wc_2.0_b_50	 1.90e+02	 1.00e+06	2022-04-11@06:27
2x2_2C_8b_C2v_L	6.7628088	0.1	14	2.06	0.77892467	-12.954927	-13.793999	-3.2499849	-13.796742	-3.2333994	0.54469637	-9.1009716	13.76	-8.4804782e-05	-4.9097368e-05	-0.061207271	0.27246289	-0.068801064	0.26695172	-0.00046772829	-0.00012887366	-0.087847782	-1.0509319	1.5966476	0.10719937	-1.5898287	-0.12051175	-0.081722509	-1.6028242	1.36	0.677	0.153	-0.08422823	1.3146097	1.672379	-0.30835514	-0.042768677	0.01904456	-0.18852351	0.069692666	0.00085443133	1.9814792	1.9570165	1.9922983	1.9574907	1.9913862	0.00019510376	1.8897943	1.0685217	0.00019064262	7.8701312e-05	-0.14396015	-0.21443431	-0.14049534	-0.21630499	0.0031135442	-4.7419041e-05	0.090004502	0.49541148	-0.79807116	-0.29578942	0.793475	0.31872298	0.047099404	1.354185	0.66362605	0.019143549	0.00086409754	0.018476392	0.042591807	0.0077208025	0.042128501	0.0086300456	0.00019678017	0.10619235	0.019266941	3.3220808	4.8185386	4.5838658	4.327546	4.5819128	4.33524	4.1659352	4.6598957	4.6894549	3.3528339	3.7410787	3.7202814	3.7396502	3.7188565	3.8359021	4.0262435	-170.17459	R0:S0:1	-93.6	uncorrelated	51514b8	0	sharp_wc_2.0_b_50	 2.06e+02	 1.00e+06	2022-04-11@06:30
2x2_2C_8b_C2v_L	6.762865	0.1	14	2.06	0.80323725	-12.949971	-13.792659	-3.2531183	-13.795316	-3.2344177	0.5824594	-9.0809851	13.78	7.1672481e-05	-1.4935466e-05	-0.042289722	0.28143889	-0.06072215	0.27089196	-0.00011148455	-4.8071881e-05	-0.09006093	-1.0490078	1.6079128	0.076277832	-1.5943798	-0.10701686	-0.079877977	-1.5988948	1.36	0.677	0.153	-0.086651898	1.3146189	1.672734	-0.30817151	-0.042779144	0.019041715	-0.19464372	0.070389251	0.00091866202	1.9815054	1.956149	1.994012	1.9571421	1.9921567	0.00018187252	1.8893459	1.0691957	-0.00037711789	1.7634489e-05	-0.15718761	-0.21019202	-0.14901646	-0.21580608	0.00064400548	-2.4918538e-05	0.092728471	0.49472573	-0.80581266	-0.24778092	0.79617957	0.29983895	0.045745133	1.357248	0.66144635	0.019501153	0.00092921983	0.018450816	0.043440528	0.0060102816	0.042471918	0.0078627109	0.00018317307	0.10660636	0.019632286	3.3182291	4.8228429	4.590905	4.3187959	4.5878304	4.3351417	4.1679437	4.6617159	4.6943254	3.348731	3.7393422	3.7173346	3.7356493	3.713383	3.8337812	4.0273377	-170.21603	R0:S0:1	-93.76	uncorrelated	51514b8	0	sharp_wc_2.0_b_50	 2.29e+02	 1.00e+06	2022-04-11@06:33
2x2_2C_8b_C2v_L	6.7631132	0.1	14	2.06	0.832952	-12.943514	-13.791703	-3.2568583	-13.793765	-3.2351314	0.62378362	-9.05805	13.8	0.00027326738	0.00012104178	-0.020830466	0.28391213	-0.052613508	0.2736955	0.00071758659	0.00022809406	-0.095567727	-1.0520125	1.6113205	0.045419191	-1.5974072	-0.094126184	-0.0831581	-1.5962354	1.36	0.677	0.153	-0.089302067	1.3146324	1.6731509	-0.30793531	-0.042779353	0.019034438	-0.20161041	0.071312651	0.0010586559	1.9813608	1.9557082	1.9955507	1.9568314	1.992844	0.00019506077	1.8887256	1.0701052	-0.0014444554	0.00034153457	-0.17110177	-0.2015802	-0.15833769	-0.2148494	-0.0046087252	-0.00063672624	0.098969319	0.49627999	-0.80908901	-0.19742035	0.79870289	0.28236779	0.04736438	1.3612187	0.65884588	0.019942168	0.00107172	0.01859527	0.043870704	0.0044693032	0.042777464	0.0071774274	0.00019641928	0.10718089	0.020079702	3.3145319	4.8288432	4.5986183	4.3160358	4.5915147	4.3340648	4.169326	4.6654618	4.7000821	3.344507	3.733787	3.7102185	3.733144	3.7094756	3.8325307	4.0276929	-170.2484	R0:S0:1	-93.92	uncorrelated	51514b8	0	sharp_wc_2.0_b_50	 2.55e+02	 1.00e+06	2022-04-11@06:36
2x2_2C_8b_C2v_L	6.7632398	0.1	14	2.06	0.86779009	-12.936195	-13.790695	-3.2608528	-13.791973	-3.2355225	0.66833866	-9.0328761	13.82	0.00044618319	0.00024623864	-0.00056975921	0.28548259	-0.045262552	0.27709266	0.00030146724	9.3615209e-05	-0.096037333	-1.0506712	1.6125364	0.014911987	-1.6003986	-0.082344312	-0.086291531	-1.5932341	1.36	0.677	0.153	-0.091848469	1.3146437	1.6735631	-0.30772943	-0.042788055	0.019030919	-0.20805771	0.072258095	0.0010838918	1.9813709	1.9553828	1.9967594	1.9565204	1.9934133	0.00020452382	1.8880487	1.07104	-0.0025404324	0.00077272689	-0.18397374	-0.19165684	-0.16695472	-0.2143102	-0.001674524	-0.0012533732	0.099885919	0.4956935	-0.81118419	-0.14693638	0.80119965	0.26677714	0.048835898	1.3657412	0.65625842	0.020381266	0.0010965813	0.018585872	0.044187423	0.003256105	0.04308323	0.0066099194	0.00020583339	0.10780492	0.02052293	3.3088666	4.8347716	4.6059458	4.3161593	4.595289	4.3338279	4.171884	4.668545	4.7062118	3.3390222	3.7277053	3.7029188	3.7305717	3.7056275	3.8300751	4.0286534	-170.27139	R0:S0:1	-94.08	uncorrelated	51514b8	1	sharp_wc_2.0_b_50	 2.85e+02	 1.10e-03	2022-04-11@06:42
2x2_2C_8b_C2v_L	6.7634981	0.1	14	2.06	0.90723059	-12.927723	-13.789666	-3.2652258	-13.790006	-3.2356092	0.71600372	-9.0054083	13.84	0.00068339717	0.00032189291	0.019659956	0.28522322	-0.03843211	0.28013538	-0.00014824692	-4.5489228e-05	-0.099605372	-1.0503626	1.6112417	-0.014575175	-1.6028246	-0.071756248	-0.090537	-1.5903465	1.36	0.677	0.153	-0.09462515	1.3146574	1.6740611	-0.30747765	-0.042797487	0.019026717	-0.21503931	0.073456972	0.0011844408	1.9813487	1.9551862	1.997621	1.95627	1.9938646	0.00022052009	1.8872837	1.0722267	-0.0038314492	0.0011666692	-0.19712957	-0.18045907	-0.17581574	-0.21429549	0.0013654257	-0.0018378115	0.1041759	0.49546123	-0.8119124	-0.097799958	0.8028796	0.25341246	0.050915347	1.3708502	0.65313942	0.020903607	0.0011983138	0.018608806	0.04437754	0.0023892114	0.043330411	0.0061599257	0.0002218649	0.10850967	0.021050165	3.3028508	4.8419087	4.6131872	4.3200577	4.6005388	4.336584	4.1749373	4.6719078	4.7137202	3.3326767	3.7204293	3.6945654	3.7260559	3.699631	3.8271796	4.0298409	-170.28811	R0:S0:1	-94.24	uncorrelated	51514b8	1	sharp_wc_2.0_b_50	 3.25e+02	 1.09e-03	2022-04-11@06:48
2x2_2C_8b_C2v_L	6.7641478	0.1	14	2.06	0.95709305	-12.914336	-13.787295	-3.2676703	-13.787603	-3.2287106	0.72033835	-8.993483	13.86	0.00042525176	0.00025703953	-0.03391761	0.28467958	-0.06372169	0.27316827	-0.00035131056	-0.0001723813	-0.10323629	-1.0506975	1.6046535	0.064841506	-1.5888508	-0.11134019	-0.090504796	-1.5878018	1.36	0.677	0.153	-0.097034211	1.3146757	1.6747263	-0.3071621	-0.042810267	0.019022766	-0.21908595	0.075624191	0.0013184121	1.9813052	1.9562764	1.9939761	1.9574513	1.9908262	0.00022499354	1.8867729	1.0744061	-0.0022499055	0.00060934975	-0.18210751	-0.21869559	-0.16977858	-0.23241313	0.0024669717	-0.00091581796	0.10942452	0.49533693	-0.8006008	-0.24498746	0.78994614	0.32728843	0.050919023	1.3748397	0.64872584	0.021557726	0.0013333068	0.018652907	0.043330126	0.0060480516	0.042184043	0.0091923527	0.00022637527	0.10897721	0.021701307	3.2947876	4.8514779	4.6187231	4.3553153	4.6089121	4.3735222	4.1804138	4.6713446	4.723619	3.3241039	3.7083478	3.6799654	3.7095672	3.6820919	3.8217585	4.0331656	-170.29621	R0:S0:1	-94.4	uncorrelated	51514b8	2	sharp_wc_2.0_b_50	 3.74e+02	 5.26e-04	2022-04-11@06:57
2x2_2C_8b_C2v_L	6.7650976	0.1	14	2.06	1.0176204	-12.895594	-13.78869	-3.2761099	-13.786031	-3.2165052	0.67290035	-8.9995712	13.88	-0.0018380942	-0.0016864487	-0.10863363	0.24585263	-0.1013274	0.24667529	-7.2975638e-05	-0.00011945268	-0.10634471	-1.0505665	1.5402174	0.19605223	-1.5475065	-0.18115748	-0.088577602	-1.5866626	1.36	0.677	0.153	-0.098403185	1.314698	1.6753405	-0.30686365	-0.042806282	0.019015195	-0.21966293	0.078732596	0.0014154531	1.9812692	1.9607083	1.9832797	1.9602596	1.9845167	0.00022936718	1.8865391	1.0776238	0.0063900343	0.00039194799	-0.14929655	-0.25653536	-0.1526257	-0.25295269	0.0002538076	0.00042259757	0.11388323	0.49514352	-0.75624497	-0.46557737	0.76045541	0.4454155	0.050371713	1.3774262	0.64352576	0.022277866	0.0014300259	0.018689397	0.038997902	0.016670052	0.039438421	0.015448134	0.00023093581	0.10918673	0.022389315	3.2865443	4.8607359	4.6111899	4.4463048	4.6158674	4.4402517	4.1869808	4.6676868	4.732873	3.3155928	3.6843317	3.6608238	3.6832572	3.6584862	3.8152442	4.0374217	-170.30467	R0:S0:1	-94.56	uncorrelated	51514b8	2	sharp_wc_2.0_b_50	 4.09e+02	 8.86e-04	2022-04-11@07:05
2x2_2C_8b_C2v_L	6.7656664	0.1	14	2.06	1.0889645	-12.868571	-13.790727	-3.3128909	-13.782719	-3.2063913	0.54030845	-9.0326954	13.9	-0.00201262	-0.0013154074	-0.11486334	0.24615453	-0.091133065	0.24940781	0.0020246795	6.8688363e-06	-0.10932564	-1.0504281	1.5338031	0.20684374	-1.5554053	-0.16220125	-0.083144298	-1.5865794	1.36	0.677	0.153	-0.10125829	1.314717	1.6759159	-0.30654143	-0.042807468	0.019005391	-0.22628037	0.07997948	0.0014807075	1.9811778	1.9611091	1.9819015	1.9598236	1.9861427	0.00023653015	1.8867524	1.0788715	0.0085394853	-0.0016318286	-0.15240481	-0.26467153	-0.16261181	-0.25117358	-0.016816178	0.0031312628	0.11688639	0.49596466	-0.75178238	-0.48619749	0.76327623	0.41676699	0.047930231	1.3767857	0.63993188	0.022816667	0.0014948115	0.018781102	0.038607697	0.01803087	0.039870885	0.01383698	0.00023952799	0.10899192	0.022930268	3.2821119	4.8665791	4.6115328	4.4591978	4.630289	4.4427871	4.1906551	4.6636402	4.7381624	3.3111698	3.6797987	3.6562969	3.6721132	3.644369	3.8115709	4.0413614	-170.44965	R0:S0:1	-94.72	uncorrelated	51514b8	1	sharp_wc_2.0_b_50	 4.81e+02	 2.13e-02	2022-04-11@07:11
2x2_2C_8b_C2v_L	6.7661793	0.1	14	2.06	1.1643428	-12.831981	-13.794089	-3.3716733	-13.779215	-3.1927271	0.37103206	-9.079815	13.92	-0.00072451457	-0.0005551505	-0.072494511	0.28228688	-0.064002327	0.27268373	-0.0021245414	-0.00051175937	-0.11671932	-1.0509639	1.5849334	0.12529255	-1.5845213	-0.111852	-0.074964785	-1.5878994	1.36	0.677	0.153	-0.10598649	1.314738	1.6767747	-0.30608724	-0.042831018	0.01899876	-0.23923973	0.080881998	0.0016921665	1.9810463	1.9580753	1.9890548	1.9579099	1.9897375	0.00022386323	1.8869583	1.0796744	0.0020047984	0.00039892537	-0.18457807	-0.25438269	-0.18769226	-0.24800167	0.020053265	-0.00025668057	0.124915	0.49710598	-0.77984514	-0.35864114	0.78125137	0.34563807	0.043741159	1.3763384	0.6353581	0.023548938	0.0017086924	0.018913129	0.041590369	0.010953768	0.041750588	0.010278272	0.00022973634	0.10880673	0.023695924	3.2767197	4.8752024	4.6368661	4.4213395	4.6394093	4.4199683	4.1955796	4.6590337	4.746765	3.304799	3.6754906	3.6439537	3.6740734	3.6412764	3.8064213	4.0470935	-170.67934	R0:S0:1	-94.88	uncorrelated	51514b8	1	sharp_wc_2.0_b_50	 6.31e+02	 5.11e-03	2022-04-11@07:17
2x2_2C_8b_C2v_L	6.7669855	0.1	14	2.06	1.2321868	-12.783528	-13.80505	-3.4508144	-13.777684	-3.1686702	0.36793425	-9.1078176	13.94	-0.0002205035	8.9610011e-05	-0.052030821	0.30026965	-0.063192955	0.27281313	0.0031818844	0.00053070509	-0.1207139	-1.0501229	1.6023493	0.091502323	-1.5840483	-0.10917067	-0.077060717	-1.5891475	1.36	0.677	0.153	-0.10978238	1.3147618	1.6776635	-0.30563778	-0.042847178	0.018991951	-0.24853259	0.082714105	0.0018241294	1.9809485	1.9569796	1.9912161	1.9580472	1.9895382	0.00027810326	1.8867903	1.0814705	0.0018507639	-0.0012797141	-0.20271255	-0.25236715	-0.19579448	-0.25270593	-0.031911852	0.0017676785	0.12987971	0.49761879	-0.78897951	-0.30826688	0.77829674	0.34857007	0.044932013	1.3783685	0.63021584	0.024355557	0.0018412596	0.019011804	0.04266682	0.0088062799	0.041622673	0.010478273	0.00028778792	0.10896207	0.024515779	3.2681298	4.8858973	4.6496844	4.4162413	4.6504168	4.4360967	4.2018585	4.655862	4.7572575	3.2959809	3.6687671	3.6341534	3.6611456	3.6258215	3.8004734	4.052313	-170.86236	R0:S0:1	-95.04	uncorrelated	51514b8	1	sharp_wc_2.0_b_50	 7.75e+02	 1.98e-02	2022-04-11@07:24
2x2_2C_8b_C2v_L	6.7680626	0.1	14	2.06	1.2919762	-12.723306	-13.822993	-3.5500254	-13.777754	-3.1333927	0.5265069	-9.1172598	13.96	-3.6074208e-07	-9.7763469e-05	-0.060188824	0.29994292	-0.089809998	0.25704071	-0.0015150606	-0.00039467801	-0.12489439	-1.0486566	1.5970925	0.10641002	-1.5591725	-0.15598324	-0.086955944	-1.5912977	1.36	0.677	0.153	-0.11313902	1.3147895	1.6786886	-0.3051593	-0.042865904	0.018988192	-0.25579533	0.085704299	0.0019970435	1.9808774	1.9577495	1.9901147	1.9598214	1.9846476	0.0002535372	1.8860596	1.0844774	-0.0017694012	0.0017318285	-0.20499619	-0.26285389	-0.18997911	-0.27511683	0.013393131	-0.0022148006	0.13619386	0.49739988	-0.77904455	-0.33015945	0.75980303	0.43730186	0.049675825	1.3843112	0.62386876	0.025340477	0.0020151921	0.019084176	0.041922877	0.0098985537	0.039890201	0.015325979	0.00025726151	0.10963049	0.025496142	3.2549208	4.9012328	4.6678594	4.4475469	4.6523538	4.4816661	4.2116838	4.6540983	4.7728006	3.2823824	3.6456854	3.6093105	3.6451364	3.6117119	3.7907802	4.0582067	-171.00209	R0:S0:1	-95.2	uncorrelated	51514b8	1	sharp_wc_2.0_b_50	 8.82e+02	 4.11e-03	2022-04-11@07:30
2x2_2C_8b_C2v_L	6.7693062	0.1	14	2.06	1.3289717	-12.650571	-13.848379	-3.6591782	-13.778968	-3.0868886	0.76960985	-9.1259206	13.98	0.0056906907	0.0039423116	-0.10090387	0.29563523	-0.083513909	0.26159348	-0.0035474155	-0.00083671976	-0.12697187	-1.0452318	1.574155	0.17115671	-1.5664052	-0.1425503	-0.1005763	-1.5935632	1.36	0.677	0.153	-0.11695571	1.3148195	1.6799116	-0.30460405	-0.042896093	0.018986931	-0.26401028	0.08896269	0.0021945118	1.9808539	1.9598608	1.9845841	1.9596152	1.9851117	0.00032429514	1.8852289	1.0877195	-0.017725631	-0.00074960815	-0.19417816	-0.29470869	-0.20058181	-0.28199078	0.02505159	-0.0016293109	0.1415412	0.49634164	-0.75696082	-0.43148583	0.75913898	0.42510833	0.055916701	1.3910432	0.61686248	0.026438566	0.0022139368	0.019109409	0.039865421	0.015380363	0.040101066	0.014870655	0.00032743209	0.11038953	0.02659959	3.2391604	4.9188588	4.6715068	4.4981039	4.6749695	4.5020393	4.2227128	4.6520241	4.7912995	3.2662602	3.6265036	3.5930497	3.6237846	3.5872036	3.7803482	4.0649202	-171.14031	R0:S0:1	-95.36	uncorrelated	51514b8	1	sharp_wc_2.0_b_50	 9.19e+02	 6.83e-03	2022-04-11@07:36
2x2_2C_8b_C2v_L	6.7706334	0.1	14	2.06	1.3245175	-12.565748	-13.884055	-3.7754184	-13.784136	-3.0170075	1.0214043	-9.1566487	14	-0.0025555369	-0.0014132316	-0.12653781	0.29047782	-0.080005605	0.25648311	0.0045424822	0.0011481311	-0.12746156	-1.0408749	1.552223	0.21757795	-1.5645164	-0.13760668	-0.11511202	-1.5982423	1.36	0.677	0.153	-0.12094157	1.3148521	1.6812031	-0.30401999	-0.042926151	0.018985509	-0.27307654	0.092352739	0.0023838011	1.9808377	1.9616916	1.980139	1.9600089	1.9849457	0.00038171224	1.8845565	1.0911114	0.010380761	-0.0023968755	-0.18988631	-0.31783883	-0.2085976	-0.28738714	-0.027595394	0.0035343425	0.14675753	0.49511069	-0.73732691	-0.49817853	0.75234942	0.42500051	0.062284969	1.3970737	0.60938189	0.027611166	0.002405592	0.019127644	0.038075389	0.019760981	0.039723113	0.015034423	0.00038418208	0.1110023	0.027771916	3.2225326	4.9374889	4.6748217	4.5398779	4.6979791	4.5311621	4.2352101	4.6477288	4.8109949	3.2491868	3.6087844	3.5786283	3.5980531	3.5587904	3.7683328	4.0731031	-171.28879	R0:S0:1	-95.52	uncorrelated	51514b8	1	sharp_wc_2.0_b_50	 8.49e+02	 7.43e-03	2022-04-11@07:42
2x2_2C_8b_C2v_L	6.7723373	0.1	14	2.06	1.2750561	-12.468763	-13.929756	-3.8965783	-13.793035	-2.9200705	1.2702991	-9.2135531	14.02	-0.0028820132	-0.0018866755	-0.14006269	0.29076678	-0.084081369	0.24958577	0.0025501067	0.00078013281	-0.12608007	-1.0358556	1.5413465	0.24297315	-1.5585665	-0.14400316	-0.12836699	-1.6048863	1.36	0.677	0.153	-0.12521219	1.3148907	1.6826892	-0.30333132	-0.042956561	0.018982506	-0.28285647	0.096030622	0.0026588919	1.980818	1.9629719	1.977724	1.9606709	1.9831098	0.00039240554	1.8841733	1.0947869	0.010849015	-0.0014499696	-0.19070426	-0.33484961	-0.21471127	-0.30103943	-0.013727732	0.0023363576	0.15223154	0.49380949	-0.7219226	-0.52861666	0.74341197	0.45136303	0.067576144	1.4016485	0.60115332	0.028890305	0.0026851634	0.019149572	0.036825829	0.022130595	0.039081029	0.016851473	0.00039374377	0.11134924	0.029052649	3.2051609	4.9575685	4.6904672	4.5773573	4.7146639	4.5657233	4.2495093	4.6401756	4.8329294	3.2308475	3.5837298	3.5552923	3.5753861	3.5352513	3.7542214	4.0833293	-171.45146	R0:S0:1	-95.68	uncorrelated	51514b8	1	sharp_wc_2.0_b_50	 7.21e+02	 2.75e-03	2022-04-11@07:48
2x2_2C_8b_C2v_L	6.7741701	0.1	14	2.06	1.1797672	-12.359642	-13.985347	-4.0219439	-13.805921	-2.7959559	1.5142101	-9.2971884	14.04	0.0028348473	0.0020157001	-0.14313768	0.29894401	-0.091425065	0.23625544	-0.0066671331	-0.0024531921	-0.12140221	-1.0283558	1.5446838	0.24807347	-1.5455046	-0.1576279	-0.14264847	-1.6138408	1.36	0.677	0.153	-0.12982958	1.3149321	1.6843652	-0.30258467	-0.042998189	0.018983288	-0.29381408	0.10009841	0.0029789933	1.9808721	1.963523	1.9773275	1.9617714	1.9800265	0.00048812437	1.8840167	1.0988519	-0.0095266654	-0.00064800929	-0.19769594	-0.34780952	-0.21972942	-0.31862055	0.02957005	-0.00031629711	0.15688121	0.49131154	-0.71324131	-0.52958967	0.73010732	0.49425811	0.073164571	1.405331	0.5919364	0.030324143	0.0030118151	0.019098378	0.036294545	0.022514929	0.038006805	0.019891342	0.00048983992	0.11148659	0.030488059	3.1850432	4.9802608	4.714748	4.6067866	4.729394	4.6083463	4.2665692	4.6288053	4.8586998	3.2094531	3.5556488	3.5264626	3.5507244	3.5116262	3.7378665	4.096179	-171.62479	R0:S0:1	-95.84	uncorrelated	51514b8	1	sharp_wc_2.0_b_50	 5.98e+02	 1.13e-03	2022-04-11@07:54
2x2_2C_8b_C2v_L	6.7767226	0.1	14	2.06	1.0341906	-12.23827	-14.050692	-4.1491621	-13.82284	-2.6422097	1.7464395	-9.4098425	14.06	-0.0002993342	-9.8437727e-05	-0.13998095	0.32216083	-0.095040192	0.22068822	-0.011405254	-0.0042728429	-0.11570202	-1.020743	1.5673863	0.23427287	-1.5328382	-0.16687701	-0.15655314	-1.6251654	1.36	0.677	0.153	-0.13509905	1.3149845	1.6864879	-0.30162621	-0.043048229	0.018984584	-0.30654757	0.10493083	0.0035618869	1.9809232	1.9631505	1.9780819	1.9629308	1.9768669	0.00061285062	1.8840949	1.1036579	-0.00046811544	0.0010788555	-0.2119243	-0.36374754	-0.22690098	-0.33705614	0.045631353	-0.0005187102	0.16527141	0.48847219	-0.71341406	-0.51212134	0.71528047	0.53309696	0.078268349	1.4081867	0.58086773	0.032024406	0.003609722	0.019050715	0.036676474	0.021773785	0.036874477	0.022995675	0.00061526031	0.11140801	0.032198599	3.1624064	5.0077513	4.7455184	4.6303962	4.7513271	4.6585358	4.2872905	4.6129953	4.8914589	3.1836249	3.5270445	3.4944151	3.5183492	3.4809361	3.7180198	4.1125529	-171.81407	R0:S0:1	-96	uncorrelated	51514b8	1	sharp_wc_2.0_b_50	 4.92e+02	 1.72e-03	2022-04-11@07:59
2x2_2C_8b_C2v_L	6.7797273	0.1	14	2.06	0.83009298	-12.104488	-14.127581	-4.2765116	-13.843404	-2.4533687	1.9569573	-9.553736	14.08	0.0009782173	0.00054354326	-0.12385435	0.34599826	-0.087282256	0.21389107	-0.0028089759	-0.0012084559	-0.10590848	-1.0095388	1.5971275	0.20368412	-1.5366307	-0.15188744	-0.17329382	-1.6406528	1.36	0.677	0.153	-0.14120562	1.315045	1.6890972	-0.30049649	-0.04312264	0.018994293	-0.32228439	0.11045555	0.0045103473	1.9811192	1.9623662	1.9802069	1.9631876	1.976173	0.00056603459	1.8841413	1.1091405	-0.0056234513	0.0010514104	-0.23495067	-0.372921	-0.24342824	-0.35115996	0.011153377	-0.0018309785	0.17618488	0.48317023	-0.71717877	-0.47498802	0.70868751	0.53572756	0.08420328	1.4122042	0.5678167	0.034061538	0.0045909212	0.018859452	0.037464926	0.019685436	0.03663327	0.023683851	0.00056693741	0.11135659	0.034251176	3.1349272	5.0418678	4.7804578	4.6513142	4.7820114	4.6993797	4.3145028	4.5929416	4.9355573	3.1502819	3.4960917	3.4567167	3.483339	3.4426386	3.690758	4.1337008	-172.00804	R0:S0:1	-96.16	uncorrelated	51514b8	1	sharp_wc_2.0_b_50	 4.10e+02	 2.40e-03	2022-04-11@08:05
2x2_2C_8b_C2v_L	6.7837042	0.1	14	2.06	0.56684033	-11.958012	-14.216131	-4.4034457	-13.867866	-2.2283951	2.1452847	-9.7291365	14.1	-0.00011860287	-0.00025030307	-0.096679283	0.3729831	-0.067331751	0.21296374	0.01544717	0.006765194	-0.091833098	-0.99599331	1.6309402	0.15822196	-1.5535747	-0.11670735	-0.18892564	-1.6583527	1.36	0.677	0.153	-0.14811963	1.3151208	1.6924483	-0.29908084	-0.043221992	0.019013792	-0.34135667	0.11745262	0.0063918971	1.9814322	1.9613617	1.9829093	1.9627456	1.977868	0.00078008331	1.8844015	1.1160837	-0.00038667264	0.00075804073	-0.26643412	-0.37873722	-0.26964769	-0.35927739	-0.052079879	-0.0037276639	0.1954559	0.47551595	-0.72192365	-0.42513936	0.70768228	0.5040745	0.089137112	1.416063	0.55152567	0.036618165	0.0065735474	0.018552323	0.038471666	0.017029438	0.037084154	0.022044014	0.00078276098	0.11110603	0.036829684	3.1032765	5.0859493	4.8217615	4.6786874	4.8248635	4.7387855	4.3483146	4.5658956	4.9996812	3.106348	3.4585987	3.4095662	3.4407526	3.3903942	3.658452	4.1608646	-172.20415	R0:S0:1	-96.32	uncorrelated	51514b8	1	sharp_wc_2.0_b_50	 3.49e+02	 1.44e-03	2022-04-11@08:11
2x2_2C_8b_C2v_L	6.788879	0.1	14	2.06	0.32213156	-11.791568	-14.318803	-4.5223145	-13.899251	-1.9377485	2.2904073	-9.9356349	14.12	0.00090808612	0.00030907164	-0.095200193	0.38848453	-0.070295443	0.18894835	0.014152952	0.0062702338	-0.07635009	-0.98022563	1.6451631	0.15448692	-1.5388344	-0.12376853	-0.20694275	-1.6804198	1.36	0.677	0.153	-0.15364371	1.3152084	1.6961607	-0.29749498	-0.043315776	0.019037648	-0.35545185	0.12620563	0.0096394364	1.9818082	1.9620398	1.982204	1.9643358	1.9720091	0.00082511333	1.8846616	1.1248282	-0.010061892	0.0030038991	-0.27873114	-0.40113792	-0.2776327	-0.39728005	-0.044328094	-0.0062955867	0.22532635	0.46660867	-0.70862513	-0.42394316	0.68608336	0.56449191	0.095227096	1.4207824	0.53418969	0.039182804	0.010157557	0.018182087	0.037825691	0.017723807	0.035527655	0.027786772	0.00082735659	0.11084826	0.039400259	3.0722736	5.1349632	4.8744592	4.7392277	4.8675916	4.8232144	4.3880085	4.5339165	5.0839727	3.0562836	3.4013801	3.3503928	3.3833019	3.3411594	3.6193879	4.1913444	-172.30043	R0:S0:1	-96.48	uncorrelated	51514b8	1	sharp_wc_2.0_b_50	 3.08e+02	 5.07e-03	2022-04-11@08:17
2x2_2C_8b_C2v_L	6.7943989	0.1	14	2.06	0.32100021	-11.592902	-14.438714	-4.6211833	-13.934977	-1.5274417	2.36814	-10.168062	14.14	0.0013174937	0.00024981292	-0.14380034	0.37917473	-0.059834455	0.16175894	-0.022401818	-0.01006518	-0.077033837	-0.9720557	1.6198866	0.22835677	-1.531449	-0.11070273	-0.22072084	-1.7032795	1.36	0.677	0.153	-0.15869437	1.315301	1.6999039	-0.29587528	-0.043392228	0.019058558	-0.36770731	0.13587522	0.011624449	1.9818377	1.9655975	1.9757959	1.9653544	1.9664132	0.0011348763	1.8854127	1.1345284	-0.019559453	0.0071757494	-0.26056277	-0.4499974	-0.29113928	-0.43516448	0.077509725	-0.0071007993	0.2544253	0.46189781	-0.66682251	-0.50525353	0.66935215	0.6082215	0.10056523	1.4224112	0.51657079	0.041735572	0.012224614	0.018158466	0.034338661	0.023998223	0.034529727	0.033269405	0.0011404618	0.11014311	0.041949138	3.0331471	5.1895673	4.9224481	4.8279229	4.9189302	4.9113134	4.4268725	4.4983129	5.1491175	3.0046277	3.331749	3.2955616	3.3203191	3.2874368	3.5826155	4.2231245	-172.13812	R0:S0:1	-96.64	uncorrelated	51514b8	2	sharp_wc_2.0_b_50	 2.93e+02	 1.03e-03	2022-04-11@08:27
2x2_2C_8b_C2v_L	6.7992709	0.1	14	2.06	0.55459742	-11.361683	-14.578666	-4.7023747	-13.974375	-0.98337177	2.3767927	-10.426572	14.16	0.0038131125	0.0015850077	-0.21079653	0.33256815	-0.04352689	0.1283966	-0.079989026	-0.037486728	-0.093009036	-0.97013933	1.5326933	0.35505025	-1.5245781	-0.089692463	-0.22038309	-1.7169808	1.36	0.677	0.153	-0.16278258	1.3153855	1.7032651	-0.29448124	-0.043451833	0.019079261	-0.37586496	0.14671252	0.010819804	1.9815833	1.971865	1.9656752	1.9661083	1.9542288	0.0050484797	1.8880983	1.1454691	-0.041564164	0.015607142	-0.21568617	-0.49714847	-0.30494937	-0.50288558	0.27188666	-0.010797266	0.26954034	0.46027953	-0.59378467	-0.61724949	0.6556366	0.69279429	0.10435995	1.4108125	0.49975446	0.044099496	0.011076029	0.018420022	0.028135435	0.033857374	0.033781555	0.045192875	0.0050996011	0.10765738	0.044288935	2.9712579	5.2520005	4.9733545	4.9413974	4.9662329	5.0254675	4.4507466	4.4510119	5.1850312	2.9487834	3.2422791	3.2433852	3.2586599	3.2505302	3.5816352	4.2527028	-171.68424	R0:S0:1	-96.8	uncorrelated	51514b8	1	sharp_wc_2.0_b_50	 2.93e+02	 1.02e-02	2022-04-11@08:34
2x2_2C_8b_C2v_L	6.8059519	0.1	14	2.06	0.89970947	-11.100695	-14.741183	-4.7703103	-13.96624	-0.36814995	2.2660934	-10.699741	14.18	0.01269954	0.0069799183	-0.23095202	0.31459109	-0.018840031	0.08701603	-0.13705394	-0.061063542	-0.11228249	-0.96763023	1.4980923	0.40042169	-1.5138743	-0.064852947	-0.20404636	-1.7179263	1.36	0.677	0.153	-0.16586856	1.3154911	1.7085917	-0.29271409	-0.043597391	0.019165615	-0.37457063	0.16562386	0.011550624	1.9817526	1.9753294	1.9632215	1.9666246	1.9047541	0.014941557	1.8925257	1.1644693	-0.094280835	0.039649609	-0.18485042	-0.51911125	-0.31927126	-0.72039445	0.49901837	-0.036421999	0.30758687	0.44751952	-0.54254133	-0.6230769	0.64283482	0.94235177	0.11499971	1.3892176	0.47494808	0.046781308	0.011621695	0.018264002	0.024700472	0.036262717	0.033235197	0.092872837	0.015034947	0.10354539	0.046964609	2.8390114	5.3795954	5.0955795	5.0710705	5.0168574	5.2854041	4.4681607	4.3758889	5.2918317	2.8231561	3.106802	3.1345837	3.1746498	3.2820433	3.6197693	4.2904086	-170.9977	R0:S0:1	-96.96	uncorrelated	51514b8	1	sharp_wc_2.0_b_50	 2.90e+02	 1.55e-02	2022-04-11@08:40
2x2_2C_8b_C2v_L	6.8149951	0.1	14	2.06	1.2370244	-10.818196	-14.929503	-4.7954413	-13.851312	0.31859141	1.9934637	-10.946527	14.2	0.0128133	0.0075139991	-0.22098277	0.35691559	-0.017310209	-0.066020592	-0.1448996	-0.06526079	-0.13004089	-0.96243475	1.5674026	0.3521938	-1.505565	-0.08329429	-0.18588883	-1.7275219	1.36	0.677	0.153	-0.17116069	1.3156279	1.7144134	-0.29026711	-0.043706494	0.019216198	-0.38209658	0.18127989	0.011158233	1.9817976	1.9744379	1.9650251	1.9673308	0.11867288	0.021087439	1.8948417	1.1800788	-0.090636609	0.049980385	-0.19943278	-0.55253031	-0.32997876	1.0298388	0.60023696	-0.045755707	0.32801475	0.4379713	-0.54368443	-0.57882385	0.62693333	0.83955114	0.11826449	1.3807638	0.45356707	0.049411289	0.011177996	0.018232724	0.025613512	0.034476549	0.032539572	0.11403379	0.02118719	0.10138346	0.04963189	2.7281947	5.4865548	5.1923001	5.1369397	5.0843672	3.2763528	4.4934426	4.3204222	5.3853095	2.7208694	3.0222887	3.048476	3.0891568	5.3919011	3.6278907	4.3278674	-170.50955	R0:S0:1	-97.12	uncorrelated	51514b8	4	sharp_wc_2.0_b_50	 2.82e+02	 6.36e-04	2022-04-11@08:57
2x2_2C_8b_C2v_L	6.8183211	0.1	14	2.06	0.32186803	-10.562204	-15.194252	-4.5494267	-12.752746	0.21966167	0.13162421	-9.3010524	14.22	0.011582892	0.0050651579	-0.17839841	0.38472524	-0.011223998	0.066813587	-0.059192141	-0.0093198873	-0.081410129	-0.930582	1.6474417	0.26511666	-1.4393788	0.070387267	-0.046860675	-1.5760133	1.36	0.677	0.153	-0.17478357	1.3156992	1.7222421	-0.2890946	-0.044174092	0.019518053	-0.37376	0.21774291	0.041291587	1.9841332	1.972773	1.967904	1.9653278	0.16898811	0.14208545	1.8841705	1.2167167	-0.17236516	0.068090988	-0.21828099	-0.57970665	-0.33741813	-1.1786195	1.3558869	-0.10424635	0.6086259	0.38570726	-0.55413758	-0.50937187	0.64001305	-1.0348977	0.2965449	1.4243075	0.43377989	0.053503974	0.041004285	0.015902134	0.027285305	0.031653078	0.03448857	0.15613596	0.14622452	0.11090744	0.05372594	2.6186233	5.7485041	5.2811703	5.1868275	5.1286189	3.4068119	4.0730878	4.4568605	5.6701262	2.4237165	2.9499159	2.9743681	3.0291047	5.4394192	4.5150232	4.1230421	-164.6153	R0:S0:1	-97.28	uncorrelated	51514b8	3	sharp_wc_2.0_b_50	 2.70e+02	 1.89e-03	2022-04-11@09:13
2x2_2C_8b_C2v_L	6.8281998	0.1	14	2.06	-1.6848077	-10.327853	-15.545523	-3.9487566	-10.61986	-0.21323521	-3.3435408	-7.4663874	14.24	0.15060407	0.011978049	-0.18521125	0.32629175	-0.0063260849	0.069292302	-0.00041904477	0.0027302079	0.018772383	-0.94651848	1.6236203	0.27527226	-1.3161009	-0.05670624	0.0011495657	-1.4175464	1.36	0.677	0.153	-0.17623907	1.3158323	1.7214203	-0.28697341	-0.043695474	0.019226532	-0.38659273	0.20415346	1.9895352	1.9816898	1.9751437	1.964087	1.9593282	1.8618598	1.9999995	1.8500178	1.2031765	-0.34411707	0.04254176	-0.21535737	-0.58588796	-0.38467347	-0.93668537	0.00029238378	-0.065137719	-0.082249156	0.42756913	-0.52544681	-0.55834324	0.68754928	1.0714212	-0.0028852041	1.648092	0.4333686	0.053164481	0.010457061	0.018358859	0.024918117	0.035369125	0.040476876	0.13148983	4.6436612e-07	0.14200468	0.053359127	5.5096641	5.6256502	5.3070814	5.2436191	5.1854629	5.4803755	3.4646862	4.6750153	2.5861413	2.5903416	2.9038198	2.9422163	3.0124167	3.2639397	4.5353165	4.2146872	-166.21895	R0:S0:1	-97.44	uncorrelated	51514b8	3	sharp_wc_2.0_b_50	 2.76e+02	 8.68e-04	2022-04-11@09:27
2x2_2C_8b_C2v_L	6.8380106	0.1	14	2.06	-4.782511	-10.134071	-15.96951	-3.0147365	-7.9756422	-0.14317105	-8.4455745	-7.4704146	14.26	0.28926897	-0.021178148	-0.12865259	0.28549276	0.00054781269	-0.058307072	-0.0059896769	0.00491884	-0.03177078	-0.97360682	1.6722948	0.18188237	-1.1422417	0.046876341	-0.40253691	-1.3650329	1.36	0.677	0.153	-0.18026508	1.3159722	1.7266695	-0.28447547	-0.043718332	0.019245982	-0.39063615	0.21838672	1.9930389	1.9804668	1.9748835	1.9646046	1.9481455	1.8515492	1.9903592	1.8593409	1.2173605	-0.33715233	0.072484499	-0.24324032	-0.60294252	-0.45156271	0.99742653	-0.015360484	-0.067721209	-0.007182068	0.43330249	-0.52098352	-0.5213454	0.76403935	-1.0722991	0.41963829	1.6026333	0.4176564	0.05485406	0.0069493152	0.019603014	0.025182021	0.034855449	0.051555169	0.14091897	0.0096080233	0.13362807	0.055086491	5.5771512	5.7195781	5.3895608	5.31795	5.2731122	5.5355764	3.5049594	4.5730451	2.4756021	2.5153972	2.822352	2.8613461	2.9591904	3.2311342	4.5525129	4.2638225	-175.89583	R0:S0:1	-97.6	uncorrelated	51514b8	2	sharp_wc_2.0_b_50	 2.75e+02	 7.55e-03	2022-04-11@09:37
2x2_2C_8b_C2v_L	6.860034	0.1	14	2.06	-8.959848	-9.9860302	-16.409634	-1.7047789	-7.4955931	0.12006566	-15.157887	-8.9130232	14.28	0.44818919	-0.11526529	-0.10040248	0.17961783	0.0015495838	-0.048748092	-0.68994677	0.20092178	-0.22280172	-0.9746863	1.6411097	0.15350573	-1.1069212	-0.054710021	-0.74360575	-1.5415676	1.36	0.677	0.153	-0.18420429	1.3162576	1.7365899	-0.2792235	-0.043717302	0.019270265	-0.38871425	0.24073997	1.9928914	1.9802789	1.9779664	1.9507319	1.9482861	0.17125929	1.988142	1.8677199	1.2392342	-0.3448244	0.14326985	-0.24118337	-0.68306706	-0.46122411	1.1054478	0.13977809	-0.12484187	0.07406	0.41676966	-0.47425021	-0.60135015	0.74019926	1.1265963	0.43238631	1.569963	0.39615154	0.05596638	0.0070978768	0.019807937	0.022098529	0.048224366	0.051466243	0.15894293	0.011837366	0.12602863	0.056365319	5.7279612	5.8622166	5.5212047	5.4732161	5.4094506	3.2614327	3.3928504	4.4080681	2.3253828	2.3758499	2.6635401	2.7849141	2.8065655	5.5696359	4.6868404	4.3759011	-197.60127	R0:S0:1	-97.76	uncorrelated	51514b8	3	sharp_wc_2.0_b_50	 2.64e+02	 1.19e-03	2022-04-11@09:51
2x2_2C_8b_C2v_L	6.9111429	0.1	14	2.06	-14.216831	-9.8878957	-16.815841	-0.27384931	-9.1913256	0.13913482	-23.511021	-11.84964	14.3	0.62134869	-0.26218914	-0.023177393	-0.081804556	-0.0022203268	-0.0528815	-1.4995908	0.39430022	-0.56518914	-0.93828212	1.6472147	-0.073716716	-1.2227534	-0.060706773	-1.0235017	-1.9776665	1.36	0.677	0.153	-0.18441829	1.3169034	1.7541171	-0.26789346	-0.043222935	0.019164022	-0.36273553	0.2725272	1.990707	1.981905	1.9789048	1.8439908	1.9625778	0.16554966	1.9863961	1.8712783	1.270146	-0.37513731	0.21656942	-0.26555954	1.2044729	-0.36705031	0.91114942	0.24307771	-0.10303332	0.14984716	0.35714699	-0.4490202	0.91308435	0.59569227	1.2203311	0.41333239	1.5725636	0.37559607	0.054570834	0.0092792556	0.018187035	0.021104559	0.14511848	0.037419122	0.15388254	0.013588138	0.12288009	0.055282939	5.9613025	6.0666093	5.6512544	5.5168423	5.6832282	3.2494149	3.2029963	4.2192337	2.1075616	2.1496467	2.4758775	3.2038513	2.5177076	5.5203472	4.8949246	4.5216938	-232.50511	R0:S0:1	-97.92	uncorrelated	51514b8	3	sharp_wc_2.0_b_50	 2.44e+02	 3.10e-03	2022-04-11@10:10
2x2_2C_8b_C2v_L	6.9597623	0.1	14	2.06	-20.557616	-9.8365062	-17.15532	0.23209531	-12.804327	-0.19622183	-33.504933	-16.237279	14.32	0.737356	-0.44451893	-0.021777771	0.076096966	-0.011935022	-0.071539951	-2.5300278	0.53882286	-1.0423314	-0.83573596	1.6603712	-0.076870811	-1.438675	0.065279908	-1.1627898	-2.6538517	1.36	0.677	0.153	-0.18561137	1.3175216	1.7692043	-0.25714191	-0.042536379	0.018938114	-0.35219366	0.29675012	1.9903765	1.9818091	1.9807877	0.17786265	1.9747803	1.8311208	1.9862137	1.8721847	1.2934216	-0.35067015	0.37759601	-0.25624714	-0.93456074	-0.29595303	1.309064	0.30594107	-0.098090179	0.18081608	0.28723674	-0.41329028	1.3351734	0.47090259	-0.87766675	0.34439238	1.5861519	0.36192271	0.053753854	0.0096251719	0.018253222	0.019232066	0.16481197	0.025261075	0.15701827	0.013785262	0.12205604	0.054822369	6.1508775	6.1922789	5.8053493	3.2444635	5.8375946	5.5121577	3.0451762	4.0921607	1.9295692	1.9939739	2.3073301	5.4850883	2.311618	3.1976607	5.0702086	4.6355287	-282.52446	R0:S0:1	-98.08	uncorrelated	51514b8	3	sharp_wc_2.0_b_50	 2.37e+02	 2.85e-03	2022-04-11@10:26
2x2_2C_8b_C2v_L	7.0127354	0.1	14	2.06	-27.983883	-9.8302241	-17.275281	-0.22207786	-18.253395	-0.27990039	-45.138792	-22.047447	14.34	0.75524225	-0.66334542	-0.022590008	-0.074071685	-0.028601507	0.081181063	-3.8432375	0.60625028	-1.6472042	-0.66660551	1.6632927	-0.079130797	-1.7105245	-0.082115691	-1.1523986	-3.5735157	1.36	0.677	0.153	-0.18564835	1.3181928	1.7842549	-0.24558581	-0.041629901	0.018602603	-0.34466713	0.32078953	1.9910727	1.977435	1.9825337	1.8174902	1.9836403	1.840558	1.9856691	1.8710261	1.3165219	-0.29192293	0.59173627	-0.24802791	1.4011902	-0.23571624	-1.3387663	0.35200592	-0.074913924	0.19456354	0.20330679	-0.3778766	0.90816965	0.3642682	0.83241786	0.26635042	1.6131308	0.35232491	0.052791176	0.0089475786	0.022520994	0.017503878	0.17109098	0.016404126	0.14996148	0.01434682	0.12303701	0.054231518	6.3192186	6.2570071	5.975659	5.4794068	5.995752	5.5463678	2.9075833	3.9977683	1.7688898	1.903238	2.1303523	3.1875651	2.1139384	3.05301	5.2326578	4.7286663	-345.23448	R0:S0:1	-98.24	uncorrelated	51514b8	3	sharp_wc_2.0_b_50	 2.32e+02	 3.64e-03	2022-04-11@10:42
2x2_2C_8b_C2v_L	7.0676987	0.1	14	2.06	-36.499708	-9.8766508	-17.139124	-0.21742217	-25.390891	-0.38011331	-58.412682	-29.25334	14.36	0.60737642	-0.84618808	-0.022044335	0.07325411	-0.05263594	-0.090121738	-5.4762903	0.56527143	-2.2531949	-0.44298638	1.6566572	0.078803316	-2.0085852	0.099614724	-0.97894141	-4.753141	1.36	0.677	0.153	-0.18419338	1.3188861	1.7990732	-0.23374793	-0.040581505	0.018198121	-0.33372468	0.34645083	1.9930016	1.9697319	1.9840798	1.8202451	1.9893056	1.8563025	1.9845223	1.8677926	1.3413258	-0.19831315	0.79355907	-0.23888351	-1.4498855	-0.18573049	1.3333931	0.3867199	-0.03746643	0.18518383	0.11249509	-0.34337037	-0.84358353	0.2818413	-0.76512661	0.18953819	1.6526504	0.3466797	0.051144565	0.0070250556	0.029955988	0.015977232	0.17082599	0.010729336	0.13711196	0.015517454	0.12586117	0.052923418	6.4876295	6.3019291	6.1625642	5.500287	6.1590864	5.6284423	2.7901392	3.9316408	1.5947214	1.8373689	1.9411244	3.0772244	1.9243197	2.8571133	5.3825443	4.8019727	-419.08158	R0:S0:1	-98.4	uncorrelated	51514b8	3	sharp_wc_2.0_b_50	 2.28e+02	 7.32e-03	2022-04-11@11:00
2x2_2C_8b_C2v_L	7.1099228	0.1	14	2.06	-46.107003	-9.9833497	-16.715947	0.18107939	-34.2105	-0.77986659	-73.335865	-37.869394	14.38	0.28470081	-0.97896829	-0.019188076	0.082044036	-0.11709099	-0.11024767	-7.3179026	0.39611571	-2.8078531	-0.17918767	1.6323212	-0.064481229	-2.2957992	0.14921233	-0.64102192	-6.1311423	1.36	0.677	0.153	-0.18281191	1.3194158	1.8103818	-0.22468621	-0.039735427	0.017862566	-0.32680815	0.36793	1.9947593	1.9613073	1.985082	0.20817429	1.9930256	1.9072334	1.9830553	1.8672726	1.3621287	-0.096568206	0.94709406	-0.24062134	-0.90938241	-0.1329884	1.1049535	0.41280902	0.023209537	0.16834438	0.010165867	-0.31787087	1.5371299	0.2188946	-0.62853845	0.12843854	1.6683818	0.34455139	0.049570781	0.0052628424	0.037985596	0.01497866	0.20319368	0.0070019878	0.090813225	0.017014233	0.12630404	0.05161567	6.6131313	6.3211922	6.3085142	3.1217762	6.2925773	5.9243359	2.7237417	3.8801438	1.458183	1.8094871	1.7809568	5.4131476	1.7805368	2.4288577	5.4838942	4.8594276	-504.5281	R0:S0:1	-98.56	uncorrelated	51514b8	3	sharp_wc_2.0_b_50	 2.27e+02	 8.77e-03	2022-04-11@11:18
2x2_2C_8b_C2v_L	7.1383816	0.1	14	2.06	-56.810315	-10.173326	-15.980591	0.16710556	-44.707711	-1.6177763	-89.919121	-47.914545	14.4	-0.18889567	-1.0134811	-0.017481407	-0.08066588	-0.25916177	-0.15582793	-9.2420323	0.0928399	-3.1690739	0.10720712	1.5961447	0.063265873	-2.5511734	0.24218175	-0.14178078	-7.624619	1.36	0.677	0.153	-0.18145426	1.319774	1.8185331	-0.21859483	-0.039203332	0.017653963	-0.31024547	0.38794657	1.9963069	1.957048	1.9856385	0.22143486	1.9954932	1.9336423	1.9822571	1.8697102	1.3818199	0.015577426	1.0147539	-0.23809344	0.90662755	-0.068943594	0.94688044	0.42147355	0.057641103	0.13574732	-0.068810673	-0.29914388	-1.6034346	0.16810337	-0.53607896	0.058290419	1.6640375	0.34554069	0.046588417	0.0037073058	0.042006156	0.014430881	0.21848802	0.0045238328	0.065678477	0.017844004	0.12406309	0.048722322	6.7491305	6.4037582	6.4386075	3.1060317	6.4023177	6.1545013	2.6646049	3.8077404	1.3050651	1.7160505	1.6462731	5.3616136	1.6575093	2.160044	5.5720837	4.9243513	-602.56941	R0:S0:1	-98.72	uncorrelated	51514b8	2	sharp_wc_2.0_b_50	 2.28e+02	 3.79e-03	2022-04-11@11:32
